%!PS-Adobe-3.0 EPSF-3.0
%%Creator: (MATLAB, The Mathworks, Inc. Version 9.3.0.713579 \(R2017b\). Operating System: Windows 7)
%%Title: ./dataIn.eps
%%CreationDate: 2018-03-04T15:46:04
%%Pages: (atend)
%%BoundingBox:    15     9   412   435
%%LanguageLevel: 3
%%EndComments
%%BeginProlog
%%BeginResource: procset (Apache XML Graphics Std ProcSet) 1.2 0
%%Version: 1.2 0
%%Copyright: (Copyright 2001-2003,2010 The Apache Software Foundation. License terms: http://www.apache.org/licenses/LICENSE-2.0)
/bd{bind def}bind def
/ld{load def}bd
/GR/grestore ld
/GS/gsave ld
/RM/rmoveto ld
/C/curveto ld
/t/show ld
/L/lineto ld
/ML/setmiterlimit ld
/CT/concat ld
/f/fill ld
/N/newpath ld
/S/stroke ld
/CC/setcmykcolor ld
/A/ashow ld
/cp/closepath ld
/RC/setrgbcolor ld
/LJ/setlinejoin ld
/GC/setgray ld
/LW/setlinewidth ld
/M/moveto ld
/re {4 2 roll M
1 index 0 rlineto
0 exch rlineto
neg 0 rlineto
cp } bd
/_ctm matrix def
/_tm matrix def
/BT { _ctm currentmatrix pop matrix _tm copy pop 0 0 moveto } bd
/ET { _ctm setmatrix } bd
/iTm { _ctm setmatrix _tm concat } bd
/Tm { _tm astore pop iTm 0 0 moveto } bd
/ux 0.0 def
/uy 0.0 def
/F {
  /Tp exch def
  /Tf exch def
  Tf findfont Tp scalefont setfont
  /cf Tf def  /cs Tp def
} bd
/ULS {currentpoint /uy exch def /ux exch def} bd
/ULE {
  /Tcx currentpoint pop def
  gsave
  newpath
  cf findfont cs scalefont dup
  /FontMatrix get 0 get /Ts exch def /FontInfo get dup
  /UnderlinePosition get Ts mul /To exch def
  /UnderlineThickness get Ts mul /Tt exch def
  ux uy To add moveto  Tcx uy To add lineto
  Tt setlinewidth stroke
  grestore
} bd
/OLE {
  /Tcx currentpoint pop def
  gsave
  newpath
  cf findfont cs scalefont dup
  /FontMatrix get 0 get /Ts exch def /FontInfo get dup
  /UnderlinePosition get Ts mul /To exch def
  /UnderlineThickness get Ts mul /Tt exch def
  ux uy To add cs add moveto Tcx uy To add cs add lineto
  Tt setlinewidth stroke
  grestore
} bd
/SOE {
  /Tcx currentpoint pop def
  gsave
  newpath
  cf findfont cs scalefont dup
  /FontMatrix get 0 get /Ts exch def /FontInfo get dup
  /UnderlinePosition get Ts mul /To exch def
  /UnderlineThickness get Ts mul /Tt exch def
  ux uy To add cs 10 mul 26 idiv add moveto Tcx uy To add cs 10 mul 26 idiv add lineto
  Tt setlinewidth stroke
  grestore
} bd
/QT {
/Y22 exch store
/X22 exch store
/Y21 exch store
/X21 exch store
currentpoint
/Y21 load 2 mul add 3 div exch
/X21 load 2 mul add 3 div exch
/X21 load 2 mul /X22 load add 3 div
/Y21 load 2 mul /Y22 load add 3 div
/X22 load /Y22 load curveto
} bd
/SSPD {
dup length /d exch dict def
{
/v exch def
/k exch def
currentpagedevice k known {
/cpdv currentpagedevice k get def
v cpdv ne {
/upd false def
/nullv v type /nulltype eq def
/nullcpdv cpdv type /nulltype eq def
nullv nullcpdv or
{
/upd true def
} {
/sametype v type cpdv type eq def
sametype {
v type /arraytype eq {
/vlen v length def
/cpdvlen cpdv length def
vlen cpdvlen eq {
0 1 vlen 1 sub {
/i exch def
/obj v i get def
/cpdobj cpdv i get def
obj cpdobj ne {
/upd true def
exit
} if
} for
} {
/upd true def
} ifelse
} {
v type /dicttype eq {
v {
/dv exch def
/dk exch def
/cpddv cpdv dk get def
dv cpddv ne {
/upd true def
exit
} if
} forall
} {
/upd true def
} ifelse
} ifelse
} if
} ifelse
upd true eq {
d k v put
} if
} if
} if
} forall
d length 0 gt {
d setpagedevice
} if
} bd
/RE { % /NewFontName [NewEncodingArray] /FontName RE -
  findfont dup length dict begin
  {
    1 index /FID ne
    {def} {pop pop} ifelse
  } forall
  /Encoding exch def
  /FontName 1 index def
  currentdict definefont pop
  end
} bind def
%%EndResource
%%BeginResource: procset (Apache XML Graphics EPS ProcSet) 1.0 0
%%Version: 1.0 0
%%Copyright: (Copyright 2002-2003 The Apache Software Foundation. License terms: http://www.apache.org/licenses/LICENSE-2.0)
/BeginEPSF { %def
/b4_Inc_state save def         % Save state for cleanup
/dict_count countdictstack def % Count objects on dict stack
/op_count count 1 sub def      % Count objects on operand stack
userdict begin                 % Push userdict on dict stack
/showpage { } def              % Redefine showpage, { } = null proc
0 setgray 0 setlinecap         % Prepare graphics state
1 setlinewidth 0 setlinejoin
10 setmiterlimit [ ] 0 setdash newpath
/languagelevel where           % If level not equal to 1 then
{pop languagelevel             % set strokeadjust and
1 ne                           % overprint to their defaults.
{false setstrokeadjust false setoverprint
} if
} if
} bd
/EndEPSF { %def
count op_count sub {pop} repeat            % Clean up stacks
countdictstack dict_count sub {end} repeat
b4_Inc_state restore
} bd
%%EndResource
%FOPBeginFontDict
%%IncludeResource: font Courier-Oblique
%%IncludeResource: font Courier-BoldOblique
%%IncludeResource: font Courier-Bold
%%IncludeResource: font ZapfDingbats
%%IncludeResource: font Symbol
%%IncludeResource: font Helvetica
%%IncludeResource: font Helvetica-Oblique
%%IncludeResource: font Helvetica-Bold
%%IncludeResource: font Helvetica-BoldOblique
%%IncludeResource: font Times-Roman
%%IncludeResource: font Times-Italic
%%IncludeResource: font Times-Bold
%%IncludeResource: font Times-BoldItalic
%%IncludeResource: font Courier
%FOPEndFontDict
%%BeginResource: encoding WinAnsiEncoding
/WinAnsiEncoding [
/.notdef /.notdef /.notdef /.notdef /.notdef
/.notdef /.notdef /.notdef /.notdef /.notdef
/.notdef /.notdef /.notdef /.notdef /.notdef
/.notdef /.notdef /.notdef /.notdef /.notdef
/.notdef /.notdef /.notdef /.notdef /.notdef
/.notdef /.notdef /.notdef /.notdef /.notdef
/.notdef /.notdef /space /exclam /quotedbl
/numbersign /dollar /percent /ampersand /quotesingle
/parenleft /parenright /asterisk /plus /comma
/hyphen /period /slash /zero /one
/two /three /four /five /six
/seven /eight /nine /colon /semicolon
/less /equal /greater /question /at
/A /B /C /D /E
/F /G /H /I /J
/K /L /M /N /O
/P /Q /R /S /T
/U /V /W /X /Y
/Z /bracketleft /backslash /bracketright /asciicircum
/underscore /quoteleft /a /b /c
/d /e /f /g /h
/i /j /k /l /m
/n /o /p /q /r
/s /t /u /v /w
/x /y /z /braceleft /bar
/braceright /asciitilde /bullet /Euro /bullet
/quotesinglbase /florin /quotedblbase /ellipsis /dagger
/daggerdbl /circumflex /perthousand /Scaron /guilsinglleft
/OE /bullet /Zcaron /bullet /bullet
/quoteleft /quoteright /quotedblleft /quotedblright /bullet
/endash /emdash /asciitilde /trademark /scaron
/guilsinglright /oe /bullet /zcaron /Ydieresis
/space /exclamdown /cent /sterling /currency
/yen /brokenbar /section /dieresis /copyright
/ordfeminine /guillemotleft /logicalnot /sfthyphen /registered
/macron /degree /plusminus /twosuperior /threesuperior
/acute /mu /paragraph /middot /cedilla
/onesuperior /ordmasculine /guillemotright /onequarter /onehalf
/threequarters /questiondown /Agrave /Aacute /Acircumflex
/Atilde /Adieresis /Aring /AE /Ccedilla
/Egrave /Eacute /Ecircumflex /Edieresis /Igrave
/Iacute /Icircumflex /Idieresis /Eth /Ntilde
/Ograve /Oacute /Ocircumflex /Otilde /Odieresis
/multiply /Oslash /Ugrave /Uacute /Ucircumflex
/Udieresis /Yacute /Thorn /germandbls /agrave
/aacute /acircumflex /atilde /adieresis /aring
/ae /ccedilla /egrave /eacute /ecircumflex
/edieresis /igrave /iacute /icircumflex /idieresis
/eth /ntilde /ograve /oacute /ocircumflex
/otilde /odieresis /divide /oslash /ugrave
/uacute /ucircumflex /udieresis /yacute /thorn
/ydieresis
] def
%%EndResource
%FOPBeginFontReencode
/Courier-Oblique findfont
dup length dict begin
  {1 index /FID ne {def} {pop pop} ifelse} forall
  /Encoding WinAnsiEncoding def
  currentdict
end
/Courier-Oblique exch definefont pop
/Courier-BoldOblique findfont
dup length dict begin
  {1 index /FID ne {def} {pop pop} ifelse} forall
  /Encoding WinAnsiEncoding def
  currentdict
end
/Courier-BoldOblique exch definefont pop
/Courier-Bold findfont
dup length dict begin
  {1 index /FID ne {def} {pop pop} ifelse} forall
  /Encoding WinAnsiEncoding def
  currentdict
end
/Courier-Bold exch definefont pop
/Helvetica findfont
dup length dict begin
  {1 index /FID ne {def} {pop pop} ifelse} forall
  /Encoding WinAnsiEncoding def
  currentdict
end
/Helvetica exch definefont pop
/Helvetica-Oblique findfont
dup length dict begin
  {1 index /FID ne {def} {pop pop} ifelse} forall
  /Encoding WinAnsiEncoding def
  currentdict
end
/Helvetica-Oblique exch definefont pop
/Helvetica-Bold findfont
dup length dict begin
  {1 index /FID ne {def} {pop pop} ifelse} forall
  /Encoding WinAnsiEncoding def
  currentdict
end
/Helvetica-Bold exch definefont pop
/Helvetica-BoldOblique findfont
dup length dict begin
  {1 index /FID ne {def} {pop pop} ifelse} forall
  /Encoding WinAnsiEncoding def
  currentdict
end
/Helvetica-BoldOblique exch definefont pop
/Times-Roman findfont
dup length dict begin
  {1 index /FID ne {def} {pop pop} ifelse} forall
  /Encoding WinAnsiEncoding def
  currentdict
end
/Times-Roman exch definefont pop
/Times-Italic findfont
dup length dict begin
  {1 index /FID ne {def} {pop pop} ifelse} forall
  /Encoding WinAnsiEncoding def
  currentdict
end
/Times-Italic exch definefont pop
/Times-Bold findfont
dup length dict begin
  {1 index /FID ne {def} {pop pop} ifelse} forall
  /Encoding WinAnsiEncoding def
  currentdict
end
/Times-Bold exch definefont pop
/Times-BoldItalic findfont
dup length dict begin
  {1 index /FID ne {def} {pop pop} ifelse} forall
  /Encoding WinAnsiEncoding def
  currentdict
end
/Times-BoldItalic exch definefont pop
/Courier findfont
dup length dict begin
  {1 index /FID ne {def} {pop pop} ifelse} forall
  /Encoding WinAnsiEncoding def
  currentdict
end
/Courier exch definefont pop
%FOPEndFontReencode
%%EndProlog
%%Page: 1 1
%%PageBoundingBox: 0 0 450 450
%%BeginPageSetup
[1 0 0 -1 0 450] CT
%%EndPageSetup
GS
[0.75 0 0 0.75 0 0] CT
1 GC
N
0 0 600 600 re
f
GR
GS
[0.75 0 0 0.75 0 0] CT
1 GC
N
0 0 600 600 re
f
GR
GS
[0.75 0 0 0.75 0 0] CT
1 GC
N
78 534 M
543 534 L
543 45 L
78 45 L
cp
f
GR
GS
[0.75 0 0 0.75 0 0] CT
0.775 GC
[1 3] 0 setdash
2 LJ
0.667 LW
N
83.684 534 M
83.684 45 L
S
GR
GS
[0.75 0 0 0.75 0 0] CT
0.775 GC
[1 3] 0 setdash
2 LJ
0.667 LW
N
96.721 534 M
96.721 45 L
S
GR
GS
[0.75 0 0 0.75 0 0] CT
0.775 GC
[1 3] 0 setdash
2 LJ
0.667 LW
N
109.759 534 M
109.759 45 L
S
GR
GS
[0.75 0 0 0.75 0 0] CT
0.775 GC
[1 3] 0 setdash
2 LJ
0.667 LW
N
122.796 534 M
122.796 45 L
S
GR
GS
[0.75 0 0 0.75 0 0] CT
0.775 GC
[1 3] 0 setdash
2 LJ
0.667 LW
N
135.834 534 M
135.834 45 L
S
GR
GS
[0.75 0 0 0.75 0 0] CT
0.775 GC
[1 3] 0 setdash
2 LJ
0.667 LW
N
148.871 534 M
148.871 45 L
S
GR
GS
[0.75 0 0 0.75 0 0] CT
0.775 GC
[1 3] 0 setdash
2 LJ
0.667 LW
N
161.909 534 M
161.909 45 L
S
GR
GS
[0.75 0 0 0.75 0 0] CT
0.775 GC
[1 3] 0 setdash
2 LJ
0.667 LW
N
174.946 534 M
174.946 45 L
S
GR
GS
[0.75 0 0 0.75 0 0] CT
0.775 GC
[1 3] 0 setdash
2 LJ
0.667 LW
N
187.984 534 M
187.984 45 L
S
GR
GS
[0.75 0 0 0.75 0 0] CT
0.775 GC
[1 3] 0 setdash
2 LJ
0.667 LW
N
201.021 534 M
201.021 45 L
S
GR
GS
[0.75 0 0 0.75 0 0] CT
0.775 GC
[1 3] 0 setdash
2 LJ
0.667 LW
N
214.059 534 M
214.059 45 L
S
GR
GS
[0.75 0 0 0.75 0 0] CT
0.775 GC
[1 3] 0 setdash
2 LJ
0.667 LW
N
227.096 534 M
227.096 45 L
S
GR
GS
[0.75 0 0 0.75 0 0] CT
0.775 GC
[1 3] 0 setdash
2 LJ
0.667 LW
N
240.133 534 M
240.133 45 L
S
GR
GS
[0.75 0 0 0.75 0 0] CT
0.775 GC
[1 3] 0 setdash
2 LJ
0.667 LW
N
253.171 534 M
253.171 45 L
S
GR
GS
[0.75 0 0 0.75 0 0] CT
0.775 GC
[1 3] 0 setdash
2 LJ
0.667 LW
N
266.208 534 M
266.208 45 L
S
GR
GS
[0.75 0 0 0.75 0 0] CT
0.775 GC
[1 3] 0 setdash
2 LJ
0.667 LW
N
279.246 534 M
279.246 45 L
S
GR
GS
[0.75 0 0 0.75 0 0] CT
0.775 GC
[1 3] 0 setdash
2 LJ
0.667 LW
N
292.283 534 M
292.283 45 L
S
GR
GS
[0.75 0 0 0.75 0 0] CT
0.775 GC
[1 3] 0 setdash
2 LJ
0.667 LW
N
305.321 534 M
305.321 45 L
S
GR
GS
[0.75 0 0 0.75 0 0] CT
0.775 GC
[1 3] 0 setdash
2 LJ
0.667 LW
N
318.358 534 M
318.358 45 L
S
GR
GS
[0.75 0 0 0.75 0 0] CT
0.775 GC
[1 3] 0 setdash
2 LJ
0.667 LW
N
331.396 534 M
331.396 45 L
S
GR
GS
[0.75 0 0 0.75 0 0] CT
0.775 GC
[1 3] 0 setdash
2 LJ
0.667 LW
N
344.433 534 M
344.433 45 L
S
GR
GS
[0.75 0 0 0.75 0 0] CT
0.775 GC
[1 3] 0 setdash
2 LJ
0.667 LW
N
357.47 534 M
357.47 45 L
S
GR
GS
[0.75 0 0 0.75 0 0] CT
0.775 GC
[1 3] 0 setdash
2 LJ
0.667 LW
N
370.508 534 M
370.508 45 L
S
GR
GS
[0.75 0 0 0.75 0 0] CT
0.775 GC
[1 3] 0 setdash
2 LJ
0.667 LW
N
383.545 534 M
383.545 45 L
S
GR
GS
[0.75 0 0 0.75 0 0] CT
0.775 GC
[1 3] 0 setdash
2 LJ
0.667 LW
N
396.583 534 M
396.583 45 L
S
GR
GS
[0.75 0 0 0.75 0 0] CT
0.775 GC
[1 3] 0 setdash
2 LJ
0.667 LW
N
409.62 534 M
409.62 45 L
S
GR
GS
[0.75 0 0 0.75 0 0] CT
0.775 GC
[1 3] 0 setdash
2 LJ
0.667 LW
N
422.658 534 M
422.658 45 L
S
GR
GS
[0.75 0 0 0.75 0 0] CT
0.775 GC
[1 3] 0 setdash
2 LJ
0.667 LW
N
435.695 534 M
435.695 45 L
S
GR
GS
[0.75 0 0 0.75 0 0] CT
0.775 GC
[1 3] 0 setdash
2 LJ
0.667 LW
N
448.733 534 M
448.733 45 L
S
GR
GS
[0.75 0 0 0.75 0 0] CT
0.775 GC
[1 3] 0 setdash
2 LJ
0.667 LW
N
461.77 534 M
461.77 45 L
S
GR
GS
[0.75 0 0 0.75 0 0] CT
0.775 GC
[1 3] 0 setdash
2 LJ
0.667 LW
N
474.807 534 M
474.807 45 L
S
GR
GS
[0.75 0 0 0.75 0 0] CT
0.775 GC
[1 3] 0 setdash
2 LJ
0.667 LW
N
487.845 534 M
487.845 45 L
S
GR
GS
[0.75 0 0 0.75 0 0] CT
0.775 GC
[1 3] 0 setdash
2 LJ
0.667 LW
N
500.882 534 M
500.882 45 L
S
GR
GS
[0.75 0 0 0.75 0 0] CT
0.775 GC
[1 3] 0 setdash
2 LJ
0.667 LW
N
513.92 534 M
513.92 45 L
S
GR
GS
[0.75 0 0 0.75 0 0] CT
0.775 GC
[1 3] 0 setdash
2 LJ
0.667 LW
N
526.957 534 M
526.957 45 L
S
GR
GS
[0.75 0 0 0.75 0 0] CT
0.775 GC
[1 3] 0 setdash
2 LJ
0.667 LW
N
539.995 534 M
539.995 45 L
S
GR
GS
[0.75 0 0 0.75 0 0] CT
0.775 GC
[1 3] 0 setdash
2 LJ
0.667 LW
N
543 526.697 M
78 526.697 L
S
GR
GS
[0.75 0 0 0.75 0 0] CT
0.775 GC
[1 3] 0 setdash
2 LJ
0.667 LW
N
543 515.46 M
78 515.46 L
S
GR
GS
[0.75 0 0 0.75 0 0] CT
0.775 GC
[1 3] 0 setdash
2 LJ
0.667 LW
N
543 504.224 M
78 504.224 L
S
GR
GS
[0.75 0 0 0.75 0 0] CT
0.775 GC
[1 3] 0 setdash
2 LJ
0.667 LW
N
543 492.987 M
78 492.987 L
S
GR
GS
[0.75 0 0 0.75 0 0] CT
0.775 GC
[1 3] 0 setdash
2 LJ
0.667 LW
N
543 481.75 M
78 481.75 L
S
GR
GS
[0.75 0 0 0.75 0 0] CT
0.775 GC
[1 3] 0 setdash
2 LJ
0.667 LW
N
543 470.513 M
78 470.513 L
S
GR
GS
[0.75 0 0 0.75 0 0] CT
0.775 GC
[1 3] 0 setdash
2 LJ
0.667 LW
N
543 459.276 M
78 459.276 L
S
GR
GS
[0.75 0 0 0.75 0 0] CT
0.775 GC
[1 3] 0 setdash
2 LJ
0.667 LW
N
543 448.04 M
78 448.04 L
S
GR
GS
[0.75 0 0 0.75 0 0] CT
0.775 GC
[1 3] 0 setdash
2 LJ
0.667 LW
N
543 436.803 M
78 436.803 L
S
GR
GS
[0.75 0 0 0.75 0 0] CT
0.775 GC
[1 3] 0 setdash
2 LJ
0.667 LW
N
543 425.566 M
78 425.566 L
S
GR
GS
[0.75 0 0 0.75 0 0] CT
0.775 GC
[1 3] 0 setdash
2 LJ
0.667 LW
N
543 414.329 M
78 414.329 L
S
GR
GS
[0.75 0 0 0.75 0 0] CT
0.775 GC
[1 3] 0 setdash
2 LJ
0.667 LW
N
543 403.092 M
78 403.092 L
S
GR
GS
[0.75 0 0 0.75 0 0] CT
0.775 GC
[1 3] 0 setdash
2 LJ
0.667 LW
N
543 391.856 M
78 391.856 L
S
GR
GS
[0.75 0 0 0.75 0 0] CT
0.775 GC
[1 3] 0 setdash
2 LJ
0.667 LW
N
543 380.619 M
78 380.619 L
S
GR
GS
[0.75 0 0 0.75 0 0] CT
0.775 GC
[1 3] 0 setdash
2 LJ
0.667 LW
N
543 369.382 M
78 369.382 L
S
GR
GS
[0.75 0 0 0.75 0 0] CT
0.775 GC
[1 3] 0 setdash
2 LJ
0.667 LW
N
543 358.145 M
78 358.145 L
S
GR
GS
[0.75 0 0 0.75 0 0] CT
0.775 GC
[1 3] 0 setdash
2 LJ
0.667 LW
N
543 346.908 M
78 346.908 L
S
GR
GS
[0.75 0 0 0.75 0 0] CT
0.775 GC
[1 3] 0 setdash
2 LJ
0.667 LW
N
543 335.672 M
78 335.672 L
S
GR
GS
[0.75 0 0 0.75 0 0] CT
0.775 GC
[1 3] 0 setdash
2 LJ
0.667 LW
N
543 324.435 M
78 324.435 L
S
GR
GS
[0.75 0 0 0.75 0 0] CT
0.775 GC
[1 3] 0 setdash
2 LJ
0.667 LW
N
543 313.198 M
78 313.198 L
S
GR
GS
[0.75 0 0 0.75 0 0] CT
0.775 GC
[1 3] 0 setdash
2 LJ
0.667 LW
N
543 301.961 M
78 301.961 L
S
GR
GS
[0.75 0 0 0.75 0 0] CT
0.775 GC
[1 3] 0 setdash
2 LJ
0.667 LW
N
543 290.725 M
78 290.725 L
S
GR
GS
[0.75 0 0 0.75 0 0] CT
0.775 GC
[1 3] 0 setdash
2 LJ
0.667 LW
N
543 279.488 M
78 279.488 L
S
GR
GS
[0.75 0 0 0.75 0 0] CT
0.775 GC
[1 3] 0 setdash
2 LJ
0.667 LW
N
543 268.251 M
78 268.251 L
S
GR
GS
[0.75 0 0 0.75 0 0] CT
0.775 GC
[1 3] 0 setdash
2 LJ
0.667 LW
N
543 257.014 M
78 257.014 L
S
GR
GS
[0.75 0 0 0.75 0 0] CT
0.775 GC
[1 3] 0 setdash
2 LJ
0.667 LW
N
543 245.777 M
78 245.777 L
S
GR
GS
[0.75 0 0 0.75 0 0] CT
0.775 GC
[1 3] 0 setdash
2 LJ
0.667 LW
N
543 234.541 M
78 234.541 L
S
GR
GS
[0.75 0 0 0.75 0 0] CT
0.775 GC
[1 3] 0 setdash
2 LJ
0.667 LW
N
543 223.304 M
78 223.304 L
S
GR
GS
[0.75 0 0 0.75 0 0] CT
0.775 GC
[1 3] 0 setdash
2 LJ
0.667 LW
N
543 212.067 M
78 212.067 L
S
GR
GS
[0.75 0 0 0.75 0 0] CT
0.775 GC
[1 3] 0 setdash
2 LJ
0.667 LW
N
543 200.83 M
78 200.83 L
S
GR
GS
[0.75 0 0 0.75 0 0] CT
0.775 GC
[1 3] 0 setdash
2 LJ
0.667 LW
N
543 189.593 M
78 189.593 L
S
GR
GS
[0.75 0 0 0.75 0 0] CT
0.775 GC
[1 3] 0 setdash
2 LJ
0.667 LW
N
543 178.357 M
78 178.357 L
S
GR
GS
[0.75 0 0 0.75 0 0] CT
0.775 GC
[1 3] 0 setdash
2 LJ
0.667 LW
N
543 167.12 M
78 167.12 L
S
GR
GS
[0.75 0 0 0.75 0 0] CT
0.775 GC
[1 3] 0 setdash
2 LJ
0.667 LW
N
543 155.883 M
78 155.883 L
S
GR
GS
[0.75 0 0 0.75 0 0] CT
0.775 GC
[1 3] 0 setdash
2 LJ
0.667 LW
N
543 144.646 M
78 144.646 L
S
GR
GS
[0.75 0 0 0.75 0 0] CT
0.775 GC
[1 3] 0 setdash
2 LJ
0.667 LW
N
543 133.409 M
78 133.409 L
S
GR
GS
[0.75 0 0 0.75 0 0] CT
0.775 GC
[1 3] 0 setdash
2 LJ
0.667 LW
N
543 122.173 M
78 122.173 L
S
GR
GS
[0.75 0 0 0.75 0 0] CT
0.775 GC
[1 3] 0 setdash
2 LJ
0.667 LW
N
543 110.936 M
78 110.936 L
S
GR
GS
[0.75 0 0 0.75 0 0] CT
0.775 GC
[1 3] 0 setdash
2 LJ
0.667 LW
N
543 99.699 M
78 99.699 L
S
GR
GS
[0.75 0 0 0.75 0 0] CT
0.775 GC
[1 3] 0 setdash
2 LJ
0.667 LW
N
543 88.462 M
78 88.462 L
S
GR
GS
[0.75 0 0 0.75 0 0] CT
0.775 GC
[1 3] 0 setdash
2 LJ
0.667 LW
N
543 77.225 M
78 77.225 L
S
GR
GS
[0.75 0 0 0.75 0 0] CT
0.775 GC
[1 3] 0 setdash
2 LJ
0.667 LW
N
543 65.989 M
78 65.989 L
S
GR
GS
[0.75 0 0 0.75 0 0] CT
0.775 GC
[1 3] 0 setdash
2 LJ
0.667 LW
N
543 54.752 M
78 54.752 L
S
GR
GS
[0.75 0 0 0.75 0 0] CT
0.149 GC
2 setlinecap
1 LJ
0.667 LW
N
78 534 M
543 534 L
S
GR
GS
[0.75 0 0 0.75 0 0] CT
0.149 GC
2 setlinecap
1 LJ
0.667 LW
N
78 45 M
543 45 L
S
GR
GS
[0.75 0 0 0.75 0 0] CT
0.149 GC
2 setlinecap
1 LJ
0.667 LW
N
122.796 534 M
122.796 529.11 L
S
GR
GS
[0.75 0 0 0.75 0 0] CT
0.149 GC
2 setlinecap
1 LJ
0.667 LW
N
187.984 534 M
187.984 529.11 L
S
GR
GS
[0.75 0 0 0.75 0 0] CT
0.149 GC
2 setlinecap
1 LJ
0.667 LW
N
253.171 534 M
253.171 529.11 L
S
GR
GS
[0.75 0 0 0.75 0 0] CT
0.149 GC
2 setlinecap
1 LJ
0.667 LW
N
318.358 534 M
318.358 529.11 L
S
GR
GS
[0.75 0 0 0.75 0 0] CT
0.149 GC
2 setlinecap
1 LJ
0.667 LW
N
383.545 534 M
383.545 529.11 L
S
GR
GS
[0.75 0 0 0.75 0 0] CT
0.149 GC
2 setlinecap
1 LJ
0.667 LW
N
448.733 534 M
448.733 529.11 L
S
GR
GS
[0.75 0 0 0.75 0 0] CT
0.149 GC
2 setlinecap
1 LJ
0.667 LW
N
513.92 534 M
513.92 529.11 L
S
GR
GS
[0.75 0 0 0.75 0 0] CT
0.149 GC
2 setlinecap
1 LJ
0.667 LW
N
122.796 45 M
122.796 49.89 L
S
GR
GS
[0.75 0 0 0.75 0 0] CT
0.149 GC
2 setlinecap
1 LJ
0.667 LW
N
187.984 45 M
187.984 49.89 L
S
GR
GS
[0.75 0 0 0.75 0 0] CT
0.149 GC
2 setlinecap
1 LJ
0.667 LW
N
253.171 45 M
253.171 49.89 L
S
GR
GS
[0.75 0 0 0.75 0 0] CT
0.149 GC
2 setlinecap
1 LJ
0.667 LW
N
318.358 45 M
318.358 49.89 L
S
GR
GS
[0.75 0 0 0.75 0 0] CT
0.149 GC
2 setlinecap
1 LJ
0.667 LW
N
383.545 45 M
383.545 49.89 L
S
GR
GS
[0.75 0 0 0.75 0 0] CT
0.149 GC
2 setlinecap
1 LJ
0.667 LW
N
448.733 45 M
448.733 49.89 L
S
GR
GS
[0.75 0 0 0.75 0 0] CT
0.149 GC
2 setlinecap
1 LJ
0.667 LW
N
513.92 45 M
513.92 49.89 L
S
GR
GS
[0.75 0 0 0.75 92.0973 405.30002] CT
0.149 GC
/Helvetica 18.667 F
GS
[1 0 0 1 0 0] CT
-13.5 19 moveto 
1 -1 scale
(-15) t 
GR
GR
GS
[0.75 0 0 0.75 140.98772 405.30002] CT
0.149 GC
/Helvetica 18.667 F
GS
[1 0 0 1 0 0] CT
-13.5 19 moveto 
1 -1 scale
(-10) t 
GR
GR
GS
[0.75 0 0 0.75 189.87815 405.30002] CT
0.149 GC
/Helvetica 18.667 F
GS
[1 0 0 1 0 0] CT
-8.5 19 moveto 
1 -1 scale
(-5) t 
GR
GR
GS
[0.75 0 0 0.75 238.76857 405.30002] CT
0.149 GC
/Helvetica 18.667 F
GS
[1 0 0 1 0 0] CT
-5.5 19 moveto 
1 -1 scale
(0) t 
GR
GR
GS
[0.75 0 0 0.75 287.65901 405.30002] CT
0.149 GC
/Helvetica 18.667 F
GS
[1 0 0 1 0 0] CT
-5.5 19 moveto 
1 -1 scale
(5) t 
GR
GR
GS
[0.75 0 0 0.75 336.54943 405.30002] CT
0.149 GC
/Helvetica 18.667 F
GS
[1 0 0 1 0 0] CT
-10.5 19 moveto 
1 -1 scale
(10) t 
GR
GR
GS
[0.75 0 0 0.75 385.43985 405.30002] CT
0.149 GC
/Helvetica 18.667 F
GS
[1 0 0 1 0 0] CT
-10.5 19 moveto 
1 -1 scale
(15) t 
GR
GR
GS
[0.75 0 0 0.75 232.87518 424.3] CT
0.149 GC
/Helvetica 20.533 F
GS
[1 0 0 1 0 0] CT
-44 21 moveto 
1 -1 scale
(Feature 1) t 
GR
GR
GS
[0.75 0 0 0.75 0 0] CT
0.149 GC
2 setlinecap
1 LJ
0.667 LW
N
78 534 M
78 45 L
S
GR
GS
[0.75 0 0 0.75 0 0] CT
0.149 GC
2 setlinecap
1 LJ
0.667 LW
N
543 534 M
543 45 L
S
GR
GS
[0.75 0 0 0.75 0 0] CT
0.149 GC
2 setlinecap
1 LJ
0.667 LW
N
78 515.46 M
82.89 515.46 L
S
GR
GS
[0.75 0 0 0.75 0 0] CT
0.149 GC
2 setlinecap
1 LJ
0.667 LW
N
78 459.276 M
82.89 459.276 L
S
GR
GS
[0.75 0 0 0.75 0 0] CT
0.149 GC
2 setlinecap
1 LJ
0.667 LW
N
78 403.092 M
82.89 403.092 L
S
GR
GS
[0.75 0 0 0.75 0 0] CT
0.149 GC
2 setlinecap
1 LJ
0.667 LW
N
78 346.908 M
82.89 346.908 L
S
GR
GS
[0.75 0 0 0.75 0 0] CT
0.149 GC
2 setlinecap
1 LJ
0.667 LW
N
78 290.725 M
82.89 290.725 L
S
GR
GS
[0.75 0 0 0.75 0 0] CT
0.149 GC
2 setlinecap
1 LJ
0.667 LW
N
78 234.541 M
82.89 234.541 L
S
GR
GS
[0.75 0 0 0.75 0 0] CT
0.149 GC
2 setlinecap
1 LJ
0.667 LW
N
78 178.357 M
82.89 178.357 L
S
GR
GS
[0.75 0 0 0.75 0 0] CT
0.149 GC
2 setlinecap
1 LJ
0.667 LW
N
78 122.173 M
82.89 122.173 L
S
GR
GS
[0.75 0 0 0.75 0 0] CT
0.149 GC
2 setlinecap
1 LJ
0.667 LW
N
78 65.989 M
82.89 65.989 L
S
GR
GS
[0.75 0 0 0.75 0 0] CT
0.149 GC
2 setlinecap
1 LJ
0.667 LW
N
543 515.46 M
538.11 515.46 L
S
GR
GS
[0.75 0 0 0.75 0 0] CT
0.149 GC
2 setlinecap
1 LJ
0.667 LW
N
543 459.276 M
538.11 459.276 L
S
GR
GS
[0.75 0 0 0.75 0 0] CT
0.149 GC
2 setlinecap
1 LJ
0.667 LW
N
543 403.092 M
538.11 403.092 L
S
GR
GS
[0.75 0 0 0.75 0 0] CT
0.149 GC
2 setlinecap
1 LJ
0.667 LW
N
543 346.908 M
538.11 346.908 L
S
GR
GS
[0.75 0 0 0.75 0 0] CT
0.149 GC
2 setlinecap
1 LJ
0.667 LW
N
543 290.725 M
538.11 290.725 L
S
GR
GS
[0.75 0 0 0.75 0 0] CT
0.149 GC
2 setlinecap
1 LJ
0.667 LW
N
543 234.541 M
538.11 234.541 L
S
GR
GS
[0.75 0 0 0.75 0 0] CT
0.149 GC
2 setlinecap
1 LJ
0.667 LW
N
543 178.357 M
538.11 178.357 L
S
GR
GS
[0.75 0 0 0.75 0 0] CT
0.149 GC
2 setlinecap
1 LJ
0.667 LW
N
543 122.173 M
538.11 122.173 L
S
GR
GS
[0.75 0 0 0.75 0 0] CT
0.149 GC
2 setlinecap
1 LJ
0.667 LW
N
543 65.989 M
538.11 65.989 L
S
GR
GS
[0.75 0 0 0.75 53.7 386.59534] CT
0.149 GC
/Helvetica 18.667 F
GS
[1 0 0 1 0 0] CT
-27 7 moveto 
1 -1 scale
(-20) t 
GR
GR
GS
[0.75 0 0 0.75 53.7 344.45734] CT
0.149 GC
/Helvetica 18.667 F
GS
[1 0 0 1 0 0] CT
-27 7 moveto 
1 -1 scale
(-15) t 
GR
GR
GS
[0.75 0 0 0.75 53.7 302.31935] CT
0.149 GC
/Helvetica 18.667 F
GS
[1 0 0 1 0 0] CT
-27 7 moveto 
1 -1 scale
(-10) t 
GR
GR
GS
[0.75 0 0 0.75 53.7 260.18136] CT
0.149 GC
/Helvetica 18.667 F
GS
[1 0 0 1 0 0] CT
-17 7 moveto 
1 -1 scale
(-5) t 
GR
GR
GS
[0.75 0 0 0.75 53.7 218.04339] CT
0.149 GC
/Helvetica 18.667 F
GS
[1 0 0 1 0 0] CT
-11 7 moveto 
1 -1 scale
(0) t 
GR
GR
GS
[0.75 0 0 0.75 53.7 175.9054] CT
0.149 GC
/Helvetica 18.667 F
GS
[1 0 0 1 0 0] CT
-11 7 moveto 
1 -1 scale
(5) t 
GR
GR
GS
[0.75 0 0 0.75 53.7 133.76741] CT
0.149 GC
/Helvetica 18.667 F
GS
[1 0 0 1 0 0] CT
-21 7 moveto 
1 -1 scale
(10) t 
GR
GR
GS
[0.75 0 0 0.75 53.7 91.62942] CT
0.149 GC
/Helvetica 18.667 F
GS
[1 0 0 1 0 0] CT
-21 7 moveto 
1 -1 scale
(15) t 
GR
GR
GS
[0.75 0 0 0.75 53.7 49.49144] CT
0.149 GC
/Helvetica 18.667 F
GS
[1 0 0 1 0 0] CT
-21 7 moveto 
1 -1 scale
(20) t 
GR
GR
GS
[0 -0.75 0.75 0 30.45 217.12482] CT
0.149 GC
/Helvetica 20.533 F
GS
[1 0 0 1 0 0] CT
-44 -5 moveto 
1 -1 scale
(Feature 2) t 
GR
GR
GS
[0.75 0 0 0.75 232.87523 30.8625] CT
/Helvetica-Bold 20.533 F
GS
[1 0 0 1 0 0] CT
-55 -5 moveto 
1 -1 scale
(Classifier 1) t 
GR
GR
GS
[0.75 0 0 0.75 299.65936 122.33605] CT
0 0.447 0.741 RC
10.0 ML
4 LW
N
4 0 M
4 -2.209 2.209 -4 0 -4 C
-2.209 -4 -4 -2.209 -4 0 C
-4 2.209 -2.209 4 0 4 C
2.209 4 4 2.209 4 0 C
S
GR
GS
[0.75 0 0 0.75 270.57806 148.78682] CT
0 0.447 0.741 RC
10.0 ML
4 LW
N
4 0 M
4 -2.209 2.209 -4 0 -4 C
-2.209 -4 -4 -2.209 -4 0 C
-4 2.209 -2.209 4 0 4 C
2.209 4 4 2.209 4 0 C
S
GR
GS
[0.75 0 0 0.75 294.75742 158.55484] CT
0 0.447 0.741 RC
10.0 ML
4 LW
N
4 0 M
4 -2.209 2.209 -4 0 -4 C
-2.209 -4 -4 -2.209 -4 0 C
-4 2.209 -2.209 4 0 4 C
2.209 4 4 2.209 4 0 C
S
GR
GS
[0.75 0 0 0.75 350.05676 190.06241] CT
0 0.447 0.741 RC
10.0 ML
4 LW
N
4 0 M
4 -2.209 2.209 -4 0 -4 C
-2.209 -4 -4 -2.209 -4 0 C
-4 2.209 -2.209 4 0 4 C
2.209 4 4 2.209 4 0 C
S
GR
GS
[0.75 0 0 0.75 209.90836 177.33428] CT
0 0.447 0.741 RC
10.0 ML
4 LW
N
4 0 M
4 -2.209 2.209 -4 0 -4 C
-2.209 -4 -4 -2.209 -4 0 C
-4 2.209 -2.209 4 0 4 C
2.209 4 4 2.209 4 0 C
S
GR
GS
[0.75 0 0 0.75 244.36583 176.9001] CT
0 0.447 0.741 RC
10.0 ML
4 LW
N
4 0 M
4 -2.209 2.209 -4 0 -4 C
-2.209 -4 -4 -2.209 -4 0 C
-4 2.209 -2.209 4 0 4 C
2.209 4 4 2.209 4 0 C
S
GR
GS
[0.75 0 0 0.75 226.04624 97.23466] CT
0 0.447 0.741 RC
10.0 ML
4 LW
N
4 0 M
4 -2.209 2.209 -4 0 -4 C
-2.209 -4 -4 -2.209 -4 0 C
-4 2.209 -2.209 4 0 4 C
2.209 4 4 2.209 4 0 C
S
GR
GS
[0.75 0 0 0.75 343.11472 262.69437] CT
0 0.447 0.741 RC
10.0 ML
4 LW
N
4 0 M
4 -2.209 2.209 -4 0 -4 C
-2.209 -4 -4 -2.209 -4 0 C
-4 2.209 -2.209 4 0 4 C
2.209 4 4 2.209 4 0 C
S
GR
GS
[0.75 0 0 0.75 299.54814 132.99617] CT
0 0.447 0.741 RC
10.0 ML
4 LW
N
4 0 M
4 -2.209 2.209 -4 0 -4 C
-2.209 -4 -4 -2.209 -4 0 C
-4 2.209 -2.209 4 0 4 C
2.209 4 4 2.209 4 0 C
S
GR
GS
[0.75 0 0 0.75 343.23388 214.5596] CT
0 0.447 0.741 RC
10.0 ML
4 LW
N
4 0 M
4 -2.209 2.209 -4 0 -4 C
-2.209 -4 -4 -2.209 -4 0 C
-4 2.209 -2.209 4 0 4 C
2.209 4 4 2.209 4 0 C
S
GR
GS
[0.75 0 0 0.75 254.22897 130.21157] CT
0 0.447 0.741 RC
10.0 ML
4 LW
N
4 0 M
4 -2.209 2.209 -4 0 -4 C
-2.209 -4 -4 -2.209 -4 0 C
-4 2.209 -2.209 4 0 4 C
2.209 4 4 2.209 4 0 C
S
GR
GS
[0.75 0 0 0.75 387.62183 129.36281] CT
0 0.447 0.741 RC
10.0 ML
4 LW
N
4 0 M
4 -2.209 2.209 -4 0 -4 C
-2.209 -4 -4 -2.209 -4 0 C
-4 2.209 -2.209 4 0 4 C
2.209 4 4 2.209 4 0 C
S
GR
GS
[0.75 0 0 0.75 327.92372 199.74786] CT
0 0.447 0.741 RC
10.0 ML
4 LW
N
4 0 M
4 -2.209 2.209 -4 0 -4 C
-2.209 -4 -4 -2.209 -4 0 C
-4 2.209 -2.209 4 0 4 C
2.209 4 4 2.209 4 0 C
S
GR
GS
[0.75 0 0 0.75 314.39298 33.75001] CT
0 0.447 0.741 RC
10.0 ML
4 LW
N
4 0 M
4 -2.209 2.209 -4 0 -4 C
-2.209 -4 -4 -2.209 -4 0 C
-4 2.209 -2.209 4 0 4 C
2.209 4 4 2.209 4 0 C
S
GR
GS
[0.75 0 0 0.75 306.49162 186.82748] CT
0 0.447 0.741 RC
10.0 ML
4 LW
N
4 0 M
4 -2.209 2.209 -4 0 -4 C
-2.209 -4 -4 -2.209 -4 0 C
-4 2.209 -2.209 4 0 4 C
2.209 4 4 2.209 4 0 C
S
GR
GS
[0.75 0 0 0.75 267.34737 154.72272] CT
0 0.447 0.741 RC
10.0 ML
4 LW
N
4 0 M
4 -2.209 2.209 -4 0 -4 C
-2.209 -4 -4 -2.209 -4 0 C
-4 2.209 -2.209 4 0 4 C
2.209 4 4 2.209 4 0 C
S
GR
GS
[0.75 0 0 0.75 293.61005 135.27846] CT
0 0.447 0.741 RC
10.0 ML
4 LW
N
4 0 M
4 -2.209 2.209 -4 0 -4 C
-2.209 -4 -4 -2.209 -4 0 C
-4 2.209 -2.209 4 0 4 C
2.209 4 4 2.209 4 0 C
S
GR
GS
[0.75 0 0 0.75 274.02841 195.44584] CT
0 0.447 0.741 RC
10.0 ML
4 LW
N
4 0 M
4 -2.209 2.209 -4 0 -4 C
-2.209 -4 -4 -2.209 -4 0 C
-4 2.209 -2.209 4 0 4 C
2.209 4 4 2.209 4 0 C
S
GR
GS
[0.75 0 0 0.75 242.31264 91.13646] CT
0 0.447 0.741 RC
10.0 ML
4 LW
N
4 0 M
4 -2.209 2.209 -4 0 -4 C
-2.209 -4 -4 -2.209 -4 0 C
-4 2.209 -2.209 4 0 4 C
2.209 4 4 2.209 4 0 C
S
GR
GS
[0.75 0 0 0.75 229.44326 120.55261] CT
0 0.447 0.741 RC
10.0 ML
4 LW
N
4 0 M
4 -2.209 2.209 -4 0 -4 C
-2.209 -4 -4 -2.209 -4 0 C
-4 2.209 -2.209 4 0 4 C
2.209 4 4 2.209 4 0 C
S
GR
GS
[0.75 0 0 0.75 114.17301 178.77792] CT
0.851 0.325 0.098 RC
10.0 ML
4 LW
N
4 0 M
4 -2.209 2.209 -4 0 -4 C
-2.209 -4 -4 -2.209 -4 0 C
-4 2.209 -2.209 4 0 4 C
2.209 4 4 2.209 4 0 C
S
GR
GS
[0.75 0 0 0.75 216.82681 192.88614] CT
0.851 0.325 0.098 RC
10.0 ML
4 LW
N
4 0 M
4 -2.209 2.209 -4 0 -4 C
-2.209 -4 -4 -2.209 -4 0 C
-4 2.209 -2.209 4 0 4 C
2.209 4 4 2.209 4 0 C
S
GR
GS
[0.75 0 0 0.75 148.16965 260.82532] CT
0.851 0.325 0.098 RC
10.0 ML
4 LW
N
4 0 M
4 -2.209 2.209 -4 0 -4 C
-2.209 -4 -4 -2.209 -4 0 C
-4 2.209 -2.209 4 0 4 C
2.209 4 4 2.209 4 0 C
S
GR
GS
[0.75 0 0 0.75 225.37919 268.7038] CT
0.851 0.325 0.098 RC
10.0 ML
4 LW
N
4 0 M
4 -2.209 2.209 -4 0 -4 C
-2.209 -4 -4 -2.209 -4 0 C
-4 2.209 -2.209 4 0 4 C
2.209 4 4 2.209 4 0 C
S
GR
GS
[0.75 0 0 0.75 209.08525 260.45966] CT
0.851 0.325 0.098 RC
10.0 ML
4 LW
N
4 0 M
4 -2.209 2.209 -4 0 -4 C
-2.209 -4 -4 -2.209 -4 0 C
-4 2.209 -2.209 4 0 4 C
2.209 4 4 2.209 4 0 C
S
GR
GS
[0.75 0 0 0.75 225.48342 336.46303] CT
0.851 0.325 0.098 RC
10.0 ML
4 LW
N
4 0 M
4 -2.209 2.209 -4 0 -4 C
-2.209 -4 -4 -2.209 -4 0 C
-4 2.209 -2.209 4 0 4 C
2.209 4 4 2.209 4 0 C
S
GR
GS
[0.75 0 0 0.75 207.31341 208.30259] CT
0.851 0.325 0.098 RC
10.0 ML
4 LW
N
4 0 M
4 -2.209 2.209 -4 0 -4 C
-2.209 -4 -4 -2.209 -4 0 C
-4 2.209 -2.209 4 0 4 C
2.209 4 4 2.209 4 0 C
S
GR
GS
[0.75 0 0 0.75 104.46327 305.24407] CT
0.851 0.325 0.098 RC
10.0 ML
4 LW
N
4 0 M
4 -2.209 2.209 -4 0 -4 C
-2.209 -4 -4 -2.209 -4 0 C
-4 2.209 -2.209 4 0 4 C
2.209 4 4 2.209 4 0 C
S
GR
GS
[0.75 0 0 0.75 157.05941 237.08718] CT
0.851 0.325 0.098 RC
10.0 ML
4 LW
N
4 0 M
4 -2.209 2.209 -4 0 -4 C
-2.209 -4 -4 -2.209 -4 0 C
-4 2.209 -2.209 4 0 4 C
2.209 4 4 2.209 4 0 C
S
GR
GS
[0.75 0 0 0.75 174.968 229.69352] CT
0.851 0.325 0.098 RC
10.0 ML
4 LW
N
4 0 M
4 -2.209 2.209 -4 0 -4 C
-2.209 -4 -4 -2.209 -4 0 C
-4 2.209 -2.209 4 0 4 C
2.209 4 4 2.209 4 0 C
S
GR
GS
[0.75 0 0 0.75 191.40396 243.00275] CT
0.851 0.325 0.098 RC
10.0 ML
4 LW
N
4 0 M
4 -2.209 2.209 -4 0 -4 C
-2.209 -4 -4 -2.209 -4 0 C
-4 2.209 -2.209 4 0 4 C
2.209 4 4 2.209 4 0 C
S
GR
GS
[0.75 0 0 0.75 158.86162 297.88598] CT
0.851 0.325 0.098 RC
10.0 ML
4 LW
N
4 0 M
4 -2.209 2.209 -4 0 -4 C
-2.209 -4 -4 -2.209 -4 0 C
-4 2.209 -2.209 4 0 4 C
2.209 4 4 2.209 4 0 C
S
GR
GS
[0.75 0 0 0.75 146.75592 298.18698] CT
0.851 0.325 0.098 RC
10.0 ML
4 LW
N
4 0 M
4 -2.209 2.209 -4 0 -4 C
-2.209 -4 -4 -2.209 -4 0 C
-4 2.209 -2.209 4 0 4 C
2.209 4 4 2.209 4 0 C
S
GR
GS
[0.75 0 0 0.75 155.0463 339.4286] CT
0.851 0.325 0.098 RC
10.0 ML
4 LW
N
4 0 M
4 -2.209 2.209 -4 0 -4 C
-2.209 -4 -4 -2.209 -4 0 C
-4 2.209 -2.209 4 0 4 C
2.209 4 4 2.209 4 0 C
S
GR
GS
[0.75 0 0 0.75 129.6165 239.45242] CT
0.851 0.325 0.098 RC
10.0 ML
4 LW
N
4 0 M
4 -2.209 2.209 -4 0 -4 C
-2.209 -4 -4 -2.209 -4 0 C
-4 2.209 -2.209 4 0 4 C
2.209 4 4 2.209 4 0 C
S
GR
GS
[0.75 0 0 0.75 165.97353 267.39876] CT
0.851 0.325 0.098 RC
10.0 ML
4 LW
N
4 0 M
4 -2.209 2.209 -4 0 -4 C
-2.209 -4 -4 -2.209 -4 0 C
-4 2.209 -2.209 4 0 4 C
2.209 4 4 2.209 4 0 C
S
GR
GS
[0.75 0 0 0.75 61.0604 276.5931] CT
0.851 0.325 0.098 RC
10.0 ML
4 LW
N
4 0 M
4 -2.209 2.209 -4 0 -4 C
-2.209 -4 -4 -2.209 -4 0 C
-4 2.209 -2.209 4 0 4 C
2.209 4 4 2.209 4 0 C
S
GR
GS
[0.75 0 0 0.75 218.76409 255.482] CT
0.851 0.325 0.098 RC
10.0 ML
4 LW
N
4 0 M
4 -2.209 2.209 -4 0 -4 C
-2.209 -4 -4 -2.209 -4 0 C
-4 2.209 -2.209 4 0 4 C
2.209 4 4 2.209 4 0 C
S
GR
GS
[0.75 0 0 0.75 148.60257 296.56114] CT
0.851 0.325 0.098 RC
10.0 ML
4 LW
N
4 0 M
4 -2.209 2.209 -4 0 -4 C
-2.209 -4 -4 -2.209 -4 0 C
-4 2.209 -2.209 4 0 4 C
2.209 4 4 2.209 4 0 C
S
GR
GS
[0.75 0 0 0.75 106.70638 321.06315] CT
0.851 0.325 0.098 RC
10.0 ML
4 LW
N
4 0 M
4 -2.209 2.209 -4 0 -4 C
-2.209 -4 -4 -2.209 -4 0 C
-4 2.209 -2.209 4 0 4 C
2.209 4 4 2.209 4 0 C
S
GR
GS
[0.75 0 0 0.75 318.59697 72.71372] CT
0.702 GC
10.0 ML
4 LW
N
4 0 M
4 -2.209 2.209 -4 0 -4 C
-2.209 -4 -4 -2.209 -4 0 C
-4 2.209 -2.209 4 0 4 C
2.209 4 4 2.209 4 0 C
S
GR
GS
[0.75 0 0 0.75 292.45706 179.56942] CT
0.702 GC
10.0 ML
4 LW
N
4 0 M
4 -2.209 2.209 -4 0 -4 C
-2.209 -4 -4 -2.209 -4 0 C
-4 2.209 -2.209 4 0 4 C
2.209 4 4 2.209 4 0 C
S
GR
GS
[0.75 0 0 0.75 292.08103 198.75554] CT
0.702 GC
10.0 ML
4 LW
N
4 0 M
4 -2.209 2.209 -4 0 -4 C
-2.209 -4 -4 -2.209 -4 0 C
-4 2.209 -2.209 4 0 4 C
2.209 4 4 2.209 4 0 C
S
GR
GS
[0.75 0 0 0.75 256.75868 145.36206] CT
0.702 GC
10.0 ML
4 LW
N
4 0 M
4 -2.209 2.209 -4 0 -4 C
-2.209 -4 -4 -2.209 -4 0 C
-4 2.209 -2.209 4 0 4 C
2.209 4 4 2.209 4 0 C
S
GR
GS
[0.75 0 0 0.75 226.84474 109.35338] CT
0.702 GC
10.0 ML
4 LW
N
4 0 M
4 -2.209 2.209 -4 0 -4 C
-2.209 -4 -4 -2.209 -4 0 C
-4 2.209 -2.209 4 0 4 C
2.209 4 4 2.209 4 0 C
S
GR
GS
[0.75 0 0 0.75 326.38504 123.55047] CT
0.702 GC
10.0 ML
4 LW
N
4 0 M
4 -2.209 2.209 -4 0 -4 C
-2.209 -4 -4 -2.209 -4 0 C
-4 2.209 -2.209 4 0 4 C
2.209 4 4 2.209 4 0 C
S
GR
GS
[0.75 0 0 0.75 236.15517 154.70208] CT
0.702 GC
10.0 ML
4 LW
N
4 0 M
4 -2.209 2.209 -4 0 -4 C
-2.209 -4 -4 -2.209 -4 0 C
-4 2.209 -2.209 4 0 4 C
2.209 4 4 2.209 4 0 C
S
GR
GS
[0.75 0 0 0.75 238.01591 167.37338] CT
0.702 GC
10.0 ML
4 LW
N
4 0 M
4 -2.209 2.209 -4 0 -4 C
-2.209 -4 -4 -2.209 -4 0 C
-4 2.209 -2.209 4 0 4 C
2.209 4 4 2.209 4 0 C
S
GR
GS
[0.75 0 0 0.75 319.09428 185.54998] CT
0.702 GC
10.0 ML
4 LW
N
4 0 M
4 -2.209 2.209 -4 0 -4 C
-2.209 -4 -4 -2.209 -4 0 C
-4 2.209 -2.209 4 0 4 C
2.209 4 4 2.209 4 0 C
S
GR
GS
[0.75 0 0 0.75 166.81892 168.17625] CT
0.702 GC
10.0 ML
4 LW
N
4 0 M
4 -2.209 2.209 -4 0 -4 C
-2.209 -4 -4 -2.209 -4 0 C
-4 2.209 -2.209 4 0 4 C
2.209 4 4 2.209 4 0 C
S
GR
GS
[0.75 0 0 0.75 321.41281 137.12917] CT
0.702 GC
10.0 ML
4 LW
N
4 0 M
4 -2.209 2.209 -4 0 -4 C
-2.209 -4 -4 -2.209 -4 0 C
-4 2.209 -2.209 4 0 4 C
2.209 4 4 2.209 4 0 C
S
GR
GS
[0.75 0 0 0.75 299.15957 164.20505] CT
0.702 GC
10.0 ML
4 LW
N
4 0 M
4 -2.209 2.209 -4 0 -4 C
-2.209 -4 -4 -2.209 -4 0 C
-4 2.209 -2.209 4 0 4 C
2.209 4 4 2.209 4 0 C
S
GR
GS
[0.75 0 0 0.75 221.11796 146.81985] CT
0.702 GC
10.0 ML
4 LW
N
4 0 M
4 -2.209 2.209 -4 0 -4 C
-2.209 -4 -4 -2.209 -4 0 C
-4 2.209 -2.209 4 0 4 C
2.209 4 4 2.209 4 0 C
S
GR
GS
[0.75 0 0 0.75 202.53481 202.11472] CT
0.702 GC
10.0 ML
4 LW
N
4 0 M
4 -2.209 2.209 -4 0 -4 C
-2.209 -4 -4 -2.209 -4 0 C
-4 2.209 -2.209 4 0 4 C
2.209 4 4 2.209 4 0 C
S
GR
GS
[0.75 0 0 0.75 224.15691 235.02594] CT
0.702 GC
10.0 ML
4 LW
N
4 0 M
4 -2.209 2.209 -4 0 -4 C
-2.209 -4 -4 -2.209 -4 0 C
-4 2.209 -2.209 4 0 4 C
2.209 4 4 2.209 4 0 C
S
GR
GS
[0.75 0 0 0.75 243.30002 183.77241] CT
0.702 GC
10.0 ML
4 LW
N
4 0 M
4 -2.209 2.209 -4 0 -4 C
-2.209 -4 -4 -2.209 -4 0 C
-4 2.209 -2.209 4 0 4 C
2.209 4 4 2.209 4 0 C
S
GR
GS
[0.75 0 0 0.75 341.40742 110.60377] CT
0.702 GC
10.0 ML
4 LW
N
4 0 M
4 -2.209 2.209 -4 0 -4 C
-2.209 -4 -4 -2.209 -4 0 C
-4 2.209 -2.209 4 0 4 C
2.209 4 4 2.209 4 0 C
S
GR
GS
[0.75 0 0 0.75 222.59306 122.07494] CT
0.702 GC
10.0 ML
4 LW
N
4 0 M
4 -2.209 2.209 -4 0 -4 C
-2.209 -4 -4 -2.209 -4 0 C
-4 2.209 -2.209 4 0 4 C
2.209 4 4 2.209 4 0 C
S
GR
GS
[0.75 0 0 0.75 288.33639 162.12546] CT
0.702 GC
10.0 ML
4 LW
N
4 0 M
4 -2.209 2.209 -4 0 -4 C
-2.209 -4 -4 -2.209 -4 0 C
-4 2.209 -2.209 4 0 4 C
2.209 4 4 2.209 4 0 C
S
GR
GS
[0.75 0 0 0.75 341.65871 150.64522] CT
0.702 GC
10.0 ML
4 LW
N
4 0 M
4 -2.209 2.209 -4 0 -4 C
-2.209 -4 -4 -2.209 -4 0 C
-4 2.209 -2.209 4 0 4 C
2.209 4 4 2.209 4 0 C
S
GR
GS
[0.75 0 0 0.75 321.60175 134.92149] CT
0.702 GC
10.0 ML
4 LW
N
4 0 M
4 -2.209 2.209 -4 0 -4 C
-2.209 -4 -4 -2.209 -4 0 C
-4 2.209 -2.209 4 0 4 C
2.209 4 4 2.209 4 0 C
S
GR
GS
[0.75 0 0 0.75 358.61073 173.39748] CT
0.702 GC
10.0 ML
4 LW
N
4 0 M
4 -2.209 2.209 -4 0 -4 C
-2.209 -4 -4 -2.209 -4 0 C
-4 2.209 -2.209 4 0 4 C
2.209 4 4 2.209 4 0 C
S
GR
GS
[0.75 0 0 0.75 277.35104 192.06979] CT
0.702 GC
10.0 ML
4 LW
N
4 0 M
4 -2.209 2.209 -4 0 -4 C
-2.209 -4 -4 -2.209 -4 0 C
-4 2.209 -2.209 4 0 4 C
2.209 4 4 2.209 4 0 C
S
GR
GS
[0.75 0 0 0.75 334.95135 170.62241] CT
0.702 GC
10.0 ML
4 LW
N
4 0 M
4 -2.209 2.209 -4 0 -4 C
-2.209 -4 -4 -2.209 -4 0 C
-4 2.209 -2.209 4 0 4 C
2.209 4 4 2.209 4 0 C
S
GR
GS
[0.75 0 0 0.75 368.84347 112.50708] CT
0.702 GC
10.0 ML
4 LW
N
4 0 M
4 -2.209 2.209 -4 0 -4 C
-2.209 -4 -4 -2.209 -4 0 C
-4 2.209 -2.209 4 0 4 C
2.209 4 4 2.209 4 0 C
S
GR
GS
[0.75 0 0 0.75 248.13918 138.4355] CT
0.702 GC
10.0 ML
4 LW
N
4 0 M
4 -2.209 2.209 -4 0 -4 C
-2.209 -4 -4 -2.209 -4 0 C
-4 2.209 -2.209 4 0 4 C
2.209 4 4 2.209 4 0 C
S
GR
GS
[0.75 0 0 0.75 205.23445 135.68357] CT
0.702 GC
10.0 ML
4 LW
N
4 0 M
4 -2.209 2.209 -4 0 -4 C
-2.209 -4 -4 -2.209 -4 0 C
-4 2.209 -2.209 4 0 4 C
2.209 4 4 2.209 4 0 C
S
GR
GS
[0.75 0 0 0.75 340.09039 190.69034] CT
0.702 GC
10.0 ML
4 LW
N
4 0 M
4 -2.209 2.209 -4 0 -4 C
-2.209 -4 -4 -2.209 -4 0 C
-4 2.209 -2.209 4 0 4 C
2.209 4 4 2.209 4 0 C
S
GR
GS
[0.75 0 0 0.75 375.96899 114.08196] CT
0.702 GC
10.0 ML
4 LW
N
4 0 M
4 -2.209 2.209 -4 0 -4 C
-2.209 -4 -4 -2.209 -4 0 C
-4 2.209 -2.209 4 0 4 C
2.209 4 4 2.209 4 0 C
S
GR
GS
[0.75 0 0 0.75 245.18113 201.37754] CT
0.702 GC
10.0 ML
4 LW
N
4 0 M
4 -2.209 2.209 -4 0 -4 C
-2.209 -4 -4 -2.209 -4 0 C
-4 2.209 -2.209 4 0 4 C
2.209 4 4 2.209 4 0 C
S
GR
GS
[0.75 0 0 0.75 333.18828 207.08244] CT
0.702 GC
10.0 ML
4 LW
N
4 0 M
4 -2.209 2.209 -4 0 -4 C
-2.209 -4 -4 -2.209 -4 0 C
-4 2.209 -2.209 4 0 4 C
2.209 4 4 2.209 4 0 C
S
GR
GS
[0.75 0 0 0.75 327.40022 176.1661] CT
0.702 GC
10.0 ML
4 LW
N
4 0 M
4 -2.209 2.209 -4 0 -4 C
-2.209 -4 -4 -2.209 -4 0 C
-4 2.209 -2.209 4 0 4 C
2.209 4 4 2.209 4 0 C
S
GR
GS
[0.75 0 0 0.75 284.40981 231.79665] CT
0.702 GC
10.0 ML
4 LW
N
4 0 M
4 -2.209 2.209 -4 0 -4 C
-2.209 -4 -4 -2.209 -4 0 C
-4 2.209 -2.209 4 0 4 C
2.209 4 4 2.209 4 0 C
S
GR
GS
[0.75 0 0 0.75 327.57552 177.79667] CT
0.702 GC
10.0 ML
4 LW
N
4 0 M
4 -2.209 2.209 -4 0 -4 C
-2.209 -4 -4 -2.209 -4 0 C
-4 2.209 -2.209 4 0 4 C
2.209 4 4 2.209 4 0 C
S
GR
GS
[0.75 0 0 0.75 274.92114 179.08916] CT
0.702 GC
10.0 ML
4 LW
N
4 0 M
4 -2.209 2.209 -4 0 -4 C
-2.209 -4 -4 -2.209 -4 0 C
-4 2.209 -2.209 4 0 4 C
2.209 4 4 2.209 4 0 C
S
GR
GS
[0.75 0 0 0.75 288.68818 249.95904] CT
0.702 GC
10.0 ML
4 LW
N
4 0 M
4 -2.209 2.209 -4 0 -4 C
-2.209 -4 -4 -2.209 -4 0 C
-4 2.209 -2.209 4 0 4 C
2.209 4 4 2.209 4 0 C
S
GR
GS
[0.75 0 0 0.75 336.37088 186.47962] CT
0.702 GC
10.0 ML
4 LW
N
4 0 M
4 -2.209 2.209 -4 0 -4 C
-2.209 -4 -4 -2.209 -4 0 C
-4 2.209 -2.209 4 0 4 C
2.209 4 4 2.209 4 0 C
S
GR
GS
[0.75 0 0 0.75 327.1785 118.63111] CT
0.702 GC
10.0 ML
4 LW
N
4 0 M
4 -2.209 2.209 -4 0 -4 C
-2.209 -4 -4 -2.209 -4 0 C
-4 2.209 -2.209 4 0 4 C
2.209 4 4 2.209 4 0 C
S
GR
GS
[0.75 0 0 0.75 261.09455 203.47408] CT
0.702 GC
10.0 ML
4 LW
N
4 0 M
4 -2.209 2.209 -4 0 -4 C
-2.209 -4 -4 -2.209 -4 0 C
-4 2.209 -2.209 4 0 4 C
2.209 4 4 2.209 4 0 C
S
GR
GS
[0.75 0 0 0.75 249.16722 101.04061] CT
0.702 GC
10.0 ML
4 LW
N
4 0 M
4 -2.209 2.209 -4 0 -4 C
-2.209 -4 -4 -2.209 -4 0 C
-4 2.209 -2.209 4 0 4 C
2.209 4 4 2.209 4 0 C
S
GR
GS
[0.75 0 0 0.75 257.59113 207.41075] CT
0.702 GC
10.0 ML
4 LW
N
4 0 M
4 -2.209 2.209 -4 0 -4 C
-2.209 -4 -4 -2.209 -4 0 C
-4 2.209 -2.209 4 0 4 C
2.209 4 4 2.209 4 0 C
S
GR
GS
[0.75 0 0 0.75 379.72197 181.36715] CT
0.702 GC
10.0 ML
4 LW
N
4 0 M
4 -2.209 2.209 -4 0 -4 C
-2.209 -4 -4 -2.209 -4 0 C
-4 2.209 -2.209 4 0 4 C
2.209 4 4 2.209 4 0 C
S
GR
GS
[0.75 0 0 0.75 374.55416 178.70378] CT
0.702 GC
10.0 ML
4 LW
N
4 0 M
4 -2.209 2.209 -4 0 -4 C
-2.209 -4 -4 -2.209 -4 0 C
-4 2.209 -2.209 4 0 4 C
2.209 4 4 2.209 4 0 C
S
GR
GS
[0.75 0 0 0.75 405.38791 152.94768] CT
0.702 GC
10.0 ML
4 LW
N
4 0 M
4 -2.209 2.209 -4 0 -4 C
-2.209 -4 -4 -2.209 -4 0 C
-4 2.209 -2.209 4 0 4 C
2.209 4 4 2.209 4 0 C
S
GR
GS
[0.75 0 0 0.75 287.31601 205.21548] CT
0.702 GC
10.0 ML
4 LW
N
4 0 M
4 -2.209 2.209 -4 0 -4 C
-2.209 -4 -4 -2.209 -4 0 C
-4 2.209 -2.209 4 0 4 C
2.209 4 4 2.209 4 0 C
S
GR
GS
[0.75 0 0 0.75 255.1417 180.11135] CT
0.702 GC
10.0 ML
4 LW
N
4 0 M
4 -2.209 2.209 -4 0 -4 C
-2.209 -4 -4 -2.209 -4 0 C
-4 2.209 -2.209 4 0 4 C
2.209 4 4 2.209 4 0 C
S
GR
GS
[0.75 0 0 0.75 279.71255 175.29776] CT
0.702 GC
10.0 ML
4 LW
N
4 0 M
4 -2.209 2.209 -4 0 -4 C
-2.209 -4 -4 -2.209 -4 0 C
-4 2.209 -2.209 4 0 4 C
2.209 4 4 2.209 4 0 C
S
GR
GS
[0.75 0 0 0.75 281.68236 128.82692] CT
0.702 GC
10.0 ML
4 LW
N
4 0 M
4 -2.209 2.209 -4 0 -4 C
-2.209 -4 -4 -2.209 -4 0 C
-4 2.209 -2.209 4 0 4 C
2.209 4 4 2.209 4 0 C
S
GR
GS
[0.75 0 0 0.75 285.47763 242.17541] CT
0.702 GC
10.0 ML
4 LW
N
4 0 M
4 -2.209 2.209 -4 0 -4 C
-2.209 -4 -4 -2.209 -4 0 C
-4 2.209 -2.209 4 0 4 C
2.209 4 4 2.209 4 0 C
S
GR
GS
[0.75 0 0 0.75 373.0055 133.5074] CT
0.702 GC
10.0 ML
4 LW
N
4 0 M
4 -2.209 2.209 -4 0 -4 C
-2.209 -4 -4 -2.209 -4 0 C
-4 2.209 -2.209 4 0 4 C
2.209 4 4 2.209 4 0 C
S
GR
GS
[0.75 0 0 0.75 279.51162 176.6185] CT
0.702 GC
10.0 ML
4 LW
N
4 0 M
4 -2.209 2.209 -4 0 -4 C
-2.209 -4 -4 -2.209 -4 0 C
-4 2.209 -2.209 4 0 4 C
2.209 4 4 2.209 4 0 C
S
GR
GS
[0.75 0 0 0.75 287.49548 129.34867] CT
0.702 GC
10.0 ML
4 LW
N
4 0 M
4 -2.209 2.209 -4 0 -4 C
-2.209 -4 -4 -2.209 -4 0 C
-4 2.209 -2.209 4 0 4 C
2.209 4 4 2.209 4 0 C
S
GR
GS
[0.75 0 0 0.75 246.29491 180.11139] CT
0.702 GC
10.0 ML
4 LW
N
4 0 M
4 -2.209 2.209 -4 0 -4 C
-2.209 -4 -4 -2.209 -4 0 C
-4 2.209 -2.209 4 0 4 C
2.209 4 4 2.209 4 0 C
S
GR
GS
[0.75 0 0 0.75 239.04987 187.40443] CT
0.702 GC
10.0 ML
4 LW
N
4 0 M
4 -2.209 2.209 -4 0 -4 C
-2.209 -4 -4 -2.209 -4 0 C
-4 2.209 -2.209 4 0 4 C
2.209 4 4 2.209 4 0 C
S
GR
GS
[0.75 0 0 0.75 246.59113 243.90756] CT
0.702 GC
10.0 ML
4 LW
N
4 0 M
4 -2.209 2.209 -4 0 -4 C
-2.209 -4 -4 -2.209 -4 0 C
-4 2.209 -2.209 4 0 4 C
2.209 4 4 2.209 4 0 C
S
GR
GS
[0.75 0 0 0.75 344.00146 66.09513] CT
0.702 GC
10.0 ML
4 LW
N
4 0 M
4 -2.209 2.209 -4 0 -4 C
-2.209 -4 -4 -2.209 -4 0 C
-4 2.209 -2.209 4 0 4 C
2.209 4 4 2.209 4 0 C
S
GR
GS
[0.75 0 0 0.75 303.32613 198.58532] CT
0.702 GC
10.0 ML
4 LW
N
4 0 M
4 -2.209 2.209 -4 0 -4 C
-2.209 -4 -4 -2.209 -4 0 C
-4 2.209 -2.209 4 0 4 C
2.209 4 4 2.209 4 0 C
S
GR
GS
[0.75 0 0 0.75 235.91471 89.55054] CT
0.702 GC
10.0 ML
4 LW
N
4 0 M
4 -2.209 2.209 -4 0 -4 C
-2.209 -4 -4 -2.209 -4 0 C
-4 2.209 -2.209 4 0 4 C
2.209 4 4 2.209 4 0 C
S
GR
GS
[0.75 0 0 0.75 318.34314 165.04721] CT
0.702 GC
10.0 ML
4 LW
N
4 0 M
4 -2.209 2.209 -4 0 -4 C
-2.209 -4 -4 -2.209 -4 0 C
-4 2.209 -2.209 4 0 4 C
2.209 4 4 2.209 4 0 C
S
GR
GS
[0.75 0 0 0.75 227.17811 173.02875] CT
0.702 GC
10.0 ML
4 LW
N
4 0 M
4 -2.209 2.209 -4 0 -4 C
-2.209 -4 -4 -2.209 -4 0 C
-4 2.209 -2.209 4 0 4 C
2.209 4 4 2.209 4 0 C
S
GR
GS
[0.75 0 0 0.75 261.70434 134.32408] CT
0.702 GC
10.0 ML
4 LW
N
4 0 M
4 -2.209 2.209 -4 0 -4 C
-2.209 -4 -4 -2.209 -4 0 C
-4 2.209 -2.209 4 0 4 C
2.209 4 4 2.209 4 0 C
S
GR
GS
[0.75 0 0 0.75 309.54176 175.08471] CT
0.702 GC
10.0 ML
4 LW
N
4 0 M
4 -2.209 2.209 -4 0 -4 C
-2.209 -4 -4 -2.209 -4 0 C
-4 2.209 -2.209 4 0 4 C
2.209 4 4 2.209 4 0 C
S
GR
GS
[0.75 0 0 0.75 323.7567 181.51314] CT
0.702 GC
10.0 ML
4 LW
N
4 0 M
4 -2.209 2.209 -4 0 -4 C
-2.209 -4 -4 -2.209 -4 0 C
-4 2.209 -2.209 4 0 4 C
2.209 4 4 2.209 4 0 C
S
GR
GS
[0.75 0 0 0.75 318.11089 198.48083] CT
0.702 GC
10.0 ML
4 LW
N
4 0 M
4 -2.209 2.209 -4 0 -4 C
-2.209 -4 -4 -2.209 -4 0 C
-4 2.209 -2.209 4 0 4 C
2.209 4 4 2.209 4 0 C
S
GR
GS
[0.75 0 0 0.75 340.55196 108.16374] CT
0.702 GC
10.0 ML
4 LW
N
4 0 M
4 -2.209 2.209 -4 0 -4 C
-2.209 -4 -4 -2.209 -4 0 C
-4 2.209 -2.209 4 0 4 C
2.209 4 4 2.209 4 0 C
S
GR
GS
[0.75 0 0 0.75 354.60102 182.32866] CT
0.702 GC
10.0 ML
4 LW
N
4 0 M
4 -2.209 2.209 -4 0 -4 C
-2.209 -4 -4 -2.209 -4 0 C
-4 2.209 -2.209 4 0 4 C
2.209 4 4 2.209 4 0 C
S
GR
GS
[0.75 0 0 0.75 266.64159 267.60587] CT
0.702 GC
10.0 ML
4 LW
N
4 0 M
4 -2.209 2.209 -4 0 -4 C
-2.209 -4 -4 -2.209 -4 0 C
-4 2.209 -2.209 4 0 4 C
2.209 4 4 2.209 4 0 C
S
GR
GS
[0.75 0 0 0.75 296.28452 144.47775] CT
0.702 GC
10.0 ML
4 LW
N
4 0 M
4 -2.209 2.209 -4 0 -4 C
-2.209 -4 -4 -2.209 -4 0 C
-4 2.209 -2.209 4 0 4 C
2.209 4 4 2.209 4 0 C
S
GR
GS
[0.75 0 0 0.75 283.93659 170.40666] CT
0.702 GC
10.0 ML
4 LW
N
4 0 M
4 -2.209 2.209 -4 0 -4 C
-2.209 -4 -4 -2.209 -4 0 C
-4 2.209 -2.209 4 0 4 C
2.209 4 4 2.209 4 0 C
S
GR
GS
[0.75 0 0 0.75 362.98167 208.78768] CT
0.702 GC
10.0 ML
4 LW
N
4 0 M
4 -2.209 2.209 -4 0 -4 C
-2.209 -4 -4 -2.209 -4 0 C
-4 2.209 -2.209 4 0 4 C
2.209 4 4 2.209 4 0 C
S
GR
GS
[0.75 0 0 0.75 366.65636 147.66515] CT
0.702 GC
10.0 ML
4 LW
N
4 0 M
4 -2.209 2.209 -4 0 -4 C
-2.209 -4 -4 -2.209 -4 0 C
-4 2.209 -2.209 4 0 4 C
2.209 4 4 2.209 4 0 C
S
GR
GS
[0.75 0 0 0.75 313.75188 175.78076] CT
0.702 GC
10.0 ML
4 LW
N
4 0 M
4 -2.209 2.209 -4 0 -4 C
-2.209 -4 -4 -2.209 -4 0 C
-4 2.209 -2.209 4 0 4 C
2.209 4 4 2.209 4 0 C
S
GR
GS
[0.75 0 0 0.75 325.27984 239.3714] CT
0.702 GC
10.0 ML
4 LW
N
4 0 M
4 -2.209 2.209 -4 0 -4 C
-2.209 -4 -4 -2.209 -4 0 C
-4 2.209 -2.209 4 0 4 C
2.209 4 4 2.209 4 0 C
S
GR
GS
[0.75 0 0 0.75 251.40955 179.40057] CT
0.702 GC
10.0 ML
4 LW
N
4 0 M
4 -2.209 2.209 -4 0 -4 C
-2.209 -4 -4 -2.209 -4 0 C
-4 2.209 -2.209 4 0 4 C
2.209 4 4 2.209 4 0 C
S
GR
GS
[0.75 0 0 0.75 228.17921 181.3661] CT
0.702 GC
10.0 ML
4 LW
N
4 0 M
4 -2.209 2.209 -4 0 -4 C
-2.209 -4 -4 -2.209 -4 0 C
-4 2.209 -2.209 4 0 4 C
2.209 4 4 2.209 4 0 C
S
GR
GS
[0.75 0 0 0.75 329.19697 180.6665] CT
0.702 GC
10.0 ML
4 LW
N
4 0 M
4 -2.209 2.209 -4 0 -4 C
-2.209 -4 -4 -2.209 -4 0 C
-4 2.209 -2.209 4 0 4 C
2.209 4 4 2.209 4 0 C
S
GR
GS
[0.75 0 0 0.75 351.12753 206.46018] CT
0.702 GC
10.0 ML
4 LW
N
4 0 M
4 -2.209 2.209 -4 0 -4 C
-2.209 -4 -4 -2.209 -4 0 C
-4 2.209 -2.209 4 0 4 C
2.209 4 4 2.209 4 0 C
S
GR
GS
[0.75 0 0 0.75 267.86401 137.21967] CT
0.702 GC
10.0 ML
4 LW
N
4 0 M
4 -2.209 2.209 -4 0 -4 C
-2.209 -4 -4 -2.209 -4 0 C
-4 2.209 -2.209 4 0 4 C
2.209 4 4 2.209 4 0 C
S
GR
GS
[0.75 0 0 0.75 356.50433 156.89241] CT
0.702 GC
10.0 ML
4 LW
N
4 0 M
4 -2.209 2.209 -4 0 -4 C
-2.209 -4 -4 -2.209 -4 0 C
-4 2.209 -2.209 4 0 4 C
2.209 4 4 2.209 4 0 C
S
GR
GS
[0.75 0 0 0.75 236.73386 190.82088] CT
0.702 GC
10.0 ML
4 LW
N
4 0 M
4 -2.209 2.209 -4 0 -4 C
-2.209 -4 -4 -2.209 -4 0 C
-4 2.209 -2.209 4 0 4 C
2.209 4 4 2.209 4 0 C
S
GR
GS
[0.75 0 0 0.75 301.31824 132.99459] CT
0.702 GC
10.0 ML
4 LW
N
4 0 M
4 -2.209 2.209 -4 0 -4 C
-2.209 -4 -4 -2.209 -4 0 C
-4 2.209 -2.209 4 0 4 C
2.209 4 4 2.209 4 0 C
S
GR
GS
[0.75 0 0 0.75 394.44791 188.46514] CT
0.702 GC
10.0 ML
4 LW
N
4 0 M
4 -2.209 2.209 -4 0 -4 C
-2.209 -4 -4 -2.209 -4 0 C
-4 2.209 -2.209 4 0 4 C
2.209 4 4 2.209 4 0 C
S
GR
GS
[0.75 0 0 0.75 368.70344 194.30816] CT
0.702 GC
10.0 ML
4 LW
N
4 0 M
4 -2.209 2.209 -4 0 -4 C
-2.209 -4 -4 -2.209 -4 0 C
-4 2.209 -2.209 4 0 4 C
2.209 4 4 2.209 4 0 C
S
GR
GS
[0.75 0 0 0.75 310.47743 154.3157] CT
0.702 GC
10.0 ML
4 LW
N
4 0 M
4 -2.209 2.209 -4 0 -4 C
-2.209 -4 -4 -2.209 -4 0 C
-4 2.209 -2.209 4 0 4 C
2.209 4 4 2.209 4 0 C
S
GR
GS
[0.75 0 0 0.75 311.79847 261.08183] CT
0.702 GC
10.0 ML
4 LW
N
4 0 M
4 -2.209 2.209 -4 0 -4 C
-2.209 -4 -4 -2.209 -4 0 C
-4 2.209 -2.209 4 0 4 C
2.209 4 4 2.209 4 0 C
S
GR
GS
[0.75 0 0 0.75 215.48925 202.81785] CT
0.702 GC
10.0 ML
4 LW
N
4 0 M
4 -2.209 2.209 -4 0 -4 C
-2.209 -4 -4 -2.209 -4 0 C
-4 2.209 -2.209 4 0 4 C
2.209 4 4 2.209 4 0 C
S
GR
GS
[0.75 0 0 0.75 336.91033 222.30755] CT
0.702 GC
10.0 ML
4 LW
N
4 0 M
4 -2.209 2.209 -4 0 -4 C
-2.209 -4 -4 -2.209 -4 0 C
-4 2.209 -2.209 4 0 4 C
2.209 4 4 2.209 4 0 C
S
GR
GS
[0.75 0 0 0.75 246.38619 174.79401] CT
0.702 GC
10.0 ML
4 LW
N
4 0 M
4 -2.209 2.209 -4 0 -4 C
-2.209 -4 -4 -2.209 -4 0 C
-4 2.209 -2.209 4 0 4 C
2.209 4 4 2.209 4 0 C
S
GR
GS
[0.75 0 0 0.75 274.73048 147.90525] CT
0.702 GC
10.0 ML
4 LW
N
4 0 M
4 -2.209 2.209 -4 0 -4 C
-2.209 -4 -4 -2.209 -4 0 C
-4 2.209 -2.209 4 0 4 C
2.209 4 4 2.209 4 0 C
S
GR
GS
[0.75 0 0 0.75 341.61275 186.24891] CT
0.702 GC
10.0 ML
4 LW
N
4 0 M
4 -2.209 2.209 -4 0 -4 C
-2.209 -4 -4 -2.209 -4 0 C
-4 2.209 -2.209 4 0 4 C
2.209 4 4 2.209 4 0 C
S
GR
GS
[0.75 0 0 0.75 296.72891 234.63714] CT
0.702 GC
10.0 ML
4 LW
N
4 0 M
4 -2.209 2.209 -4 0 -4 C
-2.209 -4 -4 -2.209 -4 0 C
-4 2.209 -2.209 4 0 4 C
2.209 4 4 2.209 4 0 C
S
GR
GS
[0.75 0 0 0.75 371.34043 162.01037] CT
0.702 GC
10.0 ML
4 LW
N
4 0 M
4 -2.209 2.209 -4 0 -4 C
-2.209 -4 -4 -2.209 -4 0 C
-4 2.209 -2.209 4 0 4 C
2.209 4 4 2.209 4 0 C
S
GR
GS
[0.75 0 0 0.75 228.3167 161.0709] CT
0.702 GC
10.0 ML
4 LW
N
4 0 M
4 -2.209 2.209 -4 0 -4 C
-2.209 -4 -4 -2.209 -4 0 C
-4 2.209 -2.209 4 0 4 C
2.209 4 4 2.209 4 0 C
S
GR
GS
[0.75 0 0 0.75 359.03304 203.07976] CT
0.702 GC
10.0 ML
4 LW
N
4 0 M
4 -2.209 2.209 -4 0 -4 C
-2.209 -4 -4 -2.209 -4 0 C
-4 2.209 -2.209 4 0 4 C
2.209 4 4 2.209 4 0 C
S
GR
GS
[0.75 0 0 0.75 251.98508 226.90867] CT
0.702 GC
10.0 ML
4 LW
N
4 0 M
4 -2.209 2.209 -4 0 -4 C
-2.209 -4 -4 -2.209 -4 0 C
-4 2.209 -2.209 4 0 4 C
2.209 4 4 2.209 4 0 C
S
GR
GS
[0.75 0 0 0.75 397.23235 119.20987] CT
0.702 GC
10.0 ML
4 LW
N
4 0 M
4 -2.209 2.209 -4 0 -4 C
-2.209 -4 -4 -2.209 -4 0 C
-4 2.209 -2.209 4 0 4 C
2.209 4 4 2.209 4 0 C
S
GR
GS
[0.75 0 0 0.75 311.4418 194.50676] CT
0.702 GC
10.0 ML
4 LW
N
4 0 M
4 -2.209 2.209 -4 0 -4 C
-2.209 -4 -4 -2.209 -4 0 C
-4 2.209 -2.209 4 0 4 C
2.209 4 4 2.209 4 0 C
S
GR
GS
[0.75 0 0 0.75 290.30152 164.96313] CT
0.702 GC
10.0 ML
4 LW
N
4 0 M
4 -2.209 2.209 -4 0 -4 C
-2.209 -4 -4 -2.209 -4 0 C
-4 2.209 -2.209 4 0 4 C
2.209 4 4 2.209 4 0 C
S
GR
GS
[0.75 0 0 0.75 327.19883 179.64467] CT
0.702 GC
10.0 ML
4 LW
N
4 0 M
4 -2.209 2.209 -4 0 -4 C
-2.209 -4 -4 -2.209 -4 0 C
-4 2.209 -2.209 4 0 4 C
2.209 4 4 2.209 4 0 C
S
GR
GS
[0.75 0 0 0.75 208.6707 162.49286] CT
0.702 GC
10.0 ML
4 LW
N
4 0 M
4 -2.209 2.209 -4 0 -4 C
-2.209 -4 -4 -2.209 -4 0 C
-4 2.209 -2.209 4 0 4 C
2.209 4 4 2.209 4 0 C
S
GR
GS
[0.75 0 0 0.75 274.66152 151.13586] CT
0.702 GC
10.0 ML
4 LW
N
4 0 M
4 -2.209 2.209 -4 0 -4 C
-2.209 -4 -4 -2.209 -4 0 C
-4 2.209 -2.209 4 0 4 C
2.209 4 4 2.209 4 0 C
S
GR
GS
[0.75 0 0 0.75 341.50568 187.97387] CT
0.702 GC
10.0 ML
4 LW
N
4 0 M
4 -2.209 2.209 -4 0 -4 C
-2.209 -4 -4 -2.209 -4 0 C
-4 2.209 -2.209 4 0 4 C
2.209 4 4 2.209 4 0 C
S
GR
GS
[0.75 0 0 0.75 303.14296 213.71484] CT
0.702 GC
10.0 ML
4 LW
N
4 0 M
4 -2.209 2.209 -4 0 -4 C
-2.209 -4 -4 -2.209 -4 0 C
-4 2.209 -2.209 4 0 4 C
2.209 4 4 2.209 4 0 C
S
GR
GS
[0.75 0 0 0.75 306.20725 151.15209] CT
0.702 GC
10.0 ML
4 LW
N
4 0 M
4 -2.209 2.209 -4 0 -4 C
-2.209 -4 -4 -2.209 -4 0 C
-4 2.209 -2.209 4 0 4 C
2.209 4 4 2.209 4 0 C
S
GR
GS
[0.75 0 0 0.75 296.80538 88.62087] CT
0.702 GC
10.0 ML
4 LW
N
4 0 M
4 -2.209 2.209 -4 0 -4 C
-2.209 -4 -4 -2.209 -4 0 C
-4 2.209 -2.209 4 0 4 C
2.209 4 4 2.209 4 0 C
S
GR
GS
[0.75 0 0 0.75 237.73286 181.75139] CT
0.702 GC
10.0 ML
4 LW
N
4 0 M
4 -2.209 2.209 -4 0 -4 C
-2.209 -4 -4 -2.209 -4 0 C
-4 2.209 -2.209 4 0 4 C
2.209 4 4 2.209 4 0 C
S
GR
GS
[0.75 0 0 0.75 304.11017 187.74477] CT
0.702 GC
10.0 ML
4 LW
N
4 0 M
4 -2.209 2.209 -4 0 -4 C
-2.209 -4 -4 -2.209 -4 0 C
-4 2.209 -2.209 4 0 4 C
2.209 4 4 2.209 4 0 C
S
GR
GS
[0.75 0 0 0.75 269.01995 141.1814] CT
0.702 GC
10.0 ML
4 LW
N
4 0 M
4 -2.209 2.209 -4 0 -4 C
-2.209 -4 -4 -2.209 -4 0 C
-4 2.209 -2.209 4 0 4 C
2.209 4 4 2.209 4 0 C
S
GR
GS
[0.75 0 0 0.75 340.85591 149.84462] CT
0.702 GC
10.0 ML
4 LW
N
4 0 M
4 -2.209 2.209 -4 0 -4 C
-2.209 -4 -4 -2.209 -4 0 C
-4 2.209 -2.209 4 0 4 C
2.209 4 4 2.209 4 0 C
S
GR
GS
[0.75 0 0 0.75 291.36827 250.49409] CT
0.702 GC
10.0 ML
4 LW
N
4 0 M
4 -2.209 2.209 -4 0 -4 C
-2.209 -4 -4 -2.209 -4 0 C
-4 2.209 -2.209 4 0 4 C
2.209 4 4 2.209 4 0 C
S
GR
GS
[0.75 0 0 0.75 327.07876 159.16908] CT
0.702 GC
10.0 ML
4 LW
N
4 0 M
4 -2.209 2.209 -4 0 -4 C
-2.209 -4 -4 -2.209 -4 0 C
-4 2.209 -2.209 4 0 4 C
2.209 4 4 2.209 4 0 C
S
GR
GS
[0.75 0 0 0.75 227.36357 190.69154] CT
0.702 GC
10.0 ML
4 LW
N
4 0 M
4 -2.209 2.209 -4 0 -4 C
-2.209 -4 -4 -2.209 -4 0 C
-4 2.209 -2.209 4 0 4 C
2.209 4 4 2.209 4 0 C
S
GR
GS
[0.75 0 0 0.75 252.00485 178.45441] CT
0.702 GC
10.0 ML
4 LW
N
4 0 M
4 -2.209 2.209 -4 0 -4 C
-2.209 -4 -4 -2.209 -4 0 C
-4 2.209 -2.209 4 0 4 C
2.209 4 4 2.209 4 0 C
S
GR
GS
[0.75 0 0 0.75 314.26284 196.15224] CT
0.702 GC
10.0 ML
4 LW
N
4 0 M
4 -2.209 2.209 -4 0 -4 C
-2.209 -4 -4 -2.209 -4 0 C
-4 2.209 -2.209 4 0 4 C
2.209 4 4 2.209 4 0 C
S
GR
GS
[0.75 0 0 0.75 270.06688 156.12733] CT
0.702 GC
10.0 ML
4 LW
N
4 0 M
4 -2.209 2.209 -4 0 -4 C
-2.209 -4 -4 -2.209 -4 0 C
-4 2.209 -2.209 4 0 4 C
2.209 4 4 2.209 4 0 C
S
GR
GS
[0.75 0 0 0.75 270.32222 232.74584] CT
0.702 GC
10.0 ML
4 LW
N
4 0 M
4 -2.209 2.209 -4 0 -4 C
-2.209 -4 -4 -2.209 -4 0 C
-4 2.209 -2.209 4 0 4 C
2.209 4 4 2.209 4 0 C
S
GR
GS
[0.75 0 0 0.75 297.88506 154.56038] CT
0.702 GC
10.0 ML
4 LW
N
4 0 M
4 -2.209 2.209 -4 0 -4 C
-2.209 -4 -4 -2.209 -4 0 C
-4 2.209 -2.209 4 0 4 C
2.209 4 4 2.209 4 0 C
S
GR
GS
[0.75 0 0 0.75 399.1062 163.32844] CT
0.702 GC
10.0 ML
4 LW
N
4 0 M
4 -2.209 2.209 -4 0 -4 C
-2.209 -4 -4 -2.209 -4 0 C
-4 2.209 -2.209 4 0 4 C
2.209 4 4 2.209 4 0 C
S
GR
GS
[0.75 0 0 0.75 295.99706 142.68807] CT
0.702 GC
10.0 ML
4 LW
N
4 0 M
4 -2.209 2.209 -4 0 -4 C
-2.209 -4 -4 -2.209 -4 0 C
-4 2.209 -2.209 4 0 4 C
2.209 4 4 2.209 4 0 C
S
GR
GS
[0.75 0 0 0.75 266.94065 179.62896] CT
0.702 GC
10.0 ML
4 LW
N
4 0 M
4 -2.209 2.209 -4 0 -4 C
-2.209 -4 -4 -2.209 -4 0 C
-4 2.209 -2.209 4 0 4 C
2.209 4 4 2.209 4 0 C
S
GR
GS
[0.75 0 0 0.75 243.82098 116.19065] CT
0.702 GC
10.0 ML
4 LW
N
4 0 M
4 -2.209 2.209 -4 0 -4 C
-2.209 -4 -4 -2.209 -4 0 C
-4 2.209 -2.209 4 0 4 C
2.209 4 4 2.209 4 0 C
S
GR
GS
[0.75 0 0 0.75 291.69516 187.86845] CT
0.702 GC
10.0 ML
4 LW
N
4 0 M
4 -2.209 2.209 -4 0 -4 C
-2.209 -4 -4 -2.209 -4 0 C
-4 2.209 -2.209 4 0 4 C
2.209 4 4 2.209 4 0 C
S
GR
GS
[0.75 0 0 0.75 324.22424 225.10247] CT
0.702 GC
10.0 ML
4 LW
N
4 0 M
4 -2.209 2.209 -4 0 -4 C
-2.209 -4 -4 -2.209 -4 0 C
-4 2.209 -2.209 4 0 4 C
2.209 4 4 2.209 4 0 C
S
GR
GS
[0.75 0 0 0.75 295.45342 137.20571] CT
0.702 GC
10.0 ML
4 LW
N
4 0 M
4 -2.209 2.209 -4 0 -4 C
-2.209 -4 -4 -2.209 -4 0 C
-4 2.209 -2.209 4 0 4 C
2.209 4 4 2.209 4 0 C
S
GR
GS
[0.75 0 0 0.75 334.34743 184.91167] CT
0.702 GC
10.0 ML
4 LW
N
4 0 M
4 -2.209 2.209 -4 0 -4 C
-2.209 -4 -4 -2.209 -4 0 C
-4 2.209 -2.209 4 0 4 C
2.209 4 4 2.209 4 0 C
S
GR
GS
[0.75 0 0 0.75 323.77469 276.21632] CT
0.702 GC
10.0 ML
4 LW
N
4 0 M
4 -2.209 2.209 -4 0 -4 C
-2.209 -4 -4 -2.209 -4 0 C
-4 2.209 -2.209 4 0 4 C
2.209 4 4 2.209 4 0 C
S
GR
GS
[0.75 0 0 0.75 333.82224 110.78061] CT
0.702 GC
10.0 ML
4 LW
N
4 0 M
4 -2.209 2.209 -4 0 -4 C
-2.209 -4 -4 -2.209 -4 0 C
-4 2.209 -2.209 4 0 4 C
2.209 4 4 2.209 4 0 C
S
GR
GS
[0.75 0 0 0.75 383.50813 187.88068] CT
0.702 GC
10.0 ML
4 LW
N
4 0 M
4 -2.209 2.209 -4 0 -4 C
-2.209 -4 -4 -2.209 -4 0 C
-4 2.209 -2.209 4 0 4 C
2.209 4 4 2.209 4 0 C
S
GR
GS
[0.75 0 0 0.75 334.15302 222.22387] CT
0.702 GC
10.0 ML
4 LW
N
4 0 M
4 -2.209 2.209 -4 0 -4 C
-2.209 -4 -4 -2.209 -4 0 C
-4 2.209 -2.209 4 0 4 C
2.209 4 4 2.209 4 0 C
S
GR
GS
[0.75 0 0 0.75 269.7212 116.40604] CT
0.702 GC
10.0 ML
4 LW
N
4 0 M
4 -2.209 2.209 -4 0 -4 C
-2.209 -4 -4 -2.209 -4 0 C
-4 2.209 -2.209 4 0 4 C
2.209 4 4 2.209 4 0 C
S
GR
GS
[0.75 0 0 0.75 284.66856 216.10501] CT
0.702 GC
10.0 ML
4 LW
N
4 0 M
4 -2.209 2.209 -4 0 -4 C
-2.209 -4 -4 -2.209 -4 0 C
-4 2.209 -2.209 4 0 4 C
2.209 4 4 2.209 4 0 C
S
GR
GS
[0.75 0 0 0.75 177.77975 192.45275] CT
0.702 GC
10.0 ML
4 LW
N
4 0 M
4 -2.209 2.209 -4 0 -4 C
-2.209 -4 -4 -2.209 -4 0 C
-4 2.209 -2.209 4 0 4 C
2.209 4 4 2.209 4 0 C
S
GR
GS
[0.75 0 0 0.75 313.03674 103.39265] CT
0.702 GC
10.0 ML
4 LW
N
4 0 M
4 -2.209 2.209 -4 0 -4 C
-2.209 -4 -4 -2.209 -4 0 C
-4 2.209 -2.209 4 0 4 C
2.209 4 4 2.209 4 0 C
S
GR
GS
[0.75 0 0 0.75 336.29913 178.30864] CT
0.702 GC
10.0 ML
4 LW
N
4 0 M
4 -2.209 2.209 -4 0 -4 C
-2.209 -4 -4 -2.209 -4 0 C
-4 2.209 -2.209 4 0 4 C
2.209 4 4 2.209 4 0 C
S
GR
GS
[0.75 0 0 0.75 357.20764 161.43248] CT
0.702 GC
10.0 ML
4 LW
N
4 0 M
4 -2.209 2.209 -4 0 -4 C
-2.209 -4 -4 -2.209 -4 0 C
-4 2.209 -2.209 4 0 4 C
2.209 4 4 2.209 4 0 C
S
GR
GS
[0.75 0 0 0.75 297.26429 183.67902] CT
0.702 GC
10.0 ML
4 LW
N
4 0 M
4 -2.209 2.209 -4 0 -4 C
-2.209 -4 -4 -2.209 -4 0 C
-4 2.209 -2.209 4 0 4 C
2.209 4 4 2.209 4 0 C
S
GR
GS
[0.75 0 0 0.75 267.04864 239.44949] CT
0.702 GC
10.0 ML
4 LW
N
4 0 M
4 -2.209 2.209 -4 0 -4 C
-2.209 -4 -4 -2.209 -4 0 C
-4 2.209 -2.209 4 0 4 C
2.209 4 4 2.209 4 0 C
S
GR
GS
[0.75 0 0 0.75 272.06506 209.64047] CT
0.702 GC
10.0 ML
4 LW
N
4 0 M
4 -2.209 2.209 -4 0 -4 C
-2.209 -4 -4 -2.209 -4 0 C
-4 2.209 -2.209 4 0 4 C
2.209 4 4 2.209 4 0 C
S
GR
GS
[0.75 0 0 0.75 390.01611 94.44069] CT
0.702 GC
10.0 ML
4 LW
N
4 0 M
4 -2.209 2.209 -4 0 -4 C
-2.209 -4 -4 -2.209 -4 0 C
-4 2.209 -2.209 4 0 4 C
2.209 4 4 2.209 4 0 C
S
GR
GS
[0.75 0 0 0.75 310.13789 175.42393] CT
0.702 GC
10.0 ML
4 LW
N
4 0 M
4 -2.209 2.209 -4 0 -4 C
-2.209 -4 -4 -2.209 -4 0 C
-4 2.209 -2.209 4 0 4 C
2.209 4 4 2.209 4 0 C
S
GR
GS
[0.75 0 0 0.75 338.20104 156.01512] CT
0.702 GC
10.0 ML
4 LW
N
4 0 M
4 -2.209 2.209 -4 0 -4 C
-2.209 -4 -4 -2.209 -4 0 C
-4 2.209 -2.209 4 0 4 C
2.209 4 4 2.209 4 0 C
S
GR
GS
[0.75 0 0 0.75 346.41028 133.2271] CT
0.702 GC
10.0 ML
4 LW
N
4 0 M
4 -2.209 2.209 -4 0 -4 C
-2.209 -4 -4 -2.209 -4 0 C
-4 2.209 -2.209 4 0 4 C
2.209 4 4 2.209 4 0 C
S
GR
GS
[0.75 0 0 0.75 284.28539 224.02146] CT
0.702 GC
10.0 ML
4 LW
N
4 0 M
4 -2.209 2.209 -4 0 -4 C
-2.209 -4 -4 -2.209 -4 0 C
-4 2.209 -2.209 4 0 4 C
2.209 4 4 2.209 4 0 C
S
GR
GS
[0.75 0 0 0.75 260.02476 173.26386] CT
0.702 GC
10.0 ML
4 LW
N
4 0 M
4 -2.209 2.209 -4 0 -4 C
-2.209 -4 -4 -2.209 -4 0 C
-4 2.209 -2.209 4 0 4 C
2.209 4 4 2.209 4 0 C
S
GR
GS
[0.75 0 0 0.75 407.25 171.4967] CT
0.702 GC
10.0 ML
4 LW
N
4 0 M
4 -2.209 2.209 -4 0 -4 C
-2.209 -4 -4 -2.209 -4 0 C
-4 2.209 -2.209 4 0 4 C
2.209 4 4 2.209 4 0 C
S
GR
GS
[0.75 0 0 0.75 274.63449 155.28642] CT
0.702 GC
10.0 ML
4 LW
N
4 0 M
4 -2.209 2.209 -4 0 -4 C
-2.209 -4 -4 -2.209 -4 0 C
-4 2.209 -2.209 4 0 4 C
2.209 4 4 2.209 4 0 C
S
GR
GS
[0.75 0 0 0.75 230.63953 143.07199] CT
0.702 GC
10.0 ML
4 LW
N
4 0 M
4 -2.209 2.209 -4 0 -4 C
-2.209 -4 -4 -2.209 -4 0 C
-4 2.209 -2.209 4 0 4 C
2.209 4 4 2.209 4 0 C
S
GR
GS
[0.75 0 0 0.75 255.21224 186.72834] CT
0.702 GC
10.0 ML
4 LW
N
4 0 M
4 -2.209 2.209 -4 0 -4 C
-2.209 -4 -4 -2.209 -4 0 C
-4 2.209 -2.209 4 0 4 C
2.209 4 4 2.209 4 0 C
S
GR
GS
[0.75 0 0 0.75 321.89948 187.0566] CT
0.702 GC
10.0 ML
4 LW
N
4 0 M
4 -2.209 2.209 -4 0 -4 C
-2.209 -4 -4 -2.209 -4 0 C
-4 2.209 -2.209 4 0 4 C
2.209 4 4 2.209 4 0 C
S
GR
GS
[0.75 0 0 0.75 332.54766 228.38633] CT
0.702 GC
10.0 ML
4 LW
N
4 0 M
4 -2.209 2.209 -4 0 -4 C
-2.209 -4 -4 -2.209 -4 0 C
-4 2.209 -2.209 4 0 4 C
2.209 4 4 2.209 4 0 C
S
GR
GS
[0.75 0 0 0.75 251.88082 202.33678] CT
0.702 GC
10.0 ML
4 LW
N
4 0 M
4 -2.209 2.209 -4 0 -4 C
-2.209 -4 -4 -2.209 -4 0 C
-4 2.209 -2.209 4 0 4 C
2.209 4 4 2.209 4 0 C
S
GR
GS
[0.75 0 0 0.75 329.10461 101.89072] CT
0.702 GC
10.0 ML
4 LW
N
4 0 M
4 -2.209 2.209 -4 0 -4 C
-2.209 -4 -4 -2.209 -4 0 C
-4 2.209 -2.209 4 0 4 C
2.209 4 4 2.209 4 0 C
S
GR
GS
[0.75 0 0 0.75 311.49147 146.94776] CT
0.702 GC
10.0 ML
4 LW
N
4 0 M
4 -2.209 2.209 -4 0 -4 C
-2.209 -4 -4 -2.209 -4 0 C
-4 2.209 -2.209 4 0 4 C
2.209 4 4 2.209 4 0 C
S
GR
GS
[0.75 0 0 0.75 329.2102 141.52766] CT
0.702 GC
10.0 ML
4 LW
N
4 0 M
4 -2.209 2.209 -4 0 -4 C
-2.209 -4 -4 -2.209 -4 0 C
-4 2.209 -2.209 4 0 4 C
2.209 4 4 2.209 4 0 C
S
GR
GS
[0.75 0 0 0.75 357.53732 232.65058] CT
0.702 GC
10.0 ML
4 LW
N
4 0 M
4 -2.209 2.209 -4 0 -4 C
-2.209 -4 -4 -2.209 -4 0 C
-4 2.209 -2.209 4 0 4 C
2.209 4 4 2.209 4 0 C
S
GR
GS
[0.75 0 0 0.75 301.7533 202.40254] CT
0.702 GC
10.0 ML
4 LW
N
4 0 M
4 -2.209 2.209 -4 0 -4 C
-2.209 -4 -4 -2.209 -4 0 C
-4 2.209 -2.209 4 0 4 C
2.209 4 4 2.209 4 0 C
S
GR
GS
[0.75 0 0 0.75 363.82388 224.64759] CT
0.702 GC
10.0 ML
4 LW
N
4 0 M
4 -2.209 2.209 -4 0 -4 C
-2.209 -4 -4 -2.209 -4 0 C
-4 2.209 -2.209 4 0 4 C
2.209 4 4 2.209 4 0 C
S
GR
GS
[0.75 0 0 0.75 305.77359 131.19482] CT
0.702 GC
10.0 ML
4 LW
N
4 0 M
4 -2.209 2.209 -4 0 -4 C
-2.209 -4 -4 -2.209 -4 0 C
-4 2.209 -2.209 4 0 4 C
2.209 4 4 2.209 4 0 C
S
GR
GS
[0.75 0 0 0.75 254.10656 186.31801] CT
0.702 GC
10.0 ML
4 LW
N
4 0 M
4 -2.209 2.209 -4 0 -4 C
-2.209 -4 -4 -2.209 -4 0 C
-4 2.209 -2.209 4 0 4 C
2.209 4 4 2.209 4 0 C
S
GR
GS
[0.75 0 0 0.75 306.40654 169.04392] CT
0.702 GC
10.0 ML
4 LW
N
4 0 M
4 -2.209 2.209 -4 0 -4 C
-2.209 -4 -4 -2.209 -4 0 C
-4 2.209 -2.209 4 0 4 C
2.209 4 4 2.209 4 0 C
S
GR
GS
[0.75 0 0 0.75 158.55231 168.28785] CT
0.702 GC
10.0 ML
4 LW
N
4 0 M
4 -2.209 2.209 -4 0 -4 C
-2.209 -4 -4 -2.209 -4 0 C
-4 2.209 -2.209 4 0 4 C
2.209 4 4 2.209 4 0 C
S
GR
GS
[0.75 0 0 0.75 233.19642 218.16232] CT
0.702 GC
10.0 ML
4 LW
N
4 0 M
4 -2.209 2.209 -4 0 -4 C
-2.209 -4 -4 -2.209 -4 0 C
-4 2.209 -2.209 4 0 4 C
2.209 4 4 2.209 4 0 C
S
GR
GS
[0.75 0 0 0.75 306.85014 146.77798] CT
0.702 GC
10.0 ML
4 LW
N
4 0 M
4 -2.209 2.209 -4 0 -4 C
-2.209 -4 -4 -2.209 -4 0 C
-4 2.209 -2.209 4 0 4 C
2.209 4 4 2.209 4 0 C
S
GR
GS
[0.75 0 0 0.75 301.68901 168.42413] CT
0.702 GC
10.0 ML
4 LW
N
4 0 M
4 -2.209 2.209 -4 0 -4 C
-2.209 -4 -4 -2.209 -4 0 C
-4 2.209 -2.209 4 0 4 C
2.209 4 4 2.209 4 0 C
S
GR
GS
[0.75 0 0 0.75 361.23255 153.89072] CT
0.702 GC
10.0 ML
4 LW
N
4 0 M
4 -2.209 2.209 -4 0 -4 C
-2.209 -4 -4 -2.209 -4 0 C
-4 2.209 -2.209 4 0 4 C
2.209 4 4 2.209 4 0 C
S
GR
GS
[0.75 0 0 0.75 233.26579 120.13518] CT
0.702 GC
10.0 ML
4 LW
N
4 0 M
4 -2.209 2.209 -4 0 -4 C
-2.209 -4 -4 -2.209 -4 0 C
-4 2.209 -2.209 4 0 4 C
2.209 4 4 2.209 4 0 C
S
GR
GS
[0.75 0 0 0.75 324.03246 182.4772] CT
0.702 GC
10.0 ML
4 LW
N
4 0 M
4 -2.209 2.209 -4 0 -4 C
-2.209 -4 -4 -2.209 -4 0 C
-4 2.209 -2.209 4 0 4 C
2.209 4 4 2.209 4 0 C
S
GR
GS
[0.75 0 0 0.75 352.74628 108.08504] CT
0.702 GC
10.0 ML
4 LW
N
4 0 M
4 -2.209 2.209 -4 0 -4 C
-2.209 -4 -4 -2.209 -4 0 C
-4 2.209 -2.209 4 0 4 C
2.209 4 4 2.209 4 0 C
S
GR
GS
[0.75 0 0 0.75 237.02973 270.6744] CT
0.702 GC
10.0 ML
4 LW
N
4 0 M
4 -2.209 2.209 -4 0 -4 C
-2.209 -4 -4 -2.209 -4 0 C
-4 2.209 -2.209 4 0 4 C
2.209 4 4 2.209 4 0 C
S
GR
GS
[0.75 0 0 0.75 360.27555 150.52411] CT
0.702 GC
10.0 ML
4 LW
N
4 0 M
4 -2.209 2.209 -4 0 -4 C
-2.209 -4 -4 -2.209 -4 0 C
-4 2.209 -2.209 4 0 4 C
2.209 4 4 2.209 4 0 C
S
GR
GS
[0.75 0 0 0.75 261.75179 244.59778] CT
0.702 GC
10.0 ML
4 LW
N
4 0 M
4 -2.209 2.209 -4 0 -4 C
-2.209 -4 -4 -2.209 -4 0 C
-4 2.209 -2.209 4 0 4 C
2.209 4 4 2.209 4 0 C
S
GR
GS
[0.75 0 0 0.75 298.36027 214.67441] CT
0.702 GC
10.0 ML
4 LW
N
4 0 M
4 -2.209 2.209 -4 0 -4 C
-2.209 -4 -4 -2.209 -4 0 C
-4 2.209 -2.209 4 0 4 C
2.209 4 4 2.209 4 0 C
S
GR
GS
[0.75 0 0 0.75 291.39068 256.981] CT
0.702 GC
10.0 ML
4 LW
N
4 0 M
4 -2.209 2.209 -4 0 -4 C
-2.209 -4 -4 -2.209 -4 0 C
-4 2.209 -2.209 4 0 4 C
2.209 4 4 2.209 4 0 C
S
GR
GS
[0.75 0 0 0.75 333.20929 154.11714] CT
0.702 GC
10.0 ML
4 LW
N
4 0 M
4 -2.209 2.209 -4 0 -4 C
-2.209 -4 -4 -2.209 -4 0 C
-4 2.209 -2.209 4 0 4 C
2.209 4 4 2.209 4 0 C
S
GR
GS
[0.75 0 0 0.75 285.18288 214.71256] CT
0.702 GC
10.0 ML
4 LW
N
4 0 M
4 -2.209 2.209 -4 0 -4 C
-2.209 -4 -4 -2.209 -4 0 C
-4 2.209 -2.209 4 0 4 C
2.209 4 4 2.209 4 0 C
S
GR
GS
[0.75 0 0 0.75 302.12016 178.36466] CT
0.702 GC
10.0 ML
4 LW
N
4 0 M
4 -2.209 2.209 -4 0 -4 C
-2.209 -4 -4 -2.209 -4 0 C
-4 2.209 -2.209 4 0 4 C
2.209 4 4 2.209 4 0 C
S
GR
GS
[0.75 0 0 0.75 217.09373 170.79346] CT
0.702 GC
10.0 ML
4 LW
N
4 0 M
4 -2.209 2.209 -4 0 -4 C
-2.209 -4 -4 -2.209 -4 0 C
-4 2.209 -2.209 4 0 4 C
2.209 4 4 2.209 4 0 C
S
GR
GS
[0.75 0 0 0.75 274.0486 229.85699] CT
0.702 GC
10.0 ML
4 LW
N
4 0 M
4 -2.209 2.209 -4 0 -4 C
-2.209 -4 -4 -2.209 -4 0 C
-4 2.209 -2.209 4 0 4 C
2.209 4 4 2.209 4 0 C
S
GR
GS
[0.75 0 0 0.75 329.4147 192.35346] CT
0.702 GC
10.0 ML
4 LW
N
4 0 M
4 -2.209 2.209 -4 0 -4 C
-2.209 -4 -4 -2.209 -4 0 C
-4 2.209 -2.209 4 0 4 C
2.209 4 4 2.209 4 0 C
S
GR
GS
[0.75 0 0 0.75 298.48 81.60196] CT
0.702 GC
10.0 ML
4 LW
N
4 0 M
4 -2.209 2.209 -4 0 -4 C
-2.209 -4 -4 -2.209 -4 0 C
-4 2.209 -2.209 4 0 4 C
2.209 4 4 2.209 4 0 C
S
GR
GS
[0.75 0 0 0.75 271.43301 256.41312] CT
0.702 GC
10.0 ML
4 LW
N
4 0 M
4 -2.209 2.209 -4 0 -4 C
-2.209 -4 -4 -2.209 -4 0 C
-4 2.209 -2.209 4 0 4 C
2.209 4 4 2.209 4 0 C
S
GR
GS
[0.75 0 0 0.75 204.89969 271.34276] CT
0.702 GC
10.0 ML
4 LW
N
4 0 M
4 -2.209 2.209 -4 0 -4 C
-2.209 -4 -4 -2.209 -4 0 C
-4 2.209 -2.209 4 0 4 C
2.209 4 4 2.209 4 0 C
S
GR
GS
[0.75 0 0 0.75 252.42442 352.11001] CT
0.702 GC
10.0 ML
4 LW
N
4 0 M
4 -2.209 2.209 -4 0 -4 C
-2.209 -4 -4 -2.209 -4 0 C
-4 2.209 -2.209 4 0 4 C
2.209 4 4 2.209 4 0 C
S
GR
GS
[0.75 0 0 0.75 224.28149 326.86267] CT
0.702 GC
10.0 ML
4 LW
N
4 0 M
4 -2.209 2.209 -4 0 -4 C
-2.209 -4 -4 -2.209 -4 0 C
-4 2.209 -2.209 4 0 4 C
2.209 4 4 2.209 4 0 C
S
GR
GS
[0.75 0 0 0.75 129.95313 248.09253] CT
0.702 GC
10.0 ML
4 LW
N
4 0 M
4 -2.209 2.209 -4 0 -4 C
-2.209 -4 -4 -2.209 -4 0 C
-4 2.209 -2.209 4 0 4 C
2.209 4 4 2.209 4 0 C
S
GR
GS
[0.75 0 0 0.75 168.9002 278.10844] CT
0.702 GC
10.0 ML
4 LW
N
4 0 M
4 -2.209 2.209 -4 0 -4 C
-2.209 -4 -4 -2.209 -4 0 C
-4 2.209 -2.209 4 0 4 C
2.209 4 4 2.209 4 0 C
S
GR
GS
[0.75 0 0 0.75 168.48521 256.06082] CT
0.702 GC
10.0 ML
4 LW
N
4 0 M
4 -2.209 2.209 -4 0 -4 C
-2.209 -4 -4 -2.209 -4 0 C
-4 2.209 -2.209 4 0 4 C
2.209 4 4 2.209 4 0 C
S
GR
GS
[0.75 0 0 0.75 178.19498 262.31312] CT
0.702 GC
10.0 ML
4 LW
N
4 0 M
4 -2.209 2.209 -4 0 -4 C
-2.209 -4 -4 -2.209 -4 0 C
-4 2.209 -2.209 4 0 4 C
2.209 4 4 2.209 4 0 C
S
GR
GS
[0.75 0 0 0.75 204.08791 179.86752] CT
0.702 GC
10.0 ML
4 LW
N
4 0 M
4 -2.209 2.209 -4 0 -4 C
-2.209 -4 -4 -2.209 -4 0 C
-4 2.209 -2.209 4 0 4 C
2.209 4 4 2.209 4 0 C
S
GR
GS
[0.75 0 0 0.75 216.62924 249.55119] CT
0.702 GC
10.0 ML
4 LW
N
4 0 M
4 -2.209 2.209 -4 0 -4 C
-2.209 -4 -4 -2.209 -4 0 C
-4 2.209 -2.209 4 0 4 C
2.209 4 4 2.209 4 0 C
S
GR
GS
[0.75 0 0 0.75 186.53792 260.03444] CT
0.702 GC
10.0 ML
4 LW
N
4 0 M
4 -2.209 2.209 -4 0 -4 C
-2.209 -4 -4 -2.209 -4 0 C
-4 2.209 -2.209 4 0 4 C
2.209 4 4 2.209 4 0 C
S
GR
GS
[0.75 0 0 0.75 240.14834 297.7416] CT
0.702 GC
10.0 ML
4 LW
N
4 0 M
4 -2.209 2.209 -4 0 -4 C
-2.209 -4 -4 -2.209 -4 0 C
-4 2.209 -2.209 4 0 4 C
2.209 4 4 2.209 4 0 C
S
GR
GS
[0.75 0 0 0.75 201.92292 282.41322] CT
0.702 GC
10.0 ML
4 LW
N
4 0 M
4 -2.209 2.209 -4 0 -4 C
-2.209 -4 -4 -2.209 -4 0 C
-4 2.209 -2.209 4 0 4 C
2.209 4 4 2.209 4 0 C
S
GR
GS
[0.75 0 0 0.75 161.7855 204.20554] CT
0.702 GC
10.0 ML
4 LW
N
4 0 M
4 -2.209 2.209 -4 0 -4 C
-2.209 -4 -4 -2.209 -4 0 C
-4 2.209 -2.209 4 0 4 C
2.209 4 4 2.209 4 0 C
S
GR
GS
[0.75 0 0 0.75 125.7174 258.75092] CT
0.702 GC
10.0 ML
4 LW
N
4 0 M
4 -2.209 2.209 -4 0 -4 C
-2.209 -4 -4 -2.209 -4 0 C
-4 2.209 -2.209 4 0 4 C
2.209 4 4 2.209 4 0 C
S
GR
GS
[0.75 0 0 0.75 139.14403 346.83133] CT
0.702 GC
10.0 ML
4 LW
N
4 0 M
4 -2.209 2.209 -4 0 -4 C
-2.209 -4 -4 -2.209 -4 0 C
-4 2.209 -2.209 4 0 4 C
2.209 4 4 2.209 4 0 C
S
GR
GS
[0.75 0 0 0.75 69.91501 246.07761] CT
0.702 GC
10.0 ML
4 LW
N
4 0 M
4 -2.209 2.209 -4 0 -4 C
-2.209 -4 -4 -2.209 -4 0 C
-4 2.209 -2.209 4 0 4 C
2.209 4 4 2.209 4 0 C
S
GR
GS
[0.75 0 0 0.75 179.21193 275.9463] CT
0.702 GC
10.0 ML
4 LW
N
4 0 M
4 -2.209 2.209 -4 0 -4 C
-2.209 -4 -4 -2.209 -4 0 C
-4 2.209 -2.209 4 0 4 C
2.209 4 4 2.209 4 0 C
S
GR
GS
[0.75 0 0 0.75 177.51004 272.98519] CT
0.702 GC
10.0 ML
4 LW
N
4 0 M
4 -2.209 2.209 -4 0 -4 C
-2.209 -4 -4 -2.209 -4 0 C
-4 2.209 -2.209 4 0 4 C
2.209 4 4 2.209 4 0 C
S
GR
GS
[0.75 0 0 0.75 160.0959 293.69833] CT
0.702 GC
10.0 ML
4 LW
N
4 0 M
4 -2.209 2.209 -4 0 -4 C
-2.209 -4 -4 -2.209 -4 0 C
-4 2.209 -2.209 4 0 4 C
2.209 4 4 2.209 4 0 C
S
GR
GS
[0.75 0 0 0.75 226.27872 295.96477] CT
0.702 GC
10.0 ML
4 LW
N
4 0 M
4 -2.209 2.209 -4 0 -4 C
-2.209 -4 -4 -2.209 -4 0 C
-4 2.209 -2.209 4 0 4 C
2.209 4 4 2.209 4 0 C
S
GR
GS
[0.75 0 0 0.75 244.77221 290.71582] CT
0.702 GC
10.0 ML
4 LW
N
4 0 M
4 -2.209 2.209 -4 0 -4 C
-2.209 -4 -4 -2.209 -4 0 C
-4 2.209 -2.209 4 0 4 C
2.209 4 4 2.209 4 0 C
S
GR
GS
[0.75 0 0 0.75 132.27861 250.2838] CT
0.702 GC
10.0 ML
4 LW
N
4 0 M
4 -2.209 2.209 -4 0 -4 C
-2.209 -4 -4 -2.209 -4 0 C
-4 2.209 -2.209 4 0 4 C
2.209 4 4 2.209 4 0 C
S
GR
GS
[0.75 0 0 0.75 177.02716 258.72198] CT
0.702 GC
10.0 ML
4 LW
N
4 0 M
4 -2.209 2.209 -4 0 -4 C
-2.209 -4 -4 -2.209 -4 0 C
-4 2.209 -2.209 4 0 4 C
2.209 4 4 2.209 4 0 C
S
GR
GS
[0.75 0 0 0.75 157.06226 292.69775] CT
0.702 GC
10.0 ML
4 LW
N
4 0 M
4 -2.209 2.209 -4 0 -4 C
-2.209 -4 -4 -2.209 -4 0 C
-4 2.209 -2.209 4 0 4 C
2.209 4 4 2.209 4 0 C
S
GR
GS
[0.75 0 0 0.75 173.81289 282.2571] CT
0.702 GC
10.0 ML
4 LW
N
4 0 M
4 -2.209 2.209 -4 0 -4 C
-2.209 -4 -4 -2.209 -4 0 C
-4 2.209 -2.209 4 0 4 C
2.209 4 4 2.209 4 0 C
S
GR
GS
[0.75 0 0 0.75 181.7835 366.53352] CT
0.702 GC
10.0 ML
4 LW
N
4 0 M
4 -2.209 2.209 -4 0 -4 C
-2.209 -4 -4 -2.209 -4 0 C
-4 2.209 -2.209 4 0 4 C
2.209 4 4 2.209 4 0 C
S
GR
GS
[0.75 0 0 0.75 202.20255 316.98058] CT
0.702 GC
10.0 ML
4 LW
N
4 0 M
4 -2.209 2.209 -4 0 -4 C
-2.209 -4 -4 -2.209 -4 0 C
-4 2.209 -2.209 4 0 4 C
2.209 4 4 2.209 4 0 C
S
GR
GS
[0.75 0 0 0.75 168.38958 296.56982] CT
0.702 GC
10.0 ML
4 LW
N
4 0 M
4 -2.209 2.209 -4 0 -4 C
-2.209 -4 -4 -2.209 -4 0 C
-4 2.209 -2.209 4 0 4 C
2.209 4 4 2.209 4 0 C
S
GR
GS
[0.75 0 0 0.75 201.129 252.97032] CT
0.702 GC
10.0 ML
4 LW
N
4 0 M
4 -2.209 2.209 -4 0 -4 C
-2.209 -4 -4 -2.209 -4 0 C
-4 2.209 -2.209 4 0 4 C
2.209 4 4 2.209 4 0 C
S
GR
GS
[0.75 0 0 0.75 164.90972 238.64749] CT
0.702 GC
10.0 ML
4 LW
N
4 0 M
4 -2.209 2.209 -4 0 -4 C
-2.209 -4 -4 -2.209 -4 0 C
-4 2.209 -2.209 4 0 4 C
2.209 4 4 2.209 4 0 C
S
GR
GS
[0.75 0 0 0.75 168.86678 278.15096] CT
0.702 GC
10.0 ML
4 LW
N
4 0 M
4 -2.209 2.209 -4 0 -4 C
-2.209 -4 -4 -2.209 -4 0 C
-4 2.209 -2.209 4 0 4 C
2.209 4 4 2.209 4 0 C
S
GR
GS
[0.75 0 0 0.75 114.86065 303.47516] CT
0.702 GC
10.0 ML
4 LW
N
4 0 M
4 -2.209 2.209 -4 0 -4 C
-2.209 -4 -4 -2.209 -4 0 C
-4 2.209 -2.209 4 0 4 C
2.209 4 4 2.209 4 0 C
S
GR
GS
[0.75 0 0 0.75 210.10801 263.9404] CT
0.702 GC
10.0 ML
4 LW
N
4 0 M
4 -2.209 2.209 -4 0 -4 C
-2.209 -4 -4 -2.209 -4 0 C
-4 2.209 -2.209 4 0 4 C
2.209 4 4 2.209 4 0 C
S
GR
GS
[0.75 0 0 0.75 181.5424 220.57368] CT
0.702 GC
10.0 ML
4 LW
N
4 0 M
4 -2.209 2.209 -4 0 -4 C
-2.209 -4 -4 -2.209 -4 0 C
-4 2.209 -2.209 4 0 4 C
2.209 4 4 2.209 4 0 C
S
GR
GS
[0.75 0 0 0.75 151.38491 278.98796] CT
0.702 GC
10.0 ML
4 LW
N
4 0 M
4 -2.209 2.209 -4 0 -4 C
-2.209 -4 -4 -2.209 -4 0 C
-4 2.209 -2.209 4 0 4 C
2.209 4 4 2.209 4 0 C
S
GR
GS
[0.75 0 0 0.75 180.47447 271.76214] CT
0.702 GC
10.0 ML
4 LW
N
4 0 M
4 -2.209 2.209 -4 0 -4 C
-2.209 -4 -4 -2.209 -4 0 C
-4 2.209 -2.209 4 0 4 C
2.209 4 4 2.209 4 0 C
S
GR
GS
[0.75 0 0 0.75 114.83738 271.0592] CT
0.702 GC
10.0 ML
4 LW
N
4 0 M
4 -2.209 2.209 -4 0 -4 C
-2.209 -4 -4 -2.209 -4 0 C
-4 2.209 -2.209 4 0 4 C
2.209 4 4 2.209 4 0 C
S
GR
GS
[0.75 0 0 0.75 195.15809 224.90822] CT
0.702 GC
10.0 ML
4 LW
N
4 0 M
4 -2.209 2.209 -4 0 -4 C
-2.209 -4 -4 -2.209 -4 0 C
-4 2.209 -2.209 4 0 4 C
2.209 4 4 2.209 4 0 C
S
GR
GS
[0.75 0 0 0.75 190.47806 232.74417] CT
0.702 GC
10.0 ML
4 LW
N
4 0 M
4 -2.209 2.209 -4 0 -4 C
-2.209 -4 -4 -2.209 -4 0 C
-4 2.209 -2.209 4 0 4 C
2.209 4 4 2.209 4 0 C
S
GR
GS
[0.75 0 0 0.75 158.57192 324.8644] CT
0.702 GC
10.0 ML
4 LW
N
4 0 M
4 -2.209 2.209 -4 0 -4 C
-2.209 -4 -4 -2.209 -4 0 C
-4 2.209 -2.209 4 0 4 C
2.209 4 4 2.209 4 0 C
S
GR
GS
[0.75 0 0 0.75 132.47189 301.29094] CT
0.702 GC
10.0 ML
4 LW
N
4 0 M
4 -2.209 2.209 -4 0 -4 C
-2.209 -4 -4 -2.209 -4 0 C
-4 2.209 -2.209 4 0 4 C
2.209 4 4 2.209 4 0 C
S
GR
GS
[0.75 0 0 0.75 157.76256 231.05663] CT
0.702 GC
10.0 ML
4 LW
N
4 0 M
4 -2.209 2.209 -4 0 -4 C
-2.209 -4 -4 -2.209 -4 0 C
-4 2.209 -2.209 4 0 4 C
2.209 4 4 2.209 4 0 C
S
GR
GS
[0.75 0 0 0.75 87.97379 231.13939] CT
0.702 GC
10.0 ML
4 LW
N
4 0 M
4 -2.209 2.209 -4 0 -4 C
-2.209 -4 -4 -2.209 -4 0 C
-4 2.209 -2.209 4 0 4 C
2.209 4 4 2.209 4 0 C
S
GR
GS
[0.75 0 0 0.75 100.20004 276.07704] CT
0.702 GC
10.0 ML
4 LW
N
4 0 M
4 -2.209 2.209 -4 0 -4 C
-2.209 -4 -4 -2.209 -4 0 C
-4 2.209 -2.209 4 0 4 C
2.209 4 4 2.209 4 0 C
S
GR
GS
[0.75 0 0 0.75 128.0632 296.15856] CT
0.702 GC
10.0 ML
4 LW
N
4 0 M
4 -2.209 2.209 -4 0 -4 C
-2.209 -4 -4 -2.209 -4 0 C
-4 2.209 -2.209 4 0 4 C
2.209 4 4 2.209 4 0 C
S
GR
GS
[0.75 0 0 0.75 190.79786 305.89048] CT
0.702 GC
10.0 ML
4 LW
N
4 0 M
4 -2.209 2.209 -4 0 -4 C
-2.209 -4 -4 -2.209 -4 0 C
-4 2.209 -2.209 4 0 4 C
2.209 4 4 2.209 4 0 C
S
GR
GS
[0.75 0 0 0.75 208.30364 218.48719] CT
0.702 GC
10.0 ML
4 LW
N
4 0 M
4 -2.209 2.209 -4 0 -4 C
-2.209 -4 -4 -2.209 -4 0 C
-4 2.209 -2.209 4 0 4 C
2.209 4 4 2.209 4 0 C
S
GR
GS
[0.75 0 0 0.75 223.51483 261.70967] CT
0.702 GC
10.0 ML
4 LW
N
4 0 M
4 -2.209 2.209 -4 0 -4 C
-2.209 -4 -4 -2.209 -4 0 C
-4 2.209 -2.209 4 0 4 C
2.209 4 4 2.209 4 0 C
S
GR
GS
[0.75 0 0 0.75 192.11023 265.02926] CT
0.702 GC
10.0 ML
4 LW
N
4 0 M
4 -2.209 2.209 -4 0 -4 C
-2.209 -4 -4 -2.209 -4 0 C
-4 2.209 -2.209 4 0 4 C
2.209 4 4 2.209 4 0 C
S
GR
GS
[0.75 0 0 0.75 133.07912 313.41833] CT
0.702 GC
10.0 ML
4 LW
N
4 0 M
4 -2.209 2.209 -4 0 -4 C
-2.209 -4 -4 -2.209 -4 0 C
-4 2.209 -2.209 4 0 4 C
2.209 4 4 2.209 4 0 C
S
GR
GS
[0.75 0 0 0.75 120.54177 223.63834] CT
0.702 GC
10.0 ML
4 LW
N
4 0 M
4 -2.209 2.209 -4 0 -4 C
-2.209 -4 -4 -2.209 -4 0 C
-4 2.209 -2.209 4 0 4 C
2.209 4 4 2.209 4 0 C
S
GR
GS
[0.75 0 0 0.75 167.53824 316.52905] CT
0.702 GC
10.0 ML
4 LW
N
4 0 M
4 -2.209 2.209 -4 0 -4 C
-2.209 -4 -4 -2.209 -4 0 C
-4 2.209 -2.209 4 0 4 C
2.209 4 4 2.209 4 0 C
S
GR
GS
[0.75 0 0 0.75 105.12424 202.12326] CT
0.702 GC
10.0 ML
4 LW
N
4 0 M
4 -2.209 2.209 -4 0 -4 C
-2.209 -4 -4 -2.209 -4 0 C
-4 2.209 -2.209 4 0 4 C
2.209 4 4 2.209 4 0 C
S
GR
GS
[0.75 0 0 0.75 171.10685 348.84164] CT
0.702 GC
10.0 ML
4 LW
N
4 0 M
4 -2.209 2.209 -4 0 -4 C
-2.209 -4 -4 -2.209 -4 0 C
-4 2.209 -2.209 4 0 4 C
2.209 4 4 2.209 4 0 C
S
GR
GS
[0.75 0 0 0.75 149.23225 222.40105] CT
0.702 GC
10.0 ML
4 LW
N
4 0 M
4 -2.209 2.209 -4 0 -4 C
-2.209 -4 -4 -2.209 -4 0 C
-4 2.209 -2.209 4 0 4 C
2.209 4 4 2.209 4 0 C
S
GR
GS
[0.75 0 0 0.75 208.42509 279.22103] CT
0.702 GC
10.0 ML
4 LW
N
4 0 M
4 -2.209 2.209 -4 0 -4 C
-2.209 -4 -4 -2.209 -4 0 C
-4 2.209 -2.209 4 0 4 C
2.209 4 4 2.209 4 0 C
S
GR
GS
[0.75 0 0 0.75 170.08162 202.03514] CT
0.702 GC
10.0 ML
4 LW
N
4 0 M
4 -2.209 2.209 -4 0 -4 C
-2.209 -4 -4 -2.209 -4 0 C
-4 2.209 -2.209 4 0 4 C
2.209 4 4 2.209 4 0 C
S
GR
GS
[0.75 0 0 0.75 162.2132 194.6751] CT
0.702 GC
10.0 ML
4 LW
N
4 0 M
4 -2.209 2.209 -4 0 -4 C
-2.209 -4 -4 -2.209 -4 0 C
-4 2.209 -2.209 4 0 4 C
2.209 4 4 2.209 4 0 C
S
GR
GS
[0.75 0 0 0.75 156.64315 243.7608] CT
0.702 GC
10.0 ML
4 LW
N
4 0 M
4 -2.209 2.209 -4 0 -4 C
-2.209 -4 -4 -2.209 -4 0 C
-4 2.209 -2.209 4 0 4 C
2.209 4 4 2.209 4 0 C
S
GR
GS
[0.75 0 0 0.75 237.76579 178.98485] CT
0.702 GC
10.0 ML
4 LW
N
4 0 M
4 -2.209 2.209 -4 0 -4 C
-2.209 -4 -4 -2.209 -4 0 C
-4 2.209 -2.209 4 0 4 C
2.209 4 4 2.209 4 0 C
S
GR
GS
[0.75 0 0 0.75 214.24283 233.41418] CT
0.702 GC
10.0 ML
4 LW
N
4 0 M
4 -2.209 2.209 -4 0 -4 C
-2.209 -4 -4 -2.209 -4 0 C
-4 2.209 -2.209 4 0 4 C
2.209 4 4 2.209 4 0 C
S
GR
GS
[0.75 0 0 0.75 229.09815 274.95978] CT
0.702 GC
10.0 ML
4 LW
N
4 0 M
4 -2.209 2.209 -4 0 -4 C
-2.209 -4 -4 -2.209 -4 0 C
-4 2.209 -2.209 4 0 4 C
2.209 4 4 2.209 4 0 C
S
GR
GS
[0.75 0 0 0.75 171.38842 215.75089] CT
0.702 GC
10.0 ML
4 LW
N
4 0 M
4 -2.209 2.209 -4 0 -4 C
-2.209 -4 -4 -2.209 -4 0 C
-4 2.209 -2.209 4 0 4 C
2.209 4 4 2.209 4 0 C
S
GR
GS
[0.75 0 0 0.75 159.50733 301.88418] CT
0.702 GC
10.0 ML
4 LW
N
4 0 M
4 -2.209 2.209 -4 0 -4 C
-2.209 -4 -4 -2.209 -4 0 C
-4 2.209 -2.209 4 0 4 C
2.209 4 4 2.209 4 0 C
S
GR
GS
[0.75 0 0 0.75 96.50038 283.85985] CT
0.702 GC
10.0 ML
4 LW
N
4 0 M
4 -2.209 2.209 -4 0 -4 C
-2.209 -4 -4 -2.209 -4 0 C
-4 2.209 -2.209 4 0 4 C
2.209 4 4 2.209 4 0 C
S
GR
GS
[0.75 0 0 0.75 84.58519 230.37962] CT
0.702 GC
10.0 ML
4 LW
N
4 0 M
4 -2.209 2.209 -4 0 -4 C
-2.209 -4 -4 -2.209 -4 0 C
-4 2.209 -2.209 4 0 4 C
2.209 4 4 2.209 4 0 C
S
GR
GS
[0.75 0 0 0.75 195.09993 230.03783] CT
0.702 GC
10.0 ML
4 LW
N
4 0 M
4 -2.209 2.209 -4 0 -4 C
-2.209 -4 -4 -2.209 -4 0 C
-4 2.209 -2.209 4 0 4 C
2.209 4 4 2.209 4 0 C
S
GR
GS
[0.75 0 0 0.75 160.13369 317.68439] CT
0.702 GC
10.0 ML
4 LW
N
4 0 M
4 -2.209 2.209 -4 0 -4 C
-2.209 -4 -4 -2.209 -4 0 C
-4 2.209 -2.209 4 0 4 C
2.209 4 4 2.209 4 0 C
S
GR
GS
[0.75 0 0 0.75 133.39928 253.72927] CT
0.702 GC
10.0 ML
4 LW
N
4 0 M
4 -2.209 2.209 -4 0 -4 C
-2.209 -4 -4 -2.209 -4 0 C
-4 2.209 -2.209 4 0 4 C
2.209 4 4 2.209 4 0 C
S
GR
GS
[0.75 0 0 0.75 201.92381 350.75743] CT
0.702 GC
10.0 ML
4 LW
N
4 0 M
4 -2.209 2.209 -4 0 -4 C
-2.209 -4 -4 -2.209 -4 0 C
-4 2.209 -2.209 4 0 4 C
2.209 4 4 2.209 4 0 C
S
GR
GS
[0.75 0 0 0.75 161.12714 244.6791] CT
0.702 GC
10.0 ML
4 LW
N
4 0 M
4 -2.209 2.209 -4 0 -4 C
-2.209 -4 -4 -2.209 -4 0 C
-4 2.209 -2.209 4 0 4 C
2.209 4 4 2.209 4 0 C
S
GR
GS
[0.75 0 0 0.75 182.74741 338.18218] CT
0.702 GC
10.0 ML
4 LW
N
4 0 M
4 -2.209 2.209 -4 0 -4 C
-2.209 -4 -4 -2.209 -4 0 C
-4 2.209 -2.209 4 0 4 C
2.209 4 4 2.209 4 0 C
S
GR
GS
[0.75 0 0 0.75 142.30228 286.64415] CT
0.702 GC
10.0 ML
4 LW
N
4 0 M
4 -2.209 2.209 -4 0 -4 C
-2.209 -4 -4 -2.209 -4 0 C
-4 2.209 -2.209 4 0 4 C
2.209 4 4 2.209 4 0 C
S
GR
GS
[0.75 0 0 0.75 215.80449 224.53255] CT
0.702 GC
10.0 ML
4 LW
N
4 0 M
4 -2.209 2.209 -4 0 -4 C
-2.209 -4 -4 -2.209 -4 0 C
-4 2.209 -2.209 4 0 4 C
2.209 4 4 2.209 4 0 C
S
GR
GS
[0.75 0 0 0.75 95.76809 266.17282] CT
0.702 GC
10.0 ML
4 LW
N
4 0 M
4 -2.209 2.209 -4 0 -4 C
-2.209 -4 -4 -2.209 -4 0 C
-4 2.209 -2.209 4 0 4 C
2.209 4 4 2.209 4 0 C
S
GR
GS
[0.75 0 0 0.75 175.84781 267.03021] CT
0.702 GC
10.0 ML
4 LW
N
4 0 M
4 -2.209 2.209 -4 0 -4 C
-2.209 -4 -4 -2.209 -4 0 C
-4 2.209 -2.209 4 0 4 C
2.209 4 4 2.209 4 0 C
S
GR
GS
[0.75 0 0 0.75 131.69918 220.60039] CT
0.702 GC
10.0 ML
4 LW
N
4 0 M
4 -2.209 2.209 -4 0 -4 C
-2.209 -4 -4 -2.209 -4 0 C
-4 2.209 -2.209 4 0 4 C
2.209 4 4 2.209 4 0 C
S
GR
GS
[0.75 0 0 0.75 213.62164 311.32587] CT
0.702 GC
10.0 ML
4 LW
N
4 0 M
4 -2.209 2.209 -4 0 -4 C
-2.209 -4 -4 -2.209 -4 0 C
-4 2.209 -2.209 4 0 4 C
2.209 4 4 2.209 4 0 C
S
GR
GS
[0.75 0 0 0.75 185.78959 281.57359] CT
0.702 GC
10.0 ML
4 LW
N
4 0 M
4 -2.209 2.209 -4 0 -4 C
-2.209 -4 -4 -2.209 -4 0 C
-4 2.209 -2.209 4 0 4 C
2.209 4 4 2.209 4 0 C
S
GR
GS
[0.75 0 0 0.75 242.48062 213.13987] CT
0.702 GC
10.0 ML
4 LW
N
4 0 M
4 -2.209 2.209 -4 0 -4 C
-2.209 -4 -4 -2.209 -4 0 C
-4 2.209 -2.209 4 0 4 C
2.209 4 4 2.209 4 0 C
S
GR
GS
[0.75 0 0 0.75 205.79883 269.10317] CT
0.702 GC
10.0 ML
4 LW
N
4 0 M
4 -2.209 2.209 -4 0 -4 C
-2.209 -4 -4 -2.209 -4 0 C
-4 2.209 -2.209 4 0 4 C
2.209 4 4 2.209 4 0 C
S
GR
GS
[0.75 0 0 0.75 149.83261 333.73485] CT
0.702 GC
10.0 ML
4 LW
N
4 0 M
4 -2.209 2.209 -4 0 -4 C
-2.209 -4 -4 -2.209 -4 0 C
-4 2.209 -2.209 4 0 4 C
2.209 4 4 2.209 4 0 C
S
GR
GS
[0.75 0 0 0.75 175.77687 280.00726] CT
0.702 GC
10.0 ML
4 LW
N
4 0 M
4 -2.209 2.209 -4 0 -4 C
-2.209 -4 -4 -2.209 -4 0 C
-4 2.209 -2.209 4 0 4 C
2.209 4 4 2.209 4 0 C
S
GR
GS
[0.75 0 0 0.75 201.21755 205.10392] CT
0.702 GC
10.0 ML
4 LW
N
4 0 M
4 -2.209 2.209 -4 0 -4 C
-2.209 -4 -4 -2.209 -4 0 C
-4 2.209 -2.209 4 0 4 C
2.209 4 4 2.209 4 0 C
S
GR
GS
[0.75 0 0 0.75 202.04075 290.54745] CT
0.702 GC
10.0 ML
4 LW
N
4 0 M
4 -2.209 2.209 -4 0 -4 C
-2.209 -4 -4 -2.209 -4 0 C
-4 2.209 -2.209 4 0 4 C
2.209 4 4 2.209 4 0 C
S
GR
GS
[0.75 0 0 0.75 118.73442 209.06948] CT
0.702 GC
10.0 ML
4 LW
N
4 0 M
4 -2.209 2.209 -4 0 -4 C
-2.209 -4 -4 -2.209 -4 0 C
-4 2.209 -2.209 4 0 4 C
2.209 4 4 2.209 4 0 C
S
GR
GS
[0.75 0 0 0.75 216.77195 213.52835] CT
0.702 GC
10.0 ML
4 LW
N
4 0 M
4 -2.209 2.209 -4 0 -4 C
-2.209 -4 -4 -2.209 -4 0 C
-4 2.209 -2.209 4 0 4 C
2.209 4 4 2.209 4 0 C
S
GR
GS
[0.75 0 0 0.75 260.66215 331.03997] CT
0.702 GC
10.0 ML
4 LW
N
4 0 M
4 -2.209 2.209 -4 0 -4 C
-2.209 -4 -4 -2.209 -4 0 C
-4 2.209 -2.209 4 0 4 C
2.209 4 4 2.209 4 0 C
S
GR
GS
[0.75 0 0 0.75 206.92117 200.96722] CT
0.702 GC
10.0 ML
4 LW
N
4 0 M
4 -2.209 2.209 -4 0 -4 C
-2.209 -4 -4 -2.209 -4 0 C
-4 2.209 -2.209 4 0 4 C
2.209 4 4 2.209 4 0 C
S
GR
GS
[0.75 0 0 0.75 207.98236 281.09695] CT
0.702 GC
10.0 ML
4 LW
N
4 0 M
4 -2.209 2.209 -4 0 -4 C
-2.209 -4 -4 -2.209 -4 0 C
-4 2.209 -2.209 4 0 4 C
2.209 4 4 2.209 4 0 C
S
GR
GS
[0.75 0 0 0.75 58.50001 261.55426] CT
0.702 GC
10.0 ML
4 LW
N
4 0 M
4 -2.209 2.209 -4 0 -4 C
-2.209 -4 -4 -2.209 -4 0 C
-4 2.209 -2.209 4 0 4 C
2.209 4 4 2.209 4 0 C
S
GR
GS
[0.75 0 0 0.75 169.74659 293.38337] CT
0.702 GC
10.0 ML
4 LW
N
4 0 M
4 -2.209 2.209 -4 0 -4 C
-2.209 -4 -4 -2.209 -4 0 C
-4 2.209 -2.209 4 0 4 C
2.209 4 4 2.209 4 0 C
S
GR
GS
[0.75 0 0 0.75 112.2888 295.20575] CT
0.702 GC
10.0 ML
4 LW
N
4 0 M
4 -2.209 2.209 -4 0 -4 C
-2.209 -4 -4 -2.209 -4 0 C
-4 2.209 -2.209 4 0 4 C
2.209 4 4 2.209 4 0 C
S
GR
GS
[0.75 0 0 0.75 207.09977 242.50433] CT
0.702 GC
10.0 ML
4 LW
N
4 0 M
4 -2.209 2.209 -4 0 -4 C
-2.209 -4 -4 -2.209 -4 0 C
-4 2.209 -2.209 4 0 4 C
2.209 4 4 2.209 4 0 C
S
GR
GS
[0.75 0 0 0.75 141.81721 275.14849] CT
0.702 GC
10.0 ML
4 LW
N
4 0 M
4 -2.209 2.209 -4 0 -4 C
-2.209 -4 -4 -2.209 -4 0 C
-4 2.209 -2.209 4 0 4 C
2.209 4 4 2.209 4 0 C
S
GR
GS
[0.75 0 0 0.75 160.5489 344.25545] CT
0.702 GC
10.0 ML
4 LW
N
4 0 M
4 -2.209 2.209 -4 0 -4 C
-2.209 -4 -4 -2.209 -4 0 C
-4 2.209 -2.209 4 0 4 C
2.209 4 4 2.209 4 0 C
S
GR
GS
[0.75 0 0 0.75 137.30522 265.34182] CT
0.702 GC
10.0 ML
4 LW
N
4 0 M
4 -2.209 2.209 -4 0 -4 C
-2.209 -4 -4 -2.209 -4 0 C
-4 2.209 -2.209 4 0 4 C
2.209 4 4 2.209 4 0 C
S
GR
GS
[0.75 0 0 0.75 212.35014 284.60186] CT
0.702 GC
10.0 ML
4 LW
N
4 0 M
4 -2.209 2.209 -4 0 -4 C
-2.209 -4 -4 -2.209 -4 0 C
-4 2.209 -2.209 4 0 4 C
2.209 4 4 2.209 4 0 C
S
GR
GS
[0.75 0 0 0.75 133.4136 221.79806] CT
0.702 GC
10.0 ML
4 LW
N
4 0 M
4 -2.209 2.209 -4 0 -4 C
-2.209 -4 -4 -2.209 -4 0 C
-4 2.209 -2.209 4 0 4 C
2.209 4 4 2.209 4 0 C
S
GR
GS
[0.75 0 0 0.75 213.31815 152.39951] CT
0.702 GC
10.0 ML
4 LW
N
4 0 M
4 -2.209 2.209 -4 0 -4 C
-2.209 -4 -4 -2.209 -4 0 C
-4 2.209 -2.209 4 0 4 C
2.209 4 4 2.209 4 0 C
S
GR
GS
[0.75 0 0 0.75 205.34328 243.68443] CT
0.702 GC
10.0 ML
4 LW
N
4 0 M
4 -2.209 2.209 -4 0 -4 C
-2.209 -4 -4 -2.209 -4 0 C
-4 2.209 -2.209 4 0 4 C
2.209 4 4 2.209 4 0 C
S
GR
GS
[0.75 0 0 0.75 161.42731 248.26859] CT
0.702 GC
10.0 ML
4 LW
N
4 0 M
4 -2.209 2.209 -4 0 -4 C
-2.209 -4 -4 -2.209 -4 0 C
-4 2.209 -2.209 4 0 4 C
2.209 4 4 2.209 4 0 C
S
GR
GS
[0.75 0 0 0.75 200.90868 268.23644] CT
0.702 GC
10.0 ML
4 LW
N
4 0 M
4 -2.209 2.209 -4 0 -4 C
-2.209 -4 -4 -2.209 -4 0 C
-4 2.209 -2.209 4 0 4 C
2.209 4 4 2.209 4 0 C
S
GR
GS
[0.75 0 0 0.75 98.94226 233.4435] CT
0.702 GC
10.0 ML
4 LW
N
4 0 M
4 -2.209 2.209 -4 0 -4 C
-2.209 -4 -4 -2.209 -4 0 C
-4 2.209 -2.209 4 0 4 C
2.209 4 4 2.209 4 0 C
S
GR
GS
[0.75 0 0 0.75 276.55849 284.61715] CT
0.702 GC
10.0 ML
4 LW
N
4 0 M
4 -2.209 2.209 -4 0 -4 C
-2.209 -4 -4 -2.209 -4 0 C
-4 2.209 -2.209 4 0 4 C
2.209 4 4 2.209 4 0 C
S
GR
GS
[0.75 0 0 0.75 179.15395 258.58658] CT
0.702 GC
10.0 ML
4 LW
N
4 0 M
4 -2.209 2.209 -4 0 -4 C
-2.209 -4 -4 -2.209 -4 0 C
-4 2.209 -2.209 4 0 4 C
2.209 4 4 2.209 4 0 C
S
GR
GS
[0.75 0 0 0.75 130.91453 381.12476] CT
0.702 GC
10.0 ML
4 LW
N
4 0 M
4 -2.209 2.209 -4 0 -4 C
-2.209 -4 -4 -2.209 -4 0 C
-4 2.209 -2.209 4 0 4 C
2.209 4 4 2.209 4 0 C
S
GR
GS
[0.75 0 0 0.75 206.11837 253.13695] CT
0.702 GC
10.0 ML
4 LW
N
4 0 M
4 -2.209 2.209 -4 0 -4 C
-2.209 -4 -4 -2.209 -4 0 C
-4 2.209 -2.209 4 0 4 C
2.209 4 4 2.209 4 0 C
S
GR
GS
[0.75 0 0 0.75 197.39612 282.87122] CT
0.702 GC
10.0 ML
4 LW
N
4 0 M
4 -2.209 2.209 -4 0 -4 C
-2.209 -4 -4 -2.209 -4 0 C
-4 2.209 -2.209 4 0 4 C
2.209 4 4 2.209 4 0 C
S
GR
GS
[0.75 0 0 0.75 189.51029 318.57848] CT
0.702 GC
10.0 ML
4 LW
N
4 0 M
4 -2.209 2.209 -4 0 -4 C
-2.209 -4 -4 -2.209 -4 0 C
-4 2.209 -2.209 4 0 4 C
2.209 4 4 2.209 4 0 C
S
GR
GS
[0.75 0 0 0.75 222.97783 296.67464] CT
0.702 GC
10.0 ML
4 LW
N
4 0 M
4 -2.209 2.209 -4 0 -4 C
-2.209 -4 -4 -2.209 -4 0 C
-4 2.209 -2.209 4 0 4 C
2.209 4 4 2.209 4 0 C
S
GR
GS
[0.75 0 0 0.75 145.32632 254.26913] CT
0.702 GC
10.0 ML
4 LW
N
4 0 M
4 -2.209 2.209 -4 0 -4 C
-2.209 -4 -4 -2.209 -4 0 C
-4 2.209 -2.209 4 0 4 C
2.209 4 4 2.209 4 0 C
S
GR
GS
[0.75 0 0 0.75 237.98039 370.00447] CT
0.702 GC
10.0 ML
4 LW
N
4 0 M
4 -2.209 2.209 -4 0 -4 C
-2.209 -4 -4 -2.209 -4 0 C
-4 2.209 -2.209 4 0 4 C
2.209 4 4 2.209 4 0 C
S
GR
GS
[0.75 0 0 0.75 176.8479 358.10957] CT
0.702 GC
10.0 ML
4 LW
N
4 0 M
4 -2.209 2.209 -4 0 -4 C
-2.209 -4 -4 -2.209 -4 0 C
-4 2.209 -2.209 4 0 4 C
2.209 4 4 2.209 4 0 C
S
GR
GS
[0.75 0 0 0.75 166.78384 202.56418] CT
0.702 GC
10.0 ML
4 LW
N
4 0 M
4 -2.209 2.209 -4 0 -4 C
-2.209 -4 -4 -2.209 -4 0 C
-4 2.209 -2.209 4 0 4 C
2.209 4 4 2.209 4 0 C
S
GR
GS
[0.75 0 0 0.75 179.8933 290.62708] CT
0.702 GC
10.0 ML
4 LW
N
4 0 M
4 -2.209 2.209 -4 0 -4 C
-2.209 -4 -4 -2.209 -4 0 C
-4 2.209 -2.209 4 0 4 C
2.209 4 4 2.209 4 0 C
S
GR
GS
[0.75 0 0 0.75 112.52644 290.47591] CT
0.702 GC
10.0 ML
4 LW
N
4 0 M
4 -2.209 2.209 -4 0 -4 C
-2.209 -4 -4 -2.209 -4 0 C
-4 2.209 -2.209 4 0 4 C
2.209 4 4 2.209 4 0 C
S
GR
GS
[0.75 0 0 0.75 158.20118 348.26928] CT
0.702 GC
10.0 ML
4 LW
N
4 0 M
4 -2.209 2.209 -4 0 -4 C
-2.209 -4 -4 -2.209 -4 0 C
-4 2.209 -2.209 4 0 4 C
2.209 4 4 2.209 4 0 C
S
GR
GS
[0.75 0 0 0.75 153.21378 252.54229] CT
0.702 GC
10.0 ML
4 LW
N
4 0 M
4 -2.209 2.209 -4 0 -4 C
-2.209 -4 -4 -2.209 -4 0 C
-4 2.209 -2.209 4 0 4 C
2.209 4 4 2.209 4 0 C
S
GR
GS
[0.75 0 0 0.75 107.67676 190.65112] CT
0.702 GC
10.0 ML
4 LW
N
4 0 M
4 -2.209 2.209 -4 0 -4 C
-2.209 -4 -4 -2.209 -4 0 C
-4 2.209 -2.209 4 0 4 C
2.209 4 4 2.209 4 0 C
S
GR
GS
[0.75 0 0 0.75 181.94659 341.19525] CT
0.702 GC
10.0 ML
4 LW
N
4 0 M
4 -2.209 2.209 -4 0 -4 C
-2.209 -4 -4 -2.209 -4 0 C
-4 2.209 -2.209 4 0 4 C
2.209 4 4 2.209 4 0 C
S
GR
GS
[0.75 0 0 0.75 209.59341 237.98126] CT
0.702 GC
10.0 ML
4 LW
N
4 0 M
4 -2.209 2.209 -4 0 -4 C
-2.209 -4 -4 -2.209 -4 0 C
-4 2.209 -2.209 4 0 4 C
2.209 4 4 2.209 4 0 C
S
GR
GS
[0.75 0 0 0.75 132.97549 245.92568] CT
0.702 GC
10.0 ML
4 LW
N
4 0 M
4 -2.209 2.209 -4 0 -4 C
-2.209 -4 -4 -2.209 -4 0 C
-4 2.209 -2.209 4 0 4 C
2.209 4 4 2.209 4 0 C
S
GR
GS
[0.75 0 0 0.75 143.82471 316.72449] CT
0.702 GC
10.0 ML
4 LW
N
4 0 M
4 -2.209 2.209 -4 0 -4 C
-2.209 -4 -4 -2.209 -4 0 C
-4 2.209 -2.209 4 0 4 C
2.209 4 4 2.209 4 0 C
S
GR
GS
[0.75 0 0 0.75 220.90807 270.39478] CT
0.702 GC
10.0 ML
4 LW
N
4 0 M
4 -2.209 2.209 -4 0 -4 C
-2.209 -4 -4 -2.209 -4 0 C
-4 2.209 -2.209 4 0 4 C
2.209 4 4 2.209 4 0 C
S
GR
GS
[0.75 0 0 0.75 180.26961 246.24163] CT
0.702 GC
10.0 ML
4 LW
N
4 0 M
4 -2.209 2.209 -4 0 -4 C
-2.209 -4 -4 -2.209 -4 0 C
-4 2.209 -2.209 4 0 4 C
2.209 4 4 2.209 4 0 C
S
GR
GS
[0.75 0 0 0.75 158.22283 178.13743] CT
0.702 GC
10.0 ML
4 LW
N
4 0 M
4 -2.209 2.209 -4 0 -4 C
-2.209 -4 -4 -2.209 -4 0 C
-4 2.209 -2.209 4 0 4 C
2.209 4 4 2.209 4 0 C
S
GR
GS
[0.75 0 0 0.75 152.53555 299.4359] CT
0.702 GC
10.0 ML
4 LW
N
4 0 M
4 -2.209 2.209 -4 0 -4 C
-2.209 -4 -4 -2.209 -4 0 C
-4 2.209 -2.209 4 0 4 C
2.209 4 4 2.209 4 0 C
S
GR
GS
[0.75 0 0 0.75 132.62772 297.08315] CT
0.702 GC
10.0 ML
4 LW
N
4 0 M
4 -2.209 2.209 -4 0 -4 C
-2.209 -4 -4 -2.209 -4 0 C
-4 2.209 -2.209 4 0 4 C
2.209 4 4 2.209 4 0 C
S
GR
GS
[0.75 0 0 0.75 228.8242 209.96354] CT
0.702 GC
10.0 ML
4 LW
N
4 0 M
4 -2.209 2.209 -4 0 -4 C
-2.209 -4 -4 -2.209 -4 0 C
-4 2.209 -2.209 4 0 4 C
2.209 4 4 2.209 4 0 C
S
GR
GS
[0.75 0 0 0.75 136.06486 293.23103] CT
0.702 GC
10.0 ML
4 LW
N
4 0 M
4 -2.209 2.209 -4 0 -4 C
-2.209 -4 -4 -2.209 -4 0 C
-4 2.209 -2.209 4 0 4 C
2.209 4 4 2.209 4 0 C
S
GR
GS
[0.75 0 0 0.75 224.7439 329.28316] CT
0.702 GC
10.0 ML
4 LW
N
4 0 M
4 -2.209 2.209 -4 0 -4 C
-2.209 -4 -4 -2.209 -4 0 C
-4 2.209 -2.209 4 0 4 C
2.209 4 4 2.209 4 0 C
S
GR
GS
[0.75 0 0 0.75 204.9025 237.74746] CT
0.702 GC
10.0 ML
4 LW
N
4 0 M
4 -2.209 2.209 -4 0 -4 C
-2.209 -4 -4 -2.209 -4 0 C
-4 2.209 -2.209 4 0 4 C
2.209 4 4 2.209 4 0 C
S
GR
GS
[0.75 0 0 0.75 155.027 271.8912] CT
0.702 GC
10.0 ML
4 LW
N
4 0 M
4 -2.209 2.209 -4 0 -4 C
-2.209 -4 -4 -2.209 -4 0 C
-4 2.209 -2.209 4 0 4 C
2.209 4 4 2.209 4 0 C
S
GR
GS
[0.75 0 0 0.75 176.69338 265.33953] CT
0.702 GC
10.0 ML
4 LW
N
4 0 M
4 -2.209 2.209 -4 0 -4 C
-2.209 -4 -4 -2.209 -4 0 C
-4 2.209 -2.209 4 0 4 C
2.209 4 4 2.209 4 0 C
S
GR
GS
[0.75 0 0 0.75 177.57442 172.22734] CT
0.702 GC
10.0 ML
4 LW
N
4 0 M
4 -2.209 2.209 -4 0 -4 C
-2.209 -4 -4 -2.209 -4 0 C
-4 2.209 -2.209 4 0 4 C
2.209 4 4 2.209 4 0 C
S
GR
GS
[0.75 0 0 0.75 160.88737 300.10872] CT
0.702 GC
10.0 ML
4 LW
N
4 0 M
4 -2.209 2.209 -4 0 -4 C
-2.209 -4 -4 -2.209 -4 0 C
-4 2.209 -2.209 4 0 4 C
2.209 4 4 2.209 4 0 C
S
GR
GS
[0.75 0 0 0.75 228.24987 251.4153] CT
0.702 GC
10.0 ML
4 LW
N
4 0 M
4 -2.209 2.209 -4 0 -4 C
-2.209 -4 -4 -2.209 -4 0 C
-4 2.209 -2.209 4 0 4 C
2.209 4 4 2.209 4 0 C
S
GR
GS
[0.75 0 0 0.75 229.98283 349.76884] CT
0.702 GC
10.0 ML
4 LW
N
4 0 M
4 -2.209 2.209 -4 0 -4 C
-2.209 -4 -4 -2.209 -4 0 C
-4 2.209 -2.209 4 0 4 C
2.209 4 4 2.209 4 0 C
S
GR
GS
[0.75 0 0 0.75 161.65448 225.6479] CT
0.702 GC
10.0 ML
4 LW
N
4 0 M
4 -2.209 2.209 -4 0 -4 C
-2.209 -4 -4 -2.209 -4 0 C
-4 2.209 -2.209 4 0 4 C
2.209 4 4 2.209 4 0 C
S
GR
GS
[0.75 0 0 0.75 184.4919 209.20699] CT
0.702 GC
10.0 ML
4 LW
N
4 0 M
4 -2.209 2.209 -4 0 -4 C
-2.209 -4 -4 -2.209 -4 0 C
-4 2.209 -2.209 4 0 4 C
2.209 4 4 2.209 4 0 C
S
GR
GS
[0.75 0 0 0.75 213.71933 266.70806] CT
0.702 GC
10.0 ML
4 LW
N
4 0 M
4 -2.209 2.209 -4 0 -4 C
-2.209 -4 -4 -2.209 -4 0 C
-4 2.209 -2.209 4 0 4 C
2.209 4 4 2.209 4 0 C
S
GR
GS
[0.75 0 0 0.75 228.6237 286.08339] CT
0.702 GC
10.0 ML
4 LW
N
4 0 M
4 -2.209 2.209 -4 0 -4 C
-2.209 -4 -4 -2.209 -4 0 C
-4 2.209 -2.209 4 0 4 C
2.209 4 4 2.209 4 0 C
S
GR
GS
[0.75 0 0 0.75 137.51977 238.20884] CT
0.702 GC
10.0 ML
4 LW
N
4 0 M
4 -2.209 2.209 -4 0 -4 C
-2.209 -4 -4 -2.209 -4 0 C
-4 2.209 -2.209 4 0 4 C
2.209 4 4 2.209 4 0 C
S
GR
GS
[0.75 0 0 0.75 109.54739 277.22839] CT
0.702 GC
10.0 ML
4 LW
N
4 0 M
4 -2.209 2.209 -4 0 -4 C
-2.209 -4 -4 -2.209 -4 0 C
-4 2.209 -2.209 4 0 4 C
2.209 4 4 2.209 4 0 C
S
GR
GS
[0.75 0 0 0.75 129.84128 235.79164] CT
0.702 GC
10.0 ML
4 LW
N
4 0 M
4 -2.209 2.209 -4 0 -4 C
-2.209 -4 -4 -2.209 -4 0 C
-4 2.209 -2.209 4 0 4 C
2.209 4 4 2.209 4 0 C
S
GR
GS
[0.75 0 0 0.75 288.769 317.05325] CT
0.702 GC
10.0 ML
4 LW
N
4 0 M
4 -2.209 2.209 -4 0 -4 C
-2.209 -4 -4 -2.209 -4 0 C
-4 2.209 -2.209 4 0 4 C
2.209 4 4 2.209 4 0 C
S
GR
GS
[0.75 0 0 0.75 170.33558 321.7058] CT
0.702 GC
10.0 ML
4 LW
N
4 0 M
4 -2.209 2.209 -4 0 -4 C
-2.209 -4 -4 -2.209 -4 0 C
-4 2.209 -2.209 4 0 4 C
2.209 4 4 2.209 4 0 C
S
GR
GS
[0.75 0 0 0.75 136.22501 338.67567] CT
0.702 GC
10.0 ML
4 LW
N
4 0 M
4 -2.209 2.209 -4 0 -4 C
-2.209 -4 -4 -2.209 -4 0 C
-4 2.209 -2.209 4 0 4 C
2.209 4 4 2.209 4 0 C
S
GR
GS
[0.75 0 0 0.75 160.23063 265.13596] CT
0.702 GC
10.0 ML
4 LW
N
4 0 M
4 -2.209 2.209 -4 0 -4 C
-2.209 -4 -4 -2.209 -4 0 C
-4 2.209 -2.209 4 0 4 C
2.209 4 4 2.209 4 0 C
S
GR
GS
[0.75 0 0 0.75 203.98734 270.93093] CT
0.702 GC
10.0 ML
4 LW
N
4 0 M
4 -2.209 2.209 -4 0 -4 C
-2.209 -4 -4 -2.209 -4 0 C
-4 2.209 -2.209 4 0 4 C
2.209 4 4 2.209 4 0 C
S
GR
GS
[0.75 0 0 0.75 215.43276 261.37415] CT
0.702 GC
10.0 ML
4 LW
N
4 0 M
4 -2.209 2.209 -4 0 -4 C
-2.209 -4 -4 -2.209 -4 0 C
-4 2.209 -2.209 4 0 4 C
2.209 4 4 2.209 4 0 C
S
GR
GS
[0.75 0 0 0.75 123.94367 247.1881] CT
0.702 GC
10.0 ML
4 LW
N
4 0 M
4 -2.209 2.209 -4 0 -4 C
-2.209 -4 -4 -2.209 -4 0 C
-4 2.209 -2.209 4 0 4 C
2.209 4 4 2.209 4 0 C
S
GR
GS
[0.75 0 0 0.75 207.2851 242.69833] CT
0.702 GC
10.0 ML
4 LW
N
4 0 M
4 -2.209 2.209 -4 0 -4 C
-2.209 -4 -4 -2.209 -4 0 C
-4 2.209 -2.209 4 0 4 C
2.209 4 4 2.209 4 0 C
S
GR
GS
[0.75 0 0 0.75 154.9258 289.64969] CT
0.702 GC
10.0 ML
4 LW
N
4 0 M
4 -2.209 2.209 -4 0 -4 C
-2.209 -4 -4 -2.209 -4 0 C
-4 2.209 -2.209 4 0 4 C
2.209 4 4 2.209 4 0 C
S
GR
GS
[0.75 0 0 0.75 266.90836 258.02607] CT
0.702 GC
10.0 ML
4 LW
N
4 0 M
4 -2.209 2.209 -4 0 -4 C
-2.209 -4 -4 -2.209 -4 0 C
-4 2.209 -2.209 4 0 4 C
2.209 4 4 2.209 4 0 C
S
GR
GS
[0.75 0 0 0.75 186.75299 265.62893] CT
0.702 GC
10.0 ML
4 LW
N
4 0 M
4 -2.209 2.209 -4 0 -4 C
-2.209 -4 -4 -2.209 -4 0 C
-4 2.209 -2.209 4 0 4 C
2.209 4 4 2.209 4 0 C
S
GR
GS
[0.75 0 0 0.75 170.11541 277.9148] CT
0.702 GC
10.0 ML
4 LW
N
4 0 M
4 -2.209 2.209 -4 0 -4 C
-2.209 -4 -4 -2.209 -4 0 C
-4 2.209 -2.209 4 0 4 C
2.209 4 4 2.209 4 0 C
S
GR
GS
[0.75 0 0 0.75 177.13157 233.61456] CT
0.702 GC
10.0 ML
4 LW
N
4 0 M
4 -2.209 2.209 -4 0 -4 C
-2.209 -4 -4 -2.209 -4 0 C
-4 2.209 -2.209 4 0 4 C
2.209 4 4 2.209 4 0 C
S
GR
GS
[0.75 0 0 0.75 204.76948 243.13117] CT
0.702 GC
10.0 ML
4 LW
N
4 0 M
4 -2.209 2.209 -4 0 -4 C
-2.209 -4 -4 -2.209 -4 0 C
-4 2.209 -2.209 4 0 4 C
2.209 4 4 2.209 4 0 C
S
GR
GS
[0.75 0 0 0.75 188.88238 263.64418] CT
0.702 GC
10.0 ML
4 LW
N
4 0 M
4 -2.209 2.209 -4 0 -4 C
-2.209 -4 -4 -2.209 -4 0 C
-4 2.209 -2.209 4 0 4 C
2.209 4 4 2.209 4 0 C
S
GR
GS
[0.75 0 0 0.75 209.07475 400.5] CT
0.702 GC
10.0 ML
4 LW
N
4 0 M
4 -2.209 2.209 -4 0 -4 C
-2.209 -4 -4 -2.209 -4 0 C
-4 2.209 -2.209 4 0 4 C
2.209 4 4 2.209 4 0 C
S
GR
GS
[0.75 0 0 0.75 161.07606 303.48306] CT
0.702 GC
10.0 ML
4 LW
N
4 0 M
4 -2.209 2.209 -4 0 -4 C
-2.209 -4 -4 -2.209 -4 0 C
-4 2.209 -2.209 4 0 4 C
2.209 4 4 2.209 4 0 C
S
GR
GS
[0.75 0 0 0.75 225.83171 292.43932] CT
0.702 GC
10.0 ML
4 LW
N
4 0 M
4 -2.209 2.209 -4 0 -4 C
-2.209 -4 -4 -2.209 -4 0 C
-4 2.209 -2.209 4 0 4 C
2.209 4 4 2.209 4 0 C
S
GR
GS
[0.75 0 0 0.75 257.05474 220.75161] CT
0.702 GC
10.0 ML
4 LW
N
4 0 M
4 -2.209 2.209 -4 0 -4 C
-2.209 -4 -4 -2.209 -4 0 C
-4 2.209 -2.209 4 0 4 C
2.209 4 4 2.209 4 0 C
S
GR
GS
[0.75 0 0 0.75 193.4802 256.16483] CT
0.702 GC
10.0 ML
4 LW
N
4 0 M
4 -2.209 2.209 -4 0 -4 C
-2.209 -4 -4 -2.209 -4 0 C
-4 2.209 -2.209 4 0 4 C
2.209 4 4 2.209 4 0 C
S
GR
GS
[0.75 0 0 0.75 162.22846 243.08363] CT
0.702 GC
10.0 ML
4 LW
N
4 0 M
4 -2.209 2.209 -4 0 -4 C
-2.209 -4 -4 -2.209 -4 0 C
-4 2.209 -2.209 4 0 4 C
2.209 4 4 2.209 4 0 C
S
GR
GS
[0.75 0 0 0.75 129.06666 280.22429] CT
0.702 GC
10.0 ML
4 LW
N
4 0 M
4 -2.209 2.209 -4 0 -4 C
-2.209 -4 -4 -2.209 -4 0 C
-4 2.209 -2.209 4 0 4 C
2.209 4 4 2.209 4 0 C
S
GR
GS
[0.75 0 0 0.75 168.49469 196.47434] CT
0.702 GC
10.0 ML
4 LW
N
4 0 M
4 -2.209 2.209 -4 0 -4 C
-2.209 -4 -4 -2.209 -4 0 C
-4 2.209 -2.209 4 0 4 C
2.209 4 4 2.209 4 0 C
S
GR
GS
[0.75 0 0 0.75 229.36601 213.30798] CT
0.702 GC
10.0 ML
4 LW
N
4 0 M
4 -2.209 2.209 -4 0 -4 C
-2.209 -4 -4 -2.209 -4 0 C
-4 2.209 -2.209 4 0 4 C
2.209 4 4 2.209 4 0 C
S
GR
GS
[0.75 0 0 0.75 183.0934 283.03253] CT
0.702 GC
10.0 ML
4 LW
N
4 0 M
4 -2.209 2.209 -4 0 -4 C
-2.209 -4 -4 -2.209 -4 0 C
-4 2.209 -2.209 4 0 4 C
2.209 4 4 2.209 4 0 C
S
GR
GS
[0.75 0 0 0.75 226.03271 237.65433] CT
0.702 GC
10.0 ML
4 LW
N
4 0 M
4 -2.209 2.209 -4 0 -4 C
-2.209 -4 -4 -2.209 -4 0 C
-4 2.209 -2.209 4 0 4 C
2.209 4 4 2.209 4 0 C
S
GR
GS
[0.75 0 0 0.75 131.22803 273.38468] CT
0.702 GC
10.0 ML
4 LW
N
4 0 M
4 -2.209 2.209 -4 0 -4 C
-2.209 -4 -4 -2.209 -4 0 C
-4 2.209 -2.209 4 0 4 C
2.209 4 4 2.209 4 0 C
S
GR
GS
[0.75 0 0 0.75 65.09873 321.55442] CT
0.702 GC
10.0 ML
4 LW
N
4 0 M
4 -2.209 2.209 -4 0 -4 C
-2.209 -4 -4 -2.209 -4 0 C
-4 2.209 -2.209 4 0 4 C
2.209 4 4 2.209 4 0 C
S
GR
GS
[0.75 0 0 0.75 248.64299 302.79378] CT
0.702 GC
10.0 ML
4 LW
N
4 0 M
4 -2.209 2.209 -4 0 -4 C
-2.209 -4 -4 -2.209 -4 0 C
-4 2.209 -2.209 4 0 4 C
2.209 4 4 2.209 4 0 C
S
GR
GS
[0.75 0 0 0.75 227.502 298.03006] CT
0.702 GC
10.0 ML
4 LW
N
4 0 M
4 -2.209 2.209 -4 0 -4 C
-2.209 -4 -4 -2.209 -4 0 C
-4 2.209 -2.209 4 0 4 C
2.209 4 4 2.209 4 0 C
S
GR
GS
[0.75 0 0 0.75 157.79633 248.32743] CT
0.702 GC
10.0 ML
4 LW
N
4 0 M
4 -2.209 2.209 -4 0 -4 C
-2.209 -4 -4 -2.209 -4 0 C
-4 2.209 -2.209 4 0 4 C
2.209 4 4 2.209 4 0 C
S
GR
GS
[0.75 0 0 0.75 213.58841 282.16798] CT
0.702 GC
10.0 ML
4 LW
N
4 0 M
4 -2.209 2.209 -4 0 -4 C
-2.209 -4 -4 -2.209 -4 0 C
-4 2.209 -2.209 4 0 4 C
2.209 4 4 2.209 4 0 C
S
GR
GS
[0.75 0 0 0.75 213.62286 364.81943] CT
0.702 GC
10.0 ML
4 LW
N
4 0 M
4 -2.209 2.209 -4 0 -4 C
-2.209 -4 -4 -2.209 -4 0 C
-4 2.209 -2.209 4 0 4 C
2.209 4 4 2.209 4 0 C
S
GR
%%Trailer
%%Pages: 1
%%EOF
