%!PS-Adobe-3.0 EPSF-3.0
%%Creator: (MATLAB, The Mathworks, Inc. Version 9.3.0.713579 \(R2017b\). Operating System: Windows 7)
%%Title: (C:/Users/Taeke/Documents/Studie 2017-2018/Q3 - Q4 Machine Learning/assignment6/fig/error_rate_miles.eps)
%%CreationDate: 2018-06-21T21:05:01
%%Pages: (atend)
%%BoundingBox:    59     3   789   294
%%LanguageLevel: 3
%%EndComments
%%BeginProlog
%%BeginResource: procset (Apache XML Graphics Std ProcSet) 1.2 0
%%Version: 1.2 0
%%Copyright: (Copyright 2001-2003,2010 The Apache Software Foundation. License terms: http://www.apache.org/licenses/LICENSE-2.0)
/bd{bind def}bind def
/ld{load def}bd
/GR/grestore ld
/GS/gsave ld
/RM/rmoveto ld
/C/curveto ld
/t/show ld
/L/lineto ld
/ML/setmiterlimit ld
/CT/concat ld
/f/fill ld
/N/newpath ld
/S/stroke ld
/CC/setcmykcolor ld
/A/ashow ld
/cp/closepath ld
/RC/setrgbcolor ld
/LJ/setlinejoin ld
/GC/setgray ld
/LW/setlinewidth ld
/M/moveto ld
/re {4 2 roll M
1 index 0 rlineto
0 exch rlineto
neg 0 rlineto
cp } bd
/_ctm matrix def
/_tm matrix def
/BT { _ctm currentmatrix pop matrix _tm copy pop 0 0 moveto } bd
/ET { _ctm setmatrix } bd
/iTm { _ctm setmatrix _tm concat } bd
/Tm { _tm astore pop iTm 0 0 moveto } bd
/ux 0.0 def
/uy 0.0 def
/F {
  /Tp exch def
  /Tf exch def
  Tf findfont Tp scalefont setfont
  /cf Tf def  /cs Tp def
} bd
/ULS {currentpoint /uy exch def /ux exch def} bd
/ULE {
  /Tcx currentpoint pop def
  gsave
  newpath
  cf findfont cs scalefont dup
  /FontMatrix get 0 get /Ts exch def /FontInfo get dup
  /UnderlinePosition get Ts mul /To exch def
  /UnderlineThickness get Ts mul /Tt exch def
  ux uy To add moveto  Tcx uy To add lineto
  Tt setlinewidth stroke
  grestore
} bd
/OLE {
  /Tcx currentpoint pop def
  gsave
  newpath
  cf findfont cs scalefont dup
  /FontMatrix get 0 get /Ts exch def /FontInfo get dup
  /UnderlinePosition get Ts mul /To exch def
  /UnderlineThickness get Ts mul /Tt exch def
  ux uy To add cs add moveto Tcx uy To add cs add lineto
  Tt setlinewidth stroke
  grestore
} bd
/SOE {
  /Tcx currentpoint pop def
  gsave
  newpath
  cf findfont cs scalefont dup
  /FontMatrix get 0 get /Ts exch def /FontInfo get dup
  /UnderlinePosition get Ts mul /To exch def
  /UnderlineThickness get Ts mul /Tt exch def
  ux uy To add cs 10 mul 26 idiv add moveto Tcx uy To add cs 10 mul 26 idiv add lineto
  Tt setlinewidth stroke
  grestore
} bd
/QT {
/Y22 exch store
/X22 exch store
/Y21 exch store
/X21 exch store
currentpoint
/Y21 load 2 mul add 3 div exch
/X21 load 2 mul add 3 div exch
/X21 load 2 mul /X22 load add 3 div
/Y21 load 2 mul /Y22 load add 3 div
/X22 load /Y22 load curveto
} bd
/SSPD {
dup length /d exch dict def
{
/v exch def
/k exch def
currentpagedevice k known {
/cpdv currentpagedevice k get def
v cpdv ne {
/upd false def
/nullv v type /nulltype eq def
/nullcpdv cpdv type /nulltype eq def
nullv nullcpdv or
{
/upd true def
} {
/sametype v type cpdv type eq def
sametype {
v type /arraytype eq {
/vlen v length def
/cpdvlen cpdv length def
vlen cpdvlen eq {
0 1 vlen 1 sub {
/i exch def
/obj v i get def
/cpdobj cpdv i get def
obj cpdobj ne {
/upd true def
exit
} if
} for
} {
/upd true def
} ifelse
} {
v type /dicttype eq {
v {
/dv exch def
/dk exch def
/cpddv cpdv dk get def
dv cpddv ne {
/upd true def
exit
} if
} forall
} {
/upd true def
} ifelse
} ifelse
} if
} ifelse
upd true eq {
d k v put
} if
} if
} if
} forall
d length 0 gt {
d setpagedevice
} if
} bd
/RE { % /NewFontName [NewEncodingArray] /FontName RE -
  findfont dup length dict begin
  {
    1 index /FID ne
    {def} {pop pop} ifelse
  } forall
  /Encoding exch def
  /FontName 1 index def
  currentdict definefont pop
  end
} bind def
%%EndResource
%%BeginResource: procset (Apache XML Graphics EPS ProcSet) 1.0 0
%%Version: 1.0 0
%%Copyright: (Copyright 2002-2003 The Apache Software Foundation. License terms: http://www.apache.org/licenses/LICENSE-2.0)
/BeginEPSF { %def
/b4_Inc_state save def         % Save state for cleanup
/dict_count countdictstack def % Count objects on dict stack
/op_count count 1 sub def      % Count objects on operand stack
userdict begin                 % Push userdict on dict stack
/showpage { } def              % Redefine showpage, { } = null proc
0 setgray 0 setlinecap         % Prepare graphics state
1 setlinewidth 0 setlinejoin
10 setmiterlimit [ ] 0 setdash newpath
/languagelevel where           % If level not equal to 1 then
{pop languagelevel             % set strokeadjust and
1 ne                           % overprint to their defaults.
{false setstrokeadjust false setoverprint
} if
} if
} bd
/EndEPSF { %def
count op_count sub {pop} repeat            % Clean up stacks
countdictstack dict_count sub {end} repeat
b4_Inc_state restore
} bd
%%EndResource
%FOPBeginFontDict
%%IncludeResource: font Courier-Oblique
%%IncludeResource: font Courier-BoldOblique
%%IncludeResource: font Courier-Bold
%%IncludeResource: font ZapfDingbats
%%IncludeResource: font Symbol
%%IncludeResource: font Helvetica
%%IncludeResource: font Helvetica-Oblique
%%IncludeResource: font Helvetica-Bold
%%IncludeResource: font Helvetica-BoldOblique
%%IncludeResource: font Times-Roman
%%IncludeResource: font Times-Italic
%%IncludeResource: font Times-Bold
%%IncludeResource: font Times-BoldItalic
%%IncludeResource: font Courier
%FOPEndFontDict
%%BeginResource: encoding WinAnsiEncoding
/WinAnsiEncoding [
/.notdef /.notdef /.notdef /.notdef /.notdef
/.notdef /.notdef /.notdef /.notdef /.notdef
/.notdef /.notdef /.notdef /.notdef /.notdef
/.notdef /.notdef /.notdef /.notdef /.notdef
/.notdef /.notdef /.notdef /.notdef /.notdef
/.notdef /.notdef /.notdef /.notdef /.notdef
/.notdef /.notdef /space /exclam /quotedbl
/numbersign /dollar /percent /ampersand /quotesingle
/parenleft /parenright /asterisk /plus /comma
/hyphen /period /slash /zero /one
/two /three /four /five /six
/seven /eight /nine /colon /semicolon
/less /equal /greater /question /at
/A /B /C /D /E
/F /G /H /I /J
/K /L /M /N /O
/P /Q /R /S /T
/U /V /W /X /Y
/Z /bracketleft /backslash /bracketright /asciicircum
/underscore /quoteleft /a /b /c
/d /e /f /g /h
/i /j /k /l /m
/n /o /p /q /r
/s /t /u /v /w
/x /y /z /braceleft /bar
/braceright /asciitilde /bullet /Euro /bullet
/quotesinglbase /florin /quotedblbase /ellipsis /dagger
/daggerdbl /circumflex /perthousand /Scaron /guilsinglleft
/OE /bullet /Zcaron /bullet /bullet
/quoteleft /quoteright /quotedblleft /quotedblright /bullet
/endash /emdash /asciitilde /trademark /scaron
/guilsinglright /oe /bullet /zcaron /Ydieresis
/space /exclamdown /cent /sterling /currency
/yen /brokenbar /section /dieresis /copyright
/ordfeminine /guillemotleft /logicalnot /sfthyphen /registered
/macron /degree /plusminus /twosuperior /threesuperior
/acute /mu /paragraph /middot /cedilla
/onesuperior /ordmasculine /guillemotright /onequarter /onehalf
/threequarters /questiondown /Agrave /Aacute /Acircumflex
/Atilde /Adieresis /Aring /AE /Ccedilla
/Egrave /Eacute /Ecircumflex /Edieresis /Igrave
/Iacute /Icircumflex /Idieresis /Eth /Ntilde
/Ograve /Oacute /Ocircumflex /Otilde /Odieresis
/multiply /Oslash /Ugrave /Uacute /Ucircumflex
/Udieresis /Yacute /Thorn /germandbls /agrave
/aacute /acircumflex /atilde /adieresis /aring
/ae /ccedilla /egrave /eacute /ecircumflex
/edieresis /igrave /iacute /icircumflex /idieresis
/eth /ntilde /ograve /oacute /ocircumflex
/otilde /odieresis /divide /oslash /ugrave
/uacute /ucircumflex /udieresis /yacute /thorn
/ydieresis
] def
%%EndResource
%FOPBeginFontReencode
/Courier-Oblique findfont
dup length dict begin
  {1 index /FID ne {def} {pop pop} ifelse} forall
  /Encoding WinAnsiEncoding def
  currentdict
end
/Courier-Oblique exch definefont pop
/Courier-BoldOblique findfont
dup length dict begin
  {1 index /FID ne {def} {pop pop} ifelse} forall
  /Encoding WinAnsiEncoding def
  currentdict
end
/Courier-BoldOblique exch definefont pop
/Courier-Bold findfont
dup length dict begin
  {1 index /FID ne {def} {pop pop} ifelse} forall
  /Encoding WinAnsiEncoding def
  currentdict
end
/Courier-Bold exch definefont pop
/Helvetica findfont
dup length dict begin
  {1 index /FID ne {def} {pop pop} ifelse} forall
  /Encoding WinAnsiEncoding def
  currentdict
end
/Helvetica exch definefont pop
/Helvetica-Oblique findfont
dup length dict begin
  {1 index /FID ne {def} {pop pop} ifelse} forall
  /Encoding WinAnsiEncoding def
  currentdict
end
/Helvetica-Oblique exch definefont pop
/Helvetica-Bold findfont
dup length dict begin
  {1 index /FID ne {def} {pop pop} ifelse} forall
  /Encoding WinAnsiEncoding def
  currentdict
end
/Helvetica-Bold exch definefont pop
/Helvetica-BoldOblique findfont
dup length dict begin
  {1 index /FID ne {def} {pop pop} ifelse} forall
  /Encoding WinAnsiEncoding def
  currentdict
end
/Helvetica-BoldOblique exch definefont pop
/Times-Roman findfont
dup length dict begin
  {1 index /FID ne {def} {pop pop} ifelse} forall
  /Encoding WinAnsiEncoding def
  currentdict
end
/Times-Roman exch definefont pop
/Times-Italic findfont
dup length dict begin
  {1 index /FID ne {def} {pop pop} ifelse} forall
  /Encoding WinAnsiEncoding def
  currentdict
end
/Times-Italic exch definefont pop
/Times-Bold findfont
dup length dict begin
  {1 index /FID ne {def} {pop pop} ifelse} forall
  /Encoding WinAnsiEncoding def
  currentdict
end
/Times-Bold exch definefont pop
/Times-BoldItalic findfont
dup length dict begin
  {1 index /FID ne {def} {pop pop} ifelse} forall
  /Encoding WinAnsiEncoding def
  currentdict
end
/Times-BoldItalic exch definefont pop
/Courier findfont
dup length dict begin
  {1 index /FID ne {def} {pop pop} ifelse} forall
  /Encoding WinAnsiEncoding def
  currentdict
end
/Courier exch definefont pop
%FOPEndFontReencode
%%EndProlog
%%Page: 1 1
%%PageBoundingBox: 0 0 863 300
%%BeginPageSetup
[1 0 0 -1 0 300] CT
%%EndPageSetup
GS
[0.75 0 0 0.75 0 0] CT
1 GC
N
0 0 1150 400 re
f
GR
GS
[0.75 0 0 0.75 0 0] CT
1 GC
N
0 0 1150 400 re
f
GR
GS
[0.75 0 0 0.75 0 0] CT
1 GC
N
150 338 M
1041 338 L
1041 34 L
150 34 L
cp
f
GR
GS
[0.75 0 0 0.75 0 0] CT
0.873 GC
1 LJ
0.667 LW
N
150 338 M
150 34 L
S
GR
GS
[0.75 0 0 0.75 0 0] CT
0.873 GC
1 LJ
0.667 LW
N
249 338 M
249 34 L
S
GR
GS
[0.75 0 0 0.75 0 0] CT
0.873 GC
1 LJ
0.667 LW
N
348 338 M
348 34 L
S
GR
GS
[0.75 0 0 0.75 0 0] CT
0.873 GC
1 LJ
0.667 LW
N
447 338 M
447 34 L
S
GR
GS
[0.75 0 0 0.75 0 0] CT
0.873 GC
1 LJ
0.667 LW
N
546 338 M
546 34 L
S
GR
GS
[0.75 0 0 0.75 0 0] CT
0.873 GC
1 LJ
0.667 LW
N
645 338 M
645 34 L
S
GR
GS
[0.75 0 0 0.75 0 0] CT
0.873 GC
1 LJ
0.667 LW
N
744 338 M
744 34 L
S
GR
GS
[0.75 0 0 0.75 0 0] CT
0.873 GC
1 LJ
0.667 LW
N
843 338 M
843 34 L
S
GR
GS
[0.75 0 0 0.75 0 0] CT
0.873 GC
1 LJ
0.667 LW
N
942 338 M
942 34 L
S
GR
GS
[0.75 0 0 0.75 0 0] CT
0.873 GC
1 LJ
0.667 LW
N
1041 338 M
1041 34 L
S
GR
GS
[0.75 0 0 0.75 0 0] CT
0.873 GC
1 LJ
0.667 LW
N
1041 338 M
150 338 L
S
GR
GS
[0.75 0 0 0.75 0 0] CT
0.873 GC
1 LJ
0.667 LW
N
1041 287.333 M
150 287.333 L
S
GR
GS
[0.75 0 0 0.75 0 0] CT
0.873 GC
1 LJ
0.667 LW
N
1041 236.667 M
150 236.667 L
S
GR
GS
[0.75 0 0 0.75 0 0] CT
0.873 GC
1 LJ
0.667 LW
N
1041 186 M
150 186 L
S
GR
GS
[0.75 0 0 0.75 0 0] CT
0.873 GC
1 LJ
0.667 LW
N
1041 135.333 M
150 135.333 L
S
GR
GS
[0.75 0 0 0.75 0 0] CT
0.873 GC
1 LJ
0.667 LW
N
1041 84.667 M
150 84.667 L
S
GR
GS
[0.75 0 0 0.75 0 0] CT
0.873 GC
1 LJ
0.667 LW
N
1041 34 M
150 34 L
S
GR
GS
[0.75 0 0 0.75 0 0] CT
0.149 GC
2 setlinecap
1 LJ
0.667 LW
N
150 338 M
1041 338 L
S
GR
GS
[0.75 0 0 0.75 0 0] CT
0.149 GC
2 setlinecap
1 LJ
0.667 LW
N
150 338 M
150 329.09 L
S
GR
GS
[0.75 0 0 0.75 0 0] CT
0.149 GC
2 setlinecap
1 LJ
0.667 LW
N
249 338 M
249 329.09 L
S
GR
GS
[0.75 0 0 0.75 0 0] CT
0.149 GC
2 setlinecap
1 LJ
0.667 LW
N
348 338 M
348 329.09 L
S
GR
GS
[0.75 0 0 0.75 0 0] CT
0.149 GC
2 setlinecap
1 LJ
0.667 LW
N
447 338 M
447 329.09 L
S
GR
GS
[0.75 0 0 0.75 0 0] CT
0.149 GC
2 setlinecap
1 LJ
0.667 LW
N
546 338 M
546 329.09 L
S
GR
GS
[0.75 0 0 0.75 0 0] CT
0.149 GC
2 setlinecap
1 LJ
0.667 LW
N
645 338 M
645 329.09 L
S
GR
GS
[0.75 0 0 0.75 0 0] CT
0.149 GC
2 setlinecap
1 LJ
0.667 LW
N
744 338 M
744 329.09 L
S
GR
GS
[0.75 0 0 0.75 0 0] CT
0.149 GC
2 setlinecap
1 LJ
0.667 LW
N
843 338 M
843 329.09 L
S
GR
GS
[0.75 0 0 0.75 0 0] CT
0.149 GC
2 setlinecap
1 LJ
0.667 LW
N
942 338 M
942 329.09 L
S
GR
GS
[0.75 0 0 0.75 0 0] CT
0.149 GC
2 setlinecap
1 LJ
0.667 LW
N
1041 338 M
1041 329.09 L
S
GR
GS
[0.75 0 0 0.75 112.5 258.49999] CT
0.149 GC
/Helvetica 20 F
GS
[1 0 0 1 0 0] CT
-6 21 moveto 
1 -1 scale
(5) t 
GR
GR
GS
[0.75 0 0 0.75 186.75 258.49999] CT
0.149 GC
/Helvetica 20 F
GS
[1 0 0 1 0 0] CT
-11.5 21 moveto 
1 -1 scale
(10) t 
GR
GR
GS
[0.75 0 0 0.75 261 258.49999] CT
0.149 GC
/Helvetica 20 F
GS
[1 0 0 1 0 0] CT
-11.5 21 moveto 
1 -1 scale
(15) t 
GR
GR
GS
[0.75 0 0 0.75 335.25 258.49999] CT
0.149 GC
/Helvetica 20 F
GS
[1 0 0 1 0 0] CT
-11.5 21 moveto 
1 -1 scale
(20) t 
GR
GR
GS
[0.75 0 0 0.75 409.5 258.49999] CT
0.149 GC
/Helvetica 20 F
GS
[1 0 0 1 0 0] CT
-11.5 21 moveto 
1 -1 scale
(25) t 
GR
GR
GS
[0.75 0 0 0.75 483.75 258.49999] CT
0.149 GC
/Helvetica 20 F
GS
[1 0 0 1 0 0] CT
-11.5 21 moveto 
1 -1 scale
(30) t 
GR
GR
GS
[0.75 0 0 0.75 558 258.49999] CT
0.149 GC
/Helvetica 20 F
GS
[1 0 0 1 0 0] CT
-11.5 21 moveto 
1 -1 scale
(35) t 
GR
GR
GS
[0.75 0 0 0.75 632.25 258.49999] CT
0.149 GC
/Helvetica 20 F
GS
[1 0 0 1 0 0] CT
-11.5 21 moveto 
1 -1 scale
(40) t 
GR
GR
GS
[0.75 0 0 0.75 706.5 258.49999] CT
0.149 GC
/Helvetica 20 F
GS
[1 0 0 1 0 0] CT
-11.5 21 moveto 
1 -1 scale
(45) t 
GR
GR
GS
[0.75 0 0 0.75 780.75 258.49999] CT
0.149 GC
/Helvetica 20 F
GS
[1 0 0 1 0 0] CT
-11.5 21 moveto 
1 -1 scale
(50) t 
GR
GR
GS
[0.75 0 0 0.75 446.62532 279] CT
0.149 GC
/Helvetica 22 F
GS
[1 0 0 1 0 0] CT
-26 23 moveto 
1 -1 scale
(width) t 
GR
GR
GS
[0.75 0 0 0.75 0 0] CT
0.149 GC
2 setlinecap
1 LJ
0.667 LW
N
150 338 M
150 34 L
S
GR
GS
[0.75 0 0 0.75 0 0] CT
0.149 GC
2 setlinecap
1 LJ
0.667 LW
N
150 338 M
158.91 338 L
S
GR
GS
[0.75 0 0 0.75 0 0] CT
0.149 GC
2 setlinecap
1 LJ
0.667 LW
N
150 287.333 M
158.91 287.333 L
S
GR
GS
[0.75 0 0 0.75 0 0] CT
0.149 GC
2 setlinecap
1 LJ
0.667 LW
N
150 236.667 M
158.91 236.667 L
S
GR
GS
[0.75 0 0 0.75 0 0] CT
0.149 GC
2 setlinecap
1 LJ
0.667 LW
N
150 186 M
158.91 186 L
S
GR
GS
[0.75 0 0 0.75 0 0] CT
0.149 GC
2 setlinecap
1 LJ
0.667 LW
N
150 135.333 M
158.91 135.333 L
S
GR
GS
[0.75 0 0 0.75 0 0] CT
0.149 GC
2 setlinecap
1 LJ
0.667 LW
N
150 84.667 M
158.91 84.667 L
S
GR
GS
[0.75 0 0 0.75 0 0] CT
0.149 GC
2 setlinecap
1 LJ
0.667 LW
N
150 34 M
158.91 34 L
S
GR
GS
[0.75 0 0 0.75 107.5 253.5] CT
0.149 GC
/Helvetica 20 F
GS
[1 0 0 1 0 0] CT
-12 8 moveto 
1 -1 scale
(0) t 
GR
GR
GS
[0.75 0 0 0.75 107.5 215.50001] CT
0.149 GC
/Helvetica 20 F
GS
[1 0 0 1 0 0] CT
-39 8 moveto 
1 -1 scale
(0.05) t 
GR
GR
GS
[0.75 0 0 0.75 107.5 177.5] CT
0.149 GC
/Helvetica 20 F
GS
[1 0 0 1 0 0] CT
-28 8 moveto 
1 -1 scale
(0.1) t 
GR
GR
GS
[0.75 0 0 0.75 107.5 139.5] CT
0.149 GC
/Helvetica 20 F
GS
[1 0 0 1 0 0] CT
-39 8 moveto 
1 -1 scale
(0.15) t 
GR
GR
GS
[0.75 0 0 0.75 107.5 101.5] CT
0.149 GC
/Helvetica 20 F
GS
[1 0 0 1 0 0] CT
-28 8 moveto 
1 -1 scale
(0.2) t 
GR
GR
GS
[0.75 0 0 0.75 107.5 63.5] CT
0.149 GC
/Helvetica 20 F
GS
[1 0 0 1 0 0] CT
-39 8 moveto 
1 -1 scale
(0.25) t 
GR
GR
GS
[0.75 0 0 0.75 107.5 25.49999] CT
0.149 GC
/Helvetica 20 F
GS
[1 0 0 1 0 0] CT
-28 8 moveto 
1 -1 scale
(0.3) t 
GR
GR
GS
[0 -0.75 0.75 0 75.25 139.49989] CT
0.149 GC
/Helvetica 22 F
GS
[1 0 0 1 0 0] CT
-45.5 -5 moveto 
1 -1 scale
(error rate) t 
GR
GR
GS
[0.75 0 0 0.75 446.62541 22.40624] CT
/Helvetica-Bold 22 F
GS
[1 0 0 1 0 0] CT
-163 -5 moveto 
1 -1 scale
(Error Rate For Different Widths) t 
GR
GR
GS
[0.75 0 0 0.75 0 0] CT
0 0.447 0.741 RC
1 LJ
2.667 LW
N
150 305.911 M
150 326.131 L
S
GR
GS
[0.75 0 0 0.75 0 0] CT
0 0.447 0.741 RC
1 LJ
2.667 LW
N
189.6 307.6 M
189.6 325.043 L
S
GR
GS
[0.75 0 0 0.75 0 0] CT
0 0.447 0.741 RC
1 LJ
2.667 LW
N
249 307.6 M
249 325.043 L
S
GR
GS
[0.75 0 0 0.75 0 0] CT
0 0.447 0.741 RC
1 LJ
2.667 LW
N
447 295.778 M
447 314.02 L
S
GR
GS
[0.75 0 0 0.75 0 0] CT
0 0.447 0.741 RC
1 LJ
2.667 LW
N
645 294.089 M
645 315.452 L
S
GR
GS
[0.75 0 0 0.75 0 0] CT
0 0.447 0.741 RC
1 LJ
2.667 LW
N
843 251.867 M
843 308.416 L
S
GR
GS
[0.75 0 0 0.75 0 0] CT
0 0.447 0.741 RC
1 LJ
2.667 LW
N
1041 79.6 M
1041 149.937 L
S
GR
GS
[0.75 0 0 0.75 0 0] CT
0 0.447 0.741 RC
1 LJ
2.667 LW
N
150 305.911 M
150 285.691 L
S
GR
GS
[0.75 0 0 0.75 0 0] CT
0 0.447 0.741 RC
1 LJ
2.667 LW
N
189.6 307.6 M
189.6 290.157 L
S
GR
GS
[0.75 0 0 0.75 0 0] CT
0 0.447 0.741 RC
1 LJ
2.667 LW
N
249 307.6 M
249 290.157 L
S
GR
GS
[0.75 0 0 0.75 0 0] CT
0 0.447 0.741 RC
1 LJ
2.667 LW
N
447 295.778 M
447 277.536 L
S
GR
GS
[0.75 0 0 0.75 0 0] CT
0 0.447 0.741 RC
1 LJ
2.667 LW
N
645 294.089 M
645 272.726 L
S
GR
GS
[0.75 0 0 0.75 0 0] CT
0 0.447 0.741 RC
1 LJ
2.667 LW
N
843 251.867 M
843 195.318 L
S
GR
GS
[0.75 0 0 0.75 0 0] CT
0 0.447 0.741 RC
1 LJ
2.667 LW
N
1041 79.6 M
1041 33.964 L
S
GR
GS
[0.75 0 0 0.75 0 0] CT
0 0.447 0.741 RC
1 LJ
2.667 LW
N
150 305.911 M
189.6 307.6 L
249 307.6 L
447 295.778 L
645 294.089 L
843 251.867 L
1041 79.6 L
S
GR
GS
[0.75 0 0 0.75 112.5 244.5981] CT
0 0.447 0.741 RC
N
-4 0 M
4 0 L
f
GR
GS
[0.75 0 0 0.75 112.5 244.5981] CT
0 0.447 0.741 RC
10.0 ML
2.667 LW
N
-4 0 M
4 0 L
S
GR
GS
[0.75 0 0 0.75 142.2 243.78207] CT
0 0.447 0.741 RC
N
/f-401390582{-4 0 M
4 0 L}def
f-401390582
f
GR
GS
[0.75 0 0 0.75 142.2 243.78207] CT
0 0.447 0.741 RC
10.0 ML
2.667 LW
N
-4 0 M
4 0 L
S
GR
GS
[0.75 0 0 0.75 186.75 243.78207] CT
0 0.447 0.741 RC
N
f-401390582
f
GR
GS
[0.75 0 0 0.75 186.75 243.78207] CT
0 0.447 0.741 RC
10.0 ML
2.667 LW
N
-4 0 M
4 0 L
S
GR
GS
[0.75 0 0 0.75 335.25 235.5149] CT
0 0.447 0.741 RC
N
f-401390582
f
GR
GS
[0.75 0 0 0.75 335.25 235.5149] CT
0 0.447 0.741 RC
10.0 ML
2.667 LW
N
-4 0 M
4 0 L
S
GR
GS
[0.75 0 0 0.75 483.75 236.58888] CT
0 0.447 0.741 RC
N
f-401390582
f
GR
GS
[0.75 0 0 0.75 483.75 236.58888] CT
0 0.447 0.741 RC
10.0 ML
2.667 LW
N
-4 0 M
4 0 L
S
GR
GS
[0.75 0 0 0.75 632.25 231.31181] CT
0 0.447 0.741 RC
N
f-401390582
f
GR
GS
[0.75 0 0 0.75 632.25 231.31181] CT
0 0.447 0.741 RC
10.0 ML
2.667 LW
N
-4 0 M
4 0 L
S
GR
GS
[0.75 0 0 0.75 780.75 112.45244] CT
0 0.447 0.741 RC
N
f-401390582
f
GR
GS
[0.75 0 0 0.75 780.75 112.45244] CT
0 0.447 0.741 RC
10.0 ML
2.667 LW
N
-4 0 M
4 0 L
S
GR
GS
[0.75 0 0 0.75 112.5 214.26855] CT
0 0.447 0.741 RC
N
f-401390582
f
GR
GS
[0.75 0 0 0.75 112.5 214.26855] CT
0 0.447 0.741 RC
10.0 ML
2.667 LW
N
-4 0 M
4 0 L
S
GR
GS
[0.75 0 0 0.75 142.2 217.61792] CT
0 0.447 0.741 RC
N
f-401390582
f
GR
GS
[0.75 0 0 0.75 142.2 217.61792] CT
0 0.447 0.741 RC
10.0 ML
2.667 LW
N
-4 0 M
4 0 L
S
GR
GS
[0.75 0 0 0.75 186.75 217.61792] CT
0 0.447 0.741 RC
N
f-401390582
f
GR
GS
[0.75 0 0 0.75 186.75 217.61792] CT
0 0.447 0.741 RC
10.0 ML
2.667 LW
N
-4 0 M
4 0 L
S
GR
GS
[0.75 0 0 0.75 335.25 208.15178] CT
0 0.447 0.741 RC
N
f-401390582
f
GR
GS
[0.75 0 0 0.75 335.25 208.15178] CT
0 0.447 0.741 RC
10.0 ML
2.667 LW
N
-4 0 M
4 0 L
S
GR
GS
[0.75 0 0 0.75 483.75 204.54446] CT
0 0.447 0.741 RC
N
f-401390582
f
GR
GS
[0.75 0 0 0.75 483.75 204.54446] CT
0 0.447 0.741 RC
10.0 ML
2.667 LW
N
-4 0 M
4 0 L
S
GR
GS
[0.75 0 0 0.75 632.25 146.48821] CT
0 0.447 0.741 RC
N
f-401390582
f
GR
GS
[0.75 0 0 0.75 632.25 146.48821] CT
0 0.447 0.741 RC
10.0 ML
2.667 LW
N
-4 0 M
4 0 L
S
GR
GS
[0.75 0 0 0.75 0 0] CT
0.851 0.325 0.098 RC
1 LJ
2.667 LW
N
150 332.933 M
150 338.036 L
S
GR
GS
[0.75 0 0 0.75 0 0] CT
0.851 0.325 0.098 RC
1 LJ
2.667 LW
N
189.6 331.244 M
189.6 338.036 L
S
GR
GS
[0.75 0 0 0.75 0 0] CT
0.851 0.325 0.098 RC
1 LJ
2.667 LW
N
249 334.622 M
249 338.036 L
S
GR
GS
[0.75 0 0 0.75 0 0] CT
0.851 0.325 0.098 RC
1 LJ
2.667 LW
N
447 336.311 M
447 338.036 L
S
GR
GS
[0.75 0 0 0.75 0 0] CT
0.851 0.325 0.098 RC
1 LJ
2.667 LW
N
645 324.489 M
645 337.811 L
S
GR
GS
[0.75 0 0 0.75 0 0] CT
0.851 0.325 0.098 RC
1 LJ
2.667 LW
N
843 314.356 M
843 335.719 L
S
GR
GS
[0.75 0 0 0.75 0 0] CT
0.851 0.325 0.098 RC
1 LJ
2.667 LW
N
1041 214.711 M
1041 243.472 L
S
GR
GS
[0.75 0 0 0.75 0 0] CT
0.851 0.325 0.098 RC
1 LJ
2.667 LW
N
150 332.933 M
150 324.775 L
S
GR
GS
[0.75 0 0 0.75 0 0] CT
0.851 0.325 0.098 RC
1 LJ
2.667 LW
N
189.6 331.244 M
189.6 322.523 L
S
GR
GS
[0.75 0 0 0.75 0 0] CT
0.851 0.325 0.098 RC
1 LJ
2.667 LW
N
249 334.622 M
249 327.501 L
S
GR
GS
[0.75 0 0 0.75 0 0] CT
0.851 0.325 0.098 RC
1 LJ
2.667 LW
N
447 336.311 M
447 330.97 L
S
GR
GS
[0.75 0 0 0.75 0 0] CT
0.851 0.325 0.098 RC
1 LJ
2.667 LW
N
645 324.489 M
645 311.167 L
S
GR
GS
[0.75 0 0 0.75 0 0] CT
0.851 0.325 0.098 RC
1 LJ
2.667 LW
N
843 314.356 M
843 292.993 L
S
GR
GS
[0.75 0 0 0.75 0 0] CT
0.851 0.325 0.098 RC
1 LJ
2.667 LW
N
1041 214.711 M
1041 185.95 L
S
GR
GS
[0.75 0 0 0.75 0 0] CT
0.851 0.325 0.098 RC
1 LJ
2.667 LW
N
150 332.933 M
189.6 331.244 L
249 334.622 L
447 336.311 L
645 324.489 L
843 314.356 L
1041 214.711 L
S
GR
GS
[0.75 0 0 0.75 483.75 253.35828] CT
0.851 0.325 0.098 RC
N
f-401390582
f
GR
GS
[0.75 0 0 0.75 483.75 253.35828] CT
0.851 0.325 0.098 RC
10.0 ML
2.667 LW
N
-4 0 M
4 0 L
S
GR
GS
[0.75 0 0 0.75 632.25 251.78888] CT
0.851 0.325 0.098 RC
N
f-401390582
f
GR
GS
[0.75 0 0 0.75 632.25 251.78888] CT
0.851 0.325 0.098 RC
10.0 ML
2.667 LW
N
-4 0 M
4 0 L
S
GR
GS
[0.75 0 0 0.75 780.75 182.60389] CT
0.851 0.325 0.098 RC
N
f-401390582
f
GR
GS
[0.75 0 0 0.75 780.75 182.60389] CT
0.851 0.325 0.098 RC
10.0 ML
2.667 LW
N
-4 0 M
4 0 L
S
GR
GS
[0.75 0 0 0.75 112.5 243.58143] CT
0.851 0.325 0.098 RC
N
f-401390582
f
GR
GS
[0.75 0 0 0.75 112.5 243.58143] CT
0.851 0.325 0.098 RC
10.0 ML
2.667 LW
N
-4 0 M
4 0 L
S
GR
GS
[0.75 0 0 0.75 142.2 241.8923] CT
0.851 0.325 0.098 RC
N
f-401390582
f
GR
GS
[0.75 0 0 0.75 142.2 241.8923] CT
0.851 0.325 0.098 RC
10.0 ML
2.667 LW
N
-4 0 M
4 0 L
S
GR
GS
[0.75 0 0 0.75 186.75 245.62594] CT
0.851 0.325 0.098 RC
N
f-401390582
f
GR
GS
[0.75 0 0 0.75 186.75 245.62594] CT
0.851 0.325 0.098 RC
10.0 ML
2.667 LW
N
-4 0 M
4 0 L
S
GR
GS
[0.75 0 0 0.75 335.25 248.22778] CT
0.851 0.325 0.098 RC
N
f-401390582
f
GR
GS
[0.75 0 0 0.75 335.25 248.22778] CT
0.851 0.325 0.098 RC
10.0 ML
2.667 LW
N
-4 0 M
4 0 L
S
GR
GS
[0.75 0 0 0.75 483.75 233.37506] CT
0.851 0.325 0.098 RC
N
f-401390582
f
GR
GS
[0.75 0 0 0.75 483.75 233.37506] CT
0.851 0.325 0.098 RC
10.0 ML
2.667 LW
N
-4 0 M
4 0 L
S
GR
GS
[0.75 0 0 0.75 632.25 219.74446] CT
0.851 0.325 0.098 RC
N
f-401390582
f
GR
GS
[0.75 0 0 0.75 632.25 219.74446] CT
0.851 0.325 0.098 RC
10.0 ML
2.667 LW
N
-4 0 M
4 0 L
S
GR
GS
[0.75 0 0 0.75 780.75 139.46278] CT
0.851 0.325 0.098 RC
N
f-401390582
f
GR
GS
[0.75 0 0 0.75 780.75 139.46278] CT
0.851 0.325 0.098 RC
10.0 ML
2.667 LW
N
-4 0 M
4 0 L
S
GR
GS
[0.75 0 0 0.75 0 0] CT
1 GC
N
/f-751168748{1028 98 M
1028 47 L
892 47 L
892 98 L
cp}def
f-751168748
f
GR
GS
[0.75 0 0 0.75 704.25 45.47525] CT
/Helvetica 18 F
GS
[1 0 0 1 0 0] CT
0 7.5 moveto 
1 -1 scale
(True error) t 
GR
GR
GS
[0.75 0 0 0.75 0 0] CT
0 0.447 0.741 RC
1 LJ
2.667 LW
N
896 60.634 M
936 60.634 L
S
GR
GS
[0.75 0 0 0.75 687 52.25421] CT
0 0.447 0.741 RC
N
f-401390582
f
GR
GS
[0.75 0 0 0.75 687 52.25421] CT
0 0.447 0.741 RC
10.0 ML
2.667 LW
N
-4 0 M
4 0 L
S
GR
GS
[0.75 0 0 0.75 687 38.69629] CT
0 0.447 0.741 RC
N
f-401390582
f
GR
GS
[0.75 0 0 0.75 687 38.69629] CT
0 0.447 0.741 RC
10.0 ML
2.667 LW
N
-4 0 M
4 0 L
S
GR
GS
[0.75 0 0 0.75 0 0] CT
0 0.447 0.741 RC
1 LJ
2.667 LW
N
916 69.672 M
916 51.595 L
S
GR
GS
[0.75 0 0 0.75 704.25 63.27475] CT
/Helvetica 18 F
GS
[1 0 0 1 0 0] CT
0 7.5 moveto 
1 -1 scale
(Train error) t 
GR
GR
GS
[0.75 0 0 0.75 0 0] CT
0.851 0.325 0.098 RC
1 LJ
2.667 LW
N
896 84.366 M
936 84.366 L
S
GR
GS
[0.75 0 0 0.75 687 70.05371] CT
0.851 0.325 0.098 RC
N
f-401390582
f
GR
GS
[0.75 0 0 0.75 687 70.05371] CT
0.851 0.325 0.098 RC
10.0 ML
2.667 LW
N
-4 0 M
4 0 L
S
GR
GS
[0.75 0 0 0.75 687 56.49579] CT
0.851 0.325 0.098 RC
N
f-401390582
f
GR
GS
[0.75 0 0 0.75 687 56.49579] CT
0.851 0.325 0.098 RC
10.0 ML
2.667 LW
N
-4 0 M
4 0 L
S
GR
GS
[0.75 0 0 0.75 0 0] CT
0.851 0.325 0.098 RC
1 LJ
2.667 LW
N
916 93.405 M
916 75.328 L
S
GR
GS
[0.75 0 0 0.75 0 0] CT
0.149 GC
10.0 ML
0.667 LW
N
892 98 M
892 47 L
1028 47 L
1028 98 L
cp
S
GR
%%Trailer
%%Pages: 1
%%EOF
