%!PS-Adobe-3.0 EPSF-3.0
%%Creator: (MATLAB, The Mathworks, Inc. Version 9.3.0.713579 \(R2017b\). Operating System: Windows 7)
%%Title: fig/weak_learner_train.eps
%%CreationDate: 2018-05-26T10:32:53
%%Pages: (atend)
%%BoundingBox:    17     3   381   309
%%LanguageLevel: 3
%%EndComments
%%BeginProlog
%%BeginResource: procset (Apache XML Graphics Std ProcSet) 1.2 0
%%Version: 1.2 0
%%Copyright: (Copyright 2001-2003,2010 The Apache Software Foundation. License terms: http://www.apache.org/licenses/LICENSE-2.0)
/bd{bind def}bind def
/ld{load def}bd
/GR/grestore ld
/GS/gsave ld
/RM/rmoveto ld
/C/curveto ld
/t/show ld
/L/lineto ld
/ML/setmiterlimit ld
/CT/concat ld
/f/fill ld
/N/newpath ld
/S/stroke ld
/CC/setcmykcolor ld
/A/ashow ld
/cp/closepath ld
/RC/setrgbcolor ld
/LJ/setlinejoin ld
/GC/setgray ld
/LW/setlinewidth ld
/M/moveto ld
/re {4 2 roll M
1 index 0 rlineto
0 exch rlineto
neg 0 rlineto
cp } bd
/_ctm matrix def
/_tm matrix def
/BT { _ctm currentmatrix pop matrix _tm copy pop 0 0 moveto } bd
/ET { _ctm setmatrix } bd
/iTm { _ctm setmatrix _tm concat } bd
/Tm { _tm astore pop iTm 0 0 moveto } bd
/ux 0.0 def
/uy 0.0 def
/F {
  /Tp exch def
  /Tf exch def
  Tf findfont Tp scalefont setfont
  /cf Tf def  /cs Tp def
} bd
/ULS {currentpoint /uy exch def /ux exch def} bd
/ULE {
  /Tcx currentpoint pop def
  gsave
  newpath
  cf findfont cs scalefont dup
  /FontMatrix get 0 get /Ts exch def /FontInfo get dup
  /UnderlinePosition get Ts mul /To exch def
  /UnderlineThickness get Ts mul /Tt exch def
  ux uy To add moveto  Tcx uy To add lineto
  Tt setlinewidth stroke
  grestore
} bd
/OLE {
  /Tcx currentpoint pop def
  gsave
  newpath
  cf findfont cs scalefont dup
  /FontMatrix get 0 get /Ts exch def /FontInfo get dup
  /UnderlinePosition get Ts mul /To exch def
  /UnderlineThickness get Ts mul /Tt exch def
  ux uy To add cs add moveto Tcx uy To add cs add lineto
  Tt setlinewidth stroke
  grestore
} bd
/SOE {
  /Tcx currentpoint pop def
  gsave
  newpath
  cf findfont cs scalefont dup
  /FontMatrix get 0 get /Ts exch def /FontInfo get dup
  /UnderlinePosition get Ts mul /To exch def
  /UnderlineThickness get Ts mul /Tt exch def
  ux uy To add cs 10 mul 26 idiv add moveto Tcx uy To add cs 10 mul 26 idiv add lineto
  Tt setlinewidth stroke
  grestore
} bd
/QT {
/Y22 exch store
/X22 exch store
/Y21 exch store
/X21 exch store
currentpoint
/Y21 load 2 mul add 3 div exch
/X21 load 2 mul add 3 div exch
/X21 load 2 mul /X22 load add 3 div
/Y21 load 2 mul /Y22 load add 3 div
/X22 load /Y22 load curveto
} bd
/SSPD {
dup length /d exch dict def
{
/v exch def
/k exch def
currentpagedevice k known {
/cpdv currentpagedevice k get def
v cpdv ne {
/upd false def
/nullv v type /nulltype eq def
/nullcpdv cpdv type /nulltype eq def
nullv nullcpdv or
{
/upd true def
} {
/sametype v type cpdv type eq def
sametype {
v type /arraytype eq {
/vlen v length def
/cpdvlen cpdv length def
vlen cpdvlen eq {
0 1 vlen 1 sub {
/i exch def
/obj v i get def
/cpdobj cpdv i get def
obj cpdobj ne {
/upd true def
exit
} if
} for
} {
/upd true def
} ifelse
} {
v type /dicttype eq {
v {
/dv exch def
/dk exch def
/cpddv cpdv dk get def
dv cpddv ne {
/upd true def
exit
} if
} forall
} {
/upd true def
} ifelse
} ifelse
} if
} ifelse
upd true eq {
d k v put
} if
} if
} if
} forall
d length 0 gt {
d setpagedevice
} if
} bd
/RE { % /NewFontName [NewEncodingArray] /FontName RE -
  findfont dup length dict begin
  {
    1 index /FID ne
    {def} {pop pop} ifelse
  } forall
  /Encoding exch def
  /FontName 1 index def
  currentdict definefont pop
  end
} bind def
%%EndResource
%%BeginResource: procset (Apache XML Graphics EPS ProcSet) 1.0 0
%%Version: 1.0 0
%%Copyright: (Copyright 2002-2003 The Apache Software Foundation. License terms: http://www.apache.org/licenses/LICENSE-2.0)
/BeginEPSF { %def
/b4_Inc_state save def         % Save state for cleanup
/dict_count countdictstack def % Count objects on dict stack
/op_count count 1 sub def      % Count objects on operand stack
userdict begin                 % Push userdict on dict stack
/showpage { } def              % Redefine showpage, { } = null proc
0 setgray 0 setlinecap         % Prepare graphics state
1 setlinewidth 0 setlinejoin
10 setmiterlimit [ ] 0 setdash newpath
/languagelevel where           % If level not equal to 1 then
{pop languagelevel             % set strokeadjust and
1 ne                           % overprint to their defaults.
{false setstrokeadjust false setoverprint
} if
} if
} bd
/EndEPSF { %def
count op_count sub {pop} repeat            % Clean up stacks
countdictstack dict_count sub {end} repeat
b4_Inc_state restore
} bd
%%EndResource
%FOPBeginFontDict
%%IncludeResource: font Courier-Oblique
%%IncludeResource: font Courier-BoldOblique
%%IncludeResource: font Courier-Bold
%%IncludeResource: font ZapfDingbats
%%IncludeResource: font Symbol
%%IncludeResource: font Helvetica
%%IncludeResource: font Helvetica-Oblique
%%IncludeResource: font Helvetica-Bold
%%IncludeResource: font Helvetica-BoldOblique
%%IncludeResource: font Times-Roman
%%IncludeResource: font Times-Italic
%%IncludeResource: font Times-Bold
%%IncludeResource: font Times-BoldItalic
%%IncludeResource: font Courier
%FOPEndFontDict
%%BeginResource: encoding WinAnsiEncoding
/WinAnsiEncoding [
/.notdef /.notdef /.notdef /.notdef /.notdef
/.notdef /.notdef /.notdef /.notdef /.notdef
/.notdef /.notdef /.notdef /.notdef /.notdef
/.notdef /.notdef /.notdef /.notdef /.notdef
/.notdef /.notdef /.notdef /.notdef /.notdef
/.notdef /.notdef /.notdef /.notdef /.notdef
/.notdef /.notdef /space /exclam /quotedbl
/numbersign /dollar /percent /ampersand /quotesingle
/parenleft /parenright /asterisk /plus /comma
/hyphen /period /slash /zero /one
/two /three /four /five /six
/seven /eight /nine /colon /semicolon
/less /equal /greater /question /at
/A /B /C /D /E
/F /G /H /I /J
/K /L /M /N /O
/P /Q /R /S /T
/U /V /W /X /Y
/Z /bracketleft /backslash /bracketright /asciicircum
/underscore /quoteleft /a /b /c
/d /e /f /g /h
/i /j /k /l /m
/n /o /p /q /r
/s /t /u /v /w
/x /y /z /braceleft /bar
/braceright /asciitilde /bullet /Euro /bullet
/quotesinglbase /florin /quotedblbase /ellipsis /dagger
/daggerdbl /circumflex /perthousand /Scaron /guilsinglleft
/OE /bullet /Zcaron /bullet /bullet
/quoteleft /quoteright /quotedblleft /quotedblright /bullet
/endash /emdash /asciitilde /trademark /scaron
/guilsinglright /oe /bullet /zcaron /Ydieresis
/space /exclamdown /cent /sterling /currency
/yen /brokenbar /section /dieresis /copyright
/ordfeminine /guillemotleft /logicalnot /sfthyphen /registered
/macron /degree /plusminus /twosuperior /threesuperior
/acute /mu /paragraph /middot /cedilla
/onesuperior /ordmasculine /guillemotright /onequarter /onehalf
/threequarters /questiondown /Agrave /Aacute /Acircumflex
/Atilde /Adieresis /Aring /AE /Ccedilla
/Egrave /Eacute /Ecircumflex /Edieresis /Igrave
/Iacute /Icircumflex /Idieresis /Eth /Ntilde
/Ograve /Oacute /Ocircumflex /Otilde /Odieresis
/multiply /Oslash /Ugrave /Uacute /Ucircumflex
/Udieresis /Yacute /Thorn /germandbls /agrave
/aacute /acircumflex /atilde /adieresis /aring
/ae /ccedilla /egrave /eacute /ecircumflex
/edieresis /igrave /iacute /icircumflex /idieresis
/eth /ntilde /ograve /oacute /ocircumflex
/otilde /odieresis /divide /oslash /ugrave
/uacute /ucircumflex /udieresis /yacute /thorn
/ydieresis
] def
%%EndResource
%FOPBeginFontReencode
/Courier-Oblique findfont
dup length dict begin
  {1 index /FID ne {def} {pop pop} ifelse} forall
  /Encoding WinAnsiEncoding def
  currentdict
end
/Courier-Oblique exch definefont pop
/Courier-BoldOblique findfont
dup length dict begin
  {1 index /FID ne {def} {pop pop} ifelse} forall
  /Encoding WinAnsiEncoding def
  currentdict
end
/Courier-BoldOblique exch definefont pop
/Courier-Bold findfont
dup length dict begin
  {1 index /FID ne {def} {pop pop} ifelse} forall
  /Encoding WinAnsiEncoding def
  currentdict
end
/Courier-Bold exch definefont pop
/Helvetica findfont
dup length dict begin
  {1 index /FID ne {def} {pop pop} ifelse} forall
  /Encoding WinAnsiEncoding def
  currentdict
end
/Helvetica exch definefont pop
/Helvetica-Oblique findfont
dup length dict begin
  {1 index /FID ne {def} {pop pop} ifelse} forall
  /Encoding WinAnsiEncoding def
  currentdict
end
/Helvetica-Oblique exch definefont pop
/Helvetica-Bold findfont
dup length dict begin
  {1 index /FID ne {def} {pop pop} ifelse} forall
  /Encoding WinAnsiEncoding def
  currentdict
end
/Helvetica-Bold exch definefont pop
/Helvetica-BoldOblique findfont
dup length dict begin
  {1 index /FID ne {def} {pop pop} ifelse} forall
  /Encoding WinAnsiEncoding def
  currentdict
end
/Helvetica-BoldOblique exch definefont pop
/Times-Roman findfont
dup length dict begin
  {1 index /FID ne {def} {pop pop} ifelse} forall
  /Encoding WinAnsiEncoding def
  currentdict
end
/Times-Roman exch definefont pop
/Times-Italic findfont
dup length dict begin
  {1 index /FID ne {def} {pop pop} ifelse} forall
  /Encoding WinAnsiEncoding def
  currentdict
end
/Times-Italic exch definefont pop
/Times-Bold findfont
dup length dict begin
  {1 index /FID ne {def} {pop pop} ifelse} forall
  /Encoding WinAnsiEncoding def
  currentdict
end
/Times-Bold exch definefont pop
/Times-BoldItalic findfont
dup length dict begin
  {1 index /FID ne {def} {pop pop} ifelse} forall
  /Encoding WinAnsiEncoding def
  currentdict
end
/Times-BoldItalic exch definefont pop
/Courier findfont
dup length dict begin
  {1 index /FID ne {def} {pop pop} ifelse} forall
  /Encoding WinAnsiEncoding def
  currentdict
end
/Courier exch definefont pop
%FOPEndFontReencode
%%EndProlog
%%Page: 1 1
%%PageBoundingBox: 0 0 420 315
%%BeginPageSetup
[1 0 0 -1 0 315] CT
%%EndPageSetup
GS
[0.75 0 0 0.75 0 0] CT
1 GC
N
0 0 560 420 re
f
GR
GS
[0.75 0 0 0.75 0 0] CT
1 GC
N
0 0 560 420 re
f
GR
GS
[0.75 0 0 0.75 0 0] CT
1 GC
N
73 358 M
507 358 L
507 34 L
73 34 L
cp
f
GR
GS
[0.75 0 0 0.75 217.50021 22.41576] CT
/Helvetica-Bold 22 F
GS
[1 0 0 1 0 0] CT
-138 -5 moveto 
1 -1 scale
(Clasifier with training data) t 
GR
GR
GS
[0.75 0 0 0.75 0 0] CT
0.949 0.949 1 RC
N
281.787 358.039 M
281.787 33.961 L
72.948 33.961 L
72.948 358.039 L
cp
f
GR
GS
[0.75 0 0 0.75 0 0] CT
2 setlinecap
10.0 ML
1.333 LW
N
281.787 33.961 M
281.787 358.039 L
S
GR
GS
[0.75 0 0 0.75 0 0] CT
1 0.949 0.949 RC
N
281.787 33.961 M
281.787 358.039 L
507.052 358.039 L
507.052 33.961 L
cp
f
GR
GS
[0.75 0 0 0.75 0 0] CT
2 setlinecap
10.0 ML
1.333 LW
N
281.787 358.039 M
281.787 33.961 L
S
GR
GS
[0.75 0 0 0.75 111.81039 168.67987] CT
0.6 0.6 1 RC
10.0 ML
2.667 LW
N
4 0 M
4 -2.209 2.209 -4 0 -4 C
-2.209 -4 -4 -2.209 -4 0 C
-4 2.209 -2.209 4 0 4 C
2.209 4 4 2.209 4 0 C
S
GR
GS
[0.75 0 0 0.75 245.00391 142.16574] CT
0.6 0.6 1 RC
10.0 ML
2.667 LW
N
4 0 M
4 -2.209 2.209 -4 0 -4 C
-2.209 -4 -4 -2.209 -4 0 C
-4 2.209 -2.209 4 0 4 C
2.209 4 4 2.209 4 0 C
S
GR
GS
[0.75 0 0 0.75 197.49683 152.69476] CT
0.6 0.6 1 RC
10.0 ML
2.667 LW
N
4 0 M
4 -2.209 2.209 -4 0 -4 C
-2.209 -4 -4 -2.209 -4 0 C
-4 2.209 -2.209 4 0 4 C
2.209 4 4 2.209 4 0 C
S
GR
GS
[0.75 0 0 0.75 228.40388 151.388] CT
0.6 0.6 1 RC
10.0 ML
2.667 LW
N
4 0 M
4 -2.209 2.209 -4 0 -4 C
-2.209 -4 -4 -2.209 -4 0 C
-4 2.209 -2.209 4 0 4 C
2.209 4 4 2.209 4 0 C
S
GR
GS
[0.75 0 0 0.75 193.54221 115.31771] CT
0.6 0.6 1 RC
10.0 ML
2.667 LW
N
4 0 M
4 -2.209 2.209 -4 0 -4 C
-2.209 -4 -4 -2.209 -4 0 C
-4 2.209 -2.209 4 0 4 C
2.209 4 4 2.209 4 0 C
S
GR
GS
[0.75 0 0 0.75 141.94216 162.54088] CT
0.6 0.6 1 RC
10.0 ML
2.667 LW
N
4 0 M
4 -2.209 2.209 -4 0 -4 C
-2.209 -4 -4 -2.209 -4 0 C
-4 2.209 -2.209 4 0 4 C
2.209 4 4 2.209 4 0 C
S
GR
GS
[0.75 0 0 0.75 206.60465 160.29226] CT
0.6 0.6 1 RC
10.0 ML
2.667 LW
N
4 0 M
4 -2.209 2.209 -4 0 -4 C
-2.209 -4 -4 -2.209 -4 0 C
-4 2.209 -2.209 4 0 4 C
2.209 4 4 2.209 4 0 C
S
GR
GS
[0.75 0 0 0.75 210.05493 139.8907] CT
0.6 0.6 1 RC
10.0 ML
2.667 LW
N
4 0 M
4 -2.209 2.209 -4 0 -4 C
-2.209 -4 -4 -2.209 -4 0 C
-4 2.209 -2.209 4 0 4 C
2.209 4 4 2.209 4 0 C
S
GR
GS
[0.75 0 0 0.75 144.80114 141.98989] CT
0.6 0.6 1 RC
10.0 ML
2.667 LW
N
4 0 M
4 -2.209 2.209 -4 0 -4 C
-2.209 -4 -4 -2.209 -4 0 C
-4 2.209 -2.209 4 0 4 C
2.209 4 4 2.209 4 0 C
S
GR
GS
[0.75 0 0 0.75 154.62632 143.62777] CT
0.6 0.6 1 RC
10.0 ML
2.667 LW
N
4 0 M
4 -2.209 2.209 -4 0 -4 C
-2.209 -4 -4 -2.209 -4 0 C
-4 2.209 -2.209 4 0 4 C
2.209 4 4 2.209 4 0 C
S
GR
GS
[0.75 0 0 0.75 195.41636 125.07938] CT
0.6 0.6 1 RC
10.0 ML
2.667 LW
N
4 0 M
4 -2.209 2.209 -4 0 -4 C
-2.209 -4 -4 -2.209 -4 0 C
-4 2.209 -2.209 4 0 4 C
2.209 4 4 2.209 4 0 C
S
GR
GS
[0.75 0 0 0.75 192.35435 162.5965] CT
0.6 0.6 1 RC
10.0 ML
2.667 LW
N
4 0 M
4 -2.209 2.209 -4 0 -4 C
-2.209 -4 -4 -2.209 -4 0 C
-4 2.209 -2.209 4 0 4 C
2.209 4 4 2.209 4 0 C
S
GR
GS
[0.75 0 0 0.75 105.73876 149.22409] CT
0.6 0.6 1 RC
10.0 ML
2.667 LW
N
4 0 M
4 -2.209 2.209 -4 0 -4 C
-2.209 -4 -4 -2.209 -4 0 C
-4 2.209 -2.209 4 0 4 C
2.209 4 4 2.209 4 0 C
S
GR
GS
[0.75 0 0 0.75 207.34124 152.72379] CT
0.6 0.6 1 RC
10.0 ML
2.667 LW
N
4 0 M
4 -2.209 2.209 -4 0 -4 C
-2.209 -4 -4 -2.209 -4 0 C
-4 2.209 -2.209 4 0 4 C
2.209 4 4 2.209 4 0 C
S
GR
GS
[0.75 0 0 0.75 242.65819 181.51725] CT
0.6 0.6 1 RC
10.0 ML
2.667 LW
N
4 0 M
4 -2.209 2.209 -4 0 -4 C
-2.209 -4 -4 -2.209 -4 0 C
-4 2.209 -2.209 4 0 4 C
2.209 4 4 2.209 4 0 C
S
GR
GS
[0.75 0 0 0.75 137.20388 162.60197] CT
0.6 0.6 1 RC
10.0 ML
2.667 LW
N
4 0 M
4 -2.209 2.209 -4 0 -4 C
-2.209 -4 -4 -2.209 -4 0 C
-4 2.209 -2.209 4 0 4 C
2.209 4 4 2.209 4 0 C
S
GR
GS
[0.75 0 0 0.75 225.09888 205.14546] CT
0.6 0.6 1 RC
10.0 ML
2.667 LW
N
4 0 M
4 -2.209 2.209 -4 0 -4 C
-2.209 -4 -4 -2.209 -4 0 C
-4 2.209 -2.209 4 0 4 C
2.209 4 4 2.209 4 0 C
S
GR
GS
[0.75 0 0 0.75 198.63705 136.91715] CT
0.6 0.6 1 RC
10.0 ML
2.667 LW
N
4 0 M
4 -2.209 2.209 -4 0 -4 C
-2.209 -4 -4 -2.209 -4 0 C
-4 2.209 -2.209 4 0 4 C
2.209 4 4 2.209 4 0 C
S
GR
GS
[0.75 0 0 0.75 137.24276 169.64876] CT
0.6 0.6 1 RC
10.0 ML
2.667 LW
N
4 0 M
4 -2.209 2.209 -4 0 -4 C
-2.209 -4 -4 -2.209 -4 0 C
-4 2.209 -2.209 4 0 4 C
2.209 4 4 2.209 4 0 C
S
GR
GS
[0.75 0 0 0.75 154.51991 144.39178] CT
0.6 0.6 1 RC
10.0 ML
2.667 LW
N
4 0 M
4 -2.209 2.209 -4 0 -4 C
-2.209 -4 -4 -2.209 -4 0 C
-4 2.209 -2.209 4 0 4 C
2.209 4 4 2.209 4 0 C
S
GR
GS
[0.75 0 0 0.75 190.08943 106.47432] CT
0.6 0.6 1 RC
10.0 ML
2.667 LW
N
4 0 M
4 -2.209 2.209 -4 0 -4 C
-2.209 -4 -4 -2.209 -4 0 C
-4 2.209 -2.209 4 0 4 C
2.209 4 4 2.209 4 0 C
S
GR
GS
[0.75 0 0 0.75 190.33123 179.0124] CT
0.6 0.6 1 RC
10.0 ML
2.667 LW
N
4 0 M
4 -2.209 2.209 -4 0 -4 C
-2.209 -4 -4 -2.209 -4 0 C
-4 2.209 -2.209 4 0 4 C
2.209 4 4 2.209 4 0 C
S
GR
GS
[0.75 0 0 0.75 281.26309 165.46773] CT
0.6 0.6 1 RC
10.0 ML
2.667 LW
N
4 0 M
4 -2.209 2.209 -4 0 -4 C
-2.209 -4 -4 -2.209 -4 0 C
-4 2.209 -2.209 4 0 4 C
2.209 4 4 2.209 4 0 C
S
GR
GS
[0.75 0 0 0.75 190.37328 154.70322] CT
0.6 0.6 1 RC
10.0 ML
2.667 LW
N
4 0 M
4 -2.209 2.209 -4 0 -4 C
-2.209 -4 -4 -2.209 -4 0 C
-4 2.209 -2.209 4 0 4 C
2.209 4 4 2.209 4 0 C
S
GR
GS
[0.75 0 0 0.75 113.94184 155.15735] CT
0.6 0.6 1 RC
10.0 ML
2.667 LW
N
4 0 M
4 -2.209 2.209 -4 0 -4 C
-2.209 -4 -4 -2.209 -4 0 C
-4 2.209 -2.209 4 0 4 C
2.209 4 4 2.209 4 0 C
S
GR
GS
[0.75 0 0 0.75 246.12458 170.42358] CT
0.6 0.6 1 RC
10.0 ML
2.667 LW
N
4 0 M
4 -2.209 2.209 -4 0 -4 C
-2.209 -4 -4 -2.209 -4 0 C
-4 2.209 -2.209 4 0 4 C
2.209 4 4 2.209 4 0 C
S
GR
GS
[0.75 0 0 0.75 165.81505 145.20694] CT
0.6 0.6 1 RC
10.0 ML
2.667 LW
N
4 0 M
4 -2.209 2.209 -4 0 -4 C
-2.209 -4 -4 -2.209 -4 0 C
-4 2.209 -2.209 4 0 4 C
2.209 4 4 2.209 4 0 C
S
GR
GS
[0.75 0 0 0.75 124.97184 172.8143] CT
0.6 0.6 1 RC
10.0 ML
2.667 LW
N
4 0 M
4 -2.209 2.209 -4 0 -4 C
-2.209 -4 -4 -2.209 -4 0 C
-4 2.209 -2.209 4 0 4 C
2.209 4 4 2.209 4 0 C
S
GR
GS
[0.75 0 0 0.75 193.40092 132.00306] CT
0.6 0.6 1 RC
10.0 ML
2.667 LW
N
4 0 M
4 -2.209 2.209 -4 0 -4 C
-2.209 -4 -4 -2.209 -4 0 C
-4 2.209 -2.209 4 0 4 C
2.209 4 4 2.209 4 0 C
S
GR
GS
[0.75 0 0 0.75 168.67363 121.03315] CT
0.6 0.6 1 RC
10.0 ML
2.667 LW
N
4 0 M
4 -2.209 2.209 -4 0 -4 C
-2.209 -4 -4 -2.209 -4 0 C
-4 2.209 -2.209 4 0 4 C
2.209 4 4 2.209 4 0 C
S
GR
GS
[0.75 0 0 0.75 226.32543 147.28786] CT
0.6 0.6 1 RC
10.0 ML
2.667 LW
N
4 0 M
4 -2.209 2.209 -4 0 -4 C
-2.209 -4 -4 -2.209 -4 0 C
-4 2.209 -2.209 4 0 4 C
2.209 4 4 2.209 4 0 C
S
GR
GS
[0.75 0 0 0.75 210.99252 193.92714] CT
0.6 0.6 1 RC
10.0 ML
2.667 LW
N
4 0 M
4 -2.209 2.209 -4 0 -4 C
-2.209 -4 -4 -2.209 -4 0 C
-4 2.209 -2.209 4 0 4 C
2.209 4 4 2.209 4 0 C
S
GR
GS
[0.75 0 0 0.75 171.99714 89.59959] CT
0.6 0.6 1 RC
10.0 ML
2.667 LW
N
4 0 M
4 -2.209 2.209 -4 0 -4 C
-2.209 -4 -4 -2.209 -4 0 C
-4 2.209 -2.209 4 0 4 C
2.209 4 4 2.209 4 0 C
S
GR
GS
[0.75 0 0 0.75 180.84352 171.30666] CT
0.6 0.6 1 RC
10.0 ML
2.667 LW
N
4 0 M
4 -2.209 2.209 -4 0 -4 C
-2.209 -4 -4 -2.209 -4 0 C
-4 2.209 -2.209 4 0 4 C
2.209 4 4 2.209 4 0 C
S
GR
GS
[0.75 0 0 0.75 180.28345 112.40155] CT
0.6 0.6 1 RC
10.0 ML
2.667 LW
N
4 0 M
4 -2.209 2.209 -4 0 -4 C
-2.209 -4 -4 -2.209 -4 0 C
-4 2.209 -2.209 4 0 4 C
2.209 4 4 2.209 4 0 C
S
GR
GS
[0.75 0 0 0.75 161.22837 123.09646] CT
0.6 0.6 1 RC
10.0 ML
2.667 LW
N
4 0 M
4 -2.209 2.209 -4 0 -4 C
-2.209 -4 -4 -2.209 -4 0 C
-4 2.209 -2.209 4 0 4 C
2.209 4 4 2.209 4 0 C
S
GR
GS
[0.75 0 0 0.75 200.92625 146.24804] CT
0.6 0.6 1 RC
10.0 ML
2.667 LW
N
4 0 M
4 -2.209 2.209 -4 0 -4 C
-2.209 -4 -4 -2.209 -4 0 C
-4 2.209 -2.209 4 0 4 C
2.209 4 4 2.209 4 0 C
S
GR
GS
[0.75 0 0 0.75 207.8351 99.26888] CT
0.6 0.6 1 RC
10.0 ML
2.667 LW
N
4 0 M
4 -2.209 2.209 -4 0 -4 C
-2.209 -4 -4 -2.209 -4 0 C
-4 2.209 -2.209 4 0 4 C
2.209 4 4 2.209 4 0 C
S
GR
GS
[0.75 0 0 0.75 257.21031 139.48716] CT
0.6 0.6 1 RC
10.0 ML
2.667 LW
N
4 0 M
4 -2.209 2.209 -4 0 -4 C
-2.209 -4 -4 -2.209 -4 0 C
-4 2.209 -2.209 4 0 4 C
2.209 4 4 2.209 4 0 C
S
GR
GS
[0.75 0 0 0.75 152.84224 154.49159] CT
0.6 0.6 1 RC
10.0 ML
2.667 LW
N
4 0 M
4 -2.209 2.209 -4 0 -4 C
-2.209 -4 -4 -2.209 -4 0 C
-4 2.209 -2.209 4 0 4 C
2.209 4 4 2.209 4 0 C
S
GR
GS
[0.75 0 0 0.75 156.27683 137.59818] CT
0.6 0.6 1 RC
10.0 ML
2.667 LW
N
4 0 M
4 -2.209 2.209 -4 0 -4 C
-2.209 -4 -4 -2.209 -4 0 C
-4 2.209 -2.209 4 0 4 C
2.209 4 4 2.209 4 0 C
S
GR
GS
[0.75 0 0 0.75 250.12225 136.77888] CT
0.6 0.6 1 RC
10.0 ML
2.667 LW
N
4 0 M
4 -2.209 2.209 -4 0 -4 C
-2.209 -4 -4 -2.209 -4 0 C
-4 2.209 -2.209 4 0 4 C
2.209 4 4 2.209 4 0 C
S
GR
GS
[0.75 0 0 0.75 202.63122 174.22556] CT
0.6 0.6 1 RC
10.0 ML
2.667 LW
N
4 0 M
4 -2.209 2.209 -4 0 -4 C
-2.209 -4 -4 -2.209 -4 0 C
-4 2.209 -2.209 4 0 4 C
2.209 4 4 2.209 4 0 C
S
GR
GS
[0.75 0 0 0.75 210.92553 121.08303] CT
0.6 0.6 1 RC
10.0 ML
2.667 LW
N
4 0 M
4 -2.209 2.209 -4 0 -4 C
-2.209 -4 -4 -2.209 -4 0 C
-4 2.209 -2.209 4 0 4 C
2.209 4 4 2.209 4 0 C
S
GR
GS
[0.75 0 0 0.75 184.80722 199.37537] CT
0.6 0.6 1 RC
10.0 ML
2.667 LW
N
4 0 M
4 -2.209 2.209 -4 0 -4 C
-2.209 -4 -4 -2.209 -4 0 C
-4 2.209 -2.209 4 0 4 C
2.209 4 4 2.209 4 0 C
S
GR
GS
[0.75 0 0 0.75 205.20042 132.53107] CT
0.6 0.6 1 RC
10.0 ML
2.667 LW
N
4 0 M
4 -2.209 2.209 -4 0 -4 C
-2.209 -4 -4 -2.209 -4 0 C
-4 2.209 -2.209 4 0 4 C
2.209 4 4 2.209 4 0 C
S
GR
GS
[0.75 0 0 0.75 141.106 108.31675] CT
0.6 0.6 1 RC
10.0 ML
2.667 LW
N
4 0 M
4 -2.209 2.209 -4 0 -4 C
-2.209 -4 -4 -2.209 -4 0 C
-4 2.209 -2.209 4 0 4 C
2.209 4 4 2.209 4 0 C
S
GR
GS
[0.75 0 0 0.75 158.34512 205.91851] CT
0.6 0.6 1 RC
10.0 ML
2.667 LW
N
4 0 M
4 -2.209 2.209 -4 0 -4 C
-2.209 -4 -4 -2.209 -4 0 C
-4 2.209 -2.209 4 0 4 C
2.209 4 4 2.209 4 0 C
S
GR
GS
[0.75 0 0 0.75 203.78698 162.84348] CT
0.6 0.6 1 RC
10.0 ML
2.667 LW
N
4 0 M
4 -2.209 2.209 -4 0 -4 C
-2.209 -4 -4 -2.209 -4 0 C
-4 2.209 -2.209 4 0 4 C
2.209 4 4 2.209 4 0 C
S
GR
GS
[0.75 0 0 0.75 200.87027 144.25093] CT
0.6 0.6 1 RC
10.0 ML
2.667 LW
N
4 0 M
4 -2.209 2.209 -4 0 -4 C
-2.209 -4 -4 -2.209 -4 0 C
-4 2.209 -2.209 4 0 4 C
2.209 4 4 2.209 4 0 C
S
GR
GS
[0.75 0 0 0.75 271.63174 130.86657] CT
1 0.6 0.6 RC
10.0 ML
2.667 LW
N
4 0 M
4 -2.209 2.209 -4 0 -4 C
-2.209 -4 -4 -2.209 -4 0 C
-4 2.209 -2.209 4 0 4 C
2.209 4 4 2.209 4 0 C
S
GR
GS
[0.75 0 0 0.75 320.04419 123.50576] CT
1 0.6 0.6 RC
10.0 ML
2.667 LW
N
4 0 M
4 -2.209 2.209 -4 0 -4 C
-2.209 -4 -4 -2.209 -4 0 C
-4 2.209 -2.209 4 0 4 C
2.209 4 4 2.209 4 0 C
S
GR
GS
[0.75 0 0 0.75 211.34054 195.06715] CT
1 0.6 0.6 RC
10.0 ML
2.667 LW
N
4 0 M
4 -2.209 2.209 -4 0 -4 C
-2.209 -4 -4 -2.209 -4 0 C
-4 2.209 -2.209 4 0 4 C
2.209 4 4 2.209 4 0 C
S
GR
GS
[0.75 0 0 0.75 330.51698 122.94046] CT
1 0.6 0.6 RC
10.0 ML
2.667 LW
N
4 0 M
4 -2.209 2.209 -4 0 -4 C
-2.209 -4 -4 -2.209 -4 0 C
-4 2.209 -2.209 4 0 4 C
2.209 4 4 2.209 4 0 C
S
GR
GS
[0.75 0 0 0.75 202.05927 191.32875] CT
1 0.6 0.6 RC
10.0 ML
2.667 LW
N
4 0 M
4 -2.209 2.209 -4 0 -4 C
-2.209 -4 -4 -2.209 -4 0 C
-4 2.209 -2.209 4 0 4 C
2.209 4 4 2.209 4 0 C
S
GR
GS
[0.75 0 0 0.75 287.66224 118.26915] CT
1 0.6 0.6 RC
10.0 ML
2.667 LW
N
4 0 M
4 -2.209 2.209 -4 0 -4 C
-2.209 -4 -4 -2.209 -4 0 C
-4 2.209 -2.209 4 0 4 C
2.209 4 4 2.209 4 0 C
S
GR
GS
[0.75 0 0 0.75 253.019 190.11177] CT
1 0.6 0.6 RC
10.0 ML
2.667 LW
N
4 0 M
4 -2.209 2.209 -4 0 -4 C
-2.209 -4 -4 -2.209 -4 0 C
-4 2.209 -2.209 4 0 4 C
2.209 4 4 2.209 4 0 C
S
GR
GS
[0.75 0 0 0.75 216.71569 172.15139] CT
1 0.6 0.6 RC
10.0 ML
2.667 LW
N
4 0 M
4 -2.209 2.209 -4 0 -4 C
-2.209 -4 -4 -2.209 -4 0 C
-4 2.209 -2.209 4 0 4 C
2.209 4 4 2.209 4 0 C
S
GR
GS
[0.75 0 0 0.75 237.74611 133.0312] CT
1 0.6 0.6 RC
10.0 ML
2.667 LW
N
4 0 M
4 -2.209 2.209 -4 0 -4 C
-2.209 -4 -4 -2.209 -4 0 C
-4 2.209 -2.209 4 0 4 C
2.209 4 4 2.209 4 0 C
S
GR
GS
[0.75 0 0 0.75 255.3409 150.35446] CT
1 0.6 0.6 RC
10.0 ML
2.667 LW
N
4 0 M
4 -2.209 2.209 -4 0 -4 C
-2.209 -4 -4 -2.209 -4 0 C
-4 2.209 -2.209 4 0 4 C
2.209 4 4 2.209 4 0 C
S
GR
GS
[0.75 0 0 0.75 279.73322 88.61845] CT
1 0.6 0.6 RC
10.0 ML
2.667 LW
N
4 0 M
4 -2.209 2.209 -4 0 -4 C
-2.209 -4 -4 -2.209 -4 0 C
-4 2.209 -2.209 4 0 4 C
2.209 4 4 2.209 4 0 C
S
GR
GS
[0.75 0 0 0.75 297.27715 140.77779] CT
1 0.6 0.6 RC
10.0 ML
2.667 LW
N
4 0 M
4 -2.209 2.209 -4 0 -4 C
-2.209 -4 -4 -2.209 -4 0 C
-4 2.209 -2.209 4 0 4 C
2.209 4 4 2.209 4 0 C
S
GR
GS
[0.75 0 0 0.75 255.27077 161.55714] CT
1 0.6 0.6 RC
10.0 ML
2.667 LW
N
4 0 M
4 -2.209 2.209 -4 0 -4 C
-2.209 -4 -4 -2.209 -4 0 C
-4 2.209 -2.209 4 0 4 C
2.209 4 4 2.209 4 0 C
S
GR
GS
[0.75 0 0 0.75 216.99367 135.389] CT
1 0.6 0.6 RC
10.0 ML
2.667 LW
N
4 0 M
4 -2.209 2.209 -4 0 -4 C
-2.209 -4 -4 -2.209 -4 0 C
-4 2.209 -2.209 4 0 4 C
2.209 4 4 2.209 4 0 C
S
GR
GS
[0.75 0 0 0.75 292.94657 123.44155] CT
1 0.6 0.6 RC
10.0 ML
2.667 LW
N
4 0 M
4 -2.209 2.209 -4 0 -4 C
-2.209 -4 -4 -2.209 -4 0 C
-4 2.209 -2.209 4 0 4 C
2.209 4 4 2.209 4 0 C
S
GR
GS
[0.75 0 0 0.75 273.84254 181.93688] CT
1 0.6 0.6 RC
10.0 ML
2.667 LW
N
4 0 M
4 -2.209 2.209 -4 0 -4 C
-2.209 -4 -4 -2.209 -4 0 C
-4 2.209 -2.209 4 0 4 C
2.209 4 4 2.209 4 0 C
S
GR
GS
[0.75 0 0 0.75 222.69035 160.35466] CT
1 0.6 0.6 RC
10.0 ML
2.667 LW
N
4 0 M
4 -2.209 2.209 -4 0 -4 C
-2.209 -4 -4 -2.209 -4 0 C
-4 2.209 -2.209 4 0 4 C
2.209 4 4 2.209 4 0 C
S
GR
GS
[0.75 0 0 0.75 311.46156 194.69247] CT
1 0.6 0.6 RC
10.0 ML
2.667 LW
N
4 0 M
4 -2.209 2.209 -4 0 -4 C
-2.209 -4 -4 -2.209 -4 0 C
-4 2.209 -2.209 4 0 4 C
2.209 4 4 2.209 4 0 C
S
GR
GS
[0.75 0 0 0.75 286.74678 142.10329] CT
1 0.6 0.6 RC
10.0 ML
2.667 LW
N
4 0 M
4 -2.209 2.209 -4 0 -4 C
-2.209 -4 -4 -2.209 -4 0 C
-4 2.209 -2.209 4 0 4 C
2.209 4 4 2.209 4 0 C
S
GR
GS
[0.75 0 0 0.75 297.69617 191.54375] CT
1 0.6 0.6 RC
10.0 ML
2.667 LW
N
4 0 M
4 -2.209 2.209 -4 0 -4 C
-2.209 -4 -4 -2.209 -4 0 C
-4 2.209 -2.209 4 0 4 C
2.209 4 4 2.209 4 0 C
S
GR
GS
[0.75 0 0 0.75 268.008 147.27458] CT
1 0.6 0.6 RC
10.0 ML
2.667 LW
N
4 0 M
4 -2.209 2.209 -4 0 -4 C
-2.209 -4 -4 -2.209 -4 0 C
-4 2.209 -2.209 4 0 4 C
2.209 4 4 2.209 4 0 C
S
GR
GS
[0.75 0 0 0.75 239.49712 137.58947] CT
1 0.6 0.6 RC
10.0 ML
2.667 LW
N
4 0 M
4 -2.209 2.209 -4 0 -4 C
-2.209 -4 -4 -2.209 -4 0 C
-4 2.209 -2.209 4 0 4 C
2.209 4 4 2.209 4 0 C
S
GR
GS
[0.75 0 0 0.75 307.20055 161.3386] CT
1 0.6 0.6 RC
10.0 ML
2.667 LW
N
4 0 M
4 -2.209 2.209 -4 0 -4 C
-2.209 -4 -4 -2.209 -4 0 C
-4 2.209 -2.209 4 0 4 C
2.209 4 4 2.209 4 0 C
S
GR
GS
[0.75 0 0 0.75 290.83115 112.97999] CT
1 0.6 0.6 RC
10.0 ML
2.667 LW
N
4 0 M
4 -2.209 2.209 -4 0 -4 C
-2.209 -4 -4 -2.209 -4 0 C
-4 2.209 -2.209 4 0 4 C
2.209 4 4 2.209 4 0 C
S
GR
GS
[0.75 0 0 0.75 267.47807 113.73253] CT
1 0.6 0.6 RC
10.0 ML
2.667 LW
N
4 0 M
4 -2.209 2.209 -4 0 -4 C
-2.209 -4 -4 -2.209 -4 0 C
-4 2.209 -2.209 4 0 4 C
2.209 4 4 2.209 4 0 C
S
GR
GS
[0.75 0 0 0.75 275.89503 190.0754] CT
1 0.6 0.6 RC
10.0 ML
2.667 LW
N
4 0 M
4 -2.209 2.209 -4 0 -4 C
-2.209 -4 -4 -2.209 -4 0 C
-4 2.209 -2.209 4 0 4 C
2.209 4 4 2.209 4 0 C
S
GR
GS
[0.75 0 0 0.75 270.21572 94.03128] CT
1 0.6 0.6 RC
10.0 ML
2.667 LW
N
4 0 M
4 -2.209 2.209 -4 0 -4 C
-2.209 -4 -4 -2.209 -4 0 C
-4 2.209 -2.209 4 0 4 C
2.209 4 4 2.209 4 0 C
S
GR
GS
[0.75 0 0 0.75 259.08742 99.16268] CT
1 0.6 0.6 RC
10.0 ML
2.667 LW
N
4 0 M
4 -2.209 2.209 -4 0 -4 C
-2.209 -4 -4 -2.209 -4 0 C
-4 2.209 -2.209 4 0 4 C
2.209 4 4 2.209 4 0 C
S
GR
GS
[0.75 0 0 0.75 243.55536 183.94379] CT
1 0.6 0.6 RC
10.0 ML
2.667 LW
N
4 0 M
4 -2.209 2.209 -4 0 -4 C
-2.209 -4 -4 -2.209 -4 0 C
-4 2.209 -2.209 4 0 4 C
2.209 4 4 2.209 4 0 C
S
GR
GS
[0.75 0 0 0.75 234.59461 129.40734] CT
1 0.6 0.6 RC
10.0 ML
2.667 LW
N
4 0 M
4 -2.209 2.209 -4 0 -4 C
-2.209 -4 -4 -2.209 -4 0 C
-4 2.209 -2.209 4 0 4 C
2.209 4 4 2.209 4 0 C
S
GR
GS
[0.75 0 0 0.75 238.72037 132.93422] CT
1 0.6 0.6 RC
10.0 ML
2.667 LW
N
4 0 M
4 -2.209 2.209 -4 0 -4 C
-2.209 -4 -4 -2.209 -4 0 C
-4 2.209 -2.209 4 0 4 C
2.209 4 4 2.209 4 0 C
S
GR
GS
[0.75 0 0 0.75 302.49133 190.15469] CT
1 0.6 0.6 RC
10.0 ML
2.667 LW
N
4 0 M
4 -2.209 2.209 -4 0 -4 C
-2.209 -4 -4 -2.209 -4 0 C
-4 2.209 -2.209 4 0 4 C
2.209 4 4 2.209 4 0 C
S
GR
GS
[0.75 0 0 0.75 304.83909 165.44619] CT
1 0.6 0.6 RC
10.0 ML
2.667 LW
N
4 0 M
4 -2.209 2.209 -4 0 -4 C
-2.209 -4 -4 -2.209 -4 0 C
-4 2.209 -2.209 4 0 4 C
2.209 4 4 2.209 4 0 C
S
GR
GS
[0.75 0 0 0.75 278.85992 182.36361] CT
1 0.6 0.6 RC
10.0 ML
2.667 LW
N
4 0 M
4 -2.209 2.209 -4 0 -4 C
-2.209 -4 -4 -2.209 -4 0 C
-4 2.209 -2.209 4 0 4 C
2.209 4 4 2.209 4 0 C
S
GR
GS
[0.75 0 0 0.75 210.87415 103.95279] CT
1 0.6 0.6 RC
10.0 ML
2.667 LW
N
4 0 M
4 -2.209 2.209 -4 0 -4 C
-2.209 -4 -4 -2.209 -4 0 C
-4 2.209 -2.209 4 0 4 C
2.209 4 4 2.209 4 0 C
S
GR
GS
[0.75 0 0 0.75 131.82137 153.00763] CT
1 0.6 0.6 RC
10.0 ML
2.667 LW
N
4 0 M
4 -2.209 2.209 -4 0 -4 C
-2.209 -4 -4 -2.209 -4 0 C
-4 2.209 -2.209 4 0 4 C
2.209 4 4 2.209 4 0 C
S
GR
GS
[0.75 0 0 0.75 244.29863 138.65873] CT
1 0.6 0.6 RC
10.0 ML
2.667 LW
N
4 0 M
4 -2.209 2.209 -4 0 -4 C
-2.209 -4 -4 -2.209 -4 0 C
-4 2.209 -2.209 4 0 4 C
2.209 4 4 2.209 4 0 C
S
GR
GS
[0.75 0 0 0.75 280.79384 154.48846] CT
1 0.6 0.6 RC
10.0 ML
2.667 LW
N
4 0 M
4 -2.209 2.209 -4 0 -4 C
-2.209 -4 -4 -2.209 -4 0 C
-4 2.209 -2.209 4 0 4 C
2.209 4 4 2.209 4 0 C
S
GR
GS
[0.75 0 0 0.75 234.77525 182.76791] CT
1 0.6 0.6 RC
10.0 ML
2.667 LW
N
4 0 M
4 -2.209 2.209 -4 0 -4 C
-2.209 -4 -4 -2.209 -4 0 C
-4 2.209 -2.209 4 0 4 C
2.209 4 4 2.209 4 0 C
S
GR
GS
[0.75 0 0 0.75 315.41835 139.61454] CT
1 0.6 0.6 RC
10.0 ML
2.667 LW
N
4 0 M
4 -2.209 2.209 -4 0 -4 C
-2.209 -4 -4 -2.209 -4 0 C
-4 2.209 -2.209 4 0 4 C
2.209 4 4 2.209 4 0 C
S
GR
GS
[0.75 0 0 0.75 254.65926 135.26804] CT
1 0.6 0.6 RC
10.0 ML
2.667 LW
N
4 0 M
4 -2.209 2.209 -4 0 -4 C
-2.209 -4 -4 -2.209 -4 0 C
-4 2.209 -2.209 4 0 4 C
2.209 4 4 2.209 4 0 C
S
GR
GS
[0.75 0 0 0.75 274.87967 157.09776] CT
1 0.6 0.6 RC
10.0 ML
2.667 LW
N
4 0 M
4 -2.209 2.209 -4 0 -4 C
-2.209 -4 -4 -2.209 -4 0 C
-4 2.209 -2.209 4 0 4 C
2.209 4 4 2.209 4 0 C
S
GR
GS
[0.75 0 0 0.75 272.35451 141.01791] CT
1 0.6 0.6 RC
10.0 ML
2.667 LW
N
4 0 M
4 -2.209 2.209 -4 0 -4 C
-2.209 -4 -4 -2.209 -4 0 C
-4 2.209 -2.209 4 0 4 C
2.209 4 4 2.209 4 0 C
S
GR
GS
[0.75 0 0 0.75 256.13596 129.75611] CT
1 0.6 0.6 RC
10.0 ML
2.667 LW
N
4 0 M
4 -2.209 2.209 -4 0 -4 C
-2.209 -4 -4 -2.209 -4 0 C
-4 2.209 -2.209 4 0 4 C
2.209 4 4 2.209 4 0 C
S
GR
GS
[0.75 0 0 0.75 271.27208 121.44097] CT
1 0.6 0.6 RC
10.0 ML
2.667 LW
N
4 0 M
4 -2.209 2.209 -4 0 -4 C
-2.209 -4 -4 -2.209 -4 0 C
-4 2.209 -2.209 4 0 4 C
2.209 4 4 2.209 4 0 C
S
GR
GS
[0.75 0 0 0.75 305.44988 180.95273] CT
1 0.6 0.6 RC
10.0 ML
2.667 LW
N
4 0 M
4 -2.209 2.209 -4 0 -4 C
-2.209 -4 -4 -2.209 -4 0 C
-4 2.209 -2.209 4 0 4 C
2.209 4 4 2.209 4 0 C
S
GR
GS
[0.75 0 0 0.75 164.89584 114.02878] CT
1 0.6 0.6 RC
10.0 ML
2.667 LW
N
4 0 M
4 -2.209 2.209 -4 0 -4 C
-2.209 -4 -4 -2.209 -4 0 C
-4 2.209 -2.209 4 0 4 C
2.209 4 4 2.209 4 0 C
S
GR
GS
[0.75 0 0 0.75 302.95379 110.55876] CT
1 0.6 0.6 RC
10.0 ML
2.667 LW
N
4 0 M
4 -2.209 2.209 -4 0 -4 C
-2.209 -4 -4 -2.209 -4 0 C
-4 2.209 -2.209 4 0 4 C
2.209 4 4 2.209 4 0 C
S
GR
GS
[0.75 0 0 0.75 189.02815 167.41473] CT
1 0.6 0.6 RC
10.0 ML
2.667 LW
N
4 0 M
4 -2.209 2.209 -4 0 -4 C
-2.209 -4 -4 -2.209 -4 0 C
-4 2.209 -2.209 4 0 4 C
2.209 4 4 2.209 4 0 C
S
GR
GS
[0.75 0 0 0.75 264.35081 144.44444] CT
1 0.6 0.6 RC
10.0 ML
2.667 LW
N
4 0 M
4 -2.209 2.209 -4 0 -4 C
-2.209 -4 -4 -2.209 -4 0 C
-4 2.209 -2.209 4 0 4 C
2.209 4 4 2.209 4 0 C
S
GR
GS
[0.75 0 0 0.75 0 0] CT
0.775 GC
[1 3] 0 setdash
2 LJ
0.667 LW
N
73 358 M
73 34 L
S
GR
GS
[0.75 0 0 0.75 0 0] CT
0.775 GC
[1 3] 0 setdash
2 LJ
0.667 LW
N
100.125 358 M
100.125 34 L
S
GR
GS
[0.75 0 0 0.75 0 0] CT
0.775 GC
[1 3] 0 setdash
2 LJ
0.667 LW
N
154.375 358 M
154.375 34 L
S
GR
GS
[0.75 0 0 0.75 0 0] CT
0.775 GC
[1 3] 0 setdash
2 LJ
0.667 LW
N
181.5 358 M
181.5 34 L
S
GR
GS
[0.75 0 0 0.75 0 0] CT
0.775 GC
[1 3] 0 setdash
2 LJ
0.667 LW
N
208.625 358 M
208.625 34 L
S
GR
GS
[0.75 0 0 0.75 0 0] CT
0.775 GC
[1 3] 0 setdash
2 LJ
0.667 LW
N
262.875 358 M
262.875 34 L
S
GR
GS
[0.75 0 0 0.75 0 0] CT
0.775 GC
[1 3] 0 setdash
2 LJ
0.667 LW
N
290 358 M
290 34 L
S
GR
GS
[0.75 0 0 0.75 0 0] CT
0.775 GC
[1 3] 0 setdash
2 LJ
0.667 LW
N
317.125 358 M
317.125 34 L
S
GR
GS
[0.75 0 0 0.75 0 0] CT
0.775 GC
[1 3] 0 setdash
2 LJ
0.667 LW
N
371.375 358 M
371.375 34 L
S
GR
GS
[0.75 0 0 0.75 0 0] CT
0.775 GC
[1 3] 0 setdash
2 LJ
0.667 LW
N
398.5 358 M
398.5 34 L
S
GR
GS
[0.75 0 0 0.75 0 0] CT
0.775 GC
[1 3] 0 setdash
2 LJ
0.667 LW
N
425.625 358 M
425.625 34 L
S
GR
GS
[0.75 0 0 0.75 0 0] CT
0.775 GC
[1 3] 0 setdash
2 LJ
0.667 LW
N
479.875 358 M
479.875 34 L
S
GR
GS
[0.75 0 0 0.75 0 0] CT
0.775 GC
[1 3] 0 setdash
2 LJ
0.667 LW
N
507 358 M
507 34 L
S
GR
GS
[0.75 0 0 0.75 0 0] CT
0.873 GC
[1 3] 0 setdash
2 LJ
0.667 LW
N
127.25 358 M
127.25 34 L
S
GR
GS
[0.75 0 0 0.75 0 0] CT
0.873 GC
[1 3] 0 setdash
2 LJ
0.667 LW
N
235.75 358 M
235.75 34 L
S
GR
GS
[0.75 0 0 0.75 0 0] CT
0.873 GC
[1 3] 0 setdash
2 LJ
0.667 LW
N
344.25 358 M
344.25 34 L
S
GR
GS
[0.75 0 0 0.75 0 0] CT
0.873 GC
[1 3] 0 setdash
2 LJ
0.667 LW
N
452.75 358 M
452.75 34 L
S
GR
GS
[0.75 0 0 0.75 0 0] CT
0.775 GC
[1 3] 0 setdash
2 LJ
0.667 LW
N
507 337.75 M
73 337.75 L
S
GR
GS
[0.75 0 0 0.75 0 0] CT
0.775 GC
[1 3] 0 setdash
2 LJ
0.667 LW
N
507 317.5 M
73 317.5 L
S
GR
GS
[0.75 0 0 0.75 0 0] CT
0.775 GC
[1 3] 0 setdash
2 LJ
0.667 LW
N
507 297.25 M
73 297.25 L
S
GR
GS
[0.75 0 0 0.75 0 0] CT
0.775 GC
[1 3] 0 setdash
2 LJ
0.667 LW
N
507 256.75 M
73 256.75 L
S
GR
GS
[0.75 0 0 0.75 0 0] CT
0.775 GC
[1 3] 0 setdash
2 LJ
0.667 LW
N
507 236.5 M
73 236.5 L
S
GR
GS
[0.75 0 0 0.75 0 0] CT
0.775 GC
[1 3] 0 setdash
2 LJ
0.667 LW
N
507 216.25 M
73 216.25 L
S
GR
GS
[0.75 0 0 0.75 0 0] CT
0.775 GC
[1 3] 0 setdash
2 LJ
0.667 LW
N
507 175.75 M
73 175.75 L
S
GR
GS
[0.75 0 0 0.75 0 0] CT
0.775 GC
[1 3] 0 setdash
2 LJ
0.667 LW
N
507 155.5 M
73 155.5 L
S
GR
GS
[0.75 0 0 0.75 0 0] CT
0.775 GC
[1 3] 0 setdash
2 LJ
0.667 LW
N
507 135.25 M
73 135.25 L
S
GR
GS
[0.75 0 0 0.75 0 0] CT
0.775 GC
[1 3] 0 setdash
2 LJ
0.667 LW
N
507 94.75 M
73 94.75 L
S
GR
GS
[0.75 0 0 0.75 0 0] CT
0.775 GC
[1 3] 0 setdash
2 LJ
0.667 LW
N
507 74.5 M
73 74.5 L
S
GR
GS
[0.75 0 0 0.75 0 0] CT
0.775 GC
[1 3] 0 setdash
2 LJ
0.667 LW
N
507 54.25 M
73 54.25 L
S
GR
GS
[0.75 0 0 0.75 0 0] CT
0.873 GC
[1 3] 0 setdash
2 LJ
0.667 LW
N
507 358 M
73 358 L
S
GR
GS
[0.75 0 0 0.75 0 0] CT
0.873 GC
[1 3] 0 setdash
2 LJ
0.667 LW
N
507 277 M
73 277 L
S
GR
GS
[0.75 0 0 0.75 0 0] CT
0.873 GC
[1 3] 0 setdash
2 LJ
0.667 LW
N
507 196 M
73 196 L
S
GR
GS
[0.75 0 0 0.75 0 0] CT
0.873 GC
[1 3] 0 setdash
2 LJ
0.667 LW
N
507 115 M
73 115 L
S
GR
GS
[0.75 0 0 0.75 0 0] CT
0.873 GC
[1 3] 0 setdash
2 LJ
0.667 LW
N
507 34 M
73 34 L
S
GR
GS
[0.75 0 0 0.75 0 0] CT
0.149 GC
2 setlinecap
1 LJ
0.667 LW
N
73 358 M
507 358 L
S
GR
GS
[0.75 0 0 0.75 0 0] CT
0.149 GC
2 setlinecap
1 LJ
0.667 LW
N
127.25 358 M
127.25 353.66 L
S
GR
GS
[0.75 0 0 0.75 0 0] CT
0.149 GC
2 setlinecap
1 LJ
0.667 LW
N
235.75 358 M
235.75 353.66 L
S
GR
GS
[0.75 0 0 0.75 0 0] CT
0.149 GC
2 setlinecap
1 LJ
0.667 LW
N
344.25 358 M
344.25 353.66 L
S
GR
GS
[0.75 0 0 0.75 0 0] CT
0.149 GC
2 setlinecap
1 LJ
0.667 LW
N
452.75 358 M
452.75 353.66 L
S
GR
GS
[0.75 0 0 0.75 95.4375 273.49999] CT
0.149 GC
/Helvetica 20 F
GS
[1 0 0 1 0 0] CT
-9 21 moveto 
1 -1 scale
(-2) t 
GR
GR
GS
[0.75 0 0 0.75 176.8125 273.49999] CT
0.149 GC
/Helvetica 20 F
GS
[1 0 0 1 0 0] CT
-6 21 moveto 
1 -1 scale
(0) t 
GR
GR
GS
[0.75 0 0 0.75 258.1875 273.49999] CT
0.149 GC
/Helvetica 20 F
GS
[1 0 0 1 0 0] CT
-6 21 moveto 
1 -1 scale
(2) t 
GR
GR
GS
[0.75 0 0 0.75 339.5625 273.49999] CT
0.149 GC
/Helvetica 20 F
GS
[1 0 0 1 0 0] CT
-6 21 moveto 
1 -1 scale
(4) t 
GR
GR
GS
[0.75 0 0 0.75 217.50016 294] CT
0.149 GC
/Helvetica 22 F
GS
[1 0 0 1 0 0] CT
-43.5 23 moveto 
1 -1 scale
(feature 1) t 
GR
GR
GS
[0.75 0 0 0.75 0 0] CT
0.149 GC
2 setlinecap
1 LJ
0.667 LW
N
73 358 M
73 34 L
S
GR
GS
[0.75 0 0 0.75 0 0] CT
0.149 GC
2 setlinecap
1 LJ
0.667 LW
N
73 358 M
77.34 358 L
S
GR
GS
[0.75 0 0 0.75 0 0] CT
0.149 GC
2 setlinecap
1 LJ
0.667 LW
N
73 277 M
77.34 277 L
S
GR
GS
[0.75 0 0 0.75 0 0] CT
0.149 GC
2 setlinecap
1 LJ
0.667 LW
N
73 196 M
77.34 196 L
S
GR
GS
[0.75 0 0 0.75 0 0] CT
0.149 GC
2 setlinecap
1 LJ
0.667 LW
N
73 115 M
77.34 115 L
S
GR
GS
[0.75 0 0 0.75 0 0] CT
0.149 GC
2 setlinecap
1 LJ
0.667 LW
N
73 34 M
77.34 34 L
S
GR
GS
[0.75 0 0 0.75 49.75 268.5] CT
0.149 GC
/Helvetica 20 F
GS
[1 0 0 1 0 0] CT
-18 8 moveto 
1 -1 scale
(-4) t 
GR
GR
GS
[0.75 0 0 0.75 49.75 207.75] CT
0.149 GC
/Helvetica 20 F
GS
[1 0 0 1 0 0] CT
-18 8 moveto 
1 -1 scale
(-2) t 
GR
GR
GS
[0.75 0 0 0.75 49.75 147] CT
0.149 GC
/Helvetica 20 F
GS
[1 0 0 1 0 0] CT
-12 8 moveto 
1 -1 scale
(0) t 
GR
GR
GS
[0.75 0 0 0.75 49.75 86.25] CT
0.149 GC
/Helvetica 20 F
GS
[1 0 0 1 0 0] CT
-12 8 moveto 
1 -1 scale
(2) t 
GR
GR
GS
[0.75 0 0 0.75 49.75 25.5] CT
0.149 GC
/Helvetica 20 F
GS
[1 0 0 1 0 0] CT
-12 8 moveto 
1 -1 scale
(4) t 
GR
GR
GS
[0 -0.75 0.75 0 33.25 146.99989] CT
0.149 GC
/Helvetica 22 F
GS
[1 0 0 1 0 0] CT
-43.5 -5 moveto 
1 -1 scale
(feature 2) t 
GR
GR
GS
[0.75 0 0 0.75 0 0] CT
1 GC
N
494 97 M
494 46 L
384 46 L
384 97 L
cp
f
GR
GS
[0.75 0 0 0.75 323.25 44.72525] CT
/Helvetica 18 F
GS
[1 0 0 1 0 0] CT
0 7.5 moveto 
1 -1 scale
(class A) t 
GR
GR
GS
[0.75 0 0 0.75 306 44.72525] CT
0.6 0.6 1 RC
10.0 ML
2.667 LW
N
4 0 M
4 -2.209 2.209 -4 0 -4 C
-2.209 -4 -4 -2.209 -4 0 C
-4 2.209 -2.209 4 0 4 C
2.209 4 4 2.209 4 0 C
S
GR
GS
[0.75 0 0 0.75 323.25 62.52475] CT
/Helvetica 18 F
GS
[1 0 0 1 0 0] CT
0 7.5 moveto 
1 -1 scale
(class B) t 
GR
GR
GS
[0.75 0 0 0.75 306 62.52475] CT
1 0.6 0.6 RC
10.0 ML
2.667 LW
N
4 0 M
4 -2.209 2.209 -4 0 -4 C
-2.209 -4 -4 -2.209 -4 0 C
-4 2.209 -2.209 4 0 4 C
2.209 4 4 2.209 4 0 C
S
GR
GS
[0.75 0 0 0.75 0 0] CT
0.149 GC
10.0 ML
0.667 LW
N
384 97 M
384 46 L
494 46 L
494 97 L
cp
S
GR
%%Trailer
%%Pages: 1
%%EOF
