%!PS-Adobe-3.0 EPSF-3.0
%%Creator: (MATLAB, The Mathworks, Inc. Version 9.3.0.713579 \(R2017b\). Operating System: Windows 7)
%%Title: fig/weak_learner_train.eps
%%CreationDate: 2018-05-26T10:18:29
%%Pages: (atend)
%%BoundingBox:    17     3   381   309
%%LanguageLevel: 3
%%EndComments
%%BeginProlog
%%BeginResource: procset (Apache XML Graphics Std ProcSet) 1.2 0
%%Version: 1.2 0
%%Copyright: (Copyright 2001-2003,2010 The Apache Software Foundation. License terms: http://www.apache.org/licenses/LICENSE-2.0)
/bd{bind def}bind def
/ld{load def}bd
/GR/grestore ld
/GS/gsave ld
/RM/rmoveto ld
/C/curveto ld
/t/show ld
/L/lineto ld
/ML/setmiterlimit ld
/CT/concat ld
/f/fill ld
/N/newpath ld
/S/stroke ld
/CC/setcmykcolor ld
/A/ashow ld
/cp/closepath ld
/RC/setrgbcolor ld
/LJ/setlinejoin ld
/GC/setgray ld
/LW/setlinewidth ld
/M/moveto ld
/re {4 2 roll M
1 index 0 rlineto
0 exch rlineto
neg 0 rlineto
cp } bd
/_ctm matrix def
/_tm matrix def
/BT { _ctm currentmatrix pop matrix _tm copy pop 0 0 moveto } bd
/ET { _ctm setmatrix } bd
/iTm { _ctm setmatrix _tm concat } bd
/Tm { _tm astore pop iTm 0 0 moveto } bd
/ux 0.0 def
/uy 0.0 def
/F {
  /Tp exch def
  /Tf exch def
  Tf findfont Tp scalefont setfont
  /cf Tf def  /cs Tp def
} bd
/ULS {currentpoint /uy exch def /ux exch def} bd
/ULE {
  /Tcx currentpoint pop def
  gsave
  newpath
  cf findfont cs scalefont dup
  /FontMatrix get 0 get /Ts exch def /FontInfo get dup
  /UnderlinePosition get Ts mul /To exch def
  /UnderlineThickness get Ts mul /Tt exch def
  ux uy To add moveto  Tcx uy To add lineto
  Tt setlinewidth stroke
  grestore
} bd
/OLE {
  /Tcx currentpoint pop def
  gsave
  newpath
  cf findfont cs scalefont dup
  /FontMatrix get 0 get /Ts exch def /FontInfo get dup
  /UnderlinePosition get Ts mul /To exch def
  /UnderlineThickness get Ts mul /Tt exch def
  ux uy To add cs add moveto Tcx uy To add cs add lineto
  Tt setlinewidth stroke
  grestore
} bd
/SOE {
  /Tcx currentpoint pop def
  gsave
  newpath
  cf findfont cs scalefont dup
  /FontMatrix get 0 get /Ts exch def /FontInfo get dup
  /UnderlinePosition get Ts mul /To exch def
  /UnderlineThickness get Ts mul /Tt exch def
  ux uy To add cs 10 mul 26 idiv add moveto Tcx uy To add cs 10 mul 26 idiv add lineto
  Tt setlinewidth stroke
  grestore
} bd
/QT {
/Y22 exch store
/X22 exch store
/Y21 exch store
/X21 exch store
currentpoint
/Y21 load 2 mul add 3 div exch
/X21 load 2 mul add 3 div exch
/X21 load 2 mul /X22 load add 3 div
/Y21 load 2 mul /Y22 load add 3 div
/X22 load /Y22 load curveto
} bd
/SSPD {
dup length /d exch dict def
{
/v exch def
/k exch def
currentpagedevice k known {
/cpdv currentpagedevice k get def
v cpdv ne {
/upd false def
/nullv v type /nulltype eq def
/nullcpdv cpdv type /nulltype eq def
nullv nullcpdv or
{
/upd true def
} {
/sametype v type cpdv type eq def
sametype {
v type /arraytype eq {
/vlen v length def
/cpdvlen cpdv length def
vlen cpdvlen eq {
0 1 vlen 1 sub {
/i exch def
/obj v i get def
/cpdobj cpdv i get def
obj cpdobj ne {
/upd true def
exit
} if
} for
} {
/upd true def
} ifelse
} {
v type /dicttype eq {
v {
/dv exch def
/dk exch def
/cpddv cpdv dk get def
dv cpddv ne {
/upd true def
exit
} if
} forall
} {
/upd true def
} ifelse
} ifelse
} if
} ifelse
upd true eq {
d k v put
} if
} if
} if
} forall
d length 0 gt {
d setpagedevice
} if
} bd
/RE { % /NewFontName [NewEncodingArray] /FontName RE -
  findfont dup length dict begin
  {
    1 index /FID ne
    {def} {pop pop} ifelse
  } forall
  /Encoding exch def
  /FontName 1 index def
  currentdict definefont pop
  end
} bind def
%%EndResource
%%BeginResource: procset (Apache XML Graphics EPS ProcSet) 1.0 0
%%Version: 1.0 0
%%Copyright: (Copyright 2002-2003 The Apache Software Foundation. License terms: http://www.apache.org/licenses/LICENSE-2.0)
/BeginEPSF { %def
/b4_Inc_state save def         % Save state for cleanup
/dict_count countdictstack def % Count objects on dict stack
/op_count count 1 sub def      % Count objects on operand stack
userdict begin                 % Push userdict on dict stack
/showpage { } def              % Redefine showpage, { } = null proc
0 setgray 0 setlinecap         % Prepare graphics state
1 setlinewidth 0 setlinejoin
10 setmiterlimit [ ] 0 setdash newpath
/languagelevel where           % If level not equal to 1 then
{pop languagelevel             % set strokeadjust and
1 ne                           % overprint to their defaults.
{false setstrokeadjust false setoverprint
} if
} if
} bd
/EndEPSF { %def
count op_count sub {pop} repeat            % Clean up stacks
countdictstack dict_count sub {end} repeat
b4_Inc_state restore
} bd
%%EndResource
%FOPBeginFontDict
%%IncludeResource: font Courier-Oblique
%%IncludeResource: font Courier-BoldOblique
%%IncludeResource: font Courier-Bold
%%IncludeResource: font ZapfDingbats
%%IncludeResource: font Symbol
%%IncludeResource: font Helvetica
%%IncludeResource: font Helvetica-Oblique
%%IncludeResource: font Helvetica-Bold
%%IncludeResource: font Helvetica-BoldOblique
%%IncludeResource: font Times-Roman
%%IncludeResource: font Times-Italic
%%IncludeResource: font Times-Bold
%%IncludeResource: font Times-BoldItalic
%%IncludeResource: font Courier
%FOPEndFontDict
%%BeginResource: encoding WinAnsiEncoding
/WinAnsiEncoding [
/.notdef /.notdef /.notdef /.notdef /.notdef
/.notdef /.notdef /.notdef /.notdef /.notdef
/.notdef /.notdef /.notdef /.notdef /.notdef
/.notdef /.notdef /.notdef /.notdef /.notdef
/.notdef /.notdef /.notdef /.notdef /.notdef
/.notdef /.notdef /.notdef /.notdef /.notdef
/.notdef /.notdef /space /exclam /quotedbl
/numbersign /dollar /percent /ampersand /quotesingle
/parenleft /parenright /asterisk /plus /comma
/hyphen /period /slash /zero /one
/two /three /four /five /six
/seven /eight /nine /colon /semicolon
/less /equal /greater /question /at
/A /B /C /D /E
/F /G /H /I /J
/K /L /M /N /O
/P /Q /R /S /T
/U /V /W /X /Y
/Z /bracketleft /backslash /bracketright /asciicircum
/underscore /quoteleft /a /b /c
/d /e /f /g /h
/i /j /k /l /m
/n /o /p /q /r
/s /t /u /v /w
/x /y /z /braceleft /bar
/braceright /asciitilde /bullet /Euro /bullet
/quotesinglbase /florin /quotedblbase /ellipsis /dagger
/daggerdbl /circumflex /perthousand /Scaron /guilsinglleft
/OE /bullet /Zcaron /bullet /bullet
/quoteleft /quoteright /quotedblleft /quotedblright /bullet
/endash /emdash /asciitilde /trademark /scaron
/guilsinglright /oe /bullet /zcaron /Ydieresis
/space /exclamdown /cent /sterling /currency
/yen /brokenbar /section /dieresis /copyright
/ordfeminine /guillemotleft /logicalnot /sfthyphen /registered
/macron /degree /plusminus /twosuperior /threesuperior
/acute /mu /paragraph /middot /cedilla
/onesuperior /ordmasculine /guillemotright /onequarter /onehalf
/threequarters /questiondown /Agrave /Aacute /Acircumflex
/Atilde /Adieresis /Aring /AE /Ccedilla
/Egrave /Eacute /Ecircumflex /Edieresis /Igrave
/Iacute /Icircumflex /Idieresis /Eth /Ntilde
/Ograve /Oacute /Ocircumflex /Otilde /Odieresis
/multiply /Oslash /Ugrave /Uacute /Ucircumflex
/Udieresis /Yacute /Thorn /germandbls /agrave
/aacute /acircumflex /atilde /adieresis /aring
/ae /ccedilla /egrave /eacute /ecircumflex
/edieresis /igrave /iacute /icircumflex /idieresis
/eth /ntilde /ograve /oacute /ocircumflex
/otilde /odieresis /divide /oslash /ugrave
/uacute /ucircumflex /udieresis /yacute /thorn
/ydieresis
] def
%%EndResource
%FOPBeginFontReencode
/Courier-Oblique findfont
dup length dict begin
  {1 index /FID ne {def} {pop pop} ifelse} forall
  /Encoding WinAnsiEncoding def
  currentdict
end
/Courier-Oblique exch definefont pop
/Courier-BoldOblique findfont
dup length dict begin
  {1 index /FID ne {def} {pop pop} ifelse} forall
  /Encoding WinAnsiEncoding def
  currentdict
end
/Courier-BoldOblique exch definefont pop
/Courier-Bold findfont
dup length dict begin
  {1 index /FID ne {def} {pop pop} ifelse} forall
  /Encoding WinAnsiEncoding def
  currentdict
end
/Courier-Bold exch definefont pop
/Helvetica findfont
dup length dict begin
  {1 index /FID ne {def} {pop pop} ifelse} forall
  /Encoding WinAnsiEncoding def
  currentdict
end
/Helvetica exch definefont pop
/Helvetica-Oblique findfont
dup length dict begin
  {1 index /FID ne {def} {pop pop} ifelse} forall
  /Encoding WinAnsiEncoding def
  currentdict
end
/Helvetica-Oblique exch definefont pop
/Helvetica-Bold findfont
dup length dict begin
  {1 index /FID ne {def} {pop pop} ifelse} forall
  /Encoding WinAnsiEncoding def
  currentdict
end
/Helvetica-Bold exch definefont pop
/Helvetica-BoldOblique findfont
dup length dict begin
  {1 index /FID ne {def} {pop pop} ifelse} forall
  /Encoding WinAnsiEncoding def
  currentdict
end
/Helvetica-BoldOblique exch definefont pop
/Times-Roman findfont
dup length dict begin
  {1 index /FID ne {def} {pop pop} ifelse} forall
  /Encoding WinAnsiEncoding def
  currentdict
end
/Times-Roman exch definefont pop
/Times-Italic findfont
dup length dict begin
  {1 index /FID ne {def} {pop pop} ifelse} forall
  /Encoding WinAnsiEncoding def
  currentdict
end
/Times-Italic exch definefont pop
/Times-Bold findfont
dup length dict begin
  {1 index /FID ne {def} {pop pop} ifelse} forall
  /Encoding WinAnsiEncoding def
  currentdict
end
/Times-Bold exch definefont pop
/Times-BoldItalic findfont
dup length dict begin
  {1 index /FID ne {def} {pop pop} ifelse} forall
  /Encoding WinAnsiEncoding def
  currentdict
end
/Times-BoldItalic exch definefont pop
/Courier findfont
dup length dict begin
  {1 index /FID ne {def} {pop pop} ifelse} forall
  /Encoding WinAnsiEncoding def
  currentdict
end
/Courier exch definefont pop
%FOPEndFontReencode
%%EndProlog
%%Page: 1 1
%%PageBoundingBox: 0 0 420 315
%%BeginPageSetup
[1 0 0 -1 0 315] CT
%%EndPageSetup
GS
[0.75 0 0 0.75 0 0] CT
1 GC
N
0 0 560 420 re
f
GR
GS
[0.75 0 0 0.75 0 0] CT
1 GC
N
0 0 560 420 re
f
GR
GS
[0.75 0 0 0.75 0 0] CT
1 GC
N
73 358 M
507 358 L
507 34 L
73 34 L
cp
f
GR
GS
[0.75 0 0 0.75 217.50021 22.41576] CT
/Helvetica-Bold 22 F
GS
[1 0 0 1 0 0] CT
-138 -5 moveto 
1 -1 scale
(Clasifier with training data) t 
GR
GR
GS
[0.75 0 0 0.75 0 0] CT
0.949 0.949 1 RC
N
116.425 33.961 M
72.948 33.961 L
72.948 40.073 L
72.948 358.039 L
404.25 358.039 L
404.25 33.961 L
cp
f
GR
GS
[0.75 0 0 0.75 0 0] CT
2 setlinecap
10.0 ML
1.333 LW
N
404.25 33.961 M
404.25 358.039 L
S
GR
GS
[0.75 0 0 0.75 0 0] CT
1 0.949 0.949 RC
N
404.25 33.961 M
404.25 358.039 L
507.052 358.039 L
507.052 33.961 L
cp
f
GR
GS
[0.75 0 0 0.75 0 0] CT
2 setlinecap
10.0 ML
1.333 LW
N
404.25 358.039 M
404.25 33.961 L
S
GR
GS
[0.75 0 0 0.75 265.73586 131.09592] CT
0 0 1 RC
10.0 ML
2.667 LW
N
4 0 M
4 -2.209 2.209 -4 0 -4 C
-2.209 -4 -4 -2.209 -4 0 C
-4 2.209 -2.209 4 0 4 C
2.209 4 4 2.209 4 0 C
S
GR
GS
[0.75 0 0 0.75 190.33123 179.0124] CT
0.592 0.592 1 RC
10.0 ML
2.667 LW
N
4 0 M
4 -2.209 2.209 -4 0 -4 C
-2.209 -4 -4 -2.209 -4 0 C
-4 2.209 -2.209 4 0 4 C
2.209 4 4 2.209 4 0 C
S
GR
GS
[0.75 0 0 0.75 153.38232 134.52509] CT
0.592 0.592 1 RC
10.0 ML
2.667 LW
N
4 0 M
4 -2.209 2.209 -4 0 -4 C
-2.209 -4 -4 -2.209 -4 0 C
-4 2.209 -2.209 4 0 4 C
2.209 4 4 2.209 4 0 C
S
GR
GS
[0.75 0 0 0.75 195.22245 159.03615] CT
0.592 0.592 1 RC
10.0 ML
2.667 LW
N
4 0 M
4 -2.209 2.209 -4 0 -4 C
-2.209 -4 -4 -2.209 -4 0 C
-4 2.209 -2.209 4 0 4 C
2.209 4 4 2.209 4 0 C
S
GR
GS
[0.75 0 0 0.75 197.52475 146.86436] CT
0.592 0.592 1 RC
10.0 ML
2.667 LW
N
4 0 M
4 -2.209 2.209 -4 0 -4 C
-2.209 -4 -4 -2.209 -4 0 C
-4 2.209 -2.209 4 0 4 C
2.209 4 4 2.209 4 0 C
S
GR
GS
[0.75 0 0 0.75 215.4237 135.11087] CT
0.592 0.592 1 RC
10.0 ML
2.667 LW
N
4 0 M
4 -2.209 2.209 -4 0 -4 C
-2.209 -4 -4 -2.209 -4 0 C
-4 2.209 -2.209 4 0 4 C
2.209 4 4 2.209 4 0 C
S
GR
GS
[0.75 0 0 0.75 179.46993 117.63098] CT
0.592 0.592 1 RC
10.0 ML
2.667 LW
N
4 0 M
4 -2.209 2.209 -4 0 -4 C
-2.209 -4 -4 -2.209 -4 0 C
-4 2.209 -2.209 4 0 4 C
2.209 4 4 2.209 4 0 C
S
GR
GS
[0.75 0 0 0.75 154.39176 147.75792] CT
0.592 0.592 1 RC
10.0 ML
2.667 LW
N
4 0 M
4 -2.209 2.209 -4 0 -4 C
-2.209 -4 -4 -2.209 -4 0 C
-4 2.209 -2.209 4 0 4 C
2.209 4 4 2.209 4 0 C
S
GR
GS
[0.75 0 0 0.75 241.00687 140.72541] CT
0 0 1 RC
10.0 ML
2.667 LW
N
4 0 M
4 -2.209 2.209 -4 0 -4 C
-2.209 -4 -4 -2.209 -4 0 C
-4 2.209 -2.209 4 0 4 C
2.209 4 4 2.209 4 0 C
S
GR
GS
[0.75 0 0 0.75 188.70747 132.5953] CT
0.592 0.592 1 RC
10.0 ML
2.667 LW
N
4 0 M
4 -2.209 2.209 -4 0 -4 C
-2.209 -4 -4 -2.209 -4 0 C
-4 2.209 -2.209 4 0 4 C
2.209 4 4 2.209 4 0 C
S
GR
GS
[0.75 0 0 0.75 172.86016 99.15305] CT
0.592 0.592 1 RC
10.0 ML
2.667 LW
N
4 0 M
4 -2.209 2.209 -4 0 -4 C
-2.209 -4 -4 -2.209 -4 0 C
-4 2.209 -2.209 4 0 4 C
2.209 4 4 2.209 4 0 C
S
GR
GS
[0.75 0 0 0.75 184.37382 185.61758] CT
0.592 0.592 1 RC
10.0 ML
2.667 LW
N
4 0 M
4 -2.209 2.209 -4 0 -4 C
-2.209 -4 -4 -2.209 -4 0 C
-4 2.209 -2.209 4 0 4 C
2.209 4 4 2.209 4 0 C
S
GR
GS
[0.75 0 0 0.75 184.80722 199.37537] CT
0.592 0.592 1 RC
10.0 ML
2.667 LW
N
4 0 M
4 -2.209 2.209 -4 0 -4 C
-2.209 -4 -4 -2.209 -4 0 C
-4 2.209 -2.209 4 0 4 C
2.209 4 4 2.209 4 0 C
S
GR
GS
[0.75 0 0 0.75 145.54599 143.93198] CT
0.592 0.592 1 RC
10.0 ML
2.667 LW
N
4 0 M
4 -2.209 2.209 -4 0 -4 C
-2.209 -4 -4 -2.209 -4 0 C
-4 2.209 -2.209 4 0 4 C
2.209 4 4 2.209 4 0 C
S
GR
GS
[0.75 0 0 0.75 146.52841 106.14476] CT
0.592 0.592 1 RC
10.0 ML
2.667 LW
N
4 0 M
4 -2.209 2.209 -4 0 -4 C
-2.209 -4 -4 -2.209 -4 0 C
-4 2.209 -2.209 4 0 4 C
2.209 4 4 2.209 4 0 C
S
GR
GS
[0.75 0 0 0.75 252.0805 183.44869] CT
0 0 1 RC
10.0 ML
2.667 LW
N
4 0 M
4 -2.209 2.209 -4 0 -4 C
-2.209 -4 -4 -2.209 -4 0 C
-4 2.209 -2.209 4 0 4 C
2.209 4 4 2.209 4 0 C
S
GR
GS
[0.75 0 0 0.75 185.49746 94.10419] CT
0.592 0.592 1 RC
10.0 ML
2.667 LW
N
4 0 M
4 -2.209 2.209 -4 0 -4 C
-2.209 -4 -4 -2.209 -4 0 C
-4 2.209 -2.209 4 0 4 C
2.209 4 4 2.209 4 0 C
S
GR
GS
[0.75 0 0 0.75 245.58662 176.73312] CT
0 0 1 RC
10.0 ML
2.667 LW
N
4 0 M
4 -2.209 2.209 -4 0 -4 C
-2.209 -4 -4 -2.209 -4 0 C
-4 2.209 -2.209 4 0 4 C
2.209 4 4 2.209 4 0 C
S
GR
GS
[0.75 0 0 0.75 171.07077 179.01492] CT
0.592 0.592 1 RC
10.0 ML
2.667 LW
N
4 0 M
4 -2.209 2.209 -4 0 -4 C
-2.209 -4 -4 -2.209 -4 0 C
-4 2.209 -2.209 4 0 4 C
2.209 4 4 2.209 4 0 C
S
GR
GS
[0.75 0 0 0.75 241.57665 118.45802] CT
0 0 1 RC
10.0 ML
2.667 LW
N
4 0 M
4 -2.209 2.209 -4 0 -4 C
-2.209 -4 -4 -2.209 -4 0 C
-4 2.209 -2.209 4 0 4 C
2.209 4 4 2.209 4 0 C
S
GR
GS
[0.75 0 0 0.75 203.68364 129.19591] CT
0.592 0.592 1 RC
10.0 ML
2.667 LW
N
4 0 M
4 -2.209 2.209 -4 0 -4 C
-2.209 -4 -4 -2.209 -4 0 C
-4 2.209 -2.209 4 0 4 C
2.209 4 4 2.209 4 0 C
S
GR
GS
[0.75 0 0 0.75 111.81039 168.67987] CT
0.592 0.592 1 RC
10.0 ML
2.667 LW
N
4 0 M
4 -2.209 2.209 -4 0 -4 C
-2.209 -4 -4 -2.209 -4 0 C
-4 2.209 -2.209 4 0 4 C
2.209 4 4 2.209 4 0 C
S
GR
GS
[0.75 0 0 0.75 223.05682 143.99746] CT
0.592 0.592 1 RC
10.0 ML
2.667 LW
N
4 0 M
4 -2.209 2.209 -4 0 -4 C
-2.209 -4 -4 -2.209 -4 0 C
-4 2.209 -2.209 4 0 4 C
2.209 4 4 2.209 4 0 C
S
GR
GS
[0.75 0 0 0.75 117.59802 120.50479] CT
0.592 0.592 1 RC
10.0 ML
2.667 LW
N
4 0 M
4 -2.209 2.209 -4 0 -4 C
-2.209 -4 -4 -2.209 -4 0 C
-4 2.209 -2.209 4 0 4 C
2.209 4 4 2.209 4 0 C
S
GR
GS
[0.75 0 0 0.75 133.24656 138.00669] CT
0.592 0.592 1 RC
10.0 ML
2.667 LW
N
4 0 M
4 -2.209 2.209 -4 0 -4 C
-2.209 -4 -4 -2.209 -4 0 C
-4 2.209 -2.209 4 0 4 C
2.209 4 4 2.209 4 0 C
S
GR
GS
[0.75 0 0 0.75 102.4975 191.33886] CT
0.592 0.592 1 RC
10.0 ML
2.667 LW
N
4 0 M
4 -2.209 2.209 -4 0 -4 C
-2.209 -4 -4 -2.209 -4 0 C
-4 2.209 -2.209 4 0 4 C
2.209 4 4 2.209 4 0 C
S
GR
GS
[0.75 0 0 0.75 220.08007 148.5056] CT
0.592 0.592 1 RC
10.0 ML
2.667 LW
N
4 0 M
4 -2.209 2.209 -4 0 -4 C
-2.209 -4 -4 -2.209 -4 0 C
-4 2.209 -2.209 4 0 4 C
2.209 4 4 2.209 4 0 C
S
GR
GS
[0.75 0 0 0.75 110.94798 108.18854] CT
0.592 0.592 1 RC
10.0 ML
2.667 LW
N
4 0 M
4 -2.209 2.209 -4 0 -4 C
-2.209 -4 -4 -2.209 -4 0 C
-4 2.209 -2.209 4 0 4 C
2.209 4 4 2.209 4 0 C
S
GR
GS
[0.75 0 0 0.75 176.7897 95.69111] CT
0.592 0.592 1 RC
10.0 ML
2.667 LW
N
4 0 M
4 -2.209 2.209 -4 0 -4 C
-2.209 -4 -4 -2.209 -4 0 C
-4 2.209 -2.209 4 0 4 C
2.209 4 4 2.209 4 0 C
S
GR
GS
[0.75 0 0 0.75 126.82497 139.28104] CT
0.592 0.592 1 RC
10.0 ML
2.667 LW
N
4 0 M
4 -2.209 2.209 -4 0 -4 C
-2.209 -4 -4 -2.209 -4 0 C
-4 2.209 -2.209 4 0 4 C
2.209 4 4 2.209 4 0 C
S
GR
GS
[0.75 0 0 0.75 89.06078 111.84779] CT
0.592 0.592 1 RC
10.0 ML
2.667 LW
N
4 0 M
4 -2.209 2.209 -4 0 -4 C
-2.209 -4 -4 -2.209 -4 0 C
-4 2.209 -2.209 4 0 4 C
2.209 4 4 2.209 4 0 C
S
GR
GS
[0.75 0 0 0.75 159.44647 120.44174] CT
0.592 0.592 1 RC
10.0 ML
2.667 LW
N
4 0 M
4 -2.209 2.209 -4 0 -4 C
-2.209 -4 -4 -2.209 -4 0 C
-4 2.209 -2.209 4 0 4 C
2.209 4 4 2.209 4 0 C
S
GR
GS
[0.75 0 0 0.75 143.99792 170.55227] CT
0.592 0.592 1 RC
10.0 ML
2.667 LW
N
4 0 M
4 -2.209 2.209 -4 0 -4 C
-2.209 -4 -4 -2.209 -4 0 C
-4 2.209 -2.209 4 0 4 C
2.209 4 4 2.209 4 0 C
S
GR
GS
[0.75 0 0 0.75 129.30848 137.43842] CT
0.592 0.592 1 RC
10.0 ML
2.667 LW
N
4 0 M
4 -2.209 2.209 -4 0 -4 C
-2.209 -4 -4 -2.209 -4 0 C
-4 2.209 -2.209 4 0 4 C
2.209 4 4 2.209 4 0 C
S
GR
GS
[0.75 0 0 0.75 186.45277 170.61392] CT
0.592 0.592 1 RC
10.0 ML
2.667 LW
N
4 0 M
4 -2.209 2.209 -4 0 -4 C
-2.209 -4 -4 -2.209 -4 0 C
-4 2.209 -2.209 4 0 4 C
2.209 4 4 2.209 4 0 C
S
GR
GS
[0.75 0 0 0.75 174.90775 154.87144] CT
0.592 0.592 1 RC
10.0 ML
2.667 LW
N
4 0 M
4 -2.209 2.209 -4 0 -4 C
-2.209 -4 -4 -2.209 -4 0 C
-4 2.209 -2.209 4 0 4 C
2.209 4 4 2.209 4 0 C
S
GR
GS
[0.75 0 0 0.75 177.49067 136.35317] CT
0.592 0.592 1 RC
10.0 ML
2.667 LW
N
4 0 M
4 -2.209 2.209 -4 0 -4 C
-2.209 -4 -4 -2.209 -4 0 C
-4 2.209 -2.209 4 0 4 C
2.209 4 4 2.209 4 0 C
S
GR
GS
[0.75 0 0 0.75 189.15065 171.94466] CT
0.592 0.592 1 RC
10.0 ML
2.667 LW
N
4 0 M
4 -2.209 2.209 -4 0 -4 C
-2.209 -4 -4 -2.209 -4 0 C
-4 2.209 -2.209 4 0 4 C
2.209 4 4 2.209 4 0 C
S
GR
GS
[0.75 0 0 0.75 241.31023 178.40295] CT
0 0 1 RC
10.0 ML
2.667 LW
N
4 0 M
4 -2.209 2.209 -4 0 -4 C
-2.209 -4 -4 -2.209 -4 0 C
-4 2.209 -2.209 4 0 4 C
2.209 4 4 2.209 4 0 C
S
GR
GS
[0.75 0 0 0.75 144.94607 74.54584] CT
0.592 0.592 1 RC
10.0 ML
2.667 LW
N
4 0 M
4 -2.209 2.209 -4 0 -4 C
-2.209 -4 -4 -2.209 -4 0 C
-4 2.209 -2.209 4 0 4 C
2.209 4 4 2.209 4 0 C
S
GR
GS
[0.75 0 0 0.75 297.03957 123.0186] CT
0 0 1 RC
10.0 ML
2.667 LW
N
4 0 M
4 -2.209 2.209 -4 0 -4 C
-2.209 -4 -4 -2.209 -4 0 C
-4 2.209 -2.209 4 0 4 C
2.209 4 4 2.209 4 0 C
S
GR
GS
[0.75 0 0 0.75 179.66227 131.86329] CT
0.592 0.592 1 RC
10.0 ML
2.667 LW
N
4 0 M
4 -2.209 2.209 -4 0 -4 C
-2.209 -4 -4 -2.209 -4 0 C
-4 2.209 -2.209 4 0 4 C
2.209 4 4 2.209 4 0 C
S
GR
GS
[0.75 0 0 0.75 195.5825 113.62846] CT
0.592 0.592 1 RC
10.0 ML
2.667 LW
N
4 0 M
4 -2.209 2.209 -4 0 -4 C
-2.209 -4 -4 -2.209 -4 0 C
-4 2.209 -2.209 4 0 4 C
2.209 4 4 2.209 4 0 C
S
GR
GS
[0.75 0 0 0.75 115.75639 173.6021] CT
0.592 0.592 1 RC
10.0 ML
2.667 LW
N
4 0 M
4 -2.209 2.209 -4 0 -4 C
-2.209 -4 -4 -2.209 -4 0 C
-4 2.209 -2.209 4 0 4 C
2.209 4 4 2.209 4 0 C
S
GR
GS
[0.75 0 0 0.75 220.35276 176.04397] CT
0.592 0.592 1 RC
10.0 ML
2.667 LW
N
4 0 M
4 -2.209 2.209 -4 0 -4 C
-2.209 -4 -4 -2.209 -4 0 C
-4 2.209 -2.209 4 0 4 C
2.209 4 4 2.209 4 0 C
S
GR
GS
[0.75 0 0 0.75 199.68105 217.24265] CT
0.592 0.592 1 RC
10.0 ML
2.667 LW
N
4 0 M
4 -2.209 2.209 -4 0 -4 C
-2.209 -4 -4 -2.209 -4 0 C
-4 2.209 -2.209 4 0 4 C
2.209 4 4 2.209 4 0 C
S
GR
GS
[0.75 0 0 0.75 165.81505 145.20694] CT
0.592 0.592 1 RC
10.0 ML
2.667 LW
N
4 0 M
4 -2.209 2.209 -4 0 -4 C
-2.209 -4 -4 -2.209 -4 0 C
-4 2.209 -2.209 4 0 4 C
2.209 4 4 2.209 4 0 C
S
GR
GS
[0.75 0 0 0.75 123.6306 113.81393] CT
0.592 0.592 1 RC
10.0 ML
2.667 LW
N
4 0 M
4 -2.209 2.209 -4 0 -4 C
-2.209 -4 -4 -2.209 -4 0 C
-4 2.209 -2.209 4 0 4 C
2.209 4 4 2.209 4 0 C
S
GR
GS
[0.75 0 0 0.75 198.57074 220.31504] CT
0.592 0.592 1 RC
10.0 ML
2.667 LW
N
4 0 M
4 -2.209 2.209 -4 0 -4 C
-2.209 -4 -4 -2.209 -4 0 C
-4 2.209 -2.209 4 0 4 C
2.209 4 4 2.209 4 0 C
S
GR
GS
[0.75 0 0 0.75 175.88524 188.12424] CT
0.592 0.592 1 RC
10.0 ML
2.667 LW
N
4 0 M
4 -2.209 2.209 -4 0 -4 C
-2.209 -4 -4 -2.209 -4 0 C
-4 2.209 -2.209 4 0 4 C
2.209 4 4 2.209 4 0 C
S
GR
GS
[0.75 0 0 0.75 350.38177 138.30687] CT
1 0.592 0.592 RC
10.0 ML
2.667 LW
N
4 0 M
4 -2.209 2.209 -4 0 -4 C
-2.209 -4 -4 -2.209 -4 0 C
-4 2.209 -2.209 4 0 4 C
2.209 4 4 2.209 4 0 C
S
GR
GS
[0.75 0 0 0.75 292.39758 159.66988] CT
1 0.592 0.592 RC
10.0 ML
2.667 LW
N
4 0 M
4 -2.209 2.209 -4 0 -4 C
-2.209 -4 -4 -2.209 -4 0 C
-4 2.209 -2.209 4 0 4 C
2.209 4 4 2.209 4 0 C
S
GR
GS
[0.75 0 0 0.75 266.56146 167.76749] CT
1 0.592 0.592 RC
10.0 ML
2.667 LW
N
4 0 M
4 -2.209 2.209 -4 0 -4 C
-2.209 -4 -4 -2.209 -4 0 C
-4 2.209 -2.209 4 0 4 C
2.209 4 4 2.209 4 0 C
S
GR
GS
[0.75 0 0 0.75 190.9356 195.54575] CT
1 0.592 0.592 RC
10.0 ML
2.667 LW
N
4 0 M
4 -2.209 2.209 -4 0 -4 C
-2.209 -4 -4 -2.209 -4 0 C
-4 2.209 -2.209 4 0 4 C
2.209 4 4 2.209 4 0 C
S
GR
GS
[0.75 0 0 0.75 232.41119 134.89334] CT
1 0.592 0.592 RC
10.0 ML
2.667 LW
N
4 0 M
4 -2.209 2.209 -4 0 -4 C
-2.209 -4 -4 -2.209 -4 0 C
-4 2.209 -2.209 4 0 4 C
2.209 4 4 2.209 4 0 C
S
GR
GS
[0.75 0 0 0.75 254.54473 125.89952] CT
1 0.592 0.592 RC
10.0 ML
2.667 LW
N
4 0 M
4 -2.209 2.209 -4 0 -4 C
-2.209 -4 -4 -2.209 -4 0 C
-4 2.209 -2.209 4 0 4 C
2.209 4 4 2.209 4 0 C
S
GR
GS
[0.75 0 0 0.75 303.18752 143.88864] CT
1 0.592 0.592 RC
10.0 ML
2.667 LW
N
4 0 M
4 -2.209 2.209 -4 0 -4 C
-2.209 -4 -4 -2.209 -4 0 C
-4 2.209 -2.209 4 0 4 C
2.209 4 4 2.209 4 0 C
S
GR
GS
[0.75 0 0 0.75 259.46285 126.2096] CT
1 0.592 0.592 RC
10.0 ML
2.667 LW
N
4 0 M
4 -2.209 2.209 -4 0 -4 C
-2.209 -4 -4 -2.209 -4 0 C
-4 2.209 -2.209 4 0 4 C
2.209 4 4 2.209 4 0 C
S
GR
GS
[0.75 0 0 0.75 318.62471 195.35607] CT
1 0.592 0.592 RC
10.0 ML
2.667 LW
N
4 0 M
4 -2.209 2.209 -4 0 -4 C
-2.209 -4 -4 -2.209 -4 0 C
-4 2.209 -2.209 4 0 4 C
2.209 4 4 2.209 4 0 C
S
GR
GS
[0.75 0 0 0.75 216.3631 113.26425] CT
1 0.592 0.592 RC
10.0 ML
2.667 LW
N
4 0 M
4 -2.209 2.209 -4 0 -4 C
-2.209 -4 -4 -2.209 -4 0 C
-4 2.209 -2.209 4 0 4 C
2.209 4 4 2.209 4 0 C
S
GR
GS
[0.75 0 0 0.75 257.22556 192.63865] CT
1 0.592 0.592 RC
10.0 ML
2.667 LW
N
4 0 M
4 -2.209 2.209 -4 0 -4 C
-2.209 -4 -4 -2.209 -4 0 C
-4 2.209 -2.209 4 0 4 C
2.209 4 4 2.209 4 0 C
S
GR
GS
[0.75 0 0 0.75 227.61523 204.97632] CT
1 0.592 0.592 RC
10.0 ML
2.667 LW
N
4 0 M
4 -2.209 2.209 -4 0 -4 C
-2.209 -4 -4 -2.209 -4 0 C
-4 2.209 -2.209 4 0 4 C
2.209 4 4 2.209 4 0 C
S
GR
GS
[0.75 0 0 0.75 205.06938 173.50657] CT
1 0.592 0.592 RC
10.0 ML
2.667 LW
N
4 0 M
4 -2.209 2.209 -4 0 -4 C
-2.209 -4 -4 -2.209 -4 0 C
-4 2.209 -2.209 4 0 4 C
2.209 4 4 2.209 4 0 C
S
GR
GS
[0.75 0 0 0.75 283.35114 183.58912] CT
1 0.592 0.592 RC
10.0 ML
2.667 LW
N
4 0 M
4 -2.209 2.209 -4 0 -4 C
-2.209 -4 -4 -2.209 -4 0 C
-4 2.209 -2.209 4 0 4 C
2.209 4 4 2.209 4 0 C
S
GR
GS
[0.75 0 0 0.75 255.20659 147.81703] CT
1 0.592 0.592 RC
10.0 ML
2.667 LW
N
4 0 M
4 -2.209 2.209 -4 0 -4 C
-2.209 -4 -4 -2.209 -4 0 C
-4 2.209 -2.209 4 0 4 C
2.209 4 4 2.209 4 0 C
S
GR
GS
[0.75 0 0 0.75 263.19033 133.59998] CT
1 0.592 0.592 RC
10.0 ML
2.667 LW
N
4 0 M
4 -2.209 2.209 -4 0 -4 C
-2.209 -4 -4 -2.209 -4 0 C
-4 2.209 -2.209 4 0 4 C
2.209 4 4 2.209 4 0 C
S
GR
GS
[0.75 0 0 0.75 247.43818 177.66364] CT
1 0.592 0.592 RC
10.0 ML
2.667 LW
N
4 0 M
4 -2.209 2.209 -4 0 -4 C
-2.209 -4 -4 -2.209 -4 0 C
-4 2.209 -2.209 4 0 4 C
2.209 4 4 2.209 4 0 C
S
GR
GS
[0.75 0 0 0.75 270.33792 143.54139] CT
1 0.592 0.592 RC
10.0 ML
2.667 LW
N
4 0 M
4 -2.209 2.209 -4 0 -4 C
-2.209 -4 -4 -2.209 -4 0 C
-4 2.209 -2.209 4 0 4 C
2.209 4 4 2.209 4 0 C
S
GR
GS
[0.75 0 0 0.75 310.83671 181.44698] CT
1 0.592 0.592 RC
10.0 ML
2.667 LW
N
4 0 M
4 -2.209 2.209 -4 0 -4 C
-2.209 -4 -4 -2.209 -4 0 C
-4 2.209 -2.209 4 0 4 C
2.209 4 4 2.209 4 0 C
S
GR
GS
[0.75 0 0 0.75 248.74967 134.51439] CT
1 0.592 0.592 RC
10.0 ML
2.667 LW
N
4 0 M
4 -2.209 2.209 -4 0 -4 C
-2.209 -4 -4 -2.209 -4 0 C
-4 2.209 -2.209 4 0 4 C
2.209 4 4 2.209 4 0 C
S
GR
GS
[0.75 0 0 0.75 241.64065 118.91876] CT
1 0.592 0.592 RC
10.0 ML
2.667 LW
N
4 0 M
4 -2.209 2.209 -4 0 -4 C
-2.209 -4 -4 -2.209 -4 0 C
-4 2.209 -2.209 4 0 4 C
2.209 4 4 2.209 4 0 C
S
GR
GS
[0.75 0 0 0.75 313.50517 136.26202] CT
1 0.592 0.592 RC
10.0 ML
2.667 LW
N
4 0 M
4 -2.209 2.209 -4 0 -4 C
-2.209 -4 -4 -2.209 -4 0 C
-4 2.209 -2.209 4 0 4 C
2.209 4 4 2.209 4 0 C
S
GR
GS
[0.75 0 0 0.75 304.44392 118.73253] CT
1 0.592 0.592 RC
10.0 ML
2.667 LW
N
4 0 M
4 -2.209 2.209 -4 0 -4 C
-2.209 -4 -4 -2.209 -4 0 C
-4 2.209 -2.209 4 0 4 C
2.209 4 4 2.209 4 0 C
S
GR
GS
[0.75 0 0 0.75 262.81725 111.17216] CT
1 0.592 0.592 RC
10.0 ML
2.667 LW
N
4 0 M
4 -2.209 2.209 -4 0 -4 C
-2.209 -4 -4 -2.209 -4 0 C
-4 2.209 -2.209 4 0 4 C
2.209 4 4 2.209 4 0 C
S
GR
GS
[0.75 0 0 0.75 309.56442 156.68192] CT
1 0.592 0.592 RC
10.0 ML
2.667 LW
N
4 0 M
4 -2.209 2.209 -4 0 -4 C
-2.209 -4 -4 -2.209 -4 0 C
-4 2.209 -2.209 4 0 4 C
2.209 4 4 2.209 4 0 C
S
GR
GS
[0.75 0 0 0.75 249.61434 120.73668] CT
1 0.592 0.592 RC
10.0 ML
2.667 LW
N
4 0 M
4 -2.209 2.209 -4 0 -4 C
-2.209 -4 -4 -2.209 -4 0 C
-4 2.209 -2.209 4 0 4 C
2.209 4 4 2.209 4 0 C
S
GR
GS
[0.75 0 0 0.75 309.56955 167.58309] CT
1 0.592 0.592 RC
10.0 ML
2.667 LW
N
4 0 M
4 -2.209 2.209 -4 0 -4 C
-2.209 -4 -4 -2.209 -4 0 C
-4 2.209 -2.209 4 0 4 C
2.209 4 4 2.209 4 0 C
S
GR
GS
[0.75 0 0 0.75 221.9027 110.607] CT
1 0.592 0.592 RC
10.0 ML
2.667 LW
N
4 0 M
4 -2.209 2.209 -4 0 -4 C
-2.209 -4 -4 -2.209 -4 0 C
-4 2.209 -2.209 4 0 4 C
2.209 4 4 2.209 4 0 C
S
GR
GS
[0.75 0 0 0.75 225.48463 147.97156] CT
1 0.592 0.592 RC
10.0 ML
2.667 LW
N
4 0 M
4 -2.209 2.209 -4 0 -4 C
-2.209 -4 -4 -2.209 -4 0 C
-4 2.209 -2.209 4 0 4 C
2.209 4 4 2.209 4 0 C
S
GR
GS
[0.75 0 0 0.75 242.78281 97.24509] CT
1 0.592 0.592 RC
10.0 ML
2.667 LW
N
4 0 M
4 -2.209 2.209 -4 0 -4 C
-2.209 -4 -4 -2.209 -4 0 C
-4 2.209 -2.209 4 0 4 C
2.209 4 4 2.209 4 0 C
S
GR
GS
[0.75 0 0 0.75 349.74385 197.00434] CT
1 0.592 0.592 RC
10.0 ML
2.667 LW
N
4 0 M
4 -2.209 2.209 -4 0 -4 C
-2.209 -4 -4 -2.209 -4 0 C
-4 2.209 -2.209 4 0 4 C
2.209 4 4 2.209 4 0 C
S
GR
GS
[0.75 0 0 0.75 268.06123 175.92914] CT
1 0.592 0.592 RC
10.0 ML
2.667 LW
N
4 0 M
4 -2.209 2.209 -4 0 -4 C
-2.209 -4 -4 -2.209 -4 0 C
-4 2.209 -2.209 4 0 4 C
2.209 4 4 2.209 4 0 C
S
GR
GS
[0.75 0 0 0.75 373.08636 122.1843] CT
1 0.592 0.592 RC
10.0 ML
2.667 LW
N
4 0 M
4 -2.209 2.209 -4 0 -4 C
-2.209 -4 -4 -2.209 -4 0 C
-4 2.209 -2.209 4 0 4 C
2.209 4 4 2.209 4 0 C
S
GR
GS
[0.75 0 0 0.75 234.59461 129.40734] CT
1 0.592 0.592 RC
10.0 ML
2.667 LW
N
4 0 M
4 -2.209 2.209 -4 0 -4 C
-2.209 -4 -4 -2.209 -4 0 C
-4 2.209 -2.209 4 0 4 C
2.209 4 4 2.209 4 0 C
S
GR
GS
[0.75 0 0 0.75 210.38054 179.68722] CT
1 0.592 0.592 RC
10.0 ML
2.667 LW
N
4 0 M
4 -2.209 2.209 -4 0 -4 C
-2.209 -4 -4 -2.209 -4 0 C
-4 2.209 -2.209 4 0 4 C
2.209 4 4 2.209 4 0 C
S
GR
GS
[0.75 0 0 0.75 172.6531 158.24369] CT
1 0.592 0.592 RC
10.0 ML
2.667 LW
N
4 0 M
4 -2.209 2.209 -4 0 -4 C
-2.209 -4 -4 -2.209 -4 0 C
-4 2.209 -2.209 4 0 4 C
2.209 4 4 2.209 4 0 C
S
GR
GS
[0.75 0 0 0.75 274.87967 157.09776] CT
1 0.592 0.592 RC
10.0 ML
2.667 LW
N
4 0 M
4 -2.209 2.209 -4 0 -4 C
-2.209 -4 -4 -2.209 -4 0 C
-4 2.209 -2.209 4 0 4 C
2.209 4 4 2.209 4 0 C
S
GR
GS
[0.75 0 0 0.75 238.03214 184.8068] CT
1 0.592 0.592 RC
10.0 ML
2.667 LW
N
4 0 M
4 -2.209 2.209 -4 0 -4 C
-2.209 -4 -4 -2.209 -4 0 C
-4 2.209 -2.209 4 0 4 C
2.209 4 4 2.209 4 0 C
S
GR
GS
[0.75 0 0 0.75 287.52555 139.75172] CT
1 0.592 0.592 RC
10.0 ML
2.667 LW
N
4 0 M
4 -2.209 2.209 -4 0 -4 C
-2.209 -4 -4 -2.209 -4 0 C
-4 2.209 -2.209 4 0 4 C
2.209 4 4 2.209 4 0 C
S
GR
GS
[0.75 0 0 0.75 272.80868 171.1074] CT
1 0.592 0.592 RC
10.0 ML
2.667 LW
N
4 0 M
4 -2.209 2.209 -4 0 -4 C
-2.209 -4 -4 -2.209 -4 0 C
-4 2.209 -2.209 4 0 4 C
2.209 4 4 2.209 4 0 C
S
GR
GS
[0.75 0 0 0.75 271.43564 162.74165] CT
1 0.592 0.592 RC
10.0 ML
2.667 LW
N
4 0 M
4 -2.209 2.209 -4 0 -4 C
-2.209 -4 -4 -2.209 -4 0 C
-4 2.209 -2.209 4 0 4 C
2.209 4 4 2.209 4 0 C
S
GR
GS
[0.75 0 0 0.75 278.87553 140.38965] CT
1 0.592 0.592 RC
10.0 ML
2.667 LW
N
4 0 M
4 -2.209 2.209 -4 0 -4 C
-2.209 -4 -4 -2.209 -4 0 C
-4 2.209 -2.209 4 0 4 C
2.209 4 4 2.209 4 0 C
S
GR
GS
[0.75 0 0 0.75 197.75871 171.66323] CT
1 0.592 0.592 RC
10.0 ML
2.667 LW
N
4 0 M
4 -2.209 2.209 -4 0 -4 C
-2.209 -4 -4 -2.209 -4 0 C
-4 2.209 -2.209 4 0 4 C
2.209 4 4 2.209 4 0 C
S
GR
GS
[0.75 0 0 0.75 227.30136 212.64024] CT
1 0.592 0.592 RC
10.0 ML
2.667 LW
N
4 0 M
4 -2.209 2.209 -4 0 -4 C
-2.209 -4 -4 -2.209 -4 0 C
-4 2.209 -2.209 4 0 4 C
2.209 4 4 2.209 4 0 C
S
GR
GS
[0.75 0 0 0.75 305.42084 109.66702] CT
1 0.592 0.592 RC
10.0 ML
2.667 LW
N
4 0 M
4 -2.209 2.209 -4 0 -4 C
-2.209 -4 -4 -2.209 -4 0 C
-4 2.209 -2.209 4 0 4 C
2.209 4 4 2.209 4 0 C
S
GR
GS
[0.75 0 0 0.75 281.53867 132.42105] CT
1 0.592 0.592 RC
10.0 ML
2.667 LW
N
4 0 M
4 -2.209 2.209 -4 0 -4 C
-2.209 -4 -4 -2.209 -4 0 C
-4 2.209 -2.209 4 0 4 C
2.209 4 4 2.209 4 0 C
S
GR
GS
[0.75 0 0 0.75 270.5335 145.25032] CT
1 0.592 0.592 RC
10.0 ML
2.667 LW
N
4 0 M
4 -2.209 2.209 -4 0 -4 C
-2.209 -4 -4 -2.209 -4 0 C
-4 2.209 -2.209 4 0 4 C
2.209 4 4 2.209 4 0 C
S
GR
GS
[0.75 0 0 0.75 243.36344 176.05038] CT
1 0.592 0.592 RC
10.0 ML
2.667 LW
N
4 0 M
4 -2.209 2.209 -4 0 -4 C
-2.209 -4 -4 -2.209 -4 0 C
-4 2.209 -2.209 4 0 4 C
2.209 4 4 2.209 4 0 C
S
GR
GS
[0.75 0 0 0.75 219.24431 119.94693] CT
1 0.592 0.592 RC
10.0 ML
2.667 LW
N
4 0 M
4 -2.209 2.209 -4 0 -4 C
-2.209 -4 -4 -2.209 -4 0 C
-4 2.209 -2.209 4 0 4 C
2.209 4 4 2.209 4 0 C
S
GR
GS
[0.75 0 0 0.75 281.37897 124.74022] CT
1 0.592 0.592 RC
10.0 ML
2.667 LW
N
4 0 M
4 -2.209 2.209 -4 0 -4 C
-2.209 -4 -4 -2.209 -4 0 C
-4 2.209 -2.209 4 0 4 C
2.209 4 4 2.209 4 0 C
S
GR
GS
[0.75 0 0 0.75 0 0] CT
0.775 GC
[1 3] 0 setdash
2 LJ
0.667 LW
N
73 358 M
73 34 L
S
GR
GS
[0.75 0 0 0.75 0 0] CT
0.775 GC
[1 3] 0 setdash
2 LJ
0.667 LW
N
100.125 358 M
100.125 34 L
S
GR
GS
[0.75 0 0 0.75 0 0] CT
0.775 GC
[1 3] 0 setdash
2 LJ
0.667 LW
N
154.375 358 M
154.375 34 L
S
GR
GS
[0.75 0 0 0.75 0 0] CT
0.775 GC
[1 3] 0 setdash
2 LJ
0.667 LW
N
181.5 358 M
181.5 34 L
S
GR
GS
[0.75 0 0 0.75 0 0] CT
0.775 GC
[1 3] 0 setdash
2 LJ
0.667 LW
N
208.625 358 M
208.625 34 L
S
GR
GS
[0.75 0 0 0.75 0 0] CT
0.775 GC
[1 3] 0 setdash
2 LJ
0.667 LW
N
262.875 358 M
262.875 34 L
S
GR
GS
[0.75 0 0 0.75 0 0] CT
0.775 GC
[1 3] 0 setdash
2 LJ
0.667 LW
N
290 358 M
290 34 L
S
GR
GS
[0.75 0 0 0.75 0 0] CT
0.775 GC
[1 3] 0 setdash
2 LJ
0.667 LW
N
317.125 358 M
317.125 34 L
S
GR
GS
[0.75 0 0 0.75 0 0] CT
0.775 GC
[1 3] 0 setdash
2 LJ
0.667 LW
N
371.375 358 M
371.375 34 L
S
GR
GS
[0.75 0 0 0.75 0 0] CT
0.775 GC
[1 3] 0 setdash
2 LJ
0.667 LW
N
398.5 358 M
398.5 34 L
S
GR
GS
[0.75 0 0 0.75 0 0] CT
0.775 GC
[1 3] 0 setdash
2 LJ
0.667 LW
N
425.625 358 M
425.625 34 L
S
GR
GS
[0.75 0 0 0.75 0 0] CT
0.775 GC
[1 3] 0 setdash
2 LJ
0.667 LW
N
479.875 358 M
479.875 34 L
S
GR
GS
[0.75 0 0 0.75 0 0] CT
0.775 GC
[1 3] 0 setdash
2 LJ
0.667 LW
N
507 358 M
507 34 L
S
GR
GS
[0.75 0 0 0.75 0 0] CT
0.873 GC
[1 3] 0 setdash
2 LJ
0.667 LW
N
127.25 358 M
127.25 34 L
S
GR
GS
[0.75 0 0 0.75 0 0] CT
0.873 GC
[1 3] 0 setdash
2 LJ
0.667 LW
N
235.75 358 M
235.75 34 L
S
GR
GS
[0.75 0 0 0.75 0 0] CT
0.873 GC
[1 3] 0 setdash
2 LJ
0.667 LW
N
344.25 358 M
344.25 34 L
S
GR
GS
[0.75 0 0 0.75 0 0] CT
0.873 GC
[1 3] 0 setdash
2 LJ
0.667 LW
N
452.75 358 M
452.75 34 L
S
GR
GS
[0.75 0 0 0.75 0 0] CT
0.775 GC
[1 3] 0 setdash
2 LJ
0.667 LW
N
507 337.75 M
73 337.75 L
S
GR
GS
[0.75 0 0 0.75 0 0] CT
0.775 GC
[1 3] 0 setdash
2 LJ
0.667 LW
N
507 317.5 M
73 317.5 L
S
GR
GS
[0.75 0 0 0.75 0 0] CT
0.775 GC
[1 3] 0 setdash
2 LJ
0.667 LW
N
507 297.25 M
73 297.25 L
S
GR
GS
[0.75 0 0 0.75 0 0] CT
0.775 GC
[1 3] 0 setdash
2 LJ
0.667 LW
N
507 256.75 M
73 256.75 L
S
GR
GS
[0.75 0 0 0.75 0 0] CT
0.775 GC
[1 3] 0 setdash
2 LJ
0.667 LW
N
507 236.5 M
73 236.5 L
S
GR
GS
[0.75 0 0 0.75 0 0] CT
0.775 GC
[1 3] 0 setdash
2 LJ
0.667 LW
N
507 216.25 M
73 216.25 L
S
GR
GS
[0.75 0 0 0.75 0 0] CT
0.775 GC
[1 3] 0 setdash
2 LJ
0.667 LW
N
507 175.75 M
73 175.75 L
S
GR
GS
[0.75 0 0 0.75 0 0] CT
0.775 GC
[1 3] 0 setdash
2 LJ
0.667 LW
N
507 155.5 M
73 155.5 L
S
GR
GS
[0.75 0 0 0.75 0 0] CT
0.775 GC
[1 3] 0 setdash
2 LJ
0.667 LW
N
507 135.25 M
73 135.25 L
S
GR
GS
[0.75 0 0 0.75 0 0] CT
0.775 GC
[1 3] 0 setdash
2 LJ
0.667 LW
N
507 94.75 M
73 94.75 L
S
GR
GS
[0.75 0 0 0.75 0 0] CT
0.775 GC
[1 3] 0 setdash
2 LJ
0.667 LW
N
507 74.5 M
73 74.5 L
S
GR
GS
[0.75 0 0 0.75 0 0] CT
0.775 GC
[1 3] 0 setdash
2 LJ
0.667 LW
N
507 54.25 M
73 54.25 L
S
GR
GS
[0.75 0 0 0.75 0 0] CT
0.873 GC
[1 3] 0 setdash
2 LJ
0.667 LW
N
507 358 M
73 358 L
S
GR
GS
[0.75 0 0 0.75 0 0] CT
0.873 GC
[1 3] 0 setdash
2 LJ
0.667 LW
N
507 277 M
73 277 L
S
GR
GS
[0.75 0 0 0.75 0 0] CT
0.873 GC
[1 3] 0 setdash
2 LJ
0.667 LW
N
507 196 M
73 196 L
S
GR
GS
[0.75 0 0 0.75 0 0] CT
0.873 GC
[1 3] 0 setdash
2 LJ
0.667 LW
N
507 115 M
73 115 L
S
GR
GS
[0.75 0 0 0.75 0 0] CT
0.873 GC
[1 3] 0 setdash
2 LJ
0.667 LW
N
507 34 M
73 34 L
S
GR
GS
[0.75 0 0 0.75 0 0] CT
0.149 GC
2 setlinecap
1 LJ
0.667 LW
N
73 358 M
507 358 L
S
GR
GS
[0.75 0 0 0.75 0 0] CT
0.149 GC
2 setlinecap
1 LJ
0.667 LW
N
127.25 358 M
127.25 353.66 L
S
GR
GS
[0.75 0 0 0.75 0 0] CT
0.149 GC
2 setlinecap
1 LJ
0.667 LW
N
235.75 358 M
235.75 353.66 L
S
GR
GS
[0.75 0 0 0.75 0 0] CT
0.149 GC
2 setlinecap
1 LJ
0.667 LW
N
344.25 358 M
344.25 353.66 L
S
GR
GS
[0.75 0 0 0.75 0 0] CT
0.149 GC
2 setlinecap
1 LJ
0.667 LW
N
452.75 358 M
452.75 353.66 L
S
GR
GS
[0.75 0 0 0.75 95.4375 273.49999] CT
0.149 GC
/Helvetica 20 F
GS
[1 0 0 1 0 0] CT
-9 21 moveto 
1 -1 scale
(-2) t 
GR
GR
GS
[0.75 0 0 0.75 176.8125 273.49999] CT
0.149 GC
/Helvetica 20 F
GS
[1 0 0 1 0 0] CT
-6 21 moveto 
1 -1 scale
(0) t 
GR
GR
GS
[0.75 0 0 0.75 258.1875 273.49999] CT
0.149 GC
/Helvetica 20 F
GS
[1 0 0 1 0 0] CT
-6 21 moveto 
1 -1 scale
(2) t 
GR
GR
GS
[0.75 0 0 0.75 339.5625 273.49999] CT
0.149 GC
/Helvetica 20 F
GS
[1 0 0 1 0 0] CT
-6 21 moveto 
1 -1 scale
(4) t 
GR
GR
GS
[0.75 0 0 0.75 217.50016 294] CT
0.149 GC
/Helvetica 22 F
GS
[1 0 0 1 0 0] CT
-43.5 23 moveto 
1 -1 scale
(feature 1) t 
GR
GR
GS
[0.75 0 0 0.75 0 0] CT
0.149 GC
2 setlinecap
1 LJ
0.667 LW
N
73 358 M
73 34 L
S
GR
GS
[0.75 0 0 0.75 0 0] CT
0.149 GC
2 setlinecap
1 LJ
0.667 LW
N
73 358 M
77.34 358 L
S
GR
GS
[0.75 0 0 0.75 0 0] CT
0.149 GC
2 setlinecap
1 LJ
0.667 LW
N
73 277 M
77.34 277 L
S
GR
GS
[0.75 0 0 0.75 0 0] CT
0.149 GC
2 setlinecap
1 LJ
0.667 LW
N
73 196 M
77.34 196 L
S
GR
GS
[0.75 0 0 0.75 0 0] CT
0.149 GC
2 setlinecap
1 LJ
0.667 LW
N
73 115 M
77.34 115 L
S
GR
GS
[0.75 0 0 0.75 0 0] CT
0.149 GC
2 setlinecap
1 LJ
0.667 LW
N
73 34 M
77.34 34 L
S
GR
GS
[0.75 0 0 0.75 49.75 268.5] CT
0.149 GC
/Helvetica 20 F
GS
[1 0 0 1 0 0] CT
-18 8 moveto 
1 -1 scale
(-4) t 
GR
GR
GS
[0.75 0 0 0.75 49.75 207.75] CT
0.149 GC
/Helvetica 20 F
GS
[1 0 0 1 0 0] CT
-18 8 moveto 
1 -1 scale
(-2) t 
GR
GR
GS
[0.75 0 0 0.75 49.75 147] CT
0.149 GC
/Helvetica 20 F
GS
[1 0 0 1 0 0] CT
-12 8 moveto 
1 -1 scale
(0) t 
GR
GR
GS
[0.75 0 0 0.75 49.75 86.25] CT
0.149 GC
/Helvetica 20 F
GS
[1 0 0 1 0 0] CT
-12 8 moveto 
1 -1 scale
(2) t 
GR
GR
GS
[0.75 0 0 0.75 49.75 25.5] CT
0.149 GC
/Helvetica 20 F
GS
[1 0 0 1 0 0] CT
-12 8 moveto 
1 -1 scale
(4) t 
GR
GR
GS
[0 -0.75 0.75 0 33.25 146.99989] CT
0.149 GC
/Helvetica 22 F
GS
[1 0 0 1 0 0] CT
-43.5 -5 moveto 
1 -1 scale
(feature 2) t 
GR
GR
GS
[0.75 0 0 0.75 0 0] CT
1 GC
N
494 97 M
494 46 L
384 46 L
384 97 L
cp
f
GR
GS
[0.75 0 0 0.75 323.25 44.72525] CT
/Helvetica 18 F
GS
[1 0 0 1 0 0] CT
0 7.5 moveto 
1 -1 scale
(class A) t 
GR
GR
GS
[0.75 0 0 0.75 306 44.72525] CT
0.592 0.592 1 RC
10.0 ML
2.667 LW
N
4 0 M
4 -2.209 2.209 -4 0 -4 C
-2.209 -4 -4 -2.209 -4 0 C
-4 2.209 -2.209 4 0 4 C
2.209 4 4 2.209 4 0 C
S
GR
GS
[0.75 0 0 0.75 323.25 62.52475] CT
/Helvetica 18 F
GS
[1 0 0 1 0 0] CT
0 7.5 moveto 
1 -1 scale
(class B) t 
GR
GR
GS
[0.75 0 0 0.75 306 62.52475] CT
1 0.592 0.592 RC
10.0 ML
2.667 LW
N
4 0 M
4 -2.209 2.209 -4 0 -4 C
-2.209 -4 -4 -2.209 -4 0 C
-4 2.209 -2.209 4 0 4 C
2.209 4 4 2.209 4 0 C
S
GR
GS
[0.75 0 0 0.75 0 0] CT
0.149 GC
10.0 ML
0.667 LW
N
384 97 M
384 46 L
494 46 L
494 97 L
cp
S
GR
%%Trailer
%%Pages: 1
%%EOF
