%!PS-Adobe-3.0 EPSF-3.0
%%Creator: (MATLAB, The Mathworks, Inc. Version 9.3.0.713579 \(R2017b\). Operating System: Windows 7)
%%Title: fig/LL_final_200_6.eps
%%CreationDate: 2018-03-14T10:03:54
%%Pages: (atend)
%%BoundingBox:    42     0   680   257
%%LanguageLevel: 3
%%EndComments
%%BeginProlog
%%BeginResource: procset (Apache XML Graphics Std ProcSet) 1.2 0
%%Version: 1.2 0
%%Copyright: (Copyright 2001-2003,2010 The Apache Software Foundation. License terms: http://www.apache.org/licenses/LICENSE-2.0)
/bd{bind def}bind def
/ld{load def}bd
/GR/grestore ld
/GS/gsave ld
/RM/rmoveto ld
/C/curveto ld
/t/show ld
/L/lineto ld
/ML/setmiterlimit ld
/CT/concat ld
/f/fill ld
/N/newpath ld
/S/stroke ld
/CC/setcmykcolor ld
/A/ashow ld
/cp/closepath ld
/RC/setrgbcolor ld
/LJ/setlinejoin ld
/GC/setgray ld
/LW/setlinewidth ld
/M/moveto ld
/re {4 2 roll M
1 index 0 rlineto
0 exch rlineto
neg 0 rlineto
cp } bd
/_ctm matrix def
/_tm matrix def
/BT { _ctm currentmatrix pop matrix _tm copy pop 0 0 moveto } bd
/ET { _ctm setmatrix } bd
/iTm { _ctm setmatrix _tm concat } bd
/Tm { _tm astore pop iTm 0 0 moveto } bd
/ux 0.0 def
/uy 0.0 def
/F {
  /Tp exch def
  /Tf exch def
  Tf findfont Tp scalefont setfont
  /cf Tf def  /cs Tp def
} bd
/ULS {currentpoint /uy exch def /ux exch def} bd
/ULE {
  /Tcx currentpoint pop def
  gsave
  newpath
  cf findfont cs scalefont dup
  /FontMatrix get 0 get /Ts exch def /FontInfo get dup
  /UnderlinePosition get Ts mul /To exch def
  /UnderlineThickness get Ts mul /Tt exch def
  ux uy To add moveto  Tcx uy To add lineto
  Tt setlinewidth stroke
  grestore
} bd
/OLE {
  /Tcx currentpoint pop def
  gsave
  newpath
  cf findfont cs scalefont dup
  /FontMatrix get 0 get /Ts exch def /FontInfo get dup
  /UnderlinePosition get Ts mul /To exch def
  /UnderlineThickness get Ts mul /Tt exch def
  ux uy To add cs add moveto Tcx uy To add cs add lineto
  Tt setlinewidth stroke
  grestore
} bd
/SOE {
  /Tcx currentpoint pop def
  gsave
  newpath
  cf findfont cs scalefont dup
  /FontMatrix get 0 get /Ts exch def /FontInfo get dup
  /UnderlinePosition get Ts mul /To exch def
  /UnderlineThickness get Ts mul /Tt exch def
  ux uy To add cs 10 mul 26 idiv add moveto Tcx uy To add cs 10 mul 26 idiv add lineto
  Tt setlinewidth stroke
  grestore
} bd
/QT {
/Y22 exch store
/X22 exch store
/Y21 exch store
/X21 exch store
currentpoint
/Y21 load 2 mul add 3 div exch
/X21 load 2 mul add 3 div exch
/X21 load 2 mul /X22 load add 3 div
/Y21 load 2 mul /Y22 load add 3 div
/X22 load /Y22 load curveto
} bd
/SSPD {
dup length /d exch dict def
{
/v exch def
/k exch def
currentpagedevice k known {
/cpdv currentpagedevice k get def
v cpdv ne {
/upd false def
/nullv v type /nulltype eq def
/nullcpdv cpdv type /nulltype eq def
nullv nullcpdv or
{
/upd true def
} {
/sametype v type cpdv type eq def
sametype {
v type /arraytype eq {
/vlen v length def
/cpdvlen cpdv length def
vlen cpdvlen eq {
0 1 vlen 1 sub {
/i exch def
/obj v i get def
/cpdobj cpdv i get def
obj cpdobj ne {
/upd true def
exit
} if
} for
} {
/upd true def
} ifelse
} {
v type /dicttype eq {
v {
/dv exch def
/dk exch def
/cpddv cpdv dk get def
dv cpddv ne {
/upd true def
exit
} if
} forall
} {
/upd true def
} ifelse
} ifelse
} if
} ifelse
upd true eq {
d k v put
} if
} if
} if
} forall
d length 0 gt {
d setpagedevice
} if
} bd
/RE { % /NewFontName [NewEncodingArray] /FontName RE -
  findfont dup length dict begin
  {
    1 index /FID ne
    {def} {pop pop} ifelse
  } forall
  /Encoding exch def
  /FontName 1 index def
  currentdict definefont pop
  end
} bind def
%%EndResource
%%BeginResource: procset (Apache XML Graphics EPS ProcSet) 1.0 0
%%Version: 1.0 0
%%Copyright: (Copyright 2002-2003 The Apache Software Foundation. License terms: http://www.apache.org/licenses/LICENSE-2.0)
/BeginEPSF { %def
/b4_Inc_state save def         % Save state for cleanup
/dict_count countdictstack def % Count objects on dict stack
/op_count count 1 sub def      % Count objects on operand stack
userdict begin                 % Push userdict on dict stack
/showpage { } def              % Redefine showpage, { } = null proc
0 setgray 0 setlinecap         % Prepare graphics state
1 setlinewidth 0 setlinejoin
10 setmiterlimit [ ] 0 setdash newpath
/languagelevel where           % If level not equal to 1 then
{pop languagelevel             % set strokeadjust and
1 ne                           % overprint to their defaults.
{false setstrokeadjust false setoverprint
} if
} if
} bd
/EndEPSF { %def
count op_count sub {pop} repeat            % Clean up stacks
countdictstack dict_count sub {end} repeat
b4_Inc_state restore
} bd
%%EndResource
%FOPBeginFontDict
%%IncludeResource: font Courier-Oblique
%%IncludeResource: font Courier-BoldOblique
%%IncludeResource: font Courier-Bold
%%IncludeResource: font ZapfDingbats
%%IncludeResource: font Symbol
%%IncludeResource: font Helvetica
%%IncludeResource: font Helvetica-Oblique
%%IncludeResource: font Helvetica-Bold
%%IncludeResource: font Helvetica-BoldOblique
%%IncludeResource: font Times-Roman
%%IncludeResource: font Times-Italic
%%IncludeResource: font Times-Bold
%%IncludeResource: font Times-BoldItalic
%%IncludeResource: font Courier
%FOPEndFontDict
%%BeginResource: encoding WinAnsiEncoding
/WinAnsiEncoding [
/.notdef /.notdef /.notdef /.notdef /.notdef
/.notdef /.notdef /.notdef /.notdef /.notdef
/.notdef /.notdef /.notdef /.notdef /.notdef
/.notdef /.notdef /.notdef /.notdef /.notdef
/.notdef /.notdef /.notdef /.notdef /.notdef
/.notdef /.notdef /.notdef /.notdef /.notdef
/.notdef /.notdef /space /exclam /quotedbl
/numbersign /dollar /percent /ampersand /quotesingle
/parenleft /parenright /asterisk /plus /comma
/hyphen /period /slash /zero /one
/two /three /four /five /six
/seven /eight /nine /colon /semicolon
/less /equal /greater /question /at
/A /B /C /D /E
/F /G /H /I /J
/K /L /M /N /O
/P /Q /R /S /T
/U /V /W /X /Y
/Z /bracketleft /backslash /bracketright /asciicircum
/underscore /quoteleft /a /b /c
/d /e /f /g /h
/i /j /k /l /m
/n /o /p /q /r
/s /t /u /v /w
/x /y /z /braceleft /bar
/braceright /asciitilde /bullet /Euro /bullet
/quotesinglbase /florin /quotedblbase /ellipsis /dagger
/daggerdbl /circumflex /perthousand /Scaron /guilsinglleft
/OE /bullet /Zcaron /bullet /bullet
/quoteleft /quoteright /quotedblleft /quotedblright /bullet
/endash /emdash /asciitilde /trademark /scaron
/guilsinglright /oe /bullet /zcaron /Ydieresis
/space /exclamdown /cent /sterling /currency
/yen /brokenbar /section /dieresis /copyright
/ordfeminine /guillemotleft /logicalnot /sfthyphen /registered
/macron /degree /plusminus /twosuperior /threesuperior
/acute /mu /paragraph /middot /cedilla
/onesuperior /ordmasculine /guillemotright /onequarter /onehalf
/threequarters /questiondown /Agrave /Aacute /Acircumflex
/Atilde /Adieresis /Aring /AE /Ccedilla
/Egrave /Eacute /Ecircumflex /Edieresis /Igrave
/Iacute /Icircumflex /Idieresis /Eth /Ntilde
/Ograve /Oacute /Ocircumflex /Otilde /Odieresis
/multiply /Oslash /Ugrave /Uacute /Ucircumflex
/Udieresis /Yacute /Thorn /germandbls /agrave
/aacute /acircumflex /atilde /adieresis /aring
/ae /ccedilla /egrave /eacute /ecircumflex
/edieresis /igrave /iacute /icircumflex /idieresis
/eth /ntilde /ograve /oacute /ocircumflex
/otilde /odieresis /divide /oslash /ugrave
/uacute /ucircumflex /udieresis /yacute /thorn
/ydieresis
] def
%%EndResource
%FOPBeginFontReencode
/Courier-Oblique findfont
dup length dict begin
  {1 index /FID ne {def} {pop pop} ifelse} forall
  /Encoding WinAnsiEncoding def
  currentdict
end
/Courier-Oblique exch definefont pop
/Courier-BoldOblique findfont
dup length dict begin
  {1 index /FID ne {def} {pop pop} ifelse} forall
  /Encoding WinAnsiEncoding def
  currentdict
end
/Courier-BoldOblique exch definefont pop
/Courier-Bold findfont
dup length dict begin
  {1 index /FID ne {def} {pop pop} ifelse} forall
  /Encoding WinAnsiEncoding def
  currentdict
end
/Courier-Bold exch definefont pop
/Helvetica findfont
dup length dict begin
  {1 index /FID ne {def} {pop pop} ifelse} forall
  /Encoding WinAnsiEncoding def
  currentdict
end
/Helvetica exch definefont pop
/Helvetica-Oblique findfont
dup length dict begin
  {1 index /FID ne {def} {pop pop} ifelse} forall
  /Encoding WinAnsiEncoding def
  currentdict
end
/Helvetica-Oblique exch definefont pop
/Helvetica-Bold findfont
dup length dict begin
  {1 index /FID ne {def} {pop pop} ifelse} forall
  /Encoding WinAnsiEncoding def
  currentdict
end
/Helvetica-Bold exch definefont pop
/Helvetica-BoldOblique findfont
dup length dict begin
  {1 index /FID ne {def} {pop pop} ifelse} forall
  /Encoding WinAnsiEncoding def
  currentdict
end
/Helvetica-BoldOblique exch definefont pop
/Times-Roman findfont
dup length dict begin
  {1 index /FID ne {def} {pop pop} ifelse} forall
  /Encoding WinAnsiEncoding def
  currentdict
end
/Times-Roman exch definefont pop
/Times-Italic findfont
dup length dict begin
  {1 index /FID ne {def} {pop pop} ifelse} forall
  /Encoding WinAnsiEncoding def
  currentdict
end
/Times-Italic exch definefont pop
/Times-Bold findfont
dup length dict begin
  {1 index /FID ne {def} {pop pop} ifelse} forall
  /Encoding WinAnsiEncoding def
  currentdict
end
/Times-Bold exch definefont pop
/Times-BoldItalic findfont
dup length dict begin
  {1 index /FID ne {def} {pop pop} ifelse} forall
  /Encoding WinAnsiEncoding def
  currentdict
end
/Times-BoldItalic exch definefont pop
/Courier findfont
dup length dict begin
  {1 index /FID ne {def} {pop pop} ifelse} forall
  /Encoding WinAnsiEncoding def
  currentdict
end
/Courier exch definefont pop
%FOPEndFontReencode
%%EndProlog
%%Page: 1 1
%%PageBoundingBox: 0 0 750 263
%%BeginPageSetup
[1 0 0 -1 0 263] CT
%%EndPageSetup
GS
[0.75 0 0 0.75 0 0.5] CT
N
0 0 M
1000 0 L
1000 350 L
0 350 L
0 0 L
cp
clip
1 GC
N
0 0 1000 350 re
f
GR
GS
[0.75 0 0 0.75 0 0.5] CT
1 GC
N
0 0 1000 350 re
f
GR
GS
[0.75 0 0 0.75 0 0.5] CT
1 GC
N
130 296 M
905 296 L
905 30 L
130 30 L
cp
f
GR
GS
[0.75 0 0 0.75 0 0.5] CT
0.775 GC
[1 3] 0 setdash
2 LJ
0.667 LW
N
130 296 M
130 30 L
S
GR
GS
[0.75 0 0 0.75 0 0.5] CT
0.775 GC
[1 3] 0 setdash
2 LJ
0.667 LW
N
155 296 M
155 30 L
S
GR
GS
[0.75 0 0 0.75 0 0.5] CT
0.775 GC
[1 3] 0 setdash
2 LJ
0.667 LW
N
180 296 M
180 30 L
S
GR
GS
[0.75 0 0 0.75 0 0.5] CT
0.775 GC
[1 3] 0 setdash
2 LJ
0.667 LW
N
205 296 M
205 30 L
S
GR
GS
[0.75 0 0 0.75 0 0.5] CT
0.775 GC
[1 3] 0 setdash
2 LJ
0.667 LW
N
230 296 M
230 30 L
S
GR
GS
[0.75 0 0 0.75 0 0.5] CT
0.775 GC
[1 3] 0 setdash
2 LJ
0.667 LW
N
255 296 M
255 30 L
S
GR
GS
[0.75 0 0 0.75 0 0.5] CT
0.775 GC
[1 3] 0 setdash
2 LJ
0.667 LW
N
280 296 M
280 30 L
S
GR
GS
[0.75 0 0 0.75 0 0.5] CT
0.775 GC
[1 3] 0 setdash
2 LJ
0.667 LW
N
305 296 M
305 30 L
S
GR
GS
[0.75 0 0 0.75 0 0.5] CT
0.775 GC
[1 3] 0 setdash
2 LJ
0.667 LW
N
330 296 M
330 30 L
S
GR
GS
[0.75 0 0 0.75 0 0.5] CT
0.775 GC
[1 3] 0 setdash
2 LJ
0.667 LW
N
355 296 M
355 30 L
S
GR
GS
[0.75 0 0 0.75 0 0.5] CT
0.775 GC
[1 3] 0 setdash
2 LJ
0.667 LW
N
380 296 M
380 30 L
S
GR
GS
[0.75 0 0 0.75 0 0.5] CT
0.775 GC
[1 3] 0 setdash
2 LJ
0.667 LW
N
405 296 M
405 30 L
S
GR
GS
[0.75 0 0 0.75 0 0.5] CT
0.775 GC
[1 3] 0 setdash
2 LJ
0.667 LW
N
430 296 M
430 30 L
S
GR
GS
[0.75 0 0 0.75 0 0.5] CT
0.775 GC
[1 3] 0 setdash
2 LJ
0.667 LW
N
455 296 M
455 30 L
S
GR
GS
[0.75 0 0 0.75 0 0.5] CT
0.775 GC
[1 3] 0 setdash
2 LJ
0.667 LW
N
480 296 M
480 30 L
S
GR
GS
[0.75 0 0 0.75 0 0.5] CT
0.775 GC
[1 3] 0 setdash
2 LJ
0.667 LW
N
505 296 M
505 30 L
S
GR
GS
[0.75 0 0 0.75 0 0.5] CT
0.775 GC
[1 3] 0 setdash
2 LJ
0.667 LW
N
530 296 M
530 30 L
S
GR
GS
[0.75 0 0 0.75 0 0.5] CT
0.775 GC
[1 3] 0 setdash
2 LJ
0.667 LW
N
555 296 M
555 30 L
S
GR
GS
[0.75 0 0 0.75 0 0.5] CT
0.775 GC
[1 3] 0 setdash
2 LJ
0.667 LW
N
580 296 M
580 30 L
S
GR
GS
[0.75 0 0 0.75 0 0.5] CT
0.775 GC
[1 3] 0 setdash
2 LJ
0.667 LW
N
605 296 M
605 30 L
S
GR
GS
[0.75 0 0 0.75 0 0.5] CT
0.775 GC
[1 3] 0 setdash
2 LJ
0.667 LW
N
630 296 M
630 30 L
S
GR
GS
[0.75 0 0 0.75 0 0.5] CT
0.775 GC
[1 3] 0 setdash
2 LJ
0.667 LW
N
655 296 M
655 30 L
S
GR
GS
[0.75 0 0 0.75 0 0.5] CT
0.775 GC
[1 3] 0 setdash
2 LJ
0.667 LW
N
680 296 M
680 30 L
S
GR
GS
[0.75 0 0 0.75 0 0.5] CT
0.775 GC
[1 3] 0 setdash
2 LJ
0.667 LW
N
705 296 M
705 30 L
S
GR
GS
[0.75 0 0 0.75 0 0.5] CT
0.775 GC
[1 3] 0 setdash
2 LJ
0.667 LW
N
730 296 M
730 30 L
S
GR
GS
[0.75 0 0 0.75 0 0.5] CT
0.775 GC
[1 3] 0 setdash
2 LJ
0.667 LW
N
755 296 M
755 30 L
S
GR
GS
[0.75 0 0 0.75 0 0.5] CT
0.775 GC
[1 3] 0 setdash
2 LJ
0.667 LW
N
780 296 M
780 30 L
S
GR
GS
[0.75 0 0 0.75 0 0.5] CT
0.775 GC
[1 3] 0 setdash
2 LJ
0.667 LW
N
805 296 M
805 30 L
S
GR
GS
[0.75 0 0 0.75 0 0.5] CT
0.775 GC
[1 3] 0 setdash
2 LJ
0.667 LW
N
830 296 M
830 30 L
S
GR
GS
[0.75 0 0 0.75 0 0.5] CT
0.775 GC
[1 3] 0 setdash
2 LJ
0.667 LW
N
855 296 M
855 30 L
S
GR
GS
[0.75 0 0 0.75 0 0.5] CT
0.775 GC
[1 3] 0 setdash
2 LJ
0.667 LW
N
880 296 M
880 30 L
S
GR
GS
[0.75 0 0 0.75 0 0.5] CT
0.775 GC
[1 3] 0 setdash
2 LJ
0.667 LW
N
905 296 M
905 30 L
S
GR
GS
[0.75 0 0 0.75 0 0.5] CT
0.775 GC
[1 3] 0 setdash
2 LJ
0.667 LW
N
905 290.409 M
130 290.409 L
S
GR
GS
[0.75 0 0 0.75 0 0.5] CT
0.775 GC
[1 3] 0 setdash
2 LJ
0.667 LW
N
905 281.109 M
130 281.109 L
S
GR
GS
[0.75 0 0 0.75 0 0.5] CT
0.775 GC
[1 3] 0 setdash
2 LJ
0.667 LW
N
905 271.808 M
130 271.808 L
S
GR
GS
[0.75 0 0 0.75 0 0.5] CT
0.775 GC
[1 3] 0 setdash
2 LJ
0.667 LW
N
905 262.508 M
130 262.508 L
S
GR
GS
[0.75 0 0 0.75 0 0.5] CT
0.775 GC
[1 3] 0 setdash
2 LJ
0.667 LW
N
905 253.208 M
130 253.208 L
S
GR
GS
[0.75 0 0 0.75 0 0.5] CT
0.775 GC
[1 3] 0 setdash
2 LJ
0.667 LW
N
905 243.907 M
130 243.907 L
S
GR
GS
[0.75 0 0 0.75 0 0.5] CT
0.775 GC
[1 3] 0 setdash
2 LJ
0.667 LW
N
905 234.607 M
130 234.607 L
S
GR
GS
[0.75 0 0 0.75 0 0.5] CT
0.775 GC
[1 3] 0 setdash
2 LJ
0.667 LW
N
905 225.307 M
130 225.307 L
S
GR
GS
[0.75 0 0 0.75 0 0.5] CT
0.775 GC
[1 3] 0 setdash
2 LJ
0.667 LW
N
905 216.006 M
130 216.006 L
S
GR
GS
[0.75 0 0 0.75 0 0.5] CT
0.775 GC
[1 3] 0 setdash
2 LJ
0.667 LW
N
905 206.706 M
130 206.706 L
S
GR
GS
[0.75 0 0 0.75 0 0.5] CT
0.775 GC
[1 3] 0 setdash
2 LJ
0.667 LW
N
905 197.406 M
130 197.406 L
S
GR
GS
[0.75 0 0 0.75 0 0.5] CT
0.775 GC
[1 3] 0 setdash
2 LJ
0.667 LW
N
905 188.105 M
130 188.105 L
S
GR
GS
[0.75 0 0 0.75 0 0.5] CT
0.775 GC
[1 3] 0 setdash
2 LJ
0.667 LW
N
905 178.805 M
130 178.805 L
S
GR
GS
[0.75 0 0 0.75 0 0.5] CT
0.775 GC
[1 3] 0 setdash
2 LJ
0.667 LW
N
905 169.505 M
130 169.505 L
S
GR
GS
[0.75 0 0 0.75 0 0.5] CT
0.775 GC
[1 3] 0 setdash
2 LJ
0.667 LW
N
905 160.205 M
130 160.205 L
S
GR
GS
[0.75 0 0 0.75 0 0.5] CT
0.775 GC
[1 3] 0 setdash
2 LJ
0.667 LW
N
905 150.904 M
130 150.904 L
S
GR
GS
[0.75 0 0 0.75 0 0.5] CT
0.775 GC
[1 3] 0 setdash
2 LJ
0.667 LW
N
905 141.604 M
130 141.604 L
S
GR
GS
[0.75 0 0 0.75 0 0.5] CT
0.775 GC
[1 3] 0 setdash
2 LJ
0.667 LW
N
905 132.304 M
130 132.304 L
S
GR
GS
[0.75 0 0 0.75 0 0.5] CT
0.775 GC
[1 3] 0 setdash
2 LJ
0.667 LW
N
905 123.003 M
130 123.003 L
S
GR
GS
[0.75 0 0 0.75 0 0.5] CT
0.775 GC
[1 3] 0 setdash
2 LJ
0.667 LW
N
905 113.703 M
130 113.703 L
S
GR
GS
[0.75 0 0 0.75 0 0.5] CT
0.775 GC
[1 3] 0 setdash
2 LJ
0.667 LW
N
905 104.403 M
130 104.403 L
S
GR
GS
[0.75 0 0 0.75 0 0.5] CT
0.775 GC
[1 3] 0 setdash
2 LJ
0.667 LW
N
905 95.102 M
130 95.102 L
S
GR
GS
[0.75 0 0 0.75 0 0.5] CT
0.775 GC
[1 3] 0 setdash
2 LJ
0.667 LW
N
905 85.802 M
130 85.802 L
S
GR
GS
[0.75 0 0 0.75 0 0.5] CT
0.775 GC
[1 3] 0 setdash
2 LJ
0.667 LW
N
905 76.502 M
130 76.502 L
S
GR
GS
[0.75 0 0 0.75 0 0.5] CT
0.775 GC
[1 3] 0 setdash
2 LJ
0.667 LW
N
905 67.201 M
130 67.201 L
S
GR
GS
[0.75 0 0 0.75 0 0.5] CT
0.775 GC
[1 3] 0 setdash
2 LJ
0.667 LW
N
905 57.901 M
130 57.901 L
S
GR
GS
[0.75 0 0 0.75 0 0.5] CT
0.775 GC
[1 3] 0 setdash
2 LJ
0.667 LW
N
905 48.601 M
130 48.601 L
S
GR
GS
[0.75 0 0 0.75 0 0.5] CT
0.775 GC
[1 3] 0 setdash
2 LJ
0.667 LW
N
905 39.3 M
130 39.3 L
S
GR
GS
[0.75 0 0 0.75 0 0.5] CT
0.775 GC
[1 3] 0 setdash
2 LJ
0.667 LW
N
905 30 M
130 30 L
S
GR
GS
[0.75 0 0 0.75 0 0.5] CT
0.149 GC
2 setlinecap
1 LJ
0.667 LW
N
130 296 M
905 296 L
S
GR
GS
[0.75 0 0 0.75 0 0.5] CT
0.149 GC
2 setlinecap
1 LJ
0.667 LW
N
130 30 M
905 30 L
S
GR
GS
[0.75 0 0 0.75 0 0.5] CT
0.149 GC
2 setlinecap
1 LJ
0.667 LW
N
230 296 M
230 288.25 L
S
GR
GS
[0.75 0 0 0.75 0 0.5] CT
0.149 GC
2 setlinecap
1 LJ
0.667 LW
N
355 296 M
355 288.25 L
S
GR
GS
[0.75 0 0 0.75 0 0.5] CT
0.149 GC
2 setlinecap
1 LJ
0.667 LW
N
480 296 M
480 288.25 L
S
GR
GS
[0.75 0 0 0.75 0 0.5] CT
0.149 GC
2 setlinecap
1 LJ
0.667 LW
N
605 296 M
605 288.25 L
S
GR
GS
[0.75 0 0 0.75 0 0.5] CT
0.149 GC
2 setlinecap
1 LJ
0.667 LW
N
730 296 M
730 288.25 L
S
GR
GS
[0.75 0 0 0.75 0 0.5] CT
0.149 GC
2 setlinecap
1 LJ
0.667 LW
N
855 296 M
855 288.25 L
S
GR
GS
[0.75 0 0 0.75 0 0.5] CT
0.149 GC
2 setlinecap
1 LJ
0.667 LW
N
230 30 M
230 37.75 L
S
GR
GS
[0.75 0 0 0.75 0 0.5] CT
0.149 GC
2 setlinecap
1 LJ
0.667 LW
N
355 30 M
355 37.75 L
S
GR
GS
[0.75 0 0 0.75 0 0.5] CT
0.149 GC
2 setlinecap
1 LJ
0.667 LW
N
480 30 M
480 37.75 L
S
GR
GS
[0.75 0 0 0.75 0 0.5] CT
0.149 GC
2 setlinecap
1 LJ
0.667 LW
N
605 30 M
605 37.75 L
S
GR
GS
[0.75 0 0 0.75 0 0.5] CT
0.149 GC
2 setlinecap
1 LJ
0.667 LW
N
730 30 M
730 37.75 L
S
GR
GS
[0.75 0 0 0.75 0 0.5] CT
0.149 GC
2 setlinecap
1 LJ
0.667 LW
N
855 30 M
855 37.75 L
S
GR
GS
[0.75 0 0 0.75 172.5 227.1] CT
0.149 GC
/Helvetica 17.333 F
GS
[1 0 0 1 0 0] CT
-14.5 18 moveto 
1 -1 scale
(100) t 
GR
GR
GS
[0.75 0 0 0.75 266.25 227.1] CT
0.149 GC
/Helvetica 17.333 F
GS
[1 0 0 1 0 0] CT
-14.5 18 moveto 
1 -1 scale
(200) t 
GR
GR
GS
[0.75 0 0 0.75 360 227.1] CT
0.149 GC
/Helvetica 17.333 F
GS
[1 0 0 1 0 0] CT
-14.5 18 moveto 
1 -1 scale
(300) t 
GR
GR
GS
[0.75 0 0 0.75 453.75 227.1] CT
0.149 GC
/Helvetica 17.333 F
GS
[1 0 0 1 0 0] CT
-14.5 18 moveto 
1 -1 scale
(400) t 
GR
GR
GS
[0.75 0 0 0.75 547.5 227.1] CT
0.149 GC
/Helvetica 17.333 F
GS
[1 0 0 1 0 0] CT
-14.5 18 moveto 
1 -1 scale
(500) t 
GR
GR
GS
[0.75 0 0 0.75 641.25 227.1] CT
0.149 GC
/Helvetica 17.333 F
GS
[1 0 0 1 0 0] CT
-14.5 18 moveto 
1 -1 scale
(600) t 
GR
GR
GS
[0.75 0 0 0.75 388.12527 244.59998] CT
0.149 GC
/Helvetica 19.067 F
GS
[1 0 0 1 0 0] CT
-70 20 moveto 
1 -1 scale
(Unlabled data [-]) t 
GR
GR
GS
[0.75 0 0 0.75 0 0.5] CT
0.149 GC
2 setlinecap
1 LJ
0.667 LW
N
130 296 M
130 30 L
S
GR
GS
[0.75 0 0 0.75 0 0.5] CT
0.149 GC
2 setlinecap
1 LJ
0.667 LW
N
905 296 M
905 30 L
S
GR
GS
[0.75 0 0 0.75 0 0.5] CT
0.149 GC
2 setlinecap
1 LJ
0.667 LW
N
130 262.508 M
137.75 262.508 L
S
GR
GS
[0.75 0 0 0.75 0 0.5] CT
0.149 GC
2 setlinecap
1 LJ
0.667 LW
N
130 216.006 M
137.75 216.006 L
S
GR
GS
[0.75 0 0 0.75 0 0.5] CT
0.149 GC
2 setlinecap
1 LJ
0.667 LW
N
130 169.505 M
137.75 169.505 L
S
GR
GS
[0.75 0 0 0.75 0 0.5] CT
0.149 GC
2 setlinecap
1 LJ
0.667 LW
N
130 123.003 M
137.75 123.003 L
S
GR
GS
[0.75 0 0 0.75 0 0.5] CT
0.149 GC
2 setlinecap
1 LJ
0.667 LW
N
130 76.502 M
137.75 76.502 L
S
GR
GS
[0.75 0 0 0.75 0 0.5] CT
0.149 GC
2 setlinecap
1 LJ
0.667 LW
N
130 30 M
137.75 30 L
S
GR
GS
[0.75 0 0 0.75 0 0.5] CT
0.149 GC
2 setlinecap
1 LJ
0.667 LW
N
905 262.508 M
897.25 262.508 L
S
GR
GS
[0.75 0 0 0.75 0 0.5] CT
0.149 GC
2 setlinecap
1 LJ
0.667 LW
N
905 216.006 M
897.25 216.006 L
S
GR
GS
[0.75 0 0 0.75 0 0.5] CT
0.149 GC
2 setlinecap
1 LJ
0.667 LW
N
905 169.505 M
897.25 169.505 L
S
GR
GS
[0.75 0 0 0.75 0 0.5] CT
0.149 GC
2 setlinecap
1 LJ
0.667 LW
N
905 123.003 M
897.25 123.003 L
S
GR
GS
[0.75 0 0 0.75 0 0.5] CT
0.149 GC
2 setlinecap
1 LJ
0.667 LW
N
905 76.502 M
897.25 76.502 L
S
GR
GS
[0.75 0 0 0.75 0 0.5] CT
0.149 GC
2 setlinecap
1 LJ
0.667 LW
N
905 30 M
897.25 30 L
S
GR
GS
[0.75 0 0 0.75 92.9 197.38107] CT
0.149 GC
/Helvetica 17.333 F
GS
[1 0 0 1 0 0] CT
-45 7 moveto 
1 -1 scale
(-2500) t 
GR
GR
GS
[0.75 0 0 0.75 92.9 162.50486] CT
0.149 GC
/Helvetica 17.333 F
GS
[1 0 0 1 0 0] CT
-45 7 moveto 
1 -1 scale
(-2000) t 
GR
GR
GS
[0.75 0 0 0.75 92.9 127.62864] CT
0.149 GC
/Helvetica 17.333 F
GS
[1 0 0 1 0 0] CT
-45 7 moveto 
1 -1 scale
(-1500) t 
GR
GR
GS
[0.75 0 0 0.75 92.9 92.75243] CT
0.149 GC
/Helvetica 17.333 F
GS
[1 0 0 1 0 0] CT
-45 7 moveto 
1 -1 scale
(-1000) t 
GR
GR
GS
[0.75 0 0 0.75 92.9 57.87621] CT
0.149 GC
/Helvetica 17.333 F
GS
[1 0 0 1 0 0] CT
-35 7 moveto 
1 -1 scale
(-500) t 
GR
GR
GS
[0.75 0 0 0.75 92.9 23] CT
0.149 GC
/Helvetica 17.333 F
GS
[1 0 0 1 0 0] CT
-10 7 moveto 
1 -1 scale
(0) t 
GR
GR
GS
[0 -0.75 0.75 0 56.15 122.74991] CT
0.149 GC
/Helvetica 19.067 F
GS
[1 0 0 1 0 0] CT
-73 -5 moveto 
1 -1 scale
(Log Likelihood [-]) t 
GR
GR
GS
[0.75 0 0 0.75 388.12537 20.31875] CT
/Helvetica-Bold 19.067 F
GS
[1 0 0 1 0 0] CT
-68 -5 moveto 
1 -1 scale
(Log Likelihood) t 
GR
GR
GS
[0.75 0 0 0.75 0 0.5] CT
0 0.447 0.741 RC
1 LJ
2.667 LW
N
130 47.581 M
155 47.418 L
205 47.205 L
305 47.53 L
505 47.253 L
905 47.193 L
S
GR
GS
[0.75 0 0 0.75 0 0.5] CT
0.851 0.325 0.098 RC
1 LJ
2.667 LW
N
130 48.752 M
155 56.368 L
205 72.634 L
305 105.848 L
505 169.471 L
905 296 L
S
GR
GS
[0.75 0 0 0.75 0 0.5] CT
0.929 0.694 0.125 RC
1 LJ
2.667 LW
N
130 48.779 M
155 55.779 L
205 69.337 L
305 95.392 L
505 143.415 L
905 237.769 L
S
GR
GS
[0.75 0 0 0.75 0 0.5] CT
1 GC
N
320 283 M
320 218 L
143 218 L
143 283 L
cp
f
GR
GS
[0.75 0 0 0.75 142.5 173] CT
/Helvetica 15.6 F
GS
[1 0 0 1 0 0] CT
0 6 moveto 
1 -1 scale
(Missing Label) t 
GR
GR
GS
[0.75 0 0 0.75 0 0.5] CT
0 0.447 0.741 RC
1 LJ
2.667 LW
N
147 230 M
187 230 L
S
GR
GS
[0.75 0 0 0.75 142.5 188.375] CT
/Helvetica 15.6 F
GS
[1 0 0 1 0 0] CT
0 6 moveto 
1 -1 scale
(Complete Linkage) t 
GR
GR
GS
[0.75 0 0 0.75 0 0.5] CT
0.851 0.325 0.098 RC
1 LJ
2.667 LW
N
147 250.5 M
187 250.5 L
S
GR
GS
[0.75 0 0 0.75 142.5 203.75] CT
/Helvetica 15.6 F
GS
[1 0 0 1 0 0] CT
0 6 moveto 
1 -1 scale
(Single Linkage) t 
GR
GR
GS
[0.75 0 0 0.75 0 0.5] CT
0.929 0.694 0.125 RC
1 LJ
2.667 LW
N
147 271 M
187 271 L
S
GR
GS
[0.75 0 0 0.75 0 0.5] CT
0.149 GC
10.0 ML
0.667 LW
N
143 283 M
143 218 L
320 218 L
320 283 L
cp
S
GR
%%Trailer
%%Pages: 1
%%EOF
