%!PS-Adobe-3.0 EPSF-3.0
%%Creator: (MATLAB, The Mathworks, Inc. Version 9.3.0.713579 \(R2017b\). Operating System: Windows 7)
%%Title: ./optimization_errorbar.eps
%%CreationDate: 2018-07-06T00:28:38
%%Pages: (atend)
%%BoundingBox:    31     3   688   283
%%LanguageLevel: 3
%%EndComments
%%BeginProlog
%%BeginResource: procset (Apache XML Graphics Std ProcSet) 1.2 0
%%Version: 1.2 0
%%Copyright: (Copyright 2001-2003,2010 The Apache Software Foundation. License terms: http://www.apache.org/licenses/LICENSE-2.0)
/bd{bind def}bind def
/ld{load def}bd
/GR/grestore ld
/GS/gsave ld
/RM/rmoveto ld
/C/curveto ld
/t/show ld
/L/lineto ld
/ML/setmiterlimit ld
/CT/concat ld
/f/fill ld
/N/newpath ld
/S/stroke ld
/CC/setcmykcolor ld
/A/ashow ld
/cp/closepath ld
/RC/setrgbcolor ld
/LJ/setlinejoin ld
/GC/setgray ld
/LW/setlinewidth ld
/M/moveto ld
/re {4 2 roll M
1 index 0 rlineto
0 exch rlineto
neg 0 rlineto
cp } bd
/_ctm matrix def
/_tm matrix def
/BT { _ctm currentmatrix pop matrix _tm copy pop 0 0 moveto } bd
/ET { _ctm setmatrix } bd
/iTm { _ctm setmatrix _tm concat } bd
/Tm { _tm astore pop iTm 0 0 moveto } bd
/ux 0.0 def
/uy 0.0 def
/F {
  /Tp exch def
  /Tf exch def
  Tf findfont Tp scalefont setfont
  /cf Tf def  /cs Tp def
} bd
/ULS {currentpoint /uy exch def /ux exch def} bd
/ULE {
  /Tcx currentpoint pop def
  gsave
  newpath
  cf findfont cs scalefont dup
  /FontMatrix get 0 get /Ts exch def /FontInfo get dup
  /UnderlinePosition get Ts mul /To exch def
  /UnderlineThickness get Ts mul /Tt exch def
  ux uy To add moveto  Tcx uy To add lineto
  Tt setlinewidth stroke
  grestore
} bd
/OLE {
  /Tcx currentpoint pop def
  gsave
  newpath
  cf findfont cs scalefont dup
  /FontMatrix get 0 get /Ts exch def /FontInfo get dup
  /UnderlinePosition get Ts mul /To exch def
  /UnderlineThickness get Ts mul /Tt exch def
  ux uy To add cs add moveto Tcx uy To add cs add lineto
  Tt setlinewidth stroke
  grestore
} bd
/SOE {
  /Tcx currentpoint pop def
  gsave
  newpath
  cf findfont cs scalefont dup
  /FontMatrix get 0 get /Ts exch def /FontInfo get dup
  /UnderlinePosition get Ts mul /To exch def
  /UnderlineThickness get Ts mul /Tt exch def
  ux uy To add cs 10 mul 26 idiv add moveto Tcx uy To add cs 10 mul 26 idiv add lineto
  Tt setlinewidth stroke
  grestore
} bd
/QT {
/Y22 exch store
/X22 exch store
/Y21 exch store
/X21 exch store
currentpoint
/Y21 load 2 mul add 3 div exch
/X21 load 2 mul add 3 div exch
/X21 load 2 mul /X22 load add 3 div
/Y21 load 2 mul /Y22 load add 3 div
/X22 load /Y22 load curveto
} bd
/SSPD {
dup length /d exch dict def
{
/v exch def
/k exch def
currentpagedevice k known {
/cpdv currentpagedevice k get def
v cpdv ne {
/upd false def
/nullv v type /nulltype eq def
/nullcpdv cpdv type /nulltype eq def
nullv nullcpdv or
{
/upd true def
} {
/sametype v type cpdv type eq def
sametype {
v type /arraytype eq {
/vlen v length def
/cpdvlen cpdv length def
vlen cpdvlen eq {
0 1 vlen 1 sub {
/i exch def
/obj v i get def
/cpdobj cpdv i get def
obj cpdobj ne {
/upd true def
exit
} if
} for
} {
/upd true def
} ifelse
} {
v type /dicttype eq {
v {
/dv exch def
/dk exch def
/cpddv cpdv dk get def
dv cpddv ne {
/upd true def
exit
} if
} forall
} {
/upd true def
} ifelse
} ifelse
} if
} ifelse
upd true eq {
d k v put
} if
} if
} if
} forall
d length 0 gt {
d setpagedevice
} if
} bd
/RE { % /NewFontName [NewEncodingArray] /FontName RE -
  findfont dup length dict begin
  {
    1 index /FID ne
    {def} {pop pop} ifelse
  } forall
  /Encoding exch def
  /FontName 1 index def
  currentdict definefont pop
  end
} bind def
%%EndResource
%%BeginResource: procset (Apache XML Graphics EPS ProcSet) 1.0 0
%%Version: 1.0 0
%%Copyright: (Copyright 2002-2003 The Apache Software Foundation. License terms: http://www.apache.org/licenses/LICENSE-2.0)
/BeginEPSF { %def
/b4_Inc_state save def         % Save state for cleanup
/dict_count countdictstack def % Count objects on dict stack
/op_count count 1 sub def      % Count objects on operand stack
userdict begin                 % Push userdict on dict stack
/showpage { } def              % Redefine showpage, { } = null proc
0 setgray 0 setlinecap         % Prepare graphics state
1 setlinewidth 0 setlinejoin
10 setmiterlimit [ ] 0 setdash newpath
/languagelevel where           % If level not equal to 1 then
{pop languagelevel             % set strokeadjust and
1 ne                           % overprint to their defaults.
{false setstrokeadjust false setoverprint
} if
} if
} bd
/EndEPSF { %def
count op_count sub {pop} repeat            % Clean up stacks
countdictstack dict_count sub {end} repeat
b4_Inc_state restore
} bd
%%EndResource
%FOPBeginFontDict
%%IncludeResource: font Courier-Oblique
%%IncludeResource: font Courier-BoldOblique
%%IncludeResource: font Courier-Bold
%%IncludeResource: font ZapfDingbats
%%IncludeResource: font Symbol
%%IncludeResource: font Helvetica
%%IncludeResource: font Helvetica-Oblique
%%IncludeResource: font Helvetica-Bold
%%IncludeResource: font Helvetica-BoldOblique
%%IncludeResource: font Times-Roman
%%IncludeResource: font Times-Italic
%%IncludeResource: font Times-Bold
%%IncludeResource: font Times-BoldItalic
%%IncludeResource: font Courier
%FOPEndFontDict
%%BeginResource: encoding WinAnsiEncoding
/WinAnsiEncoding [
/.notdef /.notdef /.notdef /.notdef /.notdef
/.notdef /.notdef /.notdef /.notdef /.notdef
/.notdef /.notdef /.notdef /.notdef /.notdef
/.notdef /.notdef /.notdef /.notdef /.notdef
/.notdef /.notdef /.notdef /.notdef /.notdef
/.notdef /.notdef /.notdef /.notdef /.notdef
/.notdef /.notdef /space /exclam /quotedbl
/numbersign /dollar /percent /ampersand /quotesingle
/parenleft /parenright /asterisk /plus /comma
/hyphen /period /slash /zero /one
/two /three /four /five /six
/seven /eight /nine /colon /semicolon
/less /equal /greater /question /at
/A /B /C /D /E
/F /G /H /I /J
/K /L /M /N /O
/P /Q /R /S /T
/U /V /W /X /Y
/Z /bracketleft /backslash /bracketright /asciicircum
/underscore /quoteleft /a /b /c
/d /e /f /g /h
/i /j /k /l /m
/n /o /p /q /r
/s /t /u /v /w
/x /y /z /braceleft /bar
/braceright /asciitilde /bullet /Euro /bullet
/quotesinglbase /florin /quotedblbase /ellipsis /dagger
/daggerdbl /circumflex /perthousand /Scaron /guilsinglleft
/OE /bullet /Zcaron /bullet /bullet
/quoteleft /quoteright /quotedblleft /quotedblright /bullet
/endash /emdash /asciitilde /trademark /scaron
/guilsinglright /oe /bullet /zcaron /Ydieresis
/space /exclamdown /cent /sterling /currency
/yen /brokenbar /section /dieresis /copyright
/ordfeminine /guillemotleft /logicalnot /sfthyphen /registered
/macron /degree /plusminus /twosuperior /threesuperior
/acute /mu /paragraph /middot /cedilla
/onesuperior /ordmasculine /guillemotright /onequarter /onehalf
/threequarters /questiondown /Agrave /Aacute /Acircumflex
/Atilde /Adieresis /Aring /AE /Ccedilla
/Egrave /Eacute /Ecircumflex /Edieresis /Igrave
/Iacute /Icircumflex /Idieresis /Eth /Ntilde
/Ograve /Oacute /Ocircumflex /Otilde /Odieresis
/multiply /Oslash /Ugrave /Uacute /Ucircumflex
/Udieresis /Yacute /Thorn /germandbls /agrave
/aacute /acircumflex /atilde /adieresis /aring
/ae /ccedilla /egrave /eacute /ecircumflex
/edieresis /igrave /iacute /icircumflex /idieresis
/eth /ntilde /ograve /oacute /ocircumflex
/otilde /odieresis /divide /oslash /ugrave
/uacute /ucircumflex /udieresis /yacute /thorn
/ydieresis
] def
%%EndResource
%FOPBeginFontReencode
/Courier-Oblique findfont
dup length dict begin
  {1 index /FID ne {def} {pop pop} ifelse} forall
  /Encoding WinAnsiEncoding def
  currentdict
end
/Courier-Oblique exch definefont pop
/Courier-BoldOblique findfont
dup length dict begin
  {1 index /FID ne {def} {pop pop} ifelse} forall
  /Encoding WinAnsiEncoding def
  currentdict
end
/Courier-BoldOblique exch definefont pop
/Courier-Bold findfont
dup length dict begin
  {1 index /FID ne {def} {pop pop} ifelse} forall
  /Encoding WinAnsiEncoding def
  currentdict
end
/Courier-Bold exch definefont pop
/Helvetica findfont
dup length dict begin
  {1 index /FID ne {def} {pop pop} ifelse} forall
  /Encoding WinAnsiEncoding def
  currentdict
end
/Helvetica exch definefont pop
/Helvetica-Oblique findfont
dup length dict begin
  {1 index /FID ne {def} {pop pop} ifelse} forall
  /Encoding WinAnsiEncoding def
  currentdict
end
/Helvetica-Oblique exch definefont pop
/Helvetica-Bold findfont
dup length dict begin
  {1 index /FID ne {def} {pop pop} ifelse} forall
  /Encoding WinAnsiEncoding def
  currentdict
end
/Helvetica-Bold exch definefont pop
/Helvetica-BoldOblique findfont
dup length dict begin
  {1 index /FID ne {def} {pop pop} ifelse} forall
  /Encoding WinAnsiEncoding def
  currentdict
end
/Helvetica-BoldOblique exch definefont pop
/Times-Roman findfont
dup length dict begin
  {1 index /FID ne {def} {pop pop} ifelse} forall
  /Encoding WinAnsiEncoding def
  currentdict
end
/Times-Roman exch definefont pop
/Times-Italic findfont
dup length dict begin
  {1 index /FID ne {def} {pop pop} ifelse} forall
  /Encoding WinAnsiEncoding def
  currentdict
end
/Times-Italic exch definefont pop
/Times-Bold findfont
dup length dict begin
  {1 index /FID ne {def} {pop pop} ifelse} forall
  /Encoding WinAnsiEncoding def
  currentdict
end
/Times-Bold exch definefont pop
/Times-BoldItalic findfont
dup length dict begin
  {1 index /FID ne {def} {pop pop} ifelse} forall
  /Encoding WinAnsiEncoding def
  currentdict
end
/Times-BoldItalic exch definefont pop
/Courier findfont
dup length dict begin
  {1 index /FID ne {def} {pop pop} ifelse} forall
  /Encoding WinAnsiEncoding def
  currentdict
end
/Courier exch definefont pop
%FOPEndFontReencode
%%EndProlog
%%Page: 1 1
%%PageBoundingBox: 0 0 750 300
%%BeginPageSetup
[1 0 0 -1 0 300] CT
%%EndPageSetup
GS
[0.75 0 0 0.75 0 0] CT
1 GC
N
0 0 1000 400 re
f
GR
GS
[0.75 0 0 0.75 0 0] CT
1 GC
N
0 0 1000 400 re
f
GR
GS
[0.75 0 0 0.75 0 0] CT
1 GC
N
113 332 M
786 332 L
786 30 L
113 30 L
cp
f
GR
GS
[0.75 0 0 0.75 0 0] CT
0.775 GC
[1 3] 0 setdash
2 LJ
0.667 LW
N
180.531 332 M
180.531 30 L
S
GR
GS
[0.75 0 0 0.75 0 0] CT
0.775 GC
[1 3] 0 setdash
2 LJ
0.667 LW
N
220.034 332 M
220.034 30 L
S
GR
GS
[0.75 0 0 0.75 0 0] CT
0.775 GC
[1 3] 0 setdash
2 LJ
0.667 LW
N
248.062 332 M
248.062 30 L
S
GR
GS
[0.75 0 0 0.75 0 0] CT
0.775 GC
[1 3] 0 setdash
2 LJ
0.667 LW
N
269.802 332 M
269.802 30 L
S
GR
GS
[0.75 0 0 0.75 0 0] CT
0.775 GC
[1 3] 0 setdash
2 LJ
0.667 LW
N
287.565 332 M
287.565 30 L
S
GR
GS
[0.75 0 0 0.75 0 0] CT
0.775 GC
[1 3] 0 setdash
2 LJ
0.667 LW
N
302.584 332 M
302.584 30 L
S
GR
GS
[0.75 0 0 0.75 0 0] CT
0.775 GC
[1 3] 0 setdash
2 LJ
0.667 LW
N
315.593 332 M
315.593 30 L
S
GR
GS
[0.75 0 0 0.75 0 0] CT
0.775 GC
[1 3] 0 setdash
2 LJ
0.667 LW
N
327.068 332 M
327.068 30 L
S
GR
GS
[0.75 0 0 0.75 0 0] CT
0.775 GC
[1 3] 0 setdash
2 LJ
0.667 LW
N
404.864 332 M
404.864 30 L
S
GR
GS
[0.75 0 0 0.75 0 0] CT
0.775 GC
[1 3] 0 setdash
2 LJ
0.667 LW
N
444.368 332 M
444.368 30 L
S
GR
GS
[0.75 0 0 0.75 0 0] CT
0.775 GC
[1 3] 0 setdash
2 LJ
0.667 LW
N
472.395 332 M
472.395 30 L
S
GR
GS
[0.75 0 0 0.75 0 0] CT
0.775 GC
[1 3] 0 setdash
2 LJ
0.667 LW
N
494.136 332 M
494.136 30 L
S
GR
GS
[0.75 0 0 0.75 0 0] CT
0.775 GC
[1 3] 0 setdash
2 LJ
0.667 LW
N
511.899 332 M
511.899 30 L
S
GR
GS
[0.75 0 0 0.75 0 0] CT
0.775 GC
[1 3] 0 setdash
2 LJ
0.667 LW
N
526.917 332 M
526.917 30 L
S
GR
GS
[0.75 0 0 0.75 0 0] CT
0.775 GC
[1 3] 0 setdash
2 LJ
0.667 LW
N
539.927 332 M
539.927 30 L
S
GR
GS
[0.75 0 0 0.75 0 0] CT
0.775 GC
[1 3] 0 setdash
2 LJ
0.667 LW
N
551.402 332 M
551.402 30 L
S
GR
GS
[0.75 0 0 0.75 0 0] CT
0.775 GC
[1 3] 0 setdash
2 LJ
0.667 LW
N
629.198 332 M
629.198 30 L
S
GR
GS
[0.75 0 0 0.75 0 0] CT
0.775 GC
[1 3] 0 setdash
2 LJ
0.667 LW
N
668.701 332 M
668.701 30 L
S
GR
GS
[0.75 0 0 0.75 0 0] CT
0.775 GC
[1 3] 0 setdash
2 LJ
0.667 LW
N
696.729 332 M
696.729 30 L
S
GR
GS
[0.75 0 0 0.75 0 0] CT
0.775 GC
[1 3] 0 setdash
2 LJ
0.667 LW
N
718.469 332 M
718.469 30 L
S
GR
GS
[0.75 0 0 0.75 0 0] CT
0.775 GC
[1 3] 0 setdash
2 LJ
0.667 LW
N
736.232 332 M
736.232 30 L
S
GR
GS
[0.75 0 0 0.75 0 0] CT
0.775 GC
[1 3] 0 setdash
2 LJ
0.667 LW
N
751.25 332 M
751.25 30 L
S
GR
GS
[0.75 0 0 0.75 0 0] CT
0.775 GC
[1 3] 0 setdash
2 LJ
0.667 LW
N
764.26 332 M
764.26 30 L
S
GR
GS
[0.75 0 0 0.75 0 0] CT
0.775 GC
[1 3] 0 setdash
2 LJ
0.667 LW
N
775.735 332 M
775.735 30 L
S
GR
GS
[0.75 0 0 0.75 0 0] CT
0.873 GC
1 LJ
0.667 LW
N
113 332 M
113 30 L
S
GR
GS
[0.75 0 0 0.75 0 0] CT
0.873 GC
1 LJ
0.667 LW
N
337.333 332 M
337.333 30 L
S
GR
GS
[0.75 0 0 0.75 0 0] CT
0.873 GC
1 LJ
0.667 LW
N
561.667 332 M
561.667 30 L
S
GR
GS
[0.75 0 0 0.75 0 0] CT
0.873 GC
1 LJ
0.667 LW
N
786 332 M
786 30 L
S
GR
GS
[0.75 0 0 0.75 0 0] CT
0.775 GC
[1 3] 0 setdash
2 LJ
0.667 LW
N
786 300.988 M
113 300.988 L
S
GR
GS
[0.75 0 0 0.75 0 0] CT
0.775 GC
[1 3] 0 setdash
2 LJ
0.667 LW
N
786 270.162 M
113 270.162 L
S
GR
GS
[0.75 0 0 0.75 0 0] CT
0.775 GC
[1 3] 0 setdash
2 LJ
0.667 LW
N
786 239.52 M
113 239.52 L
S
GR
GS
[0.75 0 0 0.75 0 0] CT
0.775 GC
[1 3] 0 setdash
2 LJ
0.667 LW
N
786 209.06 M
113 209.06 L
S
GR
GS
[0.75 0 0 0.75 0 0] CT
0.775 GC
[1 3] 0 setdash
2 LJ
0.667 LW
N
786 148.676 M
113 148.676 L
S
GR
GS
[0.75 0 0 0.75 0 0] CT
0.775 GC
[1 3] 0 setdash
2 LJ
0.667 LW
N
786 118.749 M
113 118.749 L
S
GR
GS
[0.75 0 0 0.75 0 0] CT
0.775 GC
[1 3] 0 setdash
2 LJ
0.667 LW
N
786 88.995 M
113 88.995 L
S
GR
GS
[0.75 0 0 0.75 0 0] CT
0.775 GC
[1 3] 0 setdash
2 LJ
0.667 LW
N
786 59.413 M
113 59.413 L
S
GR
GS
[0.75 0 0 0.75 0 0] CT
0.873 GC
1 LJ
0.667 LW
N
786 332 M
113 332 L
S
GR
GS
[0.75 0 0 0.75 0 0] CT
0.873 GC
1 LJ
0.667 LW
N
786 178.779 M
113 178.779 L
S
GR
GS
[0.75 0 0 0.75 0 0] CT
0.873 GC
1 LJ
0.667 LW
N
786 30 M
113 30 L
S
GR
GS
[0.75 0 0 0.75 0 0] CT
0.149 GC
2 setlinecap
1 LJ
0.667 LW
N
113 332 M
786 332 L
S
GR
GS
[0.75 0 0 0.75 0 0] CT
0.149 GC
2 setlinecap
1 LJ
0.667 LW
N
113 332 M
113 325.27 L
S
GR
GS
[0.75 0 0 0.75 0 0] CT
0.149 GC
2 setlinecap
1 LJ
0.667 LW
N
337.333 332 M
337.333 325.27 L
S
GR
GS
[0.75 0 0 0.75 0 0] CT
0.149 GC
2 setlinecap
1 LJ
0.667 LW
N
561.667 332 M
561.667 325.27 L
S
GR
GS
[0.75 0 0 0.75 0 0] CT
0.149 GC
2 setlinecap
1 LJ
0.667 LW
N
786 332 M
786 325.27 L
S
GR
GS
[0.75 0 0 0.75 0 0] CT
0.149 GC
2 setlinecap
1 LJ
0.667 LW
N
113 332 M
113 328.635 L
S
GR
GS
[0.75 0 0 0.75 0 0] CT
0.149 GC
2 setlinecap
1 LJ
0.667 LW
N
180.531 332 M
180.531 328.635 L
S
GR
GS
[0.75 0 0 0.75 0 0] CT
0.149 GC
2 setlinecap
1 LJ
0.667 LW
N
220.034 332 M
220.034 328.635 L
S
GR
GS
[0.75 0 0 0.75 0 0] CT
0.149 GC
2 setlinecap
1 LJ
0.667 LW
N
248.062 332 M
248.062 328.635 L
S
GR
GS
[0.75 0 0 0.75 0 0] CT
0.149 GC
2 setlinecap
1 LJ
0.667 LW
N
269.802 332 M
269.802 328.635 L
S
GR
GS
[0.75 0 0 0.75 0 0] CT
0.149 GC
2 setlinecap
1 LJ
0.667 LW
N
287.565 332 M
287.565 328.635 L
S
GR
GS
[0.75 0 0 0.75 0 0] CT
0.149 GC
2 setlinecap
1 LJ
0.667 LW
N
302.584 332 M
302.584 328.635 L
S
GR
GS
[0.75 0 0 0.75 0 0] CT
0.149 GC
2 setlinecap
1 LJ
0.667 LW
N
315.593 332 M
315.593 328.635 L
S
GR
GS
[0.75 0 0 0.75 0 0] CT
0.149 GC
2 setlinecap
1 LJ
0.667 LW
N
327.068 332 M
327.068 328.635 L
S
GR
GS
[0.75 0 0 0.75 0 0] CT
0.149 GC
2 setlinecap
1 LJ
0.667 LW
N
337.333 332 M
337.333 328.635 L
S
GR
GS
[0.75 0 0 0.75 0 0] CT
0.149 GC
2 setlinecap
1 LJ
0.667 LW
N
404.864 332 M
404.864 328.635 L
S
GR
GS
[0.75 0 0 0.75 0 0] CT
0.149 GC
2 setlinecap
1 LJ
0.667 LW
N
444.368 332 M
444.368 328.635 L
S
GR
GS
[0.75 0 0 0.75 0 0] CT
0.149 GC
2 setlinecap
1 LJ
0.667 LW
N
472.395 332 M
472.395 328.635 L
S
GR
GS
[0.75 0 0 0.75 0 0] CT
0.149 GC
2 setlinecap
1 LJ
0.667 LW
N
494.136 332 M
494.136 328.635 L
S
GR
GS
[0.75 0 0 0.75 0 0] CT
0.149 GC
2 setlinecap
1 LJ
0.667 LW
N
511.899 332 M
511.899 328.635 L
S
GR
GS
[0.75 0 0 0.75 0 0] CT
0.149 GC
2 setlinecap
1 LJ
0.667 LW
N
526.917 332 M
526.917 328.635 L
S
GR
GS
[0.75 0 0 0.75 0 0] CT
0.149 GC
2 setlinecap
1 LJ
0.667 LW
N
539.927 332 M
539.927 328.635 L
S
GR
GS
[0.75 0 0 0.75 0 0] CT
0.149 GC
2 setlinecap
1 LJ
0.667 LW
N
551.402 332 M
551.402 328.635 L
S
GR
GS
[0.75 0 0 0.75 0 0] CT
0.149 GC
2 setlinecap
1 LJ
0.667 LW
N
561.667 332 M
561.667 328.635 L
S
GR
GS
[0.75 0 0 0.75 0 0] CT
0.149 GC
2 setlinecap
1 LJ
0.667 LW
N
629.198 332 M
629.198 328.635 L
S
GR
GS
[0.75 0 0 0.75 0 0] CT
0.149 GC
2 setlinecap
1 LJ
0.667 LW
N
668.701 332 M
668.701 328.635 L
S
GR
GS
[0.75 0 0 0.75 0 0] CT
0.149 GC
2 setlinecap
1 LJ
0.667 LW
N
696.729 332 M
696.729 328.635 L
S
GR
GS
[0.75 0 0 0.75 0 0] CT
0.149 GC
2 setlinecap
1 LJ
0.667 LW
N
718.469 332 M
718.469 328.635 L
S
GR
GS
[0.75 0 0 0.75 0 0] CT
0.149 GC
2 setlinecap
1 LJ
0.667 LW
N
736.232 332 M
736.232 328.635 L
S
GR
GS
[0.75 0 0 0.75 0 0] CT
0.149 GC
2 setlinecap
1 LJ
0.667 LW
N
751.25 332 M
751.25 328.635 L
S
GR
GS
[0.75 0 0 0.75 0 0] CT
0.149 GC
2 setlinecap
1 LJ
0.667 LW
N
764.26 332 M
764.26 328.635 L
S
GR
GS
[0.75 0 0 0.75 0 0] CT
0.149 GC
2 setlinecap
1 LJ
0.667 LW
N
775.735 332 M
775.735 328.635 L
S
GR
GS
[0.75 0 0 0.75 0 0] CT
0.149 GC
2 setlinecap
1 LJ
0.667 LW
N
786 332 M
786 328.635 L
S
GR
GS
[0.75 0 0 0.75 72.75 274.5] CT
0.149 GC
/Helvetica 20 F
GS
[1 0 0 1 0 0] CT
0 0 moveto 
1 -1 scale
(10) t 
GR
GR
GS
[0.75 0 0 0.75 90 267] CT
0.149 GC
/Helvetica 16 F
GS
[1 0 0 1 0 0] CT
0 0 moveto 
1 -1 scale
(1) t 
GR
GR
GS
[0.75 0 0 0.75 240.75 274.5] CT
0.149 GC
/Helvetica 20 F
GS
[1 0 0 1 0 0] CT
0 0 moveto 
1 -1 scale
(10) t 
GR
GR
GS
[0.75 0 0 0.75 258 267] CT
0.149 GC
/Helvetica 16 F
GS
[1 0 0 1 0 0] CT
0 0 moveto 
1 -1 scale
(2) t 
GR
GR
GS
[0.75 0 0 0.75 409.5 274.5] CT
0.149 GC
/Helvetica 20 F
GS
[1 0 0 1 0 0] CT
0 0 moveto 
1 -1 scale
(10) t 
GR
GR
GS
[0.75 0 0 0.75 426.75 267] CT
0.149 GC
/Helvetica 16 F
GS
[1 0 0 1 0 0] CT
0 0 moveto 
1 -1 scale
(3) t 
GR
GR
GS
[0.75 0 0 0.75 577.5 274.5] CT
0.149 GC
/Helvetica 20 F
GS
[1 0 0 1 0 0] CT
0 0 moveto 
1 -1 scale
(10) t 
GR
GR
GS
[0.75 0 0 0.75 594.75 267] CT
0.149 GC
/Helvetica 16 F
GS
[1 0 0 1 0 0] CT
0 0 moveto 
1 -1 scale
(4) t 
GR
GR
GS
[0.75 0 0 0.75 337.12525 279] CT
0.149 GC
/Helvetica 22 F
GS
[1 0 0 1 0 0] CT
-30 23 moveto 
1 -1 scale
(radius) t 
GR
GR
GS
[0.75 0 0 0.75 0 0] CT
0.149 GC
2 setlinecap
1 LJ
0.667 LW
N
113 332 M
113 30 L
S
GR
GS
[0.75 0 0 0.75 0 0] CT
0.149 GC
2 setlinecap
1 LJ
0.667 LW
N
113 332 M
119.73 332 L
S
GR
GS
[0.75 0 0 0.75 0 0] CT
0.149 GC
2 setlinecap
1 LJ
0.667 LW
N
113 178.779 M
119.73 178.779 L
S
GR
GS
[0.75 0 0 0.75 0 0] CT
0.149 GC
2 setlinecap
1 LJ
0.667 LW
N
113 30 M
119.73 30 L
S
GR
GS
[0.75 0 0 0.75 0 0] CT
0.149 GC
2 setlinecap
1 LJ
0.667 LW
N
113 300.988 M
116.365 300.988 L
S
GR
GS
[0.75 0 0 0.75 0 0] CT
0.149 GC
2 setlinecap
1 LJ
0.667 LW
N
113 270.162 M
116.365 270.162 L
S
GR
GS
[0.75 0 0 0.75 0 0] CT
0.149 GC
2 setlinecap
1 LJ
0.667 LW
N
113 239.52 M
116.365 239.52 L
S
GR
GS
[0.75 0 0 0.75 0 0] CT
0.149 GC
2 setlinecap
1 LJ
0.667 LW
N
113 209.06 M
116.365 209.06 L
S
GR
GS
[0.75 0 0 0.75 0 0] CT
0.149 GC
2 setlinecap
1 LJ
0.667 LW
N
113 148.676 M
116.365 148.676 L
S
GR
GS
[0.75 0 0 0.75 0 0] CT
0.149 GC
2 setlinecap
1 LJ
0.667 LW
N
113 118.749 M
116.365 118.749 L
S
GR
GS
[0.75 0 0 0.75 0 0] CT
0.149 GC
2 setlinecap
1 LJ
0.667 LW
N
113 88.995 M
116.365 88.995 L
S
GR
GS
[0.75 0 0 0.75 0 0] CT
0.149 GC
2 setlinecap
1 LJ
0.667 LW
N
113 59.413 M
116.365 59.413 L
S
GR
GS
[0.75 0 0 0.75 79.75 249] CT
0.149 GC
/Helvetica 20 F
GS
[1 0 0 1 0 0] CT
-39 8 moveto 
1 -1 scale
(16.5) t 
GR
GR
GS
[0.75 0 0 0.75 79.75 134.08431] CT
0.149 GC
/Helvetica 20 F
GS
[1 0 0 1 0 0] CT
-23 8 moveto 
1 -1 scale
(17) t 
GR
GR
GS
[0.75 0 0 0.75 79.75 22.5] CT
0.149 GC
/Helvetica 20 F
GS
[1 0 0 1 0 0] CT
-39 8 moveto 
1 -1 scale
(17.5) t 
GR
GR
GS
[0 -0.75 0.75 0 47.5 135.7499] CT
0.149 GC
/Helvetica 22 F
GS
[1 0 0 1 0 0] CT
-94.5 -5 moveto 
1 -1 scale
(difference measure) t 
GR
GR
GS
[0.75 0 0 0.75 0 0] CT
0.09 0 0 RC
1 LJ
2.667 LW
N
786 181.182 M
786 193.301 L
S
GR
GS
[0.75 0 0 0.75 0 0] CT
0.09 0 0 RC
1 LJ
2.667 LW
N
668.701 178.761 M
668.701 181.791 L
S
GR
GS
[0.75 0 0 0.75 0 0] CT
0.09 0 0 RC
1 LJ
2.667 LW
N
629.198 177.976 M
629.198 179.82 L
S
GR
GS
[0.75 0 0 0.75 0 0] CT
0.09 0 0 RC
1 LJ
2.667 LW
N
601.17 178.742 M
601.17 180.258 L
S
GR
GS
[0.75 0 0 0.75 0 0] CT
0.09 0 0 RC
1 LJ
2.667 LW
N
561.667 178.022 M
561.667 179.176 L
S
GR
GS
[0.75 0 0 0.75 0 0] CT
0.09 0 0 RC
1 LJ
2.667 LW
N
539.927 178.254 M
539.927 179.201 L
S
GR
GS
[0.75 0 0 0.75 0 0] CT
0.09 0 0 RC
1 LJ
2.667 LW
N
511.899 177.741 M
511.899 178.335 L
S
GR
GS
[0.75 0 0 0.75 0 0] CT
0.09 0 0 RC
1 LJ
2.667 LW
N
472.395 177.776 M
472.395 178.254 L
S
GR
GS
[0.75 0 0 0.75 0 0] CT
0.09 0 0 RC
1 LJ
2.667 LW
N
404.864 177.93 M
404.864 178.199 L
S
GR
GS
[0.75 0 0 0.75 0 0] CT
0.09 0 0 RC
1 LJ
2.667 LW
N
376.836 177.893 M
376.836 178.047 L
S
GR
GS
[0.75 0 0 0.75 0 0] CT
0.09 0 0 RC
1 LJ
2.667 LW
N
337.333 177.936 M
337.333 178.032 L
S
GR
GS
[0.75 0 0 0.75 0 0] CT
0.09 0 0 RC
1 LJ
2.667 LW
N
315.593 177.936 M
315.593 178.01 L
S
GR
GS
[0.75 0 0 0.75 0 0] CT
0.09 0 0 RC
1 LJ
2.667 LW
N
269.802 177.95 M
269.802 178 L
S
GR
GS
[0.75 0 0 0.75 0 0] CT
0.09 0 0 RC
1 LJ
2.667 LW
N
220.034 177.947 M
220.034 177.98 L
S
GR
GS
[0.75 0 0 0.75 0 0] CT
0.09 0 0 RC
1 LJ
2.667 LW
N
113 177.95 M
113 177.962 L
S
GR
GS
[0.75 0 0 0.75 0 0] CT
0.09 0 0 RC
1 LJ
2.667 LW
N
786 181.182 M
786 169.092 L
S
GR
GS
[0.75 0 0 0.75 0 0] CT
0.09 0 0 RC
1 LJ
2.667 LW
N
668.701 178.761 M
668.701 175.732 L
S
GR
GS
[0.75 0 0 0.75 0 0] CT
0.09 0 0 RC
1 LJ
2.667 LW
N
629.198 177.976 M
629.198 176.133 L
S
GR
GS
[0.75 0 0 0.75 0 0] CT
0.09 0 0 RC
1 LJ
2.667 LW
N
601.17 178.742 M
601.17 177.227 L
S
GR
GS
[0.75 0 0 0.75 0 0] CT
0.09 0 0 RC
1 LJ
2.667 LW
N
561.667 178.022 M
561.667 176.869 L
S
GR
GS
[0.75 0 0 0.75 0 0] CT
0.09 0 0 RC
1 LJ
2.667 LW
N
539.927 178.254 M
539.927 177.307 L
S
GR
GS
[0.75 0 0 0.75 0 0] CT
0.09 0 0 RC
1 LJ
2.667 LW
N
511.899 177.741 M
511.899 177.148 L
S
GR
GS
[0.75 0 0 0.75 0 0] CT
0.09 0 0 RC
1 LJ
2.667 LW
N
472.395 177.776 M
472.395 177.299 L
S
GR
GS
[0.75 0 0 0.75 0 0] CT
0.09 0 0 RC
1 LJ
2.667 LW
N
404.864 177.93 M
404.864 177.661 L
S
GR
GS
[0.75 0 0 0.75 0 0] CT
0.09 0 0 RC
1 LJ
2.667 LW
N
376.836 177.893 M
376.836 177.739 L
S
GR
GS
[0.75 0 0 0.75 0 0] CT
0.09 0 0 RC
1 LJ
2.667 LW
N
337.333 177.936 M
337.333 177.839 L
S
GR
GS
[0.75 0 0 0.75 0 0] CT
0.09 0 0 RC
1 LJ
2.667 LW
N
315.593 177.936 M
315.593 177.862 L
S
GR
GS
[0.75 0 0 0.75 0 0] CT
0.09 0 0 RC
1 LJ
2.667 LW
N
269.802 177.95 M
269.802 177.901 L
S
GR
GS
[0.75 0 0 0.75 0 0] CT
0.09 0 0 RC
1 LJ
2.667 LW
N
220.034 177.947 M
220.034 177.915 L
S
GR
GS
[0.75 0 0 0.75 0 0] CT
0.09 0 0 RC
1 LJ
2.667 LW
N
113 177.95 M
113 177.937 L
S
GR
GS
[0.75 0 0 0.75 0 0] CT
0.09 0 0 RC
1 LJ
2.667 LW
N
786 181.182 M
668.701 178.761 L
629.198 177.976 L
601.17 178.742 L
561.667 178.022 L
539.927 178.254 L
511.899 177.741 L
472.395 177.776 L
404.864 177.93 L
376.836 177.893 L
337.333 177.936 L
315.593 177.936 L
269.802 177.95 L
220.034 177.947 L
113 177.95 L
S
GR
GS
[0.75 0 0 0.75 589.5 144.97544] CT
0.09 0 0 RC
N
-4 0 M
4 0 L
f
GR
GS
[0.75 0 0 0.75 589.5 144.97544] CT
0.09 0 0 RC
10.0 ML
2.667 LW
N
-4 0 M
4 0 L
S
GR
GS
[0.75 0 0 0.75 501.52565 136.34349] CT
0.09 0 0 RC
N
/f-401390582{-4 0 M
4 0 L}def
f-401390582
f
GR
GS
[0.75 0 0 0.75 501.52565 136.34349] CT
0.09 0 0 RC
10.0 ML
2.667 LW
N
-4 0 M
4 0 L
S
GR
GS
[0.75 0 0 0.75 471.89827 134.86491] CT
0.09 0 0 RC
N
f-401390582
f
GR
GS
[0.75 0 0 0.75 471.89827 134.86491] CT
0.09 0 0 RC
10.0 ML
2.667 LW
N
-4 0 M
4 0 L
S
GR
GS
[0.75 0 0 0.75 450.87735 135.19355] CT
0.09 0 0 RC
N
f-401390582
f
GR
GS
[0.75 0 0 0.75 450.87735 135.19355] CT
0.09 0 0 RC
10.0 ML
2.667 LW
N
-4 0 M
4 0 L
S
GR
GS
[0.75 0 0 0.75 421.25002 134.38165] CT
0.09 0 0 RC
N
f-401390582
f
GR
GS
[0.75 0 0 0.75 421.25002 134.38165] CT
0.09 0 0 RC
10.0 ML
2.667 LW
N
-4 0 M
4 0 L
S
GR
GS
[0.75 0 0 0.75 404.94489 134.40084] CT
0.09 0 0 RC
N
f-401390582
f
GR
GS
[0.75 0 0 0.75 404.94489 134.40084] CT
0.09 0 0 RC
10.0 ML
2.667 LW
N
-4 0 M
4 0 L
S
GR
GS
[0.75 0 0 0.75 383.92397 133.75112] CT
0.09 0 0 RC
N
f-401390582
f
GR
GS
[0.75 0 0 0.75 383.92397 133.75112] CT
0.09 0 0 RC
10.0 ML
2.667 LW
N
-4 0 M
4 0 L
S
GR
GS
[0.75 0 0 0.75 354.29661 133.69038] CT
0.09 0 0 RC
N
f-401390582
f
GR
GS
[0.75 0 0 0.75 354.29661 133.69038] CT
0.09 0 0 RC
10.0 ML
2.667 LW
N
-4 0 M
4 0 L
S
GR
GS
[0.75 0 0 0.75 303.64828 133.64892] CT
0.09 0 0 RC
N
f-401390582
f
GR
GS
[0.75 0 0 0.75 303.64828 133.64892] CT
0.09 0 0 RC
10.0 ML
2.667 LW
N
-4 0 M
4 0 L
S
GR
GS
[0.75 0 0 0.75 282.62734 133.53559] CT
0.09 0 0 RC
N
f-401390582
f
GR
GS
[0.75 0 0 0.75 282.62734 133.53559] CT
0.09 0 0 RC
10.0 ML
2.667 LW
N
-4 0 M
4 0 L
S
GR
GS
[0.75 0 0 0.75 253.00001 133.52426] CT
0.09 0 0 RC
N
f-401390582
f
GR
GS
[0.75 0 0 0.75 253.00001 133.52426] CT
0.09 0 0 RC
10.0 ML
2.667 LW
N
-4 0 M
4 0 L
S
GR
GS
[0.75 0 0 0.75 236.6949 133.50722] CT
0.09 0 0 RC
N
f-401390582
f
GR
GS
[0.75 0 0 0.75 236.6949 133.50722] CT
0.09 0 0 RC
10.0 ML
2.667 LW
N
-4 0 M
4 0 L
S
GR
GS
[0.75 0 0 0.75 202.35171 133.49983] CT
0.09 0 0 RC
N
f-401390582
f
GR
GS
[0.75 0 0 0.75 202.35171 133.49983] CT
0.09 0 0 RC
10.0 ML
2.667 LW
N
-4 0 M
4 0 L
S
GR
GS
[0.75 0 0 0.75 165.02566 133.48468] CT
0.09 0 0 RC
N
f-401390582
f
GR
GS
[0.75 0 0 0.75 165.02566 133.48468] CT
0.09 0 0 RC
10.0 ML
2.667 LW
N
-4 0 M
4 0 L
S
GR
GS
[0.75 0 0 0.75 84.75 133.47138] CT
0.09 0 0 RC
N
f-401390582
f
GR
GS
[0.75 0 0 0.75 84.75 133.47138] CT
0.09 0 0 RC
10.0 ML
2.667 LW
N
-4 0 M
4 0 L
S
GR
GS
[0.75 0 0 0.75 589.5 126.81887] CT
0.09 0 0 RC
N
f-401390582
f
GR
GS
[0.75 0 0 0.75 589.5 126.81887] CT
0.09 0 0 RC
10.0 ML
2.667 LW
N
-4 0 M
4 0 L
S
GR
GS
[0.75 0 0 0.75 501.52565 131.79888] CT
0.09 0 0 RC
N
f-401390582
f
GR
GS
[0.75 0 0 0.75 501.52565 131.79888] CT
0.09 0 0 RC
10.0 ML
2.667 LW
N
-4 0 M
4 0 L
S
GR
GS
[0.75 0 0 0.75 471.89827 132.09958] CT
0.09 0 0 RC
N
f-401390582
f
GR
GS
[0.75 0 0 0.75 471.89827 132.09958] CT
0.09 0 0 RC
10.0 ML
2.667 LW
N
-4 0 M
4 0 L
S
GR
GS
[0.75 0 0 0.75 450.87735 132.92021] CT
0.09 0 0 RC
N
f-401390582
f
GR
GS
[0.75 0 0 0.75 450.87735 132.92021] CT
0.09 0 0 RC
10.0 ML
2.667 LW
N
-4 0 M
4 0 L
S
GR
GS
[0.75 0 0 0.75 421.25002 132.65188] CT
0.09 0 0 RC
N
f-401390582
f
GR
GS
[0.75 0 0 0.75 421.25002 132.65188] CT
0.09 0 0 RC
10.0 ML
2.667 LW
N
-4 0 M
4 0 L
S
GR
GS
[0.75 0 0 0.75 404.94489 132.98051] CT
0.09 0 0 RC
N
f-401390582
f
GR
GS
[0.75 0 0 0.75 404.94489 132.98051] CT
0.09 0 0 RC
10.0 ML
2.667 LW
N
-4 0 M
4 0 L
S
GR
GS
[0.75 0 0 0.75 383.92397 132.86068] CT
0.09 0 0 RC
N
f-401390582
f
GR
GS
[0.75 0 0 0.75 383.92397 132.86068] CT
0.09 0 0 RC
10.0 ML
2.667 LW
N
-4 0 M
4 0 L
S
GR
GS
[0.75 0 0 0.75 354.29661 132.97397] CT
0.09 0 0 RC
N
f-401390582
f
GR
GS
[0.75 0 0 0.75 354.29661 132.97397] CT
0.09 0 0 RC
10.0 ML
2.667 LW
N
-4 0 M
4 0 L
S
GR
GS
[0.75 0 0 0.75 303.64828 133.24592] CT
0.09 0 0 RC
N
f-401390582
f
GR
GS
[0.75 0 0 0.75 303.64828 133.24592] CT
0.09 0 0 RC
10.0 ML
2.667 LW
N
-4 0 M
4 0 L
S
GR
GS
[0.75 0 0 0.75 282.62734 133.30427] CT
0.09 0 0 RC
N
f-401390582
f
GR
GS
[0.75 0 0 0.75 282.62734 133.30427] CT
0.09 0 0 RC
10.0 ML
2.667 LW
N
-4 0 M
4 0 L
S
GR
GS
[0.75 0 0 0.75 253.00001 133.37905] CT
0.09 0 0 RC
N
f-401390582
f
GR
GS
[0.75 0 0 0.75 253.00001 133.37905] CT
0.09 0 0 RC
10.0 ML
2.667 LW
N
-4 0 M
4 0 L
S
GR
GS
[0.75 0 0 0.75 236.6949 133.39674] CT
0.09 0 0 RC
N
f-401390582
f
GR
GS
[0.75 0 0 0.75 236.6949 133.39674] CT
0.09 0 0 RC
10.0 ML
2.667 LW
N
-4 0 M
4 0 L
S
GR
GS
[0.75 0 0 0.75 202.35171 133.42581] CT
0.09 0 0 RC
N
f-401390582
f
GR
GS
[0.75 0 0 0.75 202.35171 133.42581] CT
0.09 0 0 RC
10.0 ML
2.667 LW
N
-4 0 M
4 0 L
S
GR
GS
[0.75 0 0 0.75 165.02566 133.43608] CT
0.09 0 0 RC
N
f-401390582
f
GR
GS
[0.75 0 0 0.75 165.02566 133.43608] CT
0.09 0 0 RC
10.0 ML
2.667 LW
N
-4 0 M
4 0 L
S
GR
GS
[0.75 0 0 0.75 84.75 133.45288] CT
0.09 0 0 RC
N
f-401390582
f
GR
GS
[0.75 0 0 0.75 84.75 133.45288] CT
0.09 0 0 RC
10.0 ML
2.667 LW
N
-4 0 M
4 0 L
S
GR
GS
[0.75 0 0 0.75 0 0] CT
0.18 0 0 RC
1 LJ
2.667 LW
N
786 281.441 M
786 332.036 L
S
GR
GS
[0.75 0 0 0.75 0 0] CT
0.18 0 0 RC
1 LJ
2.667 LW
N
668.701 183.593 M
668.701 212.586 L
S
GR
GS
[0.75 0 0 0.75 0 0] CT
0.18 0 0 RC
1 LJ
2.667 LW
N
629.198 185.174 M
629.198 208.646 L
S
GR
GS
[0.75 0 0 0.75 0 0] CT
0.18 0 0 RC
1 LJ
2.667 LW
N
601.17 187.735 M
601.17 202.21 L
S
GR
GS
[0.75 0 0 0.75 0 0] CT
0.18 0 0 RC
1 LJ
2.667 LW
N
561.667 177.835 M
561.667 190.514 L
S
GR
GS
[0.75 0 0 0.75 0 0] CT
0.18 0 0 RC
1 LJ
2.667 LW
N
539.927 178.816 M
539.927 187.951 L
S
GR
GS
[0.75 0 0 0.75 0 0] CT
0.18 0 0 RC
1 LJ
2.667 LW
N
511.899 179.33 M
511.899 184.419 L
S
GR
GS
[0.75 0 0 0.75 0 0] CT
0.18 0 0 RC
1 LJ
2.667 LW
N
472.395 175.988 M
472.395 179.57 L
S
GR
GS
[0.75 0 0 0.75 0 0] CT
0.18 0 0 RC
1 LJ
2.667 LW
N
404.864 178.155 M
404.864 179.993 L
S
GR
GS
[0.75 0 0 0.75 0 0] CT
0.18 0 0 RC
1 LJ
2.667 LW
N
376.836 177.908 M
376.836 179.754 L
S
GR
GS
[0.75 0 0 0.75 0 0] CT
0.18 0 0 RC
1 LJ
2.667 LW
N
337.333 177.792 M
337.333 178.749 L
S
GR
GS
[0.75 0 0 0.75 0 0] CT
0.18 0 0 RC
1 LJ
2.667 LW
N
315.593 177.841 M
315.593 178.695 L
S
GR
GS
[0.75 0 0 0.75 0 0] CT
0.18 0 0 RC
1 LJ
2.667 LW
N
269.802 177.822 M
269.802 178.289 L
S
GR
GS
[0.75 0 0 0.75 0 0] CT
0.18 0 0 RC
1 LJ
2.667 LW
N
220.034 177.89 M
220.034 178.189 L
S
GR
GS
[0.75 0 0 0.75 0 0] CT
0.18 0 0 RC
1 LJ
2.667 LW
N
113 177.969 M
113 178.086 L
S
GR
GS
[0.75 0 0 0.75 0 0] CT
0.18 0 0 RC
1 LJ
2.667 LW
N
786 281.441 M
786 166.856 L
S
GR
GS
[0.75 0 0 0.75 0 0] CT
0.18 0 0 RC
1 LJ
2.667 LW
N
668.701 183.593 M
668.701 154.762 L
S
GR
GS
[0.75 0 0 0.75 0 0] CT
0.18 0 0 RC
1 LJ
2.667 LW
N
629.198 185.174 M
629.198 161.809 L
S
GR
GS
[0.75 0 0 0.75 0 0] CT
0.18 0 0 RC
1 LJ
2.667 LW
N
601.17 187.735 M
601.17 173.301 L
S
GR
GS
[0.75 0 0 0.75 0 0] CT
0.18 0 0 RC
1 LJ
2.667 LW
N
561.667 177.835 M
561.667 165.186 L
S
GR
GS
[0.75 0 0 0.75 0 0] CT
0.18 0 0 RC
1 LJ
2.667 LW
N
539.927 178.816 M
539.927 169.697 L
S
GR
GS
[0.75 0 0 0.75 0 0] CT
0.18 0 0 RC
1 LJ
2.667 LW
N
511.899 179.33 M
511.899 174.245 L
S
GR
GS
[0.75 0 0 0.75 0 0] CT
0.18 0 0 RC
1 LJ
2.667 LW
N
472.395 175.988 M
472.395 172.408 L
S
GR
GS
[0.75 0 0 0.75 0 0] CT
0.18 0 0 RC
1 LJ
2.667 LW
N
404.864 178.155 M
404.864 176.318 L
S
GR
GS
[0.75 0 0 0.75 0 0] CT
0.18 0 0 RC
1 LJ
2.667 LW
N
376.836 177.908 M
376.836 176.062 L
S
GR
GS
[0.75 0 0 0.75 0 0] CT
0.18 0 0 RC
1 LJ
2.667 LW
N
337.333 177.792 M
337.333 176.836 L
S
GR
GS
[0.75 0 0 0.75 0 0] CT
0.18 0 0 RC
1 LJ
2.667 LW
N
315.593 177.841 M
315.593 176.988 L
S
GR
GS
[0.75 0 0 0.75 0 0] CT
0.18 0 0 RC
1 LJ
2.667 LW
N
269.802 177.822 M
269.802 177.354 L
S
GR
GS
[0.75 0 0 0.75 0 0] CT
0.18 0 0 RC
1 LJ
2.667 LW
N
220.034 177.89 M
220.034 177.591 L
S
GR
GS
[0.75 0 0 0.75 0 0] CT
0.18 0 0 RC
1 LJ
2.667 LW
N
113 177.969 M
113 177.853 L
S
GR
GS
[0.75 0 0 0.75 0 0] CT
0.18 0 0 RC
[8 8] 0 setdash
2 LJ
2.667 LW
N
786 281.441 M
668.701 183.593 L
629.198 185.174 L
601.17 187.735 L
561.667 177.835 L
539.927 178.816 L
511.899 179.33 L
472.395 175.988 L
404.864 178.155 L
376.836 177.908 L
337.333 177.792 L
315.593 177.841 L
269.802 177.822 L
220.034 177.89 L
113 177.969 L
S
GR
GS
[0.75 0 0 0.75 501.52565 159.43928] CT
0.18 0 0 RC
N
f-401390582
f
GR
GS
[0.75 0 0 0.75 501.52565 159.43928] CT
0.18 0 0 RC
10.0 ML
2.667 LW
N
-4 0 M
4 0 L
S
GR
GS
[0.75 0 0 0.75 471.89827 156.48451] CT
0.18 0 0 RC
N
f-401390582
f
GR
GS
[0.75 0 0 0.75 471.89827 156.48451] CT
0.18 0 0 RC
10.0 ML
2.667 LW
N
-4 0 M
4 0 L
S
GR
GS
[0.75 0 0 0.75 450.87735 151.65771] CT
0.18 0 0 RC
N
f-401390582
f
GR
GS
[0.75 0 0 0.75 450.87735 151.65771] CT
0.18 0 0 RC
10.0 ML
2.667 LW
N
-4 0 M
4 0 L
S
GR
GS
[0.75 0 0 0.75 421.25002 142.88559] CT
0.18 0 0 RC
N
f-401390582
f
GR
GS
[0.75 0 0 0.75 421.25002 142.88559] CT
0.18 0 0 RC
10.0 ML
2.667 LW
N
-4 0 M
4 0 L
S
GR
GS
[0.75 0 0 0.75 404.94489 140.96349] CT
0.18 0 0 RC
N
f-401390582
f
GR
GS
[0.75 0 0 0.75 404.94489 140.96349] CT
0.18 0 0 RC
10.0 ML
2.667 LW
N
-4 0 M
4 0 L
S
GR
GS
[0.75 0 0 0.75 383.92397 138.31439] CT
0.18 0 0 RC
N
f-401390582
f
GR
GS
[0.75 0 0 0.75 383.92397 138.31439] CT
0.18 0 0 RC
10.0 ML
2.667 LW
N
-4 0 M
4 0 L
S
GR
GS
[0.75 0 0 0.75 354.29661 134.67719] CT
0.18 0 0 RC
N
f-401390582
f
GR
GS
[0.75 0 0 0.75 354.29661 134.67719] CT
0.18 0 0 RC
10.0 ML
2.667 LW
N
-4 0 M
4 0 L
S
GR
GS
[0.75 0 0 0.75 303.64828 134.99463] CT
0.18 0 0 RC
N
f-401390582
f
GR
GS
[0.75 0 0 0.75 303.64828 134.99463] CT
0.18 0 0 RC
10.0 ML
2.667 LW
N
-4 0 M
4 0 L
S
GR
GS
[0.75 0 0 0.75 282.62734 134.81574] CT
0.18 0 0 RC
N
f-401390582
f
GR
GS
[0.75 0 0 0.75 282.62734 134.81574] CT
0.18 0 0 RC
10.0 ML
2.667 LW
N
-4 0 M
4 0 L
S
GR
GS
[0.75 0 0 0.75 253.00001 134.06139] CT
0.18 0 0 RC
N
f-401390582
f
GR
GS
[0.75 0 0 0.75 253.00001 134.06139] CT
0.18 0 0 RC
10.0 ML
2.667 LW
N
-4 0 M
4 0 L
S
GR
GS
[0.75 0 0 0.75 236.6949 134.02094] CT
0.18 0 0 RC
N
f-401390582
f
GR
GS
[0.75 0 0 0.75 236.6949 134.02094] CT
0.18 0 0 RC
10.0 ML
2.667 LW
N
-4 0 M
4 0 L
S
GR
GS
[0.75 0 0 0.75 202.35171 133.71697] CT
0.18 0 0 RC
N
f-401390582
f
GR
GS
[0.75 0 0 0.75 202.35171 133.71697] CT
0.18 0 0 RC
10.0 ML
2.667 LW
N
-4 0 M
4 0 L
S
GR
GS
[0.75 0 0 0.75 165.02566 133.64185] CT
0.18 0 0 RC
N
f-401390582
f
GR
GS
[0.75 0 0 0.75 165.02566 133.64185] CT
0.18 0 0 RC
10.0 ML
2.667 LW
N
-4 0 M
4 0 L
S
GR
GS
[0.75 0 0 0.75 84.75 133.56434] CT
0.18 0 0 RC
N
f-401390582
f
GR
GS
[0.75 0 0 0.75 84.75 133.56434] CT
0.18 0 0 RC
10.0 ML
2.667 LW
N
-4 0 M
4 0 L
S
GR
GS
[0.75 0 0 0.75 589.5 125.14214] CT
0.18 0 0 RC
N
f-401390582
f
GR
GS
[0.75 0 0 0.75 589.5 125.14214] CT
0.18 0 0 RC
10.0 ML
2.667 LW
N
-4 0 M
4 0 L
S
GR
GS
[0.75 0 0 0.75 501.52565 116.07184] CT
0.18 0 0 RC
N
f-401390582
f
GR
GS
[0.75 0 0 0.75 501.52565 116.07184] CT
0.18 0 0 RC
10.0 ML
2.667 LW
N
-4 0 M
4 0 L
S
GR
GS
[0.75 0 0 0.75 471.89827 121.35642] CT
0.18 0 0 RC
N
f-401390582
f
GR
GS
[0.75 0 0 0.75 471.89827 121.35642] CT
0.18 0 0 RC
10.0 ML
2.667 LW
N
-4 0 M
4 0 L
S
GR
GS
[0.75 0 0 0.75 450.87735 129.97548] CT
0.18 0 0 RC
N
f-401390582
f
GR
GS
[0.75 0 0 0.75 450.87735 129.97548] CT
0.18 0 0 RC
10.0 ML
2.667 LW
N
-4 0 M
4 0 L
S
GR
GS
[0.75 0 0 0.75 421.25002 123.88986] CT
0.18 0 0 RC
N
f-401390582
f
GR
GS
[0.75 0 0 0.75 421.25002 123.88986] CT
0.18 0 0 RC
10.0 ML
2.667 LW
N
-4 0 M
4 0 L
S
GR
GS
[0.75 0 0 0.75 404.94489 127.27258] CT
0.18 0 0 RC
N
f-401390582
f
GR
GS
[0.75 0 0 0.75 404.94489 127.27258] CT
0.18 0 0 RC
10.0 ML
2.667 LW
N
-4 0 M
4 0 L
S
GR
GS
[0.75 0 0 0.75 383.92397 130.68364] CT
0.18 0 0 RC
N
f-401390582
f
GR
GS
[0.75 0 0 0.75 383.92397 130.68364] CT
0.18 0 0 RC
10.0 ML
2.667 LW
N
-4 0 M
4 0 L
S
GR
GS
[0.75 0 0 0.75 354.29661 129.30618] CT
0.18 0 0 RC
N
f-401390582
f
GR
GS
[0.75 0 0 0.75 354.29661 129.30618] CT
0.18 0 0 RC
10.0 ML
2.667 LW
N
-4 0 M
4 0 L
S
GR
GS
[0.75 0 0 0.75 303.64828 132.23816] CT
0.18 0 0 RC
N
f-401390582
f
GR
GS
[0.75 0 0 0.75 303.64828 132.23816] CT
0.18 0 0 RC
10.0 ML
2.667 LW
N
-4 0 M
4 0 L
S
GR
GS
[0.75 0 0 0.75 282.62734 132.04641] CT
0.18 0 0 RC
N
f-401390582
f
GR
GS
[0.75 0 0 0.75 282.62734 132.04641] CT
0.18 0 0 RC
10.0 ML
2.667 LW
N
-4 0 M
4 0 L
S
GR
GS
[0.75 0 0 0.75 253.00001 132.62671] CT
0.18 0 0 RC
N
f-401390582
f
GR
GS
[0.75 0 0 0.75 253.00001 132.62671] CT
0.18 0 0 RC
10.0 ML
2.667 LW
N
-4 0 M
4 0 L
S
GR
GS
[0.75 0 0 0.75 236.6949 132.74109] CT
0.18 0 0 RC
N
f-401390582
f
GR
GS
[0.75 0 0 0.75 236.6949 132.74109] CT
0.18 0 0 RC
10.0 ML
2.667 LW
N
-4 0 M
4 0 L
S
GR
GS
[0.75 0 0 0.75 202.35171 133.01554] CT
0.18 0 0 RC
N
f-401390582
f
GR
GS
[0.75 0 0 0.75 202.35171 133.01554] CT
0.18 0 0 RC
10.0 ML
2.667 LW
N
-4 0 M
4 0 L
S
GR
GS
[0.75 0 0 0.75 165.02566 133.19338] CT
0.18 0 0 RC
N
f-401390582
f
GR
GS
[0.75 0 0 0.75 165.02566 133.19338] CT
0.18 0 0 RC
10.0 ML
2.667 LW
N
-4 0 M
4 0 L
S
GR
GS
[0.75 0 0 0.75 84.75 133.3899] CT
0.18 0 0 RC
N
f-401390582
f
GR
GS
[0.75 0 0 0.75 84.75 133.3899] CT
0.18 0 0 RC
10.0 ML
2.667 LW
N
-4 0 M
4 0 L
S
GR
GS
[0.75 0 0 0.75 0 0] CT
0.275 0 0 RC
1 LJ
2.667 LW
N
668.701 80.11 M
668.701 265.414 L
S
GR
GS
[0.75 0 0 0.75 0 0] CT
0.275 0 0 RC
1 LJ
2.667 LW
N
629.198 263.947 M
629.198 332.036 L
S
GR
GS
[0.75 0 0 0.75 0 0] CT
0.275 0 0 RC
1 LJ
2.667 LW
N
601.17 194.012 M
601.17 280.895 L
S
GR
GS
[0.75 0 0 0.75 0 0] CT
0.275 0 0 RC
1 LJ
2.667 LW
N
561.667 209.22 M
561.667 254.924 L
S
GR
GS
[0.75 0 0 0.75 0 0] CT
0.275 0 0 RC
1 LJ
2.667 LW
N
539.927 206.311 M
539.927 244.791 L
S
GR
GS
[0.75 0 0 0.75 0 0] CT
0.275 0 0 RC
1 LJ
2.667 LW
N
511.899 201.167 M
511.899 231.481 L
S
GR
GS
[0.75 0 0 0.75 0 0] CT
0.275 0 0 RC
1 LJ
2.667 LW
N
472.395 188.826 M
472.395 213.536 L
S
GR
GS
[0.75 0 0 0.75 0 0] CT
0.275 0 0 RC
1 LJ
2.667 LW
N
404.864 179.527 M
404.864 189.911 L
S
GR
GS
[0.75 0 0 0.75 0 0] CT
0.275 0 0 RC
1 LJ
2.667 LW
N
376.836 180.463 M
376.836 188.311 L
S
GR
GS
[0.75 0 0 0.75 0 0] CT
0.275 0 0 RC
1 LJ
2.667 LW
N
337.333 178.058 M
337.333 184.04 L
S
GR
GS
[0.75 0 0 0.75 0 0] CT
0.275 0 0 RC
1 LJ
2.667 LW
N
315.593 177.612 M
315.593 183.193 L
S
GR
GS
[0.75 0 0 0.75 0 0] CT
0.275 0 0 RC
1 LJ
2.667 LW
N
269.802 178.315 M
269.802 180.78 L
S
GR
GS
[0.75 0 0 0.75 0 0] CT
0.275 0 0 RC
1 LJ
2.667 LW
N
220.034 177.872 M
220.034 179.552 L
S
GR
GS
[0.75 0 0 0.75 0 0] CT
0.275 0 0 RC
1 LJ
2.667 LW
N
113 177.933 M
113 178.44 L
S
GR
GS
[0.75 0 0 0.75 0 0] CT
0.275 0 0 RC
1 LJ
2.667 LW
N
668.701 80.11 M
668.701 29.964 L
S
GR
GS
[0.75 0 0 0.75 0 0] CT
0.275 0 0 RC
1 LJ
2.667 LW
N
629.198 263.947 M
629.198 181.997 L
S
GR
GS
[0.75 0 0 0.75 0 0] CT
0.275 0 0 RC
1 LJ
2.667 LW
N
601.17 194.012 M
601.17 108.576 L
S
GR
GS
[0.75 0 0 0.75 0 0] CT
0.275 0 0 RC
1 LJ
2.667 LW
N
561.667 209.22 M
561.667 163.92 L
S
GR
GS
[0.75 0 0 0.75 0 0] CT
0.275 0 0 RC
1 LJ
2.667 LW
N
539.927 206.311 M
539.927 168.117 L
S
GR
GS
[0.75 0 0 0.75 0 0] CT
0.275 0 0 RC
1 LJ
2.667 LW
N
511.899 201.167 M
511.899 171.031 L
S
GR
GS
[0.75 0 0 0.75 0 0] CT
0.275 0 0 RC
1 LJ
2.667 LW
N
472.395 188.826 M
472.395 164.234 L
S
GR
GS
[0.75 0 0 0.75 0 0] CT
0.275 0 0 RC
1 LJ
2.667 LW
N
404.864 179.527 M
404.864 169.164 L
S
GR
GS
[0.75 0 0 0.75 0 0] CT
0.275 0 0 RC
1 LJ
2.667 LW
N
376.836 180.463 M
376.836 172.627 L
S
GR
GS
[0.75 0 0 0.75 0 0] CT
0.275 0 0 RC
1 LJ
2.667 LW
N
337.333 178.058 M
337.333 172.083 L
S
GR
GS
[0.75 0 0 0.75 0 0] CT
0.275 0 0 RC
1 LJ
2.667 LW
N
315.593 177.612 M
315.593 172.038 L
S
GR
GS
[0.75 0 0 0.75 0 0] CT
0.275 0 0 RC
1 LJ
2.667 LW
N
269.802 178.315 M
269.802 175.852 L
S
GR
GS
[0.75 0 0 0.75 0 0] CT
0.275 0 0 RC
1 LJ
2.667 LW
N
220.034 177.872 M
220.034 176.194 L
S
GR
GS
[0.75 0 0 0.75 0 0] CT
0.275 0 0 RC
1 LJ
2.667 LW
N
113 177.933 M
113 177.425 L
S
GR
GS
[0.75 0 0 0.75 0 0] CT
0.275 0 0 RC
[2 2] 0 setdash
2 LJ
2.667 LW
N
669.259 29.964 M
668.701 80.11 L
629.198 263.947 L
601.17 194.012 L
561.667 209.22 L
539.927 206.311 L
511.899 201.167 L
472.395 188.826 L
404.864 179.527 L
376.836 180.463 L
337.333 178.058 L
315.593 177.612 L
269.802 178.315 L
220.034 177.872 L
113 177.933 L
S
GR
GS
[0.75 0 0 0.75 501.52565 199.06018] CT
0.275 0 0 RC
N
f-401390582
f
GR
GS
[0.75 0 0 0.75 501.52565 199.06018] CT
0.275 0 0 RC
10.0 ML
2.667 LW
N
-4 0 M
4 0 L
S
GR
GS
[0.75 0 0 0.75 450.87735 210.67136] CT
0.275 0 0 RC
N
f-401390582
f
GR
GS
[0.75 0 0 0.75 450.87735 210.67136] CT
0.275 0 0 RC
10.0 ML
2.667 LW
N
-4 0 M
4 0 L
S
GR
GS
[0.75 0 0 0.75 421.25002 191.1931] CT
0.275 0 0 RC
N
f-401390582
f
GR
GS
[0.75 0 0 0.75 421.25002 191.1931] CT
0.275 0 0 RC
10.0 ML
2.667 LW
N
-4 0 M
4 0 L
S
GR
GS
[0.75 0 0 0.75 404.94489 183.59323] CT
0.275 0 0 RC
N
f-401390582
f
GR
GS
[0.75 0 0 0.75 404.94489 183.59323] CT
0.275 0 0 RC
10.0 ML
2.667 LW
N
-4 0 M
4 0 L
S
GR
GS
[0.75 0 0 0.75 383.92397 173.61105] CT
0.275 0 0 RC
N
f-401390582
f
GR
GS
[0.75 0 0 0.75 383.92397 173.61105] CT
0.275 0 0 RC
10.0 ML
2.667 LW
N
-4 0 M
4 0 L
S
GR
GS
[0.75 0 0 0.75 354.29661 160.15228] CT
0.275 0 0 RC
N
f-401390582
f
GR
GS
[0.75 0 0 0.75 354.29661 160.15228] CT
0.275 0 0 RC
10.0 ML
2.667 LW
N
-4 0 M
4 0 L
S
GR
GS
[0.75 0 0 0.75 303.64828 142.43288] CT
0.275 0 0 RC
N
f-401390582
f
GR
GS
[0.75 0 0 0.75 303.64828 142.43288] CT
0.275 0 0 RC
10.0 ML
2.667 LW
N
-4 0 M
4 0 L
S
GR
GS
[0.75 0 0 0.75 282.62734 141.23304] CT
0.275 0 0 RC
N
f-401390582
f
GR
GS
[0.75 0 0 0.75 282.62734 141.23304] CT
0.275 0 0 RC
10.0 ML
2.667 LW
N
-4 0 M
4 0 L
S
GR
GS
[0.75 0 0 0.75 253.00001 138.03017] CT
0.275 0 0 RC
N
f-401390582
f
GR
GS
[0.75 0 0 0.75 253.00001 138.03017] CT
0.275 0 0 RC
10.0 ML
2.667 LW
N
-4 0 M
4 0 L
S
GR
GS
[0.75 0 0 0.75 236.6949 137.39442] CT
0.275 0 0 RC
N
f-401390582
f
GR
GS
[0.75 0 0 0.75 236.6949 137.39442] CT
0.275 0 0 RC
10.0 ML
2.667 LW
N
-4 0 M
4 0 L
S
GR
GS
[0.75 0 0 0.75 202.35171 135.58494] CT
0.275 0 0 RC
N
f-401390582
f
GR
GS
[0.75 0 0 0.75 202.35171 135.58494] CT
0.275 0 0 RC
10.0 ML
2.667 LW
N
-4 0 M
4 0 L
S
GR
GS
[0.75 0 0 0.75 165.02566 134.6638] CT
0.275 0 0 RC
N
f-401390582
f
GR
GS
[0.75 0 0 0.75 165.02566 134.6638] CT
0.275 0 0 RC
10.0 ML
2.667 LW
N
-4 0 M
4 0 L
S
GR
GS
[0.75 0 0 0.75 84.75 133.83033] CT
0.275 0 0 RC
N
f-401390582
f
GR
GS
[0.75 0 0 0.75 84.75 133.83033] CT
0.275 0 0 RC
10.0 ML
2.667 LW
N
-4 0 M
4 0 L
S
GR
GS
[0.75 0 0 0.75 471.89827 136.49757] CT
0.275 0 0 RC
N
f-401390582
f
GR
GS
[0.75 0 0 0.75 471.89827 136.49757] CT
0.275 0 0 RC
10.0 ML
2.667 LW
N
-4 0 M
4 0 L
S
GR
GS
[0.75 0 0 0.75 450.87735 81.43177] CT
0.275 0 0 RC
N
f-401390582
f
GR
GS
[0.75 0 0 0.75 450.87735 81.43177] CT
0.275 0 0 RC
10.0 ML
2.667 LW
N
-4 0 M
4 0 L
S
GR
GS
[0.75 0 0 0.75 421.25002 122.94007] CT
0.275 0 0 RC
N
f-401390582
f
GR
GS
[0.75 0 0 0.75 421.25002 122.94007] CT
0.275 0 0 RC
10.0 ML
2.667 LW
N
-4 0 M
4 0 L
S
GR
GS
[0.75 0 0 0.75 404.94489 126.0879] CT
0.275 0 0 RC
N
f-401390582
f
GR
GS
[0.75 0 0 0.75 404.94489 126.0879] CT
0.275 0 0 RC
10.0 ML
2.667 LW
N
-4 0 M
4 0 L
S
GR
GS
[0.75 0 0 0.75 383.92397 128.27339] CT
0.275 0 0 RC
N
f-401390582
f
GR
GS
[0.75 0 0 0.75 383.92397 128.27339] CT
0.275 0 0 RC
10.0 ML
2.667 LW
N
-4 0 M
4 0 L
S
GR
GS
[0.75 0 0 0.75 354.29661 123.1752] CT
0.275 0 0 RC
N
f-401390582
f
GR
GS
[0.75 0 0 0.75 354.29661 123.1752] CT
0.275 0 0 RC
10.0 ML
2.667 LW
N
-4 0 M
4 0 L
S
GR
GS
[0.75 0 0 0.75 303.64828 126.87324] CT
0.275 0 0 RC
N
f-401390582
f
GR
GS
[0.75 0 0 0.75 303.64828 126.87324] CT
0.275 0 0 RC
10.0 ML
2.667 LW
N
-4 0 M
4 0 L
S
GR
GS
[0.75 0 0 0.75 282.62734 129.47] CT
0.275 0 0 RC
N
f-401390582
f
GR
GS
[0.75 0 0 0.75 282.62734 129.47] CT
0.275 0 0 RC
10.0 ML
2.667 LW
N
-4 0 M
4 0 L
S
GR
GS
[0.75 0 0 0.75 253.00001 129.06206] CT
0.275 0 0 RC
N
f-401390582
f
GR
GS
[0.75 0 0 0.75 253.00001 129.06206] CT
0.275 0 0 RC
10.0 ML
2.667 LW
N
-4 0 M
4 0 L
S
GR
GS
[0.75 0 0 0.75 236.6949 129.02875] CT
0.275 0 0 RC
N
f-401390582
f
GR
GS
[0.75 0 0 0.75 236.6949 129.02875] CT
0.275 0 0 RC
10.0 ML
2.667 LW
N
-4 0 M
4 0 L
S
GR
GS
[0.75 0 0 0.75 202.35171 131.8888] CT
0.275 0 0 RC
N
f-401390582
f
GR
GS
[0.75 0 0 0.75 202.35171 131.8888] CT
0.275 0 0 RC
10.0 ML
2.667 LW
N
-4 0 M
4 0 L
S
GR
GS
[0.75 0 0 0.75 165.02566 132.14537] CT
0.275 0 0 RC
N
f-401390582
f
GR
GS
[0.75 0 0 0.75 165.02566 132.14537] CT
0.275 0 0 RC
10.0 ML
2.667 LW
N
-4 0 M
4 0 L
S
GR
GS
[0.75 0 0 0.75 84.75 133.06851] CT
0.275 0 0 RC
N
f-401390582
f
GR
GS
[0.75 0 0 0.75 84.75 133.06851] CT
0.275 0 0 RC
10.0 ML
2.667 LW
N
-4 0 M
4 0 L
S
GR
GS
[0.75 0 0 0.75 0 0] CT
0.365 0 0 RC
1 LJ
2.667 LW
N
561.667 190.815 M
561.667 332.036 L
S
GR
GS
[0.75 0 0 0.75 0 0] CT
0.365 0 0 RC
1 LJ
2.667 LW
N
539.927 237.48 M
539.927 332.036 L
S
GR
GS
[0.75 0 0 0.75 0 0] CT
0.365 0 0 RC
1 LJ
2.667 LW
N
511.899 291.509 M
511.899 332.036 L
S
GR
GS
[0.75 0 0 0.75 0 0] CT
0.365 0 0 RC
1 LJ
2.667 LW
N
472.395 223.882 M
472.395 287.036 L
S
GR
GS
[0.75 0 0 0.75 0 0] CT
0.365 0 0 RC
1 LJ
2.667 LW
N
404.864 196.288 M
404.864 229.676 L
S
GR
GS
[0.75 0 0 0.75 0 0] CT
0.365 0 0 RC
1 LJ
2.667 LW
N
376.836 186.2 M
376.836 211.576 L
S
GR
GS
[0.75 0 0 0.75 0 0] CT
0.365 0 0 RC
1 LJ
2.667 LW
N
337.333 181.247 M
337.333 196.186 L
S
GR
GS
[0.75 0 0 0.75 0 0] CT
0.365 0 0 RC
1 LJ
2.667 LW
N
315.593 179.37 M
315.593 192.665 L
S
GR
GS
[0.75 0 0 0.75 0 0] CT
0.365 0 0 RC
1 LJ
2.667 LW
N
269.802 180.16 M
269.802 185.747 L
S
GR
GS
[0.75 0 0 0.75 0 0] CT
0.365 0 0 RC
1 LJ
2.667 LW
N
220.034 179.16 M
220.034 184.573 L
S
GR
GS
[0.75 0 0 0.75 0 0] CT
0.365 0 0 RC
1 LJ
2.667 LW
N
113 178.025 M
113 180.117 L
S
GR
GS
[0.75 0 0 0.75 0 0] CT
0.365 0 0 RC
1 LJ
2.667 LW
N
561.667 190.815 M
561.667 29.964 L
S
GR
GS
[0.75 0 0 0.75 0 0] CT
0.365 0 0 RC
1 LJ
2.667 LW
N
539.927 237.48 M
539.927 91.917 L
S
GR
GS
[0.75 0 0 0.75 0 0] CT
0.365 0 0 RC
1 LJ
2.667 LW
N
511.899 291.509 M
511.899 197.201 L
S
GR
GS
[0.75 0 0 0.75 0 0] CT
0.365 0 0 RC
1 LJ
2.667 LW
N
472.395 223.882 M
472.395 161.495 L
S
GR
GS
[0.75 0 0 0.75 0 0] CT
0.365 0 0 RC
1 LJ
2.667 LW
N
404.864 196.288 M
404.864 163.115 L
S
GR
GS
[0.75 0 0 0.75 0 0] CT
0.365 0 0 RC
1 LJ
2.667 LW
N
376.836 186.2 M
376.836 160.949 L
S
GR
GS
[0.75 0 0 0.75 0 0] CT
0.365 0 0 RC
1 LJ
2.667 LW
N
337.333 181.247 M
337.333 166.352 L
S
GR
GS
[0.75 0 0 0.75 0 0] CT
0.365 0 0 RC
1 LJ
2.667 LW
N
315.593 179.37 M
315.593 166.111 L
S
GR
GS
[0.75 0 0 0.75 0 0] CT
0.365 0 0 RC
1 LJ
2.667 LW
N
269.802 180.16 M
269.802 174.579 L
S
GR
GS
[0.75 0 0 0.75 0 0] CT
0.365 0 0 RC
1 LJ
2.667 LW
N
220.034 179.16 M
220.034 173.752 L
S
GR
GS
[0.75 0 0 0.75 0 0] CT
0.365 0 0 RC
1 LJ
2.667 LW
N
113 178.025 M
113 175.934 L
S
GR
GS
[0.75 0 0 0.75 0 0] CT
0.365 0 0 RC
[8 2 4 2] 0 setdash
2 LJ
2.667 LW
N
567.769 29.964 M
561.667 190.815 L
539.927 237.48 L
511.899 291.509 L
472.395 223.882 L
404.864 196.288 L
376.836 186.2 L
337.333 181.247 L
315.593 179.37 L
269.802 180.16 L
220.034 179.16 L
113 178.025 L
S
GR
GS
[0.75 0 0 0.75 354.29661 215.27701] CT
0.365 0 0 RC
N
f-401390582
f
GR
GS
[0.75 0 0 0.75 354.29661 215.27701] CT
0.365 0 0 RC
10.0 ML
2.667 LW
N
-4 0 M
4 0 L
S
GR
GS
[0.75 0 0 0.75 303.64828 172.25693] CT
0.365 0 0 RC
N
f-401390582
f
GR
GS
[0.75 0 0 0.75 303.64828 172.25693] CT
0.365 0 0 RC
10.0 ML
2.667 LW
N
-4 0 M
4 0 L
S
GR
GS
[0.75 0 0 0.75 282.62734 158.68196] CT
0.365 0 0 RC
N
f-401390582
f
GR
GS
[0.75 0 0 0.75 282.62734 158.68196] CT
0.365 0 0 RC
10.0 ML
2.667 LW
N
-4 0 M
4 0 L
S
GR
GS
[0.75 0 0 0.75 253.00001 147.13922] CT
0.365 0 0 RC
N
f-401390582
f
GR
GS
[0.75 0 0 0.75 253.00001 147.13922] CT
0.365 0 0 RC
10.0 ML
2.667 LW
N
-4 0 M
4 0 L
S
GR
GS
[0.75 0 0 0.75 236.6949 144.49847] CT
0.365 0 0 RC
N
f-401390582
f
GR
GS
[0.75 0 0 0.75 236.6949 144.49847] CT
0.365 0 0 RC
10.0 ML
2.667 LW
N
-4 0 M
4 0 L
S
GR
GS
[0.75 0 0 0.75 202.35171 139.30998] CT
0.365 0 0 RC
N
f-401390582
f
GR
GS
[0.75 0 0 0.75 202.35171 139.30998] CT
0.365 0 0 RC
10.0 ML
2.667 LW
N
-4 0 M
4 0 L
S
GR
GS
[0.75 0 0 0.75 165.02566 138.43002] CT
0.365 0 0 RC
N
f-401390582
f
GR
GS
[0.75 0 0 0.75 165.02566 138.43002] CT
0.365 0 0 RC
10.0 ML
2.667 LW
N
-4 0 M
4 0 L
S
GR
GS
[0.75 0 0 0.75 84.75 135.08757] CT
0.365 0 0 RC
N
f-401390582
f
GR
GS
[0.75 0 0 0.75 84.75 135.08757] CT
0.365 0 0 RC
10.0 ML
2.667 LW
N
-4 0 M
4 0 L
S
GR
GS
[0.75 0 0 0.75 404.94489 68.938] CT
0.365 0 0 RC
N
f-401390582
f
GR
GS
[0.75 0 0 0.75 404.94489 68.938] CT
0.365 0 0 RC
10.0 ML
2.667 LW
N
-4 0 M
4 0 L
S
GR
GS
[0.75 0 0 0.75 383.92397 147.90088] CT
0.365 0 0 RC
N
f-401390582
f
GR
GS
[0.75 0 0 0.75 383.92397 147.90088] CT
0.365 0 0 RC
10.0 ML
2.667 LW
N
-4 0 M
4 0 L
S
GR
GS
[0.75 0 0 0.75 354.29661 121.1213] CT
0.365 0 0 RC
N
f-401390582
f
GR
GS
[0.75 0 0 0.75 354.29661 121.1213] CT
0.365 0 0 RC
10.0 ML
2.667 LW
N
-4 0 M
4 0 L
S
GR
GS
[0.75 0 0 0.75 303.64828 122.33627] CT
0.365 0 0 RC
N
f-401390582
f
GR
GS
[0.75 0 0 0.75 303.64828 122.33627] CT
0.365 0 0 RC
10.0 ML
2.667 LW
N
-4 0 M
4 0 L
S
GR
GS
[0.75 0 0 0.75 282.62734 120.7114] CT
0.365 0 0 RC
N
f-401390582
f
GR
GS
[0.75 0 0 0.75 282.62734 120.7114] CT
0.365 0 0 RC
10.0 ML
2.667 LW
N
-4 0 M
4 0 L
S
GR
GS
[0.75 0 0 0.75 253.00001 124.76364] CT
0.365 0 0 RC
N
f-401390582
f
GR
GS
[0.75 0 0 0.75 253.00001 124.76364] CT
0.365 0 0 RC
10.0 ML
2.667 LW
N
-4 0 M
4 0 L
S
GR
GS
[0.75 0 0 0.75 236.6949 124.58289] CT
0.365 0 0 RC
N
f-401390582
f
GR
GS
[0.75 0 0 0.75 236.6949 124.58289] CT
0.365 0 0 RC
10.0 ML
2.667 LW
N
-4 0 M
4 0 L
S
GR
GS
[0.75 0 0 0.75 202.35171 130.93435] CT
0.365 0 0 RC
N
f-401390582
f
GR
GS
[0.75 0 0 0.75 202.35171 130.93435] CT
0.365 0 0 RC
10.0 ML
2.667 LW
N
-4 0 M
4 0 L
S
GR
GS
[0.75 0 0 0.75 165.02566 130.31422] CT
0.365 0 0 RC
N
f-401390582
f
GR
GS
[0.75 0 0 0.75 165.02566 130.31422] CT
0.365 0 0 RC
10.0 ML
2.667 LW
N
-4 0 M
4 0 L
S
GR
GS
[0.75 0 0 0.75 84.75 131.95052] CT
0.365 0 0 RC
N
f-401390582
f
GR
GS
[0.75 0 0 0.75 84.75 131.95052] CT
0.365 0 0 RC
10.0 ML
2.667 LW
N
-4 0 M
4 0 L
S
GR
GS
[0.75 0 0 0.75 0 0] CT
0.455 0 0 RC
1 LJ
2.667 LW
N
472.395 187.715 M
472.395 332.036 L
S
GR
GS
[0.75 0 0 0.75 0 0] CT
0.455 0 0 RC
1 LJ
2.667 LW
N
404.864 236.32 M
404.864 312.341 L
S
GR
GS
[0.75 0 0 0.75 0 0] CT
0.455 0 0 RC
1 LJ
2.667 LW
N
376.836 203.146 M
376.836 264.414 L
S
GR
GS
[0.75 0 0 0.75 0 0] CT
0.455 0 0 RC
1 LJ
2.667 LW
N
337.333 202.232 M
337.333 237.752 L
S
GR
GS
[0.75 0 0 0.75 0 0] CT
0.455 0 0 RC
1 LJ
2.667 LW
N
315.593 186.162 M
315.593 218.916 L
S
GR
GS
[0.75 0 0 0.75 0 0] CT
0.455 0 0 RC
1 LJ
2.667 LW
N
269.802 182.892 M
269.802 198.687 L
S
GR
GS
[0.75 0 0 0.75 0 0] CT
0.455 0 0 RC
1 LJ
2.667 LW
N
220.034 179.282 M
220.034 189.59 L
S
GR
GS
[0.75 0 0 0.75 0 0] CT
0.455 0 0 RC
1 LJ
2.667 LW
N
113 176.758 M
113 180.84 L
S
GR
GS
[0.75 0 0 0.75 0 0] CT
0.455 0 0 RC
1 LJ
2.667 LW
N
472.395 187.715 M
472.395 29.964 L
S
GR
GS
[0.75 0 0 0.75 0 0] CT
0.455 0 0 RC
1 LJ
2.667 LW
N
404.864 236.32 M
404.864 161.409 L
S
GR
GS
[0.75 0 0 0.75 0 0] CT
0.455 0 0 RC
1 LJ
2.667 LW
N
376.836 203.146 M
376.836 142.6 L
S
GR
GS
[0.75 0 0 0.75 0 0] CT
0.455 0 0 RC
1 LJ
2.667 LW
N
337.333 202.232 M
337.333 166.955 L
S
GR
GS
[0.75 0 0 0.75 0 0] CT
0.455 0 0 RC
1 LJ
2.667 LW
N
315.593 186.162 M
315.593 153.616 L
S
GR
GS
[0.75 0 0 0.75 0 0] CT
0.455 0 0 RC
1 LJ
2.667 LW
N
269.802 182.892 M
269.802 167.146 L
S
GR
GS
[0.75 0 0 0.75 0 0] CT
0.455 0 0 RC
1 LJ
2.667 LW
N
220.034 179.282 M
220.034 168.994 L
S
GR
GS
[0.75 0 0 0.75 0 0] CT
0.455 0 0 RC
1 LJ
2.667 LW
N
113 176.758 M
113 172.678 L
S
GR
GS
[0.75 0 0 0.75 0 0] CT
0.455 0 0 RC
1 LJ
2.667 LW
N
482.244 29.964 M
472.395 187.715 L
404.864 236.32 L
376.836 203.146 L
337.333 202.232 L
315.593 186.162 L
269.802 182.892 L
220.034 179.282 L
113 176.758 L
S
GR
GS
[0.75 0 0 0.75 303.64828 234.2558] CT
0.455 0 0 RC
N
f-401390582
f
GR
GS
[0.75 0 0 0.75 303.64828 234.2558] CT
0.455 0 0 RC
10.0 ML
2.667 LW
N
-4 0 M
4 0 L
S
GR
GS
[0.75 0 0 0.75 282.62734 198.31041] CT
0.455 0 0 RC
N
f-401390582
f
GR
GS
[0.75 0 0 0.75 282.62734 198.31041] CT
0.455 0 0 RC
10.0 ML
2.667 LW
N
-4 0 M
4 0 L
S
GR
GS
[0.75 0 0 0.75 253.00001 178.31432] CT
0.455 0 0 RC
N
f-401390582
f
GR
GS
[0.75 0 0 0.75 253.00001 178.31432] CT
0.455 0 0 RC
10.0 ML
2.667 LW
N
-4 0 M
4 0 L
S
GR
GS
[0.75 0 0 0.75 236.6949 164.18719] CT
0.455 0 0 RC
N
f-401390582
f
GR
GS
[0.75 0 0 0.75 236.6949 164.18719] CT
0.455 0 0 RC
10.0 ML
2.667 LW
N
-4 0 M
4 0 L
S
GR
GS
[0.75 0 0 0.75 202.35171 149.01538] CT
0.455 0 0 RC
N
f-401390582
f
GR
GS
[0.75 0 0 0.75 202.35171 149.01538] CT
0.455 0 0 RC
10.0 ML
2.667 LW
N
-4 0 M
4 0 L
S
GR
GS
[0.75 0 0 0.75 165.02566 142.19227] CT
0.455 0 0 RC
N
f-401390582
f
GR
GS
[0.75 0 0 0.75 165.02566 142.19227] CT
0.455 0 0 RC
10.0 ML
2.667 LW
N
-4 0 M
4 0 L
S
GR
GS
[0.75 0 0 0.75 84.75 135.63001] CT
0.455 0 0 RC
N
f-401390582
f
GR
GS
[0.75 0 0 0.75 84.75 135.63001] CT
0.455 0 0 RC
10.0 ML
2.667 LW
N
-4 0 M
4 0 L
S
GR
GS
[0.75 0 0 0.75 303.64828 121.05692] CT
0.455 0 0 RC
N
f-401390582
f
GR
GS
[0.75 0 0 0.75 303.64828 121.05692] CT
0.455 0 0 RC
10.0 ML
2.667 LW
N
-4 0 M
4 0 L
S
GR
GS
[0.75 0 0 0.75 282.62734 106.95031] CT
0.455 0 0 RC
N
f-401390582
f
GR
GS
[0.75 0 0 0.75 282.62734 106.95031] CT
0.455 0 0 RC
10.0 ML
2.667 LW
N
-4 0 M
4 0 L
S
GR
GS
[0.75 0 0 0.75 253.00001 125.21626] CT
0.455 0 0 RC
N
f-401390582
f
GR
GS
[0.75 0 0 0.75 253.00001 125.21626] CT
0.455 0 0 RC
10.0 ML
2.667 LW
N
-4 0 M
4 0 L
S
GR
GS
[0.75 0 0 0.75 236.6949 115.21224] CT
0.455 0 0 RC
N
f-401390582
f
GR
GS
[0.75 0 0 0.75 236.6949 115.21224] CT
0.455 0 0 RC
10.0 ML
2.667 LW
N
-4 0 M
4 0 L
S
GR
GS
[0.75 0 0 0.75 202.35171 125.35921] CT
0.455 0 0 RC
N
f-401390582
f
GR
GS
[0.75 0 0 0.75 202.35171 125.35921] CT
0.455 0 0 RC
10.0 ML
2.667 LW
N
-4 0 M
4 0 L
S
GR
GS
[0.75 0 0 0.75 165.02566 126.7457] CT
0.455 0 0 RC
N
f-401390582
f
GR
GS
[0.75 0 0 0.75 165.02566 126.7457] CT
0.455 0 0 RC
10.0 ML
2.667 LW
N
-4 0 M
4 0 L
S
GR
GS
[0.75 0 0 0.75 84.75 129.50879] CT
0.455 0 0 RC
N
f-401390582
f
GR
GS
[0.75 0 0 0.75 84.75 129.50879] CT
0.455 0 0 RC
10.0 ML
2.667 LW
N
-4 0 M
4 0 L
S
GR
GS
[0.75 0 0 0.75 0 0] CT
0.545 0 0 RC
1 LJ
2.667 LW
N
404.864 161.342 M
404.864 278.578 L
S
GR
GS
[0.75 0 0 0.75 0 0] CT
0.545 0 0 RC
1 LJ
2.667 LW
N
376.836 279.54 M
376.836 332.036 L
S
GR
GS
[0.75 0 0 0.75 0 0] CT
0.545 0 0 RC
1 LJ
2.667 LW
N
337.333 196.863 M
337.333 273.359 L
S
GR
GS
[0.75 0 0 0.75 0 0] CT
0.545 0 0 RC
1 LJ
2.667 LW
N
315.593 212.981 M
315.593 266.561 L
S
GR
GS
[0.75 0 0 0.75 0 0] CT
0.545 0 0 RC
1 LJ
2.667 LW
N
269.802 196.711 M
269.802 238.098 L
S
GR
GS
[0.75 0 0 0.75 0 0] CT
0.545 0 0 RC
1 LJ
2.667 LW
N
220.034 182.607 M
220.034 199.533 L
S
GR
GS
[0.75 0 0 0.75 0 0] CT
0.545 0 0 RC
1 LJ
2.667 LW
N
113 177.513 M
113 184.688 L
S
GR
GS
[0.75 0 0 0.75 0 0] CT
0.545 0 0 RC
1 LJ
2.667 LW
N
404.864 161.342 M
404.864 46.724 L
S
GR
GS
[0.75 0 0 0.75 0 0] CT
0.545 0 0 RC
1 LJ
2.667 LW
N
376.836 279.54 M
376.836 167.336 L
S
GR
GS
[0.75 0 0 0.75 0 0] CT
0.545 0 0 RC
1 LJ
2.667 LW
N
337.333 196.863 M
337.333 121.491 L
S
GR
GS
[0.75 0 0 0.75 0 0] CT
0.545 0 0 RC
1 LJ
2.667 LW
N
315.593 212.981 M
315.593 159.953 L
S
GR
GS
[0.75 0 0 0.75 0 0] CT
0.545 0 0 RC
1 LJ
2.667 LW
N
269.802 196.711 M
269.802 155.655 L
S
GR
GS
[0.75 0 0 0.75 0 0] CT
0.545 0 0 RC
1 LJ
2.667 LW
N
220.034 182.607 M
220.034 165.738 L
S
GR
GS
[0.75 0 0 0.75 0 0] CT
0.545 0 0 RC
1 LJ
2.667 LW
N
113 177.513 M
113 170.349 L
S
GR
GS
[0.75 0 0 0.75 0 0] CT
0.545 0 0 RC
[8 8] 0 setdash
2 LJ
2.667 LW
N
409.511 29.964 M
404.864 161.342 L
376.836 279.54 L
337.333 196.863 L
315.593 212.981 L
269.802 196.711 L
220.034 182.607 L
113 177.513 L
S
GR
GS
[0.75 0 0 0.75 303.64828 208.93346] CT
0.545 0 0 RC
N
f-401390582
f
GR
GS
[0.75 0 0 0.75 303.64828 208.93346] CT
0.545 0 0 RC
10.0 ML
2.667 LW
N
-4 0 M
4 0 L
S
GR
GS
[0.75 0 0 0.75 253.00001 205.01905] CT
0.545 0 0 RC
N
f-401390582
f
GR
GS
[0.75 0 0 0.75 253.00001 205.01905] CT
0.545 0 0 RC
10.0 ML
2.667 LW
N
-4 0 M
4 0 L
S
GR
GS
[0.75 0 0 0.75 236.6949 199.92098] CT
0.545 0 0 RC
N
f-401390582
f
GR
GS
[0.75 0 0 0.75 236.6949 199.92098] CT
0.545 0 0 RC
10.0 ML
2.667 LW
N
-4 0 M
4 0 L
S
GR
GS
[0.75 0 0 0.75 202.35171 178.57363] CT
0.545 0 0 RC
N
f-401390582
f
GR
GS
[0.75 0 0 0.75 202.35171 178.57363] CT
0.545 0 0 RC
10.0 ML
2.667 LW
N
-4 0 M
4 0 L
S
GR
GS
[0.75 0 0 0.75 165.02566 149.64943] CT
0.545 0 0 RC
N
f-401390582
f
GR
GS
[0.75 0 0 0.75 165.02566 149.64943] CT
0.545 0 0 RC
10.0 ML
2.667 LW
N
-4 0 M
4 0 L
S
GR
GS
[0.75 0 0 0.75 84.75 138.5159] CT
0.545 0 0 RC
N
f-401390582
f
GR
GS
[0.75 0 0 0.75 84.75 138.5159] CT
0.545 0 0 RC
10.0 ML
2.667 LW
N
-4 0 M
4 0 L
S
GR
GS
[0.75 0 0 0.75 303.64828 35.043] CT
0.545 0 0 RC
N
f-401390582
f
GR
GS
[0.75 0 0 0.75 303.64828 35.043] CT
0.545 0 0 RC
10.0 ML
2.667 LW
N
-4 0 M
4 0 L
S
GR
GS
[0.75 0 0 0.75 282.62734 125.50192] CT
0.545 0 0 RC
N
f-401390582
f
GR
GS
[0.75 0 0 0.75 282.62734 125.50192] CT
0.545 0 0 RC
10.0 ML
2.667 LW
N
-4 0 M
4 0 L
S
GR
GS
[0.75 0 0 0.75 253.00001 91.1181] CT
0.545 0 0 RC
N
f-401390582
f
GR
GS
[0.75 0 0 0.75 253.00001 91.1181] CT
0.545 0 0 RC
10.0 ML
2.667 LW
N
-4 0 M
4 0 L
S
GR
GS
[0.75 0 0 0.75 236.6949 119.96502] CT
0.545 0 0 RC
N
f-401390582
f
GR
GS
[0.75 0 0 0.75 236.6949 119.96502] CT
0.545 0 0 RC
10.0 ML
2.667 LW
N
-4 0 M
4 0 L
S
GR
GS
[0.75 0 0 0.75 202.35171 116.74132] CT
0.545 0 0 RC
N
f-401390582
f
GR
GS
[0.75 0 0 0.75 202.35171 116.74132] CT
0.545 0 0 RC
10.0 ML
2.667 LW
N
-4 0 M
4 0 L
S
GR
GS
[0.75 0 0 0.75 165.02566 124.30342] CT
0.545 0 0 RC
N
f-401390582
f
GR
GS
[0.75 0 0 0.75 165.02566 124.30342] CT
0.545 0 0 RC
10.0 ML
2.667 LW
N
-4 0 M
4 0 L
S
GR
GS
[0.75 0 0 0.75 84.75 127.76162] CT
0.545 0 0 RC
N
f-401390582
f
GR
GS
[0.75 0 0 0.75 84.75 127.76162] CT
0.545 0 0 RC
10.0 ML
2.667 LW
N
-4 0 M
4 0 L
S
GR
GS
[0.75 0 0 0.75 0 0] CT
0.635 0 0 RC
1 LJ
2.667 LW
N
376.836 42.228 M
376.836 217.242 L
S
GR
GS
[0.75 0 0 0.75 0 0] CT
0.635 0 0 RC
1 LJ
2.667 LW
N
337.333 255.771 M
337.333 332.036 L
S
GR
GS
[0.75 0 0 0.75 0 0] CT
0.635 0 0 RC
1 LJ
2.667 LW
N
315.593 297.221 M
315.593 332.036 L
S
GR
GS
[0.75 0 0 0.75 0 0] CT
0.635 0 0 RC
1 LJ
2.667 LW
N
269.802 210.203 M
269.802 254.543 L
S
GR
GS
[0.75 0 0 0.75 0 0] CT
0.635 0 0 RC
1 LJ
2.667 LW
N
220.034 191.732 M
220.034 233.21 L
S
GR
GS
[0.75 0 0 0.75 0 0] CT
0.635 0 0 RC
1 LJ
2.667 LW
N
113 176.71 M
113 189.115 L
S
GR
GS
[0.75 0 0 0.75 0 0] CT
0.635 0 0 RC
1 LJ
2.667 LW
N
376.836 42.228 M
376.836 29.964 L
S
GR
GS
[0.75 0 0 0.75 0 0] CT
0.635 0 0 RC
1 LJ
2.667 LW
N
337.333 255.771 M
337.333 150.401 L
S
GR
GS
[0.75 0 0 0.75 0 0] CT
0.635 0 0 RC
1 LJ
2.667 LW
N
315.593 297.221 M
315.593 221.1 L
S
GR
GS
[0.75 0 0 0.75 0 0] CT
0.635 0 0 RC
1 LJ
2.667 LW
N
269.802 210.203 M
269.802 166.244 L
S
GR
GS
[0.75 0 0 0.75 0 0] CT
0.635 0 0 RC
1 LJ
2.667 LW
N
220.034 191.732 M
220.034 150.585 L
S
GR
GS
[0.75 0 0 0.75 0 0] CT
0.635 0 0 RC
1 LJ
2.667 LW
N
113 176.71 M
113 164.334 L
S
GR
GS
[0.75 0 0 0.75 0 0] CT
0.635 0 0 RC
[2 2] 0 setdash
2 LJ
2.667 LW
N
377.311 29.964 M
376.836 42.228 L
337.333 255.771 L
315.593 297.221 L
269.802 210.203 L
220.034 191.732 L
113 176.71 L
S
GR
GS
[0.75 0 0 0.75 282.62734 162.93129] CT
0.635 0 0 RC
N
f-401390582
f
GR
GS
[0.75 0 0 0.75 282.62734 162.93129] CT
0.635 0 0 RC
10.0 ML
2.667 LW
N
-4 0 M
4 0 L
S
GR
GS
[0.75 0 0 0.75 202.35171 190.907] CT
0.635 0 0 RC
N
f-401390582
f
GR
GS
[0.75 0 0 0.75 202.35171 190.907] CT
0.635 0 0 RC
10.0 ML
2.667 LW
N
-4 0 M
4 0 L
S
GR
GS
[0.75 0 0 0.75 165.02566 174.90784] CT
0.635 0 0 RC
N
f-401390582
f
GR
GS
[0.75 0 0 0.75 165.02566 174.90784] CT
0.635 0 0 RC
10.0 ML
2.667 LW
N
-4 0 M
4 0 L
S
GR
GS
[0.75 0 0 0.75 84.75 141.83606] CT
0.635 0 0 RC
N
f-401390582
f
GR
GS
[0.75 0 0 0.75 84.75 141.83606] CT
0.635 0 0 RC
10.0 ML
2.667 LW
N
-4 0 M
4 0 L
S
GR
GS
[0.75 0 0 0.75 253.00001 112.80096] CT
0.635 0 0 RC
N
f-401390582
f
GR
GS
[0.75 0 0 0.75 253.00001 112.80096] CT
0.635 0 0 RC
10.0 ML
2.667 LW
N
-4 0 M
4 0 L
S
GR
GS
[0.75 0 0 0.75 236.6949 165.82476] CT
0.635 0 0 RC
N
f-401390582
f
GR
GS
[0.75 0 0 0.75 236.6949 165.82476] CT
0.635 0 0 RC
10.0 ML
2.667 LW
N
-4 0 M
4 0 L
S
GR
GS
[0.75 0 0 0.75 202.35171 124.68274] CT
0.635 0 0 RC
N
f-401390582
f
GR
GS
[0.75 0 0 0.75 202.35171 124.68274] CT
0.635 0 0 RC
10.0 ML
2.667 LW
N
-4 0 M
4 0 L
S
GR
GS
[0.75 0 0 0.75 165.02566 112.93895] CT
0.635 0 0 RC
N
f-401390582
f
GR
GS
[0.75 0 0 0.75 165.02566 112.93895] CT
0.635 0 0 RC
10.0 ML
2.667 LW
N
-4 0 M
4 0 L
S
GR
GS
[0.75 0 0 0.75 84.75 123.2508] CT
0.635 0 0 RC
N
f-401390582
f
GR
GS
[0.75 0 0 0.75 84.75 123.2508] CT
0.635 0 0 RC
10.0 ML
2.667 LW
N
-4 0 M
4 0 L
S
GR
GS
[0.75 0 0 0.75 0 0] CT
0.725 0 0 RC
1 LJ
2.667 LW
N
337.333 29.964 M
337.333 208.782 L
S
GR
GS
[0.75 0 0 0.75 0 0] CT
0.725 0 0 RC
1 LJ
2.667 LW
N
315.593 188.139 M
315.593 332.036 L
S
GR
GS
[0.75 0 0 0.75 0 0] CT
0.725 0 0 RC
1 LJ
2.667 LW
N
269.802 249.062 M
269.802 332.036 L
S
GR
GS
[0.75 0 0 0.75 0 0] CT
0.725 0 0 RC
1 LJ
2.667 LW
N
220.034 221.07 M
220.034 279.133 L
S
GR
GS
[0.75 0 0 0.75 0 0] CT
0.725 0 0 RC
1 LJ
2.667 LW
N
113 182.638 M
113 204.35 L
S
GR
GS
[0.75 0 0 0.75 0 0] CT
0.725 0 0 RC
1 LJ
2.667 LW
N
315.593 188.139 M
315.593 42.47 L
S
GR
GS
[0.75 0 0 0.75 0 0] CT
0.725 0 0 RC
1 LJ
2.667 LW
N
269.802 249.062 M
269.802 137.612 L
S
GR
GS
[0.75 0 0 0.75 0 0] CT
0.725 0 0 RC
1 LJ
2.667 LW
N
220.034 221.07 M
220.034 163.657 L
S
GR
GS
[0.75 0 0 0.75 0 0] CT
0.725 0 0 RC
1 LJ
2.667 LW
N
113 182.638 M
113 161.018 L
S
GR
GS
[0.75 0 0 0.75 0 0] CT
0.725 0 0 RC
[8 2 4 2] 0 setdash
2 LJ
2.667 LW
N
336.877 29.964 M
315.593 188.139 L
269.802 249.062 L
220.034 221.07 L
113 182.638 L
S
GR
GS
[0.75 0 0 0.75 253.00001 156.58646] CT
0.725 0 0 RC
N
f-401390582
f
GR
GS
[0.75 0 0 0.75 253.00001 156.58646] CT
0.725 0 0 RC
10.0 ML
2.667 LW
N
-4 0 M
4 0 L
S
GR
GS
[0.75 0 0 0.75 165.02566 209.34986] CT
0.725 0 0 RC
N
f-401390582
f
GR
GS
[0.75 0 0 0.75 165.02566 209.34986] CT
0.725 0 0 RC
10.0 ML
2.667 LW
N
-4 0 M
4 0 L
S
GR
GS
[0.75 0 0 0.75 84.75 153.26257] CT
0.725 0 0 RC
N
f-401390582
f
GR
GS
[0.75 0 0 0.75 84.75 153.26257] CT
0.725 0 0 RC
10.0 ML
2.667 LW
N
-4 0 M
4 0 L
S
GR
GS
[0.75 0 0 0.75 236.6949 31.85215] CT
0.725 0 0 RC
N
f-401390582
f
GR
GS
[0.75 0 0 0.75 236.6949 31.85215] CT
0.725 0 0 RC
10.0 ML
2.667 LW
N
-4 0 M
4 0 L
S
GR
GS
[0.75 0 0 0.75 202.35171 103.20902] CT
0.725 0 0 RC
N
f-401390582
f
GR
GS
[0.75 0 0 0.75 202.35171 103.20902] CT
0.725 0 0 RC
10.0 ML
2.667 LW
N
-4 0 M
4 0 L
S
GR
GS
[0.75 0 0 0.75 165.02566 122.74275] CT
0.725 0 0 RC
N
f-401390582
f
GR
GS
[0.75 0 0 0.75 165.02566 122.74275] CT
0.725 0 0 RC
10.0 ML
2.667 LW
N
-4 0 M
4 0 L
S
GR
GS
[0.75 0 0 0.75 84.75 120.76324] CT
0.725 0 0 RC
N
f-401390582
f
GR
GS
[0.75 0 0 0.75 84.75 120.76324] CT
0.725 0 0 RC
10.0 ML
2.667 LW
N
-4 0 M
4 0 L
S
GR
GS
[0.75 0 0 0.75 0 0] CT
0.82 0 0 RC
1 LJ
2.667 LW
N
269.802 233.141 M
269.802 332.036 L
S
GR
GS
[0.75 0 0 0.75 0 0] CT
0.82 0 0 RC
1 LJ
2.667 LW
N
220.034 251.518 M
220.034 321.972 L
S
GR
GS
[0.75 0 0 0.75 0 0] CT
0.82 0 0 RC
1 LJ
2.667 LW
N
113 185.395 M
113 201.418 L
S
GR
GS
[0.75 0 0 0.75 0 0] CT
0.82 0 0 RC
1 LJ
2.667 LW
N
269.802 233.141 M
269.802 90.32 L
S
GR
GS
[0.75 0 0 0.75 0 0] CT
0.82 0 0 RC
1 LJ
2.667 LW
N
220.034 251.518 M
220.034 182.018 L
S
GR
GS
[0.75 0 0 0.75 0 0] CT
0.82 0 0 RC
1 LJ
2.667 LW
N
113 185.395 M
113 169.422 L
S
GR
GS
[0.75 0 0 0.75 0 0] CT
0.82 0 0 RC
1 LJ
2.667 LW
N
287.868 29.964 M
269.802 233.141 L
220.034 251.518 L
113 185.395 L
S
GR
GS
[0.75 0 0 0.75 165.02566 241.47869] CT
0.82 0 0 RC
N
f-401390582
f
GR
GS
[0.75 0 0 0.75 165.02566 241.47869] CT
0.82 0 0 RC
10.0 ML
2.667 LW
N
-4 0 M
4 0 L
S
GR
GS
[0.75 0 0 0.75 84.75 151.06314] CT
0.82 0 0 RC
N
f-401390582
f
GR
GS
[0.75 0 0 0.75 84.75 151.06314] CT
0.82 0 0 RC
10.0 ML
2.667 LW
N
-4 0 M
4 0 L
S
GR
GS
[0.75 0 0 0.75 202.35171 67.74029] CT
0.82 0 0 RC
N
f-401390582
f
GR
GS
[0.75 0 0 0.75 202.35171 67.74029] CT
0.82 0 0 RC
10.0 ML
2.667 LW
N
-4 0 M
4 0 L
S
GR
GS
[0.75 0 0 0.75 165.02566 136.51373] CT
0.82 0 0 RC
N
f-401390582
f
GR
GS
[0.75 0 0 0.75 165.02566 136.51373] CT
0.82 0 0 RC
10.0 ML
2.667 LW
N
-4 0 M
4 0 L
S
GR
GS
[0.75 0 0 0.75 84.75 127.06618] CT
0.82 0 0 RC
N
f-401390582
f
GR
GS
[0.75 0 0 0.75 84.75 127.06618] CT
0.82 0 0 RC
10.0 ML
2.667 LW
N
-4 0 M
4 0 L
S
GR
GS
[0.75 0 0 0.75 0 0] CT
0.91 0 0 RC
1 LJ
2.667 LW
N
269.802 129.11 M
269.802 315.12 L
S
GR
GS
[0.75 0 0 0.75 0 0] CT
0.91 0 0 RC
1 LJ
2.667 LW
N
220.034 265.971 M
220.034 332.036 L
S
GR
GS
[0.75 0 0 0.75 0 0] CT
0.91 0 0 RC
1 LJ
2.667 LW
N
113 190.074 M
113 230.565 L
S
GR
GS
[0.75 0 0 0.75 0 0] CT
0.91 0 0 RC
1 LJ
2.667 LW
N
269.802 129.11 M
269.802 29.964 L
S
GR
GS
[0.75 0 0 0.75 0 0] CT
0.91 0 0 RC
1 LJ
2.667 LW
N
220.034 265.971 M
220.034 162.253 L
S
GR
GS
[0.75 0 0 0.75 0 0] CT
0.91 0 0 RC
1 LJ
2.667 LW
N
113 190.074 M
113 149.9 L
S
GR
GS
[0.75 0 0 0.75 0 0] CT
0.91 0 0 RC
[8 8] 0 setdash
2 LJ
2.667 LW
N
272.573 29.964 M
269.802 129.11 L
220.034 265.971 L
113 190.074 L
S
GR
GS
[0.75 0 0 0.75 202.35171 236.33968] CT
0.91 0 0 RC
N
f-401390582
f
GR
GS
[0.75 0 0 0.75 202.35171 236.33968] CT
0.91 0 0 RC
10.0 ML
2.667 LW
N
-4 0 M
4 0 L
S
GR
GS
[0.75 0 0 0.75 84.75 172.92396] CT
0.91 0 0 RC
N
f-401390582
f
GR
GS
[0.75 0 0 0.75 84.75 172.92396] CT
0.91 0 0 RC
10.0 ML
2.667 LW
N
-4 0 M
4 0 L
S
GR
GS
[0.75 0 0 0.75 165.02566 121.68955] CT
0.91 0 0 RC
N
f-401390582
f
GR
GS
[0.75 0 0 0.75 165.02566 121.68955] CT
0.91 0 0 RC
10.0 ML
2.667 LW
N
-4 0 M
4 0 L
S
GR
GS
[0.75 0 0 0.75 84.75 112.4247] CT
0.91 0 0 RC
N
f-401390582
f
GR
GS
[0.75 0 0 0.75 84.75 112.4247] CT
0.91 0 0 RC
10.0 ML
2.667 LW
N
-4 0 M
4 0 L
S
GR
GS
[0.75 0 0 0.75 0 0] CT
1 0 0 RC
1 LJ
2.667 LW
N
220.034 260.768 M
220.034 332.036 L
S
GR
GS
[0.75 0 0 0.75 0 0] CT
1 0 0 RC
1 LJ
2.667 LW
N
113 201.89 M
113 255.667 L
S
GR
GS
[0.75 0 0 0.75 0 0] CT
1 0 0 RC
1 LJ
2.667 LW
N
220.034 260.768 M
220.034 139.052 L
S
GR
GS
[0.75 0 0 0.75 0 0] CT
1 0 0 RC
1 LJ
2.667 LW
N
113 201.89 M
113 148.671 L
S
GR
GS
[0.75 0 0 0.75 0 0] CT
1 0 0 RC
[2 2] 0 setdash
2 LJ
2.667 LW
N
236.427 29.964 M
220.034 260.768 L
113 201.89 L
S
GR
GS
[0.75 0 0 0.75 84.75 191.75023] CT
1 0 0 RC
N
f-401390582
f
GR
GS
[0.75 0 0 0.75 84.75 191.75023] CT
1 0 0 RC
10.0 ML
2.667 LW
N
-4 0 M
4 0 L
S
GR
GS
[0.75 0 0 0.75 165.02566 104.28873] CT
1 0 0 RC
N
f-401390582
f
GR
GS
[0.75 0 0 0.75 165.02566 104.28873] CT
1 0 0 RC
10.0 ML
2.667 LW
N
-4 0 M
4 0 L
S
GR
GS
[0.75 0 0 0.75 84.75 111.50289] CT
1 0 0 RC
N
f-401390582
f
GR
GS
[0.75 0 0 0.75 84.75 111.50289] CT
1 0 0 RC
10.0 ML
2.667 LW
N
-4 0 M
4 0 L
S
GR
GS
[0.75 0 0 0.75 0 0] CT
1 GC
N
/f-1160977726{917 312 M
917 50 L
815 50 L
815 312 L
cp}def
f-1160977726
f
GR
GS
[0.75 0 0 0.75 646.5 47.625] CT
/Helvetica 18 F
GS
[1 0 0 1 0 0] CT
0 7.5 moveto 
1 -1 scale
(p =0.4) t 
GR
GR
GS
[0.75 0 0 0.75 0 0] CT
0.09 0 0 RC
1 LJ
2.667 LW
N
819 63.5 M
859 63.5 L
S
GR
GS
[0.75 0 0 0.75 629.25 54.3375] CT
0.09 0 0 RC
N
f-401390582
f
GR
GS
[0.75 0 0 0.75 629.25 54.3375] CT
0.09 0 0 RC
10.0 ML
2.667 LW
N
-4 0 M
4 0 L
S
GR
GS
[0.75 0 0 0.75 629.25 40.9125] CT
0.09 0 0 RC
N
f-401390582
f
GR
GS
[0.75 0 0 0.75 629.25 40.9125] CT
0.09 0 0 RC
10.0 ML
2.667 LW
N
-4 0 M
4 0 L
S
GR
GS
[0.75 0 0 0.75 0 0] CT
0.09 0 0 RC
1 LJ
2.667 LW
N
839 72.45 M
839 54.55 L
S
GR
GS
[0.75 0 0 0.75 646.5 65.24999] CT
/Helvetica 18 F
GS
[1 0 0 1 0 0] CT
0 7.5 moveto 
1 -1 scale
(p =0.5) t 
GR
GR
GS
[0.75 0 0 0.75 0 0] CT
0.18 0 0 RC
[8 8] 0 setdash
2 LJ
2.667 LW
N
819 87 M
859 87 L
S
GR
GS
[0.75 0 0 0.75 629.25 71.9625] CT
0.18 0 0 RC
N
f-401390582
f
GR
GS
[0.75 0 0 0.75 629.25 71.9625] CT
0.18 0 0 RC
10.0 ML
2.667 LW
N
-4 0 M
4 0 L
S
GR
GS
[0.75 0 0 0.75 629.25 58.5375] CT
0.18 0 0 RC
N
f-401390582
f
GR
GS
[0.75 0 0 0.75 629.25 58.5375] CT
0.18 0 0 RC
10.0 ML
2.667 LW
N
-4 0 M
4 0 L
S
GR
GS
[0.75 0 0 0.75 0 0] CT
0.18 0 0 RC
1 LJ
2.667 LW
N
839 95.95 M
839 78.05 L
S
GR
GS
[0.75 0 0 0.75 646.5 82.875] CT
/Helvetica 18 F
GS
[1 0 0 1 0 0] CT
0 7.5 moveto 
1 -1 scale
(p =0.6) t 
GR
GR
GS
[0.75 0 0 0.75 0 0] CT
0.275 0 0 RC
[2 2] 0 setdash
2 LJ
2.667 LW
N
819 110.5 M
859 110.5 L
S
GR
GS
[0.75 0 0 0.75 629.25 89.5875] CT
0.275 0 0 RC
N
f-401390582
f
GR
GS
[0.75 0 0 0.75 629.25 89.5875] CT
0.275 0 0 RC
10.0 ML
2.667 LW
N
-4 0 M
4 0 L
S
GR
GS
[0.75 0 0 0.75 629.25 76.1625] CT
0.275 0 0 RC
N
f-401390582
f
GR
GS
[0.75 0 0 0.75 629.25 76.1625] CT
0.275 0 0 RC
10.0 ML
2.667 LW
N
-4 0 M
4 0 L
S
GR
GS
[0.75 0 0 0.75 0 0] CT
0.275 0 0 RC
1 LJ
2.667 LW
N
839 119.45 M
839 101.55 L
S
GR
GS
[0.75 0 0 0.75 646.5 100.5] CT
/Helvetica 18 F
GS
[1 0 0 1 0 0] CT
0 7.5 moveto 
1 -1 scale
(p =0.7) t 
GR
GR
GS
[0.75 0 0 0.75 0 0] CT
0.365 0 0 RC
[8 2 4 2] 0 setdash
2 LJ
2.667 LW
N
819 134 M
859 134 L
S
GR
GS
[0.75 0 0 0.75 629.25 107.2125] CT
0.365 0 0 RC
N
f-401390582
f
GR
GS
[0.75 0 0 0.75 629.25 107.2125] CT
0.365 0 0 RC
10.0 ML
2.667 LW
N
-4 0 M
4 0 L
S
GR
GS
[0.75 0 0 0.75 629.25 93.7875] CT
0.365 0 0 RC
N
f-401390582
f
GR
GS
[0.75 0 0 0.75 629.25 93.7875] CT
0.365 0 0 RC
10.0 ML
2.667 LW
N
-4 0 M
4 0 L
S
GR
GS
[0.75 0 0 0.75 0 0] CT
0.365 0 0 RC
1 LJ
2.667 LW
N
839 142.95 M
839 125.05 L
S
GR
GS
[0.75 0 0 0.75 646.5 118.125] CT
/Helvetica 18 F
GS
[1 0 0 1 0 0] CT
0 7.5 moveto 
1 -1 scale
(p =0.8) t 
GR
GR
GS
[0.75 0 0 0.75 0 0] CT
0.455 0 0 RC
1 LJ
2.667 LW
N
819 157.5 M
859 157.5 L
S
GR
GS
[0.75 0 0 0.75 629.25 124.8375] CT
0.455 0 0 RC
N
f-401390582
f
GR
GS
[0.75 0 0 0.75 629.25 124.8375] CT
0.455 0 0 RC
10.0 ML
2.667 LW
N
-4 0 M
4 0 L
S
GR
GS
[0.75 0 0 0.75 629.25 111.4125] CT
0.455 0 0 RC
N
f-401390582
f
GR
GS
[0.75 0 0 0.75 629.25 111.4125] CT
0.455 0 0 RC
10.0 ML
2.667 LW
N
-4 0 M
4 0 L
S
GR
GS
[0.75 0 0 0.75 0 0] CT
0.455 0 0 RC
1 LJ
2.667 LW
N
839 166.45 M
839 148.55 L
S
GR
GS
[0.75 0 0 0.75 646.5 135.75] CT
/Helvetica 18 F
GS
[1 0 0 1 0 0] CT
0 7.5 moveto 
1 -1 scale
(p =0.9) t 
GR
GR
GS
[0.75 0 0 0.75 0 0] CT
0.545 0 0 RC
[8 8] 0 setdash
2 LJ
2.667 LW
N
819 181 M
859 181 L
S
GR
GS
[0.75 0 0 0.75 629.25 142.4625] CT
0.545 0 0 RC
N
f-401390582
f
GR
GS
[0.75 0 0 0.75 629.25 142.4625] CT
0.545 0 0 RC
10.0 ML
2.667 LW
N
-4 0 M
4 0 L
S
GR
GS
[0.75 0 0 0.75 629.25 129.0375] CT
0.545 0 0 RC
N
f-401390582
f
GR
GS
[0.75 0 0 0.75 629.25 129.0375] CT
0.545 0 0 RC
10.0 ML
2.667 LW
N
-4 0 M
4 0 L
S
GR
GS
[0.75 0 0 0.75 0 0] CT
0.545 0 0 RC
1 LJ
2.667 LW
N
839 189.95 M
839 172.05 L
S
GR
GS
[0.75 0 0 0.75 646.5 153.375] CT
/Helvetica 18 F
GS
[1 0 0 1 0 0] CT
0 7.5 moveto 
1 -1 scale
(p =  1) t 
GR
GR
GS
[0.75 0 0 0.75 0 0] CT
0.635 0 0 RC
[2 2] 0 setdash
2 LJ
2.667 LW
N
819 204.5 M
859 204.5 L
S
GR
GS
[0.75 0 0 0.75 629.25 160.0875] CT
0.635 0 0 RC
N
f-401390582
f
GR
GS
[0.75 0 0 0.75 629.25 160.0875] CT
0.635 0 0 RC
10.0 ML
2.667 LW
N
-4 0 M
4 0 L
S
GR
GS
[0.75 0 0 0.75 629.25 146.6625] CT
0.635 0 0 RC
N
f-401390582
f
GR
GS
[0.75 0 0 0.75 629.25 146.6625] CT
0.635 0 0 RC
10.0 ML
2.667 LW
N
-4 0 M
4 0 L
S
GR
GS
[0.75 0 0 0.75 0 0] CT
0.635 0 0 RC
1 LJ
2.667 LW
N
839 213.45 M
839 195.55 L
S
GR
GS
[0.75 0 0 0.75 646.5 171] CT
/Helvetica 18 F
GS
[1 0 0 1 0 0] CT
0 7.5 moveto 
1 -1 scale
(p =1.1) t 
GR
GR
GS
[0.75 0 0 0.75 0 0] CT
0.725 0 0 RC
[8 2 4 2] 0 setdash
2 LJ
2.667 LW
N
819 228 M
859 228 L
S
GR
GS
[0.75 0 0 0.75 629.25 177.7125] CT
0.725 0 0 RC
N
f-401390582
f
GR
GS
[0.75 0 0 0.75 629.25 177.7125] CT
0.725 0 0 RC
10.0 ML
2.667 LW
N
-4 0 M
4 0 L
S
GR
GS
[0.75 0 0 0.75 629.25 164.2875] CT
0.725 0 0 RC
N
f-401390582
f
GR
GS
[0.75 0 0 0.75 629.25 164.2875] CT
0.725 0 0 RC
10.0 ML
2.667 LW
N
-4 0 M
4 0 L
S
GR
GS
[0.75 0 0 0.75 0 0] CT
0.725 0 0 RC
1 LJ
2.667 LW
N
839 236.95 M
839 219.05 L
S
GR
GS
[0.75 0 0 0.75 646.5 188.625] CT
/Helvetica 18 F
GS
[1 0 0 1 0 0] CT
0 7.5 moveto 
1 -1 scale
(p =1.2) t 
GR
GR
GS
[0.75 0 0 0.75 0 0] CT
0.82 0 0 RC
1 LJ
2.667 LW
N
819 251.5 M
859 251.5 L
S
GR
GS
[0.75 0 0 0.75 629.25 195.33751] CT
0.82 0 0 RC
N
f-401390582
f
GR
GS
[0.75 0 0 0.75 629.25 195.33751] CT
0.82 0 0 RC
10.0 ML
2.667 LW
N
-4 0 M
4 0 L
S
GR
GS
[0.75 0 0 0.75 629.25 181.9125] CT
0.82 0 0 RC
N
f-401390582
f
GR
GS
[0.75 0 0 0.75 629.25 181.9125] CT
0.82 0 0 RC
10.0 ML
2.667 LW
N
-4 0 M
4 0 L
S
GR
GS
[0.75 0 0 0.75 0 0] CT
0.82 0 0 RC
1 LJ
2.667 LW
N
839 260.45 M
839 242.55 L
S
GR
GS
[0.75 0 0 0.75 646.5 206.25] CT
/Helvetica 18 F
GS
[1 0 0 1 0 0] CT
0 7.5 moveto 
1 -1 scale
(p =1.3) t 
GR
GR
GS
[0.75 0 0 0.75 0 0] CT
0.91 0 0 RC
[8 8] 0 setdash
2 LJ
2.667 LW
N
819 275 M
859 275 L
S
GR
GS
[0.75 0 0 0.75 629.25 212.96251] CT
0.91 0 0 RC
N
f-401390582
f
GR
GS
[0.75 0 0 0.75 629.25 212.96251] CT
0.91 0 0 RC
10.0 ML
2.667 LW
N
-4 0 M
4 0 L
S
GR
GS
[0.75 0 0 0.75 629.25 199.53749] CT
0.91 0 0 RC
N
f-401390582
f
GR
GS
[0.75 0 0 0.75 629.25 199.53749] CT
0.91 0 0 RC
10.0 ML
2.667 LW
N
-4 0 M
4 0 L
S
GR
GS
[0.75 0 0 0.75 0 0] CT
0.91 0 0 RC
1 LJ
2.667 LW
N
839 283.95 M
839 266.05 L
S
GR
GS
[0.75 0 0 0.75 646.5 223.875] CT
/Helvetica 18 F
GS
[1 0 0 1 0 0] CT
0 7.5 moveto 
1 -1 scale
(p =1.4) t 
GR
GR
GS
[0.75 0 0 0.75 0 0] CT
1 0 0 RC
[2 2] 0 setdash
2 LJ
2.667 LW
N
819 298.5 M
859 298.5 L
S
GR
GS
[0.75 0 0 0.75 629.25 230.58751] CT
1 0 0 RC
N
f-401390582
f
GR
GS
[0.75 0 0 0.75 629.25 230.58751] CT
1 0 0 RC
10.0 ML
2.667 LW
N
-4 0 M
4 0 L
S
GR
GS
[0.75 0 0 0.75 629.25 217.16249] CT
1 0 0 RC
N
f-401390582
f
GR
GS
[0.75 0 0 0.75 629.25 217.16249] CT
1 0 0 RC
10.0 ML
2.667 LW
N
-4 0 M
4 0 L
S
GR
GS
[0.75 0 0 0.75 0 0] CT
1 0 0 RC
1 LJ
2.667 LW
N
839 307.45 M
839 289.55 L
S
GR
GS
[0.75 0 0 0.75 0 0] CT
0.149 GC
10.0 ML
0.667 LW
N
815 312 M
815 50 L
917 50 L
917 312 L
cp
S
GR
%%Trailer
%%Pages: 1
%%EOF
