%!PS-Adobe-3.0 EPSF-3.0
%%Creator: (MATLAB, The Mathworks, Inc. Version 9.3.0.713579 \(R2017b\). Operating System: Windows 7)
%%Title: fig/AA_p.eps
%%CreationDate: 2018-03-27T15:37:18
%%Pages: (atend)
%%BoundingBox:    44     3   691   295
%%LanguageLevel: 3
%%EndComments
%%BeginProlog
%%BeginResource: procset (Apache XML Graphics Std ProcSet) 1.2 0
%%Version: 1.2 0
%%Copyright: (Copyright 2001-2003,2010 The Apache Software Foundation. License terms: http://www.apache.org/licenses/LICENSE-2.0)
/bd{bind def}bind def
/ld{load def}bd
/GR/grestore ld
/GS/gsave ld
/RM/rmoveto ld
/C/curveto ld
/t/show ld
/L/lineto ld
/ML/setmiterlimit ld
/CT/concat ld
/f/fill ld
/N/newpath ld
/S/stroke ld
/CC/setcmykcolor ld
/A/ashow ld
/cp/closepath ld
/RC/setrgbcolor ld
/LJ/setlinejoin ld
/GC/setgray ld
/LW/setlinewidth ld
/M/moveto ld
/re {4 2 roll M
1 index 0 rlineto
0 exch rlineto
neg 0 rlineto
cp } bd
/_ctm matrix def
/_tm matrix def
/BT { _ctm currentmatrix pop matrix _tm copy pop 0 0 moveto } bd
/ET { _ctm setmatrix } bd
/iTm { _ctm setmatrix _tm concat } bd
/Tm { _tm astore pop iTm 0 0 moveto } bd
/ux 0.0 def
/uy 0.0 def
/F {
  /Tp exch def
  /Tf exch def
  Tf findfont Tp scalefont setfont
  /cf Tf def  /cs Tp def
} bd
/ULS {currentpoint /uy exch def /ux exch def} bd
/ULE {
  /Tcx currentpoint pop def
  gsave
  newpath
  cf findfont cs scalefont dup
  /FontMatrix get 0 get /Ts exch def /FontInfo get dup
  /UnderlinePosition get Ts mul /To exch def
  /UnderlineThickness get Ts mul /Tt exch def
  ux uy To add moveto  Tcx uy To add lineto
  Tt setlinewidth stroke
  grestore
} bd
/OLE {
  /Tcx currentpoint pop def
  gsave
  newpath
  cf findfont cs scalefont dup
  /FontMatrix get 0 get /Ts exch def /FontInfo get dup
  /UnderlinePosition get Ts mul /To exch def
  /UnderlineThickness get Ts mul /Tt exch def
  ux uy To add cs add moveto Tcx uy To add cs add lineto
  Tt setlinewidth stroke
  grestore
} bd
/SOE {
  /Tcx currentpoint pop def
  gsave
  newpath
  cf findfont cs scalefont dup
  /FontMatrix get 0 get /Ts exch def /FontInfo get dup
  /UnderlinePosition get Ts mul /To exch def
  /UnderlineThickness get Ts mul /Tt exch def
  ux uy To add cs 10 mul 26 idiv add moveto Tcx uy To add cs 10 mul 26 idiv add lineto
  Tt setlinewidth stroke
  grestore
} bd
/QT {
/Y22 exch store
/X22 exch store
/Y21 exch store
/X21 exch store
currentpoint
/Y21 load 2 mul add 3 div exch
/X21 load 2 mul add 3 div exch
/X21 load 2 mul /X22 load add 3 div
/Y21 load 2 mul /Y22 load add 3 div
/X22 load /Y22 load curveto
} bd
/SSPD {
dup length /d exch dict def
{
/v exch def
/k exch def
currentpagedevice k known {
/cpdv currentpagedevice k get def
v cpdv ne {
/upd false def
/nullv v type /nulltype eq def
/nullcpdv cpdv type /nulltype eq def
nullv nullcpdv or
{
/upd true def
} {
/sametype v type cpdv type eq def
sametype {
v type /arraytype eq {
/vlen v length def
/cpdvlen cpdv length def
vlen cpdvlen eq {
0 1 vlen 1 sub {
/i exch def
/obj v i get def
/cpdobj cpdv i get def
obj cpdobj ne {
/upd true def
exit
} if
} for
} {
/upd true def
} ifelse
} {
v type /dicttype eq {
v {
/dv exch def
/dk exch def
/cpddv cpdv dk get def
dv cpddv ne {
/upd true def
exit
} if
} forall
} {
/upd true def
} ifelse
} ifelse
} if
} ifelse
upd true eq {
d k v put
} if
} if
} if
} forall
d length 0 gt {
d setpagedevice
} if
} bd
/RE { % /NewFontName [NewEncodingArray] /FontName RE -
  findfont dup length dict begin
  {
    1 index /FID ne
    {def} {pop pop} ifelse
  } forall
  /Encoding exch def
  /FontName 1 index def
  currentdict definefont pop
  end
} bind def
%%EndResource
%%BeginResource: procset (Apache XML Graphics EPS ProcSet) 1.0 0
%%Version: 1.0 0
%%Copyright: (Copyright 2002-2003 The Apache Software Foundation. License terms: http://www.apache.org/licenses/LICENSE-2.0)
/BeginEPSF { %def
/b4_Inc_state save def         % Save state for cleanup
/dict_count countdictstack def % Count objects on dict stack
/op_count count 1 sub def      % Count objects on operand stack
userdict begin                 % Push userdict on dict stack
/showpage { } def              % Redefine showpage, { } = null proc
0 setgray 0 setlinecap         % Prepare graphics state
1 setlinewidth 0 setlinejoin
10 setmiterlimit [ ] 0 setdash newpath
/languagelevel where           % If level not equal to 1 then
{pop languagelevel             % set strokeadjust and
1 ne                           % overprint to their defaults.
{false setstrokeadjust false setoverprint
} if
} if
} bd
/EndEPSF { %def
count op_count sub {pop} repeat            % Clean up stacks
countdictstack dict_count sub {end} repeat
b4_Inc_state restore
} bd
%%EndResource
%FOPBeginFontDict
%%IncludeResource: font Courier-Oblique
%%IncludeResource: font Courier-BoldOblique
%%IncludeResource: font Courier-Bold
%%IncludeResource: font ZapfDingbats
%%IncludeResource: font Symbol
%%IncludeResource: font Helvetica
%%IncludeResource: font Helvetica-Oblique
%%IncludeResource: font Helvetica-Bold
%%IncludeResource: font Helvetica-BoldOblique
%%IncludeResource: font Times-Roman
%%IncludeResource: font Times-Italic
%%IncludeResource: font Times-Bold
%%IncludeResource: font Times-BoldItalic
%%IncludeResource: font Courier
%FOPEndFontDict
%%BeginResource: encoding WinAnsiEncoding
/WinAnsiEncoding [
/.notdef /.notdef /.notdef /.notdef /.notdef
/.notdef /.notdef /.notdef /.notdef /.notdef
/.notdef /.notdef /.notdef /.notdef /.notdef
/.notdef /.notdef /.notdef /.notdef /.notdef
/.notdef /.notdef /.notdef /.notdef /.notdef
/.notdef /.notdef /.notdef /.notdef /.notdef
/.notdef /.notdef /space /exclam /quotedbl
/numbersign /dollar /percent /ampersand /quotesingle
/parenleft /parenright /asterisk /plus /comma
/hyphen /period /slash /zero /one
/two /three /four /five /six
/seven /eight /nine /colon /semicolon
/less /equal /greater /question /at
/A /B /C /D /E
/F /G /H /I /J
/K /L /M /N /O
/P /Q /R /S /T
/U /V /W /X /Y
/Z /bracketleft /backslash /bracketright /asciicircum
/underscore /quoteleft /a /b /c
/d /e /f /g /h
/i /j /k /l /m
/n /o /p /q /r
/s /t /u /v /w
/x /y /z /braceleft /bar
/braceright /asciitilde /bullet /Euro /bullet
/quotesinglbase /florin /quotedblbase /ellipsis /dagger
/daggerdbl /circumflex /perthousand /Scaron /guilsinglleft
/OE /bullet /Zcaron /bullet /bullet
/quoteleft /quoteright /quotedblleft /quotedblright /bullet
/endash /emdash /asciitilde /trademark /scaron
/guilsinglright /oe /bullet /zcaron /Ydieresis
/space /exclamdown /cent /sterling /currency
/yen /brokenbar /section /dieresis /copyright
/ordfeminine /guillemotleft /logicalnot /sfthyphen /registered
/macron /degree /plusminus /twosuperior /threesuperior
/acute /mu /paragraph /middot /cedilla
/onesuperior /ordmasculine /guillemotright /onequarter /onehalf
/threequarters /questiondown /Agrave /Aacute /Acircumflex
/Atilde /Adieresis /Aring /AE /Ccedilla
/Egrave /Eacute /Ecircumflex /Edieresis /Igrave
/Iacute /Icircumflex /Idieresis /Eth /Ntilde
/Ograve /Oacute /Ocircumflex /Otilde /Odieresis
/multiply /Oslash /Ugrave /Uacute /Ucircumflex
/Udieresis /Yacute /Thorn /germandbls /agrave
/aacute /acircumflex /atilde /adieresis /aring
/ae /ccedilla /egrave /eacute /ecircumflex
/edieresis /igrave /iacute /icircumflex /idieresis
/eth /ntilde /ograve /oacute /ocircumflex
/otilde /odieresis /divide /oslash /ugrave
/uacute /ucircumflex /udieresis /yacute /thorn
/ydieresis
] def
%%EndResource
%FOPBeginFontReencode
/Courier-Oblique findfont
dup length dict begin
  {1 index /FID ne {def} {pop pop} ifelse} forall
  /Encoding WinAnsiEncoding def
  currentdict
end
/Courier-Oblique exch definefont pop
/Courier-BoldOblique findfont
dup length dict begin
  {1 index /FID ne {def} {pop pop} ifelse} forall
  /Encoding WinAnsiEncoding def
  currentdict
end
/Courier-BoldOblique exch definefont pop
/Courier-Bold findfont
dup length dict begin
  {1 index /FID ne {def} {pop pop} ifelse} forall
  /Encoding WinAnsiEncoding def
  currentdict
end
/Courier-Bold exch definefont pop
/Helvetica findfont
dup length dict begin
  {1 index /FID ne {def} {pop pop} ifelse} forall
  /Encoding WinAnsiEncoding def
  currentdict
end
/Helvetica exch definefont pop
/Helvetica-Oblique findfont
dup length dict begin
  {1 index /FID ne {def} {pop pop} ifelse} forall
  /Encoding WinAnsiEncoding def
  currentdict
end
/Helvetica-Oblique exch definefont pop
/Helvetica-Bold findfont
dup length dict begin
  {1 index /FID ne {def} {pop pop} ifelse} forall
  /Encoding WinAnsiEncoding def
  currentdict
end
/Helvetica-Bold exch definefont pop
/Helvetica-BoldOblique findfont
dup length dict begin
  {1 index /FID ne {def} {pop pop} ifelse} forall
  /Encoding WinAnsiEncoding def
  currentdict
end
/Helvetica-BoldOblique exch definefont pop
/Times-Roman findfont
dup length dict begin
  {1 index /FID ne {def} {pop pop} ifelse} forall
  /Encoding WinAnsiEncoding def
  currentdict
end
/Times-Roman exch definefont pop
/Times-Italic findfont
dup length dict begin
  {1 index /FID ne {def} {pop pop} ifelse} forall
  /Encoding WinAnsiEncoding def
  currentdict
end
/Times-Italic exch definefont pop
/Times-Bold findfont
dup length dict begin
  {1 index /FID ne {def} {pop pop} ifelse} forall
  /Encoding WinAnsiEncoding def
  currentdict
end
/Times-Bold exch definefont pop
/Times-BoldItalic findfont
dup length dict begin
  {1 index /FID ne {def} {pop pop} ifelse} forall
  /Encoding WinAnsiEncoding def
  currentdict
end
/Times-BoldItalic exch definefont pop
/Courier findfont
dup length dict begin
  {1 index /FID ne {def} {pop pop} ifelse} forall
  /Encoding WinAnsiEncoding def
  currentdict
end
/Courier exch definefont pop
%FOPEndFontReencode
%%EndProlog
%%Page: 1 1
%%PageBoundingBox: 0 0 750 300
%%BeginPageSetup
[1 0 0 -1 0 300] CT
%%EndPageSetup
GS
[0.75 0 0 0.75 0 0] CT
1 GC
N
0 0 1000 400 re
f
GR
GS
[0.75 0 0 0.75 0 0] CT
1 GC
N
0 0 1000 400 re
f
GR
GS
[0.75 0 0 0.75 0 0] CT
1 GC
N
130 338 M
465 338 L
465 33 L
130 33 L
cp
f
GR
GS
[0.75 0 0 0.75 0 0] CT
0.775 GC
[1 3] 0 setdash
2 LJ
0.667 LW
N
130 338 M
130 33 L
S
GR
GS
[0.75 0 0 0.75 0 0] CT
0.775 GC
[1 3] 0 setdash
2 LJ
0.667 LW
N
143.4 338 M
143.4 33 L
S
GR
GS
[0.75 0 0 0.75 0 0] CT
0.775 GC
[1 3] 0 setdash
2 LJ
0.667 LW
N
156.8 338 M
156.8 33 L
S
GR
GS
[0.75 0 0 0.75 0 0] CT
0.775 GC
[1 3] 0 setdash
2 LJ
0.667 LW
N
170.2 338 M
170.2 33 L
S
GR
GS
[0.75 0 0 0.75 0 0] CT
0.775 GC
[1 3] 0 setdash
2 LJ
0.667 LW
N
183.6 338 M
183.6 33 L
S
GR
GS
[0.75 0 0 0.75 0 0] CT
0.775 GC
[1 3] 0 setdash
2 LJ
0.667 LW
N
197 338 M
197 33 L
S
GR
GS
[0.75 0 0 0.75 0 0] CT
0.775 GC
[1 3] 0 setdash
2 LJ
0.667 LW
N
210.4 338 M
210.4 33 L
S
GR
GS
[0.75 0 0 0.75 0 0] CT
0.775 GC
[1 3] 0 setdash
2 LJ
0.667 LW
N
223.8 338 M
223.8 33 L
S
GR
GS
[0.75 0 0 0.75 0 0] CT
0.775 GC
[1 3] 0 setdash
2 LJ
0.667 LW
N
237.2 338 M
237.2 33 L
S
GR
GS
[0.75 0 0 0.75 0 0] CT
0.775 GC
[1 3] 0 setdash
2 LJ
0.667 LW
N
250.6 338 M
250.6 33 L
S
GR
GS
[0.75 0 0 0.75 0 0] CT
0.775 GC
[1 3] 0 setdash
2 LJ
0.667 LW
N
264 338 M
264 33 L
S
GR
GS
[0.75 0 0 0.75 0 0] CT
0.775 GC
[1 3] 0 setdash
2 LJ
0.667 LW
N
277.4 338 M
277.4 33 L
S
GR
GS
[0.75 0 0 0.75 0 0] CT
0.775 GC
[1 3] 0 setdash
2 LJ
0.667 LW
N
290.8 338 M
290.8 33 L
S
GR
GS
[0.75 0 0 0.75 0 0] CT
0.775 GC
[1 3] 0 setdash
2 LJ
0.667 LW
N
304.2 338 M
304.2 33 L
S
GR
GS
[0.75 0 0 0.75 0 0] CT
0.775 GC
[1 3] 0 setdash
2 LJ
0.667 LW
N
317.6 338 M
317.6 33 L
S
GR
GS
[0.75 0 0 0.75 0 0] CT
0.775 GC
[1 3] 0 setdash
2 LJ
0.667 LW
N
331 338 M
331 33 L
S
GR
GS
[0.75 0 0 0.75 0 0] CT
0.775 GC
[1 3] 0 setdash
2 LJ
0.667 LW
N
344.4 338 M
344.4 33 L
S
GR
GS
[0.75 0 0 0.75 0 0] CT
0.775 GC
[1 3] 0 setdash
2 LJ
0.667 LW
N
357.8 338 M
357.8 33 L
S
GR
GS
[0.75 0 0 0.75 0 0] CT
0.775 GC
[1 3] 0 setdash
2 LJ
0.667 LW
N
371.2 338 M
371.2 33 L
S
GR
GS
[0.75 0 0 0.75 0 0] CT
0.775 GC
[1 3] 0 setdash
2 LJ
0.667 LW
N
384.6 338 M
384.6 33 L
S
GR
GS
[0.75 0 0 0.75 0 0] CT
0.775 GC
[1 3] 0 setdash
2 LJ
0.667 LW
N
398 338 M
398 33 L
S
GR
GS
[0.75 0 0 0.75 0 0] CT
0.775 GC
[1 3] 0 setdash
2 LJ
0.667 LW
N
411.4 338 M
411.4 33 L
S
GR
GS
[0.75 0 0 0.75 0 0] CT
0.775 GC
[1 3] 0 setdash
2 LJ
0.667 LW
N
424.8 338 M
424.8 33 L
S
GR
GS
[0.75 0 0 0.75 0 0] CT
0.775 GC
[1 3] 0 setdash
2 LJ
0.667 LW
N
438.2 338 M
438.2 33 L
S
GR
GS
[0.75 0 0 0.75 0 0] CT
0.775 GC
[1 3] 0 setdash
2 LJ
0.667 LW
N
451.6 338 M
451.6 33 L
S
GR
GS
[0.75 0 0 0.75 0 0] CT
0.775 GC
[1 3] 0 setdash
2 LJ
0.667 LW
N
465 338 M
465 33 L
S
GR
GS
[0.75 0 0 0.75 0 0] CT
0.775 GC
[1 3] 0 setdash
2 LJ
0.667 LW
N
465 338 M
130 338 L
S
GR
GS
[0.75 0 0 0.75 0 0] CT
0.775 GC
[1 3] 0 setdash
2 LJ
0.667 LW
N
465 325.8 M
130 325.8 L
S
GR
GS
[0.75 0 0 0.75 0 0] CT
0.775 GC
[1 3] 0 setdash
2 LJ
0.667 LW
N
465 313.6 M
130 313.6 L
S
GR
GS
[0.75 0 0 0.75 0 0] CT
0.775 GC
[1 3] 0 setdash
2 LJ
0.667 LW
N
465 301.4 M
130 301.4 L
S
GR
GS
[0.75 0 0 0.75 0 0] CT
0.775 GC
[1 3] 0 setdash
2 LJ
0.667 LW
N
465 289.2 M
130 289.2 L
S
GR
GS
[0.75 0 0 0.75 0 0] CT
0.775 GC
[1 3] 0 setdash
2 LJ
0.667 LW
N
465 277 M
130 277 L
S
GR
GS
[0.75 0 0 0.75 0 0] CT
0.775 GC
[1 3] 0 setdash
2 LJ
0.667 LW
N
465 264.8 M
130 264.8 L
S
GR
GS
[0.75 0 0 0.75 0 0] CT
0.775 GC
[1 3] 0 setdash
2 LJ
0.667 LW
N
465 252.6 M
130 252.6 L
S
GR
GS
[0.75 0 0 0.75 0 0] CT
0.775 GC
[1 3] 0 setdash
2 LJ
0.667 LW
N
465 240.4 M
130 240.4 L
S
GR
GS
[0.75 0 0 0.75 0 0] CT
0.775 GC
[1 3] 0 setdash
2 LJ
0.667 LW
N
465 228.2 M
130 228.2 L
S
GR
GS
[0.75 0 0 0.75 0 0] CT
0.775 GC
[1 3] 0 setdash
2 LJ
0.667 LW
N
465 216 M
130 216 L
S
GR
GS
[0.75 0 0 0.75 0 0] CT
0.775 GC
[1 3] 0 setdash
2 LJ
0.667 LW
N
465 203.8 M
130 203.8 L
S
GR
GS
[0.75 0 0 0.75 0 0] CT
0.775 GC
[1 3] 0 setdash
2 LJ
0.667 LW
N
465 191.6 M
130 191.6 L
S
GR
GS
[0.75 0 0 0.75 0 0] CT
0.775 GC
[1 3] 0 setdash
2 LJ
0.667 LW
N
465 179.4 M
130 179.4 L
S
GR
GS
[0.75 0 0 0.75 0 0] CT
0.775 GC
[1 3] 0 setdash
2 LJ
0.667 LW
N
465 167.2 M
130 167.2 L
S
GR
GS
[0.75 0 0 0.75 0 0] CT
0.775 GC
[1 3] 0 setdash
2 LJ
0.667 LW
N
465 155 M
130 155 L
S
GR
GS
[0.75 0 0 0.75 0 0] CT
0.775 GC
[1 3] 0 setdash
2 LJ
0.667 LW
N
465 142.8 M
130 142.8 L
S
GR
GS
[0.75 0 0 0.75 0 0] CT
0.775 GC
[1 3] 0 setdash
2 LJ
0.667 LW
N
465 130.6 M
130 130.6 L
S
GR
GS
[0.75 0 0 0.75 0 0] CT
0.775 GC
[1 3] 0 setdash
2 LJ
0.667 LW
N
465 118.4 M
130 118.4 L
S
GR
GS
[0.75 0 0 0.75 0 0] CT
0.775 GC
[1 3] 0 setdash
2 LJ
0.667 LW
N
465 106.2 M
130 106.2 L
S
GR
GS
[0.75 0 0 0.75 0 0] CT
0.775 GC
[1 3] 0 setdash
2 LJ
0.667 LW
N
465 94 M
130 94 L
S
GR
GS
[0.75 0 0 0.75 0 0] CT
0.775 GC
[1 3] 0 setdash
2 LJ
0.667 LW
N
465 81.8 M
130 81.8 L
S
GR
GS
[0.75 0 0 0.75 0 0] CT
0.775 GC
[1 3] 0 setdash
2 LJ
0.667 LW
N
465 69.6 M
130 69.6 L
S
GR
GS
[0.75 0 0 0.75 0 0] CT
0.775 GC
[1 3] 0 setdash
2 LJ
0.667 LW
N
465 57.4 M
130 57.4 L
S
GR
GS
[0.75 0 0 0.75 0 0] CT
0.775 GC
[1 3] 0 setdash
2 LJ
0.667 LW
N
465 45.2 M
130 45.2 L
S
GR
GS
[0.75 0 0 0.75 0 0] CT
0.775 GC
[1 3] 0 setdash
2 LJ
0.667 LW
N
465 33 M
130 33 L
S
GR
GS
[0.75 0 0 0.75 0 0] CT
0.149 GC
2 setlinecap
1 LJ
0.667 LW
N
130 338 M
465 338 L
S
GR
GS
[0.75 0 0 0.75 0 0] CT
0.149 GC
2 setlinecap
1 LJ
0.667 LW
N
130 33 M
465 33 L
S
GR
GS
[0.75 0 0 0.75 0 0] CT
0.149 GC
2 setlinecap
1 LJ
0.667 LW
N
130 338 M
130 334.65 L
S
GR
GS
[0.75 0 0 0.75 0 0] CT
0.149 GC
2 setlinecap
1 LJ
0.667 LW
N
197 338 M
197 334.65 L
S
GR
GS
[0.75 0 0 0.75 0 0] CT
0.149 GC
2 setlinecap
1 LJ
0.667 LW
N
264 338 M
264 334.65 L
S
GR
GS
[0.75 0 0 0.75 0 0] CT
0.149 GC
2 setlinecap
1 LJ
0.667 LW
N
331 338 M
331 334.65 L
S
GR
GS
[0.75 0 0 0.75 0 0] CT
0.149 GC
2 setlinecap
1 LJ
0.667 LW
N
398 338 M
398 334.65 L
S
GR
GS
[0.75 0 0 0.75 0 0] CT
0.149 GC
2 setlinecap
1 LJ
0.667 LW
N
465 338 M
465 334.65 L
S
GR
GS
[0.75 0 0 0.75 0 0] CT
0.149 GC
2 setlinecap
1 LJ
0.667 LW
N
130 33 M
130 36.35 L
S
GR
GS
[0.75 0 0 0.75 0 0] CT
0.149 GC
2 setlinecap
1 LJ
0.667 LW
N
197 33 M
197 36.35 L
S
GR
GS
[0.75 0 0 0.75 0 0] CT
0.149 GC
2 setlinecap
1 LJ
0.667 LW
N
264 33 M
264 36.35 L
S
GR
GS
[0.75 0 0 0.75 0 0] CT
0.149 GC
2 setlinecap
1 LJ
0.667 LW
N
331 33 M
331 36.35 L
S
GR
GS
[0.75 0 0 0.75 0 0] CT
0.149 GC
2 setlinecap
1 LJ
0.667 LW
N
398 33 M
398 36.35 L
S
GR
GS
[0.75 0 0 0.75 0 0] CT
0.149 GC
2 setlinecap
1 LJ
0.667 LW
N
465 33 M
465 36.35 L
S
GR
GS
[0.75 0 0 0.75 97.5 258.49999] CT
0.149 GC
/Helvetica 20 F
GS
[1 0 0 1 0 0] CT
-6 21 moveto 
1 -1 scale
(0) t 
GR
GR
GS
[0.75 0 0 0.75 147.75 258.49999] CT
0.149 GC
/Helvetica 20 F
GS
[1 0 0 1 0 0] CT
-11.5 21 moveto 
1 -1 scale
(50) t 
GR
GR
GS
[0.75 0 0 0.75 198 258.49999] CT
0.149 GC
/Helvetica 20 F
GS
[1 0 0 1 0 0] CT
-17 21 moveto 
1 -1 scale
(100) t 
GR
GR
GS
[0.75 0 0 0.75 248.25 258.49999] CT
0.149 GC
/Helvetica 20 F
GS
[1 0 0 1 0 0] CT
-17 21 moveto 
1 -1 scale
(150) t 
GR
GR
GS
[0.75 0 0 0.75 298.5 258.49999] CT
0.149 GC
/Helvetica 20 F
GS
[1 0 0 1 0 0] CT
-17 21 moveto 
1 -1 scale
(200) t 
GR
GR
GS
[0.75 0 0 0.75 348.75 258.49999] CT
0.149 GC
/Helvetica 20 F
GS
[1 0 0 1 0 0] CT
-17 21 moveto 
1 -1 scale
(250) t 
GR
GR
GS
[0.75 0 0 0.75 223.12511 279] CT
0.149 GC
/Helvetica 22 F
GS
[1 0 0 1 0 0] CT
-21.5 23 moveto 
1 -1 scale
(date) t 
GR
GR
GS
[0.75 0 0 0.75 0 0] CT
0.149 GC
2 setlinecap
1 LJ
0.667 LW
N
130 338 M
130 33 L
S
GR
GS
[0.75 0 0 0.75 0 0] CT
0.149 GC
2 setlinecap
1 LJ
0.667 LW
N
465 338 M
465 33 L
S
GR
GS
[0.75 0 0 0.75 0 0] CT
0.149 GC
2 setlinecap
1 LJ
0.667 LW
N
130 338 M
133.35 338 L
S
GR
GS
[0.75 0 0 0.75 0 0] CT
0.149 GC
2 setlinecap
1 LJ
0.667 LW
N
130 277 M
133.35 277 L
S
GR
GS
[0.75 0 0 0.75 0 0] CT
0.149 GC
2 setlinecap
1 LJ
0.667 LW
N
130 216 M
133.35 216 L
S
GR
GS
[0.75 0 0 0.75 0 0] CT
0.149 GC
2 setlinecap
1 LJ
0.667 LW
N
130 155 M
133.35 155 L
S
GR
GS
[0.75 0 0 0.75 0 0] CT
0.149 GC
2 setlinecap
1 LJ
0.667 LW
N
130 94 M
133.35 94 L
S
GR
GS
[0.75 0 0 0.75 0 0] CT
0.149 GC
2 setlinecap
1 LJ
0.667 LW
N
130 33 M
133.35 33 L
S
GR
GS
[0.75 0 0 0.75 0 0] CT
0.149 GC
2 setlinecap
1 LJ
0.667 LW
N
465 338 M
461.65 338 L
S
GR
GS
[0.75 0 0 0.75 0 0] CT
0.149 GC
2 setlinecap
1 LJ
0.667 LW
N
465 277 M
461.65 277 L
S
GR
GS
[0.75 0 0 0.75 0 0] CT
0.149 GC
2 setlinecap
1 LJ
0.667 LW
N
465 216 M
461.65 216 L
S
GR
GS
[0.75 0 0 0.75 0 0] CT
0.149 GC
2 setlinecap
1 LJ
0.667 LW
N
465 155 M
461.65 155 L
S
GR
GS
[0.75 0 0 0.75 0 0] CT
0.149 GC
2 setlinecap
1 LJ
0.667 LW
N
465 94 M
461.65 94 L
S
GR
GS
[0.75 0 0 0.75 0 0] CT
0.149 GC
2 setlinecap
1 LJ
0.667 LW
N
465 33 M
461.65 33 L
S
GR
GS
[0.75 0 0 0.75 92.5 253.5] CT
0.149 GC
/Helvetica 20 F
GS
[1 0 0 1 0 0] CT
-12 8 moveto 
1 -1 scale
(0) t 
GR
GR
GS
[0.75 0 0 0.75 92.5 207.75] CT
0.149 GC
/Helvetica 20 F
GS
[1 0 0 1 0 0] CT
-28 8 moveto 
1 -1 scale
(0.1) t 
GR
GR
GS
[0.75 0 0 0.75 92.5 162] CT
0.149 GC
/Helvetica 20 F
GS
[1 0 0 1 0 0] CT
-28 8 moveto 
1 -1 scale
(0.2) t 
GR
GR
GS
[0.75 0 0 0.75 92.5 116.25] CT
0.149 GC
/Helvetica 20 F
GS
[1 0 0 1 0 0] CT
-28 8 moveto 
1 -1 scale
(0.3) t 
GR
GR
GS
[0.75 0 0 0.75 92.5 70.5] CT
0.149 GC
/Helvetica 20 F
GS
[1 0 0 1 0 0] CT
-28 8 moveto 
1 -1 scale
(0.4) t 
GR
GR
GS
[0.75 0 0 0.75 92.5 24.75] CT
0.149 GC
/Helvetica 20 F
GS
[1 0 0 1 0 0] CT
-28 8 moveto 
1 -1 scale
(0.5) t 
GR
GR
GS
[0 -0.75 0.75 0 57 240] CT
0.149 GC
/Helvetica 22 F
GS
[1 0 0 1 0 0] CT
0 0 moveto 
1 -1 scale
(confidence p) t 
GR
GR
GS
[0 -0.75 0.75 0 65.25 146.25] CT
0.149 GC
/Helvetica 17.6 F
GS
[1 0 0 1 0 0] CT
0 0 moveto 
1 -1 scale
(t) t 
GR
GR
GS
[0 -0.75 0.75 0 57 142.5] CT
0.149 GC
/Helvetica 22 F
GS
[1 0 0 1 0 0] CT
0 0 moveto 
1 -1 scale
( in the experts) t 
GR
GR
GS
[0.75 0 0 0.75 223.12521 21.65626] CT
/Helvetica-Bold 22 F
GS
[1 0 0 1 0 0] CT
-127 -5 moveto 
1 -1 scale
(rebalancing strategy AA) t 
GR
GR
GS
[0.75 0 0 0.75 0 0] CT
0 0.447 0.741 RC
1 LJ
2 LW
N
131.34 216 M
132.68 209.447 L
134.02 210.564 L
135.36 219.638 L
136.7 215.884 L
138.04 208.736 L
139.38 215.67 L
140.72 224.223 L
142.06 241.425 L
143.4 221.175 L
144.74 201.736 L
146.08 225.381 L
147.42 261.331 L
148.76 273.142 L
150.1 270.36 L
151.44 246.507 L
152.78 245.123 L
154.12 253.286 L
155.46 259.574 L
156.8 249.655 L
158.14 253.016 L
159.48 257 L
160.82 258.704 L
162.16 255.702 L
163.5 257.275 L
164.84 221.536 L
166.18 178.497 L
167.52 166.734 L
168.86 174.02 L
170.2 199.908 L
171.54 189.161 L
172.88 197.186 L
174.22 201.809 L
175.56 200.806 L
176.9 203.187 L
178.24 208.432 L
179.58 214.929 L
180.92 224.753 L
182.26 222.663 L
183.6 226.141 L
184.94 226.503 L
186.28 225.669 L
187.62 220.029 L
188.96 222.978 L
190.3 224.054 L
191.64 215.383 L
192.98 211.985 L
194.32 213.122 L
195.66 218.239 L
197 217.438 L
198.34 219.949 L
199.68 223.26 L
201.02 219.911 L
202.36 224.511 L
203.7 223.965 L
205.04 219.753 L
206.38 224.397 L
207.72 223.488 L
209.06 210.409 L
210.4 219.772 L
211.74 224.591 L
213.08 226.249 L
214.42 227.429 L
215.76 226.976 L
217.1 226.643 L
218.44 227.25 L
219.78 231.168 L
221.12 230.821 L
222.46 231.543 L
223.8 235.526 L
225.14 239.948 L
226.48 237.705 L
227.82 239.902 L
229.16 249.475 L
230.5 252.488 L
231.84 251.925 L
233.18 253.273 L
234.52 260.539 L
235.86 263.816 L
237.2 263.15 L
238.54 265.153 L
239.88 269.343 L
241.22 270.472 L
242.56 271.863 L
243.9 273.141 L
245.24 272.874 L
246.58 258.393 L
247.92 263.888 L
249.26 265.237 L
250.6 266.769 L
251.94 266.972 L
253.28 264.317 L
254.62 265.875 L
255.96 263.333 L
257.3 263.23 L
258.64 262.358 L
259.98 255.988 L
261.32 244.955 L
262.66 243.119 L
264 243.593 L
265.34 246.411 L
266.68 229.807 L
268.02 223.654 L
269.36 220.344 L
270.7 220.958 L
272.04 219.039 L
273.38 221.846 L
274.72 222.536 L
276.06 225.096 L
277.4 220.08 L
278.74 164.821 L
280.08 128.725 L
281.42 116.392 L
282.76 127.932 L
284.1 140.155 L
285.44 152.077 L
286.78 195.045 L
288.12 160.438 L
289.46 156.034 L
290.8 167.613 L
292.14 163.873 L
293.48 167.358 L
294.82 158.439 L
296.16 126.201 L
297.5 137.457 L
298.84 150.825 L
300.18 139.781 L
301.52 154.115 L
302.86 165.453 L
304.2 170.581 L
305.54 172.248 L
306.88 174.154 L
308.22 177.056 L
309.56 168.342 L
310.9 169.662 L
312.24 175.355 L
313.58 187.823 L
314.92 207.607 L
316.26 200.783 L
317.6 206.59 L
318.94 211.201 L
320.28 221.743 L
321.62 230.865 L
322.96 231.51 L
324.3 220.335 L
325.64 228.972 L
326.98 232.653 L
328.32 230.848 L
329.66 221.974 L
331 194.96 L
332.34 146.985 L
333.68 180.515 L
335.02 187.37 L
336.36 172.101 L
337.7 178.004 L
339.04 180.057 L
340.38 182.109 L
341.72 193.481 L
343.06 201.797 L
344.4 211.036 L
345.74 219.254 L
347.08 220.091 L
348.42 224.896 L
349.76 221.894 L
351.1 235.695 L
352.44 243.111 L
353.78 238.477 L
355.12 235.999 L
356.46 239.447 L
357.8 235.589 L
359.14 231.814 L
360.48 211.634 L
361.82 221.386 L
363.16 220.476 L
364.5 221.976 L
365.84 220.996 L
367.18 221.678 L
368.52 226.572 L
369.86 229.387 L
371.2 236.743 L
372.54 235.355 L
373.88 229.449 L
375.22 231.308 L
376.56 235.763 L
377.9 234.681 L
379.24 236.599 L
380.58 235.158 L
381.92 234.613 L
383.26 235.184 L
384.6 237.407 L
385.94 237.175 L
387.28 237.449 L
388.62 237.949 L
389.96 239.965 L
391.3 238.555 L
392.64 239.519 L
393.98 237.288 L
395.32 245.553 L
396.66 247.686 L
398 245.59 L
399.34 228.202 L
400.68 235.489 L
402.02 240.411 L
403.36 238.317 L
404.7 240.397 L
406.04 241.093 L
407.38 244.645 L
408.72 246.533 L
410.06 237.25 L
411.4 240.496 L
412.74 239.021 L
414.08 239.074 L
415.42 244.661 L
S
GR
GS
[0.75 0 0 0.75 0 0] CT
0.851 0.325 0.098 RC
1 LJ
2 LW
N
131.34 216 M
132.68 216.431 L
134.02 215.928 L
135.36 214.189 L
136.7 209.956 L
138.04 202.718 L
139.38 206.866 L
140.72 200.705 L
142.06 195.336 L
143.4 211.58 L
144.74 214.555 L
146.08 206.741 L
147.42 193.874 L
148.76 188.259 L
150.1 188.958 L
151.44 191.706 L
152.78 198.916 L
154.12 197.041 L
155.46 192.622 L
156.8 189.357 L
158.14 180.493 L
159.48 170.534 L
160.82 163.704 L
162.16 163.2 L
163.5 159.962 L
164.84 172.279 L
166.18 192.55 L
167.52 194 L
168.86 195.753 L
170.2 198.581 L
171.54 204.359 L
172.88 205.884 L
174.22 195.815 L
175.56 196.462 L
176.9 196.047 L
178.24 199.636 L
179.58 201.132 L
180.92 196.121 L
182.26 199.516 L
183.6 202.678 L
184.94 205.374 L
186.28 202.89 L
187.62 203.349 L
188.96 195.484 L
190.3 198.733 L
191.64 204.378 L
192.98 203.682 L
194.32 200.993 L
195.66 198.145 L
197 197.985 L
198.34 199.817 L
199.68 197.519 L
201.02 200.272 L
202.36 190.423 L
203.7 190.007 L
205.04 190.694 L
206.38 191.342 L
207.72 191.075 L
209.06 194.482 L
210.4 191.249 L
211.74 188.341 L
213.08 190.129 L
214.42 189.956 L
215.76 191.082 L
217.1 189.638 L
218.44 190.399 L
219.78 189.544 L
221.12 186.842 L
222.46 184.495 L
223.8 182.53 L
225.14 180.653 L
226.48 179.159 L
227.82 179.474 L
229.16 179.985 L
230.5 180.602 L
231.84 181.214 L
233.18 180.723 L
234.52 180.12 L
235.86 167.529 L
237.2 169.622 L
238.54 169.09 L
239.88 157.372 L
241.22 158.536 L
242.56 156.769 L
243.9 161.1 L
245.24 158.141 L
246.58 156.396 L
247.92 153.191 L
249.26 148.048 L
250.6 140.164 L
251.94 137.571 L
253.28 136.059 L
254.62 132.973 L
255.96 147.026 L
257.3 142.145 L
258.64 138.206 L
259.98 142.872 L
261.32 146.716 L
262.66 142.543 L
264 142.661 L
265.34 133.866 L
266.68 129.728 L
268.02 129.48 L
269.36 132.836 L
270.7 127.391 L
272.04 126.634 L
273.38 133.23 L
274.72 135.508 L
276.06 133.305 L
277.4 143.233 L
278.74 165.889 L
280.08 187.843 L
281.42 194.373 L
282.76 184.043 L
284.1 182.047 L
285.44 168.285 L
286.78 149.011 L
288.12 163.322 L
289.46 167.06 L
290.8 161.257 L
292.14 163.225 L
293.48 160.969 L
294.82 165.975 L
296.16 185.029 L
297.5 186.103 L
298.84 179.577 L
300.18 176.797 L
301.52 169.667 L
302.86 168.184 L
304.2 153.803 L
305.54 153.359 L
306.88 152.005 L
308.22 150.092 L
309.56 151.695 L
310.9 149.742 L
312.24 142.766 L
313.58 110.96 L
314.92 72.703 L
316.26 103.079 L
317.6 124.007 L
318.94 113.921 L
320.28 128.725 L
321.62 163.228 L
322.96 173.577 L
324.3 188.037 L
325.64 177.125 L
326.98 165.551 L
328.32 171.444 L
329.66 185.265 L
331 200.904 L
332.34 215.544 L
333.68 222.763 L
335.02 221.119 L
336.36 224.735 L
337.7 221.895 L
339.04 224.57 L
340.38 215.87 L
341.72 218.161 L
343.06 220.739 L
344.4 236.737 L
345.74 240.745 L
347.08 238.31 L
348.42 241.935 L
349.76 240.93 L
351.1 247.815 L
352.44 245.856 L
353.78 236.463 L
355.12 240.946 L
356.46 249.848 L
357.8 240.939 L
359.14 239.963 L
360.48 239.138 L
361.82 241.964 L
363.16 243.164 L
364.5 244.135 L
365.84 242.528 L
367.18 236.735 L
368.52 228.695 L
369.86 232.831 L
371.2 237.943 L
372.54 236.145 L
373.88 233.76 L
375.22 232.615 L
376.56 233.759 L
377.9 233.232 L
379.24 231.691 L
380.58 231.324 L
381.92 229.061 L
383.26 228.736 L
384.6 235.287 L
385.94 234.024 L
387.28 233.459 L
388.62 233.953 L
389.96 231.273 L
391.3 226.467 L
392.64 230.58 L
393.98 229.788 L
395.32 228.385 L
396.66 229.288 L
398 226.778 L
399.34 231.119 L
400.68 234.736 L
402.02 236.761 L
403.36 237.312 L
404.7 235.34 L
406.04 235.682 L
407.38 239.567 L
408.72 235.751 L
410.06 237.51 L
411.4 232.341 L
412.74 231.778 L
414.08 228.541 L
415.42 224.501 L
S
GR
GS
[0.75 0 0 0.75 0 0] CT
0.929 0.694 0.125 RC
1 LJ
2 LW
N
131.34 216 M
132.68 218.171 L
134.02 219.651 L
135.36 217.366 L
136.7 219.673 L
138.04 225.61 L
139.38 218.393 L
140.72 218.869 L
142.06 215.766 L
143.4 210.554 L
144.74 216.959 L
146.08 210.565 L
147.42 203.843 L
148.76 195.312 L
150.1 191.421 L
151.44 197.167 L
152.78 192.154 L
154.12 187.14 L
155.46 184.269 L
156.8 186.031 L
158.14 185.821 L
159.48 189.918 L
160.82 191.86 L
162.16 191.612 L
163.5 189.413 L
164.84 198.632 L
166.18 213.13 L
167.52 214.57 L
168.86 211.244 L
170.2 202.609 L
171.54 214.024 L
172.88 215.895 L
174.22 208.935 L
175.56 208.139 L
176.9 206.411 L
178.24 205.285 L
179.58 206.766 L
180.92 199.214 L
182.26 199.261 L
183.6 204.828 L
184.94 210.973 L
186.28 213.562 L
187.62 214.63 L
188.96 218.006 L
190.3 217.646 L
191.64 220.566 L
192.98 221.757 L
194.32 221.917 L
195.66 220.268 L
197 219.504 L
198.34 219.812 L
199.68 218.222 L
201.02 219.213 L
202.36 217.087 L
203.7 214.863 L
205.04 216.947 L
206.38 213.475 L
207.72 209.815 L
209.06 213.042 L
210.4 209.178 L
211.74 209.211 L
213.08 207.917 L
214.42 203.006 L
215.76 201.826 L
217.1 204.509 L
218.44 206.284 L
219.78 207.118 L
221.12 207.11 L
222.46 208.128 L
223.8 207.465 L
225.14 207.459 L
226.48 208.502 L
227.82 208.237 L
229.16 205.87 L
230.5 207.992 L
231.84 204.236 L
233.18 204.43 L
234.52 210.296 L
235.86 209.622 L
237.2 210.408 L
238.54 209.666 L
239.88 216.123 L
241.22 207.908 L
242.56 210.459 L
243.9 211.28 L
245.24 211.449 L
246.58 213.866 L
247.92 212.442 L
249.26 214.117 L
250.6 217.099 L
251.94 217.458 L
253.28 218.005 L
254.62 218.118 L
255.96 213.427 L
257.3 215.388 L
258.64 216.756 L
259.98 216.687 L
261.32 218.952 L
262.66 220.903 L
264 219.504 L
265.34 221.35 L
266.68 229.52 L
268.02 235.682 L
269.36 232.846 L
270.7 234.381 L
272.04 235.846 L
273.38 232.687 L
274.72 237.08 L
276.06 235.516 L
277.4 232.28 L
278.74 243.958 L
280.08 248.188 L
281.42 248.185 L
282.76 248.17 L
284.1 242.113 L
285.44 244.545 L
286.78 241.993 L
288.12 246.987 L
289.46 245.827 L
290.8 243.817 L
292.14 243.552 L
293.48 242.478 L
294.82 242.128 L
296.16 243.682 L
297.5 232.385 L
298.84 236.458 L
300.18 239.598 L
301.52 238.48 L
302.86 241.525 L
304.2 241.769 L
305.54 240.517 L
306.88 242.462 L
308.22 242.976 L
309.56 245.378 L
310.9 246.24 L
312.24 246.281 L
313.58 255.723 L
314.92 260.196 L
316.26 259.869 L
317.6 257.33 L
318.94 260.611 L
320.28 261.082 L
321.62 259.001 L
322.96 252.9 L
324.3 261.875 L
325.64 262.855 L
326.98 263.589 L
328.32 262.293 L
329.66 261.27 L
331 260.946 L
332.34 265.092 L
333.68 265.649 L
335.02 269.088 L
336.36 271.014 L
337.7 268.065 L
339.04 263.162 L
340.38 267.064 L
341.72 268.252 L
343.06 266.501 L
344.4 275.081 L
345.74 272.918 L
347.08 273.605 L
348.42 272.326 L
349.76 268.754 L
351.1 268.98 L
352.44 267.981 L
353.78 267.764 L
355.12 268.296 L
356.46 263.45 L
357.8 249.2 L
359.14 232.502 L
360.48 237.803 L
361.82 238.02 L
363.16 233.634 L
364.5 227.701 L
365.84 223.504 L
367.18 223.604 L
368.52 216.877 L
369.86 222.795 L
371.2 228.808 L
372.54 227.816 L
373.88 225.196 L
375.22 222.775 L
376.56 222.391 L
377.9 223.118 L
379.24 218.261 L
380.58 217.095 L
381.92 213.659 L
383.26 210.235 L
384.6 206.785 L
385.94 206.49 L
387.28 204.109 L
388.62 200.435 L
389.96 192.192 L
391.3 198.231 L
392.64 201.61 L
393.98 206.133 L
395.32 205.079 L
396.66 203.629 L
398 204.491 L
399.34 210.211 L
400.68 211.762 L
402.02 215.914 L
403.36 216.079 L
404.7 217.273 L
406.04 216.453 L
407.38 222.298 L
408.72 224.123 L
410.06 225.962 L
411.4 226.078 L
412.74 225.608 L
414.08 226.78 L
415.42 230.313 L
S
GR
GS
[0.75 0 0 0.75 0 0] CT
0.494 0.184 0.557 RC
1 LJ
2 LW
N
131.34 216 M
132.68 216.553 L
134.02 213.979 L
135.36 209.904 L
136.7 212.849 L
138.04 216.8 L
139.38 215.439 L
140.72 213.271 L
142.06 205.725 L
143.4 213.955 L
144.74 219.104 L
146.08 213.7 L
147.42 203.992 L
148.76 204.324 L
150.1 208.393 L
151.44 215.116 L
152.78 215.441 L
154.12 212.53 L
155.46 214.106 L
156.8 219.155 L
158.14 221.34 L
159.48 221.285 L
160.82 223.624 L
162.16 225.815 L
163.5 226.703 L
164.84 233.897 L
166.18 235.573 L
167.52 241.224 L
168.86 238.305 L
170.2 234.497 L
171.54 243.62 L
172.88 232.986 L
174.22 235.977 L
175.56 235.313 L
176.9 233.406 L
178.24 218.35 L
179.58 217.315 L
180.92 216.707 L
182.26 217.373 L
183.6 211.304 L
184.94 193.448 L
186.28 193.504 L
187.62 198.095 L
188.96 202.053 L
190.3 197.419 L
191.64 193.702 L
192.98 195.987 L
194.32 201.894 L
195.66 202.626 L
197 208.342 L
198.34 202.1 L
199.68 202.636 L
201.02 202.3 L
202.36 217.471 L
203.7 216.45 L
205.04 216.471 L
206.38 215 L
207.72 213.628 L
209.06 218.267 L
210.4 217.558 L
211.74 218.949 L
213.08 216.625 L
214.42 218.81 L
215.76 220.277 L
217.1 217.211 L
218.44 216.86 L
219.78 214.742 L
221.12 216.633 L
222.46 217.762 L
223.8 215.557 L
225.14 217.237 L
226.48 218.835 L
227.82 218.884 L
229.16 218.994 L
230.5 221.563 L
231.84 222.141 L
233.18 222.237 L
234.52 225.233 L
235.86 226.958 L
237.2 227.328 L
238.54 227.633 L
239.88 214.473 L
241.22 220.961 L
242.56 214.845 L
243.9 211.601 L
245.24 212.206 L
246.58 218.584 L
247.92 213.593 L
249.26 214.812 L
250.6 214.961 L
251.94 218.152 L
253.28 219.677 L
254.62 220.336 L
255.96 218.168 L
257.3 218.777 L
258.64 221.124 L
259.98 222.265 L
261.32 225.315 L
262.66 225.592 L
264 226.654 L
265.34 228.97 L
266.68 236.575 L
268.02 238.071 L
269.36 238.902 L
270.7 240.662 L
272.04 241.187 L
273.38 238.312 L
274.72 230.332 L
276.06 231.602 L
277.4 229.41 L
278.74 242.497 L
280.08 246.815 L
281.42 249.729 L
282.76 248.694 L
284.1 246.712 L
285.44 246.249 L
286.78 232.276 L
288.12 243.119 L
289.46 243.303 L
290.8 240.431 L
292.14 242.578 L
293.48 242.814 L
294.82 245.146 L
296.16 251.656 L
297.5 249.078 L
298.84 238.808 L
300.18 245.999 L
301.52 240.679 L
302.86 237.533 L
304.2 239.224 L
305.54 239.238 L
306.88 234.034 L
308.22 232.558 L
309.56 234.753 L
310.9 233.678 L
312.24 234.036 L
313.58 239.207 L
314.92 247.723 L
316.26 228.305 L
317.6 202.367 L
318.94 204.434 L
320.28 173.983 L
321.62 141.38 L
322.96 150.089 L
324.3 181.282 L
325.64 169.217 L
326.98 174.132 L
328.32 166.133 L
329.66 160.557 L
331 170.609 L
332.34 194.386 L
333.68 194.542 L
335.02 199.267 L
336.36 200.348 L
337.7 195.41 L
339.04 200.994 L
340.38 203.318 L
341.72 210.383 L
343.06 213.661 L
344.4 232.885 L
345.74 236.114 L
347.08 236.713 L
348.42 238.166 L
349.76 235.342 L
351.1 247.788 L
352.44 249.645 L
353.78 248.011 L
355.12 236.272 L
356.46 242.371 L
357.8 236.592 L
359.14 235.169 L
360.48 235.497 L
361.82 236.173 L
363.16 238.431 L
364.5 233.011 L
365.84 235.463 L
367.18 232.302 L
368.52 226.98 L
369.86 229.352 L
371.2 233.797 L
372.54 233.071 L
373.88 232.324 L
375.22 230.796 L
376.56 231.624 L
377.9 231.782 L
379.24 233.613 L
380.58 232.158 L
381.92 231.2 L
383.26 230.942 L
384.6 233.302 L
385.94 234.382 L
387.28 232.051 L
388.62 234.954 L
389.96 235.372 L
391.3 235.171 L
392.64 221.731 L
393.98 218.069 L
395.32 215.597 L
396.66 213.766 L
398 213.017 L
399.34 218.226 L
400.68 217.917 L
402.02 224.784 L
403.36 223.652 L
404.7 222.851 L
406.04 220.343 L
407.38 200.926 L
408.72 197.497 L
410.06 197.971 L
411.4 202.794 L
412.74 203.414 L
414.08 203.21 L
415.42 194.383 L
S
GR
GS
[0.75 0 0 0.75 0 0] CT
0.467 0.675 0.188 RC
1 LJ
2 LW
N
131.34 216 M
132.68 219.398 L
134.02 219.879 L
135.36 218.903 L
136.7 221.638 L
138.04 226.136 L
139.38 223.633 L
140.72 222.932 L
142.06 221.747 L
143.4 222.736 L
144.74 227.646 L
146.08 223.614 L
147.42 216.96 L
148.76 218.962 L
150.1 220.868 L
151.44 229.504 L
152.78 228.366 L
154.12 230.003 L
155.46 229.429 L
156.8 235.803 L
158.14 239.33 L
159.48 241.263 L
160.82 242.109 L
162.16 243.67 L
163.5 246.647 L
164.84 253.656 L
166.18 260.251 L
167.52 263.472 L
168.86 260.678 L
170.2 244.405 L
171.54 228.836 L
172.88 228.048 L
174.22 237.464 L
175.56 239.279 L
176.9 240.95 L
178.24 248.296 L
179.58 239.857 L
180.92 243.205 L
182.26 241.186 L
183.6 235.049 L
184.94 243.704 L
186.28 244.375 L
187.62 243.897 L
188.96 241.479 L
190.3 242.148 L
191.64 245.972 L
192.98 246.589 L
194.32 242.073 L
195.66 240.722 L
197 236.732 L
198.34 238.322 L
199.68 238.363 L
201.02 238.303 L
202.36 230.508 L
203.7 234.715 L
205.04 236.135 L
206.38 235.786 L
207.72 241.994 L
209.06 243.801 L
210.4 242.242 L
211.74 238.908 L
213.08 239.081 L
214.42 240.799 L
215.76 239.839 L
217.1 242 L
218.44 239.206 L
219.78 237.428 L
221.12 238.594 L
222.46 238.071 L
223.8 238.922 L
225.14 234.703 L
226.48 235.799 L
227.82 233.502 L
229.16 225.677 L
230.5 217.355 L
231.84 220.484 L
233.18 219.336 L
234.52 203.812 L
235.86 212.076 L
237.2 209.491 L
238.54 208.457 L
239.88 222.688 L
241.22 222.123 L
242.56 226.065 L
243.9 222.878 L
245.24 225.33 L
246.58 232.76 L
247.92 236.886 L
249.26 237.787 L
250.6 241.007 L
251.94 239.847 L
253.28 241.942 L
254.62 242.698 L
255.96 238.046 L
257.3 240.46 L
258.64 241.556 L
259.98 242.188 L
261.32 244.063 L
262.66 247.842 L
264 247.587 L
265.34 249.403 L
266.68 254.371 L
268.02 253.113 L
269.36 255.072 L
270.7 256.608 L
272.04 257.295 L
273.38 253.925 L
274.72 254.544 L
276.06 254.482 L
277.4 254.996 L
278.74 262.834 L
280.08 268.43 L
281.42 271.321 L
282.76 271.16 L
284.1 268.972 L
285.44 268.845 L
286.78 261.676 L
288.12 266.133 L
289.46 267.776 L
290.8 266.882 L
292.14 266.772 L
293.48 266.381 L
294.82 268.312 L
296.16 273.432 L
297.5 274.978 L
298.84 274.332 L
300.18 277.826 L
301.52 277.06 L
302.86 267.305 L
304.2 274.623 L
305.54 274.639 L
306.88 277.345 L
308.22 277.318 L
309.56 279.833 L
310.9 280.678 L
312.24 281.561 L
313.58 286.288 L
314.92 291.772 L
316.26 287.963 L
317.6 289.706 L
318.94 289.834 L
320.28 294.467 L
321.62 285.527 L
322.96 271.924 L
324.3 228.471 L
325.64 241.831 L
326.98 244.075 L
328.32 249.282 L
329.66 250.934 L
331 252.581 L
332.34 257.992 L
333.68 216.531 L
335.02 203.155 L
336.36 211.802 L
337.7 216.626 L
339.04 211.218 L
340.38 211.639 L
341.72 189.722 L
343.06 177.303 L
344.4 124.26 L
345.74 110.969 L
347.08 111.281 L
348.42 102.677 L
349.76 113.08 L
351.1 79.723 L
352.44 73.407 L
353.78 89.286 L
355.12 98.487 L
356.46 84.885 L
357.8 117.68 L
359.14 140.551 L
360.48 155.929 L
361.82 142.458 L
363.16 144.295 L
364.5 153.177 L
365.84 157.509 L
367.18 165.682 L
368.52 180.875 L
369.86 165.636 L
371.2 142.709 L
372.54 147.612 L
373.88 159.272 L
375.22 162.507 L
376.56 156.463 L
377.9 157.187 L
379.24 159.837 L
380.58 164.265 L
381.92 171.467 L
383.26 174.903 L
384.6 167.219 L
385.94 167.929 L
387.28 172.932 L
388.62 172.708 L
389.96 181.197 L
391.3 181.575 L
392.64 186.561 L
393.98 188.722 L
395.32 185.385 L
396.66 185.631 L
398 190.124 L
399.34 192.243 L
400.68 180.096 L
402.02 162.13 L
403.36 164.639 L
404.7 164.139 L
406.04 166.43 L
407.38 172.564 L
408.72 176.097 L
410.06 181.307 L
411.4 178.29 L
412.74 180.178 L
414.08 182.395 L
415.42 186.142 L
S
GR
GS
[0.75 0 0 0.75 0 0] CT
1 GC
N
452 167 M
452 46 L
362 46 L
362 167 L
cp
f
GR
GS
[0.75 0 0 0.75 306.75 44.625] CT
/Helvetica 18 F
GS
[1 0 0 1 0 0] CT
0 7.5 moveto 
1 -1 scale
(BCH) t 
GR
GR
GS
[0.75 0 0 0.75 0 0] CT
0 0.447 0.741 RC
1 LJ
2 LW
N
366 59.5 M
406 59.5 L
S
GR
GS
[0.75 0 0 0.75 306.75 62.25] CT
/Helvetica 18 F
GS
[1 0 0 1 0 0] CT
0 7.5 moveto 
1 -1 scale
(BTC) t 
GR
GR
GS
[0.75 0 0 0.75 0 0] CT
0.851 0.325 0.098 RC
1 LJ
2 LW
N
366 83 M
406 83 L
S
GR
GS
[0.75 0 0 0.75 306.75 79.875] CT
/Helvetica 18 F
GS
[1 0 0 1 0 0] CT
0 7.5 moveto 
1 -1 scale
(ETH) t 
GR
GR
GS
[0.75 0 0 0.75 0 0] CT
0.929 0.694 0.125 RC
1 LJ
2 LW
N
366 106.5 M
406 106.5 L
S
GR
GS
[0.75 0 0 0.75 306.75 97.5] CT
/Helvetica 18 F
GS
[1 0 0 1 0 0] CT
0 7.5 moveto 
1 -1 scale
(LTC) t 
GR
GR
GS
[0.75 0 0 0.75 0 0] CT
0.494 0.184 0.557 RC
1 LJ
2 LW
N
366 130 M
406 130 L
S
GR
GS
[0.75 0 0 0.75 306.75 115.125] CT
/Helvetica 18 F
GS
[1 0 0 1 0 0] CT
0 7.5 moveto 
1 -1 scale
(XRP) t 
GR
GR
GS
[0.75 0 0 0.75 0 0] CT
0.467 0.675 0.188 RC
1 LJ
2 LW
N
366 153.5 M
406 153.5 L
S
GR
GS
[0.75 0 0 0.75 0 0] CT
0.149 GC
10.0 ML
0.667 LW
N
362 167 M
362 46 L
452 46 L
452 167 L
cp
S
GR
GS
[0.75 0 0 0.75 0 0] CT
1 GC
N
570 338 M
905 338 L
905 33 L
570 33 L
cp
f
GR
GS
[0.75 0 0 0.75 0 0] CT
0.775 GC
[1 3] 0 setdash
2 LJ
0.667 LW
N
570 338 M
570 33 L
S
GR
GS
[0.75 0 0 0.75 0 0] CT
0.775 GC
[1 3] 0 setdash
2 LJ
0.667 LW
N
583.4 338 M
583.4 33 L
S
GR
GS
[0.75 0 0 0.75 0 0] CT
0.775 GC
[1 3] 0 setdash
2 LJ
0.667 LW
N
596.8 338 M
596.8 33 L
S
GR
GS
[0.75 0 0 0.75 0 0] CT
0.775 GC
[1 3] 0 setdash
2 LJ
0.667 LW
N
610.2 338 M
610.2 33 L
S
GR
GS
[0.75 0 0 0.75 0 0] CT
0.775 GC
[1 3] 0 setdash
2 LJ
0.667 LW
N
623.6 338 M
623.6 33 L
S
GR
GS
[0.75 0 0 0.75 0 0] CT
0.775 GC
[1 3] 0 setdash
2 LJ
0.667 LW
N
637 338 M
637 33 L
S
GR
GS
[0.75 0 0 0.75 0 0] CT
0.775 GC
[1 3] 0 setdash
2 LJ
0.667 LW
N
650.4 338 M
650.4 33 L
S
GR
GS
[0.75 0 0 0.75 0 0] CT
0.775 GC
[1 3] 0 setdash
2 LJ
0.667 LW
N
663.8 338 M
663.8 33 L
S
GR
GS
[0.75 0 0 0.75 0 0] CT
0.775 GC
[1 3] 0 setdash
2 LJ
0.667 LW
N
677.2 338 M
677.2 33 L
S
GR
GS
[0.75 0 0 0.75 0 0] CT
0.775 GC
[1 3] 0 setdash
2 LJ
0.667 LW
N
690.6 338 M
690.6 33 L
S
GR
GS
[0.75 0 0 0.75 0 0] CT
0.775 GC
[1 3] 0 setdash
2 LJ
0.667 LW
N
704 338 M
704 33 L
S
GR
GS
[0.75 0 0 0.75 0 0] CT
0.775 GC
[1 3] 0 setdash
2 LJ
0.667 LW
N
717.4 338 M
717.4 33 L
S
GR
GS
[0.75 0 0 0.75 0 0] CT
0.775 GC
[1 3] 0 setdash
2 LJ
0.667 LW
N
730.8 338 M
730.8 33 L
S
GR
GS
[0.75 0 0 0.75 0 0] CT
0.775 GC
[1 3] 0 setdash
2 LJ
0.667 LW
N
744.2 338 M
744.2 33 L
S
GR
GS
[0.75 0 0 0.75 0 0] CT
0.775 GC
[1 3] 0 setdash
2 LJ
0.667 LW
N
757.6 338 M
757.6 33 L
S
GR
GS
[0.75 0 0 0.75 0 0] CT
0.775 GC
[1 3] 0 setdash
2 LJ
0.667 LW
N
771 338 M
771 33 L
S
GR
GS
[0.75 0 0 0.75 0 0] CT
0.775 GC
[1 3] 0 setdash
2 LJ
0.667 LW
N
784.4 338 M
784.4 33 L
S
GR
GS
[0.75 0 0 0.75 0 0] CT
0.775 GC
[1 3] 0 setdash
2 LJ
0.667 LW
N
797.8 338 M
797.8 33 L
S
GR
GS
[0.75 0 0 0.75 0 0] CT
0.775 GC
[1 3] 0 setdash
2 LJ
0.667 LW
N
811.2 338 M
811.2 33 L
S
GR
GS
[0.75 0 0 0.75 0 0] CT
0.775 GC
[1 3] 0 setdash
2 LJ
0.667 LW
N
824.6 338 M
824.6 33 L
S
GR
GS
[0.75 0 0 0.75 0 0] CT
0.775 GC
[1 3] 0 setdash
2 LJ
0.667 LW
N
838 338 M
838 33 L
S
GR
GS
[0.75 0 0 0.75 0 0] CT
0.775 GC
[1 3] 0 setdash
2 LJ
0.667 LW
N
851.4 338 M
851.4 33 L
S
GR
GS
[0.75 0 0 0.75 0 0] CT
0.775 GC
[1 3] 0 setdash
2 LJ
0.667 LW
N
864.8 338 M
864.8 33 L
S
GR
GS
[0.75 0 0 0.75 0 0] CT
0.775 GC
[1 3] 0 setdash
2 LJ
0.667 LW
N
878.2 338 M
878.2 33 L
S
GR
GS
[0.75 0 0 0.75 0 0] CT
0.775 GC
[1 3] 0 setdash
2 LJ
0.667 LW
N
891.6 338 M
891.6 33 L
S
GR
GS
[0.75 0 0 0.75 0 0] CT
0.775 GC
[1 3] 0 setdash
2 LJ
0.667 LW
N
905 338 M
905 33 L
S
GR
GS
[0.75 0 0 0.75 0 0] CT
0.775 GC
[1 3] 0 setdash
2 LJ
0.667 LW
N
905 338 M
570 338 L
S
GR
GS
[0.75 0 0 0.75 0 0] CT
0.775 GC
[1 3] 0 setdash
2 LJ
0.667 LW
N
905 326.523 M
570 326.523 L
S
GR
GS
[0.75 0 0 0.75 0 0] CT
0.775 GC
[1 3] 0 setdash
2 LJ
0.667 LW
N
905 319.81 M
570 319.81 L
S
GR
GS
[0.75 0 0 0.75 0 0] CT
0.775 GC
[1 3] 0 setdash
2 LJ
0.667 LW
N
905 315.046 M
570 315.046 L
S
GR
GS
[0.75 0 0 0.75 0 0] CT
0.775 GC
[1 3] 0 setdash
2 LJ
0.667 LW
N
905 311.352 M
570 311.352 L
S
GR
GS
[0.75 0 0 0.75 0 0] CT
0.775 GC
[1 3] 0 setdash
2 LJ
0.667 LW
N
905 308.333 M
570 308.333 L
S
GR
GS
[0.75 0 0 0.75 0 0] CT
0.775 GC
[1 3] 0 setdash
2 LJ
0.667 LW
N
905 305.781 M
570 305.781 L
S
GR
GS
[0.75 0 0 0.75 0 0] CT
0.775 GC
[1 3] 0 setdash
2 LJ
0.667 LW
N
905 303.57 M
570 303.57 L
S
GR
GS
[0.75 0 0 0.75 0 0] CT
0.775 GC
[1 3] 0 setdash
2 LJ
0.667 LW
N
905 301.62 M
570 301.62 L
S
GR
GS
[0.75 0 0 0.75 0 0] CT
0.775 GC
[1 3] 0 setdash
2 LJ
0.667 LW
N
905 299.875 M
570 299.875 L
S
GR
GS
[0.75 0 0 0.75 0 0] CT
0.775 GC
[1 3] 0 setdash
2 LJ
0.667 LW
N
905 288.398 M
570 288.398 L
S
GR
GS
[0.75 0 0 0.75 0 0] CT
0.775 GC
[1 3] 0 setdash
2 LJ
0.667 LW
N
905 281.685 M
570 281.685 L
S
GR
GS
[0.75 0 0 0.75 0 0] CT
0.775 GC
[1 3] 0 setdash
2 LJ
0.667 LW
N
905 276.921 M
570 276.921 L
S
GR
GS
[0.75 0 0 0.75 0 0] CT
0.775 GC
[1 3] 0 setdash
2 LJ
0.667 LW
N
905 273.227 M
570 273.227 L
S
GR
GS
[0.75 0 0 0.75 0 0] CT
0.775 GC
[1 3] 0 setdash
2 LJ
0.667 LW
N
905 270.208 M
570 270.208 L
S
GR
GS
[0.75 0 0 0.75 0 0] CT
0.775 GC
[1 3] 0 setdash
2 LJ
0.667 LW
N
905 267.656 M
570 267.656 L
S
GR
GS
[0.75 0 0 0.75 0 0] CT
0.775 GC
[1 3] 0 setdash
2 LJ
0.667 LW
N
905 265.445 M
570 265.445 L
S
GR
GS
[0.75 0 0 0.75 0 0] CT
0.775 GC
[1 3] 0 setdash
2 LJ
0.667 LW
N
905 263.495 M
570 263.495 L
S
GR
GS
[0.75 0 0 0.75 0 0] CT
0.775 GC
[1 3] 0 setdash
2 LJ
0.667 LW
N
905 261.75 M
570 261.75 L
S
GR
GS
[0.75 0 0 0.75 0 0] CT
0.775 GC
[1 3] 0 setdash
2 LJ
0.667 LW
N
905 250.273 M
570 250.273 L
S
GR
GS
[0.75 0 0 0.75 0 0] CT
0.775 GC
[1 3] 0 setdash
2 LJ
0.667 LW
N
905 243.56 M
570 243.56 L
S
GR
GS
[0.75 0 0 0.75 0 0] CT
0.775 GC
[1 3] 0 setdash
2 LJ
0.667 LW
N
905 238.796 M
570 238.796 L
S
GR
GS
[0.75 0 0 0.75 0 0] CT
0.775 GC
[1 3] 0 setdash
2 LJ
0.667 LW
N
905 235.102 M
570 235.102 L
S
GR
GS
[0.75 0 0 0.75 0 0] CT
0.775 GC
[1 3] 0 setdash
2 LJ
0.667 LW
N
905 232.083 M
570 232.083 L
S
GR
GS
[0.75 0 0 0.75 0 0] CT
0.775 GC
[1 3] 0 setdash
2 LJ
0.667 LW
N
905 229.531 M
570 229.531 L
S
GR
GS
[0.75 0 0 0.75 0 0] CT
0.775 GC
[1 3] 0 setdash
2 LJ
0.667 LW
N
905 227.32 M
570 227.32 L
S
GR
GS
[0.75 0 0 0.75 0 0] CT
0.775 GC
[1 3] 0 setdash
2 LJ
0.667 LW
N
905 225.37 M
570 225.37 L
S
GR
GS
[0.75 0 0 0.75 0 0] CT
0.775 GC
[1 3] 0 setdash
2 LJ
0.667 LW
N
905 223.625 M
570 223.625 L
S
GR
GS
[0.75 0 0 0.75 0 0] CT
0.775 GC
[1 3] 0 setdash
2 LJ
0.667 LW
N
905 212.148 M
570 212.148 L
S
GR
GS
[0.75 0 0 0.75 0 0] CT
0.775 GC
[1 3] 0 setdash
2 LJ
0.667 LW
N
905 205.435 M
570 205.435 L
S
GR
GS
[0.75 0 0 0.75 0 0] CT
0.775 GC
[1 3] 0 setdash
2 LJ
0.667 LW
N
905 200.671 M
570 200.671 L
S
GR
GS
[0.75 0 0 0.75 0 0] CT
0.775 GC
[1 3] 0 setdash
2 LJ
0.667 LW
N
905 196.977 M
570 196.977 L
S
GR
GS
[0.75 0 0 0.75 0 0] CT
0.775 GC
[1 3] 0 setdash
2 LJ
0.667 LW
N
905 193.958 M
570 193.958 L
S
GR
GS
[0.75 0 0 0.75 0 0] CT
0.775 GC
[1 3] 0 setdash
2 LJ
0.667 LW
N
905 191.406 M
570 191.406 L
S
GR
GS
[0.75 0 0 0.75 0 0] CT
0.775 GC
[1 3] 0 setdash
2 LJ
0.667 LW
N
905 189.195 M
570 189.195 L
S
GR
GS
[0.75 0 0 0.75 0 0] CT
0.775 GC
[1 3] 0 setdash
2 LJ
0.667 LW
N
905 187.245 M
570 187.245 L
S
GR
GS
[0.75 0 0 0.75 0 0] CT
0.775 GC
[1 3] 0 setdash
2 LJ
0.667 LW
N
905 185.5 M
570 185.5 L
S
GR
GS
[0.75 0 0 0.75 0 0] CT
0.775 GC
[1 3] 0 setdash
2 LJ
0.667 LW
N
905 174.023 M
570 174.023 L
S
GR
GS
[0.75 0 0 0.75 0 0] CT
0.775 GC
[1 3] 0 setdash
2 LJ
0.667 LW
N
905 167.31 M
570 167.31 L
S
GR
GS
[0.75 0 0 0.75 0 0] CT
0.775 GC
[1 3] 0 setdash
2 LJ
0.667 LW
N
905 162.546 M
570 162.546 L
S
GR
GS
[0.75 0 0 0.75 0 0] CT
0.775 GC
[1 3] 0 setdash
2 LJ
0.667 LW
N
905 158.852 M
570 158.852 L
S
GR
GS
[0.75 0 0 0.75 0 0] CT
0.775 GC
[1 3] 0 setdash
2 LJ
0.667 LW
N
905 155.833 M
570 155.833 L
S
GR
GS
[0.75 0 0 0.75 0 0] CT
0.775 GC
[1 3] 0 setdash
2 LJ
0.667 LW
N
905 153.281 M
570 153.281 L
S
GR
GS
[0.75 0 0 0.75 0 0] CT
0.775 GC
[1 3] 0 setdash
2 LJ
0.667 LW
N
905 151.07 M
570 151.07 L
S
GR
GS
[0.75 0 0 0.75 0 0] CT
0.775 GC
[1 3] 0 setdash
2 LJ
0.667 LW
N
905 149.119 M
570 149.119 L
S
GR
GS
[0.75 0 0 0.75 0 0] CT
0.775 GC
[1 3] 0 setdash
2 LJ
0.667 LW
N
905 147.375 M
570 147.375 L
S
GR
GS
[0.75 0 0 0.75 0 0] CT
0.775 GC
[1 3] 0 setdash
2 LJ
0.667 LW
N
905 135.898 M
570 135.898 L
S
GR
GS
[0.75 0 0 0.75 0 0] CT
0.775 GC
[1 3] 0 setdash
2 LJ
0.667 LW
N
905 129.185 M
570 129.185 L
S
GR
GS
[0.75 0 0 0.75 0 0] CT
0.775 GC
[1 3] 0 setdash
2 LJ
0.667 LW
N
905 124.421 M
570 124.421 L
S
GR
GS
[0.75 0 0 0.75 0 0] CT
0.775 GC
[1 3] 0 setdash
2 LJ
0.667 LW
N
905 120.727 M
570 120.727 L
S
GR
GS
[0.75 0 0 0.75 0 0] CT
0.775 GC
[1 3] 0 setdash
2 LJ
0.667 LW
N
905 117.708 M
570 117.708 L
S
GR
GS
[0.75 0 0 0.75 0 0] CT
0.775 GC
[1 3] 0 setdash
2 LJ
0.667 LW
N
905 115.156 M
570 115.156 L
S
GR
GS
[0.75 0 0 0.75 0 0] CT
0.775 GC
[1 3] 0 setdash
2 LJ
0.667 LW
N
905 112.945 M
570 112.945 L
S
GR
GS
[0.75 0 0 0.75 0 0] CT
0.775 GC
[1 3] 0 setdash
2 LJ
0.667 LW
N
905 110.994 M
570 110.994 L
S
GR
GS
[0.75 0 0 0.75 0 0] CT
0.775 GC
[1 3] 0 setdash
2 LJ
0.667 LW
N
905 109.25 M
570 109.25 L
S
GR
GS
[0.75 0 0 0.75 0 0] CT
0.775 GC
[1 3] 0 setdash
2 LJ
0.667 LW
N
905 97.773 M
570 97.773 L
S
GR
GS
[0.75 0 0 0.75 0 0] CT
0.775 GC
[1 3] 0 setdash
2 LJ
0.667 LW
N
905 91.06 M
570 91.06 L
S
GR
GS
[0.75 0 0 0.75 0 0] CT
0.775 GC
[1 3] 0 setdash
2 LJ
0.667 LW
N
905 86.296 M
570 86.296 L
S
GR
GS
[0.75 0 0 0.75 0 0] CT
0.775 GC
[1 3] 0 setdash
2 LJ
0.667 LW
N
905 82.602 M
570 82.602 L
S
GR
GS
[0.75 0 0 0.75 0 0] CT
0.775 GC
[1 3] 0 setdash
2 LJ
0.667 LW
N
905 79.583 M
570 79.583 L
S
GR
GS
[0.75 0 0 0.75 0 0] CT
0.775 GC
[1 3] 0 setdash
2 LJ
0.667 LW
N
905 77.031 M
570 77.031 L
S
GR
GS
[0.75 0 0 0.75 0 0] CT
0.775 GC
[1 3] 0 setdash
2 LJ
0.667 LW
N
905 74.82 M
570 74.82 L
S
GR
GS
[0.75 0 0 0.75 0 0] CT
0.775 GC
[1 3] 0 setdash
2 LJ
0.667 LW
N
905 72.869 M
570 72.869 L
S
GR
GS
[0.75 0 0 0.75 0 0] CT
0.775 GC
[1 3] 0 setdash
2 LJ
0.667 LW
N
905 71.125 M
570 71.125 L
S
GR
GS
[0.75 0 0 0.75 0 0] CT
0.775 GC
[1 3] 0 setdash
2 LJ
0.667 LW
N
905 59.648 M
570 59.648 L
S
GR
GS
[0.75 0 0 0.75 0 0] CT
0.775 GC
[1 3] 0 setdash
2 LJ
0.667 LW
N
905 52.935 M
570 52.935 L
S
GR
GS
[0.75 0 0 0.75 0 0] CT
0.775 GC
[1 3] 0 setdash
2 LJ
0.667 LW
N
905 48.171 M
570 48.171 L
S
GR
GS
[0.75 0 0 0.75 0 0] CT
0.775 GC
[1 3] 0 setdash
2 LJ
0.667 LW
N
905 44.477 M
570 44.477 L
S
GR
GS
[0.75 0 0 0.75 0 0] CT
0.775 GC
[1 3] 0 setdash
2 LJ
0.667 LW
N
905 41.458 M
570 41.458 L
S
GR
GS
[0.75 0 0 0.75 0 0] CT
0.775 GC
[1 3] 0 setdash
2 LJ
0.667 LW
N
905 38.906 M
570 38.906 L
S
GR
GS
[0.75 0 0 0.75 0 0] CT
0.775 GC
[1 3] 0 setdash
2 LJ
0.667 LW
N
905 36.695 M
570 36.695 L
S
GR
GS
[0.75 0 0 0.75 0 0] CT
0.775 GC
[1 3] 0 setdash
2 LJ
0.667 LW
N
905 34.744 M
570 34.744 L
S
GR
GS
[0.75 0 0 0.75 0 0] CT
0.775 GC
[1 3] 0 setdash
2 LJ
0.667 LW
N
905 33 M
570 33 L
S
GR
GS
[0.75 0 0 0.75 0 0] CT
0.149 GC
2 setlinecap
1 LJ
0.667 LW
N
570 338 M
905 338 L
S
GR
GS
[0.75 0 0 0.75 0 0] CT
0.149 GC
2 setlinecap
1 LJ
0.667 LW
N
570 33 M
905 33 L
S
GR
GS
[0.75 0 0 0.75 0 0] CT
0.149 GC
2 setlinecap
1 LJ
0.667 LW
N
570 338 M
570 334.65 L
S
GR
GS
[0.75 0 0 0.75 0 0] CT
0.149 GC
2 setlinecap
1 LJ
0.667 LW
N
637 338 M
637 334.65 L
S
GR
GS
[0.75 0 0 0.75 0 0] CT
0.149 GC
2 setlinecap
1 LJ
0.667 LW
N
704 338 M
704 334.65 L
S
GR
GS
[0.75 0 0 0.75 0 0] CT
0.149 GC
2 setlinecap
1 LJ
0.667 LW
N
771 338 M
771 334.65 L
S
GR
GS
[0.75 0 0 0.75 0 0] CT
0.149 GC
2 setlinecap
1 LJ
0.667 LW
N
838 338 M
838 334.65 L
S
GR
GS
[0.75 0 0 0.75 0 0] CT
0.149 GC
2 setlinecap
1 LJ
0.667 LW
N
905 338 M
905 334.65 L
S
GR
GS
[0.75 0 0 0.75 0 0] CT
0.149 GC
2 setlinecap
1 LJ
0.667 LW
N
570 33 M
570 36.35 L
S
GR
GS
[0.75 0 0 0.75 0 0] CT
0.149 GC
2 setlinecap
1 LJ
0.667 LW
N
637 33 M
637 36.35 L
S
GR
GS
[0.75 0 0 0.75 0 0] CT
0.149 GC
2 setlinecap
1 LJ
0.667 LW
N
704 33 M
704 36.35 L
S
GR
GS
[0.75 0 0 0.75 0 0] CT
0.149 GC
2 setlinecap
1 LJ
0.667 LW
N
771 33 M
771 36.35 L
S
GR
GS
[0.75 0 0 0.75 0 0] CT
0.149 GC
2 setlinecap
1 LJ
0.667 LW
N
838 33 M
838 36.35 L
S
GR
GS
[0.75 0 0 0.75 0 0] CT
0.149 GC
2 setlinecap
1 LJ
0.667 LW
N
905 33 M
905 36.35 L
S
GR
GS
[0.75 0 0 0.75 427.5 258.49999] CT
0.149 GC
/Helvetica 20 F
GS
[1 0 0 1 0 0] CT
-6 21 moveto 
1 -1 scale
(0) t 
GR
GR
GS
[0.75 0 0 0.75 477.75 258.49999] CT
0.149 GC
/Helvetica 20 F
GS
[1 0 0 1 0 0] CT
-11.5 21 moveto 
1 -1 scale
(50) t 
GR
GR
GS
[0.75 0 0 0.75 528 258.49999] CT
0.149 GC
/Helvetica 20 F
GS
[1 0 0 1 0 0] CT
-17 21 moveto 
1 -1 scale
(100) t 
GR
GR
GS
[0.75 0 0 0.75 578.25 258.49999] CT
0.149 GC
/Helvetica 20 F
GS
[1 0 0 1 0 0] CT
-17 21 moveto 
1 -1 scale
(150) t 
GR
GR
GS
[0.75 0 0 0.75 628.5 258.49999] CT
0.149 GC
/Helvetica 20 F
GS
[1 0 0 1 0 0] CT
-17 21 moveto 
1 -1 scale
(200) t 
GR
GR
GS
[0.75 0 0 0.75 678.75 258.49999] CT
0.149 GC
/Helvetica 20 F
GS
[1 0 0 1 0 0] CT
-17 21 moveto 
1 -1 scale
(250) t 
GR
GR
GS
[0.75 0 0 0.75 553.12514 279] CT
0.149 GC
/Helvetica 22 F
GS
[1 0 0 1 0 0] CT
-21.5 23 moveto 
1 -1 scale
(date) t 
GR
GR
GS
[0.75 0 0 0.75 0 0] CT
0.149 GC
2 setlinecap
1 LJ
0.667 LW
N
570 338 M
570 33 L
S
GR
GS
[0.75 0 0 0.75 0 0] CT
0.149 GC
2 setlinecap
1 LJ
0.667 LW
N
905 338 M
905 33 L
S
GR
GS
[0.75 0 0 0.75 0 0] CT
0.149 GC
2 setlinecap
1 LJ
0.667 LW
N
570 338 M
573.35 338 L
S
GR
GS
[0.75 0 0 0.75 0 0] CT
0.149 GC
2 setlinecap
1 LJ
0.667 LW
N
570 261.75 M
573.35 261.75 L
S
GR
GS
[0.75 0 0 0.75 0 0] CT
0.149 GC
2 setlinecap
1 LJ
0.667 LW
N
570 185.5 M
573.35 185.5 L
S
GR
GS
[0.75 0 0 0.75 0 0] CT
0.149 GC
2 setlinecap
1 LJ
0.667 LW
N
570 109.25 M
573.35 109.25 L
S
GR
GS
[0.75 0 0 0.75 0 0] CT
0.149 GC
2 setlinecap
1 LJ
0.667 LW
N
570 33 M
573.35 33 L
S
GR
GS
[0.75 0 0 0.75 0 0] CT
0.149 GC
2 setlinecap
1 LJ
0.667 LW
N
905 338 M
901.65 338 L
S
GR
GS
[0.75 0 0 0.75 0 0] CT
0.149 GC
2 setlinecap
1 LJ
0.667 LW
N
905 261.75 M
901.65 261.75 L
S
GR
GS
[0.75 0 0 0.75 0 0] CT
0.149 GC
2 setlinecap
1 LJ
0.667 LW
N
905 185.5 M
901.65 185.5 L
S
GR
GS
[0.75 0 0 0.75 0 0] CT
0.149 GC
2 setlinecap
1 LJ
0.667 LW
N
905 109.25 M
901.65 109.25 L
S
GR
GS
[0.75 0 0 0.75 0 0] CT
0.149 GC
2 setlinecap
1 LJ
0.667 LW
N
905 33 M
901.65 33 L
S
GR
GS
[0.75 0 0 0.75 0 0] CT
0.149 GC
2 setlinecap
1 LJ
0.667 LW
N
570 338 M
571.675 338 L
S
GR
GS
[0.75 0 0 0.75 0 0] CT
0.149 GC
2 setlinecap
1 LJ
0.667 LW
N
570 326.523 M
571.675 326.523 L
S
GR
GS
[0.75 0 0 0.75 0 0] CT
0.149 GC
2 setlinecap
1 LJ
0.667 LW
N
570 319.81 M
571.675 319.81 L
S
GR
GS
[0.75 0 0 0.75 0 0] CT
0.149 GC
2 setlinecap
1 LJ
0.667 LW
N
570 315.046 M
571.675 315.046 L
S
GR
GS
[0.75 0 0 0.75 0 0] CT
0.149 GC
2 setlinecap
1 LJ
0.667 LW
N
570 311.352 M
571.675 311.352 L
S
GR
GS
[0.75 0 0 0.75 0 0] CT
0.149 GC
2 setlinecap
1 LJ
0.667 LW
N
570 308.333 M
571.675 308.333 L
S
GR
GS
[0.75 0 0 0.75 0 0] CT
0.149 GC
2 setlinecap
1 LJ
0.667 LW
N
570 305.781 M
571.675 305.781 L
S
GR
GS
[0.75 0 0 0.75 0 0] CT
0.149 GC
2 setlinecap
1 LJ
0.667 LW
N
570 303.57 M
571.675 303.57 L
S
GR
GS
[0.75 0 0 0.75 0 0] CT
0.149 GC
2 setlinecap
1 LJ
0.667 LW
N
570 301.62 M
571.675 301.62 L
S
GR
GS
[0.75 0 0 0.75 0 0] CT
0.149 GC
2 setlinecap
1 LJ
0.667 LW
N
570 299.875 M
571.675 299.875 L
S
GR
GS
[0.75 0 0 0.75 0 0] CT
0.149 GC
2 setlinecap
1 LJ
0.667 LW
N
570 288.398 M
571.675 288.398 L
S
GR
GS
[0.75 0 0 0.75 0 0] CT
0.149 GC
2 setlinecap
1 LJ
0.667 LW
N
570 281.685 M
571.675 281.685 L
S
GR
GS
[0.75 0 0 0.75 0 0] CT
0.149 GC
2 setlinecap
1 LJ
0.667 LW
N
570 276.921 M
571.675 276.921 L
S
GR
GS
[0.75 0 0 0.75 0 0] CT
0.149 GC
2 setlinecap
1 LJ
0.667 LW
N
570 273.227 M
571.675 273.227 L
S
GR
GS
[0.75 0 0 0.75 0 0] CT
0.149 GC
2 setlinecap
1 LJ
0.667 LW
N
570 270.208 M
571.675 270.208 L
S
GR
GS
[0.75 0 0 0.75 0 0] CT
0.149 GC
2 setlinecap
1 LJ
0.667 LW
N
570 267.656 M
571.675 267.656 L
S
GR
GS
[0.75 0 0 0.75 0 0] CT
0.149 GC
2 setlinecap
1 LJ
0.667 LW
N
570 265.445 M
571.675 265.445 L
S
GR
GS
[0.75 0 0 0.75 0 0] CT
0.149 GC
2 setlinecap
1 LJ
0.667 LW
N
570 263.495 M
571.675 263.495 L
S
GR
GS
[0.75 0 0 0.75 0 0] CT
0.149 GC
2 setlinecap
1 LJ
0.667 LW
N
570 261.75 M
571.675 261.75 L
S
GR
GS
[0.75 0 0 0.75 0 0] CT
0.149 GC
2 setlinecap
1 LJ
0.667 LW
N
570 250.273 M
571.675 250.273 L
S
GR
GS
[0.75 0 0 0.75 0 0] CT
0.149 GC
2 setlinecap
1 LJ
0.667 LW
N
570 243.56 M
571.675 243.56 L
S
GR
GS
[0.75 0 0 0.75 0 0] CT
0.149 GC
2 setlinecap
1 LJ
0.667 LW
N
570 238.796 M
571.675 238.796 L
S
GR
GS
[0.75 0 0 0.75 0 0] CT
0.149 GC
2 setlinecap
1 LJ
0.667 LW
N
570 235.102 M
571.675 235.102 L
S
GR
GS
[0.75 0 0 0.75 0 0] CT
0.149 GC
2 setlinecap
1 LJ
0.667 LW
N
570 232.083 M
571.675 232.083 L
S
GR
GS
[0.75 0 0 0.75 0 0] CT
0.149 GC
2 setlinecap
1 LJ
0.667 LW
N
570 229.531 M
571.675 229.531 L
S
GR
GS
[0.75 0 0 0.75 0 0] CT
0.149 GC
2 setlinecap
1 LJ
0.667 LW
N
570 227.32 M
571.675 227.32 L
S
GR
GS
[0.75 0 0 0.75 0 0] CT
0.149 GC
2 setlinecap
1 LJ
0.667 LW
N
570 225.37 M
571.675 225.37 L
S
GR
GS
[0.75 0 0 0.75 0 0] CT
0.149 GC
2 setlinecap
1 LJ
0.667 LW
N
570 223.625 M
571.675 223.625 L
S
GR
GS
[0.75 0 0 0.75 0 0] CT
0.149 GC
2 setlinecap
1 LJ
0.667 LW
N
570 212.148 M
571.675 212.148 L
S
GR
GS
[0.75 0 0 0.75 0 0] CT
0.149 GC
2 setlinecap
1 LJ
0.667 LW
N
570 205.435 M
571.675 205.435 L
S
GR
GS
[0.75 0 0 0.75 0 0] CT
0.149 GC
2 setlinecap
1 LJ
0.667 LW
N
570 200.671 M
571.675 200.671 L
S
GR
GS
[0.75 0 0 0.75 0 0] CT
0.149 GC
2 setlinecap
1 LJ
0.667 LW
N
570 196.977 M
571.675 196.977 L
S
GR
GS
[0.75 0 0 0.75 0 0] CT
0.149 GC
2 setlinecap
1 LJ
0.667 LW
N
570 193.958 M
571.675 193.958 L
S
GR
GS
[0.75 0 0 0.75 0 0] CT
0.149 GC
2 setlinecap
1 LJ
0.667 LW
N
570 191.406 M
571.675 191.406 L
S
GR
GS
[0.75 0 0 0.75 0 0] CT
0.149 GC
2 setlinecap
1 LJ
0.667 LW
N
570 189.195 M
571.675 189.195 L
S
GR
GS
[0.75 0 0 0.75 0 0] CT
0.149 GC
2 setlinecap
1 LJ
0.667 LW
N
570 187.245 M
571.675 187.245 L
S
GR
GS
[0.75 0 0 0.75 0 0] CT
0.149 GC
2 setlinecap
1 LJ
0.667 LW
N
570 185.5 M
571.675 185.5 L
S
GR
GS
[0.75 0 0 0.75 0 0] CT
0.149 GC
2 setlinecap
1 LJ
0.667 LW
N
570 174.023 M
571.675 174.023 L
S
GR
GS
[0.75 0 0 0.75 0 0] CT
0.149 GC
2 setlinecap
1 LJ
0.667 LW
N
570 167.31 M
571.675 167.31 L
S
GR
GS
[0.75 0 0 0.75 0 0] CT
0.149 GC
2 setlinecap
1 LJ
0.667 LW
N
570 162.546 M
571.675 162.546 L
S
GR
GS
[0.75 0 0 0.75 0 0] CT
0.149 GC
2 setlinecap
1 LJ
0.667 LW
N
570 158.852 M
571.675 158.852 L
S
GR
GS
[0.75 0 0 0.75 0 0] CT
0.149 GC
2 setlinecap
1 LJ
0.667 LW
N
570 155.833 M
571.675 155.833 L
S
GR
GS
[0.75 0 0 0.75 0 0] CT
0.149 GC
2 setlinecap
1 LJ
0.667 LW
N
570 153.281 M
571.675 153.281 L
S
GR
GS
[0.75 0 0 0.75 0 0] CT
0.149 GC
2 setlinecap
1 LJ
0.667 LW
N
570 151.07 M
571.675 151.07 L
S
GR
GS
[0.75 0 0 0.75 0 0] CT
0.149 GC
2 setlinecap
1 LJ
0.667 LW
N
570 149.119 M
571.675 149.119 L
S
GR
GS
[0.75 0 0 0.75 0 0] CT
0.149 GC
2 setlinecap
1 LJ
0.667 LW
N
570 147.375 M
571.675 147.375 L
S
GR
GS
[0.75 0 0 0.75 0 0] CT
0.149 GC
2 setlinecap
1 LJ
0.667 LW
N
570 135.898 M
571.675 135.898 L
S
GR
GS
[0.75 0 0 0.75 0 0] CT
0.149 GC
2 setlinecap
1 LJ
0.667 LW
N
570 129.185 M
571.675 129.185 L
S
GR
GS
[0.75 0 0 0.75 0 0] CT
0.149 GC
2 setlinecap
1 LJ
0.667 LW
N
570 124.421 M
571.675 124.421 L
S
GR
GS
[0.75 0 0 0.75 0 0] CT
0.149 GC
2 setlinecap
1 LJ
0.667 LW
N
570 120.727 M
571.675 120.727 L
S
GR
GS
[0.75 0 0 0.75 0 0] CT
0.149 GC
2 setlinecap
1 LJ
0.667 LW
N
570 117.708 M
571.675 117.708 L
S
GR
GS
[0.75 0 0 0.75 0 0] CT
0.149 GC
2 setlinecap
1 LJ
0.667 LW
N
570 115.156 M
571.675 115.156 L
S
GR
GS
[0.75 0 0 0.75 0 0] CT
0.149 GC
2 setlinecap
1 LJ
0.667 LW
N
570 112.945 M
571.675 112.945 L
S
GR
GS
[0.75 0 0 0.75 0 0] CT
0.149 GC
2 setlinecap
1 LJ
0.667 LW
N
570 110.994 M
571.675 110.994 L
S
GR
GS
[0.75 0 0 0.75 0 0] CT
0.149 GC
2 setlinecap
1 LJ
0.667 LW
N
570 109.25 M
571.675 109.25 L
S
GR
GS
[0.75 0 0 0.75 0 0] CT
0.149 GC
2 setlinecap
1 LJ
0.667 LW
N
570 97.773 M
571.675 97.773 L
S
GR
GS
[0.75 0 0 0.75 0 0] CT
0.149 GC
2 setlinecap
1 LJ
0.667 LW
N
570 91.06 M
571.675 91.06 L
S
GR
GS
[0.75 0 0 0.75 0 0] CT
0.149 GC
2 setlinecap
1 LJ
0.667 LW
N
570 86.296 M
571.675 86.296 L
S
GR
GS
[0.75 0 0 0.75 0 0] CT
0.149 GC
2 setlinecap
1 LJ
0.667 LW
N
570 82.602 M
571.675 82.602 L
S
GR
GS
[0.75 0 0 0.75 0 0] CT
0.149 GC
2 setlinecap
1 LJ
0.667 LW
N
570 79.583 M
571.675 79.583 L
S
GR
GS
[0.75 0 0 0.75 0 0] CT
0.149 GC
2 setlinecap
1 LJ
0.667 LW
N
570 77.031 M
571.675 77.031 L
S
GR
GS
[0.75 0 0 0.75 0 0] CT
0.149 GC
2 setlinecap
1 LJ
0.667 LW
N
570 74.82 M
571.675 74.82 L
S
GR
GS
[0.75 0 0 0.75 0 0] CT
0.149 GC
2 setlinecap
1 LJ
0.667 LW
N
570 72.869 M
571.675 72.869 L
S
GR
GS
[0.75 0 0 0.75 0 0] CT
0.149 GC
2 setlinecap
1 LJ
0.667 LW
N
570 71.125 M
571.675 71.125 L
S
GR
GS
[0.75 0 0 0.75 0 0] CT
0.149 GC
2 setlinecap
1 LJ
0.667 LW
N
570 59.648 M
571.675 59.648 L
S
GR
GS
[0.75 0 0 0.75 0 0] CT
0.149 GC
2 setlinecap
1 LJ
0.667 LW
N
570 52.935 M
571.675 52.935 L
S
GR
GS
[0.75 0 0 0.75 0 0] CT
0.149 GC
2 setlinecap
1 LJ
0.667 LW
N
570 48.171 M
571.675 48.171 L
S
GR
GS
[0.75 0 0 0.75 0 0] CT
0.149 GC
2 setlinecap
1 LJ
0.667 LW
N
570 44.477 M
571.675 44.477 L
S
GR
GS
[0.75 0 0 0.75 0 0] CT
0.149 GC
2 setlinecap
1 LJ
0.667 LW
N
570 41.458 M
571.675 41.458 L
S
GR
GS
[0.75 0 0 0.75 0 0] CT
0.149 GC
2 setlinecap
1 LJ
0.667 LW
N
570 38.906 M
571.675 38.906 L
S
GR
GS
[0.75 0 0 0.75 0 0] CT
0.149 GC
2 setlinecap
1 LJ
0.667 LW
N
570 36.695 M
571.675 36.695 L
S
GR
GS
[0.75 0 0 0.75 0 0] CT
0.149 GC
2 setlinecap
1 LJ
0.667 LW
N
570 34.744 M
571.675 34.744 L
S
GR
GS
[0.75 0 0 0.75 0 0] CT
0.149 GC
2 setlinecap
1 LJ
0.667 LW
N
570 33 M
571.675 33 L
S
GR
GS
[0.75 0 0 0.75 0 0] CT
0.149 GC
2 setlinecap
1 LJ
0.667 LW
N
905 338 M
903.325 338 L
S
GR
GS
[0.75 0 0 0.75 0 0] CT
0.149 GC
2 setlinecap
1 LJ
0.667 LW
N
905 326.523 M
903.325 326.523 L
S
GR
GS
[0.75 0 0 0.75 0 0] CT
0.149 GC
2 setlinecap
1 LJ
0.667 LW
N
905 319.81 M
903.325 319.81 L
S
GR
GS
[0.75 0 0 0.75 0 0] CT
0.149 GC
2 setlinecap
1 LJ
0.667 LW
N
905 315.046 M
903.325 315.046 L
S
GR
GS
[0.75 0 0 0.75 0 0] CT
0.149 GC
2 setlinecap
1 LJ
0.667 LW
N
905 311.352 M
903.325 311.352 L
S
GR
GS
[0.75 0 0 0.75 0 0] CT
0.149 GC
2 setlinecap
1 LJ
0.667 LW
N
905 308.333 M
903.325 308.333 L
S
GR
GS
[0.75 0 0 0.75 0 0] CT
0.149 GC
2 setlinecap
1 LJ
0.667 LW
N
905 305.781 M
903.325 305.781 L
S
GR
GS
[0.75 0 0 0.75 0 0] CT
0.149 GC
2 setlinecap
1 LJ
0.667 LW
N
905 303.57 M
903.325 303.57 L
S
GR
GS
[0.75 0 0 0.75 0 0] CT
0.149 GC
2 setlinecap
1 LJ
0.667 LW
N
905 301.62 M
903.325 301.62 L
S
GR
GS
[0.75 0 0 0.75 0 0] CT
0.149 GC
2 setlinecap
1 LJ
0.667 LW
N
905 299.875 M
903.325 299.875 L
S
GR
GS
[0.75 0 0 0.75 0 0] CT
0.149 GC
2 setlinecap
1 LJ
0.667 LW
N
905 288.398 M
903.325 288.398 L
S
GR
GS
[0.75 0 0 0.75 0 0] CT
0.149 GC
2 setlinecap
1 LJ
0.667 LW
N
905 281.685 M
903.325 281.685 L
S
GR
GS
[0.75 0 0 0.75 0 0] CT
0.149 GC
2 setlinecap
1 LJ
0.667 LW
N
905 276.921 M
903.325 276.921 L
S
GR
GS
[0.75 0 0 0.75 0 0] CT
0.149 GC
2 setlinecap
1 LJ
0.667 LW
N
905 273.227 M
903.325 273.227 L
S
GR
GS
[0.75 0 0 0.75 0 0] CT
0.149 GC
2 setlinecap
1 LJ
0.667 LW
N
905 270.208 M
903.325 270.208 L
S
GR
GS
[0.75 0 0 0.75 0 0] CT
0.149 GC
2 setlinecap
1 LJ
0.667 LW
N
905 267.656 M
903.325 267.656 L
S
GR
GS
[0.75 0 0 0.75 0 0] CT
0.149 GC
2 setlinecap
1 LJ
0.667 LW
N
905 265.445 M
903.325 265.445 L
S
GR
GS
[0.75 0 0 0.75 0 0] CT
0.149 GC
2 setlinecap
1 LJ
0.667 LW
N
905 263.495 M
903.325 263.495 L
S
GR
GS
[0.75 0 0 0.75 0 0] CT
0.149 GC
2 setlinecap
1 LJ
0.667 LW
N
905 261.75 M
903.325 261.75 L
S
GR
GS
[0.75 0 0 0.75 0 0] CT
0.149 GC
2 setlinecap
1 LJ
0.667 LW
N
905 250.273 M
903.325 250.273 L
S
GR
GS
[0.75 0 0 0.75 0 0] CT
0.149 GC
2 setlinecap
1 LJ
0.667 LW
N
905 243.56 M
903.325 243.56 L
S
GR
GS
[0.75 0 0 0.75 0 0] CT
0.149 GC
2 setlinecap
1 LJ
0.667 LW
N
905 238.796 M
903.325 238.796 L
S
GR
GS
[0.75 0 0 0.75 0 0] CT
0.149 GC
2 setlinecap
1 LJ
0.667 LW
N
905 235.102 M
903.325 235.102 L
S
GR
GS
[0.75 0 0 0.75 0 0] CT
0.149 GC
2 setlinecap
1 LJ
0.667 LW
N
905 232.083 M
903.325 232.083 L
S
GR
GS
[0.75 0 0 0.75 0 0] CT
0.149 GC
2 setlinecap
1 LJ
0.667 LW
N
905 229.531 M
903.325 229.531 L
S
GR
GS
[0.75 0 0 0.75 0 0] CT
0.149 GC
2 setlinecap
1 LJ
0.667 LW
N
905 227.32 M
903.325 227.32 L
S
GR
GS
[0.75 0 0 0.75 0 0] CT
0.149 GC
2 setlinecap
1 LJ
0.667 LW
N
905 225.37 M
903.325 225.37 L
S
GR
GS
[0.75 0 0 0.75 0 0] CT
0.149 GC
2 setlinecap
1 LJ
0.667 LW
N
905 223.625 M
903.325 223.625 L
S
GR
GS
[0.75 0 0 0.75 0 0] CT
0.149 GC
2 setlinecap
1 LJ
0.667 LW
N
905 212.148 M
903.325 212.148 L
S
GR
GS
[0.75 0 0 0.75 0 0] CT
0.149 GC
2 setlinecap
1 LJ
0.667 LW
N
905 205.435 M
903.325 205.435 L
S
GR
GS
[0.75 0 0 0.75 0 0] CT
0.149 GC
2 setlinecap
1 LJ
0.667 LW
N
905 200.671 M
903.325 200.671 L
S
GR
GS
[0.75 0 0 0.75 0 0] CT
0.149 GC
2 setlinecap
1 LJ
0.667 LW
N
905 196.977 M
903.325 196.977 L
S
GR
GS
[0.75 0 0 0.75 0 0] CT
0.149 GC
2 setlinecap
1 LJ
0.667 LW
N
905 193.958 M
903.325 193.958 L
S
GR
GS
[0.75 0 0 0.75 0 0] CT
0.149 GC
2 setlinecap
1 LJ
0.667 LW
N
905 191.406 M
903.325 191.406 L
S
GR
GS
[0.75 0 0 0.75 0 0] CT
0.149 GC
2 setlinecap
1 LJ
0.667 LW
N
905 189.195 M
903.325 189.195 L
S
GR
GS
[0.75 0 0 0.75 0 0] CT
0.149 GC
2 setlinecap
1 LJ
0.667 LW
N
905 187.245 M
903.325 187.245 L
S
GR
GS
[0.75 0 0 0.75 0 0] CT
0.149 GC
2 setlinecap
1 LJ
0.667 LW
N
905 185.5 M
903.325 185.5 L
S
GR
GS
[0.75 0 0 0.75 0 0] CT
0.149 GC
2 setlinecap
1 LJ
0.667 LW
N
905 174.023 M
903.325 174.023 L
S
GR
GS
[0.75 0 0 0.75 0 0] CT
0.149 GC
2 setlinecap
1 LJ
0.667 LW
N
905 167.31 M
903.325 167.31 L
S
GR
GS
[0.75 0 0 0.75 0 0] CT
0.149 GC
2 setlinecap
1 LJ
0.667 LW
N
905 162.546 M
903.325 162.546 L
S
GR
GS
[0.75 0 0 0.75 0 0] CT
0.149 GC
2 setlinecap
1 LJ
0.667 LW
N
905 158.852 M
903.325 158.852 L
S
GR
GS
[0.75 0 0 0.75 0 0] CT
0.149 GC
2 setlinecap
1 LJ
0.667 LW
N
905 155.833 M
903.325 155.833 L
S
GR
GS
[0.75 0 0 0.75 0 0] CT
0.149 GC
2 setlinecap
1 LJ
0.667 LW
N
905 153.281 M
903.325 153.281 L
S
GR
GS
[0.75 0 0 0.75 0 0] CT
0.149 GC
2 setlinecap
1 LJ
0.667 LW
N
905 151.07 M
903.325 151.07 L
S
GR
GS
[0.75 0 0 0.75 0 0] CT
0.149 GC
2 setlinecap
1 LJ
0.667 LW
N
905 149.119 M
903.325 149.119 L
S
GR
GS
[0.75 0 0 0.75 0 0] CT
0.149 GC
2 setlinecap
1 LJ
0.667 LW
N
905 147.375 M
903.325 147.375 L
S
GR
GS
[0.75 0 0 0.75 0 0] CT
0.149 GC
2 setlinecap
1 LJ
0.667 LW
N
905 135.898 M
903.325 135.898 L
S
GR
GS
[0.75 0 0 0.75 0 0] CT
0.149 GC
2 setlinecap
1 LJ
0.667 LW
N
905 129.185 M
903.325 129.185 L
S
GR
GS
[0.75 0 0 0.75 0 0] CT
0.149 GC
2 setlinecap
1 LJ
0.667 LW
N
905 124.421 M
903.325 124.421 L
S
GR
GS
[0.75 0 0 0.75 0 0] CT
0.149 GC
2 setlinecap
1 LJ
0.667 LW
N
905 120.727 M
903.325 120.727 L
S
GR
GS
[0.75 0 0 0.75 0 0] CT
0.149 GC
2 setlinecap
1 LJ
0.667 LW
N
905 117.708 M
903.325 117.708 L
S
GR
GS
[0.75 0 0 0.75 0 0] CT
0.149 GC
2 setlinecap
1 LJ
0.667 LW
N
905 115.156 M
903.325 115.156 L
S
GR
GS
[0.75 0 0 0.75 0 0] CT
0.149 GC
2 setlinecap
1 LJ
0.667 LW
N
905 112.945 M
903.325 112.945 L
S
GR
GS
[0.75 0 0 0.75 0 0] CT
0.149 GC
2 setlinecap
1 LJ
0.667 LW
N
905 110.994 M
903.325 110.994 L
S
GR
GS
[0.75 0 0 0.75 0 0] CT
0.149 GC
2 setlinecap
1 LJ
0.667 LW
N
905 109.25 M
903.325 109.25 L
S
GR
GS
[0.75 0 0 0.75 0 0] CT
0.149 GC
2 setlinecap
1 LJ
0.667 LW
N
905 97.773 M
903.325 97.773 L
S
GR
GS
[0.75 0 0 0.75 0 0] CT
0.149 GC
2 setlinecap
1 LJ
0.667 LW
N
905 91.06 M
903.325 91.06 L
S
GR
GS
[0.75 0 0 0.75 0 0] CT
0.149 GC
2 setlinecap
1 LJ
0.667 LW
N
905 86.296 M
903.325 86.296 L
S
GR
GS
[0.75 0 0 0.75 0 0] CT
0.149 GC
2 setlinecap
1 LJ
0.667 LW
N
905 82.602 M
903.325 82.602 L
S
GR
GS
[0.75 0 0 0.75 0 0] CT
0.149 GC
2 setlinecap
1 LJ
0.667 LW
N
905 79.583 M
903.325 79.583 L
S
GR
GS
[0.75 0 0 0.75 0 0] CT
0.149 GC
2 setlinecap
1 LJ
0.667 LW
N
905 77.031 M
903.325 77.031 L
S
GR
GS
[0.75 0 0 0.75 0 0] CT
0.149 GC
2 setlinecap
1 LJ
0.667 LW
N
905 74.82 M
903.325 74.82 L
S
GR
GS
[0.75 0 0 0.75 0 0] CT
0.149 GC
2 setlinecap
1 LJ
0.667 LW
N
905 72.869 M
903.325 72.869 L
S
GR
GS
[0.75 0 0 0.75 0 0] CT
0.149 GC
2 setlinecap
1 LJ
0.667 LW
N
905 71.125 M
903.325 71.125 L
S
GR
GS
[0.75 0 0 0.75 0 0] CT
0.149 GC
2 setlinecap
1 LJ
0.667 LW
N
905 59.648 M
903.325 59.648 L
S
GR
GS
[0.75 0 0 0.75 0 0] CT
0.149 GC
2 setlinecap
1 LJ
0.667 LW
N
905 52.935 M
903.325 52.935 L
S
GR
GS
[0.75 0 0 0.75 0 0] CT
0.149 GC
2 setlinecap
1 LJ
0.667 LW
N
905 48.171 M
903.325 48.171 L
S
GR
GS
[0.75 0 0 0.75 0 0] CT
0.149 GC
2 setlinecap
1 LJ
0.667 LW
N
905 44.477 M
903.325 44.477 L
S
GR
GS
[0.75 0 0 0.75 0 0] CT
0.149 GC
2 setlinecap
1 LJ
0.667 LW
N
905 41.458 M
903.325 41.458 L
S
GR
GS
[0.75 0 0 0.75 0 0] CT
0.149 GC
2 setlinecap
1 LJ
0.667 LW
N
905 38.906 M
903.325 38.906 L
S
GR
GS
[0.75 0 0 0.75 0 0] CT
0.149 GC
2 setlinecap
1 LJ
0.667 LW
N
905 36.695 M
903.325 36.695 L
S
GR
GS
[0.75 0 0 0.75 0 0] CT
0.149 GC
2 setlinecap
1 LJ
0.667 LW
N
905 34.744 M
903.325 34.744 L
S
GR
GS
[0.75 0 0 0.75 0 0] CT
0.149 GC
2 setlinecap
1 LJ
0.667 LW
N
905 33 M
903.325 33 L
S
GR
GS
[0.75 0 0 0.75 393.75 261.75] CT
0.149 GC
/Helvetica 20 F
GS
[1 0 0 1 0 0] CT
0 0 moveto 
1 -1 scale
(10) t 
GR
GR
GS
[0.75 0 0 0.75 411 254.25] CT
0.149 GC
/Helvetica 16 F
GS
[1 0 0 1 0 0] CT
0 0 moveto 
1 -1 scale
(-2) t 
GR
GR
GS
[0.75 0 0 0.75 398.25 204.75] CT
0.149 GC
/Helvetica 20 F
GS
[1 0 0 1 0 0] CT
0 0 moveto 
1 -1 scale
(10) t 
GR
GR
GS
[0.75 0 0 0.75 415.5 197.25] CT
0.149 GC
/Helvetica 16 F
GS
[1 0 0 1 0 0] CT
0 0 moveto 
1 -1 scale
(0) t 
GR
GR
GS
[0.75 0 0 0.75 398.25 147.75] CT
0.149 GC
/Helvetica 20 F
GS
[1 0 0 1 0 0] CT
0 0 moveto 
1 -1 scale
(10) t 
GR
GR
GS
[0.75 0 0 0.75 415.5 140.25] CT
0.149 GC
/Helvetica 16 F
GS
[1 0 0 1 0 0] CT
0 0 moveto 
1 -1 scale
(2) t 
GR
GR
GS
[0.75 0 0 0.75 398.25 90] CT
0.149 GC
/Helvetica 20 F
GS
[1 0 0 1 0 0] CT
0 0 moveto 
1 -1 scale
(10) t 
GR
GR
GS
[0.75 0 0 0.75 415.5 82.5] CT
0.149 GC
/Helvetica 16 F
GS
[1 0 0 1 0 0] CT
0 0 moveto 
1 -1 scale
(4) t 
GR
GR
GS
[0.75 0 0 0.75 398.25 33] CT
0.149 GC
/Helvetica 20 F
GS
[1 0 0 1 0 0] CT
0 0 moveto 
1 -1 scale
(10) t 
GR
GR
GS
[0.75 0 0 0.75 415.5 25.5] CT
0.149 GC
/Helvetica 16 F
GS
[1 0 0 1 0 0] CT
0 0 moveto 
1 -1 scale
(6) t 
GR
GR
GS
[0 -0.75 0.75 0 390.99998 139.12489] CT
0.149 GC
/Helvetica 22 F
GS
[1 0 0 1 0 0] CT
-23.5 -5 moveto 
1 -1 scale
(USD) t 
GR
GR
GS
[0.75 0 0 0.75 553.1255 21.65626] CT
/Helvetica-Bold 22 F
GS
[1 0 0 1 0 0] CT
-75.5 -5 moveto 
1 -1 scale
(worth of coins) t 
GR
GR
GS
[0.75 0 0 0.75 0 0] CT
0 0.447 0.741 RC
1 LJ
2 LW
N
571.34 160.942 M
572.68 162.263 L
574.02 164.025 L
575.36 163.159 L
576.7 162.298 L
578.04 163.189 L
579.38 164.964 L
580.72 167.618 L
582.06 163.395 L
583.4 160.499 L
584.74 164.106 L
586.08 171.491 L
587.42 172.969 L
588.76 172.396 L
590.1 166.257 L
591.44 164.972 L
592.78 167.096 L
594.12 168.693 L
595.46 165.82 L
596.8 166.392 L
598.14 167.418 L
599.48 167.438 L
600.82 167.428 L
602.16 167.298 L
603.5 160.213 L
604.84 153.513 L
606.18 152.038 L
607.52 152.979 L
608.86 155.843 L
610.2 153.498 L
611.54 154.021 L
612.88 155.075 L
614.22 154.737 L
615.56 155.149 L
616.9 155.266 L
618.24 155.939 L
619.58 157.186 L
620.92 156.532 L
622.26 156.163 L
623.6 155.232 L
624.94 156.512 L
626.28 155.629 L
627.62 158.29 L
628.96 157.525 L
630.3 154.812 L
631.64 154.435 L
632.98 156.306 L
634.32 157.35 L
635.66 157.668 L
637 157.645 L
638.34 158.511 L
639.68 158.733 L
641.02 163.97 L
642.36 161.581 L
643.7 160.96 L
645.04 161.744 L
646.38 159.551 L
647.72 157.953 L
649.06 159.665 L
650.4 161.887 L
651.74 161.933 L
653.08 161.407 L
654.42 161.698 L
655.76 160.752 L
657.1 160.9 L
658.44 160.329 L
659.78 160.677 L
661.12 161.09 L
662.46 161.248 L
663.8 161.931 L
665.14 161.692 L
666.48 162.374 L
667.82 164.362 L
669.16 164.488 L
670.5 164.153 L
671.84 164.255 L
673.18 165.13 L
674.52 166.546 L
675.86 166.159 L
677.2 166.507 L
678.54 166.596 L
679.88 166.166 L
681.22 166.14 L
682.56 166.505 L
683.9 166.574 L
685.24 163.76 L
686.58 165.278 L
687.92 165.691 L
689.26 165.861 L
690.6 166.068 L
691.94 165.649 L
693.28 166.47 L
694.62 165.888 L
695.96 165.625 L
697.3 165.325 L
698.64 163.946 L
699.98 161.607 L
701.32 160.526 L
702.66 160.662 L
704 161.004 L
705.34 157.83 L
706.68 156.189 L
708.02 155.149 L
709.36 155.278 L
710.7 155.007 L
712.04 155.76 L
713.38 155.389 L
714.72 155.225 L
716.06 154.399 L
717.4 147.253 L
718.74 142.524 L
720.08 141.936 L
721.42 142.357 L
722.76 143.372 L
724.1 144.186 L
725.44 149.105 L
726.78 144.558 L
728.12 143.62 L
729.46 144.746 L
730.8 143.867 L
732.14 144.677 L
733.48 142.989 L
734.82 138.748 L
736.16 139.098 L
737.5 139.893 L
738.84 138.245 L
740.18 139.361 L
741.52 140.159 L
742.86 142.287 L
744.2 141.925 L
745.54 141.079 L
746.88 141.395 L
748.22 140.013 L
749.56 139.834 L
750.9 140.641 L
752.24 141.452 L
753.58 142.642 L
754.92 141.062 L
756.26 141.685 L
757.6 142.74 L
758.94 141.53 L
760.28 139.438 L
761.62 139.514 L
762.96 136.181 L
764.3 137.501 L
765.64 137.625 L
766.98 137.074 L
768.32 134.345 L
769.66 130.292 L
771 124.743 L
772.34 127.772 L
773.68 130.95 L
775.02 127.823 L
776.36 129.728 L
777.7 129.437 L
779.04 128.594 L
780.38 129.806 L
781.72 131.768 L
783.06 130.446 L
784.4 132.932 L
785.74 131.986 L
787.08 132.656 L
788.42 130.862 L
789.76 131.499 L
791.1 132.673 L
792.44 131.653 L
793.78 130.406 L
795.12 130.405 L
796.46 132.732 L
797.8 132.938 L
799.14 129.772 L
800.48 132.453 L
801.82 131.421 L
803.16 131.02 L
804.5 131.854 L
805.84 132.869 L
807.18 137.902 L
808.52 138.128 L
809.86 138.045 L
811.2 137.925 L
812.54 135.634 L
813.88 137.859 L
815.22 139.368 L
816.56 139.372 L
817.9 139.193 L
819.24 139.163 L
820.58 139.553 L
821.92 139.299 L
823.26 138.145 L
824.6 139.012 L
825.94 140.99 L
827.28 140.807 L
828.62 143.361 L
829.96 144.479 L
831.3 143.385 L
832.64 144.841 L
833.98 149.353 L
835.32 147.802 L
836.66 148.086 L
838 143.229 L
839.34 142.877 L
840.68 143.584 L
842.02 144.115 L
843.36 143.237 L
844.7 143.921 L
846.04 142.256 L
847.38 142.092 L
848.72 140.095 L
850.06 140.104 L
851.4 140.801 L
852.74 140.282 L
854.08 141.584 L
855.42 142.924 L
S
GR
GS
[0.75 0 0 0.75 0 0] CT
0.851 0.325 0.098 RC
1 LJ
2 LW
N
571.34 130.596 M
572.68 131.705 L
574.02 132.01 L
575.36 131.103 L
576.7 130.274 L
578.04 130.768 L
579.38 130.582 L
580.72 129.887 L
582.06 130.818 L
583.4 130.864 L
584.74 130.299 L
586.08 129.77 L
587.42 127.845 L
588.76 128.044 L
590.1 127.215 L
591.44 127.016 L
592.78 127.395 L
594.12 127.204 L
595.46 125.935 L
596.8 124.906 L
598.14 124.121 L
599.48 123.128 L
600.82 123.685 L
602.16 122.932 L
603.5 123.102 L
604.84 123.77 L
606.18 123.638 L
607.52 124.063 L
608.86 124.414 L
610.2 124.011 L
611.54 123.806 L
612.88 123.091 L
614.22 122.951 L
615.56 123.023 L
616.9 122.908 L
618.24 122.909 L
619.58 122.183 L
620.92 122.233 L
622.26 121.739 L
623.6 121.088 L
624.94 122.184 L
626.28 122.169 L
627.62 123.471 L
628.96 122.932 L
630.3 122.118 L
631.64 122.108 L
632.98 123.501 L
634.32 123.511 L
635.66 123.92 L
637 123.767 L
638.34 123.889 L
639.68 124.915 L
641.02 128.351 L
642.36 125.994 L
643.7 126.051 L
645.04 126.245 L
646.38 124.154 L
647.72 124.735 L
649.06 124.815 L
650.4 126.024 L
651.74 126.025 L
653.08 125.304 L
654.42 125.789 L
655.76 124.73 L
657.1 124.873 L
658.44 123.611 L
659.78 123.714 L
661.12 123.76 L
662.46 123.076 L
663.8 122.829 L
665.14 122.808 L
666.48 123.157 L
667.82 123.498 L
669.16 123.115 L
670.5 122.954 L
671.84 122.742 L
673.18 122.07 L
674.52 121.499 L
675.86 121.465 L
677.2 121.312 L
678.54 119.309 L
679.88 118.711 L
681.22 118.179 L
682.56 118.621 L
683.9 118.483 L
685.24 118.834 L
686.58 118.878 L
687.92 118.533 L
689.26 117.676 L
690.6 117.621 L
691.94 117.685 L
693.28 117.901 L
694.62 119.069 L
695.96 118.41 L
697.3 117.973 L
698.64 118.324 L
699.98 118.404 L
701.32 117.289 L
702.66 117.352 L
704 116.463 L
705.34 115.715 L
706.68 114.971 L
708.02 114.671 L
709.36 114.28 L
710.7 114.219 L
712.04 115.102 L
713.38 114.818 L
714.72 114.103 L
716.06 114.819 L
717.4 116.084 L
718.74 116.749 L
720.08 117.846 L
721.42 116.232 L
722.76 116.04 L
724.1 114.426 L
725.44 113.212 L
726.78 113.558 L
728.12 113.385 L
729.46 112.869 L
730.8 112.535 L
732.14 112.798 L
733.48 112.428 L
734.82 112.865 L
736.16 112.428 L
737.5 111.384 L
738.84 110.397 L
740.18 109.554 L
741.52 109.153 L
742.86 109.435 L
744.2 108.868 L
745.54 107.709 L
746.88 107.56 L
748.22 107.192 L
749.56 106.711 L
750.9 106.347 L
752.24 103.338 L
753.58 99.61 L
754.92 100.889 L
756.26 102.341 L
757.6 102.041 L
758.94 100.526 L
760.28 100.064 L
761.62 101.051 L
762.96 100.894 L
764.3 99.79 L
765.64 98.195 L
766.98 98.5 L
768.32 98.523 L
769.66 99.724 L
771 100.834 L
772.34 101.673 L
773.68 103.879 L
775.02 102.872 L
776.36 103.767 L
777.7 103.647 L
779.04 101.365 L
780.38 101.636 L
781.72 102.977 L
783.06 102.92 L
784.4 104.967 L
785.74 103.495 L
787.08 104.089 L
788.42 102.556 L
789.76 102.316 L
791.1 101.888 L
792.44 100.051 L
793.78 99.959 L
795.12 100.981 L
796.46 102.35 L
797.8 102.989 L
799.14 102.566 L
800.48 104.397 L
801.82 103.702 L
803.16 103.258 L
804.5 103.951 L
805.84 103.893 L
807.18 106.95 L
808.52 107.39 L
809.86 106.972 L
811.2 106.782 L
812.54 105.035 L
813.88 106.792 L
815.22 107.775 L
816.56 107.871 L
817.9 107.14 L
819.24 107.286 L
820.58 107.416 L
821.92 107.021 L
823.26 106.529 L
824.6 107.232 L
825.94 109.075 L
827.28 108.888 L
828.62 110.684 L
829.96 111.309 L
831.3 110.676 L
832.64 112.381 L
833.98 115.262 L
835.32 113.462 L
836.66 113.748 L
838 112.404 L
839.34 111.486 L
840.68 111.705 L
842.02 112.678 L
843.36 111.13 L
844.7 111.751 L
846.04 110.109 L
847.38 108.977 L
848.72 108.867 L
850.06 107.503 L
851.4 108.361 L
852.74 107.336 L
854.08 107.075 L
855.42 108.145 L
S
GR
GS
[0.75 0 0 0.75 0 0] CT
0.929 0.694 0.125 RC
1 LJ
2 LW
N
571.34 172.094 M
572.68 173.477 L
574.02 173.699 L
575.36 173.669 L
576.7 174.603 L
578.04 173.551 L
579.38 174.191 L
580.72 173.706 L
582.06 171.943 L
583.4 172.449 L
584.74 172.048 L
586.08 172.216 L
587.42 169.903 L
588.76 169.579 L
590.1 169.105 L
591.44 167.489 L
592.78 167.53 L
594.12 167.538 L
595.46 166.828 L
596.8 166.735 L
598.14 167.417 L
599.48 167.304 L
600.82 167.881 L
602.16 167.185 L
603.5 167.229 L
604.84 167.555 L
606.18 167.45 L
607.52 167.231 L
608.86 166.159 L
610.2 166.513 L
611.54 166.37 L
612.88 165.953 L
614.22 165.636 L
615.56 165.538 L
616.9 164.858 L
618.24 164.864 L
619.58 163.807 L
620.92 163.462 L
622.26 163.264 L
623.6 163.062 L
624.94 164.806 L
626.28 164.877 L
627.62 167.578 L
628.96 166.608 L
630.3 165.515 L
631.64 165.76 L
632.98 167.504 L
634.32 167.622 L
635.66 167.943 L
637 167.614 L
638.34 167.788 L
639.68 168.624 L
641.02 172.91 L
642.36 170.298 L
643.7 170.561 L
645.04 170.213 L
646.38 167.672 L
647.72 168.287 L
649.06 168.232 L
650.4 169.77 L
651.74 169.407 L
653.08 168.091 L
654.42 168.306 L
655.76 167.739 L
657.1 168.018 L
658.44 166.956 L
659.78 167.357 L
661.12 167.787 L
662.46 167.229 L
663.8 167.181 L
665.14 167.449 L
666.48 167.731 L
667.82 167.72 L
669.16 167.54 L
670.5 166.842 L
671.84 166.707 L
673.18 166.841 L
674.52 167.454 L
675.86 167.317 L
677.2 167.12 L
678.54 167.083 L
679.88 165.298 L
681.22 165.255 L
682.56 165.404 L
683.9 165.563 L
685.24 166.393 L
686.58 166.538 L
687.92 166.869 L
689.26 167.09 L
690.6 167.299 L
691.94 167.563 L
693.28 168.046 L
694.62 167.402 L
695.96 167.424 L
697.3 167.502 L
698.64 167.453 L
699.98 167.515 L
701.32 167.031 L
702.66 166.887 L
704 166.988 L
705.34 167.775 L
706.68 168.018 L
708.02 166.998 L
709.36 167.284 L
710.7 167.517 L
712.04 167.371 L
713.38 167.607 L
714.72 166.817 L
716.06 166.196 L
717.4 167.351 L
718.74 166.519 L
720.08 166.879 L
721.42 166.412 L
722.76 165.353 L
724.1 165.564 L
725.44 165.686 L
726.78 165.612 L
728.12 164.871 L
729.46 164.551 L
730.8 163.984 L
732.14 164.273 L
733.48 163.367 L
734.82 162.131 L
736.16 159.704 L
737.5 160.008 L
738.84 159.829 L
740.18 159.515 L
741.52 159.774 L
742.86 161.445 L
744.2 160.703 L
745.54 159.999 L
746.88 160.109 L
748.22 160.023 L
749.56 159.869 L
750.9 160.115 L
752.24 161.403 L
753.58 161.18 L
754.92 160.376 L
756.26 159.753 L
757.6 160.904 L
758.94 158.358 L
760.28 154.471 L
761.62 153.215 L
762.96 153.38 L
764.3 153.653 L
765.64 153.371 L
766.98 152.815 L
768.32 151.181 L
769.66 150.524 L
771 150.679 L
772.34 150.639 L
773.68 153.886 L
775.02 152.828 L
776.36 153.42 L
777.7 151.792 L
779.04 151.62 L
780.38 151.857 L
781.72 152.427 L
783.06 152.059 L
784.4 152.877 L
785.74 151.99 L
787.08 151.646 L
788.42 149.408 L
789.76 148.004 L
791.1 147.694 L
792.44 147.413 L
793.78 146.699 L
795.12 145.015 L
796.46 145.082 L
797.8 143.034 L
799.14 143.603 L
800.48 144.99 L
801.82 143.376 L
803.16 141.846 L
804.5 142.202 L
805.84 143.134 L
807.18 146.509 L
808.52 147.141 L
809.86 146.785 L
811.2 146.74 L
812.54 144.987 L
813.88 146.574 L
815.22 147.321 L
816.56 147.605 L
817.9 146.429 L
819.24 146.472 L
820.58 146.486 L
821.92 145.691 L
823.26 143.733 L
824.6 144.601 L
825.94 146.237 L
827.28 145.524 L
828.62 146.777 L
829.96 148.832 L
831.3 147.982 L
832.64 150.367 L
833.98 153.329 L
835.32 151.213 L
836.66 151.983 L
838 150.705 L
839.34 149.419 L
840.68 149.864 L
842.02 150.769 L
843.36 149.705 L
844.7 150.158 L
846.04 148.692 L
847.38 148.453 L
848.72 148.326 L
850.06 147.809 L
851.4 148.685 L
852.74 148.331 L
854.08 149.205 L
855.42 150.066 L
S
GR
GS
[0.75 0 0 0.75 0 0] CT
0.494 0.184 0.557 RC
1 LJ
2 LW
N
571.34 198.94 M
572.68 199.769 L
574.02 199.773 L
575.36 199.809 L
576.7 200.421 L
578.04 200.214 L
579.38 200.499 L
580.72 199.466 L
582.06 199.459 L
583.4 199.812 L
584.74 199.528 L
586.08 199.302 L
587.42 198.051 L
588.76 198.685 L
590.1 198.43 L
591.44 197.437 L
592.78 197.649 L
594.12 198.178 L
595.46 197.966 L
596.8 198.203 L
598.14 198.426 L
599.48 198.43 L
600.82 199.355 L
602.16 199.037 L
603.5 199.127 L
604.84 197.903 L
606.18 198.546 L
607.52 198.275 L
608.86 197.673 L
610.2 198.097 L
611.54 195.934 L
612.88 196.914 L
614.22 196.591 L
615.56 196.407 L
616.9 193.641 L
618.24 193.319 L
619.58 193.106 L
620.92 192.845 L
622.26 191.157 L
623.6 187.99 L
624.94 189.399 L
626.28 189.862 L
627.62 192.579 L
628.96 191.103 L
630.3 189.172 L
631.64 189.512 L
632.98 191.937 L
634.32 192.377 L
635.66 193.52 L
637 192.37 L
638.34 192.83 L
639.68 193.487 L
641.02 200.03 L
642.36 197.58 L
643.7 197.563 L
645.04 197.485 L
646.38 195.24 L
647.72 196.062 L
649.06 196.414 L
650.4 198.139 L
651.74 197.622 L
653.08 197.22 L
654.42 197.784 L
655.76 196.462 L
657.1 196.471 L
658.44 195.018 L
659.78 195.675 L
661.12 196.131 L
662.46 195.357 L
663.8 195.538 L
665.14 195.894 L
666.48 196.216 L
667.82 196.52 L
669.16 196.433 L
670.5 196.289 L
671.84 196.144 L
673.18 195.968 L
674.52 196.924 L
675.86 196.74 L
677.2 196.685 L
678.54 193.928 L
679.88 194.116 L
681.22 192.902 L
682.56 192.513 L
683.9 192.73 L
685.24 194.102 L
686.58 193.758 L
687.92 194.03 L
689.26 193.867 L
690.6 194.462 L
691.94 194.863 L
693.28 195.423 L
694.62 195.112 L
695.96 194.956 L
697.3 195.177 L
698.64 195.3 L
699.98 195.492 L
701.32 194.775 L
702.66 194.985 L
704 195.174 L
705.34 195.956 L
706.68 195.477 L
708.02 195.047 L
709.36 195.387 L
710.7 195.474 L
712.04 195.348 L
713.38 193.603 L
714.72 193.264 L
716.06 192.82 L
717.4 194.163 L
718.74 193.335 L
720.08 194.233 L
721.42 193.576 L
722.76 193.234 L
724.1 192.936 L
725.44 191.157 L
726.78 191.991 L
728.12 191.491 L
729.46 191.034 L
730.8 190.882 L
732.14 191.399 L
733.48 190.965 L
734.82 190.661 L
736.16 189.62 L
737.5 187.463 L
738.84 188.011 L
740.18 186.953 L
741.52 186.171 L
742.86 188.08 L
744.2 187.555 L
745.54 185.666 L
746.88 185.454 L
748.22 185.293 L
749.56 184.812 L
750.9 185.107 L
752.24 185.442 L
753.58 185.786 L
754.92 181.825 L
756.26 178.218 L
757.6 178.935 L
758.94 172.887 L
760.28 166.441 L
761.62 167.167 L
762.96 168.492 L
764.3 167.322 L
765.64 167.367 L
766.98 166.308 L
768.32 164.368 L
769.66 164.746 L
771 166.522 L
772.34 166.373 L
773.68 169.368 L
775.02 167.97 L
776.36 168.692 L
777.7 168.848 L
779.04 168.072 L
780.38 168.922 L
781.72 170.333 L
783.06 170.629 L
784.4 172.524 L
785.74 171.559 L
787.08 171.779 L
788.42 169.957 L
789.76 170.638 L
791.1 170.91 L
792.44 170.377 L
793.78 167.507 L
795.12 167.96 L
796.46 169.951 L
797.8 170.526 L
799.14 170.294 L
800.48 171.755 L
801.82 171.223 L
803.16 169.731 L
804.5 171.096 L
805.84 171.511 L
807.18 175.019 L
808.52 175.179 L
809.86 174.627 L
811.2 174.617 L
812.54 173.135 L
813.88 174.836 L
815.22 175.767 L
816.56 175.97 L
817.9 175.769 L
819.24 175.743 L
820.58 176.071 L
821.92 175.686 L
823.26 174.539 L
824.6 175.616 L
825.94 177.18 L
827.28 177.375 L
828.62 179.659 L
829.96 180.981 L
831.3 177.692 L
832.64 179.005 L
833.98 181.762 L
835.32 179.579 L
836.66 180.143 L
838 178.845 L
839.34 177.314 L
840.68 178.181 L
842.02 178.898 L
843.36 177.556 L
844.7 177.765 L
846.04 172.953 L
847.38 172.041 L
848.72 171.701 L
850.06 171.747 L
851.4 172.769 L
852.74 172.216 L
854.08 171.505 L
855.42 172.953 L
S
GR
GS
[0.75 0 0 0.75 0 0] CT
0.467 0.675 0.188 RC
1 LJ
2 LW
N
571.34 289.074 M
572.68 290.318 L
574.02 290.721 L
575.36 290.756 L
576.7 291.49 L
578.04 291.102 L
579.38 291.575 L
580.72 291.346 L
582.06 290.416 L
583.4 290.789 L
584.74 290.646 L
586.08 290.729 L
587.42 289.713 L
588.76 290.102 L
590.1 290.233 L
591.44 289.024 L
592.78 289.874 L
594.12 290.106 L
595.46 290.207 L
596.8 290.718 L
598.14 291.276 L
599.48 291.09 L
600.82 291.967 L
602.16 292.048 L
603.5 292.354 L
604.84 292.209 L
606.18 292.613 L
607.52 292.224 L
608.86 289.081 L
610.2 285.429 L
611.54 284.915 L
612.88 286.899 L
614.22 286.984 L
615.56 287.388 L
616.9 288.152 L
618.24 286.484 L
619.58 286.929 L
620.92 286.228 L
622.26 284.335 L
623.6 284.805 L
624.94 286.326 L
626.28 286.17 L
627.62 287.992 L
628.96 287.186 L
630.3 286.361 L
631.64 286.548 L
632.98 287.471 L
634.32 287.591 L
635.66 287.353 L
637 287.244 L
638.34 287.645 L
639.68 288.334 L
641.02 291.667 L
642.36 290.018 L
643.7 290.227 L
645.04 290.291 L
646.38 289.268 L
647.72 289.775 L
649.06 289.953 L
650.4 290.919 L
651.74 290.751 L
653.08 290.339 L
654.42 290.535 L
655.76 290.007 L
657.1 289.589 L
658.44 288.127 L
659.78 288.722 L
661.12 288.936 L
662.46 288.604 L
663.8 287.866 L
665.14 288.178 L
666.48 288.126 L
667.82 287.218 L
669.16 285.587 L
670.5 285.796 L
671.84 285.476 L
673.18 282.83 L
674.52 284.583 L
675.86 284.008 L
677.2 283.774 L
678.54 284.809 L
679.88 284.023 L
681.22 284.226 L
682.56 283.802 L
683.9 284.296 L
685.24 285.936 L
686.58 286.932 L
687.92 287.189 L
689.26 287.547 L
690.6 287.51 L
691.94 288.056 L
693.28 288.655 L
694.62 287.857 L
695.96 288.021 L
697.3 288.101 L
698.64 288.169 L
699.98 288.247 L
701.32 288.169 L
702.66 288.175 L
704 288.352 L
705.34 288.892 L
706.68 287.92 L
708.02 287.738 L
709.36 288.091 L
710.7 288.229 L
712.04 287.91 L
713.38 287.563 L
714.72 287.014 L
716.06 287.01 L
717.4 287.87 L
718.74 287.557 L
720.08 288.62 L
721.42 288.116 L
722.76 287.604 L
724.1 287.359 L
725.44 286.294 L
726.78 286.332 L
728.12 286.183 L
729.46 286.011 L
730.8 285.465 L
732.14 285.85 L
733.48 285.458 L
734.82 285.215 L
736.16 285.062 L
737.5 284.546 L
738.84 284.782 L
740.18 284.445 L
741.52 281.732 L
742.86 285.169 L
744.2 284.645 L
745.54 284.33 L
746.88 284.344 L
748.22 284.535 L
749.56 284.469 L
750.9 284.964 L
752.24 285.902 L
753.58 286.609 L
754.92 284.563 L
756.26 285.058 L
757.6 285.564 L
758.94 284.592 L
760.28 278.055 L
761.62 274.214 L
762.96 264.165 L
764.3 266.377 L
765.64 266.324 L
766.98 266.998 L
768.32 265.898 L
769.66 265.627 L
771 265.95 L
772.34 258.87 L
773.68 259.581 L
775.02 259.15 L
776.36 261.101 L
777.7 259.874 L
779.04 258.87 L
780.38 256.179 L
781.72 255.828 L
783.06 248.62 L
784.4 248.999 L
785.74 247.959 L
787.08 247.324 L
788.42 246.712 L
789.76 242.964 L
791.1 242.491 L
792.44 243.286 L
793.78 243.07 L
795.12 241.585 L
796.46 246.846 L
797.8 249.465 L
799.14 250.523 L
800.48 250.692 L
801.82 249.945 L
803.16 250.108 L
804.5 251.475 L
805.84 253.16 L
807.18 259.009 L
808.52 257.279 L
809.86 253.968 L
811.2 254.494 L
812.54 254.176 L
813.88 256.417 L
815.22 256.659 L
816.56 256.904 L
817.9 256.659 L
819.24 257.279 L
820.58 258.458 L
821.92 258.458 L
823.26 256.179 L
824.6 257.153 L
825.94 259.581 L
827.28 259.293 L
828.62 262.382 L
829.96 263.777 L
831.3 263.058 L
832.64 265.123 L
833.98 267.851 L
835.32 265.941 L
836.66 267.1 L
838 265.336 L
839.34 262.522 L
840.68 260.63 L
842.02 261.75 L
843.36 260.476 L
844.7 261.261 L
846.04 259.581 L
847.38 259.436 L
848.72 259.581 L
850.06 258.731 L
851.4 259.874 L
852.74 259.581 L
854.08 260.323 L
855.42 261.422 L
S
GR
GS
[0.75 0 0 0.75 0 0] CT
1 GC
N
892 167 M
892 46 L
802 46 L
802 167 L
cp
f
GR
GS
[0.75 0 0 0.75 636.75 44.625] CT
/Helvetica 18 F
GS
[1 0 0 1 0 0] CT
0 7.5 moveto 
1 -1 scale
(BCH) t 
GR
GR
GS
[0.75 0 0 0.75 0 0] CT
0 0.447 0.741 RC
1 LJ
2 LW
N
806 59.5 M
846 59.5 L
S
GR
GS
[0.75 0 0 0.75 636.75 62.25] CT
/Helvetica 18 F
GS
[1 0 0 1 0 0] CT
0 7.5 moveto 
1 -1 scale
(BTC) t 
GR
GR
GS
[0.75 0 0 0.75 0 0] CT
0.851 0.325 0.098 RC
1 LJ
2 LW
N
806 83 M
846 83 L
S
GR
GS
[0.75 0 0 0.75 636.75 79.875] CT
/Helvetica 18 F
GS
[1 0 0 1 0 0] CT
0 7.5 moveto 
1 -1 scale
(ETH) t 
GR
GR
GS
[0.75 0 0 0.75 0 0] CT
0.929 0.694 0.125 RC
1 LJ
2 LW
N
806 106.5 M
846 106.5 L
S
GR
GS
[0.75 0 0 0.75 636.75 97.5] CT
/Helvetica 18 F
GS
[1 0 0 1 0 0] CT
0 7.5 moveto 
1 -1 scale
(LTC) t 
GR
GR
GS
[0.75 0 0 0.75 0 0] CT
0.494 0.184 0.557 RC
1 LJ
2 LW
N
806 130 M
846 130 L
S
GR
GS
[0.75 0 0 0.75 636.75 115.125] CT
/Helvetica 18 F
GS
[1 0 0 1 0 0] CT
0 7.5 moveto 
1 -1 scale
(XRP) t 
GR
GR
GS
[0.75 0 0 0.75 0 0] CT
0.467 0.675 0.188 RC
1 LJ
2 LW
N
806 153.5 M
846 153.5 L
S
GR
GS
[0.75 0 0 0.75 0 0] CT
0.149 GC
10.0 ML
0.667 LW
N
802 167 M
802 46 L
892 46 L
892 167 L
cp
S
GR
%%Trailer
%%Pages: 1
%%EOF
