%!PS-Adobe-3.0 EPSF-3.0
%%Creator: (MATLAB, The Mathworks, Inc. Version 9.3.0.713579 \(R2017b\). Operating System: Windows 7)
%%Title: (C:/Users/Taeke/Documents/Studie 2017-2018/Q3 - Q4 Machine Learning/assignment3/fig/AA_regret.eps)
%%CreationDate: 2018-03-27T15:37:42
%%Pages: (atend)
%%BoundingBox: 0 0 750 300
%%LanguageLevel: 3
%%EndComments
%%BeginProlog
%%BeginResource: procset (Apache XML Graphics Std ProcSet) 1.2 0
%%Version: 1.2 0
%%Copyright: (Copyright 2001-2003,2010 The Apache Software Foundation. License terms: http://www.apache.org/licenses/LICENSE-2.0)
/bd{bind def}bind def
/ld{load def}bd
/GR/grestore ld
/GS/gsave ld
/RM/rmoveto ld
/C/curveto ld
/t/show ld
/L/lineto ld
/ML/setmiterlimit ld
/CT/concat ld
/f/fill ld
/N/newpath ld
/S/stroke ld
/CC/setcmykcolor ld
/A/ashow ld
/cp/closepath ld
/RC/setrgbcolor ld
/LJ/setlinejoin ld
/GC/setgray ld
/LW/setlinewidth ld
/M/moveto ld
/re {4 2 roll M
1 index 0 rlineto
0 exch rlineto
neg 0 rlineto
cp } bd
/_ctm matrix def
/_tm matrix def
/BT { _ctm currentmatrix pop matrix _tm copy pop 0 0 moveto } bd
/ET { _ctm setmatrix } bd
/iTm { _ctm setmatrix _tm concat } bd
/Tm { _tm astore pop iTm 0 0 moveto } bd
/ux 0.0 def
/uy 0.0 def
/F {
  /Tp exch def
  /Tf exch def
  Tf findfont Tp scalefont setfont
  /cf Tf def  /cs Tp def
} bd
/ULS {currentpoint /uy exch def /ux exch def} bd
/ULE {
  /Tcx currentpoint pop def
  gsave
  newpath
  cf findfont cs scalefont dup
  /FontMatrix get 0 get /Ts exch def /FontInfo get dup
  /UnderlinePosition get Ts mul /To exch def
  /UnderlineThickness get Ts mul /Tt exch def
  ux uy To add moveto  Tcx uy To add lineto
  Tt setlinewidth stroke
  grestore
} bd
/OLE {
  /Tcx currentpoint pop def
  gsave
  newpath
  cf findfont cs scalefont dup
  /FontMatrix get 0 get /Ts exch def /FontInfo get dup
  /UnderlinePosition get Ts mul /To exch def
  /UnderlineThickness get Ts mul /Tt exch def
  ux uy To add cs add moveto Tcx uy To add cs add lineto
  Tt setlinewidth stroke
  grestore
} bd
/SOE {
  /Tcx currentpoint pop def
  gsave
  newpath
  cf findfont cs scalefont dup
  /FontMatrix get 0 get /Ts exch def /FontInfo get dup
  /UnderlinePosition get Ts mul /To exch def
  /UnderlineThickness get Ts mul /Tt exch def
  ux uy To add cs 10 mul 26 idiv add moveto Tcx uy To add cs 10 mul 26 idiv add lineto
  Tt setlinewidth stroke
  grestore
} bd
/QT {
/Y22 exch store
/X22 exch store
/Y21 exch store
/X21 exch store
currentpoint
/Y21 load 2 mul add 3 div exch
/X21 load 2 mul add 3 div exch
/X21 load 2 mul /X22 load add 3 div
/Y21 load 2 mul /Y22 load add 3 div
/X22 load /Y22 load curveto
} bd
/SSPD {
dup length /d exch dict def
{
/v exch def
/k exch def
currentpagedevice k known {
/cpdv currentpagedevice k get def
v cpdv ne {
/upd false def
/nullv v type /nulltype eq def
/nullcpdv cpdv type /nulltype eq def
nullv nullcpdv or
{
/upd true def
} {
/sametype v type cpdv type eq def
sametype {
v type /arraytype eq {
/vlen v length def
/cpdvlen cpdv length def
vlen cpdvlen eq {
0 1 vlen 1 sub {
/i exch def
/obj v i get def
/cpdobj cpdv i get def
obj cpdobj ne {
/upd true def
exit
} if
} for
} {
/upd true def
} ifelse
} {
v type /dicttype eq {
v {
/dv exch def
/dk exch def
/cpddv cpdv dk get def
dv cpddv ne {
/upd true def
exit
} if
} forall
} {
/upd true def
} ifelse
} ifelse
} if
} ifelse
upd true eq {
d k v put
} if
} if
} if
} forall
d length 0 gt {
d setpagedevice
} if
} bd
/RE { % /NewFontName [NewEncodingArray] /FontName RE -
  findfont dup length dict begin
  {
    1 index /FID ne
    {def} {pop pop} ifelse
  } forall
  /Encoding exch def
  /FontName 1 index def
  currentdict definefont pop
  end
} bind def
%%EndResource
%%BeginResource: procset (Apache XML Graphics EPS ProcSet) 1.0 0
%%Version: 1.0 0
%%Copyright: (Copyright 2002-2003 The Apache Software Foundation. License terms: http://www.apache.org/licenses/LICENSE-2.0)
/BeginEPSF { %def
/b4_Inc_state save def         % Save state for cleanup
/dict_count countdictstack def % Count objects on dict stack
/op_count count 1 sub def      % Count objects on operand stack
userdict begin                 % Push userdict on dict stack
/showpage { } def              % Redefine showpage, { } = null proc
0 setgray 0 setlinecap         % Prepare graphics state
1 setlinewidth 0 setlinejoin
10 setmiterlimit [ ] 0 setdash newpath
/languagelevel where           % If level not equal to 1 then
{pop languagelevel             % set strokeadjust and
1 ne                           % overprint to their defaults.
{false setstrokeadjust false setoverprint
} if
} if
} bd
/EndEPSF { %def
count op_count sub {pop} repeat            % Clean up stacks
countdictstack dict_count sub {end} repeat
b4_Inc_state restore
} bd
%%EndResource
%FOPBeginFontDict
%%IncludeResource: font Courier-Oblique
%%IncludeResource: font Courier-BoldOblique
%%IncludeResource: font Courier-Bold
%%IncludeResource: font ZapfDingbats
%%IncludeResource: font Symbol
%%IncludeResource: font Helvetica
%%IncludeResource: font Helvetica-Oblique
%%IncludeResource: font Helvetica-Bold
%%IncludeResource: font Helvetica-BoldOblique
%%IncludeResource: font Times-Roman
%%IncludeResource: font Times-Italic
%%IncludeResource: font Times-Bold
%%IncludeResource: font Times-BoldItalic
%%IncludeResource: font Courier
%FOPEndFontDict
%%BeginResource: encoding WinAnsiEncoding
/WinAnsiEncoding [
/.notdef /.notdef /.notdef /.notdef /.notdef
/.notdef /.notdef /.notdef /.notdef /.notdef
/.notdef /.notdef /.notdef /.notdef /.notdef
/.notdef /.notdef /.notdef /.notdef /.notdef
/.notdef /.notdef /.notdef /.notdef /.notdef
/.notdef /.notdef /.notdef /.notdef /.notdef
/.notdef /.notdef /space /exclam /quotedbl
/numbersign /dollar /percent /ampersand /quotesingle
/parenleft /parenright /asterisk /plus /comma
/hyphen /period /slash /zero /one
/two /three /four /five /six
/seven /eight /nine /colon /semicolon
/less /equal /greater /question /at
/A /B /C /D /E
/F /G /H /I /J
/K /L /M /N /O
/P /Q /R /S /T
/U /V /W /X /Y
/Z /bracketleft /backslash /bracketright /asciicircum
/underscore /quoteleft /a /b /c
/d /e /f /g /h
/i /j /k /l /m
/n /o /p /q /r
/s /t /u /v /w
/x /y /z /braceleft /bar
/braceright /asciitilde /bullet /Euro /bullet
/quotesinglbase /florin /quotedblbase /ellipsis /dagger
/daggerdbl /circumflex /perthousand /Scaron /guilsinglleft
/OE /bullet /Zcaron /bullet /bullet
/quoteleft /quoteright /quotedblleft /quotedblright /bullet
/endash /emdash /asciitilde /trademark /scaron
/guilsinglright /oe /bullet /zcaron /Ydieresis
/space /exclamdown /cent /sterling /currency
/yen /brokenbar /section /dieresis /copyright
/ordfeminine /guillemotleft /logicalnot /sfthyphen /registered
/macron /degree /plusminus /twosuperior /threesuperior
/acute /mu /paragraph /middot /cedilla
/onesuperior /ordmasculine /guillemotright /onequarter /onehalf
/threequarters /questiondown /Agrave /Aacute /Acircumflex
/Atilde /Adieresis /Aring /AE /Ccedilla
/Egrave /Eacute /Ecircumflex /Edieresis /Igrave
/Iacute /Icircumflex /Idieresis /Eth /Ntilde
/Ograve /Oacute /Ocircumflex /Otilde /Odieresis
/multiply /Oslash /Ugrave /Uacute /Ucircumflex
/Udieresis /Yacute /Thorn /germandbls /agrave
/aacute /acircumflex /atilde /adieresis /aring
/ae /ccedilla /egrave /eacute /ecircumflex
/edieresis /igrave /iacute /icircumflex /idieresis
/eth /ntilde /ograve /oacute /ocircumflex
/otilde /odieresis /divide /oslash /ugrave
/uacute /ucircumflex /udieresis /yacute /thorn
/ydieresis
] def
%%EndResource
%FOPBeginFontReencode
/Courier-Oblique findfont
dup length dict begin
  {1 index /FID ne {def} {pop pop} ifelse} forall
  /Encoding WinAnsiEncoding def
  currentdict
end
/Courier-Oblique exch definefont pop
/Courier-BoldOblique findfont
dup length dict begin
  {1 index /FID ne {def} {pop pop} ifelse} forall
  /Encoding WinAnsiEncoding def
  currentdict
end
/Courier-BoldOblique exch definefont pop
/Courier-Bold findfont
dup length dict begin
  {1 index /FID ne {def} {pop pop} ifelse} forall
  /Encoding WinAnsiEncoding def
  currentdict
end
/Courier-Bold exch definefont pop
/Helvetica findfont
dup length dict begin
  {1 index /FID ne {def} {pop pop} ifelse} forall
  /Encoding WinAnsiEncoding def
  currentdict
end
/Helvetica exch definefont pop
/Helvetica-Oblique findfont
dup length dict begin
  {1 index /FID ne {def} {pop pop} ifelse} forall
  /Encoding WinAnsiEncoding def
  currentdict
end
/Helvetica-Oblique exch definefont pop
/Helvetica-Bold findfont
dup length dict begin
  {1 index /FID ne {def} {pop pop} ifelse} forall
  /Encoding WinAnsiEncoding def
  currentdict
end
/Helvetica-Bold exch definefont pop
/Helvetica-BoldOblique findfont
dup length dict begin
  {1 index /FID ne {def} {pop pop} ifelse} forall
  /Encoding WinAnsiEncoding def
  currentdict
end
/Helvetica-BoldOblique exch definefont pop
/Times-Roman findfont
dup length dict begin
  {1 index /FID ne {def} {pop pop} ifelse} forall
  /Encoding WinAnsiEncoding def
  currentdict
end
/Times-Roman exch definefont pop
/Times-Italic findfont
dup length dict begin
  {1 index /FID ne {def} {pop pop} ifelse} forall
  /Encoding WinAnsiEncoding def
  currentdict
end
/Times-Italic exch definefont pop
/Times-Bold findfont
dup length dict begin
  {1 index /FID ne {def} {pop pop} ifelse} forall
  /Encoding WinAnsiEncoding def
  currentdict
end
/Times-Bold exch definefont pop
/Times-BoldItalic findfont
dup length dict begin
  {1 index /FID ne {def} {pop pop} ifelse} forall
  /Encoding WinAnsiEncoding def
  currentdict
end
/Times-BoldItalic exch definefont pop
/Courier findfont
dup length dict begin
  {1 index /FID ne {def} {pop pop} ifelse} forall
  /Encoding WinAnsiEncoding def
  currentdict
end
/Courier exch definefont pop
%FOPEndFontReencode
%%EndProlog
%%Page: 1 1
%%PageBoundingBox: 0 0 750 300
%%BeginPageSetup
[1 0 0 -1 0 300] CT
%%EndPageSetup
GS
[0.75 0 0 0.75 0 0] CT
1 GC
N
0 0 1000 400 re
f
GR
GS
[0.75 0 0 0.75 0 0] CT
1 GC
N
0 0 1000 400 re
f
GR
GS
[0.75 0 0 0.75 0 0] CT
1 GC
N
130 338 M
465 338 L
465 34 L
130 34 L
cp
f
GR
GS
[0.75 0 0 0.75 0 0] CT
0.775 GC
[1 3] 0 setdash
2 LJ
0.667 LW
N
144.222 338 M
144.222 34 L
S
GR
GS
[0.75 0 0 0.75 0 0] CT
0.775 GC
[1 3] 0 setdash
2 LJ
0.667 LW
N
160.024 338 M
160.024 34 L
S
GR
GS
[0.75 0 0 0.75 0 0] CT
0.775 GC
[1 3] 0 setdash
2 LJ
0.667 LW
N
175.825 338 M
175.825 34 L
S
GR
GS
[0.75 0 0 0.75 0 0] CT
0.775 GC
[1 3] 0 setdash
2 LJ
0.667 LW
N
191.627 338 M
191.627 34 L
S
GR
GS
[0.75 0 0 0.75 0 0] CT
0.775 GC
[1 3] 0 setdash
2 LJ
0.667 LW
N
207.429 338 M
207.429 34 L
S
GR
GS
[0.75 0 0 0.75 0 0] CT
0.775 GC
[1 3] 0 setdash
2 LJ
0.667 LW
N
223.231 338 M
223.231 34 L
S
GR
GS
[0.75 0 0 0.75 0 0] CT
0.775 GC
[1 3] 0 setdash
2 LJ
0.667 LW
N
239.033 338 M
239.033 34 L
S
GR
GS
[0.75 0 0 0.75 0 0] CT
0.775 GC
[1 3] 0 setdash
2 LJ
0.667 LW
N
254.835 338 M
254.835 34 L
S
GR
GS
[0.75 0 0 0.75 0 0] CT
0.775 GC
[1 3] 0 setdash
2 LJ
0.667 LW
N
270.637 338 M
270.637 34 L
S
GR
GS
[0.75 0 0 0.75 0 0] CT
0.775 GC
[1 3] 0 setdash
2 LJ
0.667 LW
N
286.439 338 M
286.439 34 L
S
GR
GS
[0.75 0 0 0.75 0 0] CT
0.775 GC
[1 3] 0 setdash
2 LJ
0.667 LW
N
302.241 338 M
302.241 34 L
S
GR
GS
[0.75 0 0 0.75 0 0] CT
0.775 GC
[1 3] 0 setdash
2 LJ
0.667 LW
N
318.042 338 M
318.042 34 L
S
GR
GS
[0.75 0 0 0.75 0 0] CT
0.775 GC
[1 3] 0 setdash
2 LJ
0.667 LW
N
333.844 338 M
333.844 34 L
S
GR
GS
[0.75 0 0 0.75 0 0] CT
0.775 GC
[1 3] 0 setdash
2 LJ
0.667 LW
N
349.646 338 M
349.646 34 L
S
GR
GS
[0.75 0 0 0.75 0 0] CT
0.775 GC
[1 3] 0 setdash
2 LJ
0.667 LW
N
365.448 338 M
365.448 34 L
S
GR
GS
[0.75 0 0 0.75 0 0] CT
0.775 GC
[1 3] 0 setdash
2 LJ
0.667 LW
N
381.25 338 M
381.25 34 L
S
GR
GS
[0.75 0 0 0.75 0 0] CT
0.775 GC
[1 3] 0 setdash
2 LJ
0.667 LW
N
397.052 338 M
397.052 34 L
S
GR
GS
[0.75 0 0 0.75 0 0] CT
0.775 GC
[1 3] 0 setdash
2 LJ
0.667 LW
N
412.854 338 M
412.854 34 L
S
GR
GS
[0.75 0 0 0.75 0 0] CT
0.775 GC
[1 3] 0 setdash
2 LJ
0.667 LW
N
428.656 338 M
428.656 34 L
S
GR
GS
[0.75 0 0 0.75 0 0] CT
0.775 GC
[1 3] 0 setdash
2 LJ
0.667 LW
N
444.458 338 M
444.458 34 L
S
GR
GS
[0.75 0 0 0.75 0 0] CT
0.775 GC
[1 3] 0 setdash
2 LJ
0.667 LW
N
460.259 338 M
460.259 34 L
S
GR
GS
[0.75 0 0 0.75 0 0] CT
0.775 GC
[1 3] 0 setdash
2 LJ
0.667 LW
N
465 338 M
130 338 L
S
GR
GS
[0.75 0 0 0.75 0 0] CT
0.775 GC
[1 3] 0 setdash
2 LJ
0.667 LW
N
465 320.118 M
130 320.118 L
S
GR
GS
[0.75 0 0 0.75 0 0] CT
0.775 GC
[1 3] 0 setdash
2 LJ
0.667 LW
N
465 302.235 M
130 302.235 L
S
GR
GS
[0.75 0 0 0.75 0 0] CT
0.775 GC
[1 3] 0 setdash
2 LJ
0.667 LW
N
465 284.353 M
130 284.353 L
S
GR
GS
[0.75 0 0 0.75 0 0] CT
0.775 GC
[1 3] 0 setdash
2 LJ
0.667 LW
N
465 266.471 M
130 266.471 L
S
GR
GS
[0.75 0 0 0.75 0 0] CT
0.775 GC
[1 3] 0 setdash
2 LJ
0.667 LW
N
465 248.588 M
130 248.588 L
S
GR
GS
[0.75 0 0 0.75 0 0] CT
0.775 GC
[1 3] 0 setdash
2 LJ
0.667 LW
N
465 230.706 M
130 230.706 L
S
GR
GS
[0.75 0 0 0.75 0 0] CT
0.775 GC
[1 3] 0 setdash
2 LJ
0.667 LW
N
465 212.824 M
130 212.824 L
S
GR
GS
[0.75 0 0 0.75 0 0] CT
0.775 GC
[1 3] 0 setdash
2 LJ
0.667 LW
N
465 194.941 M
130 194.941 L
S
GR
GS
[0.75 0 0 0.75 0 0] CT
0.775 GC
[1 3] 0 setdash
2 LJ
0.667 LW
N
465 177.059 M
130 177.059 L
S
GR
GS
[0.75 0 0 0.75 0 0] CT
0.775 GC
[1 3] 0 setdash
2 LJ
0.667 LW
N
465 159.176 M
130 159.176 L
S
GR
GS
[0.75 0 0 0.75 0 0] CT
0.775 GC
[1 3] 0 setdash
2 LJ
0.667 LW
N
465 141.294 M
130 141.294 L
S
GR
GS
[0.75 0 0 0.75 0 0] CT
0.775 GC
[1 3] 0 setdash
2 LJ
0.667 LW
N
465 123.412 M
130 123.412 L
S
GR
GS
[0.75 0 0 0.75 0 0] CT
0.775 GC
[1 3] 0 setdash
2 LJ
0.667 LW
N
465 105.529 M
130 105.529 L
S
GR
GS
[0.75 0 0 0.75 0 0] CT
0.775 GC
[1 3] 0 setdash
2 LJ
0.667 LW
N
465 87.647 M
130 87.647 L
S
GR
GS
[0.75 0 0 0.75 0 0] CT
0.775 GC
[1 3] 0 setdash
2 LJ
0.667 LW
N
465 69.765 M
130 69.765 L
S
GR
GS
[0.75 0 0 0.75 0 0] CT
0.775 GC
[1 3] 0 setdash
2 LJ
0.667 LW
N
465 51.882 M
130 51.882 L
S
GR
GS
[0.75 0 0 0.75 0 0] CT
0.775 GC
[1 3] 0 setdash
2 LJ
0.667 LW
N
465 34 M
130 34 L
S
GR
GS
[0.75 0 0 0.75 0 0] CT
0.149 GC
2 setlinecap
1 LJ
0.667 LW
N
130 338 M
465 338 L
S
GR
GS
[0.75 0 0 0.75 0 0] CT
0.149 GC
2 setlinecap
1 LJ
0.667 LW
N
130 34 M
465 34 L
S
GR
GS
[0.75 0 0 0.75 0 0] CT
0.149 GC
2 setlinecap
1 LJ
0.667 LW
N
207.429 338 M
207.429 334.65 L
S
GR
GS
[0.75 0 0 0.75 0 0] CT
0.149 GC
2 setlinecap
1 LJ
0.667 LW
N
286.439 338 M
286.439 334.65 L
S
GR
GS
[0.75 0 0 0.75 0 0] CT
0.149 GC
2 setlinecap
1 LJ
0.667 LW
N
365.448 338 M
365.448 334.65 L
S
GR
GS
[0.75 0 0 0.75 0 0] CT
0.149 GC
2 setlinecap
1 LJ
0.667 LW
N
444.458 338 M
444.458 334.65 L
S
GR
GS
[0.75 0 0 0.75 0 0] CT
0.149 GC
2 setlinecap
1 LJ
0.667 LW
N
207.429 34 M
207.429 37.35 L
S
GR
GS
[0.75 0 0 0.75 0 0] CT
0.149 GC
2 setlinecap
1 LJ
0.667 LW
N
286.439 34 M
286.439 37.35 L
S
GR
GS
[0.75 0 0 0.75 0 0] CT
0.149 GC
2 setlinecap
1 LJ
0.667 LW
N
365.448 34 M
365.448 37.35 L
S
GR
GS
[0.75 0 0 0.75 0 0] CT
0.149 GC
2 setlinecap
1 LJ
0.667 LW
N
444.458 34 M
444.458 37.35 L
S
GR
GS
[0.75 0 0 0.75 155.57193 258.49999] CT
0.149 GC
/Helvetica 20 F
GS
[1 0 0 1 0 0] CT
-11.5 21 moveto 
1 -1 scale
(50) t 
GR
GR
GS
[0.75 0 0 0.75 214.82902 258.49999] CT
0.149 GC
/Helvetica 20 F
GS
[1 0 0 1 0 0] CT
-17 21 moveto 
1 -1 scale
(100) t 
GR
GR
GS
[0.75 0 0 0.75 274.08609 258.49999] CT
0.149 GC
/Helvetica 20 F
GS
[1 0 0 1 0 0] CT
-17 21 moveto 
1 -1 scale
(150) t 
GR
GR
GS
[0.75 0 0 0.75 333.34316 258.49999] CT
0.149 GC
/Helvetica 20 F
GS
[1 0 0 1 0 0] CT
-17 21 moveto 
1 -1 scale
(200) t 
GR
GR
GS
[0.75 0 0 0.75 223.12511 279] CT
0.149 GC
/Helvetica 22 F
GS
[1 0 0 1 0 0] CT
-21.5 23 moveto 
1 -1 scale
(date) t 
GR
GR
GS
[0.75 0 0 0.75 0 0] CT
0.149 GC
2 setlinecap
1 LJ
0.667 LW
N
130 338 M
130 34 L
S
GR
GS
[0.75 0 0 0.75 0 0] CT
0.149 GC
2 setlinecap
1 LJ
0.667 LW
N
465 338 M
465 34 L
S
GR
GS
[0.75 0 0 0.75 0 0] CT
0.149 GC
2 setlinecap
1 LJ
0.667 LW
N
130 338 M
133.35 338 L
S
GR
GS
[0.75 0 0 0.75 0 0] CT
0.149 GC
2 setlinecap
1 LJ
0.667 LW
N
130 248.588 M
133.35 248.588 L
S
GR
GS
[0.75 0 0 0.75 0 0] CT
0.149 GC
2 setlinecap
1 LJ
0.667 LW
N
130 159.176 M
133.35 159.176 L
S
GR
GS
[0.75 0 0 0.75 0 0] CT
0.149 GC
2 setlinecap
1 LJ
0.667 LW
N
130 69.765 M
133.35 69.765 L
S
GR
GS
[0.75 0 0 0.75 0 0] CT
0.149 GC
2 setlinecap
1 LJ
0.667 LW
N
465 338 M
461.65 338 L
S
GR
GS
[0.75 0 0 0.75 0 0] CT
0.149 GC
2 setlinecap
1 LJ
0.667 LW
N
465 248.588 M
461.65 248.588 L
S
GR
GS
[0.75 0 0 0.75 0 0] CT
0.149 GC
2 setlinecap
1 LJ
0.667 LW
N
465 159.176 M
461.65 159.176 L
S
GR
GS
[0.75 0 0 0.75 0 0] CT
0.149 GC
2 setlinecap
1 LJ
0.667 LW
N
465 69.765 M
461.65 69.765 L
S
GR
GS
[0.75 0 0 0.75 92.5 253.5] CT
0.149 GC
/Helvetica 20 F
GS
[1 0 0 1 0 0] CT
-12 8 moveto 
1 -1 scale
(0) t 
GR
GR
GS
[0.75 0 0 0.75 92.5 186.44118] CT
0.149 GC
/Helvetica 20 F
GS
[1 0 0 1 0 0] CT
-28 8 moveto 
1 -1 scale
(0.5) t 
GR
GR
GS
[0.75 0 0 0.75 92.5 119.38235] CT
0.149 GC
/Helvetica 20 F
GS
[1 0 0 1 0 0] CT
-12 8 moveto 
1 -1 scale
(1) t 
GR
GR
GS
[0.75 0 0 0.75 92.5 52.32353] CT
0.149 GC
/Helvetica 20 F
GS
[1 0 0 1 0 0] CT
-28 8 moveto 
1 -1 scale
(1.5) t 
GR
GR
GS
[0 -0.75 0.75 0 68.5 139.49989] CT
0.149 GC
/Helvetica 22 F
GS
[1 0 0 1 0 0] CT
-29 -5 moveto 
1 -1 scale
(regret) t 
GR
GR
GS
[0.75 0 0 0.75 223.12521 22.40624] CT
/Helvetica-Bold 22 F
GS
[1 0 0 1 0 0] CT
-35 -5 moveto 
1 -1 scale
(Regret) t 
GR
GR
GS
[0.75 0 0 0.75 0 0] CT
0 0.447 0.741 RC
1 LJ
2 LW
N
130 328.645 M
131.58 330.205 L
133.16 329.281 L
134.741 329.354 L
136.321 319.521 L
137.901 325.089 L
139.481 316.879 L
141.061 310.02 L
142.642 330.191 L
144.222 318.227 L
145.802 324.919 L
147.382 308.197 L
148.962 301.362 L
150.542 302.199 L
152.123 305.526 L
153.703 306.075 L
155.283 300.03 L
156.863 296.659 L
158.443 298.721 L
160.024 292.32 L
161.604 281.356 L
163.184 274.207 L
164.764 273.692 L
166.344 270.409 L
167.925 283.229 L
169.505 290.068 L
171.085 277.343 L
172.665 285.117 L
174.245 314.134 L
175.825 302.442 L
177.406 312.353 L
178.986 310.62 L
180.566 311.437 L
182.146 310.912 L
183.726 315.492 L
185.307 317.436 L
186.887 311.007 L
188.467 315.008 L
190.047 319.468 L
191.627 307.668 L
193.208 307.737 L
194.788 313.511 L
196.368 310.205 L
197.948 312.649 L
199.528 307.982 L
201.108 310.837 L
202.689 317.255 L
204.269 313.575 L
205.849 313.371 L
207.429 315.726 L
209.009 312.776 L
210.59 316.316 L
212.17 303.964 L
213.75 303.461 L
215.33 304.293 L
216.91 305.082 L
218.491 304.757 L
220.071 308.952 L
221.651 304.969 L
223.231 301.46 L
224.811 303.608 L
226.392 303.4 L
227.972 304.765 L
229.552 303.016 L
231.132 303.936 L
232.712 302.903 L
234.292 299.677 L
235.873 296.922 L
237.453 294.648 L
239.033 292.501 L
240.613 290.812 L
242.193 291.167 L
243.774 291.743 L
245.354 292.444 L
246.934 293.14 L
248.514 292.581 L
250.094 291.897 L
251.675 278.175 L
253.255 280.385 L
254.835 279.821 L
256.415 267.827 L
257.995 268.982 L
259.575 267.23 L
261.156 271.556 L
262.736 268.589 L
264.316 266.863 L
265.896 263.734 L
267.476 258.826 L
269.057 251.553 L
270.637 249.225 L
272.217 247.881 L
273.797 245.169 L
275.377 257.866 L
276.958 253.353 L
278.538 249.792 L
280.118 254.019 L
281.698 257.576 L
283.278 253.717 L
284.858 253.825 L
286.439 245.95 L
288.019 242.361 L
289.599 242.148 L
291.179 245.05 L
292.759 240.366 L
294.34 239.724 L
295.92 245.394 L
297.5 247.394 L
299.08 245.459 L
300.66 254.35 L
302.241 275.357 L
303.821 241.502 L
305.401 231.263 L
306.981 240.826 L
308.561 251.545 L
310.142 262.659 L
311.722 259.735 L
313.302 270.888 L
314.882 266.506 L
316.462 271.714 L
318.042 273.717 L
319.623 271.424 L
321.203 268.886 L
322.783 239.358 L
324.363 249.124 L
325.943 261.459 L
327.524 251.208 L
329.104 264.63 L
330.684 276.011 L
332.264 264.328 L
333.844 263.897 L
335.425 262.59 L
337.005 260.761 L
338.585 262.292 L
340.165 260.428 L
341.745 253.921 L
343.325 226.932 L
344.906 199.085 L
346.486 220.83 L
348.066 237.515 L
349.646 229.279 L
351.226 241.501 L
352.807 252.656 L
354.387 260.757 L
355.967 293.218 L
357.547 279.955 L
359.127 276.113 L
360.708 276.717 L
362.288 271.008 L
363.868 281.436 L
365.448 257.828 L
367.028 292.344 L
368.608 300.304 L
370.189 283.037 L
371.769 289.516 L
373.349 291.825 L
374.929 294.164 L
376.509 303.118 L
378.09 288.734 L
379.67 237.727 L
381.25 226.939 L
382.83 227.185 L
384.41 220.524 L
385.991 228.61 L
387.571 203.88 L
389.151 199.56 L
390.731 210.627 L
392.311 217.368 L
393.892 207.49 L
395.472 232.305 L
397.052 251.904 L
398.632 266.403 L
400.212 253.639 L
401.792 255.327 L
403.373 263.72 L
404.953 267.962 L
406.533 276.248 L
408.113 292.754 L
409.693 276.2 L
411.274 253.869 L
412.854 258.416 L
414.434 269.717 L
416.014 272.984 L
417.594 266.928 L
419.175 267.644 L
420.755 270.283 L
422.335 274.784 L
423.915 282.355 L
425.495 286.083 L
427.075 277.851 L
428.656 278.596 L
430.236 283.935 L
431.816 283.693 L
433.396 293.121 L
434.976 293.553 L
436.557 299.345 L
438.137 301.915 L
439.717 297.962 L
441.297 298.25 L
442.877 303.602 L
444.458 306.184 L
446.038 291.869 L
447.618 272.6 L
449.198 275.17 L
450.778 274.654 L
452.358 277.027 L
453.939 283.537 L
455.519 287.398 L
457.099 293.246 L
458.679 289.836 L
460.259 291.963 L
461.84 294.493 L
463.42 298.851 L
465 298.092 L
S
GR
GS
[0.75 0 0 0.75 0 0] CT
0.851 0.325 0.098 RC
1 LJ
2 LW
N
130 50.195 M
131.58 50.195 L
133.16 50.195 L
134.741 50.195 L
136.321 50.195 L
137.901 50.195 L
139.481 50.195 L
141.061 50.195 L
142.642 50.195 L
144.222 50.195 L
145.802 50.195 L
147.382 50.195 L
148.962 50.195 L
150.542 50.195 L
152.123 50.195 L
153.703 50.195 L
155.283 50.195 L
156.863 50.195 L
158.443 50.195 L
160.024 50.195 L
161.604 50.195 L
163.184 50.195 L
164.764 50.195 L
166.344 50.195 L
167.925 50.195 L
169.505 50.195 L
171.085 50.195 L
172.665 50.195 L
174.245 50.195 L
175.825 50.195 L
177.406 50.195 L
178.986 50.195 L
180.566 50.195 L
182.146 50.195 L
183.726 50.195 L
185.307 50.195 L
186.887 50.195 L
188.467 50.195 L
190.047 50.195 L
191.627 50.195 L
193.208 50.195 L
194.788 50.195 L
196.368 50.195 L
197.948 50.195 L
199.528 50.195 L
201.108 50.195 L
202.689 50.195 L
204.269 50.195 L
205.849 50.195 L
207.429 50.195 L
209.009 50.195 L
210.59 50.195 L
212.17 50.195 L
213.75 50.195 L
215.33 50.195 L
216.91 50.195 L
218.491 50.195 L
220.071 50.195 L
221.651 50.195 L
223.231 50.195 L
224.811 50.195 L
226.392 50.195 L
227.972 50.195 L
229.552 50.195 L
231.132 50.195 L
232.712 50.195 L
234.292 50.195 L
235.873 50.195 L
237.453 50.195 L
239.033 50.195 L
240.613 50.195 L
242.193 50.195 L
243.774 50.195 L
245.354 50.195 L
246.934 50.195 L
248.514 50.195 L
250.094 50.195 L
251.675 50.195 L
253.255 50.195 L
254.835 50.195 L
256.415 50.195 L
257.995 50.195 L
259.575 50.195 L
261.156 50.195 L
262.736 50.195 L
264.316 50.195 L
265.896 50.195 L
267.476 50.195 L
269.057 50.195 L
270.637 50.195 L
272.217 50.195 L
273.797 50.195 L
275.377 50.195 L
276.958 50.195 L
278.538 50.195 L
280.118 50.195 L
281.698 50.195 L
283.278 50.195 L
284.858 50.195 L
286.439 50.195 L
288.019 50.195 L
289.599 50.195 L
291.179 50.195 L
292.759 50.195 L
294.34 50.195 L
295.92 50.195 L
297.5 50.195 L
299.08 50.195 L
300.66 50.195 L
302.241 50.195 L
303.821 50.195 L
305.401 50.195 L
306.981 50.195 L
308.561 50.195 L
310.142 50.195 L
311.722 50.195 L
313.302 50.195 L
314.882 50.195 L
316.462 50.195 L
318.042 50.195 L
319.623 50.195 L
321.203 50.195 L
322.783 50.195 L
324.363 50.195 L
325.943 50.195 L
327.524 50.195 L
329.104 50.195 L
330.684 50.195 L
332.264 50.195 L
333.844 50.195 L
335.425 50.195 L
337.005 50.195 L
338.585 50.195 L
340.165 50.195 L
341.745 50.195 L
343.325 50.195 L
344.906 50.195 L
346.486 50.195 L
348.066 50.195 L
349.646 50.195 L
351.226 50.195 L
352.807 50.195 L
354.387 50.195 L
355.967 50.195 L
357.547 50.195 L
359.127 50.195 L
360.708 50.195 L
362.288 50.195 L
363.868 50.195 L
365.448 50.195 L
367.028 50.195 L
368.608 50.195 L
370.189 50.195 L
371.769 50.195 L
373.349 50.195 L
374.929 50.195 L
376.509 50.195 L
378.09 50.195 L
379.67 50.195 L
381.25 50.195 L
382.83 50.195 L
384.41 50.195 L
385.991 50.195 L
387.571 50.195 L
389.151 50.195 L
390.731 50.195 L
392.311 50.195 L
393.892 50.195 L
395.472 50.195 L
397.052 50.195 L
398.632 50.195 L
400.212 50.195 L
401.792 50.195 L
403.373 50.195 L
404.953 50.195 L
406.533 50.195 L
408.113 50.195 L
409.693 50.195 L
411.274 50.195 L
412.854 50.195 L
414.434 50.195 L
416.014 50.195 L
417.594 50.195 L
419.175 50.195 L
420.755 50.195 L
422.335 50.195 L
423.915 50.195 L
425.495 50.195 L
427.075 50.195 L
428.656 50.195 L
430.236 50.195 L
431.816 50.195 L
433.396 50.195 L
434.976 50.195 L
436.557 50.195 L
438.137 50.195 L
439.717 50.195 L
441.297 50.195 L
442.877 50.195 L
444.458 50.195 L
446.038 50.195 L
447.618 50.195 L
449.198 50.195 L
450.778 50.195 L
452.358 50.195 L
453.939 50.195 L
455.519 50.195 L
457.099 50.195 L
458.679 50.195 L
460.259 50.195 L
461.84 50.195 L
463.42 50.195 L
465 50.195 L
S
GR
GS
[0.75 0 0 0.75 0 0] CT
1 GC
N
444 119 M
444 68 L
220 68 L
220 119 L
cp
f
GR
GS
[0.75 0 0 0.75 200.25 61.22524] CT
/Helvetica 18 F
GS
[1 0 0 1 0 0] CT
0 7.5 moveto 
1 -1 scale
(Regret AA) t 
GR
GR
GS
[0.75 0 0 0.75 0 0] CT
0 0.447 0.741 RC
1 LJ
2 LW
N
224 81.634 M
264 81.634 L
S
GR
GS
[0.75 0 0 0.75 200.25 79.02475] CT
/Helvetica 18 F
GS
[1 0 0 1 0 0] CT
0 7.5 moveto 
1 -1 scale
(Theoretical maximum) t 
GR
GR
GS
[0.75 0 0 0.75 0 0] CT
0.851 0.325 0.098 RC
1 LJ
2 LW
N
224 105.366 M
264 105.366 L
S
GR
GS
[0.75 0 0 0.75 0 0] CT
0.149 GC
10.0 ML
0.667 LW
N
220 119 M
220 68 L
444 68 L
444 119 L
cp
S
GR
GS
[0.75 0 0 0.75 0 0] CT
1 GC
N
570 338 M
905 338 L
905 34 L
570 34 L
cp
f
GR
GS
[0.75 0 0 0.75 0 0] CT
0.775 GC
[1 3] 0 setdash
2 LJ
0.667 LW
N
570 338 M
570 34 L
S
GR
GS
[0.75 0 0 0.75 0 0] CT
0.775 GC
[1 3] 0 setdash
2 LJ
0.667 LW
N
583.4 338 M
583.4 34 L
S
GR
GS
[0.75 0 0 0.75 0 0] CT
0.775 GC
[1 3] 0 setdash
2 LJ
0.667 LW
N
596.8 338 M
596.8 34 L
S
GR
GS
[0.75 0 0 0.75 0 0] CT
0.775 GC
[1 3] 0 setdash
2 LJ
0.667 LW
N
610.2 338 M
610.2 34 L
S
GR
GS
[0.75 0 0 0.75 0 0] CT
0.775 GC
[1 3] 0 setdash
2 LJ
0.667 LW
N
623.6 338 M
623.6 34 L
S
GR
GS
[0.75 0 0 0.75 0 0] CT
0.775 GC
[1 3] 0 setdash
2 LJ
0.667 LW
N
637 338 M
637 34 L
S
GR
GS
[0.75 0 0 0.75 0 0] CT
0.775 GC
[1 3] 0 setdash
2 LJ
0.667 LW
N
650.4 338 M
650.4 34 L
S
GR
GS
[0.75 0 0 0.75 0 0] CT
0.775 GC
[1 3] 0 setdash
2 LJ
0.667 LW
N
663.8 338 M
663.8 34 L
S
GR
GS
[0.75 0 0 0.75 0 0] CT
0.775 GC
[1 3] 0 setdash
2 LJ
0.667 LW
N
677.2 338 M
677.2 34 L
S
GR
GS
[0.75 0 0 0.75 0 0] CT
0.775 GC
[1 3] 0 setdash
2 LJ
0.667 LW
N
690.6 338 M
690.6 34 L
S
GR
GS
[0.75 0 0 0.75 0 0] CT
0.775 GC
[1 3] 0 setdash
2 LJ
0.667 LW
N
704 338 M
704 34 L
S
GR
GS
[0.75 0 0 0.75 0 0] CT
0.775 GC
[1 3] 0 setdash
2 LJ
0.667 LW
N
717.4 338 M
717.4 34 L
S
GR
GS
[0.75 0 0 0.75 0 0] CT
0.775 GC
[1 3] 0 setdash
2 LJ
0.667 LW
N
730.8 338 M
730.8 34 L
S
GR
GS
[0.75 0 0 0.75 0 0] CT
0.775 GC
[1 3] 0 setdash
2 LJ
0.667 LW
N
744.2 338 M
744.2 34 L
S
GR
GS
[0.75 0 0 0.75 0 0] CT
0.775 GC
[1 3] 0 setdash
2 LJ
0.667 LW
N
757.6 338 M
757.6 34 L
S
GR
GS
[0.75 0 0 0.75 0 0] CT
0.775 GC
[1 3] 0 setdash
2 LJ
0.667 LW
N
771 338 M
771 34 L
S
GR
GS
[0.75 0 0 0.75 0 0] CT
0.775 GC
[1 3] 0 setdash
2 LJ
0.667 LW
N
784.4 338 M
784.4 34 L
S
GR
GS
[0.75 0 0 0.75 0 0] CT
0.775 GC
[1 3] 0 setdash
2 LJ
0.667 LW
N
797.8 338 M
797.8 34 L
S
GR
GS
[0.75 0 0 0.75 0 0] CT
0.775 GC
[1 3] 0 setdash
2 LJ
0.667 LW
N
811.2 338 M
811.2 34 L
S
GR
GS
[0.75 0 0 0.75 0 0] CT
0.775 GC
[1 3] 0 setdash
2 LJ
0.667 LW
N
824.6 338 M
824.6 34 L
S
GR
GS
[0.75 0 0 0.75 0 0] CT
0.775 GC
[1 3] 0 setdash
2 LJ
0.667 LW
N
838 338 M
838 34 L
S
GR
GS
[0.75 0 0 0.75 0 0] CT
0.775 GC
[1 3] 0 setdash
2 LJ
0.667 LW
N
851.4 338 M
851.4 34 L
S
GR
GS
[0.75 0 0 0.75 0 0] CT
0.775 GC
[1 3] 0 setdash
2 LJ
0.667 LW
N
864.8 338 M
864.8 34 L
S
GR
GS
[0.75 0 0 0.75 0 0] CT
0.775 GC
[1 3] 0 setdash
2 LJ
0.667 LW
N
878.2 338 M
878.2 34 L
S
GR
GS
[0.75 0 0 0.75 0 0] CT
0.775 GC
[1 3] 0 setdash
2 LJ
0.667 LW
N
891.6 338 M
891.6 34 L
S
GR
GS
[0.75 0 0 0.75 0 0] CT
0.775 GC
[1 3] 0 setdash
2 LJ
0.667 LW
N
905 338 M
905 34 L
S
GR
GS
[0.75 0 0 0.75 0 0] CT
0.775 GC
[1 3] 0 setdash
2 LJ
0.667 LW
N
905 338 M
570 338 L
S
GR
GS
[0.75 0 0 0.75 0 0] CT
0.775 GC
[1 3] 0 setdash
2 LJ
0.667 LW
N
905 322.8 M
570 322.8 L
S
GR
GS
[0.75 0 0 0.75 0 0] CT
0.775 GC
[1 3] 0 setdash
2 LJ
0.667 LW
N
905 307.6 M
570 307.6 L
S
GR
GS
[0.75 0 0 0.75 0 0] CT
0.775 GC
[1 3] 0 setdash
2 LJ
0.667 LW
N
905 292.4 M
570 292.4 L
S
GR
GS
[0.75 0 0 0.75 0 0] CT
0.775 GC
[1 3] 0 setdash
2 LJ
0.667 LW
N
905 277.2 M
570 277.2 L
S
GR
GS
[0.75 0 0 0.75 0 0] CT
0.775 GC
[1 3] 0 setdash
2 LJ
0.667 LW
N
905 262 M
570 262 L
S
GR
GS
[0.75 0 0 0.75 0 0] CT
0.775 GC
[1 3] 0 setdash
2 LJ
0.667 LW
N
905 246.8 M
570 246.8 L
S
GR
GS
[0.75 0 0 0.75 0 0] CT
0.775 GC
[1 3] 0 setdash
2 LJ
0.667 LW
N
905 231.6 M
570 231.6 L
S
GR
GS
[0.75 0 0 0.75 0 0] CT
0.775 GC
[1 3] 0 setdash
2 LJ
0.667 LW
N
905 216.4 M
570 216.4 L
S
GR
GS
[0.75 0 0 0.75 0 0] CT
0.775 GC
[1 3] 0 setdash
2 LJ
0.667 LW
N
905 201.2 M
570 201.2 L
S
GR
GS
[0.75 0 0 0.75 0 0] CT
0.775 GC
[1 3] 0 setdash
2 LJ
0.667 LW
N
905 186 M
570 186 L
S
GR
GS
[0.75 0 0 0.75 0 0] CT
0.775 GC
[1 3] 0 setdash
2 LJ
0.667 LW
N
905 170.8 M
570 170.8 L
S
GR
GS
[0.75 0 0 0.75 0 0] CT
0.775 GC
[1 3] 0 setdash
2 LJ
0.667 LW
N
905 155.6 M
570 155.6 L
S
GR
GS
[0.75 0 0 0.75 0 0] CT
0.775 GC
[1 3] 0 setdash
2 LJ
0.667 LW
N
905 140.4 M
570 140.4 L
S
GR
GS
[0.75 0 0 0.75 0 0] CT
0.775 GC
[1 3] 0 setdash
2 LJ
0.667 LW
N
905 125.2 M
570 125.2 L
S
GR
GS
[0.75 0 0 0.75 0 0] CT
0.775 GC
[1 3] 0 setdash
2 LJ
0.667 LW
N
905 110 M
570 110 L
S
GR
GS
[0.75 0 0 0.75 0 0] CT
0.775 GC
[1 3] 0 setdash
2 LJ
0.667 LW
N
905 94.8 M
570 94.8 L
S
GR
GS
[0.75 0 0 0.75 0 0] CT
0.775 GC
[1 3] 0 setdash
2 LJ
0.667 LW
N
905 79.6 M
570 79.6 L
S
GR
GS
[0.75 0 0 0.75 0 0] CT
0.775 GC
[1 3] 0 setdash
2 LJ
0.667 LW
N
905 64.4 M
570 64.4 L
S
GR
GS
[0.75 0 0 0.75 0 0] CT
0.775 GC
[1 3] 0 setdash
2 LJ
0.667 LW
N
905 49.2 M
570 49.2 L
S
GR
GS
[0.75 0 0 0.75 0 0] CT
0.775 GC
[1 3] 0 setdash
2 LJ
0.667 LW
N
905 34 M
570 34 L
S
GR
GS
[0.75 0 0 0.75 0 0] CT
0.149 GC
2 setlinecap
1 LJ
0.667 LW
N
570 338 M
905 338 L
S
GR
GS
[0.75 0 0 0.75 0 0] CT
0.149 GC
2 setlinecap
1 LJ
0.667 LW
N
570 34 M
905 34 L
S
GR
GS
[0.75 0 0 0.75 0 0] CT
0.149 GC
2 setlinecap
1 LJ
0.667 LW
N
570 338 M
570 334.65 L
S
GR
GS
[0.75 0 0 0.75 0 0] CT
0.149 GC
2 setlinecap
1 LJ
0.667 LW
N
637 338 M
637 334.65 L
S
GR
GS
[0.75 0 0 0.75 0 0] CT
0.149 GC
2 setlinecap
1 LJ
0.667 LW
N
704 338 M
704 334.65 L
S
GR
GS
[0.75 0 0 0.75 0 0] CT
0.149 GC
2 setlinecap
1 LJ
0.667 LW
N
771 338 M
771 334.65 L
S
GR
GS
[0.75 0 0 0.75 0 0] CT
0.149 GC
2 setlinecap
1 LJ
0.667 LW
N
838 338 M
838 334.65 L
S
GR
GS
[0.75 0 0 0.75 0 0] CT
0.149 GC
2 setlinecap
1 LJ
0.667 LW
N
905 338 M
905 334.65 L
S
GR
GS
[0.75 0 0 0.75 0 0] CT
0.149 GC
2 setlinecap
1 LJ
0.667 LW
N
570 34 M
570 37.35 L
S
GR
GS
[0.75 0 0 0.75 0 0] CT
0.149 GC
2 setlinecap
1 LJ
0.667 LW
N
637 34 M
637 37.35 L
S
GR
GS
[0.75 0 0 0.75 0 0] CT
0.149 GC
2 setlinecap
1 LJ
0.667 LW
N
704 34 M
704 37.35 L
S
GR
GS
[0.75 0 0 0.75 0 0] CT
0.149 GC
2 setlinecap
1 LJ
0.667 LW
N
771 34 M
771 37.35 L
S
GR
GS
[0.75 0 0 0.75 0 0] CT
0.149 GC
2 setlinecap
1 LJ
0.667 LW
N
838 34 M
838 37.35 L
S
GR
GS
[0.75 0 0 0.75 0 0] CT
0.149 GC
2 setlinecap
1 LJ
0.667 LW
N
905 34 M
905 37.35 L
S
GR
GS
[0.75 0 0 0.75 427.5 258.49999] CT
0.149 GC
/Helvetica 20 F
GS
[1 0 0 1 0 0] CT
-6 21 moveto 
1 -1 scale
(0) t 
GR
GR
GS
[0.75 0 0 0.75 477.75 258.49999] CT
0.149 GC
/Helvetica 20 F
GS
[1 0 0 1 0 0] CT
-11.5 21 moveto 
1 -1 scale
(50) t 
GR
GR
GS
[0.75 0 0 0.75 528 258.49999] CT
0.149 GC
/Helvetica 20 F
GS
[1 0 0 1 0 0] CT
-17 21 moveto 
1 -1 scale
(100) t 
GR
GR
GS
[0.75 0 0 0.75 578.25 258.49999] CT
0.149 GC
/Helvetica 20 F
GS
[1 0 0 1 0 0] CT
-17 21 moveto 
1 -1 scale
(150) t 
GR
GR
GS
[0.75 0 0 0.75 628.5 258.49999] CT
0.149 GC
/Helvetica 20 F
GS
[1 0 0 1 0 0] CT
-17 21 moveto 
1 -1 scale
(200) t 
GR
GR
GS
[0.75 0 0 0.75 678.75 258.49999] CT
0.149 GC
/Helvetica 20 F
GS
[1 0 0 1 0 0] CT
-17 21 moveto 
1 -1 scale
(250) t 
GR
GR
GS
[0.75 0 0 0.75 553.12514 279] CT
0.149 GC
/Helvetica 22 F
GS
[1 0 0 1 0 0] CT
-21.5 23 moveto 
1 -1 scale
(date) t 
GR
GR
GS
[0.75 0 0 0.75 0 0] CT
0.149 GC
2 setlinecap
1 LJ
0.667 LW
N
570 338 M
570 34 L
S
GR
GS
[0.75 0 0 0.75 0 0] CT
0.149 GC
2 setlinecap
1 LJ
0.667 LW
N
905 338 M
905 34 L
S
GR
GS
[0.75 0 0 0.75 0 0] CT
0.149 GC
2 setlinecap
1 LJ
0.667 LW
N
570 338 M
573.35 338 L
S
GR
GS
[0.75 0 0 0.75 0 0] CT
0.149 GC
2 setlinecap
1 LJ
0.667 LW
N
570 277.2 M
573.35 277.2 L
S
GR
GS
[0.75 0 0 0.75 0 0] CT
0.149 GC
2 setlinecap
1 LJ
0.667 LW
N
570 216.4 M
573.35 216.4 L
S
GR
GS
[0.75 0 0 0.75 0 0] CT
0.149 GC
2 setlinecap
1 LJ
0.667 LW
N
570 155.6 M
573.35 155.6 L
S
GR
GS
[0.75 0 0 0.75 0 0] CT
0.149 GC
2 setlinecap
1 LJ
0.667 LW
N
570 94.8 M
573.35 94.8 L
S
GR
GS
[0.75 0 0 0.75 0 0] CT
0.149 GC
2 setlinecap
1 LJ
0.667 LW
N
570 34 M
573.35 34 L
S
GR
GS
[0.75 0 0 0.75 0 0] CT
0.149 GC
2 setlinecap
1 LJ
0.667 LW
N
905 338 M
901.65 338 L
S
GR
GS
[0.75 0 0 0.75 0 0] CT
0.149 GC
2 setlinecap
1 LJ
0.667 LW
N
905 277.2 M
901.65 277.2 L
S
GR
GS
[0.75 0 0 0.75 0 0] CT
0.149 GC
2 setlinecap
1 LJ
0.667 LW
N
905 216.4 M
901.65 216.4 L
S
GR
GS
[0.75 0 0 0.75 0 0] CT
0.149 GC
2 setlinecap
1 LJ
0.667 LW
N
905 155.6 M
901.65 155.6 L
S
GR
GS
[0.75 0 0 0.75 0 0] CT
0.149 GC
2 setlinecap
1 LJ
0.667 LW
N
905 94.8 M
901.65 94.8 L
S
GR
GS
[0.75 0 0 0.75 0 0] CT
0.149 GC
2 setlinecap
1 LJ
0.667 LW
N
905 34 M
901.65 34 L
S
GR
GS
[0.75 0 0 0.75 422.49998 253.5] CT
0.149 GC
/Helvetica 20 F
GS
[1 0 0 1 0 0] CT
-12 8 moveto 
1 -1 scale
(0) t 
GR
GR
GS
[0.75 0 0 0.75 422.49998 207.90001] CT
0.149 GC
/Helvetica 20 F
GS
[1 0 0 1 0 0] CT
-12 8 moveto 
1 -1 scale
(2) t 
GR
GR
GS
[0.75 0 0 0.75 422.49998 162.3] CT
0.149 GC
/Helvetica 20 F
GS
[1 0 0 1 0 0] CT
-12 8 moveto 
1 -1 scale
(4) t 
GR
GR
GS
[0.75 0 0 0.75 422.49998 116.7] CT
0.149 GC
/Helvetica 20 F
GS
[1 0 0 1 0 0] CT
-12 8 moveto 
1 -1 scale
(6) t 
GR
GR
GS
[0.75 0 0 0.75 422.49998 71.1] CT
0.149 GC
/Helvetica 20 F
GS
[1 0 0 1 0 0] CT
-12 8 moveto 
1 -1 scale
(8) t 
GR
GR
GS
[0.75 0 0 0.75 422.49998 25.5] CT
0.149 GC
/Helvetica 20 F
GS
[1 0 0 1 0 0] CT
-23 8 moveto 
1 -1 scale
(10) t 
GR
GR
GS
[0 -0.75 0.75 0 402.24998 139.49989] CT
0.149 GC
/Helvetica 22 F
GS
[1 0 0 1 0 0] CT
-85 -5 moveto 
1 -1 scale
(Increse in Wealth) t 
GR
GR
GS
[0.75 0 0 0.75 553.12555 22.40625] CT
/Helvetica-Bold 22 F
GS
[1 0 0 1 0 0] CT
-90.5 -5 moveto 
1 -1 scale
(Increse in Wealth) t 
GR
GR
GS
[0.75 0 0 0.75 0 0] CT
0 0.447 0.741 RC
1 LJ
2 LW
N
571.34 307.219 M
572.68 309.331 L
574.02 310.249 L
575.36 309.657 L
576.7 309.795 L
578.04 309.758 L
579.38 310.722 L
580.72 310.623 L
582.06 308.793 L
583.4 308.173 L
584.74 308.975 L
586.08 310.707 L
587.42 308.492 L
588.76 308.709 L
590.1 306.627 L
591.44 304.6 L
592.78 305.791 L
594.12 306.407 L
595.46 304.64 L
596.8 304.498 L
598.14 304.961 L
599.48 304.293 L
600.82 305.503 L
602.16 304.609 L
603.5 302.495 L
604.84 299.145 L
606.18 298.441 L
607.52 298.966 L
608.86 299.012 L
610.2 296.322 L
611.54 295.316 L
612.88 296.59 L
614.22 296.046 L
615.56 296.352 L
616.9 294.973 L
618.24 294.505 L
619.58 294.161 L
620.92 293.221 L
622.26 290.788 L
623.6 287.897 L
624.94 291.967 L
626.28 291.768 L
627.62 297.623 L
628.96 295.314 L
630.3 291.268 L
631.64 291.482 L
632.98 296.075 L
634.32 296.955 L
635.66 298.002 L
637 297.095 L
638.34 298.059 L
639.68 299.708 L
641.02 308.961 L
642.36 304.614 L
643.7 304.573 L
645.04 304.816 L
646.38 300.417 L
647.72 300.852 L
649.06 301.846 L
650.4 305.044 L
651.74 304.649 L
653.08 303.204 L
654.42 303.95 L
655.76 302.055 L
657.1 302.18 L
658.44 299.565 L
659.78 300.485 L
661.12 301.162 L
662.46 300.093 L
663.8 299.984 L
665.14 300.293 L
666.48 301.005 L
667.82 301.643 L
669.16 300.646 L
670.5 300.133 L
671.84 299.767 L
673.18 298.333 L
674.52 299.976 L
675.86 299.423 L
677.2 299.187 L
678.54 297.039 L
679.88 295.257 L
681.22 294.29 L
682.56 294.4 L
683.9 294.759 L
685.24 296.073 L
686.58 296.909 L
687.92 297.179 L
689.26 296.726 L
690.6 297.123 L
691.94 297.585 L
693.28 298.711 L
694.62 298.691 L
695.96 298.116 L
697.3 297.855 L
698.64 297.758 L
699.98 297.147 L
701.32 295.234 L
702.66 295.37 L
704 294.958 L
705.34 293.864 L
706.68 291.889 L
708.02 290.279 L
709.36 290.402 L
710.7 290.397 L
712.04 291.415 L
713.38 290.075 L
714.72 288.498 L
716.06 288.179 L
717.4 285.768 L
718.74 280.489 L
720.08 281.728 L
721.42 280.127 L
722.76 280.203 L
724.1 279.449 L
725.44 281.423 L
726.78 278.053 L
728.12 276.097 L
729.46 276.237 L
730.8 274.265 L
732.14 276.07 L
733.48 272.829 L
734.82 266.618 L
736.16 264.192 L
737.5 262.626 L
738.84 259.379 L
740.18 258.772 L
741.52 257.541 L
742.86 265.078 L
744.2 262.715 L
745.54 257.844 L
746.88 257.945 L
748.22 255.444 L
749.56 253.89 L
750.9 255.09 L
752.24 252.497 L
753.58 246.353 L
754.92 242.194 L
756.26 241.655 L
757.6 244.311 L
758.94 228.069 L
760.28 202.647 L
761.62 202.448 L
762.96 187.967 L
764.3 188.493 L
765.64 184.424 L
766.98 181.899 L
768.32 168.009 L
769.66 161.87 L
771 153.592 L
772.34 151.726 L
773.68 177.254 L
775.02 161.719 L
776.36 175.079 L
777.7 170.03 L
779.04 158.938 L
780.38 158.476 L
781.72 168.801 L
783.06 141.403 L
784.4 157.1 L
785.74 145.11 L
787.08 144.891 L
788.42 128.35 L
789.76 109.048 L
791.1 108.046 L
792.44 104.832 L
793.78 92.699 L
795.12 84.097 L
796.46 125.7 L
797.8 135.775 L
799.14 132.272 L
800.48 148.389 L
801.82 137.756 L
803.16 130.191 L
804.5 142.059 L
805.84 152.627 L
807.18 195.207 L
808.52 193.492 L
809.86 182.222 L
811.2 183.203 L
812.54 169.913 L
813.88 188.484 L
815.22 195.556 L
816.56 197.089 L
817.9 192.859 L
819.24 194.631 L
820.58 198.707 L
821.92 195.773 L
823.26 182.131 L
824.6 190.425 L
825.94 206.686 L
827.28 204.563 L
828.62 221.284 L
829.96 230.452 L
831.3 221.982 L
832.64 234.102 L
833.98 251.811 L
835.32 241.115 L
836.66 244.922 L
838 232.954 L
839.34 223.074 L
840.68 222.319 L
842.02 228.322 L
843.36 219.889 L
844.7 223.852 L
846.04 206.978 L
847.38 202.944 L
848.72 199.667 L
850.06 195.137 L
851.4 203.066 L
852.74 198.7 L
854.08 201.523 L
855.42 210.829 L
S
GR
%%Trailer
%%Pages: 1
%%EOF
