%!PS-Adobe-3.0 EPSF-3.0
%%Creator: (MATLAB, The Mathworks, Inc. Version 9.3.0.713579 \(R2017b\). Operating System: Windows 7)
%%Title: fig/OGD_p.eps
%%CreationDate: 2018-03-27T20:07:18
%%Pages: (atend)
%%BoundingBox:    36     3   691   295
%%LanguageLevel: 3
%%EndComments
%%BeginProlog
%%BeginResource: procset (Apache XML Graphics Std ProcSet) 1.2 0
%%Version: 1.2 0
%%Copyright: (Copyright 2001-2003,2010 The Apache Software Foundation. License terms: http://www.apache.org/licenses/LICENSE-2.0)
/bd{bind def}bind def
/ld{load def}bd
/GR/grestore ld
/GS/gsave ld
/RM/rmoveto ld
/C/curveto ld
/t/show ld
/L/lineto ld
/ML/setmiterlimit ld
/CT/concat ld
/f/fill ld
/N/newpath ld
/S/stroke ld
/CC/setcmykcolor ld
/A/ashow ld
/cp/closepath ld
/RC/setrgbcolor ld
/LJ/setlinejoin ld
/GC/setgray ld
/LW/setlinewidth ld
/M/moveto ld
/re {4 2 roll M
1 index 0 rlineto
0 exch rlineto
neg 0 rlineto
cp } bd
/_ctm matrix def
/_tm matrix def
/BT { _ctm currentmatrix pop matrix _tm copy pop 0 0 moveto } bd
/ET { _ctm setmatrix } bd
/iTm { _ctm setmatrix _tm concat } bd
/Tm { _tm astore pop iTm 0 0 moveto } bd
/ux 0.0 def
/uy 0.0 def
/F {
  /Tp exch def
  /Tf exch def
  Tf findfont Tp scalefont setfont
  /cf Tf def  /cs Tp def
} bd
/ULS {currentpoint /uy exch def /ux exch def} bd
/ULE {
  /Tcx currentpoint pop def
  gsave
  newpath
  cf findfont cs scalefont dup
  /FontMatrix get 0 get /Ts exch def /FontInfo get dup
  /UnderlinePosition get Ts mul /To exch def
  /UnderlineThickness get Ts mul /Tt exch def
  ux uy To add moveto  Tcx uy To add lineto
  Tt setlinewidth stroke
  grestore
} bd
/OLE {
  /Tcx currentpoint pop def
  gsave
  newpath
  cf findfont cs scalefont dup
  /FontMatrix get 0 get /Ts exch def /FontInfo get dup
  /UnderlinePosition get Ts mul /To exch def
  /UnderlineThickness get Ts mul /Tt exch def
  ux uy To add cs add moveto Tcx uy To add cs add lineto
  Tt setlinewidth stroke
  grestore
} bd
/SOE {
  /Tcx currentpoint pop def
  gsave
  newpath
  cf findfont cs scalefont dup
  /FontMatrix get 0 get /Ts exch def /FontInfo get dup
  /UnderlinePosition get Ts mul /To exch def
  /UnderlineThickness get Ts mul /Tt exch def
  ux uy To add cs 10 mul 26 idiv add moveto Tcx uy To add cs 10 mul 26 idiv add lineto
  Tt setlinewidth stroke
  grestore
} bd
/QT {
/Y22 exch store
/X22 exch store
/Y21 exch store
/X21 exch store
currentpoint
/Y21 load 2 mul add 3 div exch
/X21 load 2 mul add 3 div exch
/X21 load 2 mul /X22 load add 3 div
/Y21 load 2 mul /Y22 load add 3 div
/X22 load /Y22 load curveto
} bd
/SSPD {
dup length /d exch dict def
{
/v exch def
/k exch def
currentpagedevice k known {
/cpdv currentpagedevice k get def
v cpdv ne {
/upd false def
/nullv v type /nulltype eq def
/nullcpdv cpdv type /nulltype eq def
nullv nullcpdv or
{
/upd true def
} {
/sametype v type cpdv type eq def
sametype {
v type /arraytype eq {
/vlen v length def
/cpdvlen cpdv length def
vlen cpdvlen eq {
0 1 vlen 1 sub {
/i exch def
/obj v i get def
/cpdobj cpdv i get def
obj cpdobj ne {
/upd true def
exit
} if
} for
} {
/upd true def
} ifelse
} {
v type /dicttype eq {
v {
/dv exch def
/dk exch def
/cpddv cpdv dk get def
dv cpddv ne {
/upd true def
exit
} if
} forall
} {
/upd true def
} ifelse
} ifelse
} if
} ifelse
upd true eq {
d k v put
} if
} if
} if
} forall
d length 0 gt {
d setpagedevice
} if
} bd
/RE { % /NewFontName [NewEncodingArray] /FontName RE -
  findfont dup length dict begin
  {
    1 index /FID ne
    {def} {pop pop} ifelse
  } forall
  /Encoding exch def
  /FontName 1 index def
  currentdict definefont pop
  end
} bind def
%%EndResource
%%BeginResource: procset (Apache XML Graphics EPS ProcSet) 1.0 0
%%Version: 1.0 0
%%Copyright: (Copyright 2002-2003 The Apache Software Foundation. License terms: http://www.apache.org/licenses/LICENSE-2.0)
/BeginEPSF { %def
/b4_Inc_state save def         % Save state for cleanup
/dict_count countdictstack def % Count objects on dict stack
/op_count count 1 sub def      % Count objects on operand stack
userdict begin                 % Push userdict on dict stack
/showpage { } def              % Redefine showpage, { } = null proc
0 setgray 0 setlinecap         % Prepare graphics state
1 setlinewidth 0 setlinejoin
10 setmiterlimit [ ] 0 setdash newpath
/languagelevel where           % If level not equal to 1 then
{pop languagelevel             % set strokeadjust and
1 ne                           % overprint to their defaults.
{false setstrokeadjust false setoverprint
} if
} if
} bd
/EndEPSF { %def
count op_count sub {pop} repeat            % Clean up stacks
countdictstack dict_count sub {end} repeat
b4_Inc_state restore
} bd
%%EndResource
%FOPBeginFontDict
%%IncludeResource: font Courier-Oblique
%%IncludeResource: font Courier-BoldOblique
%%IncludeResource: font Courier-Bold
%%IncludeResource: font ZapfDingbats
%%IncludeResource: font Symbol
%%IncludeResource: font Helvetica
%%IncludeResource: font Helvetica-Oblique
%%IncludeResource: font Helvetica-Bold
%%IncludeResource: font Helvetica-BoldOblique
%%IncludeResource: font Times-Roman
%%IncludeResource: font Times-Italic
%%IncludeResource: font Times-Bold
%%IncludeResource: font Times-BoldItalic
%%IncludeResource: font Courier
%FOPEndFontDict
%%BeginResource: encoding WinAnsiEncoding
/WinAnsiEncoding [
/.notdef /.notdef /.notdef /.notdef /.notdef
/.notdef /.notdef /.notdef /.notdef /.notdef
/.notdef /.notdef /.notdef /.notdef /.notdef
/.notdef /.notdef /.notdef /.notdef /.notdef
/.notdef /.notdef /.notdef /.notdef /.notdef
/.notdef /.notdef /.notdef /.notdef /.notdef
/.notdef /.notdef /space /exclam /quotedbl
/numbersign /dollar /percent /ampersand /quotesingle
/parenleft /parenright /asterisk /plus /comma
/hyphen /period /slash /zero /one
/two /three /four /five /six
/seven /eight /nine /colon /semicolon
/less /equal /greater /question /at
/A /B /C /D /E
/F /G /H /I /J
/K /L /M /N /O
/P /Q /R /S /T
/U /V /W /X /Y
/Z /bracketleft /backslash /bracketright /asciicircum
/underscore /quoteleft /a /b /c
/d /e /f /g /h
/i /j /k /l /m
/n /o /p /q /r
/s /t /u /v /w
/x /y /z /braceleft /bar
/braceright /asciitilde /bullet /Euro /bullet
/quotesinglbase /florin /quotedblbase /ellipsis /dagger
/daggerdbl /circumflex /perthousand /Scaron /guilsinglleft
/OE /bullet /Zcaron /bullet /bullet
/quoteleft /quoteright /quotedblleft /quotedblright /bullet
/endash /emdash /asciitilde /trademark /scaron
/guilsinglright /oe /bullet /zcaron /Ydieresis
/space /exclamdown /cent /sterling /currency
/yen /brokenbar /section /dieresis /copyright
/ordfeminine /guillemotleft /logicalnot /sfthyphen /registered
/macron /degree /plusminus /twosuperior /threesuperior
/acute /mu /paragraph /middot /cedilla
/onesuperior /ordmasculine /guillemotright /onequarter /onehalf
/threequarters /questiondown /Agrave /Aacute /Acircumflex
/Atilde /Adieresis /Aring /AE /Ccedilla
/Egrave /Eacute /Ecircumflex /Edieresis /Igrave
/Iacute /Icircumflex /Idieresis /Eth /Ntilde
/Ograve /Oacute /Ocircumflex /Otilde /Odieresis
/multiply /Oslash /Ugrave /Uacute /Ucircumflex
/Udieresis /Yacute /Thorn /germandbls /agrave
/aacute /acircumflex /atilde /adieresis /aring
/ae /ccedilla /egrave /eacute /ecircumflex
/edieresis /igrave /iacute /icircumflex /idieresis
/eth /ntilde /ograve /oacute /ocircumflex
/otilde /odieresis /divide /oslash /ugrave
/uacute /ucircumflex /udieresis /yacute /thorn
/ydieresis
] def
%%EndResource
%FOPBeginFontReencode
/Courier-Oblique findfont
dup length dict begin
  {1 index /FID ne {def} {pop pop} ifelse} forall
  /Encoding WinAnsiEncoding def
  currentdict
end
/Courier-Oblique exch definefont pop
/Courier-BoldOblique findfont
dup length dict begin
  {1 index /FID ne {def} {pop pop} ifelse} forall
  /Encoding WinAnsiEncoding def
  currentdict
end
/Courier-BoldOblique exch definefont pop
/Courier-Bold findfont
dup length dict begin
  {1 index /FID ne {def} {pop pop} ifelse} forall
  /Encoding WinAnsiEncoding def
  currentdict
end
/Courier-Bold exch definefont pop
/Helvetica findfont
dup length dict begin
  {1 index /FID ne {def} {pop pop} ifelse} forall
  /Encoding WinAnsiEncoding def
  currentdict
end
/Helvetica exch definefont pop
/Helvetica-Oblique findfont
dup length dict begin
  {1 index /FID ne {def} {pop pop} ifelse} forall
  /Encoding WinAnsiEncoding def
  currentdict
end
/Helvetica-Oblique exch definefont pop
/Helvetica-Bold findfont
dup length dict begin
  {1 index /FID ne {def} {pop pop} ifelse} forall
  /Encoding WinAnsiEncoding def
  currentdict
end
/Helvetica-Bold exch definefont pop
/Helvetica-BoldOblique findfont
dup length dict begin
  {1 index /FID ne {def} {pop pop} ifelse} forall
  /Encoding WinAnsiEncoding def
  currentdict
end
/Helvetica-BoldOblique exch definefont pop
/Times-Roman findfont
dup length dict begin
  {1 index /FID ne {def} {pop pop} ifelse} forall
  /Encoding WinAnsiEncoding def
  currentdict
end
/Times-Roman exch definefont pop
/Times-Italic findfont
dup length dict begin
  {1 index /FID ne {def} {pop pop} ifelse} forall
  /Encoding WinAnsiEncoding def
  currentdict
end
/Times-Italic exch definefont pop
/Times-Bold findfont
dup length dict begin
  {1 index /FID ne {def} {pop pop} ifelse} forall
  /Encoding WinAnsiEncoding def
  currentdict
end
/Times-Bold exch definefont pop
/Times-BoldItalic findfont
dup length dict begin
  {1 index /FID ne {def} {pop pop} ifelse} forall
  /Encoding WinAnsiEncoding def
  currentdict
end
/Times-BoldItalic exch definefont pop
/Courier findfont
dup length dict begin
  {1 index /FID ne {def} {pop pop} ifelse} forall
  /Encoding WinAnsiEncoding def
  currentdict
end
/Courier exch definefont pop
%FOPEndFontReencode
%%EndProlog
%%Page: 1 1
%%PageBoundingBox: 0 0 750 300
%%BeginPageSetup
[1 0 0 -1 0 300] CT
%%EndPageSetup
GS
[0.75 0 0 0.75 0 0] CT
1 GC
N
0 0 1000 400 re
f
GR
GS
[0.75 0 0 0.75 0 0] CT
1 GC
N
0 0 1000 400 re
f
GR
GS
[0.75 0 0 0.75 0 0] CT
1 GC
N
130 338 M
465 338 L
465 33 L
130 33 L
cp
f
GR
GS
[0.75 0 0 0.75 0 0] CT
0.775 GC
[1 3] 0 setdash
2 LJ
0.667 LW
N
130 338 M
130 33 L
S
GR
GS
[0.75 0 0 0.75 0 0] CT
0.775 GC
[1 3] 0 setdash
2 LJ
0.667 LW
N
143.4 338 M
143.4 33 L
S
GR
GS
[0.75 0 0 0.75 0 0] CT
0.775 GC
[1 3] 0 setdash
2 LJ
0.667 LW
N
156.8 338 M
156.8 33 L
S
GR
GS
[0.75 0 0 0.75 0 0] CT
0.775 GC
[1 3] 0 setdash
2 LJ
0.667 LW
N
170.2 338 M
170.2 33 L
S
GR
GS
[0.75 0 0 0.75 0 0] CT
0.775 GC
[1 3] 0 setdash
2 LJ
0.667 LW
N
183.6 338 M
183.6 33 L
S
GR
GS
[0.75 0 0 0.75 0 0] CT
0.775 GC
[1 3] 0 setdash
2 LJ
0.667 LW
N
197 338 M
197 33 L
S
GR
GS
[0.75 0 0 0.75 0 0] CT
0.775 GC
[1 3] 0 setdash
2 LJ
0.667 LW
N
210.4 338 M
210.4 33 L
S
GR
GS
[0.75 0 0 0.75 0 0] CT
0.775 GC
[1 3] 0 setdash
2 LJ
0.667 LW
N
223.8 338 M
223.8 33 L
S
GR
GS
[0.75 0 0 0.75 0 0] CT
0.775 GC
[1 3] 0 setdash
2 LJ
0.667 LW
N
237.2 338 M
237.2 33 L
S
GR
GS
[0.75 0 0 0.75 0 0] CT
0.775 GC
[1 3] 0 setdash
2 LJ
0.667 LW
N
250.6 338 M
250.6 33 L
S
GR
GS
[0.75 0 0 0.75 0 0] CT
0.775 GC
[1 3] 0 setdash
2 LJ
0.667 LW
N
264 338 M
264 33 L
S
GR
GS
[0.75 0 0 0.75 0 0] CT
0.775 GC
[1 3] 0 setdash
2 LJ
0.667 LW
N
277.4 338 M
277.4 33 L
S
GR
GS
[0.75 0 0 0.75 0 0] CT
0.775 GC
[1 3] 0 setdash
2 LJ
0.667 LW
N
290.8 338 M
290.8 33 L
S
GR
GS
[0.75 0 0 0.75 0 0] CT
0.775 GC
[1 3] 0 setdash
2 LJ
0.667 LW
N
304.2 338 M
304.2 33 L
S
GR
GS
[0.75 0 0 0.75 0 0] CT
0.775 GC
[1 3] 0 setdash
2 LJ
0.667 LW
N
317.6 338 M
317.6 33 L
S
GR
GS
[0.75 0 0 0.75 0 0] CT
0.775 GC
[1 3] 0 setdash
2 LJ
0.667 LW
N
331 338 M
331 33 L
S
GR
GS
[0.75 0 0 0.75 0 0] CT
0.775 GC
[1 3] 0 setdash
2 LJ
0.667 LW
N
344.4 338 M
344.4 33 L
S
GR
GS
[0.75 0 0 0.75 0 0] CT
0.775 GC
[1 3] 0 setdash
2 LJ
0.667 LW
N
357.8 338 M
357.8 33 L
S
GR
GS
[0.75 0 0 0.75 0 0] CT
0.775 GC
[1 3] 0 setdash
2 LJ
0.667 LW
N
371.2 338 M
371.2 33 L
S
GR
GS
[0.75 0 0 0.75 0 0] CT
0.775 GC
[1 3] 0 setdash
2 LJ
0.667 LW
N
384.6 338 M
384.6 33 L
S
GR
GS
[0.75 0 0 0.75 0 0] CT
0.775 GC
[1 3] 0 setdash
2 LJ
0.667 LW
N
398 338 M
398 33 L
S
GR
GS
[0.75 0 0 0.75 0 0] CT
0.775 GC
[1 3] 0 setdash
2 LJ
0.667 LW
N
411.4 338 M
411.4 33 L
S
GR
GS
[0.75 0 0 0.75 0 0] CT
0.775 GC
[1 3] 0 setdash
2 LJ
0.667 LW
N
424.8 338 M
424.8 33 L
S
GR
GS
[0.75 0 0 0.75 0 0] CT
0.775 GC
[1 3] 0 setdash
2 LJ
0.667 LW
N
438.2 338 M
438.2 33 L
S
GR
GS
[0.75 0 0 0.75 0 0] CT
0.775 GC
[1 3] 0 setdash
2 LJ
0.667 LW
N
451.6 338 M
451.6 33 L
S
GR
GS
[0.75 0 0 0.75 0 0] CT
0.775 GC
[1 3] 0 setdash
2 LJ
0.667 LW
N
465 338 M
465 33 L
S
GR
GS
[0.75 0 0 0.75 0 0] CT
0.775 GC
[1 3] 0 setdash
2 LJ
0.667 LW
N
465 338 M
130 338 L
S
GR
GS
[0.75 0 0 0.75 0 0] CT
0.775 GC
[1 3] 0 setdash
2 LJ
0.667 LW
N
465 322.75 M
130 322.75 L
S
GR
GS
[0.75 0 0 0.75 0 0] CT
0.775 GC
[1 3] 0 setdash
2 LJ
0.667 LW
N
465 307.5 M
130 307.5 L
S
GR
GS
[0.75 0 0 0.75 0 0] CT
0.775 GC
[1 3] 0 setdash
2 LJ
0.667 LW
N
465 292.25 M
130 292.25 L
S
GR
GS
[0.75 0 0 0.75 0 0] CT
0.775 GC
[1 3] 0 setdash
2 LJ
0.667 LW
N
465 277 M
130 277 L
S
GR
GS
[0.75 0 0 0.75 0 0] CT
0.775 GC
[1 3] 0 setdash
2 LJ
0.667 LW
N
465 261.75 M
130 261.75 L
S
GR
GS
[0.75 0 0 0.75 0 0] CT
0.775 GC
[1 3] 0 setdash
2 LJ
0.667 LW
N
465 246.5 M
130 246.5 L
S
GR
GS
[0.75 0 0 0.75 0 0] CT
0.775 GC
[1 3] 0 setdash
2 LJ
0.667 LW
N
465 231.25 M
130 231.25 L
S
GR
GS
[0.75 0 0 0.75 0 0] CT
0.775 GC
[1 3] 0 setdash
2 LJ
0.667 LW
N
465 216 M
130 216 L
S
GR
GS
[0.75 0 0 0.75 0 0] CT
0.775 GC
[1 3] 0 setdash
2 LJ
0.667 LW
N
465 200.75 M
130 200.75 L
S
GR
GS
[0.75 0 0 0.75 0 0] CT
0.775 GC
[1 3] 0 setdash
2 LJ
0.667 LW
N
465 185.5 M
130 185.5 L
S
GR
GS
[0.75 0 0 0.75 0 0] CT
0.775 GC
[1 3] 0 setdash
2 LJ
0.667 LW
N
465 170.25 M
130 170.25 L
S
GR
GS
[0.75 0 0 0.75 0 0] CT
0.775 GC
[1 3] 0 setdash
2 LJ
0.667 LW
N
465 155 M
130 155 L
S
GR
GS
[0.75 0 0 0.75 0 0] CT
0.775 GC
[1 3] 0 setdash
2 LJ
0.667 LW
N
465 139.75 M
130 139.75 L
S
GR
GS
[0.75 0 0 0.75 0 0] CT
0.775 GC
[1 3] 0 setdash
2 LJ
0.667 LW
N
465 124.5 M
130 124.5 L
S
GR
GS
[0.75 0 0 0.75 0 0] CT
0.775 GC
[1 3] 0 setdash
2 LJ
0.667 LW
N
465 109.25 M
130 109.25 L
S
GR
GS
[0.75 0 0 0.75 0 0] CT
0.775 GC
[1 3] 0 setdash
2 LJ
0.667 LW
N
465 94 M
130 94 L
S
GR
GS
[0.75 0 0 0.75 0 0] CT
0.775 GC
[1 3] 0 setdash
2 LJ
0.667 LW
N
465 78.75 M
130 78.75 L
S
GR
GS
[0.75 0 0 0.75 0 0] CT
0.775 GC
[1 3] 0 setdash
2 LJ
0.667 LW
N
465 63.5 M
130 63.5 L
S
GR
GS
[0.75 0 0 0.75 0 0] CT
0.775 GC
[1 3] 0 setdash
2 LJ
0.667 LW
N
465 48.25 M
130 48.25 L
S
GR
GS
[0.75 0 0 0.75 0 0] CT
0.775 GC
[1 3] 0 setdash
2 LJ
0.667 LW
N
465 33 M
130 33 L
S
GR
GS
[0.75 0 0 0.75 0 0] CT
0.149 GC
2 setlinecap
1 LJ
0.667 LW
N
130 338 M
465 338 L
S
GR
GS
[0.75 0 0 0.75 0 0] CT
0.149 GC
2 setlinecap
1 LJ
0.667 LW
N
130 33 M
465 33 L
S
GR
GS
[0.75 0 0 0.75 0 0] CT
0.149 GC
2 setlinecap
1 LJ
0.667 LW
N
130 338 M
130 334.65 L
S
GR
GS
[0.75 0 0 0.75 0 0] CT
0.149 GC
2 setlinecap
1 LJ
0.667 LW
N
197 338 M
197 334.65 L
S
GR
GS
[0.75 0 0 0.75 0 0] CT
0.149 GC
2 setlinecap
1 LJ
0.667 LW
N
264 338 M
264 334.65 L
S
GR
GS
[0.75 0 0 0.75 0 0] CT
0.149 GC
2 setlinecap
1 LJ
0.667 LW
N
331 338 M
331 334.65 L
S
GR
GS
[0.75 0 0 0.75 0 0] CT
0.149 GC
2 setlinecap
1 LJ
0.667 LW
N
398 338 M
398 334.65 L
S
GR
GS
[0.75 0 0 0.75 0 0] CT
0.149 GC
2 setlinecap
1 LJ
0.667 LW
N
465 338 M
465 334.65 L
S
GR
GS
[0.75 0 0 0.75 0 0] CT
0.149 GC
2 setlinecap
1 LJ
0.667 LW
N
130 33 M
130 36.35 L
S
GR
GS
[0.75 0 0 0.75 0 0] CT
0.149 GC
2 setlinecap
1 LJ
0.667 LW
N
197 33 M
197 36.35 L
S
GR
GS
[0.75 0 0 0.75 0 0] CT
0.149 GC
2 setlinecap
1 LJ
0.667 LW
N
264 33 M
264 36.35 L
S
GR
GS
[0.75 0 0 0.75 0 0] CT
0.149 GC
2 setlinecap
1 LJ
0.667 LW
N
331 33 M
331 36.35 L
S
GR
GS
[0.75 0 0 0.75 0 0] CT
0.149 GC
2 setlinecap
1 LJ
0.667 LW
N
398 33 M
398 36.35 L
S
GR
GS
[0.75 0 0 0.75 0 0] CT
0.149 GC
2 setlinecap
1 LJ
0.667 LW
N
465 33 M
465 36.35 L
S
GR
GS
[0.75 0 0 0.75 97.5 258.49992] CT
0.149 GC
/Helvetica 20 F
GS
[1 0 0 1 0 0] CT
-6 21 moveto 
1 -1 scale
(0) t 
GR
GR
GS
[0.75 0 0 0.75 147.75 258.49992] CT
0.149 GC
/Helvetica 20 F
GS
[1 0 0 1 0 0] CT
-11.5 21 moveto 
1 -1 scale
(50) t 
GR
GR
GS
[0.75 0 0 0.75 198 258.49992] CT
0.149 GC
/Helvetica 20 F
GS
[1 0 0 1 0 0] CT
-17 21 moveto 
1 -1 scale
(100) t 
GR
GR
GS
[0.75 0 0 0.75 248.25 258.49992] CT
0.149 GC
/Helvetica 20 F
GS
[1 0 0 1 0 0] CT
-17 21 moveto 
1 -1 scale
(150) t 
GR
GR
GS
[0.75 0 0 0.75 298.5 258.49992] CT
0.149 GC
/Helvetica 20 F
GS
[1 0 0 1 0 0] CT
-17 21 moveto 
1 -1 scale
(200) t 
GR
GR
GS
[0.75 0 0 0.75 348.75 258.49992] CT
0.149 GC
/Helvetica 20 F
GS
[1 0 0 1 0 0] CT
-17 21 moveto 
1 -1 scale
(250) t 
GR
GR
GS
[0.75 0 0 0.75 223.12511 279] CT
0.149 GC
/Helvetica 22 F
GS
[1 0 0 1 0 0] CT
-21.5 23 moveto 
1 -1 scale
(date) t 
GR
GR
GS
[0.75 0 0 0.75 0 0] CT
0.149 GC
2 setlinecap
1 LJ
0.667 LW
N
130 338 M
130 33 L
S
GR
GS
[0.75 0 0 0.75 0 0] CT
0.149 GC
2 setlinecap
1 LJ
0.667 LW
N
465 338 M
465 33 L
S
GR
GS
[0.75 0 0 0.75 0 0] CT
0.149 GC
2 setlinecap
1 LJ
0.667 LW
N
130 338 M
133.35 338 L
S
GR
GS
[0.75 0 0 0.75 0 0] CT
0.149 GC
2 setlinecap
1 LJ
0.667 LW
N
130 261.75 M
133.35 261.75 L
S
GR
GS
[0.75 0 0 0.75 0 0] CT
0.149 GC
2 setlinecap
1 LJ
0.667 LW
N
130 185.5 M
133.35 185.5 L
S
GR
GS
[0.75 0 0 0.75 0 0] CT
0.149 GC
2 setlinecap
1 LJ
0.667 LW
N
130 109.25 M
133.35 109.25 L
S
GR
GS
[0.75 0 0 0.75 0 0] CT
0.149 GC
2 setlinecap
1 LJ
0.667 LW
N
130 33 M
133.35 33 L
S
GR
GS
[0.75 0 0 0.75 0 0] CT
0.149 GC
2 setlinecap
1 LJ
0.667 LW
N
465 338 M
461.65 338 L
S
GR
GS
[0.75 0 0 0.75 0 0] CT
0.149 GC
2 setlinecap
1 LJ
0.667 LW
N
465 261.75 M
461.65 261.75 L
S
GR
GS
[0.75 0 0 0.75 0 0] CT
0.149 GC
2 setlinecap
1 LJ
0.667 LW
N
465 185.5 M
461.65 185.5 L
S
GR
GS
[0.75 0 0 0.75 0 0] CT
0.149 GC
2 setlinecap
1 LJ
0.667 LW
N
465 109.25 M
461.65 109.25 L
S
GR
GS
[0.75 0 0 0.75 0 0] CT
0.149 GC
2 setlinecap
1 LJ
0.667 LW
N
465 33 M
461.65 33 L
S
GR
GS
[0.75 0 0 0.75 92.5 253.49995] CT
0.149 GC
/Helvetica 20 F
GS
[1 0 0 1 0 0] CT
-39 8 moveto 
1 -1 scale
(0.18) t 
GR
GR
GS
[0.75 0 0 0.75 92.5 196.31252] CT
0.149 GC
/Helvetica 20 F
GS
[1 0 0 1 0 0] CT
-39 8 moveto 
1 -1 scale
(0.19) t 
GR
GR
GS
[0.75 0 0 0.75 92.5 139.12499] CT
0.149 GC
/Helvetica 20 F
GS
[1 0 0 1 0 0] CT
-28 8 moveto 
1 -1 scale
(0.2) t 
GR
GR
GS
[0.75 0 0 0.75 92.5 81.93754] CT
0.149 GC
/Helvetica 20 F
GS
[1 0 0 1 0 0] CT
-39 8 moveto 
1 -1 scale
(0.21) t 
GR
GR
GS
[0.75 0 0 0.75 92.5 24.75001] CT
0.149 GC
/Helvetica 20 F
GS
[1 0 0 1 0 0] CT
-39 8 moveto 
1 -1 scale
(0.22) t 
GR
GR
GS
[0 -0.75 0.75 0 48.75 240] CT
0.149 GC
/Helvetica 22 F
GS
[1 0 0 1 0 0] CT
0 0 moveto 
1 -1 scale
(confidence p) t 
GR
GR
GS
[0 -0.75 0.75 0 57 146.25] CT
0.149 GC
/Helvetica 17.6 F
GS
[1 0 0 1 0 0] CT
0 0 moveto 
1 -1 scale
(t) t 
GR
GR
GS
[0 -0.75 0.75 0 48.75 142.5] CT
0.149 GC
/Helvetica 22 F
GS
[1 0 0 1 0 0] CT
0 0 moveto 
1 -1 scale
( in the experts) t 
GR
GR
GS
[0.75 0 0 0.75 223.12521 21.65624] CT
/Helvetica-Bold 22 F
GS
[1 0 0 1 0 0] CT
-127 -5 moveto 
1 -1 scale
(rebalancing strategy AA) t 
GR
GR
GS
[0.75 0 0 0.75 0 0] CT
0 0.447 0.741 RC
1 LJ
2 LW
N
131.34 185.5 M
132.68 179.274 L
134.02 180.287 L
135.36 188.615 L
136.7 184.958 L
138.04 178.043 L
139.38 184.558 L
140.72 192.596 L
142.06 209.816 L
143.4 187.363 L
144.74 168.303 L
146.08 188.896 L
147.42 225.379 L
148.76 241.817 L
150.1 237.302 L
151.44 201.474 L
152.78 199.939 L
154.12 209.46 L
155.46 217.389 L
156.8 203.708 L
158.14 207.446 L
159.48 212.218 L
160.82 214.151 L
162.16 209.931 L
163.5 211.573 L
164.84 165.683 L
166.18 124.415 L
167.52 114.762 L
168.86 120.576 L
170.2 141.58 L
171.54 133.309 L
172.88 140.425 L
174.22 143.922 L
175.56 143.007 L
176.9 145.032 L
178.24 149.824 L
179.58 156.311 L
180.92 165.25 L
182.26 163.346 L
183.6 167.304 L
184.94 167.391 L
186.28 166.485 L
187.62 160.947 L
188.96 163.923 L
190.3 164.961 L
191.64 156.09 L
192.98 152.884 L
194.32 154.329 L
195.66 159.14 L
197 158.67 L
198.34 160.992 L
199.68 164.191 L
201.02 160.913 L
202.36 165.805 L
203.7 165.139 L
205.04 160.892 L
206.38 165.458 L
207.72 164.288 L
209.06 151.305 L
210.4 159.868 L
211.74 164.64 L
213.08 166.364 L
214.42 167.427 L
215.76 167.017 L
217.1 166.603 L
218.44 167.422 L
219.78 171.514 L
221.12 171.011 L
222.46 171.722 L
223.8 175.842 L
225.14 180.797 L
226.48 178.158 L
227.82 180.703 L
229.16 191.838 L
230.5 195.749 L
231.84 195.003 L
233.18 196.702 L
234.52 206.197 L
235.86 210.336 L
237.2 209.478 L
238.54 212.297 L
239.88 218.324 L
241.22 220.159 L
242.56 222.271 L
243.9 224.627 L
245.24 223.997 L
246.58 200.878 L
247.92 208.065 L
249.26 209.662 L
250.6 211.256 L
251.94 211.433 L
253.28 207.251 L
254.62 209.241 L
255.96 206.882 L
257.3 206.302 L
258.64 204.708 L
259.98 196.067 L
261.32 181.779 L
262.66 179.076 L
264 179.649 L
265.34 182.171 L
266.68 161.328 L
268.02 154.776 L
269.36 151.639 L
270.7 151.558 L
272.04 149.47 L
273.38 153.274 L
274.72 154.283 L
276.06 156.698 L
277.4 152.553 L
278.74 99.271 L
280.08 72.797 L
281.42 64.534 L
282.76 71.32 L
284.1 79.736 L
285.44 86.932 L
286.78 116.7 L
288.12 87.364 L
289.46 84.283 L
290.8 92.426 L
292.14 89.721 L
293.48 92.207 L
294.82 85.569 L
296.16 62.291 L
297.5 69.882 L
298.84 78.978 L
300.18 70.115 L
301.52 79.655 L
302.86 89.145 L
304.2 91.039 L
305.54 92.31 L
306.88 93.318 L
308.22 95.413 L
309.56 88.113 L
310.9 88.768 L
312.24 92.327 L
313.58 97.888 L
314.92 108.726 L
316.26 108.235 L
317.6 115.385 L
318.94 118.401 L
320.28 127.532 L
321.62 140.55 L
322.96 146.276 L
324.3 143.652 L
325.64 150.887 L
326.98 154.259 L
328.32 152.126 L
329.66 143.206 L
331 117.904 L
332.34 78.195 L
333.68 103.654 L
335.02 108.708 L
336.36 96.217 L
337.7 101.039 L
339.04 103.428 L
340.38 104.734 L
341.72 113.462 L
343.06 120.225 L
344.4 124.759 L
345.74 131.423 L
347.08 132.243 L
348.42 136.214 L
349.76 134.904 L
351.1 145.158 L
352.44 152.86 L
353.78 149.868 L
355.12 148.543 L
356.46 151.119 L
357.8 152.589 L
359.14 151.706 L
360.48 131.511 L
361.82 139.581 L
363.16 138.854 L
364.5 141.299 L
365.84 140.712 L
367.18 142.292 L
368.52 148.459 L
369.86 150.559 L
371.2 156.725 L
372.54 155.664 L
373.88 150.219 L
375.22 152.472 L
376.56 156.808 L
377.9 155.671 L
379.24 157.972 L
380.58 156.711 L
381.92 156.619 L
383.26 157.416 L
384.6 159.248 L
385.94 159.037 L
387.28 159.672 L
388.62 160.056 L
389.96 162.623 L
391.3 161.367 L
392.64 163.132 L
393.98 160.84 L
395.32 169.967 L
396.66 172.482 L
398 170.179 L
399.34 149.752 L
400.68 156.868 L
402.02 161.452 L
403.36 159.21 L
404.7 161.602 L
406.04 162.542 L
407.38 166.94 L
408.72 169.431 L
410.06 158.495 L
411.4 162.297 L
412.74 160.737 L
414.08 160.961 L
415.42 167.293 L
S
GR
GS
[0.75 0 0 0.75 0 0] CT
0.851 0.325 0.098 RC
1 LJ
2 LW
N
131.34 185.5 M
132.68 185.909 L
134.02 185.435 L
135.36 183.866 L
136.7 179.922 L
138.04 173.24 L
139.38 177.097 L
140.72 171.576 L
142.06 166.676 L
143.4 181.262 L
144.74 184.183 L
146.08 177.445 L
147.42 165.26 L
148.76 159.028 L
150.1 160.007 L
151.44 165.887 L
152.78 171.805 L
154.12 169.505 L
155.46 165.125 L
156.8 163.415 L
158.14 155.766 L
159.48 147.703 L
160.82 142.44 L
162.16 142.268 L
163.5 139.528 L
164.84 151.117 L
166.18 166.27 L
167.52 166.398 L
168.86 168.717 L
170.2 174.111 L
171.54 179.584 L
172.88 181.807 L
174.22 172.629 L
175.56 173.098 L
176.9 172.77 L
178.24 175.987 L
179.58 177.939 L
180.92 173.34 L
182.26 176.339 L
183.6 179.452 L
184.94 181.477 L
186.28 179.267 L
187.62 179.927 L
188.96 173.24 L
190.3 175.838 L
191.64 180.486 L
192.98 179.888 L
194.32 177.978 L
195.66 175.632 L
197 175.803 L
198.34 177.226 L
199.68 175.244 L
201.02 177.615 L
202.36 169.739 L
203.7 169.304 L
205.04 169.876 L
206.38 170.399 L
207.72 169.946 L
209.06 172.853 L
210.4 170.301 L
211.74 168.053 L
213.08 169.466 L
214.42 169.168 L
215.76 170.114 L
217.1 168.908 L
218.44 169.69 L
219.78 169.008 L
221.12 166.77 L
222.46 164.899 L
223.8 163.188 L
225.14 161.737 L
226.48 160.649 L
227.82 160.884 L
229.16 161.058 L
230.5 161.477 L
231.84 161.943 L
233.18 161.462 L
234.52 160.53 L
235.86 150.428 L
237.2 152.029 L
238.54 151.371 L
239.88 142.606 L
241.22 143.281 L
242.56 141.856 L
243.9 144.743 L
245.24 142.649 L
246.58 143.737 L
247.92 140.805 L
249.26 137.044 L
250.6 131.336 L
251.94 129.66 L
253.28 128.933 L
254.62 126.683 L
255.96 136.191 L
257.3 132.799 L
258.64 130.224 L
259.98 133.945 L
261.32 137.359 L
262.66 134.415 L
264 134.478 L
265.34 128.253 L
266.68 126.04 L
268.02 125.938 L
269.36 128.012 L
270.7 124.23 L
272.04 123.627 L
273.38 128.307 L
274.72 129.914 L
276.06 128.493 L
277.4 135.034 L
278.74 149.033 L
280.08 162.06 L
281.42 165.794 L
282.76 158.294 L
284.1 158.576 L
285.44 148.583 L
286.78 139.524 L
288.12 147.271 L
289.46 149.555 L
290.8 146.454 L
292.14 147.588 L
293.48 146.262 L
294.82 148.998 L
296.16 159.895 L
297.5 162.201 L
298.84 158.732 L
300.18 154.744 L
301.52 150.902 L
302.86 152.378 L
304.2 140.842 L
305.54 140.68 L
306.88 139.499 L
308.22 138.349 L
309.56 138.366 L
310.9 136.9 L
312.24 132.217 L
313.58 109.202 L
314.92 83.791 L
316.26 101.805 L
317.6 114.275 L
318.94 107.675 L
320.28 114.818 L
321.62 137.529 L
322.96 149.179 L
324.3 167.369 L
325.64 157.466 L
326.98 148.527 L
328.32 152.347 L
329.66 162.54 L
331 175.615 L
332.34 187.32 L
333.68 199.904 L
335.02 198.259 L
336.36 201.177 L
337.7 199.004 L
339.04 202.569 L
340.38 193.462 L
341.72 195.921 L
343.06 198.51 L
344.4 211.215 L
345.74 214.94 L
347.08 212.043 L
348.42 215.5 L
349.76 216.03 L
351.1 220.546 L
352.44 217.254 L
353.78 208.235 L
355.12 214.814 L
356.46 224.182 L
357.8 218.805 L
359.14 220.949 L
360.48 221.522 L
361.82 223.914 L
363.16 225.537 L
364.5 227.692 L
365.84 226.102 L
367.18 220.027 L
368.52 212.254 L
369.86 215.82 L
371.2 219.737 L
372.54 218.186 L
373.88 216.659 L
375.22 215.658 L
376.56 216.397 L
377.9 215.902 L
379.24 214.349 L
380.58 214.331 L
381.92 212.402 L
383.26 212.214 L
384.6 218.514 L
385.94 217.144 L
387.28 216.837 L
388.62 217.194 L
389.96 214.446 L
391.3 209.649 L
392.64 214.551 L
393.98 214.024 L
395.32 212.093 L
396.66 212.885 L
398 210.597 L
399.34 216.227 L
400.68 219.554 L
402.02 220.818 L
403.36 221.689 L
404.7 219.39 L
406.04 219.89 L
407.38 224.44 L
408.72 220.099 L
410.06 222.83 L
411.4 216.939 L
412.74 216.514 L
414.08 213.147 L
415.42 208.628 L
S
GR
GS
[0.75 0 0 0.75 0 0] CT
0.929 0.694 0.125 RC
1 LJ
2 LW
N
131.34 185.5 M
132.68 187.563 L
134.02 189 L
135.36 186.843 L
136.7 189.079 L
138.04 194.777 L
139.38 187.665 L
140.72 188.054 L
142.06 184.672 L
143.4 181.342 L
144.74 187.354 L
146.08 181.825 L
147.42 174.922 L
148.76 165.797 L
150.1 163.087 L
151.44 171.301 L
152.78 167.397 L
154.12 162.66 L
155.46 159.716 L
156.8 161.911 L
158.14 161.051 L
159.48 163.498 L
160.82 164.508 L
162.16 164.474 L
163.5 162.141 L
164.84 172.929 L
166.18 185.984 L
167.52 186.294 L
168.86 184.111 L
170.2 179.551 L
171.54 189.964 L
172.88 192.61 L
174.22 185.665 L
175.56 184.891 L
176.9 183.361 L
178.24 182.663 L
179.58 184.656 L
180.92 177.622 L
182.26 177.892 L
183.6 183.002 L
184.94 188.074 L
186.28 190.399 L
187.62 191.659 L
188.96 194.909 L
190.3 194.514 L
191.64 197.277 L
192.98 198.458 L
194.32 199.02 L
195.66 197.437 L
197 196.99 L
198.34 197.197 L
199.68 195.583 L
201.02 196.643 L
202.36 194.964 L
203.7 192.722 L
205.04 194.716 L
206.38 191.404 L
207.72 187.75 L
209.06 190.886 L
210.4 187.361 L
211.74 187.439 L
213.08 186.303 L
214.42 181.759 L
215.76 180.811 L
217.1 183.03 L
218.44 184.757 L
219.78 185.481 L
221.12 185.348 L
222.46 186.18 L
223.8 185.362 L
225.14 185.306 L
226.48 186.245 L
227.82 186.013 L
229.16 183.694 L
230.5 185.522 L
231.84 182.189 L
233.18 182.241 L
234.52 186.866 L
235.86 185.454 L
237.2 186.342 L
238.54 185.376 L
239.88 190.563 L
241.22 182.673 L
242.56 184.669 L
243.9 185.534 L
245.24 185.536 L
246.58 189.903 L
247.92 187.692 L
249.26 188.723 L
250.6 190.671 L
251.94 190.86 L
253.28 191.532 L
254.62 191.17 L
255.96 188.366 L
257.3 189.777 L
258.64 190.835 L
259.98 191.806 L
261.32 195.102 L
262.66 196.6 L
264 195.209 L
265.34 196.065 L
266.68 204.299 L
268.02 210.916 L
269.36 207.922 L
270.7 208.934 L
272.04 210.39 L
273.38 207.929 L
274.72 213.073 L
276.06 211.116 L
277.4 208.45 L
278.74 221.774 L
280.08 225.092 L
281.42 223.729 L
282.76 224.497 L
284.1 218.552 L
285.44 221.708 L
286.78 222.365 L
288.12 227.347 L
289.46 225.667 L
290.8 223.965 L
292.14 223.481 L
293.48 222.332 L
294.82 221.352 L
296.16 221.116 L
297.5 208.896 L
298.84 214.772 L
300.18 216.486 L
301.52 216.417 L
302.86 222.375 L
304.2 221.077 L
305.54 219.689 L
306.88 221.678 L
308.22 222.344 L
309.56 224.317 L
310.9 225.148 L
312.24 224.828 L
313.58 233.524 L
314.92 235.021 L
316.26 239.869 L
317.6 238.508 L
318.94 242.177 L
320.28 242.339 L
321.62 243.519 L
322.96 239.972 L
324.3 260.053 L
325.64 260.191 L
326.98 260.769 L
328.32 258.603 L
329.66 257.671 L
331 258.54 L
332.34 264.086 L
333.68 271.003 L
335.02 276.521 L
336.36 279.091 L
337.7 274.731 L
339.04 267.574 L
340.38 273.425 L
341.72 275.652 L
343.06 272.838 L
344.4 283.588 L
345.74 278.673 L
347.08 279.9 L
348.42 276.797 L
349.76 272.305 L
351.1 268.722 L
352.44 266.277 L
353.78 268.475 L
355.12 270.868 L
356.46 261.328 L
357.8 245.988 L
359.14 228.031 L
360.48 235.312 L
361.82 234.618 L
363.16 229.715 L
364.5 224.151 L
365.84 220.142 L
367.18 221.153 L
368.52 215.742 L
369.86 220.594 L
371.2 224.933 L
372.54 224.407 L
373.88 222.839 L
375.22 220.626 L
376.56 219.713 L
377.9 220.53 L
379.24 215.786 L
380.58 215.042 L
381.92 212.281 L
383.26 209.249 L
384.6 205.414 L
385.94 205.209 L
387.28 203.437 L
388.62 200.058 L
389.96 193.355 L
391.3 198.546 L
392.64 201.982 L
393.98 206.142 L
395.32 204.789 L
396.66 203.359 L
398 204.48 L
399.34 210.547 L
400.68 211.345 L
402.02 214.162 L
403.36 214.558 L
404.7 215.667 L
406.04 214.994 L
407.38 220.716 L
408.72 222.691 L
410.06 225.301 L
411.4 225.491 L
412.74 225.195 L
414.08 226.565 L
415.42 230.024 L
S
GR
GS
[0.75 0 0 0.75 0 0] CT
0.494 0.184 0.557 RC
1 LJ
2 LW
N
131.34 185.5 M
132.68 186.025 L
134.02 183.574 L
135.36 179.848 L
136.7 182.532 L
138.04 186.072 L
139.38 185.085 L
140.72 182.962 L
142.06 175.575 L
143.4 184.248 L
144.74 189.249 L
146.08 184.571 L
147.42 174.711 L
148.76 173.345 L
150.1 177.301 L
151.44 186.94 L
152.78 187.461 L
154.12 183.963 L
155.46 184.702 L
156.8 190.268 L
158.14 191.713 L
159.48 190.966 L
160.82 192.783 L
162.16 195.163 L
163.5 195.501 L
164.84 206.58 L
166.18 209.549 L
167.52 214.958 L
168.86 212.404 L
170.2 211.229 L
171.54 222.084 L
172.88 210.022 L
174.22 213.014 L
175.56 212.2 L
176.9 210.059 L
178.24 193.7 L
179.58 193.409 L
180.92 192.48 L
182.26 193.347 L
183.6 188.012 L
184.94 171.348 L
186.28 171.354 L
187.62 175.296 L
188.96 178.653 L
190.3 174.654 L
191.64 171.54 L
192.98 173.38 L
194.32 178.589 L
195.66 179.276 L
197 184.461 L
198.34 178.783 L
199.68 179.186 L
201.02 179 L
202.36 192.311 L
203.7 191.221 L
205.04 191.275 L
206.38 189.883 L
207.72 188.347 L
209.06 192.886 L
210.4 192.258 L
211.74 193.645 L
213.08 191.412 L
214.42 193.338 L
215.76 194.829 L
217.1 191.743 L
218.44 191.595 L
219.78 189.558 L
221.12 191.212 L
222.46 192.221 L
223.8 189.866 L
225.14 191.407 L
226.48 192.952 L
227.82 193.006 L
229.16 192.913 L
230.5 195.382 L
231.84 195.972 L
233.18 195.952 L
234.52 198.477 L
235.86 199.465 L
237.2 200.031 L
238.54 200.061 L
239.88 185.483 L
241.22 191.503 L
242.56 185.15 L
243.9 182.219 L
245.24 182.622 L
246.58 190.586 L
247.92 184.836 L
249.26 185.454 L
250.6 184.733 L
251.94 187.587 L
253.28 189.206 L
254.62 189.383 L
255.96 188.948 L
257.3 189.119 L
258.64 191.166 L
259.98 193.325 L
261.32 197.503 L
262.66 197.381 L
264 198.47 L
265.34 199.936 L
266.68 208.138 L
268.02 209.882 L
269.36 211.057 L
270.7 212.438 L
272.04 212.879 L
273.38 210.56 L
274.72 201.626 L
276.06 202.836 L
277.4 201.432 L
278.74 215.913 L
280.08 219.259 L
281.42 221.642 L
282.76 221.078 L
284.1 220.304 L
285.44 219.938 L
286.78 206.516 L
288.12 217.397 L
289.46 217.42 L
290.8 214.737 L
292.14 217.131 L
293.48 217.587 L
294.82 219.883 L
296.16 225.995 L
297.5 224.075 L
298.84 212.292 L
300.18 218.896 L
301.52 213.492 L
302.86 212.294 L
304.2 212.676 L
305.54 212.809 L
306.88 206.357 L
308.22 204.754 L
309.56 206.206 L
310.9 204.747 L
312.24 204.773 L
313.58 207.124 L
314.92 212.463 L
316.26 193.919 L
317.6 169.359 L
318.94 170.054 L
320.28 142.966 L
321.62 124.881 L
322.96 134.869 L
324.3 161.482 L
325.64 151.083 L
326.98 153.915 L
328.32 148.105 L
329.66 144.991 L
331 152.829 L
332.34 168.634 L
333.68 174.828 L
335.02 178.654 L
336.36 178.876 L
337.7 175.458 L
339.04 180.878 L
340.38 182.645 L
341.72 189.002 L
343.06 192.074 L
344.4 206.945 L
345.74 209.634 L
347.08 210.32 L
348.42 211.209 L
349.76 209.701 L
351.1 220.238 L
352.44 221.883 L
353.78 222.335 L
355.12 208.926 L
356.46 214.568 L
357.8 213.686 L
359.14 215.38 L
360.48 217.28 L
361.82 217.104 L
363.16 219.847 L
364.5 214.56 L
365.84 217.648 L
367.18 215.009 L
368.52 210.568 L
369.86 212.214 L
371.2 215.226 L
372.54 214.944 L
373.88 215.289 L
375.22 213.886 L
376.56 214.26 L
377.9 214.522 L
379.24 216.669 L
380.58 215.44 L
381.92 214.915 L
383.26 214.792 L
384.6 216.673 L
385.94 217.924 L
387.28 215.644 L
388.62 218.632 L
389.96 219.336 L
391.3 219.515 L
392.64 205.088 L
393.98 201.772 L
395.32 198.952 L
396.66 197.052 L
398 196.734 L
399.34 202.667 L
400.68 201.751 L
402.02 207.406 L
403.36 206.491 L
404.7 205.651 L
406.04 203.242 L
407.38 184.282 L
408.72 181.534 L
410.06 182.673 L
411.4 186.733 L
412.74 187.455 L
414.08 187.441 L
415.42 179.602 L
S
GR
GS
[0.75 0 0 0.75 0 0] CT
0.467 0.675 0.188 RC
1 LJ
2 LW
N
131.34 185.5 M
132.68 188.728 L
134.02 189.204 L
135.36 188.328 L
136.7 191.008 L
138.04 195.369 L
139.38 193.095 L
140.72 192.312 L
142.06 190.76 L
143.4 193.286 L
144.74 198.412 L
146.08 194.762 L
147.42 187.227 L
148.76 187.513 L
150.1 189.803 L
151.44 201.898 L
152.78 200.898 L
154.12 201.912 L
155.46 200.567 L
156.8 208.199 L
158.14 211.524 L
159.48 213.115 L
160.82 213.618 L
162.16 215.665 L
163.5 218.757 L
164.84 231.192 L
166.18 241.284 L
167.52 245.088 L
168.86 241.691 L
170.2 221.03 L
171.54 202.558 L
172.88 202.636 L
174.22 212.27 L
175.56 214.304 L
176.9 216.279 L
178.24 225.326 L
179.58 215.185 L
180.92 218.809 L
182.26 216.576 L
183.6 209.731 L
184.94 219.209 L
186.28 219.995 L
187.62 219.672 L
188.96 216.775 L
190.3 217.533 L
191.64 222.107 L
192.98 222.889 L
194.32 217.584 L
195.66 216.015 L
197 211.576 L
198.34 213.303 L
199.68 213.296 L
201.02 213.329 L
202.36 204.682 L
203.7 209.114 L
205.04 210.741 L
206.38 210.355 L
207.72 217.168 L
209.06 219.57 L
210.4 217.711 L
211.74 213.723 L
213.08 213.955 L
214.42 215.808 L
215.76 214.729 L
217.1 217.216 L
218.44 214.036 L
219.78 211.939 L
221.12 213.159 L
222.46 212.478 L
223.8 213.242 L
225.14 208.253 L
226.48 209.495 L
227.82 206.894 L
229.16 197.997 L
230.5 189.371 L
231.84 192.393 L
233.18 191.143 L
234.52 175.429 L
235.86 181.817 L
237.2 179.621 L
238.54 178.396 L
239.88 190.524 L
241.22 189.884 L
242.56 193.554 L
243.9 190.377 L
245.24 192.696 L
246.58 202.396 L
247.92 206.101 L
249.26 206.617 L
250.6 209.504 L
251.94 207.961 L
253.28 210.579 L
254.62 211.023 L
255.96 207.113 L
257.3 209.502 L
258.64 210.568 L
259.98 212.357 L
261.32 215.757 L
262.66 220.028 L
264 219.694 L
265.34 221.075 L
266.68 227.695 L
268.02 225.988 L
269.36 228.87 L
270.7 230.34 L
272.04 231.135 L
273.38 227.43 L
274.72 228.603 L
276.06 228.357 L
277.4 230.03 L
278.74 241.51 L
280.08 248.293 L
281.42 251.801 L
282.76 252.31 L
284.1 250.331 L
285.44 250.338 L
286.78 242.395 L
288.12 248.121 L
289.46 250.574 L
290.8 249.917 L
292.14 249.579 L
293.48 249.112 L
294.82 251.697 L
296.16 258.203 L
297.5 262.447 L
298.84 262.727 L
300.18 267.26 L
301.52 267.035 L
302.86 251.308 L
304.2 261.867 L
305.54 262.012 L
306.88 266.648 L
308.22 266.639 L
309.56 270.498 L
310.9 271.937 L
312.24 273.356 L
313.58 279.762 L
314.92 287.498 L
316.26 283.673 L
317.6 289.973 L
318.94 289.194 L
320.28 299.845 L
321.62 281.021 L
322.96 257.204 L
324.3 194.943 L
325.64 207.874 L
326.98 210.03 L
328.32 216.319 L
329.66 219.092 L
331 222.611 L
332.34 229.265 L
333.68 178.111 L
335.02 165.358 L
336.36 172.14 L
337.7 177.267 L
339.04 173.051 L
340.38 173.234 L
341.72 153.463 L
343.06 143.853 L
344.4 100.993 L
345.74 92.83 L
347.08 92.994 L
348.42 87.78 L
349.76 94.56 L
351.1 72.836 L
352.44 69.226 L
353.78 78.588 L
355.12 84.349 L
356.46 76.302 L
357.8 96.431 L
359.14 111.434 L
360.48 121.875 L
361.82 112.283 L
363.16 113.547 L
364.5 119.799 L
365.84 122.896 L
367.18 129.019 L
368.52 140.477 L
369.86 128.314 L
371.2 110.879 L
372.54 114.299 L
373.88 122.494 L
375.22 124.858 L
376.56 120.323 L
377.9 120.875 L
379.24 122.723 L
380.58 125.977 L
381.92 131.283 L
383.26 133.829 L
384.6 127.651 L
385.94 128.187 L
387.28 131.911 L
388.62 131.56 L
389.96 137.739 L
391.3 138.423 L
392.64 142.747 L
393.98 144.723 L
395.32 141.699 L
396.66 141.722 L
398 145.509 L
399.34 148.307 L
400.68 137.982 L
402.02 123.661 L
403.36 125.552 L
404.7 125.19 L
406.04 126.831 L
407.38 131.123 L
408.72 133.746 L
410.06 138.201 L
411.4 136.039 L
412.74 137.598 L
414.08 139.387 L
415.42 141.954 L
S
GR
GS
[0.75 0 0 0.75 0 0] CT
1 GC
N
452 167 M
452 46 L
362 46 L
362 167 L
cp
f
GR
GS
[0.75 0 0 0.75 306.75 44.625] CT
/Helvetica 18 F
GS
[1 0 0 1 0 0] CT
0 7.5 moveto 
1 -1 scale
(BCH) t 
GR
GR
GS
[0.75 0 0 0.75 0 0] CT
0 0.447 0.741 RC
1 LJ
2 LW
N
366 59.5 M
406 59.5 L
S
GR
GS
[0.75 0 0 0.75 306.75 62.25] CT
/Helvetica 18 F
GS
[1 0 0 1 0 0] CT
0 7.5 moveto 
1 -1 scale
(BTC) t 
GR
GR
GS
[0.75 0 0 0.75 0 0] CT
0.851 0.325 0.098 RC
1 LJ
2 LW
N
366 83 M
406 83 L
S
GR
GS
[0.75 0 0 0.75 306.75 79.875] CT
/Helvetica 18 F
GS
[1 0 0 1 0 0] CT
0 7.5 moveto 
1 -1 scale
(ETH) t 
GR
GR
GS
[0.75 0 0 0.75 0 0] CT
0.929 0.694 0.125 RC
1 LJ
2 LW
N
366 106.5 M
406 106.5 L
S
GR
GS
[0.75 0 0 0.75 306.75 97.5] CT
/Helvetica 18 F
GS
[1 0 0 1 0 0] CT
0 7.5 moveto 
1 -1 scale
(LTC) t 
GR
GR
GS
[0.75 0 0 0.75 0 0] CT
0.494 0.184 0.557 RC
1 LJ
2 LW
N
366 130 M
406 130 L
S
GR
GS
[0.75 0 0 0.75 306.75 115.125] CT
/Helvetica 18 F
GS
[1 0 0 1 0 0] CT
0 7.5 moveto 
1 -1 scale
(XRP) t 
GR
GR
GS
[0.75 0 0 0.75 0 0] CT
0.467 0.675 0.188 RC
1 LJ
2 LW
N
366 153.5 M
406 153.5 L
S
GR
GS
[0.75 0 0 0.75 0 0] CT
0.149 GC
10.0 ML
0.667 LW
N
362 167 M
362 46 L
452 46 L
452 167 L
cp
S
GR
GS
[0.75 0 0 0.75 0 0] CT
1 GC
N
570 338 M
905 338 L
905 33 L
570 33 L
cp
f
GR
GS
[0.75 0 0 0.75 0 0] CT
0.775 GC
[1 3] 0 setdash
2 LJ
0.667 LW
N
570 338 M
570 33 L
S
GR
GS
[0.75 0 0 0.75 0 0] CT
0.775 GC
[1 3] 0 setdash
2 LJ
0.667 LW
N
583.4 338 M
583.4 33 L
S
GR
GS
[0.75 0 0 0.75 0 0] CT
0.775 GC
[1 3] 0 setdash
2 LJ
0.667 LW
N
596.8 338 M
596.8 33 L
S
GR
GS
[0.75 0 0 0.75 0 0] CT
0.775 GC
[1 3] 0 setdash
2 LJ
0.667 LW
N
610.2 338 M
610.2 33 L
S
GR
GS
[0.75 0 0 0.75 0 0] CT
0.775 GC
[1 3] 0 setdash
2 LJ
0.667 LW
N
623.6 338 M
623.6 33 L
S
GR
GS
[0.75 0 0 0.75 0 0] CT
0.775 GC
[1 3] 0 setdash
2 LJ
0.667 LW
N
637 338 M
637 33 L
S
GR
GS
[0.75 0 0 0.75 0 0] CT
0.775 GC
[1 3] 0 setdash
2 LJ
0.667 LW
N
650.4 338 M
650.4 33 L
S
GR
GS
[0.75 0 0 0.75 0 0] CT
0.775 GC
[1 3] 0 setdash
2 LJ
0.667 LW
N
663.8 338 M
663.8 33 L
S
GR
GS
[0.75 0 0 0.75 0 0] CT
0.775 GC
[1 3] 0 setdash
2 LJ
0.667 LW
N
677.2 338 M
677.2 33 L
S
GR
GS
[0.75 0 0 0.75 0 0] CT
0.775 GC
[1 3] 0 setdash
2 LJ
0.667 LW
N
690.6 338 M
690.6 33 L
S
GR
GS
[0.75 0 0 0.75 0 0] CT
0.775 GC
[1 3] 0 setdash
2 LJ
0.667 LW
N
704 338 M
704 33 L
S
GR
GS
[0.75 0 0 0.75 0 0] CT
0.775 GC
[1 3] 0 setdash
2 LJ
0.667 LW
N
717.4 338 M
717.4 33 L
S
GR
GS
[0.75 0 0 0.75 0 0] CT
0.775 GC
[1 3] 0 setdash
2 LJ
0.667 LW
N
730.8 338 M
730.8 33 L
S
GR
GS
[0.75 0 0 0.75 0 0] CT
0.775 GC
[1 3] 0 setdash
2 LJ
0.667 LW
N
744.2 338 M
744.2 33 L
S
GR
GS
[0.75 0 0 0.75 0 0] CT
0.775 GC
[1 3] 0 setdash
2 LJ
0.667 LW
N
757.6 338 M
757.6 33 L
S
GR
GS
[0.75 0 0 0.75 0 0] CT
0.775 GC
[1 3] 0 setdash
2 LJ
0.667 LW
N
771 338 M
771 33 L
S
GR
GS
[0.75 0 0 0.75 0 0] CT
0.775 GC
[1 3] 0 setdash
2 LJ
0.667 LW
N
784.4 338 M
784.4 33 L
S
GR
GS
[0.75 0 0 0.75 0 0] CT
0.775 GC
[1 3] 0 setdash
2 LJ
0.667 LW
N
797.8 338 M
797.8 33 L
S
GR
GS
[0.75 0 0 0.75 0 0] CT
0.775 GC
[1 3] 0 setdash
2 LJ
0.667 LW
N
811.2 338 M
811.2 33 L
S
GR
GS
[0.75 0 0 0.75 0 0] CT
0.775 GC
[1 3] 0 setdash
2 LJ
0.667 LW
N
824.6 338 M
824.6 33 L
S
GR
GS
[0.75 0 0 0.75 0 0] CT
0.775 GC
[1 3] 0 setdash
2 LJ
0.667 LW
N
838 338 M
838 33 L
S
GR
GS
[0.75 0 0 0.75 0 0] CT
0.775 GC
[1 3] 0 setdash
2 LJ
0.667 LW
N
851.4 338 M
851.4 33 L
S
GR
GS
[0.75 0 0 0.75 0 0] CT
0.775 GC
[1 3] 0 setdash
2 LJ
0.667 LW
N
864.8 338 M
864.8 33 L
S
GR
GS
[0.75 0 0 0.75 0 0] CT
0.775 GC
[1 3] 0 setdash
2 LJ
0.667 LW
N
878.2 338 M
878.2 33 L
S
GR
GS
[0.75 0 0 0.75 0 0] CT
0.775 GC
[1 3] 0 setdash
2 LJ
0.667 LW
N
891.6 338 M
891.6 33 L
S
GR
GS
[0.75 0 0 0.75 0 0] CT
0.775 GC
[1 3] 0 setdash
2 LJ
0.667 LW
N
905 338 M
905 33 L
S
GR
GS
[0.75 0 0 0.75 0 0] CT
0.775 GC
[1 3] 0 setdash
2 LJ
0.667 LW
N
905 338 M
570 338 L
S
GR
GS
[0.75 0 0 0.75 0 0] CT
0.775 GC
[1 3] 0 setdash
2 LJ
0.667 LW
N
905 326.523 M
570 326.523 L
S
GR
GS
[0.75 0 0 0.75 0 0] CT
0.775 GC
[1 3] 0 setdash
2 LJ
0.667 LW
N
905 319.81 M
570 319.81 L
S
GR
GS
[0.75 0 0 0.75 0 0] CT
0.775 GC
[1 3] 0 setdash
2 LJ
0.667 LW
N
905 315.046 M
570 315.046 L
S
GR
GS
[0.75 0 0 0.75 0 0] CT
0.775 GC
[1 3] 0 setdash
2 LJ
0.667 LW
N
905 311.352 M
570 311.352 L
S
GR
GS
[0.75 0 0 0.75 0 0] CT
0.775 GC
[1 3] 0 setdash
2 LJ
0.667 LW
N
905 308.333 M
570 308.333 L
S
GR
GS
[0.75 0 0 0.75 0 0] CT
0.775 GC
[1 3] 0 setdash
2 LJ
0.667 LW
N
905 305.781 M
570 305.781 L
S
GR
GS
[0.75 0 0 0.75 0 0] CT
0.775 GC
[1 3] 0 setdash
2 LJ
0.667 LW
N
905 303.57 M
570 303.57 L
S
GR
GS
[0.75 0 0 0.75 0 0] CT
0.775 GC
[1 3] 0 setdash
2 LJ
0.667 LW
N
905 301.62 M
570 301.62 L
S
GR
GS
[0.75 0 0 0.75 0 0] CT
0.775 GC
[1 3] 0 setdash
2 LJ
0.667 LW
N
905 299.875 M
570 299.875 L
S
GR
GS
[0.75 0 0 0.75 0 0] CT
0.775 GC
[1 3] 0 setdash
2 LJ
0.667 LW
N
905 288.398 M
570 288.398 L
S
GR
GS
[0.75 0 0 0.75 0 0] CT
0.775 GC
[1 3] 0 setdash
2 LJ
0.667 LW
N
905 281.685 M
570 281.685 L
S
GR
GS
[0.75 0 0 0.75 0 0] CT
0.775 GC
[1 3] 0 setdash
2 LJ
0.667 LW
N
905 276.921 M
570 276.921 L
S
GR
GS
[0.75 0 0 0.75 0 0] CT
0.775 GC
[1 3] 0 setdash
2 LJ
0.667 LW
N
905 273.227 M
570 273.227 L
S
GR
GS
[0.75 0 0 0.75 0 0] CT
0.775 GC
[1 3] 0 setdash
2 LJ
0.667 LW
N
905 270.208 M
570 270.208 L
S
GR
GS
[0.75 0 0 0.75 0 0] CT
0.775 GC
[1 3] 0 setdash
2 LJ
0.667 LW
N
905 267.656 M
570 267.656 L
S
GR
GS
[0.75 0 0 0.75 0 0] CT
0.775 GC
[1 3] 0 setdash
2 LJ
0.667 LW
N
905 265.445 M
570 265.445 L
S
GR
GS
[0.75 0 0 0.75 0 0] CT
0.775 GC
[1 3] 0 setdash
2 LJ
0.667 LW
N
905 263.495 M
570 263.495 L
S
GR
GS
[0.75 0 0 0.75 0 0] CT
0.775 GC
[1 3] 0 setdash
2 LJ
0.667 LW
N
905 261.75 M
570 261.75 L
S
GR
GS
[0.75 0 0 0.75 0 0] CT
0.775 GC
[1 3] 0 setdash
2 LJ
0.667 LW
N
905 250.273 M
570 250.273 L
S
GR
GS
[0.75 0 0 0.75 0 0] CT
0.775 GC
[1 3] 0 setdash
2 LJ
0.667 LW
N
905 243.56 M
570 243.56 L
S
GR
GS
[0.75 0 0 0.75 0 0] CT
0.775 GC
[1 3] 0 setdash
2 LJ
0.667 LW
N
905 238.796 M
570 238.796 L
S
GR
GS
[0.75 0 0 0.75 0 0] CT
0.775 GC
[1 3] 0 setdash
2 LJ
0.667 LW
N
905 235.102 M
570 235.102 L
S
GR
GS
[0.75 0 0 0.75 0 0] CT
0.775 GC
[1 3] 0 setdash
2 LJ
0.667 LW
N
905 232.083 M
570 232.083 L
S
GR
GS
[0.75 0 0 0.75 0 0] CT
0.775 GC
[1 3] 0 setdash
2 LJ
0.667 LW
N
905 229.531 M
570 229.531 L
S
GR
GS
[0.75 0 0 0.75 0 0] CT
0.775 GC
[1 3] 0 setdash
2 LJ
0.667 LW
N
905 227.32 M
570 227.32 L
S
GR
GS
[0.75 0 0 0.75 0 0] CT
0.775 GC
[1 3] 0 setdash
2 LJ
0.667 LW
N
905 225.37 M
570 225.37 L
S
GR
GS
[0.75 0 0 0.75 0 0] CT
0.775 GC
[1 3] 0 setdash
2 LJ
0.667 LW
N
905 223.625 M
570 223.625 L
S
GR
GS
[0.75 0 0 0.75 0 0] CT
0.775 GC
[1 3] 0 setdash
2 LJ
0.667 LW
N
905 212.148 M
570 212.148 L
S
GR
GS
[0.75 0 0 0.75 0 0] CT
0.775 GC
[1 3] 0 setdash
2 LJ
0.667 LW
N
905 205.435 M
570 205.435 L
S
GR
GS
[0.75 0 0 0.75 0 0] CT
0.775 GC
[1 3] 0 setdash
2 LJ
0.667 LW
N
905 200.671 M
570 200.671 L
S
GR
GS
[0.75 0 0 0.75 0 0] CT
0.775 GC
[1 3] 0 setdash
2 LJ
0.667 LW
N
905 196.977 M
570 196.977 L
S
GR
GS
[0.75 0 0 0.75 0 0] CT
0.775 GC
[1 3] 0 setdash
2 LJ
0.667 LW
N
905 193.958 M
570 193.958 L
S
GR
GS
[0.75 0 0 0.75 0 0] CT
0.775 GC
[1 3] 0 setdash
2 LJ
0.667 LW
N
905 191.406 M
570 191.406 L
S
GR
GS
[0.75 0 0 0.75 0 0] CT
0.775 GC
[1 3] 0 setdash
2 LJ
0.667 LW
N
905 189.195 M
570 189.195 L
S
GR
GS
[0.75 0 0 0.75 0 0] CT
0.775 GC
[1 3] 0 setdash
2 LJ
0.667 LW
N
905 187.245 M
570 187.245 L
S
GR
GS
[0.75 0 0 0.75 0 0] CT
0.775 GC
[1 3] 0 setdash
2 LJ
0.667 LW
N
905 185.5 M
570 185.5 L
S
GR
GS
[0.75 0 0 0.75 0 0] CT
0.775 GC
[1 3] 0 setdash
2 LJ
0.667 LW
N
905 174.023 M
570 174.023 L
S
GR
GS
[0.75 0 0 0.75 0 0] CT
0.775 GC
[1 3] 0 setdash
2 LJ
0.667 LW
N
905 167.31 M
570 167.31 L
S
GR
GS
[0.75 0 0 0.75 0 0] CT
0.775 GC
[1 3] 0 setdash
2 LJ
0.667 LW
N
905 162.546 M
570 162.546 L
S
GR
GS
[0.75 0 0 0.75 0 0] CT
0.775 GC
[1 3] 0 setdash
2 LJ
0.667 LW
N
905 158.852 M
570 158.852 L
S
GR
GS
[0.75 0 0 0.75 0 0] CT
0.775 GC
[1 3] 0 setdash
2 LJ
0.667 LW
N
905 155.833 M
570 155.833 L
S
GR
GS
[0.75 0 0 0.75 0 0] CT
0.775 GC
[1 3] 0 setdash
2 LJ
0.667 LW
N
905 153.281 M
570 153.281 L
S
GR
GS
[0.75 0 0 0.75 0 0] CT
0.775 GC
[1 3] 0 setdash
2 LJ
0.667 LW
N
905 151.07 M
570 151.07 L
S
GR
GS
[0.75 0 0 0.75 0 0] CT
0.775 GC
[1 3] 0 setdash
2 LJ
0.667 LW
N
905 149.119 M
570 149.119 L
S
GR
GS
[0.75 0 0 0.75 0 0] CT
0.775 GC
[1 3] 0 setdash
2 LJ
0.667 LW
N
905 147.375 M
570 147.375 L
S
GR
GS
[0.75 0 0 0.75 0 0] CT
0.775 GC
[1 3] 0 setdash
2 LJ
0.667 LW
N
905 135.898 M
570 135.898 L
S
GR
GS
[0.75 0 0 0.75 0 0] CT
0.775 GC
[1 3] 0 setdash
2 LJ
0.667 LW
N
905 129.185 M
570 129.185 L
S
GR
GS
[0.75 0 0 0.75 0 0] CT
0.775 GC
[1 3] 0 setdash
2 LJ
0.667 LW
N
905 124.421 M
570 124.421 L
S
GR
GS
[0.75 0 0 0.75 0 0] CT
0.775 GC
[1 3] 0 setdash
2 LJ
0.667 LW
N
905 120.727 M
570 120.727 L
S
GR
GS
[0.75 0 0 0.75 0 0] CT
0.775 GC
[1 3] 0 setdash
2 LJ
0.667 LW
N
905 117.708 M
570 117.708 L
S
GR
GS
[0.75 0 0 0.75 0 0] CT
0.775 GC
[1 3] 0 setdash
2 LJ
0.667 LW
N
905 115.156 M
570 115.156 L
S
GR
GS
[0.75 0 0 0.75 0 0] CT
0.775 GC
[1 3] 0 setdash
2 LJ
0.667 LW
N
905 112.945 M
570 112.945 L
S
GR
GS
[0.75 0 0 0.75 0 0] CT
0.775 GC
[1 3] 0 setdash
2 LJ
0.667 LW
N
905 110.994 M
570 110.994 L
S
GR
GS
[0.75 0 0 0.75 0 0] CT
0.775 GC
[1 3] 0 setdash
2 LJ
0.667 LW
N
905 109.25 M
570 109.25 L
S
GR
GS
[0.75 0 0 0.75 0 0] CT
0.775 GC
[1 3] 0 setdash
2 LJ
0.667 LW
N
905 97.773 M
570 97.773 L
S
GR
GS
[0.75 0 0 0.75 0 0] CT
0.775 GC
[1 3] 0 setdash
2 LJ
0.667 LW
N
905 91.06 M
570 91.06 L
S
GR
GS
[0.75 0 0 0.75 0 0] CT
0.775 GC
[1 3] 0 setdash
2 LJ
0.667 LW
N
905 86.296 M
570 86.296 L
S
GR
GS
[0.75 0 0 0.75 0 0] CT
0.775 GC
[1 3] 0 setdash
2 LJ
0.667 LW
N
905 82.602 M
570 82.602 L
S
GR
GS
[0.75 0 0 0.75 0 0] CT
0.775 GC
[1 3] 0 setdash
2 LJ
0.667 LW
N
905 79.583 M
570 79.583 L
S
GR
GS
[0.75 0 0 0.75 0 0] CT
0.775 GC
[1 3] 0 setdash
2 LJ
0.667 LW
N
905 77.031 M
570 77.031 L
S
GR
GS
[0.75 0 0 0.75 0 0] CT
0.775 GC
[1 3] 0 setdash
2 LJ
0.667 LW
N
905 74.82 M
570 74.82 L
S
GR
GS
[0.75 0 0 0.75 0 0] CT
0.775 GC
[1 3] 0 setdash
2 LJ
0.667 LW
N
905 72.869 M
570 72.869 L
S
GR
GS
[0.75 0 0 0.75 0 0] CT
0.775 GC
[1 3] 0 setdash
2 LJ
0.667 LW
N
905 71.125 M
570 71.125 L
S
GR
GS
[0.75 0 0 0.75 0 0] CT
0.775 GC
[1 3] 0 setdash
2 LJ
0.667 LW
N
905 59.648 M
570 59.648 L
S
GR
GS
[0.75 0 0 0.75 0 0] CT
0.775 GC
[1 3] 0 setdash
2 LJ
0.667 LW
N
905 52.935 M
570 52.935 L
S
GR
GS
[0.75 0 0 0.75 0 0] CT
0.775 GC
[1 3] 0 setdash
2 LJ
0.667 LW
N
905 48.171 M
570 48.171 L
S
GR
GS
[0.75 0 0 0.75 0 0] CT
0.775 GC
[1 3] 0 setdash
2 LJ
0.667 LW
N
905 44.477 M
570 44.477 L
S
GR
GS
[0.75 0 0 0.75 0 0] CT
0.775 GC
[1 3] 0 setdash
2 LJ
0.667 LW
N
905 41.458 M
570 41.458 L
S
GR
GS
[0.75 0 0 0.75 0 0] CT
0.775 GC
[1 3] 0 setdash
2 LJ
0.667 LW
N
905 38.906 M
570 38.906 L
S
GR
GS
[0.75 0 0 0.75 0 0] CT
0.775 GC
[1 3] 0 setdash
2 LJ
0.667 LW
N
905 36.695 M
570 36.695 L
S
GR
GS
[0.75 0 0 0.75 0 0] CT
0.775 GC
[1 3] 0 setdash
2 LJ
0.667 LW
N
905 34.744 M
570 34.744 L
S
GR
GS
[0.75 0 0 0.75 0 0] CT
0.775 GC
[1 3] 0 setdash
2 LJ
0.667 LW
N
905 33 M
570 33 L
S
GR
GS
[0.75 0 0 0.75 0 0] CT
0.149 GC
2 setlinecap
1 LJ
0.667 LW
N
570 338 M
905 338 L
S
GR
GS
[0.75 0 0 0.75 0 0] CT
0.149 GC
2 setlinecap
1 LJ
0.667 LW
N
570 33 M
905 33 L
S
GR
GS
[0.75 0 0 0.75 0 0] CT
0.149 GC
2 setlinecap
1 LJ
0.667 LW
N
570 338 M
570 334.65 L
S
GR
GS
[0.75 0 0 0.75 0 0] CT
0.149 GC
2 setlinecap
1 LJ
0.667 LW
N
637 338 M
637 334.65 L
S
GR
GS
[0.75 0 0 0.75 0 0] CT
0.149 GC
2 setlinecap
1 LJ
0.667 LW
N
704 338 M
704 334.65 L
S
GR
GS
[0.75 0 0 0.75 0 0] CT
0.149 GC
2 setlinecap
1 LJ
0.667 LW
N
771 338 M
771 334.65 L
S
GR
GS
[0.75 0 0 0.75 0 0] CT
0.149 GC
2 setlinecap
1 LJ
0.667 LW
N
838 338 M
838 334.65 L
S
GR
GS
[0.75 0 0 0.75 0 0] CT
0.149 GC
2 setlinecap
1 LJ
0.667 LW
N
905 338 M
905 334.65 L
S
GR
GS
[0.75 0 0 0.75 0 0] CT
0.149 GC
2 setlinecap
1 LJ
0.667 LW
N
570 33 M
570 36.35 L
S
GR
GS
[0.75 0 0 0.75 0 0] CT
0.149 GC
2 setlinecap
1 LJ
0.667 LW
N
637 33 M
637 36.35 L
S
GR
GS
[0.75 0 0 0.75 0 0] CT
0.149 GC
2 setlinecap
1 LJ
0.667 LW
N
704 33 M
704 36.35 L
S
GR
GS
[0.75 0 0 0.75 0 0] CT
0.149 GC
2 setlinecap
1 LJ
0.667 LW
N
771 33 M
771 36.35 L
S
GR
GS
[0.75 0 0 0.75 0 0] CT
0.149 GC
2 setlinecap
1 LJ
0.667 LW
N
838 33 M
838 36.35 L
S
GR
GS
[0.75 0 0 0.75 0 0] CT
0.149 GC
2 setlinecap
1 LJ
0.667 LW
N
905 33 M
905 36.35 L
S
GR
GS
[0.75 0 0 0.75 427.5 258.49999] CT
0.149 GC
/Helvetica 20 F
GS
[1 0 0 1 0 0] CT
-6 21 moveto 
1 -1 scale
(0) t 
GR
GR
GS
[0.75 0 0 0.75 477.75 258.49999] CT
0.149 GC
/Helvetica 20 F
GS
[1 0 0 1 0 0] CT
-11.5 21 moveto 
1 -1 scale
(50) t 
GR
GR
GS
[0.75 0 0 0.75 528 258.49999] CT
0.149 GC
/Helvetica 20 F
GS
[1 0 0 1 0 0] CT
-17 21 moveto 
1 -1 scale
(100) t 
GR
GR
GS
[0.75 0 0 0.75 578.25 258.49999] CT
0.149 GC
/Helvetica 20 F
GS
[1 0 0 1 0 0] CT
-17 21 moveto 
1 -1 scale
(150) t 
GR
GR
GS
[0.75 0 0 0.75 628.5 258.49999] CT
0.149 GC
/Helvetica 20 F
GS
[1 0 0 1 0 0] CT
-17 21 moveto 
1 -1 scale
(200) t 
GR
GR
GS
[0.75 0 0 0.75 678.75 258.49999] CT
0.149 GC
/Helvetica 20 F
GS
[1 0 0 1 0 0] CT
-17 21 moveto 
1 -1 scale
(250) t 
GR
GR
GS
[0.75 0 0 0.75 553.12514 279] CT
0.149 GC
/Helvetica 22 F
GS
[1 0 0 1 0 0] CT
-21.5 23 moveto 
1 -1 scale
(date) t 
GR
GR
GS
[0.75 0 0 0.75 0 0] CT
0.149 GC
2 setlinecap
1 LJ
0.667 LW
N
570 338 M
570 33 L
S
GR
GS
[0.75 0 0 0.75 0 0] CT
0.149 GC
2 setlinecap
1 LJ
0.667 LW
N
905 338 M
905 33 L
S
GR
GS
[0.75 0 0 0.75 0 0] CT
0.149 GC
2 setlinecap
1 LJ
0.667 LW
N
570 338 M
573.35 338 L
S
GR
GS
[0.75 0 0 0.75 0 0] CT
0.149 GC
2 setlinecap
1 LJ
0.667 LW
N
570 261.75 M
573.35 261.75 L
S
GR
GS
[0.75 0 0 0.75 0 0] CT
0.149 GC
2 setlinecap
1 LJ
0.667 LW
N
570 185.5 M
573.35 185.5 L
S
GR
GS
[0.75 0 0 0.75 0 0] CT
0.149 GC
2 setlinecap
1 LJ
0.667 LW
N
570 109.25 M
573.35 109.25 L
S
GR
GS
[0.75 0 0 0.75 0 0] CT
0.149 GC
2 setlinecap
1 LJ
0.667 LW
N
570 33 M
573.35 33 L
S
GR
GS
[0.75 0 0 0.75 0 0] CT
0.149 GC
2 setlinecap
1 LJ
0.667 LW
N
905 338 M
901.65 338 L
S
GR
GS
[0.75 0 0 0.75 0 0] CT
0.149 GC
2 setlinecap
1 LJ
0.667 LW
N
905 261.75 M
901.65 261.75 L
S
GR
GS
[0.75 0 0 0.75 0 0] CT
0.149 GC
2 setlinecap
1 LJ
0.667 LW
N
905 185.5 M
901.65 185.5 L
S
GR
GS
[0.75 0 0 0.75 0 0] CT
0.149 GC
2 setlinecap
1 LJ
0.667 LW
N
905 109.25 M
901.65 109.25 L
S
GR
GS
[0.75 0 0 0.75 0 0] CT
0.149 GC
2 setlinecap
1 LJ
0.667 LW
N
905 33 M
901.65 33 L
S
GR
GS
[0.75 0 0 0.75 0 0] CT
0.149 GC
2 setlinecap
1 LJ
0.667 LW
N
570 338 M
571.675 338 L
S
GR
GS
[0.75 0 0 0.75 0 0] CT
0.149 GC
2 setlinecap
1 LJ
0.667 LW
N
570 326.523 M
571.675 326.523 L
S
GR
GS
[0.75 0 0 0.75 0 0] CT
0.149 GC
2 setlinecap
1 LJ
0.667 LW
N
570 319.81 M
571.675 319.81 L
S
GR
GS
[0.75 0 0 0.75 0 0] CT
0.149 GC
2 setlinecap
1 LJ
0.667 LW
N
570 315.046 M
571.675 315.046 L
S
GR
GS
[0.75 0 0 0.75 0 0] CT
0.149 GC
2 setlinecap
1 LJ
0.667 LW
N
570 311.352 M
571.675 311.352 L
S
GR
GS
[0.75 0 0 0.75 0 0] CT
0.149 GC
2 setlinecap
1 LJ
0.667 LW
N
570 308.333 M
571.675 308.333 L
S
GR
GS
[0.75 0 0 0.75 0 0] CT
0.149 GC
2 setlinecap
1 LJ
0.667 LW
N
570 305.781 M
571.675 305.781 L
S
GR
GS
[0.75 0 0 0.75 0 0] CT
0.149 GC
2 setlinecap
1 LJ
0.667 LW
N
570 303.57 M
571.675 303.57 L
S
GR
GS
[0.75 0 0 0.75 0 0] CT
0.149 GC
2 setlinecap
1 LJ
0.667 LW
N
570 301.62 M
571.675 301.62 L
S
GR
GS
[0.75 0 0 0.75 0 0] CT
0.149 GC
2 setlinecap
1 LJ
0.667 LW
N
570 299.875 M
571.675 299.875 L
S
GR
GS
[0.75 0 0 0.75 0 0] CT
0.149 GC
2 setlinecap
1 LJ
0.667 LW
N
570 288.398 M
571.675 288.398 L
S
GR
GS
[0.75 0 0 0.75 0 0] CT
0.149 GC
2 setlinecap
1 LJ
0.667 LW
N
570 281.685 M
571.675 281.685 L
S
GR
GS
[0.75 0 0 0.75 0 0] CT
0.149 GC
2 setlinecap
1 LJ
0.667 LW
N
570 276.921 M
571.675 276.921 L
S
GR
GS
[0.75 0 0 0.75 0 0] CT
0.149 GC
2 setlinecap
1 LJ
0.667 LW
N
570 273.227 M
571.675 273.227 L
S
GR
GS
[0.75 0 0 0.75 0 0] CT
0.149 GC
2 setlinecap
1 LJ
0.667 LW
N
570 270.208 M
571.675 270.208 L
S
GR
GS
[0.75 0 0 0.75 0 0] CT
0.149 GC
2 setlinecap
1 LJ
0.667 LW
N
570 267.656 M
571.675 267.656 L
S
GR
GS
[0.75 0 0 0.75 0 0] CT
0.149 GC
2 setlinecap
1 LJ
0.667 LW
N
570 265.445 M
571.675 265.445 L
S
GR
GS
[0.75 0 0 0.75 0 0] CT
0.149 GC
2 setlinecap
1 LJ
0.667 LW
N
570 263.495 M
571.675 263.495 L
S
GR
GS
[0.75 0 0 0.75 0 0] CT
0.149 GC
2 setlinecap
1 LJ
0.667 LW
N
570 261.75 M
571.675 261.75 L
S
GR
GS
[0.75 0 0 0.75 0 0] CT
0.149 GC
2 setlinecap
1 LJ
0.667 LW
N
570 250.273 M
571.675 250.273 L
S
GR
GS
[0.75 0 0 0.75 0 0] CT
0.149 GC
2 setlinecap
1 LJ
0.667 LW
N
570 243.56 M
571.675 243.56 L
S
GR
GS
[0.75 0 0 0.75 0 0] CT
0.149 GC
2 setlinecap
1 LJ
0.667 LW
N
570 238.796 M
571.675 238.796 L
S
GR
GS
[0.75 0 0 0.75 0 0] CT
0.149 GC
2 setlinecap
1 LJ
0.667 LW
N
570 235.102 M
571.675 235.102 L
S
GR
GS
[0.75 0 0 0.75 0 0] CT
0.149 GC
2 setlinecap
1 LJ
0.667 LW
N
570 232.083 M
571.675 232.083 L
S
GR
GS
[0.75 0 0 0.75 0 0] CT
0.149 GC
2 setlinecap
1 LJ
0.667 LW
N
570 229.531 M
571.675 229.531 L
S
GR
GS
[0.75 0 0 0.75 0 0] CT
0.149 GC
2 setlinecap
1 LJ
0.667 LW
N
570 227.32 M
571.675 227.32 L
S
GR
GS
[0.75 0 0 0.75 0 0] CT
0.149 GC
2 setlinecap
1 LJ
0.667 LW
N
570 225.37 M
571.675 225.37 L
S
GR
GS
[0.75 0 0 0.75 0 0] CT
0.149 GC
2 setlinecap
1 LJ
0.667 LW
N
570 223.625 M
571.675 223.625 L
S
GR
GS
[0.75 0 0 0.75 0 0] CT
0.149 GC
2 setlinecap
1 LJ
0.667 LW
N
570 212.148 M
571.675 212.148 L
S
GR
GS
[0.75 0 0 0.75 0 0] CT
0.149 GC
2 setlinecap
1 LJ
0.667 LW
N
570 205.435 M
571.675 205.435 L
S
GR
GS
[0.75 0 0 0.75 0 0] CT
0.149 GC
2 setlinecap
1 LJ
0.667 LW
N
570 200.671 M
571.675 200.671 L
S
GR
GS
[0.75 0 0 0.75 0 0] CT
0.149 GC
2 setlinecap
1 LJ
0.667 LW
N
570 196.977 M
571.675 196.977 L
S
GR
GS
[0.75 0 0 0.75 0 0] CT
0.149 GC
2 setlinecap
1 LJ
0.667 LW
N
570 193.958 M
571.675 193.958 L
S
GR
GS
[0.75 0 0 0.75 0 0] CT
0.149 GC
2 setlinecap
1 LJ
0.667 LW
N
570 191.406 M
571.675 191.406 L
S
GR
GS
[0.75 0 0 0.75 0 0] CT
0.149 GC
2 setlinecap
1 LJ
0.667 LW
N
570 189.195 M
571.675 189.195 L
S
GR
GS
[0.75 0 0 0.75 0 0] CT
0.149 GC
2 setlinecap
1 LJ
0.667 LW
N
570 187.245 M
571.675 187.245 L
S
GR
GS
[0.75 0 0 0.75 0 0] CT
0.149 GC
2 setlinecap
1 LJ
0.667 LW
N
570 185.5 M
571.675 185.5 L
S
GR
GS
[0.75 0 0 0.75 0 0] CT
0.149 GC
2 setlinecap
1 LJ
0.667 LW
N
570 174.023 M
571.675 174.023 L
S
GR
GS
[0.75 0 0 0.75 0 0] CT
0.149 GC
2 setlinecap
1 LJ
0.667 LW
N
570 167.31 M
571.675 167.31 L
S
GR
GS
[0.75 0 0 0.75 0 0] CT
0.149 GC
2 setlinecap
1 LJ
0.667 LW
N
570 162.546 M
571.675 162.546 L
S
GR
GS
[0.75 0 0 0.75 0 0] CT
0.149 GC
2 setlinecap
1 LJ
0.667 LW
N
570 158.852 M
571.675 158.852 L
S
GR
GS
[0.75 0 0 0.75 0 0] CT
0.149 GC
2 setlinecap
1 LJ
0.667 LW
N
570 155.833 M
571.675 155.833 L
S
GR
GS
[0.75 0 0 0.75 0 0] CT
0.149 GC
2 setlinecap
1 LJ
0.667 LW
N
570 153.281 M
571.675 153.281 L
S
GR
GS
[0.75 0 0 0.75 0 0] CT
0.149 GC
2 setlinecap
1 LJ
0.667 LW
N
570 151.07 M
571.675 151.07 L
S
GR
GS
[0.75 0 0 0.75 0 0] CT
0.149 GC
2 setlinecap
1 LJ
0.667 LW
N
570 149.119 M
571.675 149.119 L
S
GR
GS
[0.75 0 0 0.75 0 0] CT
0.149 GC
2 setlinecap
1 LJ
0.667 LW
N
570 147.375 M
571.675 147.375 L
S
GR
GS
[0.75 0 0 0.75 0 0] CT
0.149 GC
2 setlinecap
1 LJ
0.667 LW
N
570 135.898 M
571.675 135.898 L
S
GR
GS
[0.75 0 0 0.75 0 0] CT
0.149 GC
2 setlinecap
1 LJ
0.667 LW
N
570 129.185 M
571.675 129.185 L
S
GR
GS
[0.75 0 0 0.75 0 0] CT
0.149 GC
2 setlinecap
1 LJ
0.667 LW
N
570 124.421 M
571.675 124.421 L
S
GR
GS
[0.75 0 0 0.75 0 0] CT
0.149 GC
2 setlinecap
1 LJ
0.667 LW
N
570 120.727 M
571.675 120.727 L
S
GR
GS
[0.75 0 0 0.75 0 0] CT
0.149 GC
2 setlinecap
1 LJ
0.667 LW
N
570 117.708 M
571.675 117.708 L
S
GR
GS
[0.75 0 0 0.75 0 0] CT
0.149 GC
2 setlinecap
1 LJ
0.667 LW
N
570 115.156 M
571.675 115.156 L
S
GR
GS
[0.75 0 0 0.75 0 0] CT
0.149 GC
2 setlinecap
1 LJ
0.667 LW
N
570 112.945 M
571.675 112.945 L
S
GR
GS
[0.75 0 0 0.75 0 0] CT
0.149 GC
2 setlinecap
1 LJ
0.667 LW
N
570 110.994 M
571.675 110.994 L
S
GR
GS
[0.75 0 0 0.75 0 0] CT
0.149 GC
2 setlinecap
1 LJ
0.667 LW
N
570 109.25 M
571.675 109.25 L
S
GR
GS
[0.75 0 0 0.75 0 0] CT
0.149 GC
2 setlinecap
1 LJ
0.667 LW
N
570 97.773 M
571.675 97.773 L
S
GR
GS
[0.75 0 0 0.75 0 0] CT
0.149 GC
2 setlinecap
1 LJ
0.667 LW
N
570 91.06 M
571.675 91.06 L
S
GR
GS
[0.75 0 0 0.75 0 0] CT
0.149 GC
2 setlinecap
1 LJ
0.667 LW
N
570 86.296 M
571.675 86.296 L
S
GR
GS
[0.75 0 0 0.75 0 0] CT
0.149 GC
2 setlinecap
1 LJ
0.667 LW
N
570 82.602 M
571.675 82.602 L
S
GR
GS
[0.75 0 0 0.75 0 0] CT
0.149 GC
2 setlinecap
1 LJ
0.667 LW
N
570 79.583 M
571.675 79.583 L
S
GR
GS
[0.75 0 0 0.75 0 0] CT
0.149 GC
2 setlinecap
1 LJ
0.667 LW
N
570 77.031 M
571.675 77.031 L
S
GR
GS
[0.75 0 0 0.75 0 0] CT
0.149 GC
2 setlinecap
1 LJ
0.667 LW
N
570 74.82 M
571.675 74.82 L
S
GR
GS
[0.75 0 0 0.75 0 0] CT
0.149 GC
2 setlinecap
1 LJ
0.667 LW
N
570 72.869 M
571.675 72.869 L
S
GR
GS
[0.75 0 0 0.75 0 0] CT
0.149 GC
2 setlinecap
1 LJ
0.667 LW
N
570 71.125 M
571.675 71.125 L
S
GR
GS
[0.75 0 0 0.75 0 0] CT
0.149 GC
2 setlinecap
1 LJ
0.667 LW
N
570 59.648 M
571.675 59.648 L
S
GR
GS
[0.75 0 0 0.75 0 0] CT
0.149 GC
2 setlinecap
1 LJ
0.667 LW
N
570 52.935 M
571.675 52.935 L
S
GR
GS
[0.75 0 0 0.75 0 0] CT
0.149 GC
2 setlinecap
1 LJ
0.667 LW
N
570 48.171 M
571.675 48.171 L
S
GR
GS
[0.75 0 0 0.75 0 0] CT
0.149 GC
2 setlinecap
1 LJ
0.667 LW
N
570 44.477 M
571.675 44.477 L
S
GR
GS
[0.75 0 0 0.75 0 0] CT
0.149 GC
2 setlinecap
1 LJ
0.667 LW
N
570 41.458 M
571.675 41.458 L
S
GR
GS
[0.75 0 0 0.75 0 0] CT
0.149 GC
2 setlinecap
1 LJ
0.667 LW
N
570 38.906 M
571.675 38.906 L
S
GR
GS
[0.75 0 0 0.75 0 0] CT
0.149 GC
2 setlinecap
1 LJ
0.667 LW
N
570 36.695 M
571.675 36.695 L
S
GR
GS
[0.75 0 0 0.75 0 0] CT
0.149 GC
2 setlinecap
1 LJ
0.667 LW
N
570 34.744 M
571.675 34.744 L
S
GR
GS
[0.75 0 0 0.75 0 0] CT
0.149 GC
2 setlinecap
1 LJ
0.667 LW
N
570 33 M
571.675 33 L
S
GR
GS
[0.75 0 0 0.75 0 0] CT
0.149 GC
2 setlinecap
1 LJ
0.667 LW
N
905 338 M
903.325 338 L
S
GR
GS
[0.75 0 0 0.75 0 0] CT
0.149 GC
2 setlinecap
1 LJ
0.667 LW
N
905 326.523 M
903.325 326.523 L
S
GR
GS
[0.75 0 0 0.75 0 0] CT
0.149 GC
2 setlinecap
1 LJ
0.667 LW
N
905 319.81 M
903.325 319.81 L
S
GR
GS
[0.75 0 0 0.75 0 0] CT
0.149 GC
2 setlinecap
1 LJ
0.667 LW
N
905 315.046 M
903.325 315.046 L
S
GR
GS
[0.75 0 0 0.75 0 0] CT
0.149 GC
2 setlinecap
1 LJ
0.667 LW
N
905 311.352 M
903.325 311.352 L
S
GR
GS
[0.75 0 0 0.75 0 0] CT
0.149 GC
2 setlinecap
1 LJ
0.667 LW
N
905 308.333 M
903.325 308.333 L
S
GR
GS
[0.75 0 0 0.75 0 0] CT
0.149 GC
2 setlinecap
1 LJ
0.667 LW
N
905 305.781 M
903.325 305.781 L
S
GR
GS
[0.75 0 0 0.75 0 0] CT
0.149 GC
2 setlinecap
1 LJ
0.667 LW
N
905 303.57 M
903.325 303.57 L
S
GR
GS
[0.75 0 0 0.75 0 0] CT
0.149 GC
2 setlinecap
1 LJ
0.667 LW
N
905 301.62 M
903.325 301.62 L
S
GR
GS
[0.75 0 0 0.75 0 0] CT
0.149 GC
2 setlinecap
1 LJ
0.667 LW
N
905 299.875 M
903.325 299.875 L
S
GR
GS
[0.75 0 0 0.75 0 0] CT
0.149 GC
2 setlinecap
1 LJ
0.667 LW
N
905 288.398 M
903.325 288.398 L
S
GR
GS
[0.75 0 0 0.75 0 0] CT
0.149 GC
2 setlinecap
1 LJ
0.667 LW
N
905 281.685 M
903.325 281.685 L
S
GR
GS
[0.75 0 0 0.75 0 0] CT
0.149 GC
2 setlinecap
1 LJ
0.667 LW
N
905 276.921 M
903.325 276.921 L
S
GR
GS
[0.75 0 0 0.75 0 0] CT
0.149 GC
2 setlinecap
1 LJ
0.667 LW
N
905 273.227 M
903.325 273.227 L
S
GR
GS
[0.75 0 0 0.75 0 0] CT
0.149 GC
2 setlinecap
1 LJ
0.667 LW
N
905 270.208 M
903.325 270.208 L
S
GR
GS
[0.75 0 0 0.75 0 0] CT
0.149 GC
2 setlinecap
1 LJ
0.667 LW
N
905 267.656 M
903.325 267.656 L
S
GR
GS
[0.75 0 0 0.75 0 0] CT
0.149 GC
2 setlinecap
1 LJ
0.667 LW
N
905 265.445 M
903.325 265.445 L
S
GR
GS
[0.75 0 0 0.75 0 0] CT
0.149 GC
2 setlinecap
1 LJ
0.667 LW
N
905 263.495 M
903.325 263.495 L
S
GR
GS
[0.75 0 0 0.75 0 0] CT
0.149 GC
2 setlinecap
1 LJ
0.667 LW
N
905 261.75 M
903.325 261.75 L
S
GR
GS
[0.75 0 0 0.75 0 0] CT
0.149 GC
2 setlinecap
1 LJ
0.667 LW
N
905 250.273 M
903.325 250.273 L
S
GR
GS
[0.75 0 0 0.75 0 0] CT
0.149 GC
2 setlinecap
1 LJ
0.667 LW
N
905 243.56 M
903.325 243.56 L
S
GR
GS
[0.75 0 0 0.75 0 0] CT
0.149 GC
2 setlinecap
1 LJ
0.667 LW
N
905 238.796 M
903.325 238.796 L
S
GR
GS
[0.75 0 0 0.75 0 0] CT
0.149 GC
2 setlinecap
1 LJ
0.667 LW
N
905 235.102 M
903.325 235.102 L
S
GR
GS
[0.75 0 0 0.75 0 0] CT
0.149 GC
2 setlinecap
1 LJ
0.667 LW
N
905 232.083 M
903.325 232.083 L
S
GR
GS
[0.75 0 0 0.75 0 0] CT
0.149 GC
2 setlinecap
1 LJ
0.667 LW
N
905 229.531 M
903.325 229.531 L
S
GR
GS
[0.75 0 0 0.75 0 0] CT
0.149 GC
2 setlinecap
1 LJ
0.667 LW
N
905 227.32 M
903.325 227.32 L
S
GR
GS
[0.75 0 0 0.75 0 0] CT
0.149 GC
2 setlinecap
1 LJ
0.667 LW
N
905 225.37 M
903.325 225.37 L
S
GR
GS
[0.75 0 0 0.75 0 0] CT
0.149 GC
2 setlinecap
1 LJ
0.667 LW
N
905 223.625 M
903.325 223.625 L
S
GR
GS
[0.75 0 0 0.75 0 0] CT
0.149 GC
2 setlinecap
1 LJ
0.667 LW
N
905 212.148 M
903.325 212.148 L
S
GR
GS
[0.75 0 0 0.75 0 0] CT
0.149 GC
2 setlinecap
1 LJ
0.667 LW
N
905 205.435 M
903.325 205.435 L
S
GR
GS
[0.75 0 0 0.75 0 0] CT
0.149 GC
2 setlinecap
1 LJ
0.667 LW
N
905 200.671 M
903.325 200.671 L
S
GR
GS
[0.75 0 0 0.75 0 0] CT
0.149 GC
2 setlinecap
1 LJ
0.667 LW
N
905 196.977 M
903.325 196.977 L
S
GR
GS
[0.75 0 0 0.75 0 0] CT
0.149 GC
2 setlinecap
1 LJ
0.667 LW
N
905 193.958 M
903.325 193.958 L
S
GR
GS
[0.75 0 0 0.75 0 0] CT
0.149 GC
2 setlinecap
1 LJ
0.667 LW
N
905 191.406 M
903.325 191.406 L
S
GR
GS
[0.75 0 0 0.75 0 0] CT
0.149 GC
2 setlinecap
1 LJ
0.667 LW
N
905 189.195 M
903.325 189.195 L
S
GR
GS
[0.75 0 0 0.75 0 0] CT
0.149 GC
2 setlinecap
1 LJ
0.667 LW
N
905 187.245 M
903.325 187.245 L
S
GR
GS
[0.75 0 0 0.75 0 0] CT
0.149 GC
2 setlinecap
1 LJ
0.667 LW
N
905 185.5 M
903.325 185.5 L
S
GR
GS
[0.75 0 0 0.75 0 0] CT
0.149 GC
2 setlinecap
1 LJ
0.667 LW
N
905 174.023 M
903.325 174.023 L
S
GR
GS
[0.75 0 0 0.75 0 0] CT
0.149 GC
2 setlinecap
1 LJ
0.667 LW
N
905 167.31 M
903.325 167.31 L
S
GR
GS
[0.75 0 0 0.75 0 0] CT
0.149 GC
2 setlinecap
1 LJ
0.667 LW
N
905 162.546 M
903.325 162.546 L
S
GR
GS
[0.75 0 0 0.75 0 0] CT
0.149 GC
2 setlinecap
1 LJ
0.667 LW
N
905 158.852 M
903.325 158.852 L
S
GR
GS
[0.75 0 0 0.75 0 0] CT
0.149 GC
2 setlinecap
1 LJ
0.667 LW
N
905 155.833 M
903.325 155.833 L
S
GR
GS
[0.75 0 0 0.75 0 0] CT
0.149 GC
2 setlinecap
1 LJ
0.667 LW
N
905 153.281 M
903.325 153.281 L
S
GR
GS
[0.75 0 0 0.75 0 0] CT
0.149 GC
2 setlinecap
1 LJ
0.667 LW
N
905 151.07 M
903.325 151.07 L
S
GR
GS
[0.75 0 0 0.75 0 0] CT
0.149 GC
2 setlinecap
1 LJ
0.667 LW
N
905 149.119 M
903.325 149.119 L
S
GR
GS
[0.75 0 0 0.75 0 0] CT
0.149 GC
2 setlinecap
1 LJ
0.667 LW
N
905 147.375 M
903.325 147.375 L
S
GR
GS
[0.75 0 0 0.75 0 0] CT
0.149 GC
2 setlinecap
1 LJ
0.667 LW
N
905 135.898 M
903.325 135.898 L
S
GR
GS
[0.75 0 0 0.75 0 0] CT
0.149 GC
2 setlinecap
1 LJ
0.667 LW
N
905 129.185 M
903.325 129.185 L
S
GR
GS
[0.75 0 0 0.75 0 0] CT
0.149 GC
2 setlinecap
1 LJ
0.667 LW
N
905 124.421 M
903.325 124.421 L
S
GR
GS
[0.75 0 0 0.75 0 0] CT
0.149 GC
2 setlinecap
1 LJ
0.667 LW
N
905 120.727 M
903.325 120.727 L
S
GR
GS
[0.75 0 0 0.75 0 0] CT
0.149 GC
2 setlinecap
1 LJ
0.667 LW
N
905 117.708 M
903.325 117.708 L
S
GR
GS
[0.75 0 0 0.75 0 0] CT
0.149 GC
2 setlinecap
1 LJ
0.667 LW
N
905 115.156 M
903.325 115.156 L
S
GR
GS
[0.75 0 0 0.75 0 0] CT
0.149 GC
2 setlinecap
1 LJ
0.667 LW
N
905 112.945 M
903.325 112.945 L
S
GR
GS
[0.75 0 0 0.75 0 0] CT
0.149 GC
2 setlinecap
1 LJ
0.667 LW
N
905 110.994 M
903.325 110.994 L
S
GR
GS
[0.75 0 0 0.75 0 0] CT
0.149 GC
2 setlinecap
1 LJ
0.667 LW
N
905 109.25 M
903.325 109.25 L
S
GR
GS
[0.75 0 0 0.75 0 0] CT
0.149 GC
2 setlinecap
1 LJ
0.667 LW
N
905 97.773 M
903.325 97.773 L
S
GR
GS
[0.75 0 0 0.75 0 0] CT
0.149 GC
2 setlinecap
1 LJ
0.667 LW
N
905 91.06 M
903.325 91.06 L
S
GR
GS
[0.75 0 0 0.75 0 0] CT
0.149 GC
2 setlinecap
1 LJ
0.667 LW
N
905 86.296 M
903.325 86.296 L
S
GR
GS
[0.75 0 0 0.75 0 0] CT
0.149 GC
2 setlinecap
1 LJ
0.667 LW
N
905 82.602 M
903.325 82.602 L
S
GR
GS
[0.75 0 0 0.75 0 0] CT
0.149 GC
2 setlinecap
1 LJ
0.667 LW
N
905 79.583 M
903.325 79.583 L
S
GR
GS
[0.75 0 0 0.75 0 0] CT
0.149 GC
2 setlinecap
1 LJ
0.667 LW
N
905 77.031 M
903.325 77.031 L
S
GR
GS
[0.75 0 0 0.75 0 0] CT
0.149 GC
2 setlinecap
1 LJ
0.667 LW
N
905 74.82 M
903.325 74.82 L
S
GR
GS
[0.75 0 0 0.75 0 0] CT
0.149 GC
2 setlinecap
1 LJ
0.667 LW
N
905 72.869 M
903.325 72.869 L
S
GR
GS
[0.75 0 0 0.75 0 0] CT
0.149 GC
2 setlinecap
1 LJ
0.667 LW
N
905 71.125 M
903.325 71.125 L
S
GR
GS
[0.75 0 0 0.75 0 0] CT
0.149 GC
2 setlinecap
1 LJ
0.667 LW
N
905 59.648 M
903.325 59.648 L
S
GR
GS
[0.75 0 0 0.75 0 0] CT
0.149 GC
2 setlinecap
1 LJ
0.667 LW
N
905 52.935 M
903.325 52.935 L
S
GR
GS
[0.75 0 0 0.75 0 0] CT
0.149 GC
2 setlinecap
1 LJ
0.667 LW
N
905 48.171 M
903.325 48.171 L
S
GR
GS
[0.75 0 0 0.75 0 0] CT
0.149 GC
2 setlinecap
1 LJ
0.667 LW
N
905 44.477 M
903.325 44.477 L
S
GR
GS
[0.75 0 0 0.75 0 0] CT
0.149 GC
2 setlinecap
1 LJ
0.667 LW
N
905 41.458 M
903.325 41.458 L
S
GR
GS
[0.75 0 0 0.75 0 0] CT
0.149 GC
2 setlinecap
1 LJ
0.667 LW
N
905 38.906 M
903.325 38.906 L
S
GR
GS
[0.75 0 0 0.75 0 0] CT
0.149 GC
2 setlinecap
1 LJ
0.667 LW
N
905 36.695 M
903.325 36.695 L
S
GR
GS
[0.75 0 0 0.75 0 0] CT
0.149 GC
2 setlinecap
1 LJ
0.667 LW
N
905 34.744 M
903.325 34.744 L
S
GR
GS
[0.75 0 0 0.75 0 0] CT
0.149 GC
2 setlinecap
1 LJ
0.667 LW
N
905 33 M
903.325 33 L
S
GR
GS
[0.75 0 0 0.75 393.75 261.75] CT
0.149 GC
/Helvetica 20 F
GS
[1 0 0 1 0 0] CT
0 0 moveto 
1 -1 scale
(10) t 
GR
GR
GS
[0.75 0 0 0.75 411 254.25] CT
0.149 GC
/Helvetica 16 F
GS
[1 0 0 1 0 0] CT
0 0 moveto 
1 -1 scale
(-2) t 
GR
GR
GS
[0.75 0 0 0.75 398.25 204.75] CT
0.149 GC
/Helvetica 20 F
GS
[1 0 0 1 0 0] CT
0 0 moveto 
1 -1 scale
(10) t 
GR
GR
GS
[0.75 0 0 0.75 415.5 197.25] CT
0.149 GC
/Helvetica 16 F
GS
[1 0 0 1 0 0] CT
0 0 moveto 
1 -1 scale
(0) t 
GR
GR
GS
[0.75 0 0 0.75 398.25 147.75] CT
0.149 GC
/Helvetica 20 F
GS
[1 0 0 1 0 0] CT
0 0 moveto 
1 -1 scale
(10) t 
GR
GR
GS
[0.75 0 0 0.75 415.5 140.25] CT
0.149 GC
/Helvetica 16 F
GS
[1 0 0 1 0 0] CT
0 0 moveto 
1 -1 scale
(2) t 
GR
GR
GS
[0.75 0 0 0.75 398.25 90] CT
0.149 GC
/Helvetica 20 F
GS
[1 0 0 1 0 0] CT
0 0 moveto 
1 -1 scale
(10) t 
GR
GR
GS
[0.75 0 0 0.75 415.5 82.5] CT
0.149 GC
/Helvetica 16 F
GS
[1 0 0 1 0 0] CT
0 0 moveto 
1 -1 scale
(4) t 
GR
GR
GS
[0.75 0 0 0.75 398.25 33] CT
0.149 GC
/Helvetica 20 F
GS
[1 0 0 1 0 0] CT
0 0 moveto 
1 -1 scale
(10) t 
GR
GR
GS
[0.75 0 0 0.75 415.5 25.5] CT
0.149 GC
/Helvetica 16 F
GS
[1 0 0 1 0 0] CT
0 0 moveto 
1 -1 scale
(6) t 
GR
GR
GS
[0 -0.75 0.75 0 390.99998 139.12489] CT
0.149 GC
/Helvetica 22 F
GS
[1 0 0 1 0 0] CT
-23.5 -5 moveto 
1 -1 scale
(USD) t 
GR
GR
GS
[0.75 0 0 0.75 553.1255 21.65626] CT
/Helvetica-Bold 22 F
GS
[1 0 0 1 0 0] CT
-75.5 -5 moveto 
1 -1 scale
(worth of coins) t 
GR
GR
GS
[0.75 0 0 0.75 0 0] CT
0 0.447 0.741 RC
1 LJ
2 LW
N
571.34 160.942 M
572.68 162.263 L
574.02 164.025 L
575.36 163.159 L
576.7 162.298 L
578.04 163.189 L
579.38 164.964 L
580.72 167.618 L
582.06 163.395 L
583.4 160.499 L
584.74 164.106 L
586.08 171.491 L
587.42 172.969 L
588.76 172.396 L
590.1 166.257 L
591.44 164.972 L
592.78 167.096 L
594.12 168.693 L
595.46 165.82 L
596.8 166.392 L
598.14 167.418 L
599.48 167.438 L
600.82 167.428 L
602.16 167.298 L
603.5 160.213 L
604.84 153.513 L
606.18 152.038 L
607.52 152.979 L
608.86 155.843 L
610.2 153.498 L
611.54 154.021 L
612.88 155.075 L
614.22 154.737 L
615.56 155.149 L
616.9 155.266 L
618.24 155.939 L
619.58 157.186 L
620.92 156.532 L
622.26 156.163 L
623.6 155.232 L
624.94 156.512 L
626.28 155.629 L
627.62 158.29 L
628.96 157.525 L
630.3 154.812 L
631.64 154.435 L
632.98 156.306 L
634.32 157.35 L
635.66 157.668 L
637 157.645 L
638.34 158.511 L
639.68 158.733 L
641.02 163.97 L
642.36 161.581 L
643.7 160.96 L
645.04 161.744 L
646.38 159.551 L
647.72 157.953 L
649.06 159.665 L
650.4 161.887 L
651.74 161.933 L
653.08 161.407 L
654.42 161.698 L
655.76 160.752 L
657.1 160.9 L
658.44 160.329 L
659.78 160.677 L
661.12 161.09 L
662.46 161.248 L
663.8 161.931 L
665.14 161.692 L
666.48 162.374 L
667.82 164.362 L
669.16 164.488 L
670.5 164.153 L
671.84 164.255 L
673.18 165.13 L
674.52 166.546 L
675.86 166.159 L
677.2 166.507 L
678.54 166.596 L
679.88 166.166 L
681.22 166.14 L
682.56 166.505 L
683.9 166.574 L
685.24 163.76 L
686.58 165.278 L
687.92 165.691 L
689.26 165.861 L
690.6 166.068 L
691.94 165.649 L
693.28 166.47 L
694.62 165.888 L
695.96 165.625 L
697.3 165.325 L
698.64 163.946 L
699.98 161.607 L
701.32 160.526 L
702.66 160.662 L
704 161.004 L
705.34 157.83 L
706.68 156.189 L
708.02 155.149 L
709.36 155.278 L
710.7 155.007 L
712.04 155.76 L
713.38 155.389 L
714.72 155.225 L
716.06 154.399 L
717.4 147.253 L
718.74 142.524 L
720.08 141.936 L
721.42 142.357 L
722.76 143.372 L
724.1 144.186 L
725.44 149.105 L
726.78 144.558 L
728.12 143.62 L
729.46 144.746 L
730.8 143.867 L
732.14 144.677 L
733.48 142.989 L
734.82 138.748 L
736.16 139.098 L
737.5 139.893 L
738.84 138.245 L
740.18 139.361 L
741.52 140.159 L
742.86 142.287 L
744.2 141.925 L
745.54 141.079 L
746.88 141.395 L
748.22 140.013 L
749.56 139.834 L
750.9 140.641 L
752.24 141.452 L
753.58 142.642 L
754.92 141.062 L
756.26 141.685 L
757.6 142.74 L
758.94 141.53 L
760.28 139.438 L
761.62 139.514 L
762.96 136.181 L
764.3 137.501 L
765.64 137.625 L
766.98 137.074 L
768.32 134.345 L
769.66 130.292 L
771 124.743 L
772.34 127.772 L
773.68 130.95 L
775.02 127.823 L
776.36 129.728 L
777.7 129.437 L
779.04 128.594 L
780.38 129.806 L
781.72 131.768 L
783.06 130.446 L
784.4 132.932 L
785.74 131.986 L
787.08 132.656 L
788.42 130.862 L
789.76 131.499 L
791.1 132.673 L
792.44 131.653 L
793.78 130.406 L
795.12 130.405 L
796.46 132.732 L
797.8 132.938 L
799.14 129.772 L
800.48 132.453 L
801.82 131.421 L
803.16 131.02 L
804.5 131.854 L
805.84 132.869 L
807.18 137.902 L
808.52 138.128 L
809.86 138.045 L
811.2 137.925 L
812.54 135.634 L
813.88 137.859 L
815.22 139.368 L
816.56 139.372 L
817.9 139.193 L
819.24 139.163 L
820.58 139.553 L
821.92 139.299 L
823.26 138.145 L
824.6 139.012 L
825.94 140.99 L
827.28 140.807 L
828.62 143.361 L
829.96 144.479 L
831.3 143.385 L
832.64 144.841 L
833.98 149.353 L
835.32 147.802 L
836.66 148.086 L
838 143.229 L
839.34 142.877 L
840.68 143.584 L
842.02 144.115 L
843.36 143.237 L
844.7 143.921 L
846.04 142.256 L
847.38 142.092 L
848.72 140.095 L
850.06 140.104 L
851.4 140.801 L
852.74 140.282 L
854.08 141.584 L
855.42 142.924 L
S
GR
GS
[0.75 0 0 0.75 0 0] CT
0.851 0.325 0.098 RC
1 LJ
2 LW
N
571.34 130.596 M
572.68 131.705 L
574.02 132.01 L
575.36 131.103 L
576.7 130.274 L
578.04 130.768 L
579.38 130.582 L
580.72 129.887 L
582.06 130.818 L
583.4 130.864 L
584.74 130.299 L
586.08 129.77 L
587.42 127.845 L
588.76 128.044 L
590.1 127.215 L
591.44 127.016 L
592.78 127.395 L
594.12 127.204 L
595.46 125.935 L
596.8 124.906 L
598.14 124.121 L
599.48 123.128 L
600.82 123.685 L
602.16 122.932 L
603.5 123.102 L
604.84 123.77 L
606.18 123.638 L
607.52 124.063 L
608.86 124.414 L
610.2 124.011 L
611.54 123.806 L
612.88 123.091 L
614.22 122.951 L
615.56 123.023 L
616.9 122.908 L
618.24 122.909 L
619.58 122.183 L
620.92 122.233 L
622.26 121.739 L
623.6 121.088 L
624.94 122.184 L
626.28 122.169 L
627.62 123.471 L
628.96 122.932 L
630.3 122.118 L
631.64 122.108 L
632.98 123.501 L
634.32 123.511 L
635.66 123.92 L
637 123.767 L
638.34 123.889 L
639.68 124.915 L
641.02 128.351 L
642.36 125.994 L
643.7 126.051 L
645.04 126.245 L
646.38 124.154 L
647.72 124.735 L
649.06 124.815 L
650.4 126.024 L
651.74 126.025 L
653.08 125.304 L
654.42 125.789 L
655.76 124.73 L
657.1 124.873 L
658.44 123.611 L
659.78 123.714 L
661.12 123.76 L
662.46 123.076 L
663.8 122.829 L
665.14 122.808 L
666.48 123.157 L
667.82 123.498 L
669.16 123.115 L
670.5 122.954 L
671.84 122.742 L
673.18 122.07 L
674.52 121.499 L
675.86 121.465 L
677.2 121.312 L
678.54 119.309 L
679.88 118.711 L
681.22 118.179 L
682.56 118.621 L
683.9 118.483 L
685.24 118.834 L
686.58 118.878 L
687.92 118.533 L
689.26 117.676 L
690.6 117.621 L
691.94 117.685 L
693.28 117.901 L
694.62 119.069 L
695.96 118.41 L
697.3 117.973 L
698.64 118.324 L
699.98 118.404 L
701.32 117.289 L
702.66 117.352 L
704 116.463 L
705.34 115.715 L
706.68 114.971 L
708.02 114.671 L
709.36 114.28 L
710.7 114.219 L
712.04 115.102 L
713.38 114.818 L
714.72 114.103 L
716.06 114.819 L
717.4 116.084 L
718.74 116.749 L
720.08 117.846 L
721.42 116.232 L
722.76 116.04 L
724.1 114.426 L
725.44 113.212 L
726.78 113.558 L
728.12 113.385 L
729.46 112.869 L
730.8 112.535 L
732.14 112.798 L
733.48 112.428 L
734.82 112.865 L
736.16 112.428 L
737.5 111.384 L
738.84 110.397 L
740.18 109.554 L
741.52 109.153 L
742.86 109.435 L
744.2 108.868 L
745.54 107.709 L
746.88 107.56 L
748.22 107.192 L
749.56 106.711 L
750.9 106.347 L
752.24 103.338 L
753.58 99.61 L
754.92 100.889 L
756.26 102.341 L
757.6 102.041 L
758.94 100.526 L
760.28 100.064 L
761.62 101.051 L
762.96 100.894 L
764.3 99.79 L
765.64 98.195 L
766.98 98.5 L
768.32 98.523 L
769.66 99.724 L
771 100.834 L
772.34 101.673 L
773.68 103.879 L
775.02 102.872 L
776.36 103.767 L
777.7 103.647 L
779.04 101.365 L
780.38 101.636 L
781.72 102.977 L
783.06 102.92 L
784.4 104.967 L
785.74 103.495 L
787.08 104.089 L
788.42 102.556 L
789.76 102.316 L
791.1 101.888 L
792.44 100.051 L
793.78 99.959 L
795.12 100.981 L
796.46 102.35 L
797.8 102.989 L
799.14 102.566 L
800.48 104.397 L
801.82 103.702 L
803.16 103.258 L
804.5 103.951 L
805.84 103.893 L
807.18 106.95 L
808.52 107.39 L
809.86 106.972 L
811.2 106.782 L
812.54 105.035 L
813.88 106.792 L
815.22 107.775 L
816.56 107.871 L
817.9 107.14 L
819.24 107.286 L
820.58 107.416 L
821.92 107.021 L
823.26 106.529 L
824.6 107.232 L
825.94 109.075 L
827.28 108.888 L
828.62 110.684 L
829.96 111.309 L
831.3 110.676 L
832.64 112.381 L
833.98 115.262 L
835.32 113.462 L
836.66 113.748 L
838 112.404 L
839.34 111.486 L
840.68 111.705 L
842.02 112.678 L
843.36 111.13 L
844.7 111.751 L
846.04 110.109 L
847.38 108.977 L
848.72 108.867 L
850.06 107.503 L
851.4 108.361 L
852.74 107.336 L
854.08 107.075 L
855.42 108.145 L
S
GR
GS
[0.75 0 0 0.75 0 0] CT
0.929 0.694 0.125 RC
1 LJ
2 LW
N
571.34 172.094 M
572.68 173.477 L
574.02 173.699 L
575.36 173.669 L
576.7 174.603 L
578.04 173.551 L
579.38 174.191 L
580.72 173.706 L
582.06 171.943 L
583.4 172.449 L
584.74 172.048 L
586.08 172.216 L
587.42 169.903 L
588.76 169.579 L
590.1 169.105 L
591.44 167.489 L
592.78 167.53 L
594.12 167.538 L
595.46 166.828 L
596.8 166.735 L
598.14 167.417 L
599.48 167.304 L
600.82 167.881 L
602.16 167.185 L
603.5 167.229 L
604.84 167.555 L
606.18 167.45 L
607.52 167.231 L
608.86 166.159 L
610.2 166.513 L
611.54 166.37 L
612.88 165.953 L
614.22 165.636 L
615.56 165.538 L
616.9 164.858 L
618.24 164.864 L
619.58 163.807 L
620.92 163.462 L
622.26 163.264 L
623.6 163.062 L
624.94 164.806 L
626.28 164.877 L
627.62 167.578 L
628.96 166.608 L
630.3 165.515 L
631.64 165.76 L
632.98 167.504 L
634.32 167.622 L
635.66 167.943 L
637 167.614 L
638.34 167.788 L
639.68 168.624 L
641.02 172.91 L
642.36 170.298 L
643.7 170.561 L
645.04 170.213 L
646.38 167.672 L
647.72 168.287 L
649.06 168.232 L
650.4 169.77 L
651.74 169.407 L
653.08 168.091 L
654.42 168.306 L
655.76 167.739 L
657.1 168.018 L
658.44 166.956 L
659.78 167.357 L
661.12 167.787 L
662.46 167.229 L
663.8 167.181 L
665.14 167.449 L
666.48 167.731 L
667.82 167.72 L
669.16 167.54 L
670.5 166.842 L
671.84 166.707 L
673.18 166.841 L
674.52 167.454 L
675.86 167.317 L
677.2 167.12 L
678.54 167.083 L
679.88 165.298 L
681.22 165.255 L
682.56 165.404 L
683.9 165.563 L
685.24 166.393 L
686.58 166.538 L
687.92 166.869 L
689.26 167.09 L
690.6 167.299 L
691.94 167.563 L
693.28 168.046 L
694.62 167.402 L
695.96 167.424 L
697.3 167.502 L
698.64 167.453 L
699.98 167.515 L
701.32 167.031 L
702.66 166.887 L
704 166.988 L
705.34 167.775 L
706.68 168.018 L
708.02 166.998 L
709.36 167.284 L
710.7 167.517 L
712.04 167.371 L
713.38 167.607 L
714.72 166.817 L
716.06 166.196 L
717.4 167.351 L
718.74 166.519 L
720.08 166.879 L
721.42 166.412 L
722.76 165.353 L
724.1 165.564 L
725.44 165.686 L
726.78 165.612 L
728.12 164.871 L
729.46 164.551 L
730.8 163.984 L
732.14 164.273 L
733.48 163.367 L
734.82 162.131 L
736.16 159.704 L
737.5 160.008 L
738.84 159.829 L
740.18 159.515 L
741.52 159.774 L
742.86 161.445 L
744.2 160.703 L
745.54 159.999 L
746.88 160.109 L
748.22 160.023 L
749.56 159.869 L
750.9 160.115 L
752.24 161.403 L
753.58 161.18 L
754.92 160.376 L
756.26 159.753 L
757.6 160.904 L
758.94 158.358 L
760.28 154.471 L
761.62 153.215 L
762.96 153.38 L
764.3 153.653 L
765.64 153.371 L
766.98 152.815 L
768.32 151.181 L
769.66 150.524 L
771 150.679 L
772.34 150.639 L
773.68 153.886 L
775.02 152.828 L
776.36 153.42 L
777.7 151.792 L
779.04 151.62 L
780.38 151.857 L
781.72 152.427 L
783.06 152.059 L
784.4 152.877 L
785.74 151.99 L
787.08 151.646 L
788.42 149.408 L
789.76 148.004 L
791.1 147.694 L
792.44 147.413 L
793.78 146.699 L
795.12 145.015 L
796.46 145.082 L
797.8 143.034 L
799.14 143.603 L
800.48 144.99 L
801.82 143.376 L
803.16 141.846 L
804.5 142.202 L
805.84 143.134 L
807.18 146.509 L
808.52 147.141 L
809.86 146.785 L
811.2 146.74 L
812.54 144.987 L
813.88 146.574 L
815.22 147.321 L
816.56 147.605 L
817.9 146.429 L
819.24 146.472 L
820.58 146.486 L
821.92 145.691 L
823.26 143.733 L
824.6 144.601 L
825.94 146.237 L
827.28 145.524 L
828.62 146.777 L
829.96 148.832 L
831.3 147.982 L
832.64 150.367 L
833.98 153.329 L
835.32 151.213 L
836.66 151.983 L
838 150.705 L
839.34 149.419 L
840.68 149.864 L
842.02 150.769 L
843.36 149.705 L
844.7 150.158 L
846.04 148.692 L
847.38 148.453 L
848.72 148.326 L
850.06 147.809 L
851.4 148.685 L
852.74 148.331 L
854.08 149.205 L
855.42 150.066 L
S
GR
GS
[0.75 0 0 0.75 0 0] CT
0.494 0.184 0.557 RC
1 LJ
2 LW
N
571.34 198.94 M
572.68 199.769 L
574.02 199.773 L
575.36 199.809 L
576.7 200.421 L
578.04 200.214 L
579.38 200.499 L
580.72 199.466 L
582.06 199.459 L
583.4 199.812 L
584.74 199.528 L
586.08 199.302 L
587.42 198.051 L
588.76 198.685 L
590.1 198.43 L
591.44 197.437 L
592.78 197.649 L
594.12 198.178 L
595.46 197.966 L
596.8 198.203 L
598.14 198.426 L
599.48 198.43 L
600.82 199.355 L
602.16 199.037 L
603.5 199.127 L
604.84 197.903 L
606.18 198.546 L
607.52 198.275 L
608.86 197.673 L
610.2 198.097 L
611.54 195.934 L
612.88 196.914 L
614.22 196.591 L
615.56 196.407 L
616.9 193.641 L
618.24 193.319 L
619.58 193.106 L
620.92 192.845 L
622.26 191.157 L
623.6 187.99 L
624.94 189.399 L
626.28 189.862 L
627.62 192.579 L
628.96 191.103 L
630.3 189.172 L
631.64 189.512 L
632.98 191.937 L
634.32 192.377 L
635.66 193.52 L
637 192.37 L
638.34 192.83 L
639.68 193.487 L
641.02 200.03 L
642.36 197.58 L
643.7 197.563 L
645.04 197.485 L
646.38 195.24 L
647.72 196.062 L
649.06 196.414 L
650.4 198.139 L
651.74 197.622 L
653.08 197.22 L
654.42 197.784 L
655.76 196.462 L
657.1 196.471 L
658.44 195.018 L
659.78 195.675 L
661.12 196.131 L
662.46 195.357 L
663.8 195.538 L
665.14 195.894 L
666.48 196.216 L
667.82 196.52 L
669.16 196.433 L
670.5 196.289 L
671.84 196.144 L
673.18 195.968 L
674.52 196.924 L
675.86 196.74 L
677.2 196.685 L
678.54 193.928 L
679.88 194.116 L
681.22 192.902 L
682.56 192.513 L
683.9 192.73 L
685.24 194.102 L
686.58 193.758 L
687.92 194.03 L
689.26 193.867 L
690.6 194.462 L
691.94 194.863 L
693.28 195.423 L
694.62 195.112 L
695.96 194.956 L
697.3 195.177 L
698.64 195.3 L
699.98 195.492 L
701.32 194.775 L
702.66 194.985 L
704 195.174 L
705.34 195.956 L
706.68 195.477 L
708.02 195.047 L
709.36 195.387 L
710.7 195.474 L
712.04 195.348 L
713.38 193.603 L
714.72 193.264 L
716.06 192.82 L
717.4 194.163 L
718.74 193.335 L
720.08 194.233 L
721.42 193.576 L
722.76 193.234 L
724.1 192.936 L
725.44 191.157 L
726.78 191.991 L
728.12 191.491 L
729.46 191.034 L
730.8 190.882 L
732.14 191.399 L
733.48 190.965 L
734.82 190.661 L
736.16 189.62 L
737.5 187.463 L
738.84 188.011 L
740.18 186.953 L
741.52 186.171 L
742.86 188.08 L
744.2 187.555 L
745.54 185.666 L
746.88 185.454 L
748.22 185.293 L
749.56 184.812 L
750.9 185.107 L
752.24 185.442 L
753.58 185.786 L
754.92 181.825 L
756.26 178.218 L
757.6 178.935 L
758.94 172.887 L
760.28 166.441 L
761.62 167.167 L
762.96 168.492 L
764.3 167.322 L
765.64 167.367 L
766.98 166.308 L
768.32 164.368 L
769.66 164.746 L
771 166.522 L
772.34 166.373 L
773.68 169.368 L
775.02 167.97 L
776.36 168.692 L
777.7 168.848 L
779.04 168.072 L
780.38 168.922 L
781.72 170.333 L
783.06 170.629 L
784.4 172.524 L
785.74 171.559 L
787.08 171.779 L
788.42 169.957 L
789.76 170.638 L
791.1 170.91 L
792.44 170.377 L
793.78 167.507 L
795.12 167.96 L
796.46 169.951 L
797.8 170.526 L
799.14 170.294 L
800.48 171.755 L
801.82 171.223 L
803.16 169.731 L
804.5 171.096 L
805.84 171.511 L
807.18 175.019 L
808.52 175.179 L
809.86 174.627 L
811.2 174.617 L
812.54 173.135 L
813.88 174.836 L
815.22 175.767 L
816.56 175.97 L
817.9 175.769 L
819.24 175.743 L
820.58 176.071 L
821.92 175.686 L
823.26 174.539 L
824.6 175.616 L
825.94 177.18 L
827.28 177.375 L
828.62 179.659 L
829.96 180.981 L
831.3 177.692 L
832.64 179.005 L
833.98 181.762 L
835.32 179.579 L
836.66 180.143 L
838 178.845 L
839.34 177.314 L
840.68 178.181 L
842.02 178.898 L
843.36 177.556 L
844.7 177.765 L
846.04 172.953 L
847.38 172.041 L
848.72 171.701 L
850.06 171.747 L
851.4 172.769 L
852.74 172.216 L
854.08 171.505 L
855.42 172.953 L
S
GR
GS
[0.75 0 0 0.75 0 0] CT
0.467 0.675 0.188 RC
1 LJ
2 LW
N
571.34 289.074 M
572.68 290.318 L
574.02 290.721 L
575.36 290.756 L
576.7 291.49 L
578.04 291.102 L
579.38 291.575 L
580.72 291.346 L
582.06 290.416 L
583.4 290.789 L
584.74 290.646 L
586.08 290.729 L
587.42 289.713 L
588.76 290.102 L
590.1 290.233 L
591.44 289.024 L
592.78 289.874 L
594.12 290.106 L
595.46 290.207 L
596.8 290.718 L
598.14 291.276 L
599.48 291.09 L
600.82 291.967 L
602.16 292.048 L
603.5 292.354 L
604.84 292.209 L
606.18 292.613 L
607.52 292.224 L
608.86 289.081 L
610.2 285.429 L
611.54 284.915 L
612.88 286.899 L
614.22 286.984 L
615.56 287.388 L
616.9 288.152 L
618.24 286.484 L
619.58 286.929 L
620.92 286.228 L
622.26 284.335 L
623.6 284.805 L
624.94 286.326 L
626.28 286.17 L
627.62 287.992 L
628.96 287.186 L
630.3 286.361 L
631.64 286.548 L
632.98 287.471 L
634.32 287.591 L
635.66 287.353 L
637 287.244 L
638.34 287.645 L
639.68 288.334 L
641.02 291.667 L
642.36 290.018 L
643.7 290.227 L
645.04 290.291 L
646.38 289.268 L
647.72 289.775 L
649.06 289.953 L
650.4 290.919 L
651.74 290.751 L
653.08 290.339 L
654.42 290.535 L
655.76 290.007 L
657.1 289.589 L
658.44 288.127 L
659.78 288.722 L
661.12 288.936 L
662.46 288.604 L
663.8 287.866 L
665.14 288.178 L
666.48 288.126 L
667.82 287.218 L
669.16 285.587 L
670.5 285.796 L
671.84 285.476 L
673.18 282.83 L
674.52 284.583 L
675.86 284.008 L
677.2 283.774 L
678.54 284.809 L
679.88 284.023 L
681.22 284.226 L
682.56 283.802 L
683.9 284.296 L
685.24 285.936 L
686.58 286.932 L
687.92 287.189 L
689.26 287.547 L
690.6 287.51 L
691.94 288.056 L
693.28 288.655 L
694.62 287.857 L
695.96 288.021 L
697.3 288.101 L
698.64 288.169 L
699.98 288.247 L
701.32 288.169 L
702.66 288.175 L
704 288.352 L
705.34 288.892 L
706.68 287.92 L
708.02 287.738 L
709.36 288.091 L
710.7 288.229 L
712.04 287.91 L
713.38 287.563 L
714.72 287.014 L
716.06 287.01 L
717.4 287.87 L
718.74 287.557 L
720.08 288.62 L
721.42 288.116 L
722.76 287.604 L
724.1 287.359 L
725.44 286.294 L
726.78 286.332 L
728.12 286.183 L
729.46 286.011 L
730.8 285.465 L
732.14 285.85 L
733.48 285.458 L
734.82 285.215 L
736.16 285.062 L
737.5 284.546 L
738.84 284.782 L
740.18 284.445 L
741.52 281.732 L
742.86 285.169 L
744.2 284.645 L
745.54 284.33 L
746.88 284.344 L
748.22 284.535 L
749.56 284.469 L
750.9 284.964 L
752.24 285.902 L
753.58 286.609 L
754.92 284.563 L
756.26 285.058 L
757.6 285.564 L
758.94 284.592 L
760.28 278.055 L
761.62 274.214 L
762.96 264.165 L
764.3 266.377 L
765.64 266.324 L
766.98 266.998 L
768.32 265.898 L
769.66 265.627 L
771 265.95 L
772.34 258.87 L
773.68 259.581 L
775.02 259.15 L
776.36 261.101 L
777.7 259.874 L
779.04 258.87 L
780.38 256.179 L
781.72 255.828 L
783.06 248.62 L
784.4 248.999 L
785.74 247.959 L
787.08 247.324 L
788.42 246.712 L
789.76 242.964 L
791.1 242.491 L
792.44 243.286 L
793.78 243.07 L
795.12 241.585 L
796.46 246.846 L
797.8 249.465 L
799.14 250.523 L
800.48 250.692 L
801.82 249.945 L
803.16 250.108 L
804.5 251.475 L
805.84 253.16 L
807.18 259.009 L
808.52 257.279 L
809.86 253.968 L
811.2 254.494 L
812.54 254.176 L
813.88 256.417 L
815.22 256.659 L
816.56 256.904 L
817.9 256.659 L
819.24 257.279 L
820.58 258.458 L
821.92 258.458 L
823.26 256.179 L
824.6 257.153 L
825.94 259.581 L
827.28 259.293 L
828.62 262.382 L
829.96 263.777 L
831.3 263.058 L
832.64 265.123 L
833.98 267.851 L
835.32 265.941 L
836.66 267.1 L
838 265.336 L
839.34 262.522 L
840.68 260.63 L
842.02 261.75 L
843.36 260.476 L
844.7 261.261 L
846.04 259.581 L
847.38 259.436 L
848.72 259.581 L
850.06 258.731 L
851.4 259.874 L
852.74 259.581 L
854.08 260.323 L
855.42 261.422 L
S
GR
GS
[0.75 0 0 0.75 0 0] CT
1 GC
N
892 167 M
892 46 L
802 46 L
802 167 L
cp
f
GR
GS
[0.75 0 0 0.75 636.75 44.625] CT
/Helvetica 18 F
GS
[1 0 0 1 0 0] CT
0 7.5 moveto 
1 -1 scale
(BCH) t 
GR
GR
GS
[0.75 0 0 0.75 0 0] CT
0 0.447 0.741 RC
1 LJ
2 LW
N
806 59.5 M
846 59.5 L
S
GR
GS
[0.75 0 0 0.75 636.75 62.25] CT
/Helvetica 18 F
GS
[1 0 0 1 0 0] CT
0 7.5 moveto 
1 -1 scale
(BTC) t 
GR
GR
GS
[0.75 0 0 0.75 0 0] CT
0.851 0.325 0.098 RC
1 LJ
2 LW
N
806 83 M
846 83 L
S
GR
GS
[0.75 0 0 0.75 636.75 79.875] CT
/Helvetica 18 F
GS
[1 0 0 1 0 0] CT
0 7.5 moveto 
1 -1 scale
(ETH) t 
GR
GR
GS
[0.75 0 0 0.75 0 0] CT
0.929 0.694 0.125 RC
1 LJ
2 LW
N
806 106.5 M
846 106.5 L
S
GR
GS
[0.75 0 0 0.75 636.75 97.5] CT
/Helvetica 18 F
GS
[1 0 0 1 0 0] CT
0 7.5 moveto 
1 -1 scale
(LTC) t 
GR
GR
GS
[0.75 0 0 0.75 0 0] CT
0.494 0.184 0.557 RC
1 LJ
2 LW
N
806 130 M
846 130 L
S
GR
GS
[0.75 0 0 0.75 636.75 115.125] CT
/Helvetica 18 F
GS
[1 0 0 1 0 0] CT
0 7.5 moveto 
1 -1 scale
(XRP) t 
GR
GR
GS
[0.75 0 0 0.75 0 0] CT
0.467 0.675 0.188 RC
1 LJ
2 LW
N
806 153.5 M
846 153.5 L
S
GR
GS
[0.75 0 0 0.75 0 0] CT
0.149 GC
10.0 ML
0.667 LW
N
802 167 M
802 46 L
892 46 L
892 167 L
cp
S
GR
%%Trailer
%%Pages: 1
%%EOF
