%!PS-Adobe-3.0 EPSF-3.0
%%Creator: (MATLAB, The Mathworks, Inc. Version 9.3.0.713579 \(R2017b\). Operating System: Windows 7)
%%Title: fig/p.eps
%%CreationDate: 2018-03-20T22:25:33
%%Pages: (atend)
%%BoundingBox:    44     3   691   296
%%LanguageLevel: 3
%%EndComments
%%BeginProlog
%%BeginResource: procset (Apache XML Graphics Std ProcSet) 1.2 0
%%Version: 1.2 0
%%Copyright: (Copyright 2001-2003,2010 The Apache Software Foundation. License terms: http://www.apache.org/licenses/LICENSE-2.0)
/bd{bind def}bind def
/ld{load def}bd
/GR/grestore ld
/GS/gsave ld
/RM/rmoveto ld
/C/curveto ld
/t/show ld
/L/lineto ld
/ML/setmiterlimit ld
/CT/concat ld
/f/fill ld
/N/newpath ld
/S/stroke ld
/CC/setcmykcolor ld
/A/ashow ld
/cp/closepath ld
/RC/setrgbcolor ld
/LJ/setlinejoin ld
/GC/setgray ld
/LW/setlinewidth ld
/M/moveto ld
/re {4 2 roll M
1 index 0 rlineto
0 exch rlineto
neg 0 rlineto
cp } bd
/_ctm matrix def
/_tm matrix def
/BT { _ctm currentmatrix pop matrix _tm copy pop 0 0 moveto } bd
/ET { _ctm setmatrix } bd
/iTm { _ctm setmatrix _tm concat } bd
/Tm { _tm astore pop iTm 0 0 moveto } bd
/ux 0.0 def
/uy 0.0 def
/F {
  /Tp exch def
  /Tf exch def
  Tf findfont Tp scalefont setfont
  /cf Tf def  /cs Tp def
} bd
/ULS {currentpoint /uy exch def /ux exch def} bd
/ULE {
  /Tcx currentpoint pop def
  gsave
  newpath
  cf findfont cs scalefont dup
  /FontMatrix get 0 get /Ts exch def /FontInfo get dup
  /UnderlinePosition get Ts mul /To exch def
  /UnderlineThickness get Ts mul /Tt exch def
  ux uy To add moveto  Tcx uy To add lineto
  Tt setlinewidth stroke
  grestore
} bd
/OLE {
  /Tcx currentpoint pop def
  gsave
  newpath
  cf findfont cs scalefont dup
  /FontMatrix get 0 get /Ts exch def /FontInfo get dup
  /UnderlinePosition get Ts mul /To exch def
  /UnderlineThickness get Ts mul /Tt exch def
  ux uy To add cs add moveto Tcx uy To add cs add lineto
  Tt setlinewidth stroke
  grestore
} bd
/SOE {
  /Tcx currentpoint pop def
  gsave
  newpath
  cf findfont cs scalefont dup
  /FontMatrix get 0 get /Ts exch def /FontInfo get dup
  /UnderlinePosition get Ts mul /To exch def
  /UnderlineThickness get Ts mul /Tt exch def
  ux uy To add cs 10 mul 26 idiv add moveto Tcx uy To add cs 10 mul 26 idiv add lineto
  Tt setlinewidth stroke
  grestore
} bd
/QT {
/Y22 exch store
/X22 exch store
/Y21 exch store
/X21 exch store
currentpoint
/Y21 load 2 mul add 3 div exch
/X21 load 2 mul add 3 div exch
/X21 load 2 mul /X22 load add 3 div
/Y21 load 2 mul /Y22 load add 3 div
/X22 load /Y22 load curveto
} bd
/SSPD {
dup length /d exch dict def
{
/v exch def
/k exch def
currentpagedevice k known {
/cpdv currentpagedevice k get def
v cpdv ne {
/upd false def
/nullv v type /nulltype eq def
/nullcpdv cpdv type /nulltype eq def
nullv nullcpdv or
{
/upd true def
} {
/sametype v type cpdv type eq def
sametype {
v type /arraytype eq {
/vlen v length def
/cpdvlen cpdv length def
vlen cpdvlen eq {
0 1 vlen 1 sub {
/i exch def
/obj v i get def
/cpdobj cpdv i get def
obj cpdobj ne {
/upd true def
exit
} if
} for
} {
/upd true def
} ifelse
} {
v type /dicttype eq {
v {
/dv exch def
/dk exch def
/cpddv cpdv dk get def
dv cpddv ne {
/upd true def
exit
} if
} forall
} {
/upd true def
} ifelse
} ifelse
} if
} ifelse
upd true eq {
d k v put
} if
} if
} if
} forall
d length 0 gt {
d setpagedevice
} if
} bd
/RE { % /NewFontName [NewEncodingArray] /FontName RE -
  findfont dup length dict begin
  {
    1 index /FID ne
    {def} {pop pop} ifelse
  } forall
  /Encoding exch def
  /FontName 1 index def
  currentdict definefont pop
  end
} bind def
%%EndResource
%%BeginResource: procset (Apache XML Graphics EPS ProcSet) 1.0 0
%%Version: 1.0 0
%%Copyright: (Copyright 2002-2003 The Apache Software Foundation. License terms: http://www.apache.org/licenses/LICENSE-2.0)
/BeginEPSF { %def
/b4_Inc_state save def         % Save state for cleanup
/dict_count countdictstack def % Count objects on dict stack
/op_count count 1 sub def      % Count objects on operand stack
userdict begin                 % Push userdict on dict stack
/showpage { } def              % Redefine showpage, { } = null proc
0 setgray 0 setlinecap         % Prepare graphics state
1 setlinewidth 0 setlinejoin
10 setmiterlimit [ ] 0 setdash newpath
/languagelevel where           % If level not equal to 1 then
{pop languagelevel             % set strokeadjust and
1 ne                           % overprint to their defaults.
{false setstrokeadjust false setoverprint
} if
} if
} bd
/EndEPSF { %def
count op_count sub {pop} repeat            % Clean up stacks
countdictstack dict_count sub {end} repeat
b4_Inc_state restore
} bd
%%EndResource
%FOPBeginFontDict
%%IncludeResource: font Courier-Oblique
%%IncludeResource: font Courier-BoldOblique
%%IncludeResource: font Courier-Bold
%%IncludeResource: font ZapfDingbats
%%IncludeResource: font Symbol
%%IncludeResource: font Helvetica
%%IncludeResource: font Helvetica-Oblique
%%IncludeResource: font Helvetica-Bold
%%IncludeResource: font Helvetica-BoldOblique
%%IncludeResource: font Times-Roman
%%IncludeResource: font Times-Italic
%%IncludeResource: font Times-Bold
%%IncludeResource: font Times-BoldItalic
%%IncludeResource: font Courier
%FOPEndFontDict
%%BeginResource: encoding WinAnsiEncoding
/WinAnsiEncoding [
/.notdef /.notdef /.notdef /.notdef /.notdef
/.notdef /.notdef /.notdef /.notdef /.notdef
/.notdef /.notdef /.notdef /.notdef /.notdef
/.notdef /.notdef /.notdef /.notdef /.notdef
/.notdef /.notdef /.notdef /.notdef /.notdef
/.notdef /.notdef /.notdef /.notdef /.notdef
/.notdef /.notdef /space /exclam /quotedbl
/numbersign /dollar /percent /ampersand /quotesingle
/parenleft /parenright /asterisk /plus /comma
/hyphen /period /slash /zero /one
/two /three /four /five /six
/seven /eight /nine /colon /semicolon
/less /equal /greater /question /at
/A /B /C /D /E
/F /G /H /I /J
/K /L /M /N /O
/P /Q /R /S /T
/U /V /W /X /Y
/Z /bracketleft /backslash /bracketright /asciicircum
/underscore /quoteleft /a /b /c
/d /e /f /g /h
/i /j /k /l /m
/n /o /p /q /r
/s /t /u /v /w
/x /y /z /braceleft /bar
/braceright /asciitilde /bullet /Euro /bullet
/quotesinglbase /florin /quotedblbase /ellipsis /dagger
/daggerdbl /circumflex /perthousand /Scaron /guilsinglleft
/OE /bullet /Zcaron /bullet /bullet
/quoteleft /quoteright /quotedblleft /quotedblright /bullet
/endash /emdash /asciitilde /trademark /scaron
/guilsinglright /oe /bullet /zcaron /Ydieresis
/space /exclamdown /cent /sterling /currency
/yen /brokenbar /section /dieresis /copyright
/ordfeminine /guillemotleft /logicalnot /sfthyphen /registered
/macron /degree /plusminus /twosuperior /threesuperior
/acute /mu /paragraph /middot /cedilla
/onesuperior /ordmasculine /guillemotright /onequarter /onehalf
/threequarters /questiondown /Agrave /Aacute /Acircumflex
/Atilde /Adieresis /Aring /AE /Ccedilla
/Egrave /Eacute /Ecircumflex /Edieresis /Igrave
/Iacute /Icircumflex /Idieresis /Eth /Ntilde
/Ograve /Oacute /Ocircumflex /Otilde /Odieresis
/multiply /Oslash /Ugrave /Uacute /Ucircumflex
/Udieresis /Yacute /Thorn /germandbls /agrave
/aacute /acircumflex /atilde /adieresis /aring
/ae /ccedilla /egrave /eacute /ecircumflex
/edieresis /igrave /iacute /icircumflex /idieresis
/eth /ntilde /ograve /oacute /ocircumflex
/otilde /odieresis /divide /oslash /ugrave
/uacute /ucircumflex /udieresis /yacute /thorn
/ydieresis
] def
%%EndResource
%FOPBeginFontReencode
/Courier-Oblique findfont
dup length dict begin
  {1 index /FID ne {def} {pop pop} ifelse} forall
  /Encoding WinAnsiEncoding def
  currentdict
end
/Courier-Oblique exch definefont pop
/Courier-BoldOblique findfont
dup length dict begin
  {1 index /FID ne {def} {pop pop} ifelse} forall
  /Encoding WinAnsiEncoding def
  currentdict
end
/Courier-BoldOblique exch definefont pop
/Courier-Bold findfont
dup length dict begin
  {1 index /FID ne {def} {pop pop} ifelse} forall
  /Encoding WinAnsiEncoding def
  currentdict
end
/Courier-Bold exch definefont pop
/Helvetica findfont
dup length dict begin
  {1 index /FID ne {def} {pop pop} ifelse} forall
  /Encoding WinAnsiEncoding def
  currentdict
end
/Helvetica exch definefont pop
/Helvetica-Oblique findfont
dup length dict begin
  {1 index /FID ne {def} {pop pop} ifelse} forall
  /Encoding WinAnsiEncoding def
  currentdict
end
/Helvetica-Oblique exch definefont pop
/Helvetica-Bold findfont
dup length dict begin
  {1 index /FID ne {def} {pop pop} ifelse} forall
  /Encoding WinAnsiEncoding def
  currentdict
end
/Helvetica-Bold exch definefont pop
/Helvetica-BoldOblique findfont
dup length dict begin
  {1 index /FID ne {def} {pop pop} ifelse} forall
  /Encoding WinAnsiEncoding def
  currentdict
end
/Helvetica-BoldOblique exch definefont pop
/Times-Roman findfont
dup length dict begin
  {1 index /FID ne {def} {pop pop} ifelse} forall
  /Encoding WinAnsiEncoding def
  currentdict
end
/Times-Roman exch definefont pop
/Times-Italic findfont
dup length dict begin
  {1 index /FID ne {def} {pop pop} ifelse} forall
  /Encoding WinAnsiEncoding def
  currentdict
end
/Times-Italic exch definefont pop
/Times-Bold findfont
dup length dict begin
  {1 index /FID ne {def} {pop pop} ifelse} forall
  /Encoding WinAnsiEncoding def
  currentdict
end
/Times-Bold exch definefont pop
/Times-BoldItalic findfont
dup length dict begin
  {1 index /FID ne {def} {pop pop} ifelse} forall
  /Encoding WinAnsiEncoding def
  currentdict
end
/Times-BoldItalic exch definefont pop
/Courier findfont
dup length dict begin
  {1 index /FID ne {def} {pop pop} ifelse} forall
  /Encoding WinAnsiEncoding def
  currentdict
end
/Courier exch definefont pop
%FOPEndFontReencode
%%EndProlog
%%Page: 1 1
%%PageBoundingBox: 0 0 750 300
%%BeginPageSetup
[1 0 0 -1 0 300] CT
%%EndPageSetup
GS
[0.75 0 0 0.75 0 0] CT
1 GC
N
0 0 1000 400 re
f
GR
GS
[0.75 0 0 0.75 0 0] CT
1 GC
N
0 0 1000 400 re
f
GR
GS
[0.75 0 0 0.75 0 0] CT
1 GC
N
130 338 M
465 338 L
465 33 L
130 33 L
cp
f
GR
GS
[0.75 0 0 0.75 0 0] CT
0.775 GC
[1 3] 0 setdash
2 LJ
0.667 LW
N
130 338 M
130 33 L
S
GR
GS
[0.75 0 0 0.75 0 0] CT
0.775 GC
[1 3] 0 setdash
2 LJ
0.667 LW
N
143.4 338 M
143.4 33 L
S
GR
GS
[0.75 0 0 0.75 0 0] CT
0.775 GC
[1 3] 0 setdash
2 LJ
0.667 LW
N
156.8 338 M
156.8 33 L
S
GR
GS
[0.75 0 0 0.75 0 0] CT
0.775 GC
[1 3] 0 setdash
2 LJ
0.667 LW
N
170.2 338 M
170.2 33 L
S
GR
GS
[0.75 0 0 0.75 0 0] CT
0.775 GC
[1 3] 0 setdash
2 LJ
0.667 LW
N
183.6 338 M
183.6 33 L
S
GR
GS
[0.75 0 0 0.75 0 0] CT
0.775 GC
[1 3] 0 setdash
2 LJ
0.667 LW
N
197 338 M
197 33 L
S
GR
GS
[0.75 0 0 0.75 0 0] CT
0.775 GC
[1 3] 0 setdash
2 LJ
0.667 LW
N
210.4 338 M
210.4 33 L
S
GR
GS
[0.75 0 0 0.75 0 0] CT
0.775 GC
[1 3] 0 setdash
2 LJ
0.667 LW
N
223.8 338 M
223.8 33 L
S
GR
GS
[0.75 0 0 0.75 0 0] CT
0.775 GC
[1 3] 0 setdash
2 LJ
0.667 LW
N
237.2 338 M
237.2 33 L
S
GR
GS
[0.75 0 0 0.75 0 0] CT
0.775 GC
[1 3] 0 setdash
2 LJ
0.667 LW
N
250.6 338 M
250.6 33 L
S
GR
GS
[0.75 0 0 0.75 0 0] CT
0.775 GC
[1 3] 0 setdash
2 LJ
0.667 LW
N
264 338 M
264 33 L
S
GR
GS
[0.75 0 0 0.75 0 0] CT
0.775 GC
[1 3] 0 setdash
2 LJ
0.667 LW
N
277.4 338 M
277.4 33 L
S
GR
GS
[0.75 0 0 0.75 0 0] CT
0.775 GC
[1 3] 0 setdash
2 LJ
0.667 LW
N
290.8 338 M
290.8 33 L
S
GR
GS
[0.75 0 0 0.75 0 0] CT
0.775 GC
[1 3] 0 setdash
2 LJ
0.667 LW
N
304.2 338 M
304.2 33 L
S
GR
GS
[0.75 0 0 0.75 0 0] CT
0.775 GC
[1 3] 0 setdash
2 LJ
0.667 LW
N
317.6 338 M
317.6 33 L
S
GR
GS
[0.75 0 0 0.75 0 0] CT
0.775 GC
[1 3] 0 setdash
2 LJ
0.667 LW
N
331 338 M
331 33 L
S
GR
GS
[0.75 0 0 0.75 0 0] CT
0.775 GC
[1 3] 0 setdash
2 LJ
0.667 LW
N
344.4 338 M
344.4 33 L
S
GR
GS
[0.75 0 0 0.75 0 0] CT
0.775 GC
[1 3] 0 setdash
2 LJ
0.667 LW
N
357.8 338 M
357.8 33 L
S
GR
GS
[0.75 0 0 0.75 0 0] CT
0.775 GC
[1 3] 0 setdash
2 LJ
0.667 LW
N
371.2 338 M
371.2 33 L
S
GR
GS
[0.75 0 0 0.75 0 0] CT
0.775 GC
[1 3] 0 setdash
2 LJ
0.667 LW
N
384.6 338 M
384.6 33 L
S
GR
GS
[0.75 0 0 0.75 0 0] CT
0.775 GC
[1 3] 0 setdash
2 LJ
0.667 LW
N
398 338 M
398 33 L
S
GR
GS
[0.75 0 0 0.75 0 0] CT
0.775 GC
[1 3] 0 setdash
2 LJ
0.667 LW
N
411.4 338 M
411.4 33 L
S
GR
GS
[0.75 0 0 0.75 0 0] CT
0.775 GC
[1 3] 0 setdash
2 LJ
0.667 LW
N
424.8 338 M
424.8 33 L
S
GR
GS
[0.75 0 0 0.75 0 0] CT
0.775 GC
[1 3] 0 setdash
2 LJ
0.667 LW
N
438.2 338 M
438.2 33 L
S
GR
GS
[0.75 0 0 0.75 0 0] CT
0.775 GC
[1 3] 0 setdash
2 LJ
0.667 LW
N
451.6 338 M
451.6 33 L
S
GR
GS
[0.75 0 0 0.75 0 0] CT
0.775 GC
[1 3] 0 setdash
2 LJ
0.667 LW
N
465 338 M
465 33 L
S
GR
GS
[0.75 0 0 0.75 0 0] CT
0.775 GC
[1 3] 0 setdash
2 LJ
0.667 LW
N
465 338 M
130 338 L
S
GR
GS
[0.75 0 0 0.75 0 0] CT
0.775 GC
[1 3] 0 setdash
2 LJ
0.667 LW
N
465 325.8 M
130 325.8 L
S
GR
GS
[0.75 0 0 0.75 0 0] CT
0.775 GC
[1 3] 0 setdash
2 LJ
0.667 LW
N
465 313.6 M
130 313.6 L
S
GR
GS
[0.75 0 0 0.75 0 0] CT
0.775 GC
[1 3] 0 setdash
2 LJ
0.667 LW
N
465 301.4 M
130 301.4 L
S
GR
GS
[0.75 0 0 0.75 0 0] CT
0.775 GC
[1 3] 0 setdash
2 LJ
0.667 LW
N
465 289.2 M
130 289.2 L
S
GR
GS
[0.75 0 0 0.75 0 0] CT
0.775 GC
[1 3] 0 setdash
2 LJ
0.667 LW
N
465 277 M
130 277 L
S
GR
GS
[0.75 0 0 0.75 0 0] CT
0.775 GC
[1 3] 0 setdash
2 LJ
0.667 LW
N
465 264.8 M
130 264.8 L
S
GR
GS
[0.75 0 0 0.75 0 0] CT
0.775 GC
[1 3] 0 setdash
2 LJ
0.667 LW
N
465 252.6 M
130 252.6 L
S
GR
GS
[0.75 0 0 0.75 0 0] CT
0.775 GC
[1 3] 0 setdash
2 LJ
0.667 LW
N
465 240.4 M
130 240.4 L
S
GR
GS
[0.75 0 0 0.75 0 0] CT
0.775 GC
[1 3] 0 setdash
2 LJ
0.667 LW
N
465 228.2 M
130 228.2 L
S
GR
GS
[0.75 0 0 0.75 0 0] CT
0.775 GC
[1 3] 0 setdash
2 LJ
0.667 LW
N
465 216 M
130 216 L
S
GR
GS
[0.75 0 0 0.75 0 0] CT
0.775 GC
[1 3] 0 setdash
2 LJ
0.667 LW
N
465 203.8 M
130 203.8 L
S
GR
GS
[0.75 0 0 0.75 0 0] CT
0.775 GC
[1 3] 0 setdash
2 LJ
0.667 LW
N
465 191.6 M
130 191.6 L
S
GR
GS
[0.75 0 0 0.75 0 0] CT
0.775 GC
[1 3] 0 setdash
2 LJ
0.667 LW
N
465 179.4 M
130 179.4 L
S
GR
GS
[0.75 0 0 0.75 0 0] CT
0.775 GC
[1 3] 0 setdash
2 LJ
0.667 LW
N
465 167.2 M
130 167.2 L
S
GR
GS
[0.75 0 0 0.75 0 0] CT
0.775 GC
[1 3] 0 setdash
2 LJ
0.667 LW
N
465 155 M
130 155 L
S
GR
GS
[0.75 0 0 0.75 0 0] CT
0.775 GC
[1 3] 0 setdash
2 LJ
0.667 LW
N
465 142.8 M
130 142.8 L
S
GR
GS
[0.75 0 0 0.75 0 0] CT
0.775 GC
[1 3] 0 setdash
2 LJ
0.667 LW
N
465 130.6 M
130 130.6 L
S
GR
GS
[0.75 0 0 0.75 0 0] CT
0.775 GC
[1 3] 0 setdash
2 LJ
0.667 LW
N
465 118.4 M
130 118.4 L
S
GR
GS
[0.75 0 0 0.75 0 0] CT
0.775 GC
[1 3] 0 setdash
2 LJ
0.667 LW
N
465 106.2 M
130 106.2 L
S
GR
GS
[0.75 0 0 0.75 0 0] CT
0.775 GC
[1 3] 0 setdash
2 LJ
0.667 LW
N
465 94 M
130 94 L
S
GR
GS
[0.75 0 0 0.75 0 0] CT
0.775 GC
[1 3] 0 setdash
2 LJ
0.667 LW
N
465 81.8 M
130 81.8 L
S
GR
GS
[0.75 0 0 0.75 0 0] CT
0.775 GC
[1 3] 0 setdash
2 LJ
0.667 LW
N
465 69.6 M
130 69.6 L
S
GR
GS
[0.75 0 0 0.75 0 0] CT
0.775 GC
[1 3] 0 setdash
2 LJ
0.667 LW
N
465 57.4 M
130 57.4 L
S
GR
GS
[0.75 0 0 0.75 0 0] CT
0.775 GC
[1 3] 0 setdash
2 LJ
0.667 LW
N
465 45.2 M
130 45.2 L
S
GR
GS
[0.75 0 0 0.75 0 0] CT
0.775 GC
[1 3] 0 setdash
2 LJ
0.667 LW
N
465 33 M
130 33 L
S
GR
GS
[0.75 0 0 0.75 0 0] CT
0.149 GC
2 setlinecap
1 LJ
0.667 LW
N
130 338 M
465 338 L
S
GR
GS
[0.75 0 0 0.75 0 0] CT
0.149 GC
2 setlinecap
1 LJ
0.667 LW
N
130 33 M
465 33 L
S
GR
GS
[0.75 0 0 0.75 0 0] CT
0.149 GC
2 setlinecap
1 LJ
0.667 LW
N
130 338 M
130 334.65 L
S
GR
GS
[0.75 0 0 0.75 0 0] CT
0.149 GC
2 setlinecap
1 LJ
0.667 LW
N
197 338 M
197 334.65 L
S
GR
GS
[0.75 0 0 0.75 0 0] CT
0.149 GC
2 setlinecap
1 LJ
0.667 LW
N
264 338 M
264 334.65 L
S
GR
GS
[0.75 0 0 0.75 0 0] CT
0.149 GC
2 setlinecap
1 LJ
0.667 LW
N
331 338 M
331 334.65 L
S
GR
GS
[0.75 0 0 0.75 0 0] CT
0.149 GC
2 setlinecap
1 LJ
0.667 LW
N
398 338 M
398 334.65 L
S
GR
GS
[0.75 0 0 0.75 0 0] CT
0.149 GC
2 setlinecap
1 LJ
0.667 LW
N
465 338 M
465 334.65 L
S
GR
GS
[0.75 0 0 0.75 0 0] CT
0.149 GC
2 setlinecap
1 LJ
0.667 LW
N
130 33 M
130 36.35 L
S
GR
GS
[0.75 0 0 0.75 0 0] CT
0.149 GC
2 setlinecap
1 LJ
0.667 LW
N
197 33 M
197 36.35 L
S
GR
GS
[0.75 0 0 0.75 0 0] CT
0.149 GC
2 setlinecap
1 LJ
0.667 LW
N
264 33 M
264 36.35 L
S
GR
GS
[0.75 0 0 0.75 0 0] CT
0.149 GC
2 setlinecap
1 LJ
0.667 LW
N
331 33 M
331 36.35 L
S
GR
GS
[0.75 0 0 0.75 0 0] CT
0.149 GC
2 setlinecap
1 LJ
0.667 LW
N
398 33 M
398 36.35 L
S
GR
GS
[0.75 0 0 0.75 0 0] CT
0.149 GC
2 setlinecap
1 LJ
0.667 LW
N
465 33 M
465 36.35 L
S
GR
GS
[0.75 0 0 0.75 97.5 258.49999] CT
0.149 GC
/Helvetica 20 F
GS
[1 0 0 1 0 0] CT
-6 21 moveto 
1 -1 scale
(0) t 
GR
GR
GS
[0.75 0 0 0.75 147.75 258.49999] CT
0.149 GC
/Helvetica 20 F
GS
[1 0 0 1 0 0] CT
-11.5 21 moveto 
1 -1 scale
(50) t 
GR
GR
GS
[0.75 0 0 0.75 198 258.49999] CT
0.149 GC
/Helvetica 20 F
GS
[1 0 0 1 0 0] CT
-17 21 moveto 
1 -1 scale
(100) t 
GR
GR
GS
[0.75 0 0 0.75 248.25 258.49999] CT
0.149 GC
/Helvetica 20 F
GS
[1 0 0 1 0 0] CT
-17 21 moveto 
1 -1 scale
(150) t 
GR
GR
GS
[0.75 0 0 0.75 298.5 258.49999] CT
0.149 GC
/Helvetica 20 F
GS
[1 0 0 1 0 0] CT
-17 21 moveto 
1 -1 scale
(200) t 
GR
GR
GS
[0.75 0 0 0.75 348.75 258.49999] CT
0.149 GC
/Helvetica 20 F
GS
[1 0 0 1 0 0] CT
-17 21 moveto 
1 -1 scale
(250) t 
GR
GR
GS
[0.75 0 0 0.75 223.12511 279] CT
0.149 GC
/Helvetica 22 F
GS
[1 0 0 1 0 0] CT
-21.5 23 moveto 
1 -1 scale
(date) t 
GR
GR
GS
[0.75 0 0 0.75 0 0] CT
0.149 GC
2 setlinecap
1 LJ
0.667 LW
N
130 338 M
130 33 L
S
GR
GS
[0.75 0 0 0.75 0 0] CT
0.149 GC
2 setlinecap
1 LJ
0.667 LW
N
465 338 M
465 33 L
S
GR
GS
[0.75 0 0 0.75 0 0] CT
0.149 GC
2 setlinecap
1 LJ
0.667 LW
N
130 338 M
133.35 338 L
S
GR
GS
[0.75 0 0 0.75 0 0] CT
0.149 GC
2 setlinecap
1 LJ
0.667 LW
N
130 277 M
133.35 277 L
S
GR
GS
[0.75 0 0 0.75 0 0] CT
0.149 GC
2 setlinecap
1 LJ
0.667 LW
N
130 216 M
133.35 216 L
S
GR
GS
[0.75 0 0 0.75 0 0] CT
0.149 GC
2 setlinecap
1 LJ
0.667 LW
N
130 155 M
133.35 155 L
S
GR
GS
[0.75 0 0 0.75 0 0] CT
0.149 GC
2 setlinecap
1 LJ
0.667 LW
N
130 94 M
133.35 94 L
S
GR
GS
[0.75 0 0 0.75 0 0] CT
0.149 GC
2 setlinecap
1 LJ
0.667 LW
N
130 33 M
133.35 33 L
S
GR
GS
[0.75 0 0 0.75 0 0] CT
0.149 GC
2 setlinecap
1 LJ
0.667 LW
N
465 338 M
461.65 338 L
S
GR
GS
[0.75 0 0 0.75 0 0] CT
0.149 GC
2 setlinecap
1 LJ
0.667 LW
N
465 277 M
461.65 277 L
S
GR
GS
[0.75 0 0 0.75 0 0] CT
0.149 GC
2 setlinecap
1 LJ
0.667 LW
N
465 216 M
461.65 216 L
S
GR
GS
[0.75 0 0 0.75 0 0] CT
0.149 GC
2 setlinecap
1 LJ
0.667 LW
N
465 155 M
461.65 155 L
S
GR
GS
[0.75 0 0 0.75 0 0] CT
0.149 GC
2 setlinecap
1 LJ
0.667 LW
N
465 94 M
461.65 94 L
S
GR
GS
[0.75 0 0 0.75 0 0] CT
0.149 GC
2 setlinecap
1 LJ
0.667 LW
N
465 33 M
461.65 33 L
S
GR
GS
[0.75 0 0 0.75 92.5 253.5] CT
0.149 GC
/Helvetica 20 F
GS
[1 0 0 1 0 0] CT
-12 8 moveto 
1 -1 scale
(0) t 
GR
GR
GS
[0.75 0 0 0.75 92.5 207.75] CT
0.149 GC
/Helvetica 20 F
GS
[1 0 0 1 0 0] CT
-28 8 moveto 
1 -1 scale
(0.1) t 
GR
GR
GS
[0.75 0 0 0.75 92.5 162] CT
0.149 GC
/Helvetica 20 F
GS
[1 0 0 1 0 0] CT
-28 8 moveto 
1 -1 scale
(0.2) t 
GR
GR
GS
[0.75 0 0 0.75 92.5 116.25] CT
0.149 GC
/Helvetica 20 F
GS
[1 0 0 1 0 0] CT
-28 8 moveto 
1 -1 scale
(0.3) t 
GR
GR
GS
[0.75 0 0 0.75 92.5 70.5] CT
0.149 GC
/Helvetica 20 F
GS
[1 0 0 1 0 0] CT
-28 8 moveto 
1 -1 scale
(0.4) t 
GR
GR
GS
[0.75 0 0 0.75 92.5 24.75] CT
0.149 GC
/Helvetica 20 F
GS
[1 0 0 1 0 0] CT
-28 8 moveto 
1 -1 scale
(0.5) t 
GR
GR
GS
[0 -0.75 0.75 0 57 240] CT
0.149 GC
/Helvetica 22 F
GS
[1 0 0 1 0 0] CT
0 0 moveto 
1 -1 scale
(confidence p) t 
GR
GR
GS
[0 -0.75 0.75 0 65.25 146.25] CT
0.149 GC
/Helvetica 17.6 F
GS
[1 0 0 1 0 0] CT
0 0 moveto 
1 -1 scale
(t) t 
GR
GR
GS
[0 -0.75 0.75 0 57 142.5] CT
0.149 GC
/Helvetica 22 F
GS
[1 0 0 1 0 0] CT
0 0 moveto 
1 -1 scale
( in the experts) t 
GR
GR
GS
[0.75 0 0 0.75 223.12521 21.65626] CT
/Helvetica-Bold 22 F
GS
[1 0 0 1 0 0] CT
-127 -5 moveto 
1 -1 scale
(rebalancing strategy AA) t 
GR
GR
GS
[0.75 0 0 0.75 0 0] CT
0 0.447 0.741 RC
1 LJ
2 LW
N
131.34 216 M
132.68 209.447 L
134.02 210.564 L
135.36 219.638 L
136.7 215.884 L
138.04 208.736 L
139.38 215.67 L
140.72 224.223 L
142.06 241.425 L
143.4 221.175 L
144.74 201.736 L
146.08 225.381 L
147.42 261.331 L
148.76 273.142 L
150.1 270.36 L
151.44 246.507 L
152.78 245.123 L
154.12 253.286 L
155.46 259.574 L
156.8 249.655 L
158.14 253.016 L
159.48 257 L
160.82 258.704 L
162.16 255.702 L
163.5 257.275 L
164.84 221.536 L
166.18 178.497 L
167.52 166.734 L
168.86 174.02 L
170.2 199.908 L
171.54 189.161 L
172.88 197.186 L
174.22 201.809 L
175.56 200.806 L
176.9 203.187 L
178.24 208.432 L
179.58 214.929 L
180.92 224.753 L
182.26 222.663 L
183.6 226.141 L
184.94 226.503 L
186.28 225.669 L
187.62 220.029 L
188.96 222.978 L
190.3 224.054 L
191.64 215.383 L
192.98 211.985 L
194.32 213.122 L
195.66 218.239 L
197 217.438 L
198.34 219.949 L
199.68 223.26 L
201.02 219.911 L
202.36 224.511 L
203.7 223.965 L
205.04 219.753 L
206.38 224.397 L
207.72 223.488 L
209.06 210.409 L
210.4 219.772 L
211.74 224.591 L
213.08 226.249 L
214.42 227.429 L
215.76 226.976 L
217.1 226.643 L
218.44 227.25 L
219.78 231.168 L
221.12 230.821 L
222.46 231.543 L
223.8 235.526 L
225.14 239.948 L
226.48 237.705 L
227.82 239.902 L
229.16 249.475 L
230.5 252.488 L
231.84 251.925 L
233.18 253.273 L
234.52 260.539 L
235.86 263.816 L
237.2 263.15 L
238.54 265.153 L
239.88 269.343 L
241.22 270.472 L
242.56 271.863 L
243.9 273.141 L
245.24 272.874 L
246.58 258.393 L
247.92 263.888 L
249.26 265.237 L
250.6 266.769 L
251.94 266.972 L
253.28 264.317 L
254.62 265.875 L
255.96 263.333 L
257.3 263.23 L
258.64 262.358 L
259.98 255.988 L
261.32 244.955 L
262.66 243.119 L
264 243.593 L
265.34 246.411 L
266.68 229.807 L
268.02 223.654 L
269.36 220.344 L
270.7 220.958 L
272.04 219.039 L
273.38 221.846 L
274.72 222.536 L
276.06 225.096 L
277.4 220.08 L
278.74 164.821 L
280.08 128.725 L
281.42 116.392 L
282.76 127.932 L
284.1 140.155 L
285.44 152.077 L
286.78 195.045 L
288.12 160.438 L
289.46 156.034 L
290.8 167.613 L
292.14 163.873 L
293.48 167.358 L
294.82 158.439 L
296.16 126.201 L
297.5 137.457 L
298.84 150.825 L
300.18 139.781 L
301.52 154.115 L
302.86 165.453 L
304.2 170.581 L
305.54 172.248 L
306.88 174.154 L
308.22 177.056 L
309.56 168.342 L
310.9 169.662 L
312.24 175.355 L
313.58 187.823 L
314.92 207.607 L
316.26 200.783 L
317.6 206.59 L
318.94 211.201 L
320.28 221.743 L
321.62 230.865 L
322.96 231.51 L
324.3 220.335 L
325.64 228.972 L
326.98 232.653 L
328.32 230.848 L
329.66 221.974 L
331 194.96 L
332.34 146.985 L
333.68 180.515 L
335.02 187.37 L
336.36 172.101 L
337.7 178.004 L
339.04 180.057 L
340.38 182.109 L
341.72 193.481 L
343.06 201.797 L
344.4 211.036 L
345.74 219.254 L
347.08 220.091 L
348.42 224.896 L
349.76 221.894 L
351.1 235.695 L
352.44 243.111 L
353.78 238.477 L
355.12 235.999 L
356.46 239.447 L
357.8 235.589 L
359.14 231.814 L
360.48 211.634 L
361.82 221.386 L
363.16 220.476 L
364.5 221.976 L
365.84 220.996 L
367.18 221.678 L
368.52 226.572 L
369.86 229.387 L
371.2 236.743 L
372.54 235.355 L
373.88 229.449 L
375.22 231.308 L
376.56 235.763 L
377.9 234.681 L
379.24 236.599 L
380.58 235.158 L
381.92 234.613 L
383.26 235.184 L
384.6 237.407 L
385.94 237.175 L
387.28 237.449 L
388.62 237.949 L
389.96 239.965 L
391.3 238.555 L
392.64 239.519 L
393.98 237.288 L
395.32 245.553 L
396.66 247.686 L
398 245.59 L
399.34 228.202 L
400.68 235.489 L
402.02 240.411 L
403.36 238.317 L
404.7 240.397 L
406.04 241.093 L
407.38 244.645 L
408.72 246.533 L
410.06 237.25 L
411.4 240.496 L
412.74 239.021 L
414.08 239.074 L
415.42 244.661 L
S
GR
GS
[0.75 0 0 0.75 0 0] CT
0.851 0.325 0.098 RC
1 LJ
2 LW
N
131.34 216 M
132.68 216.431 L
134.02 215.928 L
135.36 214.189 L
136.7 209.956 L
138.04 202.718 L
139.38 206.866 L
140.72 200.705 L
142.06 195.336 L
143.4 211.58 L
144.74 214.555 L
146.08 206.741 L
147.42 193.874 L
148.76 188.259 L
150.1 188.958 L
151.44 191.706 L
152.78 198.916 L
154.12 197.041 L
155.46 192.622 L
156.8 189.357 L
158.14 180.493 L
159.48 170.534 L
160.82 163.704 L
162.16 163.2 L
163.5 159.962 L
164.84 172.279 L
166.18 192.55 L
167.52 194 L
168.86 195.753 L
170.2 198.581 L
171.54 204.359 L
172.88 205.884 L
174.22 195.815 L
175.56 196.462 L
176.9 196.047 L
178.24 199.636 L
179.58 201.132 L
180.92 196.121 L
182.26 199.516 L
183.6 202.678 L
184.94 205.374 L
186.28 202.89 L
187.62 203.349 L
188.96 195.484 L
190.3 198.733 L
191.64 204.378 L
192.98 203.682 L
194.32 200.993 L
195.66 198.145 L
197 197.985 L
198.34 199.817 L
199.68 197.519 L
201.02 200.272 L
202.36 190.423 L
203.7 190.007 L
205.04 190.694 L
206.38 191.342 L
207.72 191.075 L
209.06 194.482 L
210.4 191.249 L
211.74 188.341 L
213.08 190.129 L
214.42 189.956 L
215.76 191.082 L
217.1 189.638 L
218.44 190.399 L
219.78 189.544 L
221.12 186.842 L
222.46 184.495 L
223.8 182.53 L
225.14 180.653 L
226.48 179.159 L
227.82 179.474 L
229.16 179.985 L
230.5 180.602 L
231.84 181.214 L
233.18 180.723 L
234.52 180.12 L
235.86 167.529 L
237.2 169.622 L
238.54 169.09 L
239.88 157.372 L
241.22 158.536 L
242.56 156.769 L
243.9 161.1 L
245.24 158.141 L
246.58 156.396 L
247.92 153.191 L
249.26 148.048 L
250.6 140.164 L
251.94 137.571 L
253.28 136.059 L
254.62 132.973 L
255.96 147.026 L
257.3 142.145 L
258.64 138.206 L
259.98 142.872 L
261.32 146.716 L
262.66 142.543 L
264 142.661 L
265.34 133.866 L
266.68 129.728 L
268.02 129.48 L
269.36 132.836 L
270.7 127.391 L
272.04 126.634 L
273.38 133.23 L
274.72 135.508 L
276.06 133.305 L
277.4 143.233 L
278.74 165.889 L
280.08 187.843 L
281.42 194.373 L
282.76 184.043 L
284.1 182.047 L
285.44 168.285 L
286.78 149.011 L
288.12 163.322 L
289.46 167.06 L
290.8 161.257 L
292.14 163.225 L
293.48 160.969 L
294.82 165.975 L
296.16 185.029 L
297.5 186.103 L
298.84 179.577 L
300.18 176.797 L
301.52 169.667 L
302.86 168.184 L
304.2 153.803 L
305.54 153.359 L
306.88 152.005 L
308.22 150.092 L
309.56 151.695 L
310.9 149.742 L
312.24 142.766 L
313.58 110.96 L
314.92 72.703 L
316.26 103.079 L
317.6 124.007 L
318.94 113.921 L
320.28 128.725 L
321.62 163.228 L
322.96 173.577 L
324.3 188.037 L
325.64 177.125 L
326.98 165.551 L
328.32 171.444 L
329.66 185.265 L
331 200.904 L
332.34 215.544 L
333.68 222.763 L
335.02 221.119 L
336.36 224.735 L
337.7 221.895 L
339.04 224.57 L
340.38 215.87 L
341.72 218.161 L
343.06 220.739 L
344.4 236.737 L
345.74 240.745 L
347.08 238.31 L
348.42 241.935 L
349.76 240.93 L
351.1 247.815 L
352.44 245.856 L
353.78 236.463 L
355.12 240.946 L
356.46 249.848 L
357.8 240.939 L
359.14 239.963 L
360.48 239.138 L
361.82 241.964 L
363.16 243.164 L
364.5 244.135 L
365.84 242.528 L
367.18 236.735 L
368.52 228.695 L
369.86 232.831 L
371.2 237.943 L
372.54 236.145 L
373.88 233.76 L
375.22 232.615 L
376.56 233.759 L
377.9 233.232 L
379.24 231.691 L
380.58 231.324 L
381.92 229.061 L
383.26 228.736 L
384.6 235.287 L
385.94 234.024 L
387.28 233.459 L
388.62 233.953 L
389.96 231.273 L
391.3 226.467 L
392.64 230.58 L
393.98 229.788 L
395.32 228.385 L
396.66 229.288 L
398 226.778 L
399.34 231.119 L
400.68 234.736 L
402.02 236.761 L
403.36 237.312 L
404.7 235.34 L
406.04 235.682 L
407.38 239.567 L
408.72 235.751 L
410.06 237.51 L
411.4 232.341 L
412.74 231.778 L
414.08 228.541 L
415.42 224.501 L
S
GR
GS
[0.75 0 0 0.75 0 0] CT
0.929 0.694 0.125 RC
1 LJ
2 LW
N
131.34 216 M
132.68 218.171 L
134.02 219.651 L
135.36 217.366 L
136.7 219.673 L
138.04 225.61 L
139.38 218.393 L
140.72 218.869 L
142.06 215.766 L
143.4 210.554 L
144.74 216.959 L
146.08 210.565 L
147.42 203.843 L
148.76 195.312 L
150.1 191.421 L
151.44 197.167 L
152.78 192.154 L
154.12 187.14 L
155.46 184.269 L
156.8 186.031 L
158.14 185.821 L
159.48 189.918 L
160.82 191.86 L
162.16 191.612 L
163.5 189.413 L
164.84 198.632 L
166.18 213.13 L
167.52 214.57 L
168.86 211.244 L
170.2 202.609 L
171.54 214.024 L
172.88 215.895 L
174.22 208.935 L
175.56 208.139 L
176.9 206.411 L
178.24 205.285 L
179.58 206.766 L
180.92 199.214 L
182.26 199.261 L
183.6 204.828 L
184.94 210.973 L
186.28 213.562 L
187.62 214.63 L
188.96 218.006 L
190.3 217.646 L
191.64 220.566 L
192.98 221.757 L
194.32 221.917 L
195.66 220.268 L
197 219.504 L
198.34 219.812 L
199.68 218.222 L
201.02 219.213 L
202.36 217.087 L
203.7 214.863 L
205.04 216.947 L
206.38 213.475 L
207.72 209.815 L
209.06 213.042 L
210.4 209.178 L
211.74 209.211 L
213.08 207.917 L
214.42 203.006 L
215.76 201.826 L
217.1 204.509 L
218.44 206.284 L
219.78 207.118 L
221.12 207.11 L
222.46 208.128 L
223.8 207.465 L
225.14 207.459 L
226.48 208.502 L
227.82 208.237 L
229.16 205.87 L
230.5 207.992 L
231.84 204.236 L
233.18 204.43 L
234.52 210.296 L
235.86 209.622 L
237.2 210.408 L
238.54 209.666 L
239.88 216.123 L
241.22 207.908 L
242.56 210.459 L
243.9 211.28 L
245.24 211.449 L
246.58 213.866 L
247.92 212.442 L
249.26 214.117 L
250.6 217.099 L
251.94 217.458 L
253.28 218.005 L
254.62 218.118 L
255.96 213.427 L
257.3 215.388 L
258.64 216.756 L
259.98 216.687 L
261.32 218.952 L
262.66 220.903 L
264 219.504 L
265.34 221.35 L
266.68 229.52 L
268.02 235.682 L
269.36 232.846 L
270.7 234.381 L
272.04 235.846 L
273.38 232.687 L
274.72 237.08 L
276.06 235.516 L
277.4 232.28 L
278.74 243.958 L
280.08 248.188 L
281.42 248.185 L
282.76 248.17 L
284.1 242.113 L
285.44 244.545 L
286.78 241.993 L
288.12 246.987 L
289.46 245.827 L
290.8 243.817 L
292.14 243.552 L
293.48 242.478 L
294.82 242.128 L
296.16 243.682 L
297.5 232.385 L
298.84 236.458 L
300.18 239.598 L
301.52 238.48 L
302.86 241.525 L
304.2 241.769 L
305.54 240.517 L
306.88 242.462 L
308.22 242.976 L
309.56 245.378 L
310.9 246.24 L
312.24 246.281 L
313.58 255.723 L
314.92 260.196 L
316.26 259.869 L
317.6 257.33 L
318.94 260.611 L
320.28 261.082 L
321.62 259.001 L
322.96 252.9 L
324.3 261.875 L
325.64 262.855 L
326.98 263.589 L
328.32 262.293 L
329.66 261.27 L
331 260.946 L
332.34 265.092 L
333.68 265.649 L
335.02 269.088 L
336.36 271.014 L
337.7 268.065 L
339.04 263.162 L
340.38 267.064 L
341.72 268.252 L
343.06 266.501 L
344.4 275.081 L
345.74 272.918 L
347.08 273.605 L
348.42 272.326 L
349.76 268.754 L
351.1 268.98 L
352.44 267.981 L
353.78 267.764 L
355.12 268.296 L
356.46 263.45 L
357.8 249.2 L
359.14 232.502 L
360.48 237.803 L
361.82 238.02 L
363.16 233.634 L
364.5 227.701 L
365.84 223.504 L
367.18 223.604 L
368.52 216.877 L
369.86 222.795 L
371.2 228.808 L
372.54 227.816 L
373.88 225.196 L
375.22 222.775 L
376.56 222.391 L
377.9 223.118 L
379.24 218.261 L
380.58 217.095 L
381.92 213.659 L
383.26 210.235 L
384.6 206.785 L
385.94 206.49 L
387.28 204.109 L
388.62 200.435 L
389.96 192.192 L
391.3 198.231 L
392.64 201.61 L
393.98 206.133 L
395.32 205.079 L
396.66 203.629 L
398 204.491 L
399.34 210.211 L
400.68 211.762 L
402.02 215.914 L
403.36 216.079 L
404.7 217.273 L
406.04 216.453 L
407.38 222.298 L
408.72 224.123 L
410.06 225.962 L
411.4 226.078 L
412.74 225.608 L
414.08 226.78 L
415.42 230.313 L
S
GR
GS
[0.75 0 0 0.75 0 0] CT
0.494 0.184 0.557 RC
1 LJ
2 LW
N
131.34 216 M
132.68 216.553 L
134.02 213.979 L
135.36 209.904 L
136.7 212.849 L
138.04 216.8 L
139.38 215.439 L
140.72 213.271 L
142.06 205.725 L
143.4 213.955 L
144.74 219.104 L
146.08 213.7 L
147.42 203.992 L
148.76 204.324 L
150.1 208.393 L
151.44 215.116 L
152.78 215.441 L
154.12 212.53 L
155.46 214.106 L
156.8 219.155 L
158.14 221.34 L
159.48 221.285 L
160.82 223.624 L
162.16 225.815 L
163.5 226.703 L
164.84 233.897 L
166.18 235.573 L
167.52 241.224 L
168.86 238.305 L
170.2 234.497 L
171.54 243.62 L
172.88 232.986 L
174.22 235.977 L
175.56 235.313 L
176.9 233.406 L
178.24 218.35 L
179.58 217.315 L
180.92 216.707 L
182.26 217.373 L
183.6 211.304 L
184.94 193.448 L
186.28 193.504 L
187.62 198.095 L
188.96 202.053 L
190.3 197.419 L
191.64 193.702 L
192.98 195.987 L
194.32 201.894 L
195.66 202.626 L
197 208.342 L
198.34 202.1 L
199.68 202.636 L
201.02 202.3 L
202.36 217.471 L
203.7 216.45 L
205.04 216.471 L
206.38 215 L
207.72 213.628 L
209.06 218.267 L
210.4 217.558 L
211.74 218.949 L
213.08 216.625 L
214.42 218.81 L
215.76 220.277 L
217.1 217.211 L
218.44 216.86 L
219.78 214.742 L
221.12 216.633 L
222.46 217.762 L
223.8 215.557 L
225.14 217.237 L
226.48 218.835 L
227.82 218.884 L
229.16 218.994 L
230.5 221.563 L
231.84 222.141 L
233.18 222.237 L
234.52 225.233 L
235.86 226.958 L
237.2 227.328 L
238.54 227.633 L
239.88 214.473 L
241.22 220.961 L
242.56 214.845 L
243.9 211.601 L
245.24 212.206 L
246.58 218.584 L
247.92 213.593 L
249.26 214.812 L
250.6 214.961 L
251.94 218.152 L
253.28 219.677 L
254.62 220.336 L
255.96 218.168 L
257.3 218.777 L
258.64 221.124 L
259.98 222.265 L
261.32 225.315 L
262.66 225.592 L
264 226.654 L
265.34 228.97 L
266.68 236.575 L
268.02 238.071 L
269.36 238.902 L
270.7 240.662 L
272.04 241.187 L
273.38 238.312 L
274.72 230.332 L
276.06 231.602 L
277.4 229.41 L
278.74 242.497 L
280.08 246.815 L
281.42 249.729 L
282.76 248.694 L
284.1 246.712 L
285.44 246.249 L
286.78 232.276 L
288.12 243.119 L
289.46 243.303 L
290.8 240.431 L
292.14 242.578 L
293.48 242.814 L
294.82 245.146 L
296.16 251.656 L
297.5 249.078 L
298.84 238.808 L
300.18 245.999 L
301.52 240.679 L
302.86 237.533 L
304.2 239.224 L
305.54 239.238 L
306.88 234.034 L
308.22 232.558 L
309.56 234.753 L
310.9 233.678 L
312.24 234.036 L
313.58 239.207 L
314.92 247.723 L
316.26 228.305 L
317.6 202.367 L
318.94 204.434 L
320.28 173.983 L
321.62 141.38 L
322.96 150.089 L
324.3 181.282 L
325.64 169.217 L
326.98 174.132 L
328.32 166.133 L
329.66 160.557 L
331 170.609 L
332.34 194.386 L
333.68 194.542 L
335.02 199.267 L
336.36 200.348 L
337.7 195.41 L
339.04 200.994 L
340.38 203.318 L
341.72 210.383 L
343.06 213.661 L
344.4 232.885 L
345.74 236.114 L
347.08 236.713 L
348.42 238.166 L
349.76 235.342 L
351.1 247.788 L
352.44 249.645 L
353.78 248.011 L
355.12 236.272 L
356.46 242.371 L
357.8 236.592 L
359.14 235.169 L
360.48 235.497 L
361.82 236.173 L
363.16 238.431 L
364.5 233.011 L
365.84 235.463 L
367.18 232.302 L
368.52 226.98 L
369.86 229.352 L
371.2 233.797 L
372.54 233.071 L
373.88 232.324 L
375.22 230.796 L
376.56 231.624 L
377.9 231.782 L
379.24 233.613 L
380.58 232.158 L
381.92 231.2 L
383.26 230.942 L
384.6 233.302 L
385.94 234.382 L
387.28 232.051 L
388.62 234.954 L
389.96 235.372 L
391.3 235.171 L
392.64 221.731 L
393.98 218.069 L
395.32 215.597 L
396.66 213.766 L
398 213.017 L
399.34 218.226 L
400.68 217.917 L
402.02 224.784 L
403.36 223.652 L
404.7 222.851 L
406.04 220.343 L
407.38 200.926 L
408.72 197.497 L
410.06 197.971 L
411.4 202.794 L
412.74 203.414 L
414.08 203.21 L
415.42 194.383 L
S
GR
GS
[0.75 0 0 0.75 0 0] CT
0.467 0.675 0.188 RC
1 LJ
2 LW
N
131.34 216 M
132.68 219.398 L
134.02 219.879 L
135.36 218.903 L
136.7 221.638 L
138.04 226.136 L
139.38 223.633 L
140.72 222.932 L
142.06 221.747 L
143.4 222.736 L
144.74 227.646 L
146.08 223.614 L
147.42 216.96 L
148.76 218.962 L
150.1 220.868 L
151.44 229.504 L
152.78 228.366 L
154.12 230.003 L
155.46 229.429 L
156.8 235.803 L
158.14 239.33 L
159.48 241.263 L
160.82 242.109 L
162.16 243.67 L
163.5 246.647 L
164.84 253.656 L
166.18 260.251 L
167.52 263.472 L
168.86 260.678 L
170.2 244.405 L
171.54 228.836 L
172.88 228.048 L
174.22 237.464 L
175.56 239.279 L
176.9 240.95 L
178.24 248.296 L
179.58 239.857 L
180.92 243.205 L
182.26 241.186 L
183.6 235.049 L
184.94 243.704 L
186.28 244.375 L
187.62 243.897 L
188.96 241.479 L
190.3 242.148 L
191.64 245.972 L
192.98 246.589 L
194.32 242.073 L
195.66 240.722 L
197 236.732 L
198.34 238.322 L
199.68 238.363 L
201.02 238.303 L
202.36 230.508 L
203.7 234.715 L
205.04 236.135 L
206.38 235.786 L
207.72 241.994 L
209.06 243.801 L
210.4 242.242 L
211.74 238.908 L
213.08 239.081 L
214.42 240.799 L
215.76 239.839 L
217.1 242 L
218.44 239.206 L
219.78 237.428 L
221.12 238.594 L
222.46 238.071 L
223.8 238.922 L
225.14 234.703 L
226.48 235.799 L
227.82 233.502 L
229.16 225.677 L
230.5 217.355 L
231.84 220.484 L
233.18 219.336 L
234.52 203.812 L
235.86 212.076 L
237.2 209.491 L
238.54 208.457 L
239.88 222.688 L
241.22 222.123 L
242.56 226.065 L
243.9 222.878 L
245.24 225.33 L
246.58 232.76 L
247.92 236.886 L
249.26 237.787 L
250.6 241.007 L
251.94 239.847 L
253.28 241.942 L
254.62 242.698 L
255.96 238.046 L
257.3 240.46 L
258.64 241.556 L
259.98 242.188 L
261.32 244.063 L
262.66 247.842 L
264 247.587 L
265.34 249.403 L
266.68 254.371 L
268.02 253.113 L
269.36 255.072 L
270.7 256.608 L
272.04 257.295 L
273.38 253.925 L
274.72 254.544 L
276.06 254.482 L
277.4 254.996 L
278.74 262.834 L
280.08 268.43 L
281.42 271.321 L
282.76 271.16 L
284.1 268.972 L
285.44 268.845 L
286.78 261.676 L
288.12 266.133 L
289.46 267.776 L
290.8 266.882 L
292.14 266.772 L
293.48 266.381 L
294.82 268.312 L
296.16 273.432 L
297.5 274.978 L
298.84 274.332 L
300.18 277.826 L
301.52 277.06 L
302.86 267.305 L
304.2 274.623 L
305.54 274.639 L
306.88 277.345 L
308.22 277.318 L
309.56 279.833 L
310.9 280.678 L
312.24 281.561 L
313.58 286.288 L
314.92 291.772 L
316.26 287.963 L
317.6 289.706 L
318.94 289.834 L
320.28 294.467 L
321.62 285.527 L
322.96 271.924 L
324.3 228.471 L
325.64 241.831 L
326.98 244.075 L
328.32 249.282 L
329.66 250.934 L
331 252.581 L
332.34 257.992 L
333.68 216.531 L
335.02 203.155 L
336.36 211.802 L
337.7 216.626 L
339.04 211.218 L
340.38 211.639 L
341.72 189.722 L
343.06 177.303 L
344.4 124.26 L
345.74 110.969 L
347.08 111.281 L
348.42 102.677 L
349.76 113.08 L
351.1 79.723 L
352.44 73.407 L
353.78 89.286 L
355.12 98.487 L
356.46 84.885 L
357.8 117.68 L
359.14 140.551 L
360.48 155.929 L
361.82 142.458 L
363.16 144.295 L
364.5 153.177 L
365.84 157.509 L
367.18 165.682 L
368.52 180.875 L
369.86 165.636 L
371.2 142.709 L
372.54 147.612 L
373.88 159.272 L
375.22 162.507 L
376.56 156.463 L
377.9 157.187 L
379.24 159.837 L
380.58 164.265 L
381.92 171.467 L
383.26 174.903 L
384.6 167.219 L
385.94 167.929 L
387.28 172.932 L
388.62 172.708 L
389.96 181.197 L
391.3 181.575 L
392.64 186.561 L
393.98 188.722 L
395.32 185.385 L
396.66 185.631 L
398 190.124 L
399.34 192.243 L
400.68 180.096 L
402.02 162.13 L
403.36 164.639 L
404.7 164.139 L
406.04 166.43 L
407.38 172.564 L
408.72 176.097 L
410.06 181.307 L
411.4 178.29 L
412.74 180.178 L
414.08 182.395 L
415.42 186.142 L
S
GR
GS
[0.75 0 0 0.75 0 0] CT
1 GC
N
452 167 M
452 46 L
362 46 L
362 167 L
cp
f
GR
GS
[0.75 0 0 0.75 306.75 44.625] CT
/Helvetica 18 F
GS
[1 0 0 1 0 0] CT
0 7.5 moveto 
1 -1 scale
(BCH) t 
GR
GR
GS
[0.75 0 0 0.75 0 0] CT
0 0.447 0.741 RC
1 LJ
2 LW
N
366 59.5 M
406 59.5 L
S
GR
GS
[0.75 0 0 0.75 306.75 62.25] CT
/Helvetica 18 F
GS
[1 0 0 1 0 0] CT
0 7.5 moveto 
1 -1 scale
(BTC) t 
GR
GR
GS
[0.75 0 0 0.75 0 0] CT
0.851 0.325 0.098 RC
1 LJ
2 LW
N
366 83 M
406 83 L
S
GR
GS
[0.75 0 0 0.75 306.75 79.875] CT
/Helvetica 18 F
GS
[1 0 0 1 0 0] CT
0 7.5 moveto 
1 -1 scale
(ETH) t 
GR
GR
GS
[0.75 0 0 0.75 0 0] CT
0.929 0.694 0.125 RC
1 LJ
2 LW
N
366 106.5 M
406 106.5 L
S
GR
GS
[0.75 0 0 0.75 306.75 97.5] CT
/Helvetica 18 F
GS
[1 0 0 1 0 0] CT
0 7.5 moveto 
1 -1 scale
(LTC) t 
GR
GR
GS
[0.75 0 0 0.75 0 0] CT
0.494 0.184 0.557 RC
1 LJ
2 LW
N
366 130 M
406 130 L
S
GR
GS
[0.75 0 0 0.75 306.75 115.125] CT
/Helvetica 18 F
GS
[1 0 0 1 0 0] CT
0 7.5 moveto 
1 -1 scale
(XRP) t 
GR
GR
GS
[0.75 0 0 0.75 0 0] CT
0.467 0.675 0.188 RC
1 LJ
2 LW
N
366 153.5 M
406 153.5 L
S
GR
GS
[0.75 0 0 0.75 0 0] CT
0.149 GC
10.0 ML
0.667 LW
N
362 167 M
362 46 L
452 46 L
452 167 L
cp
S
GR
GS
[0.75 0 0 0.75 0 0] CT
1 GC
N
570 338 M
905 338 L
905 33 L
570 33 L
cp
f
GR
GS
[0.75 0 0 0.75 0 0] CT
0.775 GC
[1 3] 0 setdash
2 LJ
0.667 LW
N
570 338 M
570 33 L
S
GR
GS
[0.75 0 0 0.75 0 0] CT
0.775 GC
[1 3] 0 setdash
2 LJ
0.667 LW
N
583.4 338 M
583.4 33 L
S
GR
GS
[0.75 0 0 0.75 0 0] CT
0.775 GC
[1 3] 0 setdash
2 LJ
0.667 LW
N
596.8 338 M
596.8 33 L
S
GR
GS
[0.75 0 0 0.75 0 0] CT
0.775 GC
[1 3] 0 setdash
2 LJ
0.667 LW
N
610.2 338 M
610.2 33 L
S
GR
GS
[0.75 0 0 0.75 0 0] CT
0.775 GC
[1 3] 0 setdash
2 LJ
0.667 LW
N
623.6 338 M
623.6 33 L
S
GR
GS
[0.75 0 0 0.75 0 0] CT
0.775 GC
[1 3] 0 setdash
2 LJ
0.667 LW
N
637 338 M
637 33 L
S
GR
GS
[0.75 0 0 0.75 0 0] CT
0.775 GC
[1 3] 0 setdash
2 LJ
0.667 LW
N
650.4 338 M
650.4 33 L
S
GR
GS
[0.75 0 0 0.75 0 0] CT
0.775 GC
[1 3] 0 setdash
2 LJ
0.667 LW
N
663.8 338 M
663.8 33 L
S
GR
GS
[0.75 0 0 0.75 0 0] CT
0.775 GC
[1 3] 0 setdash
2 LJ
0.667 LW
N
677.2 338 M
677.2 33 L
S
GR
GS
[0.75 0 0 0.75 0 0] CT
0.775 GC
[1 3] 0 setdash
2 LJ
0.667 LW
N
690.6 338 M
690.6 33 L
S
GR
GS
[0.75 0 0 0.75 0 0] CT
0.775 GC
[1 3] 0 setdash
2 LJ
0.667 LW
N
704 338 M
704 33 L
S
GR
GS
[0.75 0 0 0.75 0 0] CT
0.775 GC
[1 3] 0 setdash
2 LJ
0.667 LW
N
717.4 338 M
717.4 33 L
S
GR
GS
[0.75 0 0 0.75 0 0] CT
0.775 GC
[1 3] 0 setdash
2 LJ
0.667 LW
N
730.8 338 M
730.8 33 L
S
GR
GS
[0.75 0 0 0.75 0 0] CT
0.775 GC
[1 3] 0 setdash
2 LJ
0.667 LW
N
744.2 338 M
744.2 33 L
S
GR
GS
[0.75 0 0 0.75 0 0] CT
0.775 GC
[1 3] 0 setdash
2 LJ
0.667 LW
N
757.6 338 M
757.6 33 L
S
GR
GS
[0.75 0 0 0.75 0 0] CT
0.775 GC
[1 3] 0 setdash
2 LJ
0.667 LW
N
771 338 M
771 33 L
S
GR
GS
[0.75 0 0 0.75 0 0] CT
0.775 GC
[1 3] 0 setdash
2 LJ
0.667 LW
N
784.4 338 M
784.4 33 L
S
GR
GS
[0.75 0 0 0.75 0 0] CT
0.775 GC
[1 3] 0 setdash
2 LJ
0.667 LW
N
797.8 338 M
797.8 33 L
S
GR
GS
[0.75 0 0 0.75 0 0] CT
0.775 GC
[1 3] 0 setdash
2 LJ
0.667 LW
N
811.2 338 M
811.2 33 L
S
GR
GS
[0.75 0 0 0.75 0 0] CT
0.775 GC
[1 3] 0 setdash
2 LJ
0.667 LW
N
824.6 338 M
824.6 33 L
S
GR
GS
[0.75 0 0 0.75 0 0] CT
0.775 GC
[1 3] 0 setdash
2 LJ
0.667 LW
N
838 338 M
838 33 L
S
GR
GS
[0.75 0 0 0.75 0 0] CT
0.775 GC
[1 3] 0 setdash
2 LJ
0.667 LW
N
851.4 338 M
851.4 33 L
S
GR
GS
[0.75 0 0 0.75 0 0] CT
0.775 GC
[1 3] 0 setdash
2 LJ
0.667 LW
N
864.8 338 M
864.8 33 L
S
GR
GS
[0.75 0 0 0.75 0 0] CT
0.775 GC
[1 3] 0 setdash
2 LJ
0.667 LW
N
878.2 338 M
878.2 33 L
S
GR
GS
[0.75 0 0 0.75 0 0] CT
0.775 GC
[1 3] 0 setdash
2 LJ
0.667 LW
N
891.6 338 M
891.6 33 L
S
GR
GS
[0.75 0 0 0.75 0 0] CT
0.775 GC
[1 3] 0 setdash
2 LJ
0.667 LW
N
905 338 M
905 33 L
S
GR
GS
[0.75 0 0 0.75 0 0] CT
0.775 GC
[1 3] 0 setdash
2 LJ
0.667 LW
N
905 338 M
570 338 L
S
GR
GS
[0.75 0 0 0.75 0 0] CT
0.775 GC
[1 3] 0 setdash
2 LJ
0.667 LW
N
905 322.75 M
570 322.75 L
S
GR
GS
[0.75 0 0 0.75 0 0] CT
0.775 GC
[1 3] 0 setdash
2 LJ
0.667 LW
N
905 307.5 M
570 307.5 L
S
GR
GS
[0.75 0 0 0.75 0 0] CT
0.775 GC
[1 3] 0 setdash
2 LJ
0.667 LW
N
905 292.25 M
570 292.25 L
S
GR
GS
[0.75 0 0 0.75 0 0] CT
0.775 GC
[1 3] 0 setdash
2 LJ
0.667 LW
N
905 277 M
570 277 L
S
GR
GS
[0.75 0 0 0.75 0 0] CT
0.775 GC
[1 3] 0 setdash
2 LJ
0.667 LW
N
905 261.75 M
570 261.75 L
S
GR
GS
[0.75 0 0 0.75 0 0] CT
0.775 GC
[1 3] 0 setdash
2 LJ
0.667 LW
N
905 246.5 M
570 246.5 L
S
GR
GS
[0.75 0 0 0.75 0 0] CT
0.775 GC
[1 3] 0 setdash
2 LJ
0.667 LW
N
905 231.25 M
570 231.25 L
S
GR
GS
[0.75 0 0 0.75 0 0] CT
0.775 GC
[1 3] 0 setdash
2 LJ
0.667 LW
N
905 216 M
570 216 L
S
GR
GS
[0.75 0 0 0.75 0 0] CT
0.775 GC
[1 3] 0 setdash
2 LJ
0.667 LW
N
905 200.75 M
570 200.75 L
S
GR
GS
[0.75 0 0 0.75 0 0] CT
0.775 GC
[1 3] 0 setdash
2 LJ
0.667 LW
N
905 185.5 M
570 185.5 L
S
GR
GS
[0.75 0 0 0.75 0 0] CT
0.775 GC
[1 3] 0 setdash
2 LJ
0.667 LW
N
905 170.25 M
570 170.25 L
S
GR
GS
[0.75 0 0 0.75 0 0] CT
0.775 GC
[1 3] 0 setdash
2 LJ
0.667 LW
N
905 155 M
570 155 L
S
GR
GS
[0.75 0 0 0.75 0 0] CT
0.775 GC
[1 3] 0 setdash
2 LJ
0.667 LW
N
905 139.75 M
570 139.75 L
S
GR
GS
[0.75 0 0 0.75 0 0] CT
0.775 GC
[1 3] 0 setdash
2 LJ
0.667 LW
N
905 124.5 M
570 124.5 L
S
GR
GS
[0.75 0 0 0.75 0 0] CT
0.775 GC
[1 3] 0 setdash
2 LJ
0.667 LW
N
905 109.25 M
570 109.25 L
S
GR
GS
[0.75 0 0 0.75 0 0] CT
0.775 GC
[1 3] 0 setdash
2 LJ
0.667 LW
N
905 94 M
570 94 L
S
GR
GS
[0.75 0 0 0.75 0 0] CT
0.775 GC
[1 3] 0 setdash
2 LJ
0.667 LW
N
905 78.75 M
570 78.75 L
S
GR
GS
[0.75 0 0 0.75 0 0] CT
0.775 GC
[1 3] 0 setdash
2 LJ
0.667 LW
N
905 63.5 M
570 63.5 L
S
GR
GS
[0.75 0 0 0.75 0 0] CT
0.775 GC
[1 3] 0 setdash
2 LJ
0.667 LW
N
905 48.25 M
570 48.25 L
S
GR
GS
[0.75 0 0 0.75 0 0] CT
0.775 GC
[1 3] 0 setdash
2 LJ
0.667 LW
N
905 33 M
570 33 L
S
GR
GS
[0.75 0 0 0.75 0 0] CT
0.149 GC
2 setlinecap
1 LJ
0.667 LW
N
570 338 M
905 338 L
S
GR
GS
[0.75 0 0 0.75 0 0] CT
0.149 GC
2 setlinecap
1 LJ
0.667 LW
N
570 33 M
905 33 L
S
GR
GS
[0.75 0 0 0.75 0 0] CT
0.149 GC
2 setlinecap
1 LJ
0.667 LW
N
570 338 M
570 334.65 L
S
GR
GS
[0.75 0 0 0.75 0 0] CT
0.149 GC
2 setlinecap
1 LJ
0.667 LW
N
637 338 M
637 334.65 L
S
GR
GS
[0.75 0 0 0.75 0 0] CT
0.149 GC
2 setlinecap
1 LJ
0.667 LW
N
704 338 M
704 334.65 L
S
GR
GS
[0.75 0 0 0.75 0 0] CT
0.149 GC
2 setlinecap
1 LJ
0.667 LW
N
771 338 M
771 334.65 L
S
GR
GS
[0.75 0 0 0.75 0 0] CT
0.149 GC
2 setlinecap
1 LJ
0.667 LW
N
838 338 M
838 334.65 L
S
GR
GS
[0.75 0 0 0.75 0 0] CT
0.149 GC
2 setlinecap
1 LJ
0.667 LW
N
905 338 M
905 334.65 L
S
GR
GS
[0.75 0 0 0.75 0 0] CT
0.149 GC
2 setlinecap
1 LJ
0.667 LW
N
570 33 M
570 36.35 L
S
GR
GS
[0.75 0 0 0.75 0 0] CT
0.149 GC
2 setlinecap
1 LJ
0.667 LW
N
637 33 M
637 36.35 L
S
GR
GS
[0.75 0 0 0.75 0 0] CT
0.149 GC
2 setlinecap
1 LJ
0.667 LW
N
704 33 M
704 36.35 L
S
GR
GS
[0.75 0 0 0.75 0 0] CT
0.149 GC
2 setlinecap
1 LJ
0.667 LW
N
771 33 M
771 36.35 L
S
GR
GS
[0.75 0 0 0.75 0 0] CT
0.149 GC
2 setlinecap
1 LJ
0.667 LW
N
838 33 M
838 36.35 L
S
GR
GS
[0.75 0 0 0.75 0 0] CT
0.149 GC
2 setlinecap
1 LJ
0.667 LW
N
905 33 M
905 36.35 L
S
GR
GS
[0.75 0 0 0.75 427.5 258.49999] CT
0.149 GC
/Helvetica 20 F
GS
[1 0 0 1 0 0] CT
-6 21 moveto 
1 -1 scale
(0) t 
GR
GR
GS
[0.75 0 0 0.75 477.75 258.49999] CT
0.149 GC
/Helvetica 20 F
GS
[1 0 0 1 0 0] CT
-11.5 21 moveto 
1 -1 scale
(50) t 
GR
GR
GS
[0.75 0 0 0.75 528 258.49999] CT
0.149 GC
/Helvetica 20 F
GS
[1 0 0 1 0 0] CT
-17 21 moveto 
1 -1 scale
(100) t 
GR
GR
GS
[0.75 0 0 0.75 578.25 258.49999] CT
0.149 GC
/Helvetica 20 F
GS
[1 0 0 1 0 0] CT
-17 21 moveto 
1 -1 scale
(150) t 
GR
GR
GS
[0.75 0 0 0.75 628.5 258.49999] CT
0.149 GC
/Helvetica 20 F
GS
[1 0 0 1 0 0] CT
-17 21 moveto 
1 -1 scale
(200) t 
GR
GR
GS
[0.75 0 0 0.75 678.75 258.49999] CT
0.149 GC
/Helvetica 20 F
GS
[1 0 0 1 0 0] CT
-17 21 moveto 
1 -1 scale
(250) t 
GR
GR
GS
[0.75 0 0 0.75 553.12514 279] CT
0.149 GC
/Helvetica 22 F
GS
[1 0 0 1 0 0] CT
-21.5 23 moveto 
1 -1 scale
(date) t 
GR
GR
GS
[0.75 0 0 0.75 0 0] CT
0.149 GC
2 setlinecap
1 LJ
0.667 LW
N
570 338 M
570 33 L
S
GR
GS
[0.75 0 0 0.75 0 0] CT
0.149 GC
2 setlinecap
1 LJ
0.667 LW
N
905 338 M
905 33 L
S
GR
GS
[0.75 0 0 0.75 0 0] CT
0.149 GC
2 setlinecap
1 LJ
0.667 LW
N
570 338 M
573.35 338 L
S
GR
GS
[0.75 0 0 0.75 0 0] CT
0.149 GC
2 setlinecap
1 LJ
0.667 LW
N
570 261.75 M
573.35 261.75 L
S
GR
GS
[0.75 0 0 0.75 0 0] CT
0.149 GC
2 setlinecap
1 LJ
0.667 LW
N
570 185.5 M
573.35 185.5 L
S
GR
GS
[0.75 0 0 0.75 0 0] CT
0.149 GC
2 setlinecap
1 LJ
0.667 LW
N
570 109.25 M
573.35 109.25 L
S
GR
GS
[0.75 0 0 0.75 0 0] CT
0.149 GC
2 setlinecap
1 LJ
0.667 LW
N
570 33 M
573.35 33 L
S
GR
GS
[0.75 0 0 0.75 0 0] CT
0.149 GC
2 setlinecap
1 LJ
0.667 LW
N
905 338 M
901.65 338 L
S
GR
GS
[0.75 0 0 0.75 0 0] CT
0.149 GC
2 setlinecap
1 LJ
0.667 LW
N
905 261.75 M
901.65 261.75 L
S
GR
GS
[0.75 0 0 0.75 0 0] CT
0.149 GC
2 setlinecap
1 LJ
0.667 LW
N
905 185.5 M
901.65 185.5 L
S
GR
GS
[0.75 0 0 0.75 0 0] CT
0.149 GC
2 setlinecap
1 LJ
0.667 LW
N
905 109.25 M
901.65 109.25 L
S
GR
GS
[0.75 0 0 0.75 0 0] CT
0.149 GC
2 setlinecap
1 LJ
0.667 LW
N
905 33 M
901.65 33 L
S
GR
GS
[0.75 0 0 0.75 422.49998 253.5] CT
0.149 GC
/Helvetica 20 F
GS
[1 0 0 1 0 0] CT
-12 8 moveto 
1 -1 scale
(0) t 
GR
GR
GS
[0.75 0 0 0.75 422.49998 196.3125] CT
0.149 GC
/Helvetica 20 F
GS
[1 0 0 1 0 0] CT
-28 8 moveto 
1 -1 scale
(0.5) t 
GR
GR
GS
[0.75 0 0 0.75 422.49998 139.125] CT
0.149 GC
/Helvetica 20 F
GS
[1 0 0 1 0 0] CT
-12 8 moveto 
1 -1 scale
(1) t 
GR
GR
GS
[0.75 0 0 0.75 422.49998 81.9375] CT
0.149 GC
/Helvetica 20 F
GS
[1 0 0 1 0 0] CT
-28 8 moveto 
1 -1 scale
(1.5) t 
GR
GR
GS
[0.75 0 0 0.75 422.49998 24.75] CT
0.149 GC
/Helvetica 20 F
GS
[1 0 0 1 0 0] CT
-12 8 moveto 
1 -1 scale
(2) t 
GR
GR
GS
[0 -0.75 0.75 0 398.49998 139.12489] CT
0.149 GC
/Helvetica 22 F
GS
[1 0 0 1 0 0] CT
-23.5 -5 moveto 
1 -1 scale
(USD) t 
GR
GR
GS
[0.75 0 0 0.75 427.5 21] CT
0.149 GC
N
2.938 -0.578 M
2.938 -0.734 3.031 -0.859 QT
7.203 -5 L
3.031 -9.156 L
2.938 -9.266 2.938 -9.422 QT
2.938 -9.578 3.055 -9.703 QT
3.172 -9.828 3.344 -9.828 QT
3.484 -9.828 3.641 -9.703 QT
7.781 -5.563 L
11.906 -9.703 L
12.078 -9.828 12.203 -9.828 QT
12.359 -9.828 12.477 -9.711 QT
12.594 -9.594 12.594 -9.422 QT
12.594 -9.266 12.5 -9.156 QT
8.344 -5 L
12.5 -0.859 L
12.594 -0.734 12.594 -0.578 QT
12.594 -0.406 12.477 -0.289 QT
12.359 -0.172 12.203 -0.172 QT
12.047 -0.172 11.906 -0.328 QT
7.781 -4.438 L
3.641 -0.328 L
3.5 -0.172 3.344 -0.172 QT
3.172 -0.172 3.055 -0.305 QT
2.938 -0.438 2.938 -0.578 QT
cp
f
GR
GS
[0.75 0 0 0.75 439.5 21] CT
0.149 GC
/Helvetica 20 F
GS
[1 0 0 1 0 0] CT
0 0 moveto 
1 -1 scale
(10) t 
GR
GR
GS
[0.75 0 0 0.75 456.75 13.5] CT
0.149 GC
/Helvetica 16 F
GS
[1 0 0 1 0 0] CT
0 0 moveto 
1 -1 scale
(4) t 
GR
GR
GS
[0.75 0 0 0.75 553.12555 21.65625] CT
/Helvetica-Bold 22 F
GS
[1 0 0 1 0 0] CT
-75.5 -5 moveto 
1 -1 scale
(worth of coins) t 
GR
GR
GS
[0.75 0 0 0.75 0 0] CT
0 0.447 0.741 RC
1 LJ
2 LW
N
571.34 331.279 M
572.68 331.795 L
574.02 332.421 L
575.36 332.121 L
576.7 331.808 L
578.04 332.132 L
579.38 332.729 L
580.72 333.509 L
582.06 332.205 L
583.4 331.097 L
584.74 332.448 L
586.08 334.446 L
587.42 334.749 L
588.76 334.635 L
590.1 333.125 L
591.44 332.731 L
592.78 333.366 L
594.12 333.792 L
595.46 332.994 L
596.8 333.164 L
598.14 333.455 L
599.48 333.46 L
600.82 333.458 L
602.16 333.422 L
603.5 330.977 L
604.84 327.474 L
606.18 326.493 L
607.52 327.129 L
608.86 328.856 L
610.2 327.464 L
611.54 327.792 L
612.88 328.421 L
614.22 328.224 L
615.56 328.464 L
616.9 328.531 L
618.24 328.908 L
619.58 329.568 L
620.92 329.228 L
622.26 329.03 L
623.6 328.512 L
624.94 329.218 L
626.28 328.737 L
627.62 330.112 L
628.96 329.739 L
630.3 328.268 L
631.64 328.044 L
632.98 329.108 L
634.32 329.651 L
635.66 329.81 L
637 329.798 L
638.34 330.216 L
639.68 330.32 L
641.02 332.403 L
642.36 331.534 L
643.7 331.287 L
645.04 331.597 L
646.38 330.69 L
647.72 329.95 L
649.06 330.74 L
650.4 331.652 L
651.74 331.67 L
653.08 331.465 L
654.42 331.579 L
655.76 331.202 L
657.1 331.262 L
658.44 331.026 L
659.78 331.171 L
661.12 331.339 L
662.46 331.402 L
663.8 331.669 L
665.14 331.577 L
666.48 331.836 L
667.82 332.534 L
669.16 332.575 L
670.5 332.464 L
671.84 332.498 L
673.18 332.781 L
674.52 333.209 L
675.86 333.096 L
677.2 333.198 L
678.54 333.224 L
679.88 333.098 L
681.22 333.09 L
682.56 333.197 L
683.9 333.217 L
685.24 332.331 L
686.58 332.828 L
687.92 332.955 L
689.26 333.007 L
690.6 333.069 L
691.94 332.942 L
693.28 333.187 L
694.62 333.015 L
695.96 332.935 L
697.3 332.842 L
698.64 332.395 L
699.98 331.544 L
701.32 331.108 L
702.66 331.164 L
704 331.304 L
705.34 329.89 L
706.68 329.045 L
708.02 328.464 L
709.36 328.538 L
710.7 328.382 L
712.04 328.81 L
713.38 328.601 L
714.72 328.507 L
716.06 328.022 L
717.4 322.637 L
718.74 317.558 L
720.08 316.82 L
721.42 317.352 L
722.76 318.579 L
724.1 319.511 L
725.44 324.263 L
726.78 319.921 L
728.12 318.868 L
729.46 320.126 L
730.8 319.151 L
732.14 320.051 L
733.48 318.125 L
734.82 312.322 L
736.16 312.86 L
737.5 314.038 L
738.84 311.531 L
740.18 313.256 L
741.52 314.421 L
742.86 317.264 L
744.2 316.806 L
745.54 315.694 L
746.88 316.117 L
748.22 314.211 L
749.56 313.952 L
750.9 315.097 L
752.24 316.191 L
753.58 317.703 L
754.92 315.672 L
756.26 316.497 L
757.6 317.823 L
758.94 316.293 L
760.28 313.371 L
761.62 313.483 L
762.96 308.016 L
764.3 310.315 L
765.64 310.521 L
766.98 309.591 L
768.32 304.501 L
769.66 295.21 L
771 278.173 L
772.34 288.176 L
773.68 296.875 L
775.02 288.33 L
776.36 293.727 L
777.7 292.941 L
779.04 290.589 L
780.38 293.935 L
781.72 298.859 L
783.06 295.606 L
784.4 301.516 L
785.74 299.372 L
787.08 300.904 L
788.42 296.657 L
789.76 298.217 L
791.1 300.94 L
792.44 298.587 L
793.78 295.504 L
795.12 295.5 L
796.46 301.073 L
797.8 301.529 L
799.14 293.845 L
800.48 300.445 L
801.82 298.03 L
803.16 297.049 L
804.5 299.062 L
805.84 301.377 L
807.18 310.976 L
808.52 311.342 L
809.86 311.21 L
811.2 311.013 L
812.54 307.01 L
813.88 310.906 L
815.22 313.266 L
816.56 313.273 L
817.9 313.003 L
819.24 312.958 L
820.58 313.541 L
821.92 313.163 L
823.26 311.37 L
824.6 312.729 L
825.94 315.574 L
827.28 315.325 L
828.62 318.566 L
829.96 319.835 L
831.3 318.594 L
832.64 320.228 L
833.98 324.467 L
835.32 323.139 L
836.66 323.391 L
838 318.41 L
839.34 317.99 L
840.68 318.826 L
842.02 319.431 L
843.36 318.42 L
844.7 319.212 L
846.04 317.225 L
847.38 317.019 L
848.72 314.329 L
850.06 314.341 L
851.4 315.316 L
852.74 314.595 L
854.08 316.364 L
855.42 318.046 L
S
GR
GS
[0.75 0 0 0.75 0 0] CT
0.851 0.325 0.098 RC
1 LJ
2 LW
N
571.34 295.988 M
572.68 298.709 L
574.02 299.426 L
575.36 297.255 L
576.7 295.163 L
578.04 296.422 L
579.38 295.953 L
580.72 294.151 L
582.06 296.547 L
583.4 296.662 L
584.74 295.228 L
586.08 293.838 L
587.42 288.393 L
588.76 288.987 L
590.1 286.471 L
591.44 285.846 L
592.78 287.027 L
594.12 286.435 L
595.46 282.328 L
596.8 278.758 L
598.14 275.883 L
599.48 272.042 L
600.82 274.226 L
602.16 271.256 L
603.5 271.942 L
604.84 274.551 L
606.18 274.046 L
607.52 275.663 L
608.86 276.973 L
610.2 275.467 L
611.54 274.689 L
612.88 271.896 L
614.22 271.333 L
615.56 271.626 L
616.9 271.161 L
618.24 271.164 L
619.58 268.17 L
620.92 268.379 L
622.26 266.273 L
623.6 263.397 L
624.94 268.174 L
626.28 268.11 L
627.62 273.396 L
628.96 271.258 L
630.3 267.894 L
631.64 267.852 L
632.98 273.512 L
634.32 273.553 L
635.66 275.125 L
637 274.541 L
638.34 275.005 L
639.68 278.79 L
641.02 289.887 L
642.36 282.528 L
643.7 282.718 L
645.04 283.361 L
646.38 276.006 L
647.72 278.144 L
649.06 278.434 L
650.4 282.627 L
651.74 282.632 L
653.08 280.166 L
654.42 281.837 L
655.76 278.127 L
657.1 278.642 L
658.44 273.94 L
659.78 274.335 L
661.12 274.513 L
662.46 271.835 L
663.8 270.843 L
665.14 270.758 L
666.48 272.158 L
667.82 273.502 L
669.16 271.992 L
670.5 271.345 L
671.84 270.49 L
673.18 267.69 L
674.52 265.227 L
675.86 265.075 L
677.2 264.396 L
678.54 254.935 L
679.88 251.88 L
681.22 249.065 L
682.56 251.408 L
683.9 250.685 L
685.24 252.516 L
686.58 252.742 L
687.92 250.945 L
689.26 246.325 L
690.6 246.018 L
691.94 246.372 L
693.28 247.563 L
694.62 253.719 L
695.96 250.3 L
697.3 247.951 L
698.64 249.841 L
699.98 250.265 L
701.32 244.154 L
702.66 244.509 L
704 239.357 L
705.34 234.799 L
706.68 230.053 L
708.02 228.082 L
709.36 225.456 L
710.7 225.037 L
712.04 230.903 L
713.38 229.048 L
714.72 224.24 L
716.06 229.06 L
717.4 237.073 L
718.74 241.047 L
720.08 247.261 L
721.42 237.968 L
722.76 236.805 L
724.1 226.438 L
725.44 217.957 L
726.78 220.438 L
728.12 219.2 L
729.46 215.444 L
730.8 212.94 L
732.14 214.913 L
733.48 212.133 L
734.82 215.409 L
736.16 212.131 L
737.5 203.938 L
738.84 195.709 L
740.18 188.27 L
741.52 184.603 L
742.86 187.199 L
744.2 181.938 L
745.54 170.622 L
746.88 169.112 L
748.22 165.321 L
749.56 160.228 L
750.9 156.27 L
752.24 120.055 L
753.58 65.03 L
754.92 85.317 L
756.26 106.532 L
757.6 102.305 L
758.94 79.714 L
760.28 72.415 L
761.62 87.775 L
762.96 85.399 L
764.3 67.97 L
765.64 40.665 L
766.98 46.103 L
768.32 46.508 L
769.66 66.905 L
771 84.475 L
772.34 97.006 L
773.68 127.065 L
775.02 113.837 L
776.36 125.632 L
777.7 124.094 L
779.04 92.478 L
780.38 96.463 L
781.72 115.251 L
783.06 114.493 L
784.4 140.479 L
785.74 122.115 L
787.08 129.728 L
788.42 109.523 L
789.76 106.185 L
791.1 100.112 L
792.44 72.2 L
793.78 70.713 L
795.12 86.717 L
796.46 106.656 L
797.8 115.42 L
799.14 109.657 L
800.48 133.562 L
801.82 124.796 L
803.16 119.007 L
804.5 127.977 L
805.84 127.248 L
807.18 162.77 L
808.52 167.374 L
809.86 163.008 L
811.2 160.987 L
812.54 141.287 L
813.88 161.098 L
815.22 171.296 L
816.56 172.257 L
817.9 164.769 L
819.24 166.294 L
820.58 167.636 L
821.92 163.529 L
823.26 158.259 L
824.6 165.73 L
825.94 183.879 L
827.28 182.128 L
828.62 198.149 L
829.96 203.331 L
831.3 198.083 L
832.64 211.776 L
833.98 231.932 L
835.32 219.751 L
836.66 221.775 L
838 211.95 L
839.34 204.761 L
840.68 206.516 L
842.02 214.018 L
843.36 201.87 L
844.7 206.876 L
846.04 193.207 L
847.38 182.962 L
848.72 181.933 L
850.06 168.531 L
851.4 177.085 L
852.74 166.814 L
854.08 164.094 L
855.42 174.971 L
S
GR
GS
[0.75 0 0 0.75 0 0] CT
0.929 0.694 0.125 RC
1 LJ
2 LW
N
571.34 334.573 M
572.68 334.848 L
574.02 334.89 L
575.36 334.884 L
576.7 335.055 L
578.04 334.862 L
579.38 334.981 L
580.72 334.891 L
582.06 334.542 L
583.4 334.646 L
584.74 334.564 L
586.08 334.598 L
587.42 334.088 L
588.76 334.011 L
590.1 333.895 L
591.44 333.474 L
592.78 333.486 L
594.12 333.488 L
595.46 333.29 L
596.8 333.263 L
598.14 333.455 L
599.48 333.423 L
600.82 333.58 L
602.16 333.39 L
603.5 333.403 L
604.84 333.492 L
606.18 333.464 L
607.52 333.403 L
608.86 333.096 L
610.2 333.199 L
611.54 333.158 L
612.88 333.034 L
614.22 332.938 L
615.56 332.908 L
616.9 332.695 L
618.24 332.697 L
619.58 332.347 L
620.92 332.228 L
622.26 332.159 L
623.6 332.087 L
624.94 332.678 L
626.28 332.701 L
627.62 333.499 L
628.96 333.227 L
630.3 332.901 L
631.64 332.976 L
632.98 333.478 L
634.32 333.51 L
635.66 333.597 L
637 333.508 L
638.34 333.555 L
639.68 333.774 L
641.02 334.738 L
642.36 334.18 L
643.7 334.241 L
645.04 334.161 L
646.38 333.524 L
647.72 333.687 L
649.06 333.673 L
650.4 334.057 L
651.74 333.969 L
653.08 333.636 L
654.42 333.692 L
655.76 333.542 L
657.1 333.617 L
658.44 333.326 L
659.78 333.438 L
661.12 333.555 L
662.46 333.403 L
663.8 333.389 L
665.14 333.463 L
666.48 333.54 L
667.82 333.537 L
669.16 333.488 L
670.5 333.294 L
671.84 333.255 L
673.18 333.294 L
674.52 333.465 L
675.86 333.427 L
677.2 333.372 L
678.54 333.362 L
679.88 332.834 L
681.22 332.821 L
682.56 332.867 L
683.9 332.916 L
685.24 333.165 L
686.58 333.207 L
687.92 333.302 L
689.26 333.364 L
690.6 333.422 L
691.94 333.494 L
693.28 333.624 L
694.62 333.45 L
695.96 333.457 L
697.3 333.478 L
698.64 333.464 L
699.98 333.481 L
701.32 333.347 L
702.66 333.307 L
704 333.335 L
705.34 333.552 L
706.68 333.617 L
708.02 333.338 L
709.36 333.418 L
710.7 333.482 L
712.04 333.442 L
713.38 333.506 L
714.72 333.287 L
716.06 333.107 L
717.4 333.436 L
718.74 333.201 L
720.08 333.304 L
721.42 333.17 L
722.76 332.851 L
724.1 332.916 L
725.44 332.953 L
726.78 332.931 L
728.12 332.699 L
729.46 332.596 L
730.8 332.407 L
732.14 332.504 L
733.48 332.195 L
734.82 331.745 L
736.16 330.758 L
737.5 330.889 L
738.84 330.812 L
740.18 330.674 L
741.52 330.788 L
742.86 331.48 L
744.2 331.182 L
745.54 330.885 L
746.88 330.932 L
748.22 330.896 L
749.56 330.829 L
750.9 330.935 L
752.24 331.464 L
753.58 331.375 L
754.92 331.046 L
756.26 330.779 L
757.6 331.264 L
758.94 330.144 L
760.28 328.066 L
761.62 327.283 L
762.96 327.389 L
764.3 327.562 L
765.64 327.383 L
766.98 327.02 L
768.32 325.882 L
769.66 325.391 L
771 325.509 L
772.34 325.479 L
773.68 327.708 L
775.02 327.029 L
776.36 327.414 L
777.7 326.321 L
779.04 326.199 L
780.38 326.367 L
781.72 326.76 L
783.06 326.508 L
784.4 327.062 L
785.74 326.46 L
787.08 326.217 L
788.42 324.512 L
789.76 323.319 L
791.1 323.041 L
792.44 322.785 L
793.78 322.114 L
795.12 320.414 L
796.46 320.485 L
797.8 318.179 L
799.14 318.849 L
800.48 320.387 L
801.82 318.584 L
803.16 316.705 L
804.5 317.157 L
805.84 318.298 L
807.18 321.931 L
808.52 322.533 L
809.86 322.197 L
811.2 322.154 L
812.54 320.384 L
813.88 321.994 L
815.22 322.7 L
816.56 322.96 L
817.9 321.854 L
819.24 321.896 L
820.58 321.909 L
821.92 321.117 L
823.26 318.998 L
824.6 319.969 L
825.94 321.665 L
827.28 320.946 L
828.62 322.189 L
829.96 324.034 L
831.3 323.299 L
832.64 325.271 L
833.98 327.356 L
835.32 325.905 L
836.66 326.455 L
838 325.528 L
839.34 324.521 L
840.68 324.879 L
842.02 325.576 L
843.36 324.752 L
844.7 325.11 L
846.04 323.916 L
847.38 323.711 L
848.72 323.601 L
850.06 323.145 L
851.4 323.91 L
852.74 323.606 L
854.08 324.346 L
855.42 325.038 L
S
GR
GS
[0.75 0 0 0.75 0 0] CT
0.494 0.184 0.557 RC
1 LJ
2 LW
N
571.34 337.323 M
572.68 337.356 L
574.02 337.356 L
575.36 337.357 L
576.7 337.381 L
578.04 337.373 L
579.38 337.384 L
580.72 337.344 L
582.06 337.344 L
583.4 337.358 L
584.74 337.346 L
586.08 337.337 L
587.42 337.285 L
588.76 337.312 L
590.1 337.302 L
591.44 337.258 L
592.78 337.268 L
594.12 337.291 L
595.46 337.282 L
596.8 337.292 L
598.14 337.301 L
599.48 337.302 L
600.82 337.34 L
602.16 337.327 L
603.5 337.33 L
604.84 337.279 L
606.18 337.306 L
607.52 337.295 L
608.86 337.269 L
610.2 337.287 L
611.54 337.188 L
612.88 337.235 L
614.22 337.22 L
615.56 337.211 L
616.9 337.067 L
618.24 337.049 L
619.58 337.037 L
620.92 337.021 L
622.26 336.916 L
623.6 336.688 L
624.94 336.795 L
626.28 336.828 L
627.62 337.006 L
628.96 336.913 L
630.3 336.778 L
631.64 336.803 L
632.98 336.966 L
634.32 336.993 L
635.66 337.06 L
637 336.993 L
638.34 337.02 L
639.68 337.059 L
641.02 337.366 L
642.36 337.265 L
643.7 337.264 L
645.04 337.261 L
646.38 337.153 L
647.72 337.194 L
649.06 337.211 L
650.4 337.289 L
651.74 337.267 L
653.08 337.249 L
654.42 337.274 L
655.76 337.213 L
657.1 337.214 L
658.44 337.142 L
659.78 337.175 L
661.12 337.198 L
662.46 337.159 L
663.8 337.168 L
665.14 337.186 L
666.48 337.202 L
667.82 337.216 L
669.16 337.212 L
670.5 337.205 L
671.84 337.198 L
673.18 337.19 L
674.52 337.235 L
675.86 337.227 L
677.2 337.224 L
678.54 337.083 L
679.88 337.094 L
681.22 337.025 L
682.56 337.002 L
683.9 337.015 L
685.24 337.093 L
686.58 337.074 L
687.92 337.089 L
689.26 337.08 L
690.6 337.112 L
691.94 337.134 L
693.28 337.162 L
694.62 337.147 L
695.96 337.139 L
697.3 337.15 L
698.64 337.156 L
699.98 337.166 L
701.32 337.129 L
702.66 337.14 L
704 337.15 L
705.34 337.189 L
706.68 337.165 L
708.02 337.143 L
709.36 337.161 L
710.7 337.165 L
712.04 337.159 L
713.38 337.065 L
714.72 337.046 L
716.06 337.02 L
717.4 337.096 L
718.74 337.05 L
720.08 337.1 L
721.42 337.064 L
722.76 337.044 L
724.1 337.027 L
725.44 336.916 L
726.78 336.97 L
728.12 336.938 L
729.46 336.908 L
730.8 336.898 L
732.14 336.932 L
733.48 336.904 L
734.82 336.883 L
736.16 336.811 L
737.5 336.646 L
738.84 336.69 L
740.18 336.603 L
741.52 336.536 L
742.86 336.695 L
744.2 336.653 L
745.54 336.49 L
746.88 336.471 L
748.22 336.456 L
749.56 336.41 L
750.9 336.438 L
752.24 336.47 L
753.58 336.501 L
754.92 336.096 L
756.26 335.633 L
757.6 335.733 L
758.94 334.733 L
760.28 333.179 L
761.62 333.385 L
762.96 333.74 L
764.3 333.428 L
765.64 333.441 L
766.98 333.14 L
768.32 332.535 L
769.66 332.659 L
771 333.202 L
772.34 333.159 L
773.68 333.96 L
775.02 333.604 L
776.36 333.791 L
777.7 333.831 L
779.04 333.631 L
780.38 333.849 L
781.72 334.189 L
783.06 334.256 L
784.4 334.661 L
785.74 334.46 L
787.08 334.507 L
788.42 334.101 L
789.76 334.258 L
791.1 334.319 L
792.44 334.199 L
793.78 333.479 L
795.12 333.601 L
796.46 334.1 L
797.8 334.233 L
799.14 334.18 L
800.48 334.502 L
801.82 334.388 L
803.16 334.047 L
804.5 334.36 L
805.84 334.45 L
807.18 335.128 L
808.52 335.156 L
809.86 335.059 L
811.2 335.057 L
812.54 334.782 L
813.88 335.096 L
815.22 335.255 L
816.56 335.288 L
817.9 335.255 L
819.24 335.251 L
820.58 335.305 L
821.92 335.241 L
823.26 335.043 L
824.6 335.23 L
825.94 335.479 L
827.28 335.509 L
828.62 335.83 L
829.96 335.996 L
831.3 335.556 L
832.64 335.743 L
833.98 336.089 L
835.32 335.819 L
836.66 335.892 L
838 335.721 L
839.34 335.5 L
840.68 335.627 L
842.02 335.728 L
843.36 335.536 L
844.7 335.567 L
846.04 334.746 L
847.38 334.562 L
848.72 334.491 L
850.06 334.501 L
851.4 334.71 L
852.74 334.598 L
854.08 334.449 L
855.42 334.746 L
S
GR
GS
[0.75 0 0 0.75 0 0] CT
0.467 0.675 0.188 RC
1 LJ
2 LW
N
571.34 337.997 M
572.68 337.997 L
574.02 337.997 L
575.36 337.997 L
576.7 337.997 L
578.04 337.997 L
579.38 337.997 L
580.72 337.997 L
582.06 337.997 L
583.4 337.997 L
584.74 337.997 L
586.08 337.997 L
587.42 337.997 L
588.76 337.997 L
590.1 337.997 L
591.44 337.997 L
592.78 337.997 L
594.12 337.997 L
595.46 337.997 L
596.8 337.997 L
598.14 337.997 L
599.48 337.997 L
600.82 337.998 L
602.16 337.998 L
603.5 337.998 L
604.84 337.998 L
606.18 337.998 L
607.52 337.998 L
608.86 337.997 L
610.2 337.996 L
611.54 337.996 L
612.88 337.997 L
614.22 337.997 L
615.56 337.997 L
616.9 337.997 L
618.24 337.997 L
619.58 337.997 L
620.92 337.997 L
622.26 337.996 L
623.6 337.996 L
624.94 337.997 L
626.28 337.997 L
627.62 337.997 L
628.96 337.997 L
630.3 337.997 L
631.64 337.997 L
632.98 337.997 L
634.32 337.997 L
635.66 337.997 L
637 337.997 L
638.34 337.997 L
639.68 337.997 L
641.02 337.997 L
642.36 337.997 L
643.7 337.997 L
645.04 337.997 L
646.38 337.997 L
647.72 337.997 L
649.06 337.997 L
650.4 337.997 L
651.74 337.997 L
653.08 337.997 L
654.42 337.997 L
655.76 337.997 L
657.1 337.997 L
658.44 337.997 L
659.78 337.997 L
661.12 337.997 L
662.46 337.997 L
663.8 337.997 L
665.14 337.997 L
666.48 337.997 L
667.82 337.997 L
669.16 337.996 L
670.5 337.996 L
671.84 337.996 L
673.18 337.996 L
674.52 337.996 L
675.86 337.996 L
677.2 337.996 L
678.54 337.996 L
679.88 337.996 L
681.22 337.996 L
682.56 337.996 L
683.9 337.996 L
685.24 337.996 L
686.58 337.997 L
687.92 337.997 L
689.26 337.997 L
690.6 337.997 L
691.94 337.997 L
693.28 337.997 L
694.62 337.997 L
695.96 337.997 L
697.3 337.997 L
698.64 337.997 L
699.98 337.997 L
701.32 337.997 L
702.66 337.997 L
704 337.997 L
705.34 337.997 L
706.68 337.997 L
708.02 337.997 L
709.36 337.997 L
710.7 337.997 L
712.04 337.997 L
713.38 337.997 L
714.72 337.997 L
716.06 337.997 L
717.4 337.997 L
718.74 337.997 L
720.08 337.997 L
721.42 337.997 L
722.76 337.997 L
724.1 337.997 L
725.44 337.997 L
726.78 337.997 L
728.12 337.997 L
729.46 337.996 L
730.8 337.996 L
732.14 337.996 L
733.48 337.996 L
734.82 337.996 L
736.16 337.996 L
737.5 337.996 L
738.84 337.996 L
740.18 337.996 L
741.52 337.995 L
742.86 337.996 L
744.2 337.996 L
745.54 337.996 L
746.88 337.996 L
748.22 337.996 L
749.56 337.996 L
750.9 337.996 L
752.24 337.996 L
753.58 337.997 L
754.92 337.996 L
756.26 337.996 L
757.6 337.996 L
758.94 337.996 L
760.28 337.994 L
761.62 337.993 L
762.96 337.987 L
764.3 337.988 L
765.64 337.988 L
766.98 337.989 L
768.32 337.988 L
769.66 337.988 L
771 337.988 L
772.34 337.982 L
773.68 337.983 L
775.02 337.982 L
776.36 337.984 L
777.7 337.983 L
779.04 337.982 L
780.38 337.979 L
781.72 337.978 L
783.06 337.966 L
784.4 337.967 L
785.74 337.965 L
787.08 337.964 L
788.42 337.962 L
789.76 337.953 L
791.1 337.951 L
792.44 337.953 L
793.78 337.953 L
795.12 337.948 L
796.46 337.962 L
797.8 337.968 L
799.14 337.97 L
800.48 337.97 L
801.82 337.969 L
803.16 337.969 L
804.5 337.972 L
805.84 337.974 L
807.18 337.982 L
808.52 337.98 L
809.86 337.976 L
811.2 337.976 L
812.54 337.976 L
813.88 337.979 L
815.22 337.979 L
816.56 337.98 L
817.9 337.979 L
819.24 337.98 L
820.58 337.981 L
821.92 337.981 L
823.26 337.979 L
824.6 337.98 L
825.94 337.983 L
827.28 337.982 L
828.62 337.985 L
829.96 337.987 L
831.3 337.986 L
832.64 337.988 L
833.98 337.989 L
835.32 337.988 L
836.66 337.989 L
838 337.988 L
839.34 337.985 L
840.68 337.984 L
842.02 337.985 L
843.36 337.984 L
844.7 337.984 L
846.04 337.983 L
847.38 337.982 L
848.72 337.983 L
850.06 337.982 L
851.4 337.983 L
852.74 337.983 L
854.08 337.983 L
855.42 337.984 L
S
GR
GS
[0.75 0 0 0.75 0 0] CT
1 GC
N
892 167 M
892 46 L
802 46 L
802 167 L
cp
f
GR
GS
[0.75 0 0 0.75 636.75 44.625] CT
/Helvetica 18 F
GS
[1 0 0 1 0 0] CT
0 7.5 moveto 
1 -1 scale
(BCH) t 
GR
GR
GS
[0.75 0 0 0.75 0 0] CT
0 0.447 0.741 RC
1 LJ
2 LW
N
806 59.5 M
846 59.5 L
S
GR
GS
[0.75 0 0 0.75 636.75 62.25] CT
/Helvetica 18 F
GS
[1 0 0 1 0 0] CT
0 7.5 moveto 
1 -1 scale
(BTC) t 
GR
GR
GS
[0.75 0 0 0.75 0 0] CT
0.851 0.325 0.098 RC
1 LJ
2 LW
N
806 83 M
846 83 L
S
GR
GS
[0.75 0 0 0.75 636.75 79.875] CT
/Helvetica 18 F
GS
[1 0 0 1 0 0] CT
0 7.5 moveto 
1 -1 scale
(ETH) t 
GR
GR
GS
[0.75 0 0 0.75 0 0] CT
0.929 0.694 0.125 RC
1 LJ
2 LW
N
806 106.5 M
846 106.5 L
S
GR
GS
[0.75 0 0 0.75 636.75 97.5] CT
/Helvetica 18 F
GS
[1 0 0 1 0 0] CT
0 7.5 moveto 
1 -1 scale
(LTC) t 
GR
GR
GS
[0.75 0 0 0.75 0 0] CT
0.494 0.184 0.557 RC
1 LJ
2 LW
N
806 130 M
846 130 L
S
GR
GS
[0.75 0 0 0.75 636.75 115.125] CT
/Helvetica 18 F
GS
[1 0 0 1 0 0] CT
0 7.5 moveto 
1 -1 scale
(XRP) t 
GR
GR
GS
[0.75 0 0 0.75 0 0] CT
0.467 0.675 0.188 RC
1 LJ
2 LW
N
806 153.5 M
846 153.5 L
S
GR
GS
[0.75 0 0 0.75 0 0] CT
0.149 GC
10.0 ML
0.667 LW
N
802 167 M
802 46 L
892 46 L
892 167 L
cp
S
GR
%%Trailer
%%Pages: 1
%%EOF
