%!PS-Adobe-3.0 EPSF-3.0
%%Creator: (MATLAB, The Mathworks, Inc. Version 9.3.0.713579 \(R2017b\). Operating System: Windows 7)
%%Title: fig/regret.eps
%%CreationDate: 2018-03-20T22:25:34
%%Pages: (atend)
%%BoundingBox:     5     3   341   294
%%LanguageLevel: 3
%%EndComments
%%BeginProlog
%%BeginResource: procset (Apache XML Graphics Std ProcSet) 1.2 0
%%Version: 1.2 0
%%Copyright: (Copyright 2001-2003,2010 The Apache Software Foundation. License terms: http://www.apache.org/licenses/LICENSE-2.0)
/bd{bind def}bind def
/ld{load def}bd
/GR/grestore ld
/GS/gsave ld
/RM/rmoveto ld
/C/curveto ld
/t/show ld
/L/lineto ld
/ML/setmiterlimit ld
/CT/concat ld
/f/fill ld
/N/newpath ld
/S/stroke ld
/CC/setcmykcolor ld
/A/ashow ld
/cp/closepath ld
/RC/setrgbcolor ld
/LJ/setlinejoin ld
/GC/setgray ld
/LW/setlinewidth ld
/M/moveto ld
/re {4 2 roll M
1 index 0 rlineto
0 exch rlineto
neg 0 rlineto
cp } bd
/_ctm matrix def
/_tm matrix def
/BT { _ctm currentmatrix pop matrix _tm copy pop 0 0 moveto } bd
/ET { _ctm setmatrix } bd
/iTm { _ctm setmatrix _tm concat } bd
/Tm { _tm astore pop iTm 0 0 moveto } bd
/ux 0.0 def
/uy 0.0 def
/F {
  /Tp exch def
  /Tf exch def
  Tf findfont Tp scalefont setfont
  /cf Tf def  /cs Tp def
} bd
/ULS {currentpoint /uy exch def /ux exch def} bd
/ULE {
  /Tcx currentpoint pop def
  gsave
  newpath
  cf findfont cs scalefont dup
  /FontMatrix get 0 get /Ts exch def /FontInfo get dup
  /UnderlinePosition get Ts mul /To exch def
  /UnderlineThickness get Ts mul /Tt exch def
  ux uy To add moveto  Tcx uy To add lineto
  Tt setlinewidth stroke
  grestore
} bd
/OLE {
  /Tcx currentpoint pop def
  gsave
  newpath
  cf findfont cs scalefont dup
  /FontMatrix get 0 get /Ts exch def /FontInfo get dup
  /UnderlinePosition get Ts mul /To exch def
  /UnderlineThickness get Ts mul /Tt exch def
  ux uy To add cs add moveto Tcx uy To add cs add lineto
  Tt setlinewidth stroke
  grestore
} bd
/SOE {
  /Tcx currentpoint pop def
  gsave
  newpath
  cf findfont cs scalefont dup
  /FontMatrix get 0 get /Ts exch def /FontInfo get dup
  /UnderlinePosition get Ts mul /To exch def
  /UnderlineThickness get Ts mul /Tt exch def
  ux uy To add cs 10 mul 26 idiv add moveto Tcx uy To add cs 10 mul 26 idiv add lineto
  Tt setlinewidth stroke
  grestore
} bd
/QT {
/Y22 exch store
/X22 exch store
/Y21 exch store
/X21 exch store
currentpoint
/Y21 load 2 mul add 3 div exch
/X21 load 2 mul add 3 div exch
/X21 load 2 mul /X22 load add 3 div
/Y21 load 2 mul /Y22 load add 3 div
/X22 load /Y22 load curveto
} bd
/SSPD {
dup length /d exch dict def
{
/v exch def
/k exch def
currentpagedevice k known {
/cpdv currentpagedevice k get def
v cpdv ne {
/upd false def
/nullv v type /nulltype eq def
/nullcpdv cpdv type /nulltype eq def
nullv nullcpdv or
{
/upd true def
} {
/sametype v type cpdv type eq def
sametype {
v type /arraytype eq {
/vlen v length def
/cpdvlen cpdv length def
vlen cpdvlen eq {
0 1 vlen 1 sub {
/i exch def
/obj v i get def
/cpdobj cpdv i get def
obj cpdobj ne {
/upd true def
exit
} if
} for
} {
/upd true def
} ifelse
} {
v type /dicttype eq {
v {
/dv exch def
/dk exch def
/cpddv cpdv dk get def
dv cpddv ne {
/upd true def
exit
} if
} forall
} {
/upd true def
} ifelse
} ifelse
} if
} ifelse
upd true eq {
d k v put
} if
} if
} if
} forall
d length 0 gt {
d setpagedevice
} if
} bd
/RE { % /NewFontName [NewEncodingArray] /FontName RE -
  findfont dup length dict begin
  {
    1 index /FID ne
    {def} {pop pop} ifelse
  } forall
  /Encoding exch def
  /FontName 1 index def
  currentdict definefont pop
  end
} bind def
%%EndResource
%%BeginResource: procset (Apache XML Graphics EPS ProcSet) 1.0 0
%%Version: 1.0 0
%%Copyright: (Copyright 2002-2003 The Apache Software Foundation. License terms: http://www.apache.org/licenses/LICENSE-2.0)
/BeginEPSF { %def
/b4_Inc_state save def         % Save state for cleanup
/dict_count countdictstack def % Count objects on dict stack
/op_count count 1 sub def      % Count objects on operand stack
userdict begin                 % Push userdict on dict stack
/showpage { } def              % Redefine showpage, { } = null proc
0 setgray 0 setlinecap         % Prepare graphics state
1 setlinewidth 0 setlinejoin
10 setmiterlimit [ ] 0 setdash newpath
/languagelevel where           % If level not equal to 1 then
{pop languagelevel             % set strokeadjust and
1 ne                           % overprint to their defaults.
{false setstrokeadjust false setoverprint
} if
} if
} bd
/EndEPSF { %def
count op_count sub {pop} repeat            % Clean up stacks
countdictstack dict_count sub {end} repeat
b4_Inc_state restore
} bd
%%EndResource
%FOPBeginFontDict
%%IncludeResource: font Courier-Oblique
%%IncludeResource: font Courier-BoldOblique
%%IncludeResource: font Courier-Bold
%%IncludeResource: font ZapfDingbats
%%IncludeResource: font Symbol
%%IncludeResource: font Helvetica
%%IncludeResource: font Helvetica-Oblique
%%IncludeResource: font Helvetica-Bold
%%IncludeResource: font Helvetica-BoldOblique
%%IncludeResource: font Times-Roman
%%IncludeResource: font Times-Italic
%%IncludeResource: font Times-Bold
%%IncludeResource: font Times-BoldItalic
%%IncludeResource: font Courier
%FOPEndFontDict
%%BeginResource: encoding WinAnsiEncoding
/WinAnsiEncoding [
/.notdef /.notdef /.notdef /.notdef /.notdef
/.notdef /.notdef /.notdef /.notdef /.notdef
/.notdef /.notdef /.notdef /.notdef /.notdef
/.notdef /.notdef /.notdef /.notdef /.notdef
/.notdef /.notdef /.notdef /.notdef /.notdef
/.notdef /.notdef /.notdef /.notdef /.notdef
/.notdef /.notdef /space /exclam /quotedbl
/numbersign /dollar /percent /ampersand /quotesingle
/parenleft /parenright /asterisk /plus /comma
/hyphen /period /slash /zero /one
/two /three /four /five /six
/seven /eight /nine /colon /semicolon
/less /equal /greater /question /at
/A /B /C /D /E
/F /G /H /I /J
/K /L /M /N /O
/P /Q /R /S /T
/U /V /W /X /Y
/Z /bracketleft /backslash /bracketright /asciicircum
/underscore /quoteleft /a /b /c
/d /e /f /g /h
/i /j /k /l /m
/n /o /p /q /r
/s /t /u /v /w
/x /y /z /braceleft /bar
/braceright /asciitilde /bullet /Euro /bullet
/quotesinglbase /florin /quotedblbase /ellipsis /dagger
/daggerdbl /circumflex /perthousand /Scaron /guilsinglleft
/OE /bullet /Zcaron /bullet /bullet
/quoteleft /quoteright /quotedblleft /quotedblright /bullet
/endash /emdash /asciitilde /trademark /scaron
/guilsinglright /oe /bullet /zcaron /Ydieresis
/space /exclamdown /cent /sterling /currency
/yen /brokenbar /section /dieresis /copyright
/ordfeminine /guillemotleft /logicalnot /sfthyphen /registered
/macron /degree /plusminus /twosuperior /threesuperior
/acute /mu /paragraph /middot /cedilla
/onesuperior /ordmasculine /guillemotright /onequarter /onehalf
/threequarters /questiondown /Agrave /Aacute /Acircumflex
/Atilde /Adieresis /Aring /AE /Ccedilla
/Egrave /Eacute /Ecircumflex /Edieresis /Igrave
/Iacute /Icircumflex /Idieresis /Eth /Ntilde
/Ograve /Oacute /Ocircumflex /Otilde /Odieresis
/multiply /Oslash /Ugrave /Uacute /Ucircumflex
/Udieresis /Yacute /Thorn /germandbls /agrave
/aacute /acircumflex /atilde /adieresis /aring
/ae /ccedilla /egrave /eacute /ecircumflex
/edieresis /igrave /iacute /icircumflex /idieresis
/eth /ntilde /ograve /oacute /ocircumflex
/otilde /odieresis /divide /oslash /ugrave
/uacute /ucircumflex /udieresis /yacute /thorn
/ydieresis
] def
%%EndResource
%FOPBeginFontReencode
/Courier-Oblique findfont
dup length dict begin
  {1 index /FID ne {def} {pop pop} ifelse} forall
  /Encoding WinAnsiEncoding def
  currentdict
end
/Courier-Oblique exch definefont pop
/Courier-BoldOblique findfont
dup length dict begin
  {1 index /FID ne {def} {pop pop} ifelse} forall
  /Encoding WinAnsiEncoding def
  currentdict
end
/Courier-BoldOblique exch definefont pop
/Courier-Bold findfont
dup length dict begin
  {1 index /FID ne {def} {pop pop} ifelse} forall
  /Encoding WinAnsiEncoding def
  currentdict
end
/Courier-Bold exch definefont pop
/Helvetica findfont
dup length dict begin
  {1 index /FID ne {def} {pop pop} ifelse} forall
  /Encoding WinAnsiEncoding def
  currentdict
end
/Helvetica exch definefont pop
/Helvetica-Oblique findfont
dup length dict begin
  {1 index /FID ne {def} {pop pop} ifelse} forall
  /Encoding WinAnsiEncoding def
  currentdict
end
/Helvetica-Oblique exch definefont pop
/Helvetica-Bold findfont
dup length dict begin
  {1 index /FID ne {def} {pop pop} ifelse} forall
  /Encoding WinAnsiEncoding def
  currentdict
end
/Helvetica-Bold exch definefont pop
/Helvetica-BoldOblique findfont
dup length dict begin
  {1 index /FID ne {def} {pop pop} ifelse} forall
  /Encoding WinAnsiEncoding def
  currentdict
end
/Helvetica-BoldOblique exch definefont pop
/Times-Roman findfont
dup length dict begin
  {1 index /FID ne {def} {pop pop} ifelse} forall
  /Encoding WinAnsiEncoding def
  currentdict
end
/Times-Roman exch definefont pop
/Times-Italic findfont
dup length dict begin
  {1 index /FID ne {def} {pop pop} ifelse} forall
  /Encoding WinAnsiEncoding def
  currentdict
end
/Times-Italic exch definefont pop
/Times-Bold findfont
dup length dict begin
  {1 index /FID ne {def} {pop pop} ifelse} forall
  /Encoding WinAnsiEncoding def
  currentdict
end
/Times-Bold exch definefont pop
/Times-BoldItalic findfont
dup length dict begin
  {1 index /FID ne {def} {pop pop} ifelse} forall
  /Encoding WinAnsiEncoding def
  currentdict
end
/Times-BoldItalic exch definefont pop
/Courier findfont
dup length dict begin
  {1 index /FID ne {def} {pop pop} ifelse} forall
  /Encoding WinAnsiEncoding def
  currentdict
end
/Courier exch definefont pop
%FOPEndFontReencode
%%EndProlog
%%Page: 1 1
%%PageBoundingBox: 0 0 375 300
%%BeginPageSetup
[1 0 0 -1 0 300] CT
%%EndPageSetup
GS
[0.75 0 0 0.75 0 0] CT
1 GC
N
0 0 500 400 re
f
GR
GS
[0.75 0 0 0.75 0 0] CT
1 GC
N
0 0 500 400 re
f
GR
GS
[0.75 0 0 0.75 0 0] CT
1 GC
N
67 338 M
453 338 L
453 34 L
67 34 L
cp
f
GR
GS
[0.75 0 0 0.75 0 0] CT
0.775 GC
[1 3] 0 setdash
2 LJ
0.667 LW
N
83.387 338 M
83.387 34 L
S
GR
GS
[0.75 0 0 0.75 0 0] CT
0.775 GC
[1 3] 0 setdash
2 LJ
0.667 LW
N
101.594 338 M
101.594 34 L
S
GR
GS
[0.75 0 0 0.75 0 0] CT
0.775 GC
[1 3] 0 setdash
2 LJ
0.667 LW
N
119.802 338 M
119.802 34 L
S
GR
GS
[0.75 0 0 0.75 0 0] CT
0.775 GC
[1 3] 0 setdash
2 LJ
0.667 LW
N
138.009 338 M
138.009 34 L
S
GR
GS
[0.75 0 0 0.75 0 0] CT
0.775 GC
[1 3] 0 setdash
2 LJ
0.667 LW
N
156.217 338 M
156.217 34 L
S
GR
GS
[0.75 0 0 0.75 0 0] CT
0.775 GC
[1 3] 0 setdash
2 LJ
0.667 LW
N
174.425 338 M
174.425 34 L
S
GR
GS
[0.75 0 0 0.75 0 0] CT
0.775 GC
[1 3] 0 setdash
2 LJ
0.667 LW
N
192.632 338 M
192.632 34 L
S
GR
GS
[0.75 0 0 0.75 0 0] CT
0.775 GC
[1 3] 0 setdash
2 LJ
0.667 LW
N
210.84 338 M
210.84 34 L
S
GR
GS
[0.75 0 0 0.75 0 0] CT
0.775 GC
[1 3] 0 setdash
2 LJ
0.667 LW
N
229.047 338 M
229.047 34 L
S
GR
GS
[0.75 0 0 0.75 0 0] CT
0.775 GC
[1 3] 0 setdash
2 LJ
0.667 LW
N
247.255 338 M
247.255 34 L
S
GR
GS
[0.75 0 0 0.75 0 0] CT
0.775 GC
[1 3] 0 setdash
2 LJ
0.667 LW
N
265.462 338 M
265.462 34 L
S
GR
GS
[0.75 0 0 0.75 0 0] CT
0.775 GC
[1 3] 0 setdash
2 LJ
0.667 LW
N
283.67 338 M
283.67 34 L
S
GR
GS
[0.75 0 0 0.75 0 0] CT
0.775 GC
[1 3] 0 setdash
2 LJ
0.667 LW
N
301.877 338 M
301.877 34 L
S
GR
GS
[0.75 0 0 0.75 0 0] CT
0.775 GC
[1 3] 0 setdash
2 LJ
0.667 LW
N
320.085 338 M
320.085 34 L
S
GR
GS
[0.75 0 0 0.75 0 0] CT
0.775 GC
[1 3] 0 setdash
2 LJ
0.667 LW
N
338.292 338 M
338.292 34 L
S
GR
GS
[0.75 0 0 0.75 0 0] CT
0.775 GC
[1 3] 0 setdash
2 LJ
0.667 LW
N
356.5 338 M
356.5 34 L
S
GR
GS
[0.75 0 0 0.75 0 0] CT
0.775 GC
[1 3] 0 setdash
2 LJ
0.667 LW
N
374.708 338 M
374.708 34 L
S
GR
GS
[0.75 0 0 0.75 0 0] CT
0.775 GC
[1 3] 0 setdash
2 LJ
0.667 LW
N
392.915 338 M
392.915 34 L
S
GR
GS
[0.75 0 0 0.75 0 0] CT
0.775 GC
[1 3] 0 setdash
2 LJ
0.667 LW
N
411.123 338 M
411.123 34 L
S
GR
GS
[0.75 0 0 0.75 0 0] CT
0.775 GC
[1 3] 0 setdash
2 LJ
0.667 LW
N
429.33 338 M
429.33 34 L
S
GR
GS
[0.75 0 0 0.75 0 0] CT
0.775 GC
[1 3] 0 setdash
2 LJ
0.667 LW
N
447.538 338 M
447.538 34 L
S
GR
GS
[0.75 0 0 0.75 0 0] CT
0.775 GC
[1 3] 0 setdash
2 LJ
0.667 LW
N
453 338 M
67 338 L
S
GR
GS
[0.75 0 0 0.75 0 0] CT
0.775 GC
[1 3] 0 setdash
2 LJ
0.667 LW
N
453 320.118 M
67 320.118 L
S
GR
GS
[0.75 0 0 0.75 0 0] CT
0.775 GC
[1 3] 0 setdash
2 LJ
0.667 LW
N
453 302.235 M
67 302.235 L
S
GR
GS
[0.75 0 0 0.75 0 0] CT
0.775 GC
[1 3] 0 setdash
2 LJ
0.667 LW
N
453 284.353 M
67 284.353 L
S
GR
GS
[0.75 0 0 0.75 0 0] CT
0.775 GC
[1 3] 0 setdash
2 LJ
0.667 LW
N
453 266.471 M
67 266.471 L
S
GR
GS
[0.75 0 0 0.75 0 0] CT
0.775 GC
[1 3] 0 setdash
2 LJ
0.667 LW
N
453 248.588 M
67 248.588 L
S
GR
GS
[0.75 0 0 0.75 0 0] CT
0.775 GC
[1 3] 0 setdash
2 LJ
0.667 LW
N
453 230.706 M
67 230.706 L
S
GR
GS
[0.75 0 0 0.75 0 0] CT
0.775 GC
[1 3] 0 setdash
2 LJ
0.667 LW
N
453 212.824 M
67 212.824 L
S
GR
GS
[0.75 0 0 0.75 0 0] CT
0.775 GC
[1 3] 0 setdash
2 LJ
0.667 LW
N
453 194.941 M
67 194.941 L
S
GR
GS
[0.75 0 0 0.75 0 0] CT
0.775 GC
[1 3] 0 setdash
2 LJ
0.667 LW
N
453 177.059 M
67 177.059 L
S
GR
GS
[0.75 0 0 0.75 0 0] CT
0.775 GC
[1 3] 0 setdash
2 LJ
0.667 LW
N
453 159.176 M
67 159.176 L
S
GR
GS
[0.75 0 0 0.75 0 0] CT
0.775 GC
[1 3] 0 setdash
2 LJ
0.667 LW
N
453 141.294 M
67 141.294 L
S
GR
GS
[0.75 0 0 0.75 0 0] CT
0.775 GC
[1 3] 0 setdash
2 LJ
0.667 LW
N
453 123.412 M
67 123.412 L
S
GR
GS
[0.75 0 0 0.75 0 0] CT
0.775 GC
[1 3] 0 setdash
2 LJ
0.667 LW
N
453 105.529 M
67 105.529 L
S
GR
GS
[0.75 0 0 0.75 0 0] CT
0.775 GC
[1 3] 0 setdash
2 LJ
0.667 LW
N
453 87.647 M
67 87.647 L
S
GR
GS
[0.75 0 0 0.75 0 0] CT
0.775 GC
[1 3] 0 setdash
2 LJ
0.667 LW
N
453 69.765 M
67 69.765 L
S
GR
GS
[0.75 0 0 0.75 0 0] CT
0.775 GC
[1 3] 0 setdash
2 LJ
0.667 LW
N
453 51.882 M
67 51.882 L
S
GR
GS
[0.75 0 0 0.75 0 0] CT
0.775 GC
[1 3] 0 setdash
2 LJ
0.667 LW
N
453 34 M
67 34 L
S
GR
GS
[0.75 0 0 0.75 0 0] CT
0.149 GC
2 setlinecap
1 LJ
0.667 LW
N
67 338 M
453 338 L
S
GR
GS
[0.75 0 0 0.75 0 0] CT
0.149 GC
2 setlinecap
1 LJ
0.667 LW
N
67 34 M
453 34 L
S
GR
GS
[0.75 0 0 0.75 0 0] CT
0.149 GC
2 setlinecap
1 LJ
0.667 LW
N
156.217 338 M
156.217 334.14 L
S
GR
GS
[0.75 0 0 0.75 0 0] CT
0.149 GC
2 setlinecap
1 LJ
0.667 LW
N
247.255 338 M
247.255 334.14 L
S
GR
GS
[0.75 0 0 0.75 0 0] CT
0.149 GC
2 setlinecap
1 LJ
0.667 LW
N
338.292 338 M
338.292 334.14 L
S
GR
GS
[0.75 0 0 0.75 0 0] CT
0.149 GC
2 setlinecap
1 LJ
0.667 LW
N
429.33 338 M
429.33 334.14 L
S
GR
GS
[0.75 0 0 0.75 0 0] CT
0.149 GC
2 setlinecap
1 LJ
0.667 LW
N
156.217 34 M
156.217 37.86 L
S
GR
GS
[0.75 0 0 0.75 0 0] CT
0.149 GC
2 setlinecap
1 LJ
0.667 LW
N
247.255 34 M
247.255 37.86 L
S
GR
GS
[0.75 0 0 0.75 0 0] CT
0.149 GC
2 setlinecap
1 LJ
0.667 LW
N
338.292 34 M
338.292 37.86 L
S
GR
GS
[0.75 0 0 0.75 0 0] CT
0.149 GC
2 setlinecap
1 LJ
0.667 LW
N
429.33 34 M
429.33 37.86 L
S
GR
GS
[0.75 0 0 0.75 117.16273 258.49999] CT
0.149 GC
/Helvetica 20 F
GS
[1 0 0 1 0 0] CT
-11.5 21 moveto 
1 -1 scale
(50) t 
GR
GR
GS
[0.75 0 0 0.75 185.44104 258.49999] CT
0.149 GC
/Helvetica 20 F
GS
[1 0 0 1 0 0] CT
-17 21 moveto 
1 -1 scale
(100) t 
GR
GR
GS
[0.75 0 0 0.75 253.71934 258.49999] CT
0.149 GC
/Helvetica 20 F
GS
[1 0 0 1 0 0] CT
-17 21 moveto 
1 -1 scale
(150) t 
GR
GR
GS
[0.75 0 0 0.75 321.99765 258.49999] CT
0.149 GC
/Helvetica 20 F
GS
[1 0 0 1 0 0] CT
-17 21 moveto 
1 -1 scale
(200) t 
GR
GR
GS
[0.75 0 0 0.75 195.00014 279] CT
0.149 GC
/Helvetica 22 F
GS
[1 0 0 1 0 0] CT
-21.5 23 moveto 
1 -1 scale
(date) t 
GR
GR
GS
[0.75 0 0 0.75 0 0] CT
0.149 GC
2 setlinecap
1 LJ
0.667 LW
N
67 338 M
67 34 L
S
GR
GS
[0.75 0 0 0.75 0 0] CT
0.149 GC
2 setlinecap
1 LJ
0.667 LW
N
453 338 M
453 34 L
S
GR
GS
[0.75 0 0 0.75 0 0] CT
0.149 GC
2 setlinecap
1 LJ
0.667 LW
N
67 338 M
70.86 338 L
S
GR
GS
[0.75 0 0 0.75 0 0] CT
0.149 GC
2 setlinecap
1 LJ
0.667 LW
N
67 248.588 M
70.86 248.588 L
S
GR
GS
[0.75 0 0 0.75 0 0] CT
0.149 GC
2 setlinecap
1 LJ
0.667 LW
N
67 159.176 M
70.86 159.176 L
S
GR
GS
[0.75 0 0 0.75 0 0] CT
0.149 GC
2 setlinecap
1 LJ
0.667 LW
N
67 69.765 M
70.86 69.765 L
S
GR
GS
[0.75 0 0 0.75 0 0] CT
0.149 GC
2 setlinecap
1 LJ
0.667 LW
N
453 338 M
449.14 338 L
S
GR
GS
[0.75 0 0 0.75 0 0] CT
0.149 GC
2 setlinecap
1 LJ
0.667 LW
N
453 248.588 M
449.14 248.588 L
S
GR
GS
[0.75 0 0 0.75 0 0] CT
0.149 GC
2 setlinecap
1 LJ
0.667 LW
N
453 159.176 M
449.14 159.176 L
S
GR
GS
[0.75 0 0 0.75 0 0] CT
0.149 GC
2 setlinecap
1 LJ
0.667 LW
N
453 69.765 M
449.14 69.765 L
S
GR
GS
[0.75 0 0 0.75 45.25 253.5] CT
0.149 GC
/Helvetica 20 F
GS
[1 0 0 1 0 0] CT
-12 8 moveto 
1 -1 scale
(0) t 
GR
GR
GS
[0.75 0 0 0.75 45.25 186.44118] CT
0.149 GC
/Helvetica 20 F
GS
[1 0 0 1 0 0] CT
-28 8 moveto 
1 -1 scale
(0.5) t 
GR
GR
GS
[0.75 0 0 0.75 45.25 119.38235] CT
0.149 GC
/Helvetica 20 F
GS
[1 0 0 1 0 0] CT
-12 8 moveto 
1 -1 scale
(1) t 
GR
GR
GS
[0.75 0 0 0.75 45.25 52.32353] CT
0.149 GC
/Helvetica 20 F
GS
[1 0 0 1 0 0] CT
-28 8 moveto 
1 -1 scale
(1.5) t 
GR
GR
GS
[0 -0.75 0.75 0 21.25 139.49989] CT
0.149 GC
/Helvetica 22 F
GS
[1 0 0 1 0 0] CT
-29 -5 moveto 
1 -1 scale
(regret) t 
GR
GR
GS
[0.75 0 0 0.75 195.00018 22.40624] CT
/Helvetica-Bold 22 F
GS
[1 0 0 1 0 0] CT
-35 -5 moveto 
1 -1 scale
(Regret) t 
GR
GR
GS
[0.75 0 0 0.75 0 0] CT
0 0.447 0.741 RC
1 LJ
2 LW
N
67 328.645 M
68.821 330.205 L
70.642 329.281 L
72.462 329.354 L
74.283 319.521 L
76.104 325.089 L
77.925 316.879 L
79.745 310.02 L
81.566 330.191 L
83.387 318.227 L
85.208 324.919 L
87.028 308.197 L
88.849 301.362 L
90.67 302.199 L
92.491 305.526 L
94.311 306.075 L
96.132 300.03 L
97.953 296.659 L
99.774 298.721 L
101.594 292.32 L
103.415 281.356 L
105.236 274.207 L
107.057 273.692 L
108.877 270.409 L
110.698 283.229 L
112.519 290.068 L
114.34 277.343 L
116.16 285.117 L
117.981 314.134 L
119.802 302.442 L
121.623 312.353 L
123.443 310.62 L
125.264 311.437 L
127.085 310.912 L
128.906 315.492 L
130.726 317.436 L
132.547 311.007 L
134.368 315.008 L
136.189 319.468 L
138.009 307.668 L
139.83 307.737 L
141.651 313.511 L
143.472 310.205 L
145.292 312.649 L
147.113 307.982 L
148.934 310.837 L
150.755 317.255 L
152.575 313.575 L
154.396 313.371 L
156.217 315.726 L
158.038 312.776 L
159.858 316.316 L
161.679 303.964 L
163.5 303.461 L
165.321 304.293 L
167.142 305.082 L
168.962 304.757 L
170.783 308.952 L
172.604 304.969 L
174.425 301.46 L
176.245 303.608 L
178.066 303.4 L
179.887 304.765 L
181.708 303.016 L
183.528 303.936 L
185.349 302.903 L
187.17 299.677 L
188.991 296.922 L
190.811 294.648 L
192.632 292.501 L
194.453 290.812 L
196.274 291.167 L
198.094 291.743 L
199.915 292.444 L
201.736 293.14 L
203.557 292.581 L
205.377 291.897 L
207.198 278.175 L
209.019 280.385 L
210.84 279.821 L
212.66 267.827 L
214.481 268.982 L
216.302 267.23 L
218.123 271.556 L
219.943 268.589 L
221.764 266.863 L
223.585 263.734 L
225.406 258.826 L
227.226 251.553 L
229.047 249.225 L
230.868 247.881 L
232.689 245.169 L
234.509 257.866 L
236.33 253.353 L
238.151 249.792 L
239.972 254.019 L
241.792 257.576 L
243.613 253.717 L
245.434 253.825 L
247.255 245.95 L
249.075 242.361 L
250.896 242.148 L
252.717 245.05 L
254.538 240.366 L
256.358 239.724 L
258.179 245.394 L
260 247.394 L
261.821 245.459 L
263.642 254.35 L
265.462 275.357 L
267.283 241.502 L
269.104 231.263 L
270.925 240.826 L
272.745 251.545 L
274.566 262.659 L
276.387 259.735 L
278.208 270.888 L
280.028 266.506 L
281.849 271.714 L
283.67 273.717 L
285.491 271.424 L
287.311 268.886 L
289.132 239.358 L
290.953 249.124 L
292.774 261.459 L
294.594 251.208 L
296.415 264.63 L
298.236 276.011 L
300.057 264.328 L
301.877 263.897 L
303.698 262.59 L
305.519 260.761 L
307.34 262.292 L
309.16 260.428 L
310.981 253.921 L
312.802 226.932 L
314.623 199.085 L
316.443 220.83 L
318.264 237.515 L
320.085 229.279 L
321.906 241.501 L
323.726 252.656 L
325.547 260.757 L
327.368 293.218 L
329.189 279.955 L
331.009 276.113 L
332.83 276.717 L
334.651 271.008 L
336.472 281.436 L
338.292 257.828 L
340.113 292.344 L
341.934 300.304 L
343.755 283.037 L
345.575 289.516 L
347.396 291.825 L
349.217 294.164 L
351.038 303.118 L
352.858 288.734 L
354.679 237.727 L
356.5 226.939 L
358.321 227.185 L
360.142 220.524 L
361.962 228.61 L
363.783 203.88 L
365.604 199.56 L
367.425 210.627 L
369.245 217.368 L
371.066 207.49 L
372.887 232.305 L
374.708 251.904 L
376.528 266.403 L
378.349 253.639 L
380.17 255.327 L
381.991 263.72 L
383.811 267.962 L
385.632 276.248 L
387.453 292.754 L
389.274 276.2 L
391.094 253.869 L
392.915 258.416 L
394.736 269.717 L
396.557 272.984 L
398.377 266.928 L
400.198 267.644 L
402.019 270.283 L
403.84 274.784 L
405.66 282.355 L
407.481 286.083 L
409.302 277.851 L
411.123 278.596 L
412.943 283.935 L
414.764 283.693 L
416.585 293.121 L
418.406 293.553 L
420.226 299.345 L
422.047 301.915 L
423.868 297.962 L
425.689 298.25 L
427.509 303.602 L
429.33 306.184 L
431.151 291.869 L
432.972 272.6 L
434.792 275.17 L
436.613 274.654 L
438.434 277.027 L
440.255 283.537 L
442.075 287.398 L
443.896 293.246 L
445.717 289.836 L
447.538 291.963 L
449.358 294.493 L
451.179 298.851 L
453 298.092 L
S
GR
GS
[0.75 0 0 0.75 0 0] CT
0.851 0.325 0.098 RC
1 LJ
2 LW
N
67 50.195 M
68.821 50.195 L
70.642 50.195 L
72.462 50.195 L
74.283 50.195 L
76.104 50.195 L
77.925 50.195 L
79.745 50.195 L
81.566 50.195 L
83.387 50.195 L
85.208 50.195 L
87.028 50.195 L
88.849 50.195 L
90.67 50.195 L
92.491 50.195 L
94.311 50.195 L
96.132 50.195 L
97.953 50.195 L
99.774 50.195 L
101.594 50.195 L
103.415 50.195 L
105.236 50.195 L
107.057 50.195 L
108.877 50.195 L
110.698 50.195 L
112.519 50.195 L
114.34 50.195 L
116.16 50.195 L
117.981 50.195 L
119.802 50.195 L
121.623 50.195 L
123.443 50.195 L
125.264 50.195 L
127.085 50.195 L
128.906 50.195 L
130.726 50.195 L
132.547 50.195 L
134.368 50.195 L
136.189 50.195 L
138.009 50.195 L
139.83 50.195 L
141.651 50.195 L
143.472 50.195 L
145.292 50.195 L
147.113 50.195 L
148.934 50.195 L
150.755 50.195 L
152.575 50.195 L
154.396 50.195 L
156.217 50.195 L
158.038 50.195 L
159.858 50.195 L
161.679 50.195 L
163.5 50.195 L
165.321 50.195 L
167.142 50.195 L
168.962 50.195 L
170.783 50.195 L
172.604 50.195 L
174.425 50.195 L
176.245 50.195 L
178.066 50.195 L
179.887 50.195 L
181.708 50.195 L
183.528 50.195 L
185.349 50.195 L
187.17 50.195 L
188.991 50.195 L
190.811 50.195 L
192.632 50.195 L
194.453 50.195 L
196.274 50.195 L
198.094 50.195 L
199.915 50.195 L
201.736 50.195 L
203.557 50.195 L
205.377 50.195 L
207.198 50.195 L
209.019 50.195 L
210.84 50.195 L
212.66 50.195 L
214.481 50.195 L
216.302 50.195 L
218.123 50.195 L
219.943 50.195 L
221.764 50.195 L
223.585 50.195 L
225.406 50.195 L
227.226 50.195 L
229.047 50.195 L
230.868 50.195 L
232.689 50.195 L
234.509 50.195 L
236.33 50.195 L
238.151 50.195 L
239.972 50.195 L
241.792 50.195 L
243.613 50.195 L
245.434 50.195 L
247.255 50.195 L
249.075 50.195 L
250.896 50.195 L
252.717 50.195 L
254.538 50.195 L
256.358 50.195 L
258.179 50.195 L
260 50.195 L
261.821 50.195 L
263.642 50.195 L
265.462 50.195 L
267.283 50.195 L
269.104 50.195 L
270.925 50.195 L
272.745 50.195 L
274.566 50.195 L
276.387 50.195 L
278.208 50.195 L
280.028 50.195 L
281.849 50.195 L
283.67 50.195 L
285.491 50.195 L
287.311 50.195 L
289.132 50.195 L
290.953 50.195 L
292.774 50.195 L
294.594 50.195 L
296.415 50.195 L
298.236 50.195 L
300.057 50.195 L
301.877 50.195 L
303.698 50.195 L
305.519 50.195 L
307.34 50.195 L
309.16 50.195 L
310.981 50.195 L
312.802 50.195 L
314.623 50.195 L
316.443 50.195 L
318.264 50.195 L
320.085 50.195 L
321.906 50.195 L
323.726 50.195 L
325.547 50.195 L
327.368 50.195 L
329.189 50.195 L
331.009 50.195 L
332.83 50.195 L
334.651 50.195 L
336.472 50.195 L
338.292 50.195 L
340.113 50.195 L
341.934 50.195 L
343.755 50.195 L
345.575 50.195 L
347.396 50.195 L
349.217 50.195 L
351.038 50.195 L
352.858 50.195 L
354.679 50.195 L
356.5 50.195 L
358.321 50.195 L
360.142 50.195 L
361.962 50.195 L
363.783 50.195 L
365.604 50.195 L
367.425 50.195 L
369.245 50.195 L
371.066 50.195 L
372.887 50.195 L
374.708 50.195 L
376.528 50.195 L
378.349 50.195 L
380.17 50.195 L
381.991 50.195 L
383.811 50.195 L
385.632 50.195 L
387.453 50.195 L
389.274 50.195 L
391.094 50.195 L
392.915 50.195 L
394.736 50.195 L
396.557 50.195 L
398.377 50.195 L
400.198 50.195 L
402.019 50.195 L
403.84 50.195 L
405.66 50.195 L
407.481 50.195 L
409.302 50.195 L
411.123 50.195 L
412.943 50.195 L
414.764 50.195 L
416.585 50.195 L
418.406 50.195 L
420.226 50.195 L
422.047 50.195 L
423.868 50.195 L
425.689 50.195 L
427.509 50.195 L
429.33 50.195 L
431.151 50.195 L
432.972 50.195 L
434.792 50.195 L
436.613 50.195 L
438.434 50.195 L
440.255 50.195 L
442.075 50.195 L
443.896 50.195 L
445.717 50.195 L
447.538 50.195 L
449.358 50.195 L
451.179 50.195 L
453 50.195 L
S
GR
GS
[0.75 0 0 0.75 0 0] CT
1 GC
N
440 98 M
440 47 L
216 47 L
216 98 L
cp
f
GR
GS
[0.75 0 0 0.75 197.25 45.47525] CT
/Helvetica 18 F
GS
[1 0 0 1 0 0] CT
0 7.5 moveto 
1 -1 scale
(Regret AA) t 
GR
GR
GS
[0.75 0 0 0.75 0 0] CT
0 0.447 0.741 RC
1 LJ
2 LW
N
220 60.634 M
260 60.634 L
S
GR
GS
[0.75 0 0 0.75 197.25 63.27475] CT
/Helvetica 18 F
GS
[1 0 0 1 0 0] CT
0 7.5 moveto 
1 -1 scale
(Theoretical maximum) t 
GR
GR
GS
[0.75 0 0 0.75 0 0] CT
0.851 0.325 0.098 RC
1 LJ
2 LW
N
220 84.366 M
260 84.366 L
S
GR
GS
[0.75 0 0 0.75 0 0] CT
0.149 GC
10.0 ML
0.667 LW
N
216 98 M
216 47 L
440 47 L
440 98 L
cp
S
GR
%%Trailer
%%Pages: 1
%%EOF
