%!PS-Adobe-3.0 EPSF-3.0
%%Creator: (MATLAB, The Mathworks, Inc. Version 9.3.0.713579 \(R2017b\). Operating System: Windows 7)
%%Title: fig/RBFN_1000_20_100000_Q.eps
%%CreationDate: 2018-05-06T13:30:09
%%Pages: (atend)
%%BoundingBox:    35     3   479   384
%%LanguageLevel: 3
%%EndComments
%%BeginProlog
%%BeginResource: procset (Apache XML Graphics Std ProcSet) 1.2 0
%%Version: 1.2 0
%%Copyright: (Copyright 2001-2003,2010 The Apache Software Foundation. License terms: http://www.apache.org/licenses/LICENSE-2.0)
/bd{bind def}bind def
/ld{load def}bd
/GR/grestore ld
/GS/gsave ld
/RM/rmoveto ld
/C/curveto ld
/t/show ld
/L/lineto ld
/ML/setmiterlimit ld
/CT/concat ld
/f/fill ld
/N/newpath ld
/S/stroke ld
/CC/setcmykcolor ld
/A/ashow ld
/cp/closepath ld
/RC/setrgbcolor ld
/LJ/setlinejoin ld
/GC/setgray ld
/LW/setlinewidth ld
/M/moveto ld
/re {4 2 roll M
1 index 0 rlineto
0 exch rlineto
neg 0 rlineto
cp } bd
/_ctm matrix def
/_tm matrix def
/BT { _ctm currentmatrix pop matrix _tm copy pop 0 0 moveto } bd
/ET { _ctm setmatrix } bd
/iTm { _ctm setmatrix _tm concat } bd
/Tm { _tm astore pop iTm 0 0 moveto } bd
/ux 0.0 def
/uy 0.0 def
/F {
  /Tp exch def
  /Tf exch def
  Tf findfont Tp scalefont setfont
  /cf Tf def  /cs Tp def
} bd
/ULS {currentpoint /uy exch def /ux exch def} bd
/ULE {
  /Tcx currentpoint pop def
  gsave
  newpath
  cf findfont cs scalefont dup
  /FontMatrix get 0 get /Ts exch def /FontInfo get dup
  /UnderlinePosition get Ts mul /To exch def
  /UnderlineThickness get Ts mul /Tt exch def
  ux uy To add moveto  Tcx uy To add lineto
  Tt setlinewidth stroke
  grestore
} bd
/OLE {
  /Tcx currentpoint pop def
  gsave
  newpath
  cf findfont cs scalefont dup
  /FontMatrix get 0 get /Ts exch def /FontInfo get dup
  /UnderlinePosition get Ts mul /To exch def
  /UnderlineThickness get Ts mul /Tt exch def
  ux uy To add cs add moveto Tcx uy To add cs add lineto
  Tt setlinewidth stroke
  grestore
} bd
/SOE {
  /Tcx currentpoint pop def
  gsave
  newpath
  cf findfont cs scalefont dup
  /FontMatrix get 0 get /Ts exch def /FontInfo get dup
  /UnderlinePosition get Ts mul /To exch def
  /UnderlineThickness get Ts mul /Tt exch def
  ux uy To add cs 10 mul 26 idiv add moveto Tcx uy To add cs 10 mul 26 idiv add lineto
  Tt setlinewidth stroke
  grestore
} bd
/QT {
/Y22 exch store
/X22 exch store
/Y21 exch store
/X21 exch store
currentpoint
/Y21 load 2 mul add 3 div exch
/X21 load 2 mul add 3 div exch
/X21 load 2 mul /X22 load add 3 div
/Y21 load 2 mul /Y22 load add 3 div
/X22 load /Y22 load curveto
} bd
/SSPD {
dup length /d exch dict def
{
/v exch def
/k exch def
currentpagedevice k known {
/cpdv currentpagedevice k get def
v cpdv ne {
/upd false def
/nullv v type /nulltype eq def
/nullcpdv cpdv type /nulltype eq def
nullv nullcpdv or
{
/upd true def
} {
/sametype v type cpdv type eq def
sametype {
v type /arraytype eq {
/vlen v length def
/cpdvlen cpdv length def
vlen cpdvlen eq {
0 1 vlen 1 sub {
/i exch def
/obj v i get def
/cpdobj cpdv i get def
obj cpdobj ne {
/upd true def
exit
} if
} for
} {
/upd true def
} ifelse
} {
v type /dicttype eq {
v {
/dv exch def
/dk exch def
/cpddv cpdv dk get def
dv cpddv ne {
/upd true def
exit
} if
} forall
} {
/upd true def
} ifelse
} ifelse
} if
} ifelse
upd true eq {
d k v put
} if
} if
} if
} forall
d length 0 gt {
d setpagedevice
} if
} bd
/RE { % /NewFontName [NewEncodingArray] /FontName RE -
  findfont dup length dict begin
  {
    1 index /FID ne
    {def} {pop pop} ifelse
  } forall
  /Encoding exch def
  /FontName 1 index def
  currentdict definefont pop
  end
} bind def
%%EndResource
%%BeginResource: procset (Apache XML Graphics EPS ProcSet) 1.0 0
%%Version: 1.0 0
%%Copyright: (Copyright 2002-2003 The Apache Software Foundation. License terms: http://www.apache.org/licenses/LICENSE-2.0)
/BeginEPSF { %def
/b4_Inc_state save def         % Save state for cleanup
/dict_count countdictstack def % Count objects on dict stack
/op_count count 1 sub def      % Count objects on operand stack
userdict begin                 % Push userdict on dict stack
/showpage { } def              % Redefine showpage, { } = null proc
0 setgray 0 setlinecap         % Prepare graphics state
1 setlinewidth 0 setlinejoin
10 setmiterlimit [ ] 0 setdash newpath
/languagelevel where           % If level not equal to 1 then
{pop languagelevel             % set strokeadjust and
1 ne                           % overprint to their defaults.
{false setstrokeadjust false setoverprint
} if
} if
} bd
/EndEPSF { %def
count op_count sub {pop} repeat            % Clean up stacks
countdictstack dict_count sub {end} repeat
b4_Inc_state restore
} bd
%%EndResource
%FOPBeginFontDict
%%IncludeResource: font Courier-Oblique
%%IncludeResource: font Courier-BoldOblique
%%IncludeResource: font Courier-Bold
%%IncludeResource: font ZapfDingbats
%%IncludeResource: font Symbol
%%IncludeResource: font Helvetica
%%IncludeResource: font Helvetica-Oblique
%%IncludeResource: font Helvetica-Bold
%%IncludeResource: font Helvetica-BoldOblique
%%IncludeResource: font Times-Roman
%%IncludeResource: font Times-Italic
%%IncludeResource: font Times-Bold
%%IncludeResource: font Times-BoldItalic
%%IncludeResource: font Courier
%FOPEndFontDict
%%BeginResource: encoding WinAnsiEncoding
/WinAnsiEncoding [
/.notdef /.notdef /.notdef /.notdef /.notdef
/.notdef /.notdef /.notdef /.notdef /.notdef
/.notdef /.notdef /.notdef /.notdef /.notdef
/.notdef /.notdef /.notdef /.notdef /.notdef
/.notdef /.notdef /.notdef /.notdef /.notdef
/.notdef /.notdef /.notdef /.notdef /.notdef
/.notdef /.notdef /space /exclam /quotedbl
/numbersign /dollar /percent /ampersand /quotesingle
/parenleft /parenright /asterisk /plus /comma
/hyphen /period /slash /zero /one
/two /three /four /five /six
/seven /eight /nine /colon /semicolon
/less /equal /greater /question /at
/A /B /C /D /E
/F /G /H /I /J
/K /L /M /N /O
/P /Q /R /S /T
/U /V /W /X /Y
/Z /bracketleft /backslash /bracketright /asciicircum
/underscore /quoteleft /a /b /c
/d /e /f /g /h
/i /j /k /l /m
/n /o /p /q /r
/s /t /u /v /w
/x /y /z /braceleft /bar
/braceright /asciitilde /bullet /Euro /bullet
/quotesinglbase /florin /quotedblbase /ellipsis /dagger
/daggerdbl /circumflex /perthousand /Scaron /guilsinglleft
/OE /bullet /Zcaron /bullet /bullet
/quoteleft /quoteright /quotedblleft /quotedblright /bullet
/endash /emdash /asciitilde /trademark /scaron
/guilsinglright /oe /bullet /zcaron /Ydieresis
/space /exclamdown /cent /sterling /currency
/yen /brokenbar /section /dieresis /copyright
/ordfeminine /guillemotleft /logicalnot /sfthyphen /registered
/macron /degree /plusminus /twosuperior /threesuperior
/acute /mu /paragraph /middot /cedilla
/onesuperior /ordmasculine /guillemotright /onequarter /onehalf
/threequarters /questiondown /Agrave /Aacute /Acircumflex
/Atilde /Adieresis /Aring /AE /Ccedilla
/Egrave /Eacute /Ecircumflex /Edieresis /Igrave
/Iacute /Icircumflex /Idieresis /Eth /Ntilde
/Ograve /Oacute /Ocircumflex /Otilde /Odieresis
/multiply /Oslash /Ugrave /Uacute /Ucircumflex
/Udieresis /Yacute /Thorn /germandbls /agrave
/aacute /acircumflex /atilde /adieresis /aring
/ae /ccedilla /egrave /eacute /ecircumflex
/edieresis /igrave /iacute /icircumflex /idieresis
/eth /ntilde /ograve /oacute /ocircumflex
/otilde /odieresis /divide /oslash /ugrave
/uacute /ucircumflex /udieresis /yacute /thorn
/ydieresis
] def
%%EndResource
%FOPBeginFontReencode
/Courier-Oblique findfont
dup length dict begin
  {1 index /FID ne {def} {pop pop} ifelse} forall
  /Encoding WinAnsiEncoding def
  currentdict
end
/Courier-Oblique exch definefont pop
/Courier-BoldOblique findfont
dup length dict begin
  {1 index /FID ne {def} {pop pop} ifelse} forall
  /Encoding WinAnsiEncoding def
  currentdict
end
/Courier-BoldOblique exch definefont pop
/Courier-Bold findfont
dup length dict begin
  {1 index /FID ne {def} {pop pop} ifelse} forall
  /Encoding WinAnsiEncoding def
  currentdict
end
/Courier-Bold exch definefont pop
/Helvetica findfont
dup length dict begin
  {1 index /FID ne {def} {pop pop} ifelse} forall
  /Encoding WinAnsiEncoding def
  currentdict
end
/Helvetica exch definefont pop
/Helvetica-Oblique findfont
dup length dict begin
  {1 index /FID ne {def} {pop pop} ifelse} forall
  /Encoding WinAnsiEncoding def
  currentdict
end
/Helvetica-Oblique exch definefont pop
/Helvetica-Bold findfont
dup length dict begin
  {1 index /FID ne {def} {pop pop} ifelse} forall
  /Encoding WinAnsiEncoding def
  currentdict
end
/Helvetica-Bold exch definefont pop
/Helvetica-BoldOblique findfont
dup length dict begin
  {1 index /FID ne {def} {pop pop} ifelse} forall
  /Encoding WinAnsiEncoding def
  currentdict
end
/Helvetica-BoldOblique exch definefont pop
/Times-Roman findfont
dup length dict begin
  {1 index /FID ne {def} {pop pop} ifelse} forall
  /Encoding WinAnsiEncoding def
  currentdict
end
/Times-Roman exch definefont pop
/Times-Italic findfont
dup length dict begin
  {1 index /FID ne {def} {pop pop} ifelse} forall
  /Encoding WinAnsiEncoding def
  currentdict
end
/Times-Italic exch definefont pop
/Times-Bold findfont
dup length dict begin
  {1 index /FID ne {def} {pop pop} ifelse} forall
  /Encoding WinAnsiEncoding def
  currentdict
end
/Times-Bold exch definefont pop
/Times-BoldItalic findfont
dup length dict begin
  {1 index /FID ne {def} {pop pop} ifelse} forall
  /Encoding WinAnsiEncoding def
  currentdict
end
/Times-BoldItalic exch definefont pop
/Courier findfont
dup length dict begin
  {1 index /FID ne {def} {pop pop} ifelse} forall
  /Encoding WinAnsiEncoding def
  currentdict
end
/Courier exch definefont pop
%FOPEndFontReencode
%%EndProlog
%%Page: 1 1
%%PageBoundingBox: 0 0 525 394
%%BeginPageSetup
[1 0 0 -1 0 394] CT
%%EndPageSetup
GS
[0.75 0 0 0.74971 0 0.39999] CT
N
0 0 M
700 0 L
700 525 L
0 525 L
0 0 L
cp
clip
1 GC
N
0 0 700 525 re
f
GR
GS
[0.75 0 0 0.74971 0 0.39999] CT
1 GC
N
0 0 700 525 re
f
GR
GS
[0.75 0 0 0.74971 0 0.39999] CT
1 GC
N
91 463 M
634 463 L
634 39 L
91 39 L
cp
f
GR
GS
[0.75 0 0 0.74971 271.87525 26.54629] CT
/Helvetica-Bold 22 F
GS
[1 0 0 1 0 0] CT
-56 -5 moveto 
1 -1 scale
(Q-function) t 
GR
GR
GS
[0.75 0 0 0.74971 0 0.39999] CT
0.149 GC
1 LJ
0.667 LW
N
91 463 M
634 463 L
S
GR
GS
[0.75 0 0 0.74971 0 0.39999] CT
0.902 0.945 0.973 RC
N
120.322 463 M
121.408 463 L
122.494 463 L
123.58 463 L
124.666 463 L
125.752 463 L
126.838 463 L
127.924 463 L
129.01 463 L
130.096 463 L
131.182 463 L
132.268 463 L
133.354 463 L
134.44 463 L
135.526 463 L
136.612 463 L
137.698 463 L
138.784 463 L
139.87 463 L
140.956 463 L
142.042 463 L
143.128 463 L
144.214 463 L
145.3 463 L
146.386 463 L
147.472 463 L
148.558 463 L
149.644 463 L
150.73 463 L
151.816 463 L
152.902 463 L
153.988 463 L
155.074 463 L
156.16 463 L
157.246 463 L
158.332 463 L
159.418 463 L
160.504 463 L
161.59 463 L
162.676 463 L
163.762 463 L
164.848 463 L
165.934 463 L
167.02 463 L
168.106 463 L
169.192 463 L
170.278 463 L
171.364 463 L
172.45 463 L
173.536 463 L
174.622 463 L
175.708 463 L
176.794 463 L
177.88 463 L
178.966 463 L
180.052 463 L
181.138 463 L
182.224 463 L
183.31 463 L
184.396 463 L
185.482 463 L
186.568 463 L
187.654 463 L
188.74 463 L
189.826 463 L
190.912 463 L
191.998 463 L
193.084 463 L
194.17 463 L
195.256 463 L
196.342 463 L
197.428 463 L
198.514 463 L
199.6 463 L
200.686 463 L
201.772 463 L
202.858 463 L
203.944 463 L
205.03 463 L
206.116 463 L
207.202 463 L
208.288 463 L
209.374 463 L
210.46 463 L
211.546 463 L
212.632 463 L
213.718 463 L
214.804 463 L
215.89 463 L
216.976 463 L
218.062 463 L
219.148 463 L
220.234 463 L
221.32 463 L
222.406 463 L
223.492 463 L
224.578 463 L
225.664 463 L
226.75 463 L
227.836 463 L
228.922 463 L
230.008 463 L
231.094 463 L
232.18 463 L
233.266 463 L
234.352 463 L
235.438 463 L
236.524 463 L
237.61 463 L
238.696 463 L
239.782 463 L
240.868 463 L
241.954 463 L
243.04 463 L
244.126 463 L
245.212 463 L
246.298 463 L
247.384 463 L
248.47 463 L
249.556 463 L
250.642 463 L
251.728 463 L
250.642 39 L
249.556 39 L
248.47 39 L
247.384 39 L
246.298 39 L
245.212 39 L
244.126 39 L
243.04 39 L
241.954 39 L
240.868 39 L
239.782 39 L
238.696 39 L
237.61 39 L
236.524 39 L
235.438 39 L
234.352 39 L
233.266 39 L
232.18 39 L
231.094 39 L
230.008 39 L
228.922 39 L
227.836 39 L
226.75 39 L
225.664 39 L
224.578 39 L
223.492 39 L
222.406 39 L
221.32 39 L
220.234 39 L
219.148 39 L
218.062 39 L
216.976 39 L
215.89 39 L
214.804 39 L
213.718 39 L
212.632 39 L
211.546 39 L
210.46 39 L
209.374 39 L
208.288 39 L
207.202 39 L
206.116 39 L
205.03 39 L
203.944 39 L
202.858 39 L
201.772 39 L
200.686 39 L
199.6 39 L
198.514 39 L
197.428 39 L
196.342 39 L
195.256 39 L
194.17 39 L
193.084 39 L
191.998 39 L
190.912 39 L
189.826 39 L
188.74 39 L
187.654 39 L
186.568 39 L
185.482 39 L
184.396 39 L
183.31 39 L
182.224 39 L
181.138 39 L
180.052 39 L
178.966 39 L
177.88 39 L
176.794 39 L
175.708 39 L
174.622 39 L
173.536 39 L
172.45 39 L
171.364 39 L
170.278 39 L
169.192 39 L
168.106 39 L
167.02 39 L
165.934 39 L
164.848 39 L
163.762 39 L
162.676 39 L
161.59 39 L
160.504 39 L
159.418 39 L
158.332 39 L
157.246 39 L
156.16 39 L
155.074 39 L
153.988 39 L
152.902 39 L
151.816 39 L
150.73 39 L
149.644 39 L
148.558 39 L
147.472 39 L
146.386 39 L
145.3 39 L
144.214 39 L
143.128 39 L
142.042 39 L
140.956 39 L
139.87 39 L
138.784 39 L
137.698 39 L
136.612 39 L
135.526 39 L
134.44 39 L
133.354 39 L
132.268 39 L
131.182 39 L
130.096 39 L
129.01 39 L
127.924 39 L
126.838 39 L
125.752 39 L
124.666 39 L
123.58 39 L
122.494 39 L
121.408 39 L
cp
604.678 463 M
605.764 463 L
606.85 463 L
607.936 463 L
609.022 463 L
610.108 463 L
611.194 463 L
612.28 463 L
613.366 463 L
614.452 463 L
615.538 463 L
616.624 463 L
617.71 463 L
618.796 463 L
619.882 463 L
620.968 463 L
622.054 463 L
623.14 463 L
624.226 463 L
625.312 463 L
626.398 463 L
627.484 463 L
628.57 463 L
629.656 463 L
630.742 463 L
631.828 463 L
632.914 463 L
634 463 L
634.065 463 L
634.065 64.27 L
634.065 39 L
634 39 L
632.914 39 L
631.828 39 L
630.742 39 L
629.656 39 L
628.57 39 L
627.484 39 L
626.398 39 L
625.312 39 L
624.226 39 L
623.14 39 L
622.054 39 L
620.968 39 L
619.882 39 L
618.796 39 L
617.71 39 L
616.624 39 L
615.538 39 L
614.452 39 L
613.366 39 L
612.28 39 L
611.194 39 L
610.108 39 L
609.022 39 L
607.936 39 L
606.85 39 L
605.764 39 L
cp
f
GR
GS
[0.75 0 0 0.74971 0 0.39999] CT
0.902 0.945 0.973 RC
1 LJ
0.667 LW
N
90.935 463 M
91 463 L
92.086 463 L
93.172 463 L
94.258 463 L
95.344 463 L
96.43 463 L
97.516 463 L
98.602 463 L
99.688 463 L
100.774 463 L
101.86 463 L
102.946 463 L
104.032 463 L
105.118 463 L
106.204 463 L
107.29 463 L
108.376 463 L
109.462 463 L
110.548 463 L
111.634 463 L
112.72 463 L
113.806 463 L
114.892 463 L
115.978 463 L
117.064 463 L
118.15 463 L
119.236 463 L
120.322 463 L
121.408 463 L
122.494 463 L
123.58 463 L
124.666 463 L
125.752 463 L
126.838 463 L
127.924 463 L
129.01 463 L
130.096 463 L
131.182 463 L
132.268 463 L
133.354 463 L
134.44 463 L
135.526 463 L
136.612 463 L
137.698 463 L
138.784 463 L
139.87 463 L
140.956 463 L
142.042 463 L
143.128 463 L
144.214 463 L
145.3 463 L
146.386 463 L
147.472 463 L
148.558 463 L
149.644 463 L
150.73 463 L
151.816 463 L
152.902 463 L
153.988 463 L
155.074 463 L
156.16 463 L
157.246 463 L
158.332 463 L
159.418 463 L
160.504 463 L
161.59 463 L
162.676 463 L
163.762 463 L
164.848 463 L
165.934 463 L
167.02 463 L
168.106 463 L
169.192 463 L
170.278 463 L
171.364 463 L
172.45 463 L
173.536 463 L
174.622 463 L
175.708 463 L
176.794 463 L
177.88 463 L
178.966 463 L
180.052 463 L
181.138 463 L
182.224 463 L
183.31 463 L
184.396 463 L
185.482 463 L
186.568 463 L
187.654 463 L
188.74 463 L
189.826 463 L
190.912 463 L
191.998 463 L
193.084 463 L
194.17 463 L
195.256 463 L
196.342 463 L
197.428 463 L
198.514 463 L
199.6 463 L
200.686 463 L
201.772 463 L
202.858 463 L
203.944 463 L
205.03 463 L
206.116 463 L
207.202 463 L
208.288 463 L
209.374 463 L
210.46 463 L
211.546 463 L
212.632 463 L
213.718 463 L
214.804 463 L
215.89 463 L
216.976 463 L
218.062 463 L
219.148 463 L
220.234 463 L
221.32 463 L
222.406 463 L
223.492 463 L
224.578 463 L
225.664 463 L
226.75 463 L
227.836 463 L
228.922 463 L
230.008 463 L
231.094 463 L
232.18 463 L
233.266 463 L
234.352 463 L
235.438 463 L
236.524 463 L
237.61 463 L
238.696 463 L
239.782 463 L
240.868 463 L
241.954 463 L
243.04 463 L
244.126 463 L
245.212 463 L
246.298 463 L
247.384 463 L
248.47 463 L
249.556 463 L
250.642 463 L
251.728 463 L
252.814 463 L
253.9 463 L
254.986 463 L
256.072 463 L
257.158 463 L
258.244 463 L
259.33 463 L
260.416 463 L
261.502 463 L
262.588 463 L
263.674 463 L
264.76 463 L
265.846 463 L
266.932 463 L
268.018 463 L
269.104 463 L
270.19 463 L
271.276 463 L
272.362 463 L
273.448 463 L
274.534 463 L
275.62 463 L
276.706 463 L
277.792 463 L
278.878 463 L
279.964 463 L
281.05 463 L
282.136 463 L
283.222 463 L
284.308 463 L
285.394 463 L
286.48 463 L
287.566 463 L
288.652 463 L
289.738 463 L
290.824 463 L
291.91 463 L
292.996 463 L
294.082 463 L
295.168 463 L
296.254 463 L
297.34 463 L
298.426 463 L
299.512 463 L
300.598 463 L
301.684 463 L
302.77 463 L
303.856 463 L
304.942 463 L
306.028 463 L
307.114 463 L
308.2 463 L
309.286 463 L
310.372 463 L
311.458 463 L
312.544 463 L
313.63 463 L
314.716 463 L
315.802 463 L
316.888 463 L
317.974 463 L
319.06 463 L
320.146 463 L
321.232 463 L
322.318 463 L
323.404 463 L
324.49 463 L
325.576 463 L
326.662 463 L
327.748 463 L
328.834 463 L
329.92 463 L
331.006 463 L
332.092 463 L
333.178 463 L
334.264 463 L
335.35 463 L
336.436 463 L
337.522 463 L
338.608 463 L
339.694 463 L
340.78 463 L
341.866 463 L
342.952 463 L
344.038 463 L
345.124 463 L
346.21 463 L
347.296 463 L
348.382 463 L
349.468 463 L
350.554 463 L
351.64 463 L
352.726 463 L
353.812 463 L
354.898 463 L
355.984 463 L
357.07 463 L
358.156 463 L
359.242 463 L
360.328 463 L
361.414 463 L
362.5 463 L
363.586 463 L
364.672 463 L
365.758 463 L
366.844 463 L
367.93 463 L
369.016 463 L
370.102 463 L
371.188 463 L
372.274 463 L
373.36 463 L
374.446 463 L
375.532 463 L
376.618 463 L
377.704 463 L
378.79 463 L
379.876 463 L
380.962 463 L
382.048 463 L
383.134 463 L
384.22 463 L
385.306 463 L
386.392 463 L
387.478 463 L
388.564 463 L
389.65 463 L
390.736 463 L
391.822 463 L
392.908 463 L
393.994 463 L
395.08 463 L
396.166 463 L
397.252 463 L
398.338 463 L
399.424 463 L
400.51 463 L
401.596 463 L
402.682 463 L
403.768 463 L
404.854 463 L
405.94 463 L
407.026 463 L
408.112 463 L
409.198 463 L
410.284 463 L
411.37 463 L
412.456 463 L
413.542 463 L
414.628 463 L
415.714 463 L
416.8 463 L
417.886 463 L
418.972 463 L
420.058 463 L
421.144 463 L
422.23 463 L
423.316 463 L
424.402 463 L
425.488 463 L
426.574 463 L
427.66 463 L
428.746 463 L
429.832 463 L
430.918 463 L
432.004 463 L
433.09 463 L
434.176 463 L
435.262 463 L
436.348 463 L
437.434 463 L
438.52 463 L
439.606 463 L
440.692 463 L
441.778 463 L
442.864 463 L
443.95 463 L
445.036 463 L
446.122 463 L
447.208 463 L
448.294 463 L
449.38 463 L
450.466 463 L
451.552 463 L
452.638 463 L
453.724 463 L
454.81 463 L
455.896 463 L
456.982 463 L
458.068 463 L
459.154 463 L
460.24 463 L
461.326 463 L
462.412 463 L
463.498 463 L
464.584 463 L
465.67 463 L
466.756 463 L
467.842 463 L
468.928 463 L
470.014 463 L
471.1 463 L
472.186 463 L
473.272 463 L
474.358 463 L
475.444 463 L
476.53 463 L
477.616 463 L
478.702 463 L
479.788 463 L
480.874 463 L
481.96 463 L
483.046 463 L
484.132 463 L
485.218 463 L
486.304 463 L
487.39 463 L
488.476 463 L
489.562 463 L
490.648 463 L
491.734 463 L
492.82 463 L
493.906 463 L
494.992 463 L
496.078 463 L
497.164 463 L
498.25 463 L
499.336 463 L
500.422 463 L
501.508 463 L
502.594 463 L
503.68 463 L
504.766 463 L
505.852 463 L
506.938 463 L
508.024 463 L
509.11 463 L
510.196 463 L
511.282 463 L
512.368 463 L
513.454 463 L
514.54 463 L
515.626 463 L
516.712 463 L
517.798 463 L
518.884 463 L
519.97 463 L
521.056 463 L
522.142 463 L
523.228 463 L
524.314 463 L
525.4 463 L
526.486 463 L
527.572 463 L
528.658 463 L
529.744 463 L
530.83 463 L
531.916 463 L
533.002 463 L
534.088 463 L
535.174 463 L
536.26 463 L
537.346 463 L
538.432 463 L
539.518 463 L
540.604 463 L
541.69 463 L
542.776 463 L
543.862 463 L
544.948 463 L
546.034 463 L
547.12 463 L
548.206 463 L
549.292 463 L
550.378 463 L
551.464 463 L
552.55 463 L
553.636 463 L
554.722 463 L
555.808 463 L
556.894 463 L
557.98 463 L
559.066 463 L
560.152 463 L
561.238 463 L
562.324 463 L
563.41 463 L
564.496 463 L
565.582 463 L
566.668 463 L
567.754 463 L
568.84 463 L
569.926 463 L
571.012 463 L
572.098 463 L
573.184 463 L
574.27 463 L
575.356 463 L
576.442 463 L
577.528 463 L
578.614 463 L
579.7 463 L
580.786 463 L
581.872 463 L
582.958 463 L
584.044 463 L
585.13 463 L
586.216 463 L
587.302 463 L
588.388 463 L
589.474 463 L
590.56 463 L
591.646 463 L
592.732 463 L
593.818 463 L
594.904 463 L
595.99 463 L
597.076 463 L
598.162 463 L
599.248 463 L
600.334 463 L
601.42 463 L
602.506 463 L
603.592 463 L
604.678 463 L
605.764 463 L
606.85 463 L
607.936 463 L
609.022 463 L
610.108 463 L
611.194 463 L
612.28 463 L
613.366 463 L
614.452 463 L
615.538 463 L
616.624 463 L
617.71 463 L
618.796 463 L
619.882 463 L
620.968 463 L
622.054 463 L
623.14 463 L
624.226 463 L
625.312 463 L
626.398 463 L
627.484 463 L
628.57 463 L
629.656 463 L
630.742 463 L
631.828 463 L
632.914 463 L
634 463 L
634.065 463 L
S
GR
GS
[0.75 0 0 0.74971 0 0.39999] CT
0.902 0.945 0.973 RC
1 LJ
0.667 LW
N
634.065 39 M
634 39 L
632.914 39 L
631.828 39 L
630.742 39 L
629.656 39 L
628.57 39 L
627.484 39 L
626.398 39 L
625.312 39 L
624.226 39 L
623.14 39 L
622.054 39 L
620.968 39 L
619.882 39 L
618.796 39 L
617.71 39 L
616.624 39 L
615.538 39 L
614.452 39 L
613.366 39 L
612.28 39 L
611.194 39 L
610.108 39 L
609.022 39 L
607.936 39 L
606.85 39 L
605.764 39 L
604.678 463 L
603.592 463 L
602.506 463 L
601.42 463 L
600.334 463 L
599.248 463 L
598.162 463 L
597.076 463 L
595.99 463 L
594.904 463 L
593.818 463 L
592.732 463 L
591.646 463 L
590.56 463 L
589.474 463 L
588.388 463 L
587.302 463 L
586.216 463 L
585.13 463 L
584.044 463 L
582.958 463 L
581.872 463 L
580.786 463 L
579.7 463 L
578.614 463 L
577.528 463 L
576.442 463 L
575.356 463 L
574.27 463 L
573.184 463 L
572.098 463 L
571.012 463 L
569.926 463 L
568.84 463 L
567.754 463 L
566.668 463 L
565.582 463 L
564.496 463 L
563.41 463 L
562.324 463 L
561.238 463 L
560.152 463 L
559.066 463 L
557.98 463 L
556.894 463 L
555.808 463 L
554.722 463 L
553.636 463 L
552.55 463 L
551.464 463 L
550.378 463 L
549.292 463 L
548.206 463 L
547.12 463 L
546.034 463 L
544.948 463 L
543.862 463 L
542.776 463 L
541.69 463 L
540.604 463 L
539.518 463 L
538.432 463 L
537.346 463 L
536.26 463 L
535.174 463 L
534.088 463 L
533.002 463 L
531.916 463 L
530.83 463 L
529.744 463 L
528.658 463 L
527.572 463 L
526.486 463 L
525.4 463 L
524.314 463 L
523.228 463 L
522.142 463 L
521.056 463 L
519.97 463 L
518.884 463 L
517.798 463 L
516.712 463 L
515.626 463 L
514.54 463 L
513.454 463 L
512.368 463 L
511.282 463 L
510.196 463 L
509.11 463 L
508.024 463 L
506.938 463 L
505.852 463 L
504.766 463 L
503.68 463 L
502.594 463 L
501.508 463 L
500.422 463 L
499.336 463 L
498.25 463 L
497.164 463 L
496.078 463 L
494.992 463 L
493.906 463 L
492.82 463 L
491.734 463 L
490.648 463 L
489.562 463 L
488.476 463 L
487.39 463 L
486.304 463 L
485.218 463 L
484.132 463 L
483.046 463 L
481.96 463 L
480.874 463 L
479.788 463 L
478.702 463 L
477.616 463 L
476.53 463 L
475.444 463 L
474.358 463 L
473.272 463 L
472.186 463 L
471.1 463 L
470.014 463 L
468.928 463 L
467.842 463 L
466.756 463 L
465.67 463 L
464.584 463 L
463.498 463 L
462.412 463 L
461.326 463 L
460.24 463 L
459.154 463 L
458.068 463 L
456.982 463 L
455.896 463 L
454.81 463 L
453.724 463 L
452.638 463 L
451.552 463 L
450.466 463 L
449.38 463 L
448.294 463 L
447.208 463 L
446.122 463 L
445.036 463 L
443.95 463 L
442.864 463 L
441.778 463 L
440.692 463 L
439.606 463 L
438.52 463 L
437.434 463 L
436.348 463 L
435.262 463 L
434.176 463 L
433.09 463 L
432.004 463 L
430.918 463 L
429.832 463 L
428.746 463 L
427.66 463 L
426.574 463 L
425.488 463 L
424.402 463 L
423.316 463 L
422.23 463 L
421.144 463 L
420.058 463 L
418.972 463 L
417.886 463 L
416.8 463 L
415.714 463 L
414.628 463 L
413.542 463 L
412.456 463 L
411.37 463 L
410.284 463 L
409.198 463 L
408.112 463 L
407.026 463 L
405.94 463 L
404.854 463 L
403.768 463 L
402.682 463 L
401.596 463 L
400.51 463 L
399.424 463 L
398.338 463 L
397.252 463 L
396.166 463 L
395.08 463 L
393.994 463 L
392.908 463 L
391.822 463 L
390.736 463 L
389.65 463 L
388.564 463 L
387.478 463 L
386.392 463 L
385.306 463 L
384.22 463 L
383.134 463 L
382.048 463 L
380.962 463 L
379.876 463 L
378.79 463 L
377.704 463 L
376.618 463 L
375.532 463 L
374.446 463 L
373.36 463 L
372.274 463 L
371.188 463 L
370.102 463 L
369.016 463 L
367.93 463 L
366.844 463 L
365.758 463 L
364.672 463 L
363.586 463 L
362.5 463 L
361.414 463 L
360.328 463 L
359.242 463 L
358.156 463 L
357.07 463 L
355.984 463 L
354.898 463 L
353.812 463 L
352.726 463 L
351.64 463 L
350.554 463 L
349.468 463 L
348.382 463 L
347.296 463 L
346.21 463 L
345.124 463 L
344.038 463 L
342.952 463 L
341.866 463 L
340.78 463 L
339.694 463 L
338.608 463 L
337.522 463 L
336.436 463 L
335.35 463 L
334.264 463 L
333.178 463 L
332.092 463 L
331.006 463 L
329.92 463 L
328.834 463 L
327.748 463 L
326.662 463 L
325.576 463 L
324.49 463 L
323.404 463 L
322.318 463 L
321.232 463 L
320.146 463 L
319.06 463 L
317.974 463 L
316.888 463 L
315.802 463 L
314.716 463 L
313.63 463 L
312.544 463 L
311.458 463 L
310.372 463 L
309.286 463 L
308.2 463 L
307.114 463 L
306.028 463 L
304.942 463 L
303.856 463 L
302.77 463 L
301.684 463 L
300.598 463 L
299.512 463 L
298.426 463 L
297.34 463 L
296.254 463 L
295.168 463 L
294.082 463 L
292.996 463 L
291.91 463 L
290.824 463 L
289.738 463 L
288.652 463 L
287.566 463 L
286.48 463 L
285.394 463 L
284.308 463 L
283.222 463 L
282.136 463 L
281.05 463 L
279.964 463 L
278.878 463 L
277.792 463 L
276.706 463 L
275.62 463 L
274.534 463 L
273.448 463 L
272.362 463 L
271.276 463 L
270.19 463 L
269.104 463 L
268.018 463 L
266.932 463 L
265.846 463 L
264.76 463 L
263.674 463 L
262.588 463 L
261.502 463 L
260.416 463 L
259.33 463 L
258.244 463 L
257.158 463 L
256.072 463 L
254.986 463 L
253.9 463 L
252.814 463 L
251.728 463 L
250.642 39 L
249.556 39 L
248.47 39 L
247.384 39 L
246.298 39 L
245.212 39 L
244.126 39 L
243.04 39 L
241.954 39 L
240.868 39 L
239.782 39 L
238.696 39 L
237.61 39 L
236.524 39 L
235.438 39 L
234.352 39 L
233.266 39 L
232.18 39 L
231.094 39 L
230.008 39 L
228.922 39 L
227.836 39 L
226.75 39 L
225.664 39 L
224.578 39 L
223.492 39 L
222.406 39 L
221.32 39 L
220.234 39 L
219.148 39 L
218.062 39 L
216.976 39 L
215.89 39 L
214.804 39 L
213.718 39 L
212.632 39 L
211.546 39 L
210.46 39 L
209.374 39 L
208.288 39 L
207.202 39 L
206.116 39 L
205.03 39 L
203.944 39 L
202.858 39 L
201.772 39 L
200.686 39 L
199.6 39 L
198.514 39 L
197.428 39 L
196.342 39 L
195.256 39 L
194.17 39 L
193.084 39 L
191.998 39 L
190.912 39 L
189.826 39 L
188.74 39 L
187.654 39 L
186.568 39 L
185.482 39 L
184.396 39 L
183.31 39 L
182.224 39 L
181.138 39 L
180.052 39 L
178.966 39 L
177.88 39 L
176.794 39 L
175.708 39 L
174.622 39 L
173.536 39 L
172.45 39 L
171.364 39 L
170.278 39 L
169.192 39 L
168.106 39 L
167.02 39 L
165.934 39 L
164.848 39 L
163.762 39 L
162.676 39 L
161.59 39 L
160.504 39 L
159.418 39 L
158.332 39 L
157.246 39 L
156.16 39 L
155.074 39 L
153.988 39 L
152.902 39 L
151.816 39 L
150.73 39 L
149.644 39 L
148.558 39 L
147.472 39 L
146.386 39 L
145.3 39 L
144.214 39 L
143.128 39 L
142.042 39 L
140.956 39 L
139.87 39 L
138.784 39 L
137.698 39 L
136.612 39 L
135.526 39 L
134.44 39 L
133.354 39 L
132.268 39 L
131.182 39 L
130.096 39 L
129.01 39 L
127.924 39 L
126.838 39 L
125.752 39 L
124.666 39 L
123.58 39 L
122.494 39 L
121.408 39 L
120.322 463 L
119.236 463 L
118.15 463 L
117.064 463 L
115.978 463 L
114.892 463 L
113.806 463 L
112.72 463 L
111.634 463 L
110.548 463 L
109.462 463 L
108.376 463 L
107.29 463 L
106.204 463 L
105.118 463 L
104.032 463 L
102.946 463 L
101.86 463 L
100.774 463 L
99.688 463 L
98.602 463 L
97.516 463 L
96.43 463 L
95.344 463 L
94.258 463 L
93.172 463 L
92.086 463 L
91 463 L
90.935 463 L
S
GR
GS
[0.75 0 0 0.74971 0 0.39999] CT
0.984 0.933 0.91 RC
N
90.935 437.725 M
90.935 463 L
91 463 L
92.086 463 L
93.172 463 L
94.258 463 L
95.344 463 L
96.43 463 L
97.516 463 L
98.602 463 L
99.688 463 L
100.774 463 L
101.86 463 L
102.946 463 L
104.032 463 L
105.118 463 L
106.204 463 L
107.29 463 L
108.376 463 L
109.462 463 L
110.548 463 L
111.634 463 L
112.72 463 L
113.806 463 L
114.892 463 L
115.978 463 L
117.064 463 L
118.15 463 L
119.236 463 L
120.322 463 L
121.408 463 L
120.322 39 L
119.236 39 L
118.15 39 L
117.064 39 L
115.978 39 L
114.892 39 L
113.806 39 L
112.72 39 L
111.634 39 L
110.548 39 L
109.462 39 L
108.376 39 L
107.29 39 L
106.204 39 L
105.118 39 L
104.032 39 L
102.946 39 L
101.86 39 L
100.774 39 L
99.688 39 L
98.602 39 L
97.516 39 L
96.43 39 L
95.344 39 L
94.258 39 L
93.172 39 L
92.086 39 L
91 39 L
90.935 39 L
cp
250.642 463 M
251.728 463 L
252.814 463 L
253.9 463 L
254.986 463 L
256.072 463 L
257.158 463 L
258.244 463 L
259.33 463 L
260.416 463 L
261.502 463 L
262.588 463 L
263.674 463 L
264.76 463 L
265.846 463 L
266.932 463 L
268.018 463 L
269.104 463 L
270.19 463 L
271.276 463 L
272.362 463 L
273.448 463 L
274.534 463 L
275.62 463 L
276.706 463 L
277.792 463 L
278.878 463 L
279.964 463 L
281.05 463 L
282.136 463 L
283.222 463 L
284.308 463 L
285.394 463 L
286.48 463 L
287.566 463 L
288.652 463 L
289.738 463 L
290.824 463 L
291.91 463 L
292.996 463 L
294.082 463 L
295.168 463 L
296.254 463 L
297.34 463 L
298.426 463 L
299.512 463 L
300.598 463 L
301.684 463 L
302.77 463 L
303.856 463 L
304.942 463 L
306.028 463 L
307.114 463 L
308.2 463 L
309.286 463 L
310.372 463 L
311.458 463 L
312.544 463 L
313.63 463 L
314.716 463 L
315.802 463 L
316.888 463 L
317.974 463 L
319.06 463 L
320.146 463 L
321.232 463 L
322.318 463 L
323.404 463 L
324.49 463 L
325.576 463 L
326.662 463 L
327.748 463 L
328.834 463 L
329.92 463 L
331.006 463 L
332.092 463 L
333.178 463 L
334.264 463 L
335.35 463 L
336.436 463 L
337.522 463 L
338.608 463 L
339.694 463 L
340.78 463 L
341.866 463 L
342.952 463 L
344.038 463 L
345.124 463 L
346.21 463 L
347.296 463 L
348.382 463 L
349.468 463 L
350.554 463 L
351.64 463 L
352.726 463 L
353.812 463 L
354.898 463 L
355.984 463 L
357.07 463 L
358.156 463 L
359.242 463 L
360.328 463 L
361.414 463 L
362.5 463 L
363.586 463 L
364.672 463 L
365.758 463 L
366.844 463 L
367.93 463 L
369.016 463 L
370.102 463 L
371.188 463 L
372.274 463 L
373.36 463 L
374.446 463 L
375.532 463 L
376.618 463 L
377.704 463 L
378.79 463 L
379.876 463 L
380.962 463 L
382.048 463 L
383.134 463 L
384.22 463 L
385.306 463 L
386.392 463 L
387.478 463 L
388.564 463 L
389.65 463 L
390.736 463 L
391.822 463 L
392.908 463 L
393.994 463 L
395.08 463 L
396.166 463 L
397.252 463 L
398.338 463 L
399.424 463 L
400.51 463 L
401.596 463 L
402.682 463 L
403.768 463 L
404.854 463 L
405.94 463 L
407.026 463 L
408.112 463 L
409.198 463 L
410.284 463 L
411.37 463 L
412.456 463 L
413.542 463 L
414.628 463 L
415.714 463 L
416.8 463 L
417.886 463 L
418.972 463 L
420.058 463 L
421.144 463 L
422.23 463 L
423.316 463 L
424.402 463 L
425.488 463 L
426.574 463 L
427.66 463 L
428.746 463 L
429.832 463 L
430.918 463 L
432.004 463 L
433.09 463 L
434.176 463 L
435.262 463 L
436.348 463 L
437.434 463 L
438.52 463 L
439.606 463 L
440.692 463 L
441.778 463 L
442.864 463 L
443.95 463 L
445.036 463 L
446.122 463 L
447.208 463 L
448.294 463 L
449.38 463 L
450.466 463 L
451.552 463 L
452.638 463 L
453.724 463 L
454.81 463 L
455.896 463 L
456.982 463 L
458.068 463 L
459.154 463 L
460.24 463 L
461.326 463 L
462.412 463 L
463.498 463 L
464.584 463 L
465.67 463 L
466.756 463 L
467.842 463 L
468.928 463 L
470.014 463 L
471.1 463 L
472.186 463 L
473.272 463 L
474.358 463 L
475.444 463 L
476.53 463 L
477.616 463 L
478.702 463 L
479.788 463 L
480.874 463 L
481.96 463 L
483.046 463 L
484.132 463 L
485.218 463 L
486.304 463 L
487.39 463 L
488.476 463 L
489.562 463 L
490.648 463 L
491.734 463 L
492.82 463 L
493.906 463 L
494.992 463 L
496.078 463 L
497.164 463 L
498.25 463 L
499.336 463 L
500.422 463 L
501.508 463 L
502.594 463 L
503.68 463 L
504.766 463 L
505.852 463 L
506.938 463 L
508.024 463 L
509.11 463 L
510.196 463 L
511.282 463 L
512.368 463 L
513.454 463 L
514.54 463 L
515.626 463 L
516.712 463 L
517.798 463 L
518.884 463 L
519.97 463 L
521.056 463 L
522.142 463 L
523.228 463 L
524.314 463 L
525.4 463 L
526.486 463 L
527.572 463 L
528.658 463 L
529.744 463 L
530.83 463 L
531.916 463 L
533.002 463 L
534.088 463 L
535.174 463 L
536.26 463 L
537.346 463 L
538.432 463 L
539.518 463 L
540.604 463 L
541.69 463 L
542.776 463 L
543.862 463 L
544.948 463 L
546.034 463 L
547.12 463 L
548.206 463 L
549.292 463 L
550.378 463 L
551.464 463 L
552.55 463 L
553.636 463 L
554.722 463 L
555.808 463 L
556.894 463 L
557.98 463 L
559.066 463 L
560.152 463 L
561.238 463 L
562.324 463 L
563.41 463 L
564.496 463 L
565.582 463 L
566.668 463 L
567.754 463 L
568.84 463 L
569.926 463 L
571.012 463 L
572.098 463 L
573.184 463 L
574.27 463 L
575.356 463 L
576.442 463 L
577.528 463 L
578.614 463 L
579.7 463 L
580.786 463 L
581.872 463 L
582.958 463 L
584.044 463 L
585.13 463 L
586.216 463 L
587.302 463 L
588.388 463 L
589.474 463 L
590.56 463 L
591.646 463 L
592.732 463 L
593.818 463 L
594.904 463 L
595.99 463 L
597.076 463 L
598.162 463 L
599.248 463 L
600.334 463 L
601.42 463 L
602.506 463 L
603.592 463 L
604.678 463 L
605.764 463 L
604.678 39 L
603.592 39 L
602.506 39 L
601.42 39 L
600.334 39 L
599.248 39 L
598.162 39 L
597.076 39 L
595.99 39 L
594.904 39 L
593.818 39 L
592.732 39 L
591.646 39 L
590.56 39 L
589.474 39 L
588.388 39 L
587.302 39 L
586.216 39 L
585.13 39 L
584.044 39 L
582.958 39 L
581.872 39 L
580.786 39 L
579.7 39 L
578.614 39 L
577.528 39 L
576.442 39 L
575.356 39 L
574.27 39 L
573.184 39 L
572.098 39 L
571.012 39 L
569.926 39 L
568.84 39 L
567.754 39 L
566.668 39 L
565.582 39 L
564.496 39 L
563.41 39 L
562.324 39 L
561.238 39 L
560.152 39 L
559.066 39 L
557.98 39 L
556.894 39 L
555.808 39 L
554.722 39 L
553.636 39 L
552.55 39 L
551.464 39 L
550.378 39 L
549.292 39 L
548.206 39 L
547.12 39 L
546.034 39 L
544.948 39 L
543.862 39 L
542.776 39 L
541.69 39 L
540.604 39 L
539.518 39 L
538.432 39 L
537.346 39 L
536.26 39 L
535.174 39 L
534.088 39 L
533.002 39 L
531.916 39 L
530.83 39 L
529.744 39 L
528.658 39 L
527.572 39 L
526.486 39 L
525.4 39 L
524.314 39 L
523.228 39 L
522.142 39 L
521.056 39 L
519.97 39 L
518.884 39 L
517.798 39 L
516.712 39 L
515.626 39 L
514.54 39 L
513.454 39 L
512.368 39 L
511.282 39 L
510.196 39 L
509.11 39 L
508.024 39 L
506.938 39 L
505.852 39 L
504.766 39 L
503.68 39 L
502.594 39 L
501.508 39 L
500.422 39 L
499.336 39 L
498.25 39 L
497.164 39 L
496.078 39 L
494.992 39 L
493.906 39 L
492.82 39 L
491.734 39 L
490.648 39 L
489.562 39 L
488.476 39 L
487.39 39 L
486.304 39 L
485.218 39 L
484.132 39 L
483.046 39 L
481.96 39 L
480.874 39 L
479.788 39 L
478.702 39 L
477.616 39 L
476.53 39 L
475.444 39 L
474.358 39 L
473.272 39 L
472.186 39 L
471.1 39 L
470.014 39 L
468.928 39 L
467.842 39 L
466.756 39 L
465.67 39 L
464.584 39 L
463.498 39 L
462.412 39 L
461.326 39 L
460.24 39 L
459.154 39 L
458.068 39 L
456.982 39 L
455.896 39 L
454.81 39 L
453.724 39 L
452.638 39 L
451.552 39 L
450.466 39 L
449.38 39 L
448.294 39 L
447.208 39 L
446.122 39 L
445.036 39 L
443.95 39 L
442.864 39 L
441.778 39 L
440.692 39 L
439.606 39 L
438.52 39 L
437.434 39 L
436.348 39 L
435.262 39 L
434.176 39 L
433.09 39 L
432.004 39 L
430.918 39 L
429.832 39 L
428.746 39 L
427.66 39 L
426.574 39 L
425.488 39 L
424.402 39 L
423.316 39 L
422.23 39 L
421.144 39 L
420.058 39 L
418.972 39 L
417.886 39 L
416.8 39 L
415.714 39 L
414.628 39 L
413.542 39 L
412.456 39 L
411.37 39 L
410.284 39 L
409.198 39 L
408.112 39 L
407.026 39 L
405.94 39 L
404.854 39 L
403.768 39 L
402.682 39 L
401.596 39 L
400.51 39 L
399.424 39 L
398.338 39 L
397.252 39 L
396.166 39 L
395.08 39 L
393.994 39 L
392.908 39 L
391.822 39 L
390.736 39 L
389.65 39 L
388.564 39 L
387.478 39 L
386.392 39 L
385.306 39 L
384.22 39 L
383.134 39 L
382.048 39 L
380.962 39 L
379.876 39 L
378.79 39 L
377.704 39 L
376.618 39 L
375.532 39 L
374.446 39 L
373.36 39 L
372.274 39 L
371.188 39 L
370.102 39 L
369.016 39 L
367.93 39 L
366.844 39 L
365.758 39 L
364.672 39 L
363.586 39 L
362.5 39 L
361.414 39 L
360.328 39 L
359.242 39 L
358.156 39 L
357.07 39 L
355.984 39 L
354.898 39 L
353.812 39 L
352.726 39 L
351.64 39 L
350.554 39 L
349.468 39 L
348.382 39 L
347.296 39 L
346.21 39 L
345.124 39 L
344.038 39 L
342.952 39 L
341.866 39 L
340.78 39 L
339.694 39 L
338.608 39 L
337.522 39 L
336.436 39 L
335.35 39 L
334.264 39 L
333.178 39 L
332.092 39 L
331.006 39 L
329.92 39 L
328.834 39 L
327.748 39 L
326.662 39 L
325.576 39 L
324.49 39 L
323.404 39 L
322.318 39 L
321.232 39 L
320.146 39 L
319.06 39 L
317.974 39 L
316.888 39 L
315.802 39 L
314.716 39 L
313.63 39 L
312.544 39 L
311.458 39 L
310.372 39 L
309.286 39 L
308.2 39 L
307.114 39 L
306.028 39 L
304.942 39 L
303.856 39 L
302.77 39 L
301.684 39 L
300.598 39 L
299.512 39 L
298.426 39 L
297.34 39 L
296.254 39 L
295.168 39 L
294.082 39 L
292.996 39 L
291.91 39 L
290.824 39 L
289.738 39 L
288.652 39 L
287.566 39 L
286.48 39 L
285.394 39 L
284.308 39 L
283.222 39 L
282.136 39 L
281.05 39 L
279.964 39 L
278.878 39 L
277.792 39 L
276.706 39 L
275.62 39 L
274.534 39 L
273.448 39 L
272.362 39 L
271.276 39 L
270.19 39 L
269.104 39 L
268.018 39 L
266.932 39 L
265.846 39 L
264.76 39 L
263.674 39 L
262.588 39 L
261.502 39 L
260.416 39 L
259.33 39 L
258.244 39 L
257.158 39 L
256.072 39 L
254.986 39 L
253.9 39 L
252.814 39 L
251.728 39 L
cp
f
GR
GS
[0.75 0 0 0.74971 0 0.39999] CT
0.984 0.933 0.91 RC
1 LJ
0.667 LW
N
90.935 463 M
91 463 L
92.086 463 L
93.172 463 L
94.258 463 L
95.344 463 L
96.43 463 L
97.516 463 L
98.602 463 L
99.688 463 L
100.774 463 L
101.86 463 L
102.946 463 L
104.032 463 L
105.118 463 L
106.204 463 L
107.29 463 L
108.376 463 L
109.462 463 L
110.548 463 L
111.634 463 L
112.72 463 L
113.806 463 L
114.892 463 L
115.978 463 L
117.064 463 L
118.15 463 L
119.236 463 L
120.322 463 L
121.408 463 L
122.494 463 L
123.58 463 L
124.666 463 L
125.752 463 L
126.838 463 L
127.924 463 L
129.01 463 L
130.096 463 L
131.182 463 L
132.268 463 L
133.354 463 L
134.44 463 L
135.526 463 L
136.612 463 L
137.698 463 L
138.784 463 L
139.87 463 L
140.956 463 L
142.042 463 L
143.128 463 L
144.214 463 L
145.3 463 L
146.386 463 L
147.472 463 L
148.558 463 L
149.644 463 L
150.73 463 L
151.816 463 L
152.902 463 L
153.988 463 L
155.074 463 L
156.16 463 L
157.246 463 L
158.332 463 L
159.418 463 L
160.504 463 L
161.59 463 L
162.676 463 L
163.762 463 L
164.848 463 L
165.934 463 L
167.02 463 L
168.106 463 L
169.192 463 L
170.278 463 L
171.364 463 L
172.45 463 L
173.536 463 L
174.622 463 L
175.708 463 L
176.794 463 L
177.88 463 L
178.966 463 L
180.052 463 L
181.138 463 L
182.224 463 L
183.31 463 L
184.396 463 L
185.482 463 L
186.568 463 L
187.654 463 L
188.74 463 L
189.826 463 L
190.912 463 L
191.998 463 L
193.084 463 L
194.17 463 L
195.256 463 L
196.342 463 L
197.428 463 L
198.514 463 L
199.6 463 L
200.686 463 L
201.772 463 L
202.858 463 L
203.944 463 L
205.03 463 L
206.116 463 L
207.202 463 L
208.288 463 L
209.374 463 L
210.46 463 L
211.546 463 L
212.632 463 L
213.718 463 L
214.804 463 L
215.89 463 L
216.976 463 L
218.062 463 L
219.148 463 L
220.234 463 L
221.32 463 L
222.406 463 L
223.492 463 L
224.578 463 L
225.664 463 L
226.75 463 L
227.836 463 L
228.922 463 L
230.008 463 L
231.094 463 L
232.18 463 L
233.266 463 L
234.352 463 L
235.438 463 L
236.524 463 L
237.61 463 L
238.696 463 L
239.782 463 L
240.868 463 L
241.954 463 L
243.04 463 L
244.126 463 L
245.212 463 L
246.298 463 L
247.384 463 L
248.47 463 L
249.556 463 L
250.642 463 L
251.728 463 L
252.814 463 L
253.9 463 L
254.986 463 L
256.072 463 L
257.158 463 L
258.244 463 L
259.33 463 L
260.416 463 L
261.502 463 L
262.588 463 L
263.674 463 L
264.76 463 L
265.846 463 L
266.932 463 L
268.018 463 L
269.104 463 L
270.19 463 L
271.276 463 L
272.362 463 L
273.448 463 L
274.534 463 L
275.62 463 L
276.706 463 L
277.792 463 L
278.878 463 L
279.964 463 L
281.05 463 L
282.136 463 L
283.222 463 L
284.308 463 L
285.394 463 L
286.48 463 L
287.566 463 L
288.652 463 L
289.738 463 L
290.824 463 L
291.91 463 L
292.996 463 L
294.082 463 L
295.168 463 L
296.254 463 L
297.34 463 L
298.426 463 L
299.512 463 L
300.598 463 L
301.684 463 L
302.77 463 L
303.856 463 L
304.942 463 L
306.028 463 L
307.114 463 L
308.2 463 L
309.286 463 L
310.372 463 L
311.458 463 L
312.544 463 L
313.63 463 L
314.716 463 L
315.802 463 L
316.888 463 L
317.974 463 L
319.06 463 L
320.146 463 L
321.232 463 L
322.318 463 L
323.404 463 L
324.49 463 L
325.576 463 L
326.662 463 L
327.748 463 L
328.834 463 L
329.92 463 L
331.006 463 L
332.092 463 L
333.178 463 L
334.264 463 L
335.35 463 L
336.436 463 L
337.522 463 L
338.608 463 L
339.694 463 L
340.78 463 L
341.866 463 L
342.952 463 L
344.038 463 L
345.124 463 L
346.21 463 L
347.296 463 L
348.382 463 L
349.468 463 L
350.554 463 L
351.64 463 L
352.726 463 L
353.812 463 L
354.898 463 L
355.984 463 L
357.07 463 L
358.156 463 L
359.242 463 L
360.328 463 L
361.414 463 L
362.5 463 L
363.586 463 L
364.672 463 L
365.758 463 L
366.844 463 L
367.93 463 L
369.016 463 L
370.102 463 L
371.188 463 L
372.274 463 L
373.36 463 L
374.446 463 L
375.532 463 L
376.618 463 L
377.704 463 L
378.79 463 L
379.876 463 L
380.962 463 L
382.048 463 L
383.134 463 L
384.22 463 L
385.306 463 L
386.392 463 L
387.478 463 L
388.564 463 L
389.65 463 L
390.736 463 L
391.822 463 L
392.908 463 L
393.994 463 L
395.08 463 L
396.166 463 L
397.252 463 L
398.338 463 L
399.424 463 L
400.51 463 L
401.596 463 L
402.682 463 L
403.768 463 L
404.854 463 L
405.94 463 L
407.026 463 L
408.112 463 L
409.198 463 L
410.284 463 L
411.37 463 L
412.456 463 L
413.542 463 L
414.628 463 L
415.714 463 L
416.8 463 L
417.886 463 L
418.972 463 L
420.058 463 L
421.144 463 L
422.23 463 L
423.316 463 L
424.402 463 L
425.488 463 L
426.574 463 L
427.66 463 L
428.746 463 L
429.832 463 L
430.918 463 L
432.004 463 L
433.09 463 L
434.176 463 L
435.262 463 L
436.348 463 L
437.434 463 L
438.52 463 L
439.606 463 L
440.692 463 L
441.778 463 L
442.864 463 L
443.95 463 L
445.036 463 L
446.122 463 L
447.208 463 L
448.294 463 L
449.38 463 L
450.466 463 L
451.552 463 L
452.638 463 L
453.724 463 L
454.81 463 L
455.896 463 L
456.982 463 L
458.068 463 L
459.154 463 L
460.24 463 L
461.326 463 L
462.412 463 L
463.498 463 L
464.584 463 L
465.67 463 L
466.756 463 L
467.842 463 L
468.928 463 L
470.014 463 L
471.1 463 L
472.186 463 L
473.272 463 L
474.358 463 L
475.444 463 L
476.53 463 L
477.616 463 L
478.702 463 L
479.788 463 L
480.874 463 L
481.96 463 L
483.046 463 L
484.132 463 L
485.218 463 L
486.304 463 L
487.39 463 L
488.476 463 L
489.562 463 L
490.648 463 L
491.734 463 L
492.82 463 L
493.906 463 L
494.992 463 L
496.078 463 L
497.164 463 L
498.25 463 L
499.336 463 L
500.422 463 L
501.508 463 L
502.594 463 L
503.68 463 L
504.766 463 L
505.852 463 L
506.938 463 L
508.024 463 L
509.11 463 L
510.196 463 L
511.282 463 L
512.368 463 L
513.454 463 L
514.54 463 L
515.626 463 L
516.712 463 L
517.798 463 L
518.884 463 L
519.97 463 L
521.056 463 L
522.142 463 L
523.228 463 L
524.314 463 L
525.4 463 L
526.486 463 L
527.572 463 L
528.658 463 L
529.744 463 L
530.83 463 L
531.916 463 L
533.002 463 L
534.088 463 L
535.174 463 L
536.26 463 L
537.346 463 L
538.432 463 L
539.518 463 L
540.604 463 L
541.69 463 L
542.776 463 L
543.862 463 L
544.948 463 L
546.034 463 L
547.12 463 L
548.206 463 L
549.292 463 L
550.378 463 L
551.464 463 L
552.55 463 L
553.636 463 L
554.722 463 L
555.808 463 L
556.894 463 L
557.98 463 L
559.066 463 L
560.152 463 L
561.238 463 L
562.324 463 L
563.41 463 L
564.496 463 L
565.582 463 L
566.668 463 L
567.754 463 L
568.84 463 L
569.926 463 L
571.012 463 L
572.098 463 L
573.184 463 L
574.27 463 L
575.356 463 L
576.442 463 L
577.528 463 L
578.614 463 L
579.7 463 L
580.786 463 L
581.872 463 L
582.958 463 L
584.044 463 L
585.13 463 L
586.216 463 L
587.302 463 L
588.388 463 L
589.474 463 L
590.56 463 L
591.646 463 L
592.732 463 L
593.818 463 L
594.904 463 L
595.99 463 L
597.076 463 L
598.162 463 L
599.248 463 L
600.334 463 L
601.42 463 L
602.506 463 L
603.592 463 L
604.678 463 L
605.764 463 L
606.85 463 L
607.936 463 L
609.022 463 L
610.108 463 L
611.194 463 L
612.28 463 L
613.366 463 L
614.452 463 L
615.538 463 L
616.624 463 L
617.71 463 L
618.796 463 L
619.882 463 L
620.968 463 L
622.054 463 L
623.14 463 L
624.226 463 L
625.312 463 L
626.398 463 L
627.484 463 L
628.57 463 L
629.656 463 L
630.742 463 L
631.828 463 L
632.914 463 L
634 463 L
634.065 463 L
S
GR
GS
[0.75 0 0 0.74971 0 0.39999] CT
0.984 0.933 0.91 RC
1 LJ
0.667 LW
N
634.065 463 M
634 463 L
632.914 463 L
631.828 463 L
630.742 463 L
629.656 463 L
628.57 463 L
627.484 463 L
626.398 463 L
625.312 463 L
624.226 463 L
623.14 463 L
622.054 463 L
620.968 463 L
619.882 463 L
618.796 463 L
617.71 463 L
616.624 463 L
615.538 463 L
614.452 463 L
613.366 463 L
612.28 463 L
611.194 463 L
610.108 463 L
609.022 463 L
607.936 463 L
606.85 463 L
605.764 463 L
604.678 39 L
603.592 39 L
602.506 39 L
601.42 39 L
600.334 39 L
599.248 39 L
598.162 39 L
597.076 39 L
595.99 39 L
594.904 39 L
593.818 39 L
592.732 39 L
591.646 39 L
590.56 39 L
589.474 39 L
588.388 39 L
587.302 39 L
586.216 39 L
585.13 39 L
584.044 39 L
582.958 39 L
581.872 39 L
580.786 39 L
579.7 39 L
578.614 39 L
577.528 39 L
576.442 39 L
575.356 39 L
574.27 39 L
573.184 39 L
572.098 39 L
571.012 39 L
569.926 39 L
568.84 39 L
567.754 39 L
566.668 39 L
565.582 39 L
564.496 39 L
563.41 39 L
562.324 39 L
561.238 39 L
560.152 39 L
559.066 39 L
557.98 39 L
556.894 39 L
555.808 39 L
554.722 39 L
553.636 39 L
552.55 39 L
551.464 39 L
550.378 39 L
549.292 39 L
548.206 39 L
547.12 39 L
546.034 39 L
544.948 39 L
543.862 39 L
542.776 39 L
541.69 39 L
540.604 39 L
539.518 39 L
538.432 39 L
537.346 39 L
536.26 39 L
535.174 39 L
534.088 39 L
533.002 39 L
531.916 39 L
530.83 39 L
529.744 39 L
528.658 39 L
527.572 39 L
526.486 39 L
525.4 39 L
524.314 39 L
523.228 39 L
522.142 39 L
521.056 39 L
519.97 39 L
518.884 39 L
517.798 39 L
516.712 39 L
515.626 39 L
514.54 39 L
513.454 39 L
512.368 39 L
511.282 39 L
510.196 39 L
509.11 39 L
508.024 39 L
506.938 39 L
505.852 39 L
504.766 39 L
503.68 39 L
502.594 39 L
501.508 39 L
500.422 39 L
499.336 39 L
498.25 39 L
497.164 39 L
496.078 39 L
494.992 39 L
493.906 39 L
492.82 39 L
491.734 39 L
490.648 39 L
489.562 39 L
488.476 39 L
487.39 39 L
486.304 39 L
485.218 39 L
484.132 39 L
483.046 39 L
481.96 39 L
480.874 39 L
479.788 39 L
478.702 39 L
477.616 39 L
476.53 39 L
475.444 39 L
474.358 39 L
473.272 39 L
472.186 39 L
471.1 39 L
470.014 39 L
468.928 39 L
467.842 39 L
466.756 39 L
465.67 39 L
464.584 39 L
463.498 39 L
462.412 39 L
461.326 39 L
460.24 39 L
459.154 39 L
458.068 39 L
456.982 39 L
455.896 39 L
454.81 39 L
453.724 39 L
452.638 39 L
451.552 39 L
450.466 39 L
449.38 39 L
448.294 39 L
447.208 39 L
446.122 39 L
445.036 39 L
443.95 39 L
442.864 39 L
441.778 39 L
440.692 39 L
439.606 39 L
438.52 39 L
437.434 39 L
436.348 39 L
435.262 39 L
434.176 39 L
433.09 39 L
432.004 39 L
430.918 39 L
429.832 39 L
428.746 39 L
427.66 39 L
426.574 39 L
425.488 39 L
424.402 39 L
423.316 39 L
422.23 39 L
421.144 39 L
420.058 39 L
418.972 39 L
417.886 39 L
416.8 39 L
415.714 39 L
414.628 39 L
413.542 39 L
412.456 39 L
411.37 39 L
410.284 39 L
409.198 39 L
408.112 39 L
407.026 39 L
405.94 39 L
404.854 39 L
403.768 39 L
402.682 39 L
401.596 39 L
400.51 39 L
399.424 39 L
398.338 39 L
397.252 39 L
396.166 39 L
395.08 39 L
393.994 39 L
392.908 39 L
391.822 39 L
390.736 39 L
389.65 39 L
388.564 39 L
387.478 39 L
386.392 39 L
385.306 39 L
384.22 39 L
383.134 39 L
382.048 39 L
380.962 39 L
379.876 39 L
378.79 39 L
377.704 39 L
376.618 39 L
375.532 39 L
374.446 39 L
373.36 39 L
372.274 39 L
371.188 39 L
370.102 39 L
369.016 39 L
367.93 39 L
366.844 39 L
365.758 39 L
364.672 39 L
363.586 39 L
362.5 39 L
361.414 39 L
360.328 39 L
359.242 39 L
358.156 39 L
357.07 39 L
355.984 39 L
354.898 39 L
353.812 39 L
352.726 39 L
351.64 39 L
350.554 39 L
349.468 39 L
348.382 39 L
347.296 39 L
346.21 39 L
345.124 39 L
344.038 39 L
342.952 39 L
341.866 39 L
340.78 39 L
339.694 39 L
338.608 39 L
337.522 39 L
336.436 39 L
335.35 39 L
334.264 39 L
333.178 39 L
332.092 39 L
331.006 39 L
329.92 39 L
328.834 39 L
327.748 39 L
326.662 39 L
325.576 39 L
324.49 39 L
323.404 39 L
322.318 39 L
321.232 39 L
320.146 39 L
319.06 39 L
317.974 39 L
316.888 39 L
315.802 39 L
314.716 39 L
313.63 39 L
312.544 39 L
311.458 39 L
310.372 39 L
309.286 39 L
308.2 39 L
307.114 39 L
306.028 39 L
304.942 39 L
303.856 39 L
302.77 39 L
301.684 39 L
300.598 39 L
299.512 39 L
298.426 39 L
297.34 39 L
296.254 39 L
295.168 39 L
294.082 39 L
292.996 39 L
291.91 39 L
290.824 39 L
289.738 39 L
288.652 39 L
287.566 39 L
286.48 39 L
285.394 39 L
284.308 39 L
283.222 39 L
282.136 39 L
281.05 39 L
279.964 39 L
278.878 39 L
277.792 39 L
276.706 39 L
275.62 39 L
274.534 39 L
273.448 39 L
272.362 39 L
271.276 39 L
270.19 39 L
269.104 39 L
268.018 39 L
266.932 39 L
265.846 39 L
264.76 39 L
263.674 39 L
262.588 39 L
261.502 39 L
260.416 39 L
259.33 39 L
258.244 39 L
257.158 39 L
256.072 39 L
254.986 39 L
253.9 39 L
252.814 39 L
251.728 39 L
250.642 463 L
249.556 463 L
248.47 463 L
247.384 463 L
246.298 463 L
245.212 463 L
244.126 463 L
243.04 463 L
241.954 463 L
240.868 463 L
239.782 463 L
238.696 463 L
237.61 463 L
236.524 463 L
235.438 463 L
234.352 463 L
233.266 463 L
232.18 463 L
231.094 463 L
230.008 463 L
228.922 463 L
227.836 463 L
226.75 463 L
225.664 463 L
224.578 463 L
223.492 463 L
222.406 463 L
221.32 463 L
220.234 463 L
219.148 463 L
218.062 463 L
216.976 463 L
215.89 463 L
214.804 463 L
213.718 463 L
212.632 463 L
211.546 463 L
210.46 463 L
209.374 463 L
208.288 463 L
207.202 463 L
206.116 463 L
205.03 463 L
203.944 463 L
202.858 463 L
201.772 463 L
200.686 463 L
199.6 463 L
198.514 463 L
197.428 463 L
196.342 463 L
195.256 463 L
194.17 463 L
193.084 463 L
191.998 463 L
190.912 463 L
189.826 463 L
188.74 463 L
187.654 463 L
186.568 463 L
185.482 463 L
184.396 463 L
183.31 463 L
182.224 463 L
181.138 463 L
180.052 463 L
178.966 463 L
177.88 463 L
176.794 463 L
175.708 463 L
174.622 463 L
173.536 463 L
172.45 463 L
171.364 463 L
170.278 463 L
169.192 463 L
168.106 463 L
167.02 463 L
165.934 463 L
164.848 463 L
163.762 463 L
162.676 463 L
161.59 463 L
160.504 463 L
159.418 463 L
158.332 463 L
157.246 463 L
156.16 463 L
155.074 463 L
153.988 463 L
152.902 463 L
151.816 463 L
150.73 463 L
149.644 463 L
148.558 463 L
147.472 463 L
146.386 463 L
145.3 463 L
144.214 463 L
143.128 463 L
142.042 463 L
140.956 463 L
139.87 463 L
138.784 463 L
137.698 463 L
136.612 463 L
135.526 463 L
134.44 463 L
133.354 463 L
132.268 463 L
131.182 463 L
130.096 463 L
129.01 463 L
127.924 463 L
126.838 463 L
125.752 463 L
124.666 463 L
123.58 463 L
122.494 463 L
121.408 463 L
120.322 39 L
119.236 39 L
118.15 39 L
117.064 39 L
115.978 39 L
114.892 39 L
113.806 39 L
112.72 39 L
111.634 39 L
110.548 39 L
109.462 39 L
108.376 39 L
107.29 39 L
106.204 39 L
105.118 39 L
104.032 39 L
102.946 39 L
101.86 39 L
100.774 39 L
99.688 39 L
98.602 39 L
97.516 39 L
96.43 39 L
95.344 39 L
94.258 39 L
93.172 39 L
92.086 39 L
91 39 L
90.935 39 L
S
GR
GS
[0.75 0 0 0.74971 0 0.39999] CT
0 0.447 0.741 RC
1 LJ
2.667 LW
N
111.812 463.051 M
112.72 462.916 L
113.806 462.71 L
114.892 462.454 L
115.978 462.139 L
117.064 461.759 L
118.15 461.305 L
119.236 460.769 L
120.322 460.145 L
121.408 459.425 L
122.494 458.601 L
123.58 457.666 L
124.666 456.616 L
125.752 455.445 L
126.838 454.149 L
127.924 452.725 L
129.01 451.174 L
130.096 449.493 L
131.182 447.687 L
132.268 445.758 L
133.354 443.713 L
134.44 441.557 L
135.526 439.302 L
136.612 436.956 L
137.698 434.534 L
138.784 432.048 L
139.87 429.514 L
140.956 426.948 L
142.042 424.366 L
143.128 421.787 L
144.214 419.227 L
145.3 416.704 L
146.386 414.236 L
147.472 411.837 L
148.558 409.525 L
149.644 407.312 L
150.73 405.212 L
151.816 403.234 L
152.902 401.389 L
153.988 399.684 L
155.074 398.122 L
156.16 396.708 L
157.246 395.443 L
158.332 394.326 L
159.418 393.354 L
160.504 392.522 L
161.59 391.826 L
162.676 391.257 L
163.762 390.809 L
164.848 390.47 L
165.934 390.233 L
167.02 390.087 L
168.106 390.021 L
169.192 390.024 L
170.278 390.088 L
171.364 390.201 L
172.45 390.354 L
173.536 390.538 L
174.622 390.746 L
175.708 390.968 L
176.794 391.199 L
177.88 391.433 L
178.966 391.663 L
180.052 391.887 L
181.138 392.1 L
182.224 392.3 L
183.31 392.483 L
184.396 392.649 L
185.482 392.797 L
186.568 392.926 L
187.654 393.035 L
188.74 393.126 L
189.826 393.198 L
190.912 393.253 L
191.998 393.291 L
193.084 393.313 L
194.17 393.321 L
195.256 393.315 L
196.342 393.297 L
197.428 393.267 L
198.514 393.227 L
199.6 393.177 L
200.686 393.117 L
201.772 393.048 L
202.858 392.97 L
203.944 392.883 L
205.03 392.788 L
206.116 392.683 L
207.202 392.568 L
208.288 392.444 L
209.374 392.31 L
210.46 392.165 L
211.546 392.009 L
212.632 391.842 L
213.718 391.664 L
214.804 391.475 L
215.89 391.277 L
216.976 391.069 L
218.062 390.854 L
219.148 390.634 L
220.234 390.41 L
221.32 390.186 L
222.406 389.966 L
223.492 389.753 L
224.578 389.552 L
225.664 389.368 L
226.75 389.207 L
227.836 389.074 L
228.922 388.976 L
230.008 388.919 L
231.094 388.909 L
232.18 388.954 L
233.266 389.06 L
234.352 389.232 L
235.438 389.477 L
236.524 389.799 L
237.61 390.204 L
238.696 390.696 L
239.782 391.276 L
240.868 391.947 L
241.954 392.71 L
243.04 393.565 L
244.126 394.509 L
245.212 395.54 L
246.298 396.655 L
247.384 397.847 L
248.47 399.111 L
249.556 400.439 L
250.642 401.823 L
251.728 403.254 L
252.814 404.722 L
253.9 406.217 L
254.986 407.727 L
256.072 409.242 L
257.158 410.751 L
258.244 412.242 L
259.33 413.707 L
260.416 415.134 L
261.502 416.514 L
262.588 417.839 L
263.674 419.102 L
264.76 420.295 L
265.846 421.413 L
266.932 422.452 L
268.018 423.409 L
269.104 424.281 L
270.19 425.068 L
271.276 425.77 L
272.362 426.389 L
273.448 426.927 L
274.534 427.387 L
275.62 427.772 L
276.706 428.089 L
277.792 428.341 L
278.878 428.534 L
279.964 428.675 L
281.05 428.769 L
282.136 428.822 L
283.222 428.84 L
284.308 428.829 L
285.394 428.794 L
286.48 428.741 L
287.566 428.674 L
288.652 428.598 L
289.738 428.516 L
290.824 428.432 L
291.91 428.349 L
292.996 428.268 L
294.082 428.193 L
295.168 428.123 L
296.254 428.061 L
297.34 428.007 L
298.426 427.96 L
299.512 427.922 L
300.598 427.89 L
301.684 427.866 L
302.77 427.848 L
303.856 427.835 L
304.942 427.827 L
306.028 427.822 L
307.114 427.819 L
308.2 427.819 L
309.286 427.819 L
310.372 427.819 L
311.458 427.819 L
312.544 427.818 L
313.63 427.815 L
314.716 427.811 L
315.802 427.805 L
316.888 427.797 L
317.974 427.788 L
319.06 427.777 L
320.146 427.765 L
321.232 427.753 L
322.318 427.74 L
323.404 427.729 L
324.49 427.718 L
325.576 427.71 L
326.662 427.705 L
327.748 427.703 L
328.834 427.705 L
329.92 427.713 L
331.006 427.727 L
332.092 427.747 L
333.178 427.774 L
334.264 427.809 L
335.35 427.852 L
336.436 427.903 L
337.522 427.963 L
338.608 428.032 L
339.694 428.11 L
340.78 428.196 L
341.866 428.29 L
342.952 428.392 L
344.038 428.502 L
345.124 428.618 L
346.21 428.74 L
347.296 428.867 L
348.382 428.997 L
349.468 429.13 L
350.554 429.265 L
351.64 429.399 L
352.726 429.531 L
353.812 429.661 L
354.898 429.786 L
355.984 429.905 L
357.07 430.017 L
358.156 430.119 L
359.242 430.211 L
360.328 430.291 L
361.414 430.359 L
362.5 430.411 L
363.586 430.449 L
364.672 430.471 L
365.758 430.476 L
366.844 430.463 L
367.93 430.433 L
369.016 430.384 L
370.102 430.318 L
371.188 430.233 L
372.274 430.131 L
373.36 430.012 L
374.446 429.877 L
375.532 429.726 L
376.618 429.56 L
377.704 429.381 L
378.79 429.19 L
379.876 428.989 L
380.962 428.778 L
382.048 428.559 L
383.134 428.334 L
384.22 428.104 L
385.306 427.872 L
386.392 427.638 L
387.478 427.404 L
388.564 427.173 L
389.65 426.944 L
390.736 426.72 L
391.822 426.502 L
392.908 426.291 L
393.994 426.088 L
395.08 425.894 L
396.166 425.71 L
397.252 425.537 L
398.338 425.375 L
399.424 425.224 L
400.51 425.085 L
401.596 424.959 L
402.682 424.844 L
403.768 424.74 L
404.854 424.648 L
405.94 424.567 L
407.026 424.496 L
408.112 424.435 L
409.198 424.382 L
410.284 424.337 L
411.37 424.299 L
412.456 424.266 L
413.542 424.237 L
414.628 424.211 L
415.714 424.187 L
416.8 424.162 L
417.886 424.136 L
418.972 424.106 L
420.058 424.072 L
421.144 424.031 L
422.23 423.981 L
423.316 423.922 L
424.402 423.85 L
425.488 423.766 L
426.574 423.667 L
427.66 423.551 L
428.746 423.417 L
429.832 423.263 L
430.918 423.089 L
432.004 422.892 L
433.09 422.672 L
434.176 422.427 L
435.262 422.156 L
436.348 421.859 L
437.434 421.535 L
438.52 421.183 L
439.606 420.802 L
440.692 420.392 L
441.778 419.953 L
442.864 419.484 L
443.95 418.987 L
445.036 418.46 L
446.122 417.905 L
447.208 417.322 L
448.294 416.712 L
449.38 416.076 L
450.466 415.414 L
451.552 414.729 L
452.638 414.021 L
453.724 413.293 L
454.81 412.545 L
455.896 411.78 L
456.982 411 L
458.068 410.206 L
459.154 409.402 L
460.24 408.588 L
461.326 407.768 L
462.412 406.943 L
463.498 406.116 L
464.584 405.288 L
465.67 404.462 L
466.756 403.639 L
467.842 402.822 L
468.928 402.012 L
470.014 401.21 L
471.1 400.419 L
472.186 399.638 L
473.272 398.87 L
474.358 398.115 L
475.444 397.374 L
476.53 396.647 L
477.616 395.935 L
478.702 395.238 L
479.788 394.557 L
480.874 393.891 L
481.96 393.242 L
483.046 392.608 L
484.132 391.991 L
485.218 391.389 L
486.304 390.805 L
487.39 390.236 L
488.476 389.684 L
489.562 389.15 L
490.648 388.632 L
491.734 388.132 L
492.82 387.651 L
493.906 387.188 L
494.992 386.744 L
496.078 386.32 L
497.164 385.917 L
498.25 385.534 L
499.336 385.174 L
500.422 384.836 L
501.508 384.522 L
502.594 384.231 L
503.68 383.965 L
504.766 383.723 L
505.852 383.507 L
506.938 383.316 L
508.024 383.151 L
509.11 383.012 L
510.196 382.898 L
511.282 382.809 L
512.368 382.746 L
513.454 382.706 L
514.54 382.689 L
515.626 382.694 L
516.712 382.72 L
517.798 382.764 L
518.884 382.826 L
519.97 382.903 L
521.056 382.992 L
522.142 383.092 L
523.228 383.199 L
524.314 383.31 L
525.4 383.421 L
526.486 383.53 L
527.572 383.632 L
528.658 383.722 L
529.744 383.797 L
530.83 383.851 L
531.916 383.88 L
533.002 383.879 L
534.088 383.843 L
535.174 383.766 L
536.26 383.644 L
537.346 383.471 L
538.432 383.243 L
539.518 382.955 L
540.604 382.603 L
541.69 382.184 L
542.776 381.696 L
543.862 381.136 L
544.948 380.504 L
546.034 379.799 L
547.12 379.024 L
548.206 378.183 L
549.292 377.278 L
550.378 376.317 L
551.464 375.308 L
552.55 374.26 L
553.636 373.185 L
554.722 372.095 L
555.808 371.006 L
556.894 369.934 L
557.98 368.895 L
559.066 367.909 L
560.152 366.995 L
561.238 366.173 L
562.324 365.462 L
563.41 364.884 L
564.496 364.456 L
565.582 364.199 L
566.668 364.129 L
567.754 364.262 L
568.84 364.611 L
569.926 365.188 L
571.012 366.001 L
572.098 367.057 L
573.184 368.358 L
574.27 369.905 L
575.356 371.693 L
576.442 373.716 L
577.528 375.964 L
578.614 378.425 L
579.7 381.083 L
580.786 383.922 L
581.872 386.92 L
582.958 390.056 L
584.044 393.307 L
585.13 396.649 L
586.216 400.058 L
587.302 403.509 L
588.388 406.977 L
589.474 410.439 L
590.56 413.873 L
591.646 417.255 L
592.732 420.568 L
593.818 423.793 L
594.904 426.913 L
595.99 429.915 L
597.076 432.788 L
598.162 435.521 L
599.248 438.108 L
600.334 440.542 L
601.42 442.822 L
602.506 444.945 L
603.592 446.913 L
604.678 448.727 L
605.764 450.391 L
606.85 451.909 L
607.936 453.288 L
609.022 454.534 L
610.108 455.654 L
611.194 456.656 L
612.28 457.549 L
613.366 458.34 L
614.452 459.037 L
615.538 459.65 L
616.624 460.186 L
617.71 460.652 L
618.796 461.056 L
619.882 461.405 L
620.968 461.705 L
622.054 461.962 L
623.14 462.182 L
624.226 462.369 L
625.312 462.527 L
626.398 462.661 L
627.484 462.774 L
628.57 462.869 L
629.656 462.949 L
630.742 463.015 L
631.432 463.051 L
S
GR
GS
[0.75 0 0 0.74971 0 0.39999] CT
0.851 0.325 0.098 RC
1 LJ
2.667 LW
N
90.935 463.049 M
91 463.049 L
92.086 463.042 L
93.172 463.034 L
94.258 463.024 L
95.344 463.012 L
96.43 462.997 L
97.516 462.979 L
98.602 462.958 L
99.688 462.932 L
100.774 462.902 L
101.86 462.865 L
102.946 462.822 L
104.032 462.772 L
105.118 462.712 L
106.204 462.642 L
107.29 462.56 L
108.376 462.465 L
109.462 462.356 L
110.548 462.229 L
111.634 462.084 L
112.72 461.918 L
113.806 461.73 L
114.892 461.517 L
115.978 461.277 L
117.064 461.008 L
118.15 460.708 L
119.236 460.375 L
120.322 460.006 L
121.408 459.601 L
122.494 459.157 L
123.58 458.674 L
124.666 458.15 L
125.752 457.584 L
126.838 456.977 L
127.924 456.328 L
129.01 455.637 L
130.096 454.906 L
131.182 454.136 L
132.268 453.328 L
133.354 452.486 L
134.44 451.612 L
135.526 450.708 L
136.612 449.78 L
137.698 448.83 L
138.784 447.864 L
139.87 446.885 L
140.956 445.9 L
142.042 444.913 L
143.128 443.928 L
144.214 442.952 L
145.3 441.988 L
146.386 441.043 L
147.472 440.12 L
148.558 439.223 L
149.644 438.356 L
150.73 437.523 L
151.816 436.726 L
152.902 435.968 L
153.988 435.25 L
155.074 434.574 L
156.16 433.939 L
157.246 433.347 L
158.332 432.797 L
159.418 432.288 L
160.504 431.818 L
161.59 431.386 L
162.676 430.99 L
163.762 430.628 L
164.848 430.298 L
165.934 429.997 L
167.02 429.722 L
168.106 429.471 L
169.192 429.242 L
170.278 429.032 L
171.364 428.839 L
172.45 428.661 L
173.536 428.497 L
174.622 428.344 L
175.708 428.201 L
176.794 428.068 L
177.88 427.943 L
178.966 427.825 L
180.052 427.713 L
181.138 427.608 L
182.224 427.509 L
183.31 427.416 L
184.396 427.328 L
185.482 427.246 L
186.568 427.169 L
187.654 427.097 L
188.74 427.03 L
189.826 426.968 L
190.912 426.911 L
191.998 426.857 L
193.084 426.808 L
194.17 426.761 L
195.256 426.717 L
196.342 426.674 L
197.428 426.632 L
198.514 426.59 L
199.6 426.547 L
200.686 426.501 L
201.772 426.451 L
202.858 426.396 L
203.944 426.334 L
205.03 426.265 L
206.116 426.187 L
207.202 426.098 L
208.288 425.997 L
209.374 425.883 L
210.46 425.754 L
211.546 425.609 L
212.632 425.447 L
213.718 425.267 L
214.804 425.066 L
215.89 424.845 L
216.976 424.602 L
218.062 424.335 L
219.148 424.045 L
220.234 423.73 L
221.32 423.39 L
222.406 423.023 L
223.492 422.628 L
224.578 422.206 L
225.664 421.756 L
226.75 421.276 L
227.836 420.768 L
228.922 420.229 L
230.008 419.661 L
231.094 419.062 L
232.18 418.434 L
233.266 417.775 L
234.352 417.086 L
235.438 416.368 L
236.524 415.621 L
237.61 414.845 L
238.696 414.041 L
239.782 413.21 L
240.868 412.353 L
241.954 411.472 L
243.04 410.567 L
244.126 409.641 L
245.212 408.695 L
246.298 407.731 L
247.384 406.75 L
248.47 405.756 L
249.556 404.751 L
250.642 403.736 L
251.728 402.715 L
252.814 401.69 L
253.9 400.663 L
254.986 399.639 L
256.072 398.618 L
257.158 397.604 L
258.244 396.6 L
259.33 395.609 L
260.416 394.632 L
261.502 393.673 L
262.588 392.733 L
263.674 391.815 L
264.76 390.921 L
265.846 390.053 L
266.932 389.213 L
268.018 388.401 L
269.104 387.62 L
270.19 386.87 L
271.276 386.151 L
272.362 385.466 L
273.448 384.813 L
274.534 384.194 L
275.62 383.608 L
276.706 383.056 L
277.792 382.536 L
278.878 382.05 L
279.964 381.595 L
281.05 381.172 L
282.136 380.78 L
283.222 380.418 L
284.308 380.087 L
285.394 379.784 L
286.48 379.509 L
287.566 379.262 L
288.652 379.042 L
289.738 378.849 L
290.824 378.681 L
291.91 378.538 L
292.996 378.419 L
294.082 378.325 L
295.168 378.253 L
296.254 378.204 L
297.34 378.177 L
298.426 378.171 L
299.512 378.186 L
300.598 378.22 L
301.684 378.272 L
302.77 378.341 L
303.856 378.427 L
304.942 378.527 L
306.028 378.64 L
307.114 378.764 L
308.2 378.898 L
309.286 379.039 L
310.372 379.185 L
311.458 379.334 L
312.544 379.481 L
313.63 379.626 L
314.716 379.763 L
315.802 379.89 L
316.888 380.004 L
317.974 380.099 L
319.06 380.172 L
320.146 380.218 L
321.232 380.233 L
322.318 380.212 L
323.404 380.15 L
324.49 380.041 L
325.576 379.881 L
326.662 379.664 L
327.748 379.386 L
328.834 379.04 L
329.92 378.622 L
331.006 378.128 L
332.092 377.551 L
333.178 376.889 L
334.264 376.137 L
335.35 375.292 L
336.436 374.35 L
337.522 373.31 L
338.608 372.169 L
339.694 370.926 L
340.78 369.581 L
341.866 368.134 L
342.952 366.586 L
344.038 364.939 L
345.124 363.195 L
346.21 361.357 L
347.296 359.43 L
348.382 357.417 L
349.468 355.325 L
350.554 353.159 L
351.64 350.925 L
352.726 348.63 L
353.812 346.283 L
354.898 343.89 L
355.984 341.461 L
357.07 339.002 L
358.156 336.524 L
359.242 334.034 L
360.328 331.542 L
361.414 329.056 L
362.5 326.585 L
363.586 324.138 L
364.672 321.724 L
365.758 319.349 L
366.844 317.023 L
367.93 314.752 L
369.016 312.544 L
370.102 310.406 L
371.188 308.343 L
372.274 306.361 L
373.36 304.466 L
374.446 302.661 L
375.532 300.95 L
376.618 299.336 L
377.704 297.822 L
378.79 296.41 L
379.876 295.1 L
380.962 293.894 L
382.048 292.789 L
383.134 291.786 L
384.22 290.883 L
385.306 290.078 L
386.392 289.367 L
387.478 288.747 L
388.564 288.214 L
389.65 287.764 L
390.736 287.391 L
391.822 287.091 L
392.908 286.858 L
393.994 286.686 L
395.08 286.569 L
396.166 286.5 L
397.252 286.475 L
398.338 286.485 L
399.424 286.526 L
400.51 286.592 L
401.596 286.676 L
402.682 286.774 L
403.768 286.881 L
404.854 286.991 L
405.94 287.101 L
407.026 287.208 L
408.112 287.309 L
409.198 287.401 L
410.284 287.484 L
411.37 287.556 L
412.456 287.617 L
413.542 287.669 L
414.628 287.713 L
415.714 287.751 L
416.8 287.786 L
417.886 287.821 L
418.972 287.861 L
420.058 287.909 L
421.144 287.969 L
422.23 288.048 L
423.316 288.147 L
424.402 288.273 L
425.488 288.427 L
426.574 288.612 L
427.66 288.83 L
428.746 289.081 L
429.832 289.364 L
430.918 289.675 L
432.004 290.01 L
433.09 290.361 L
434.176 290.72 L
435.262 291.074 L
436.348 291.409 L
437.434 291.709 L
438.52 291.956 L
439.606 292.128 L
440.692 292.203 L
441.778 292.156 L
442.864 291.96 L
443.95 291.589 L
445.036 291.015 L
446.122 290.21 L
447.208 289.146 L
448.294 287.797 L
449.38 286.138 L
450.466 284.146 L
451.552 281.799 L
452.638 279.082 L
453.724 275.98 L
454.81 272.484 L
455.896 268.589 L
456.982 264.295 L
458.068 259.606 L
459.154 254.534 L
460.24 249.093 L
461.326 243.304 L
462.412 237.194 L
463.498 230.792 L
464.584 224.134 L
465.67 217.26 L
466.756 210.211 L
467.842 203.033 L
468.928 195.774 L
470.014 188.482 L
471.1 181.208 L
472.186 174.001 L
473.272 166.909 L
474.358 159.981 L
475.444 153.26 L
476.53 146.788 L
477.616 140.605 L
478.702 134.743 L
479.788 129.233 L
480.874 124.098 L
481.96 119.36 L
483.046 115.031 L
484.132 111.121 L
485.218 107.635 L
486.304 104.569 L
487.39 101.919 L
488.476 99.674 L
489.562 97.82 L
490.648 96.338 L
491.734 95.208 L
492.82 94.405 L
493.906 93.904 L
494.992 93.679 L
496.078 93.7 L
497.164 93.94 L
498.25 94.371 L
499.336 94.964 L
500.422 95.694 L
501.508 96.535 L
502.594 97.462 L
503.68 98.454 L
504.766 99.491 L
505.852 100.554 L
506.938 101.628 L
508.024 102.698 L
509.11 103.753 L
510.196 104.783 L
511.282 105.781 L
512.368 106.738 L
513.454 107.652 L
514.54 108.519 L
515.626 109.335 L
516.712 110.101 L
517.798 110.815 L
518.884 111.477 L
519.97 112.087 L
521.056 112.647 L
522.142 113.155 L
523.228 113.612 L
524.314 114.017 L
525.4 114.37 L
526.486 114.669 L
527.572 114.912 L
528.658 115.096 L
529.744 115.219 L
530.83 115.276 L
531.916 115.262 L
533.002 115.174 L
534.088 115.006 L
535.174 114.754 L
536.26 114.413 L
537.346 113.98 L
538.432 113.452 L
539.518 112.828 L
540.604 112.107 L
541.69 111.292 L
542.776 110.388 L
543.862 109.402 L
544.948 108.345 L
546.034 107.23 L
547.12 106.076 L
548.206 104.904 L
549.292 103.74 L
550.378 102.615 L
551.464 101.561 L
552.55 100.618 L
553.636 99.827 L
554.722 99.234 L
555.808 98.887 L
556.894 98.836 L
557.98 99.133 L
559.066 99.832 L
560.152 100.985 L
561.238 102.642 L
562.324 104.855 L
563.41 107.667 L
564.496 111.12 L
565.582 115.25 L
566.668 120.085 L
567.754 125.646 L
568.84 131.947 L
569.926 138.991 L
571.012 146.772 L
572.098 155.272 L
573.184 164.468 L
574.27 174.321 L
575.356 184.786 L
576.442 195.808 L
577.528 207.324 L
578.614 219.265 L
579.7 231.552 L
580.786 244.104 L
581.872 256.838 L
582.958 269.666 L
584.044 282.501 L
585.13 295.258 L
586.216 307.853 L
587.302 320.206 L
588.388 332.244 L
589.474 343.897 L
590.56 355.107 L
591.646 365.818 L
592.732 375.988 L
593.818 385.58 L
594.904 394.567 L
595.99 402.932 L
597.076 410.663 L
598.162 417.761 L
599.248 424.23 L
600.334 430.085 L
601.42 435.343 L
602.506 440.029 L
603.592 444.171 L
604.678 447.802 L
605.764 450.956 L
606.85 453.671 L
607.936 455.984 L
609.022 457.932 L
610.108 459.554 L
611.194 460.886 L
612.28 461.963 L
613.366 462.819 L
613.744 463.051 L
S
GR
GS
[0.75 0 0 0.74971 0 0.39999] CT
0.775 GC
[1 3] 0 setdash
2 LJ
0.667 LW
N
112.72 463 M
112.72 39 L
S
GR
GS
[0.75 0 0 0.74971 0 0.39999] CT
0.775 GC
[1 3] 0 setdash
2 LJ
0.667 LW
N
134.44 463 M
134.44 39 L
S
GR
GS
[0.75 0 0 0.74971 0 0.39999] CT
0.775 GC
[1 3] 0 setdash
2 LJ
0.667 LW
N
156.16 463 M
156.16 39 L
S
GR
GS
[0.75 0 0 0.74971 0 0.39999] CT
0.775 GC
[1 3] 0 setdash
2 LJ
0.667 LW
N
177.88 463 M
177.88 39 L
S
GR
GS
[0.75 0 0 0.74971 0 0.39999] CT
0.775 GC
[1 3] 0 setdash
2 LJ
0.667 LW
N
221.32 463 M
221.32 39 L
S
GR
GS
[0.75 0 0 0.74971 0 0.39999] CT
0.775 GC
[1 3] 0 setdash
2 LJ
0.667 LW
N
243.04 463 M
243.04 39 L
S
GR
GS
[0.75 0 0 0.74971 0 0.39999] CT
0.775 GC
[1 3] 0 setdash
2 LJ
0.667 LW
N
264.76 463 M
264.76 39 L
S
GR
GS
[0.75 0 0 0.74971 0 0.39999] CT
0.775 GC
[1 3] 0 setdash
2 LJ
0.667 LW
N
286.48 463 M
286.48 39 L
S
GR
GS
[0.75 0 0 0.74971 0 0.39999] CT
0.775 GC
[1 3] 0 setdash
2 LJ
0.667 LW
N
329.92 463 M
329.92 39 L
S
GR
GS
[0.75 0 0 0.74971 0 0.39999] CT
0.775 GC
[1 3] 0 setdash
2 LJ
0.667 LW
N
351.64 463 M
351.64 39 L
S
GR
GS
[0.75 0 0 0.74971 0 0.39999] CT
0.775 GC
[1 3] 0 setdash
2 LJ
0.667 LW
N
373.36 463 M
373.36 39 L
S
GR
GS
[0.75 0 0 0.74971 0 0.39999] CT
0.775 GC
[1 3] 0 setdash
2 LJ
0.667 LW
N
395.08 463 M
395.08 39 L
S
GR
GS
[0.75 0 0 0.74971 0 0.39999] CT
0.775 GC
[1 3] 0 setdash
2 LJ
0.667 LW
N
438.52 463 M
438.52 39 L
S
GR
GS
[0.75 0 0 0.74971 0 0.39999] CT
0.775 GC
[1 3] 0 setdash
2 LJ
0.667 LW
N
460.24 463 M
460.24 39 L
S
GR
GS
[0.75 0 0 0.74971 0 0.39999] CT
0.775 GC
[1 3] 0 setdash
2 LJ
0.667 LW
N
481.96 463 M
481.96 39 L
S
GR
GS
[0.75 0 0 0.74971 0 0.39999] CT
0.775 GC
[1 3] 0 setdash
2 LJ
0.667 LW
N
503.68 463 M
503.68 39 L
S
GR
GS
[0.75 0 0 0.74971 0 0.39999] CT
0.775 GC
[1 3] 0 setdash
2 LJ
0.667 LW
N
547.12 463 M
547.12 39 L
S
GR
GS
[0.75 0 0 0.74971 0 0.39999] CT
0.775 GC
[1 3] 0 setdash
2 LJ
0.667 LW
N
568.84 463 M
568.84 39 L
S
GR
GS
[0.75 0 0 0.74971 0 0.39999] CT
0.775 GC
[1 3] 0 setdash
2 LJ
0.667 LW
N
590.56 463 M
590.56 39 L
S
GR
GS
[0.75 0 0 0.74971 0 0.39999] CT
0.775 GC
[1 3] 0 setdash
2 LJ
0.667 LW
N
612.28 463 M
612.28 39 L
S
GR
GS
[0.75 0 0 0.74971 0 0.39999] CT
0.873 GC
[1 3] 0 setdash
2 LJ
0.667 LW
N
91 463 M
91 39 L
S
GR
GS
[0.75 0 0 0.74971 0 0.39999] CT
0.873 GC
[1 3] 0 setdash
2 LJ
0.667 LW
N
199.6 463 M
199.6 39 L
S
GR
GS
[0.75 0 0 0.74971 0 0.39999] CT
0.873 GC
[1 3] 0 setdash
2 LJ
0.667 LW
N
308.2 463 M
308.2 39 L
S
GR
GS
[0.75 0 0 0.74971 0 0.39999] CT
0.873 GC
[1 3] 0 setdash
2 LJ
0.667 LW
N
416.8 463 M
416.8 39 L
S
GR
GS
[0.75 0 0 0.74971 0 0.39999] CT
0.873 GC
[1 3] 0 setdash
2 LJ
0.667 LW
N
525.4 463 M
525.4 39 L
S
GR
GS
[0.75 0 0 0.74971 0 0.39999] CT
0.873 GC
[1 3] 0 setdash
2 LJ
0.667 LW
N
634 463 M
634 39 L
S
GR
GS
[0.75 0 0 0.74971 0 0.39999] CT
0.775 GC
[1 3] 0 setdash
2 LJ
0.667 LW
N
634 448.867 M
91 448.867 L
S
GR
GS
[0.75 0 0 0.74971 0 0.39999] CT
0.775 GC
[1 3] 0 setdash
2 LJ
0.667 LW
N
634 434.733 M
91 434.733 L
S
GR
GS
[0.75 0 0 0.74971 0 0.39999] CT
0.775 GC
[1 3] 0 setdash
2 LJ
0.667 LW
N
634 420.6 M
91 420.6 L
S
GR
GS
[0.75 0 0 0.74971 0 0.39999] CT
0.775 GC
[1 3] 0 setdash
2 LJ
0.667 LW
N
634 406.467 M
91 406.467 L
S
GR
GS
[0.75 0 0 0.74971 0 0.39999] CT
0.775 GC
[1 3] 0 setdash
2 LJ
0.667 LW
N
634 378.2 M
91 378.2 L
S
GR
GS
[0.75 0 0 0.74971 0 0.39999] CT
0.775 GC
[1 3] 0 setdash
2 LJ
0.667 LW
N
634 364.067 M
91 364.067 L
S
GR
GS
[0.75 0 0 0.74971 0 0.39999] CT
0.775 GC
[1 3] 0 setdash
2 LJ
0.667 LW
N
634 349.933 M
91 349.933 L
S
GR
GS
[0.75 0 0 0.74971 0 0.39999] CT
0.775 GC
[1 3] 0 setdash
2 LJ
0.667 LW
N
634 335.8 M
91 335.8 L
S
GR
GS
[0.75 0 0 0.74971 0 0.39999] CT
0.775 GC
[1 3] 0 setdash
2 LJ
0.667 LW
N
634 307.533 M
91 307.533 L
S
GR
GS
[0.75 0 0 0.74971 0 0.39999] CT
0.775 GC
[1 3] 0 setdash
2 LJ
0.667 LW
N
634 293.4 M
91 293.4 L
S
GR
GS
[0.75 0 0 0.74971 0 0.39999] CT
0.775 GC
[1 3] 0 setdash
2 LJ
0.667 LW
N
634 279.267 M
91 279.267 L
S
GR
GS
[0.75 0 0 0.74971 0 0.39999] CT
0.775 GC
[1 3] 0 setdash
2 LJ
0.667 LW
N
634 265.133 M
91 265.133 L
S
GR
GS
[0.75 0 0 0.74971 0 0.39999] CT
0.775 GC
[1 3] 0 setdash
2 LJ
0.667 LW
N
634 236.867 M
91 236.867 L
S
GR
GS
[0.75 0 0 0.74971 0 0.39999] CT
0.775 GC
[1 3] 0 setdash
2 LJ
0.667 LW
N
634 222.733 M
91 222.733 L
S
GR
GS
[0.75 0 0 0.74971 0 0.39999] CT
0.775 GC
[1 3] 0 setdash
2 LJ
0.667 LW
N
634 208.6 M
91 208.6 L
S
GR
GS
[0.75 0 0 0.74971 0 0.39999] CT
0.775 GC
[1 3] 0 setdash
2 LJ
0.667 LW
N
634 194.467 M
91 194.467 L
S
GR
GS
[0.75 0 0 0.74971 0 0.39999] CT
0.775 GC
[1 3] 0 setdash
2 LJ
0.667 LW
N
634 166.2 M
91 166.2 L
S
GR
GS
[0.75 0 0 0.74971 0 0.39999] CT
0.775 GC
[1 3] 0 setdash
2 LJ
0.667 LW
N
634 152.067 M
91 152.067 L
S
GR
GS
[0.75 0 0 0.74971 0 0.39999] CT
0.775 GC
[1 3] 0 setdash
2 LJ
0.667 LW
N
634 137.933 M
91 137.933 L
S
GR
GS
[0.75 0 0 0.74971 0 0.39999] CT
0.775 GC
[1 3] 0 setdash
2 LJ
0.667 LW
N
634 123.8 M
91 123.8 L
S
GR
GS
[0.75 0 0 0.74971 0 0.39999] CT
0.775 GC
[1 3] 0 setdash
2 LJ
0.667 LW
N
634 95.533 M
91 95.533 L
S
GR
GS
[0.75 0 0 0.74971 0 0.39999] CT
0.775 GC
[1 3] 0 setdash
2 LJ
0.667 LW
N
634 81.4 M
91 81.4 L
S
GR
GS
[0.75 0 0 0.74971 0 0.39999] CT
0.775 GC
[1 3] 0 setdash
2 LJ
0.667 LW
N
634 67.267 M
91 67.267 L
S
GR
GS
[0.75 0 0 0.74971 0 0.39999] CT
0.775 GC
[1 3] 0 setdash
2 LJ
0.667 LW
N
634 53.133 M
91 53.133 L
S
GR
GS
[0.75 0 0 0.74971 0 0.39999] CT
0.873 GC
[1 3] 0 setdash
2 LJ
0.667 LW
N
634 463 M
91 463 L
S
GR
GS
[0.75 0 0 0.74971 0 0.39999] CT
0.873 GC
[1 3] 0 setdash
2 LJ
0.667 LW
N
634 392.333 M
91 392.333 L
S
GR
GS
[0.75 0 0 0.74971 0 0.39999] CT
0.873 GC
[1 3] 0 setdash
2 LJ
0.667 LW
N
634 321.667 M
91 321.667 L
S
GR
GS
[0.75 0 0 0.74971 0 0.39999] CT
0.873 GC
[1 3] 0 setdash
2 LJ
0.667 LW
N
634 251 M
91 251 L
S
GR
GS
[0.75 0 0 0.74971 0 0.39999] CT
0.873 GC
[1 3] 0 setdash
2 LJ
0.667 LW
N
634 180.333 M
91 180.333 L
S
GR
GS
[0.75 0 0 0.74971 0 0.39999] CT
0.873 GC
[1 3] 0 setdash
2 LJ
0.667 LW
N
634 109.667 M
91 109.667 L
S
GR
GS
[0.75 0 0 0.74971 0 0.39999] CT
0.873 GC
[1 3] 0 setdash
2 LJ
0.667 LW
N
634 39 M
91 39 L
S
GR
GS
[0.75 0 0 0.74971 0 0.39999] CT
0.149 GC
2 setlinecap
1 LJ
0.667 LW
N
91 463 M
634 463 L
S
GR
GS
[0.75 0 0 0.74971 0 0.39999] CT
0.149 GC
2 setlinecap
1 LJ
0.667 LW
N
91 463 M
91 457.57 L
S
GR
GS
[0.75 0 0 0.74971 0 0.39999] CT
0.149 GC
2 setlinecap
1 LJ
0.667 LW
N
199.6 463 M
199.6 457.57 L
S
GR
GS
[0.75 0 0 0.74971 0 0.39999] CT
0.149 GC
2 setlinecap
1 LJ
0.667 LW
N
308.2 463 M
308.2 457.57 L
S
GR
GS
[0.75 0 0 0.74971 0 0.39999] CT
0.149 GC
2 setlinecap
1 LJ
0.667 LW
N
416.8 463 M
416.8 457.57 L
S
GR
GS
[0.75 0 0 0.74971 0 0.39999] CT
0.149 GC
2 setlinecap
1 LJ
0.667 LW
N
525.4 463 M
525.4 457.57 L
S
GR
GS
[0.75 0 0 0.74971 0 0.39999] CT
0.149 GC
2 setlinecap
1 LJ
0.667 LW
N
634 463 M
634 457.57 L
S
GR
GS
[0.75 0 0 0.74971 68.25 352.5158] CT
0.149 GC
/Helvetica 20 F
GS
[1 0 0 1 0 0] CT
-6 21 moveto 
1 -1 scale
(1) t 
GR
GR
GS
[0.75 0 0 0.74971 149.7 352.5158] CT
0.149 GC
/Helvetica 20 F
GS
[1 0 0 1 0 0] CT
-6 21 moveto 
1 -1 scale
(2) t 
GR
GR
GS
[0.75 0 0 0.74971 231.15001 352.5158] CT
0.149 GC
/Helvetica 20 F
GS
[1 0 0 1 0 0] CT
-6 21 moveto 
1 -1 scale
(3) t 
GR
GR
GS
[0.75 0 0 0.74971 312.59999 352.5158] CT
0.149 GC
/Helvetica 20 F
GS
[1 0 0 1 0 0] CT
-6 21 moveto 
1 -1 scale
(4) t 
GR
GR
GS
[0.75 0 0 0.74971 394.05002 352.5158] CT
0.149 GC
/Helvetica 20 F
GS
[1 0 0 1 0 0] CT
-6 21 moveto 
1 -1 scale
(5) t 
GR
GR
GS
[0.75 0 0 0.74971 475.5 352.5158] CT
0.149 GC
/Helvetica 20 F
GS
[1 0 0 1 0 0] CT
-6 21 moveto 
1 -1 scale
(6) t 
GR
GR
GS
[0.75 0 0 0.74971 271.87518 373.008] CT
0.149 GC
/Helvetica 22 F
GS
[1 0 0 1 0 0] CT
-24 23 moveto 
1 -1 scale
(state) t 
GR
GR
GS
[0.75 0 0 0.74971 0 0.39999] CT
0.149 GC
2 setlinecap
1 LJ
0.667 LW
N
91 463 M
91 39 L
S
GR
GS
[0.75 0 0 0.74971 0 0.39999] CT
0.149 GC
2 setlinecap
1 LJ
0.667 LW
N
91 463 M
96.43 463 L
S
GR
GS
[0.75 0 0 0.74971 0 0.39999] CT
0.149 GC
2 setlinecap
1 LJ
0.667 LW
N
91 392.333 M
96.43 392.333 L
S
GR
GS
[0.75 0 0 0.74971 0 0.39999] CT
0.149 GC
2 setlinecap
1 LJ
0.667 LW
N
91 321.667 M
96.43 321.667 L
S
GR
GS
[0.75 0 0 0.74971 0 0.39999] CT
0.149 GC
2 setlinecap
1 LJ
0.667 LW
N
91 251 M
96.43 251 L
S
GR
GS
[0.75 0 0 0.74971 0 0.39999] CT
0.149 GC
2 setlinecap
1 LJ
0.667 LW
N
91 180.333 M
96.43 180.333 L
S
GR
GS
[0.75 0 0 0.74971 0 0.39999] CT
0.149 GC
2 setlinecap
1 LJ
0.667 LW
N
91 109.667 M
96.43 109.667 L
S
GR
GS
[0.75 0 0 0.74971 0 0.39999] CT
0.149 GC
2 setlinecap
1 LJ
0.667 LW
N
91 39 M
96.43 39 L
S
GR
GS
[0.75 0 0 0.74971 63.25 347.51771] CT
0.149 GC
/Helvetica 20 F
GS
[1 0 0 1 0 0] CT
-12 8 moveto 
1 -1 scale
(0) t 
GR
GR
GS
[0.75 0 0 0.74971 63.25 294.53791] CT
0.149 GC
/Helvetica 20 F
GS
[1 0 0 1 0 0] CT
-12 8 moveto 
1 -1 scale
(1) t 
GR
GR
GS
[0.75 0 0 0.74971 63.25 241.55809] CT
0.149 GC
/Helvetica 20 F
GS
[1 0 0 1 0 0] CT
-12 8 moveto 
1 -1 scale
(2) t 
GR
GR
GS
[0.75 0 0 0.74971 63.25 188.57828] CT
0.149 GC
/Helvetica 20 F
GS
[1 0 0 1 0 0] CT
-12 8 moveto 
1 -1 scale
(3) t 
GR
GR
GS
[0.75 0 0 0.74971 63.25 135.59847] CT
0.149 GC
/Helvetica 20 F
GS
[1 0 0 1 0 0] CT
-12 8 moveto 
1 -1 scale
(4) t 
GR
GR
GS
[0.75 0 0 0.74971 63.25 82.61866] CT
0.149 GC
/Helvetica 20 F
GS
[1 0 0 1 0 0] CT
-12 8 moveto 
1 -1 scale
(5) t 
GR
GR
GS
[0.75 0 0 0.74971 63.25 29.63885] CT
0.149 GC
/Helvetica 20 F
GS
[1 0 0 1 0 0] CT
-12 8 moveto 
1 -1 scale
(6) t 
GR
GR
GS
[0 -0.74971 0.75 0 51.25 188.57813] CT
0.149 GC
/Helvetica 22 F
GS
[1 0 0 1 0 0] CT
-9 -5 moveto 
1 -1 scale
(Q) t 
GR
GR
GS
[0.75 0 0 0.74971 0 0.39999] CT
1 GC
N
191 103 M
191 52 L
104 52 L
104 103 L
cp
f
GR
GS
[0.75 0 0 0.74971 113.25 49.60649] CT
/Helvetica 18 F
GS
[1 0 0 1 0 0] CT
0 7.5 moveto 
1 -1 scale
(left) t 
GR
GR
GS
[0.75 0 0 0.74971 0 0.39999] CT
0 0.447 0.741 RC
1 LJ
2.667 LW
N
108 65.634 M
148 65.634 L
S
GR
GS
[0.75 0 0 0.74971 113.25 67.39921] CT
/Helvetica 18 F
GS
[1 0 0 1 0 0] CT
0 7.5 moveto 
1 -1 scale
(right) t 
GR
GR
GS
[0.75 0 0 0.74971 0 0.39999] CT
0.851 0.325 0.098 RC
1 LJ
2.667 LW
N
108 89.366 M
148 89.366 L
S
GR
GS
[0.75 0 0 0.74971 0 0.39999] CT
0.149 GC
10.0 ML
0.667 LW
N
104 103 M
104 52 L
191 52 L
191 103 L
cp
S
GR
%%Trailer
%%Pages: 1
%%EOF
