%!PS-Adobe-3.0 EPSF-3.0
%%Creator: (MATLAB, The Mathworks, Inc. Version 9.3.0.713579 \(R2017b\). Operating System: Windows 7)
%%Title: fig/RBFN_Q6.eps
%%CreationDate: 2018-05-06T10:36:16
%%Pages: (atend)
%%BoundingBox:    40    13   382   297
%%LanguageLevel: 3
%%EndComments
%%BeginProlog
%%BeginResource: procset (Apache XML Graphics Std ProcSet) 1.2 0
%%Version: 1.2 0
%%Copyright: (Copyright 2001-2003,2010 The Apache Software Foundation. License terms: http://www.apache.org/licenses/LICENSE-2.0)
/bd{bind def}bind def
/ld{load def}bd
/GR/grestore ld
/GS/gsave ld
/RM/rmoveto ld
/C/curveto ld
/t/show ld
/L/lineto ld
/ML/setmiterlimit ld
/CT/concat ld
/f/fill ld
/N/newpath ld
/S/stroke ld
/CC/setcmykcolor ld
/A/ashow ld
/cp/closepath ld
/RC/setrgbcolor ld
/LJ/setlinejoin ld
/GC/setgray ld
/LW/setlinewidth ld
/M/moveto ld
/re {4 2 roll M
1 index 0 rlineto
0 exch rlineto
neg 0 rlineto
cp } bd
/_ctm matrix def
/_tm matrix def
/BT { _ctm currentmatrix pop matrix _tm copy pop 0 0 moveto } bd
/ET { _ctm setmatrix } bd
/iTm { _ctm setmatrix _tm concat } bd
/Tm { _tm astore pop iTm 0 0 moveto } bd
/ux 0.0 def
/uy 0.0 def
/F {
  /Tp exch def
  /Tf exch def
  Tf findfont Tp scalefont setfont
  /cf Tf def  /cs Tp def
} bd
/ULS {currentpoint /uy exch def /ux exch def} bd
/ULE {
  /Tcx currentpoint pop def
  gsave
  newpath
  cf findfont cs scalefont dup
  /FontMatrix get 0 get /Ts exch def /FontInfo get dup
  /UnderlinePosition get Ts mul /To exch def
  /UnderlineThickness get Ts mul /Tt exch def
  ux uy To add moveto  Tcx uy To add lineto
  Tt setlinewidth stroke
  grestore
} bd
/OLE {
  /Tcx currentpoint pop def
  gsave
  newpath
  cf findfont cs scalefont dup
  /FontMatrix get 0 get /Ts exch def /FontInfo get dup
  /UnderlinePosition get Ts mul /To exch def
  /UnderlineThickness get Ts mul /Tt exch def
  ux uy To add cs add moveto Tcx uy To add cs add lineto
  Tt setlinewidth stroke
  grestore
} bd
/SOE {
  /Tcx currentpoint pop def
  gsave
  newpath
  cf findfont cs scalefont dup
  /FontMatrix get 0 get /Ts exch def /FontInfo get dup
  /UnderlinePosition get Ts mul /To exch def
  /UnderlineThickness get Ts mul /Tt exch def
  ux uy To add cs 10 mul 26 idiv add moveto Tcx uy To add cs 10 mul 26 idiv add lineto
  Tt setlinewidth stroke
  grestore
} bd
/QT {
/Y22 exch store
/X22 exch store
/Y21 exch store
/X21 exch store
currentpoint
/Y21 load 2 mul add 3 div exch
/X21 load 2 mul add 3 div exch
/X21 load 2 mul /X22 load add 3 div
/Y21 load 2 mul /Y22 load add 3 div
/X22 load /Y22 load curveto
} bd
/SSPD {
dup length /d exch dict def
{
/v exch def
/k exch def
currentpagedevice k known {
/cpdv currentpagedevice k get def
v cpdv ne {
/upd false def
/nullv v type /nulltype eq def
/nullcpdv cpdv type /nulltype eq def
nullv nullcpdv or
{
/upd true def
} {
/sametype v type cpdv type eq def
sametype {
v type /arraytype eq {
/vlen v length def
/cpdvlen cpdv length def
vlen cpdvlen eq {
0 1 vlen 1 sub {
/i exch def
/obj v i get def
/cpdobj cpdv i get def
obj cpdobj ne {
/upd true def
exit
} if
} for
} {
/upd true def
} ifelse
} {
v type /dicttype eq {
v {
/dv exch def
/dk exch def
/cpddv cpdv dk get def
dv cpddv ne {
/upd true def
exit
} if
} forall
} {
/upd true def
} ifelse
} ifelse
} if
} ifelse
upd true eq {
d k v put
} if
} if
} if
} forall
d length 0 gt {
d setpagedevice
} if
} bd
/RE { % /NewFontName [NewEncodingArray] /FontName RE -
  findfont dup length dict begin
  {
    1 index /FID ne
    {def} {pop pop} ifelse
  } forall
  /Encoding exch def
  /FontName 1 index def
  currentdict definefont pop
  end
} bind def
%%EndResource
%%BeginResource: procset (Apache XML Graphics EPS ProcSet) 1.0 0
%%Version: 1.0 0
%%Copyright: (Copyright 2002-2003 The Apache Software Foundation. License terms: http://www.apache.org/licenses/LICENSE-2.0)
/BeginEPSF { %def
/b4_Inc_state save def         % Save state for cleanup
/dict_count countdictstack def % Count objects on dict stack
/op_count count 1 sub def      % Count objects on operand stack
userdict begin                 % Push userdict on dict stack
/showpage { } def              % Redefine showpage, { } = null proc
0 setgray 0 setlinecap         % Prepare graphics state
1 setlinewidth 0 setlinejoin
10 setmiterlimit [ ] 0 setdash newpath
/languagelevel where           % If level not equal to 1 then
{pop languagelevel             % set strokeadjust and
1 ne                           % overprint to their defaults.
{false setstrokeadjust false setoverprint
} if
} if
} bd
/EndEPSF { %def
count op_count sub {pop} repeat            % Clean up stacks
countdictstack dict_count sub {end} repeat
b4_Inc_state restore
} bd
%%EndResource
%FOPBeginFontDict
%%IncludeResource: font Courier-Oblique
%%IncludeResource: font Courier-BoldOblique
%%IncludeResource: font Courier-Bold
%%IncludeResource: font ZapfDingbats
%%IncludeResource: font Symbol
%%IncludeResource: font Helvetica
%%IncludeResource: font Helvetica-Oblique
%%IncludeResource: font Helvetica-Bold
%%IncludeResource: font Helvetica-BoldOblique
%%IncludeResource: font Times-Roman
%%IncludeResource: font Times-Italic
%%IncludeResource: font Times-Bold
%%IncludeResource: font Times-BoldItalic
%%IncludeResource: font Courier
%FOPEndFontDict
%%BeginResource: encoding WinAnsiEncoding
/WinAnsiEncoding [
/.notdef /.notdef /.notdef /.notdef /.notdef
/.notdef /.notdef /.notdef /.notdef /.notdef
/.notdef /.notdef /.notdef /.notdef /.notdef
/.notdef /.notdef /.notdef /.notdef /.notdef
/.notdef /.notdef /.notdef /.notdef /.notdef
/.notdef /.notdef /.notdef /.notdef /.notdef
/.notdef /.notdef /space /exclam /quotedbl
/numbersign /dollar /percent /ampersand /quotesingle
/parenleft /parenright /asterisk /plus /comma
/hyphen /period /slash /zero /one
/two /three /four /five /six
/seven /eight /nine /colon /semicolon
/less /equal /greater /question /at
/A /B /C /D /E
/F /G /H /I /J
/K /L /M /N /O
/P /Q /R /S /T
/U /V /W /X /Y
/Z /bracketleft /backslash /bracketright /asciicircum
/underscore /quoteleft /a /b /c
/d /e /f /g /h
/i /j /k /l /m
/n /o /p /q /r
/s /t /u /v /w
/x /y /z /braceleft /bar
/braceright /asciitilde /bullet /Euro /bullet
/quotesinglbase /florin /quotedblbase /ellipsis /dagger
/daggerdbl /circumflex /perthousand /Scaron /guilsinglleft
/OE /bullet /Zcaron /bullet /bullet
/quoteleft /quoteright /quotedblleft /quotedblright /bullet
/endash /emdash /asciitilde /trademark /scaron
/guilsinglright /oe /bullet /zcaron /Ydieresis
/space /exclamdown /cent /sterling /currency
/yen /brokenbar /section /dieresis /copyright
/ordfeminine /guillemotleft /logicalnot /sfthyphen /registered
/macron /degree /plusminus /twosuperior /threesuperior
/acute /mu /paragraph /middot /cedilla
/onesuperior /ordmasculine /guillemotright /onequarter /onehalf
/threequarters /questiondown /Agrave /Aacute /Acircumflex
/Atilde /Adieresis /Aring /AE /Ccedilla
/Egrave /Eacute /Ecircumflex /Edieresis /Igrave
/Iacute /Icircumflex /Idieresis /Eth /Ntilde
/Ograve /Oacute /Ocircumflex /Otilde /Odieresis
/multiply /Oslash /Ugrave /Uacute /Ucircumflex
/Udieresis /Yacute /Thorn /germandbls /agrave
/aacute /acircumflex /atilde /adieresis /aring
/ae /ccedilla /egrave /eacute /ecircumflex
/edieresis /igrave /iacute /icircumflex /idieresis
/eth /ntilde /ograve /oacute /ocircumflex
/otilde /odieresis /divide /oslash /ugrave
/uacute /ucircumflex /udieresis /yacute /thorn
/ydieresis
] def
%%EndResource
%FOPBeginFontReencode
/Courier-Oblique findfont
dup length dict begin
  {1 index /FID ne {def} {pop pop} ifelse} forall
  /Encoding WinAnsiEncoding def
  currentdict
end
/Courier-Oblique exch definefont pop
/Courier-BoldOblique findfont
dup length dict begin
  {1 index /FID ne {def} {pop pop} ifelse} forall
  /Encoding WinAnsiEncoding def
  currentdict
end
/Courier-BoldOblique exch definefont pop
/Courier-Bold findfont
dup length dict begin
  {1 index /FID ne {def} {pop pop} ifelse} forall
  /Encoding WinAnsiEncoding def
  currentdict
end
/Courier-Bold exch definefont pop
/Helvetica findfont
dup length dict begin
  {1 index /FID ne {def} {pop pop} ifelse} forall
  /Encoding WinAnsiEncoding def
  currentdict
end
/Helvetica exch definefont pop
/Helvetica-Oblique findfont
dup length dict begin
  {1 index /FID ne {def} {pop pop} ifelse} forall
  /Encoding WinAnsiEncoding def
  currentdict
end
/Helvetica-Oblique exch definefont pop
/Helvetica-Bold findfont
dup length dict begin
  {1 index /FID ne {def} {pop pop} ifelse} forall
  /Encoding WinAnsiEncoding def
  currentdict
end
/Helvetica-Bold exch definefont pop
/Helvetica-BoldOblique findfont
dup length dict begin
  {1 index /FID ne {def} {pop pop} ifelse} forall
  /Encoding WinAnsiEncoding def
  currentdict
end
/Helvetica-BoldOblique exch definefont pop
/Times-Roman findfont
dup length dict begin
  {1 index /FID ne {def} {pop pop} ifelse} forall
  /Encoding WinAnsiEncoding def
  currentdict
end
/Times-Roman exch definefont pop
/Times-Italic findfont
dup length dict begin
  {1 index /FID ne {def} {pop pop} ifelse} forall
  /Encoding WinAnsiEncoding def
  currentdict
end
/Times-Italic exch definefont pop
/Times-Bold findfont
dup length dict begin
  {1 index /FID ne {def} {pop pop} ifelse} forall
  /Encoding WinAnsiEncoding def
  currentdict
end
/Times-Bold exch definefont pop
/Times-BoldItalic findfont
dup length dict begin
  {1 index /FID ne {def} {pop pop} ifelse} forall
  /Encoding WinAnsiEncoding def
  currentdict
end
/Times-BoldItalic exch definefont pop
/Courier findfont
dup length dict begin
  {1 index /FID ne {def} {pop pop} ifelse} forall
  /Encoding WinAnsiEncoding def
  currentdict
end
/Courier exch definefont pop
%FOPEndFontReencode
%%EndProlog
%%Page: 1 1
%%PageBoundingBox: 0 0 420 315
%%BeginPageSetup
[1 0 0 -1 0 315] CT
%%EndPageSetup
GS
[0.75 0 0 0.75 0 0] CT
1 GC
N
0 0 560 420 re
f
GR
GS
[0.75 0 0 0.75 0 0] CT
1 GC
N
0 0 560 420 re
f
GR
GS
[0.75 0 0 0.75 0 0] CT
1 GC
N
73 374 M
507 374 L
507 31 L
73 31 L
cp
f
GR
GS
[0.75 0 0 0.75 0 0] CT
0.149 GC
1 LJ
0.667 LW
N
73 374 M
507 374 L
S
GR
GS
[0.75 0 0 0.75 0 0] CT
0.902 0.945 0.973 RC
N
72.948 349.468 M
72.948 374 L
73 374 L
73.723 374 L
74.447 374 L
75.17 374 L
75.893 374 L
76.617 374 L
77.34 374 L
78.063 374 L
78.787 374 L
79.51 374 L
80.233 374 L
80.957 374 L
81.68 374 L
82.403 374 L
83.127 374 L
83.85 374 L
84.573 374 L
85.297 374 L
86.02 374 L
86.743 374 L
87.467 374 L
88.19 374 L
88.913 374 L
89.637 374 L
90.36 374 L
91.083 374 L
91.807 374 L
92.53 374 L
93.253 374 L
93.977 374 L
94.7 374 L
95.423 374 L
96.147 374 L
96.87 374 L
97.593 374 L
98.317 374 L
99.04 374 L
99.763 374 L
100.487 374 L
101.21 374 L
101.933 374 L
102.657 374 L
103.38 374 L
104.103 374 L
104.827 374 L
105.55 374 L
106.273 374 L
106.997 374 L
107.72 374 L
108.443 374 L
109.167 374 L
109.89 374 L
110.613 374 L
111.337 374 L
112.06 374 L
112.783 374 L
113.507 374 L
114.23 374 L
114.953 374 L
115.677 374 L
116.4 374 L
117.123 374 L
117.847 374 L
118.57 374 L
119.293 374 L
120.017 374 L
120.74 374 L
121.463 374 L
122.187 374 L
122.91 374 L
123.633 374 L
124.357 374 L
125.08 374 L
125.803 374 L
126.527 374 L
127.25 374 L
127.973 374 L
128.697 374 L
129.42 374 L
130.143 374 L
130.867 374 L
131.59 374 L
132.313 374 L
133.037 374 L
133.76 374 L
134.483 374 L
135.207 374 L
135.93 374 L
136.653 374 L
137.377 374 L
138.1 374 L
138.823 374 L
139.547 374 L
140.27 374 L
140.993 374 L
141.717 374 L
142.44 374 L
143.163 374 L
143.887 374 L
144.61 374 L
145.333 374 L
146.057 374 L
146.78 374 L
147.503 374 L
148.227 374 L
148.95 374 L
149.673 374 L
150.397 374 L
151.12 374 L
151.843 374 L
152.567 374 L
153.29 374 L
154.013 374 L
154.737 374 L
155.46 374 L
156.183 374 L
156.907 374 L
157.63 374 L
158.353 374 L
159.077 374 L
159.8 374 L
160.523 374 L
161.247 374 L
161.97 374 L
162.693 374 L
163.417 374 L
164.14 374 L
164.863 374 L
165.587 374 L
166.31 374 L
167.033 374 L
167.757 374 L
168.48 374 L
169.203 374 L
169.927 374 L
170.65 374 L
171.373 374 L
172.097 374 L
172.82 374 L
173.543 374 L
174.267 374 L
174.99 374 L
175.713 374 L
176.437 374 L
177.16 374 L
177.883 374 L
178.607 374 L
179.33 374 L
180.053 374 L
180.777 374 L
181.5 374 L
182.223 374 L
182.947 374 L
183.67 374 L
184.393 374 L
185.117 374 L
185.84 374 L
186.563 374 L
187.287 374 L
188.01 374 L
188.733 374 L
189.457 374 L
190.18 374 L
190.903 374 L
191.627 374 L
192.35 374 L
193.073 374 L
193.797 374 L
194.52 374 L
195.243 374 L
195.967 374 L
196.69 374 L
197.413 374 L
198.137 374 L
198.86 374 L
199.583 374 L
200.307 374 L
201.03 374 L
201.753 374 L
202.477 374 L
203.2 374 L
203.923 374 L
204.647 374 L
205.37 374 L
206.093 374 L
206.817 374 L
207.54 374 L
208.263 374 L
208.987 374 L
209.71 374 L
210.433 374 L
211.157 374 L
211.88 374 L
212.603 374 L
213.327 374 L
214.05 374 L
214.773 374 L
215.497 374 L
216.22 374 L
216.943 374 L
217.667 374 L
216.943 31 L
216.22 31 L
215.497 31 L
214.773 31 L
214.05 31 L
213.327 31 L
212.603 31 L
211.88 31 L
211.157 31 L
210.433 31 L
209.71 31 L
208.987 31 L
208.263 31 L
207.54 31 L
206.817 31 L
206.093 31 L
205.37 31 L
204.647 31 L
203.923 31 L
203.2 31 L
202.477 31 L
201.753 31 L
201.03 31 L
200.307 31 L
199.583 31 L
198.86 31 L
198.137 31 L
197.413 31 L
196.69 31 L
195.967 31 L
195.243 31 L
194.52 31 L
193.797 31 L
193.073 31 L
192.35 31 L
191.627 31 L
190.903 31 L
190.18 31 L
189.457 31 L
188.733 31 L
188.01 31 L
187.287 31 L
186.563 31 L
185.84 31 L
185.117 31 L
184.393 31 L
183.67 31 L
182.947 31 L
182.223 31 L
181.5 31 L
180.777 31 L
180.053 31 L
179.33 31 L
178.607 31 L
177.883 31 L
177.16 31 L
176.437 31 L
175.713 31 L
174.99 31 L
174.267 31 L
173.543 31 L
172.82 31 L
172.097 31 L
171.373 31 L
170.65 31 L
169.927 31 L
169.203 31 L
168.48 31 L
167.757 31 L
167.033 31 L
166.31 31 L
165.587 31 L
164.863 31 L
164.14 31 L
163.417 31 L
162.693 31 L
161.97 31 L
161.247 31 L
160.523 31 L
159.8 31 L
159.077 31 L
158.353 31 L
157.63 31 L
156.907 31 L
156.183 31 L
155.46 31 L
154.737 31 L
154.013 31 L
153.29 31 L
152.567 31 L
151.843 31 L
151.12 31 L
150.397 31 L
149.673 31 L
148.95 31 L
148.227 31 L
147.503 31 L
146.78 31 L
146.057 31 L
145.333 31 L
144.61 31 L
143.887 31 L
143.163 31 L
142.44 31 L
141.717 31 L
140.993 31 L
140.27 31 L
139.547 31 L
138.823 31 L
138.1 31 L
137.377 31 L
136.653 31 L
135.93 31 L
135.207 31 L
134.483 31 L
133.76 31 L
133.037 31 L
132.313 31 L
131.59 31 L
130.867 31 L
130.143 31 L
129.42 31 L
128.697 31 L
127.973 31 L
127.25 31 L
126.527 31 L
125.803 31 L
125.08 31 L
124.357 31 L
123.633 31 L
122.91 31 L
122.187 31 L
121.463 31 L
120.74 31 L
120.017 31 L
119.293 31 L
118.57 31 L
117.847 31 L
117.123 31 L
116.4 31 L
115.677 31 L
114.953 31 L
114.23 31 L
113.507 31 L
112.783 31 L
112.06 31 L
111.337 31 L
110.613 31 L
109.89 31 L
109.167 31 L
108.443 31 L
107.72 31 L
106.997 31 L
106.273 31 L
105.55 31 L
104.827 31 L
104.103 31 L
103.38 31 L
102.657 31 L
101.933 31 L
101.21 31 L
100.487 31 L
99.763 31 L
99.04 31 L
98.317 31 L
97.593 31 L
96.87 31 L
96.147 31 L
95.423 31 L
94.7 31 L
93.977 31 L
93.253 31 L
92.53 31 L
91.807 31 L
91.083 31 L
90.36 31 L
89.637 31 L
88.913 31 L
88.19 31 L
87.467 31 L
86.743 31 L
86.02 31 L
85.297 31 L
84.573 31 L
83.85 31 L
83.127 31 L
82.403 31 L
81.68 31 L
80.957 31 L
80.233 31 L
79.51 31 L
78.787 31 L
78.063 31 L
77.34 31 L
76.617 31 L
75.893 31 L
75.17 31 L
74.447 31 L
73.723 31 L
73 31 L
72.948 31 L
cp
f
GR
GS
[0.75 0 0 0.75 0 0] CT
0.902 0.945 0.973 RC
1 LJ
0.667 LW
N
72.948 374 M
73 374 L
73.723 374 L
74.447 374 L
75.17 374 L
75.893 374 L
76.617 374 L
77.34 374 L
78.063 374 L
78.787 374 L
79.51 374 L
80.233 374 L
80.957 374 L
81.68 374 L
82.403 374 L
83.127 374 L
83.85 374 L
84.573 374 L
85.297 374 L
86.02 374 L
86.743 374 L
87.467 374 L
88.19 374 L
88.913 374 L
89.637 374 L
90.36 374 L
91.083 374 L
91.807 374 L
92.53 374 L
93.253 374 L
93.977 374 L
94.7 374 L
95.423 374 L
96.147 374 L
96.87 374 L
97.593 374 L
98.317 374 L
99.04 374 L
99.763 374 L
100.487 374 L
101.21 374 L
101.933 374 L
102.657 374 L
103.38 374 L
104.103 374 L
104.827 374 L
105.55 374 L
106.273 374 L
106.997 374 L
107.72 374 L
108.443 374 L
109.167 374 L
109.89 374 L
110.613 374 L
111.337 374 L
112.06 374 L
112.783 374 L
113.507 374 L
114.23 374 L
114.953 374 L
115.677 374 L
116.4 374 L
117.123 374 L
117.847 374 L
118.57 374 L
119.293 374 L
120.017 374 L
120.74 374 L
121.463 374 L
122.187 374 L
122.91 374 L
123.633 374 L
124.357 374 L
125.08 374 L
125.803 374 L
126.527 374 L
127.25 374 L
127.973 374 L
128.697 374 L
129.42 374 L
130.143 374 L
130.867 374 L
131.59 374 L
132.313 374 L
133.037 374 L
133.76 374 L
134.483 374 L
135.207 374 L
135.93 374 L
136.653 374 L
137.377 374 L
138.1 374 L
138.823 374 L
139.547 374 L
140.27 374 L
140.993 374 L
141.717 374 L
142.44 374 L
143.163 374 L
143.887 374 L
144.61 374 L
145.333 374 L
146.057 374 L
146.78 374 L
147.503 374 L
148.227 374 L
148.95 374 L
149.673 374 L
150.397 374 L
151.12 374 L
151.843 374 L
152.567 374 L
153.29 374 L
154.013 374 L
154.737 374 L
155.46 374 L
156.183 374 L
156.907 374 L
157.63 374 L
158.353 374 L
159.077 374 L
159.8 374 L
160.523 374 L
161.247 374 L
161.97 374 L
162.693 374 L
163.417 374 L
164.14 374 L
164.863 374 L
165.587 374 L
166.31 374 L
167.033 374 L
167.757 374 L
168.48 374 L
169.203 374 L
169.927 374 L
170.65 374 L
171.373 374 L
172.097 374 L
172.82 374 L
173.543 374 L
174.267 374 L
174.99 374 L
175.713 374 L
176.437 374 L
177.16 374 L
177.883 374 L
178.607 374 L
179.33 374 L
180.053 374 L
180.777 374 L
181.5 374 L
182.223 374 L
182.947 374 L
183.67 374 L
184.393 374 L
185.117 374 L
185.84 374 L
186.563 374 L
187.287 374 L
188.01 374 L
188.733 374 L
189.457 374 L
190.18 374 L
190.903 374 L
191.627 374 L
192.35 374 L
193.073 374 L
193.797 374 L
194.52 374 L
195.243 374 L
195.967 374 L
196.69 374 L
197.413 374 L
198.137 374 L
198.86 374 L
199.583 374 L
200.307 374 L
201.03 374 L
201.753 374 L
202.477 374 L
203.2 374 L
203.923 374 L
204.647 374 L
205.37 374 L
206.093 374 L
206.817 374 L
207.54 374 L
208.263 374 L
208.987 374 L
209.71 374 L
210.433 374 L
211.157 374 L
211.88 374 L
212.603 374 L
213.327 374 L
214.05 374 L
214.773 374 L
215.497 374 L
216.22 374 L
216.943 374 L
217.667 374 L
218.39 374 L
219.113 374 L
219.837 374 L
220.56 374 L
221.283 374 L
222.007 374 L
222.73 374 L
223.453 374 L
224.177 374 L
224.9 374 L
225.623 374 L
226.347 374 L
227.07 374 L
227.793 374 L
228.517 374 L
229.24 374 L
229.963 374 L
230.687 374 L
231.41 374 L
232.133 374 L
232.857 374 L
233.58 374 L
234.303 374 L
235.027 374 L
235.75 374 L
236.473 374 L
237.197 374 L
237.92 374 L
238.643 374 L
239.367 374 L
240.09 374 L
240.813 374 L
241.537 374 L
242.26 374 L
242.983 374 L
243.707 374 L
244.43 374 L
245.153 374 L
245.877 374 L
246.6 374 L
247.323 374 L
248.047 374 L
248.77 374 L
249.493 374 L
250.217 374 L
250.94 374 L
251.663 374 L
252.387 374 L
253.11 374 L
253.833 374 L
254.557 374 L
255.28 374 L
256.003 374 L
256.727 374 L
257.45 374 L
258.173 374 L
258.897 374 L
259.62 374 L
260.343 374 L
261.067 374 L
261.79 374 L
262.513 374 L
263.237 374 L
263.96 374 L
264.683 374 L
265.407 374 L
266.13 374 L
266.853 374 L
267.577 374 L
268.3 374 L
269.023 374 L
269.747 374 L
270.47 374 L
271.193 374 L
271.917 374 L
272.64 374 L
273.363 374 L
274.087 374 L
274.81 374 L
275.533 374 L
276.257 374 L
276.98 374 L
277.703 374 L
278.427 374 L
279.15 374 L
279.873 374 L
280.597 374 L
281.32 374 L
282.043 374 L
282.767 374 L
283.49 374 L
284.213 374 L
284.937 374 L
285.66 374 L
286.383 374 L
287.107 374 L
287.83 374 L
288.553 374 L
289.277 374 L
290 374 L
290.723 374 L
291.447 374 L
292.17 374 L
292.893 374 L
293.617 374 L
294.34 374 L
295.063 374 L
295.787 374 L
296.51 374 L
297.233 374 L
297.957 374 L
298.68 374 L
299.403 374 L
300.127 374 L
300.85 374 L
301.573 374 L
302.297 374 L
303.02 374 L
303.743 374 L
304.467 374 L
305.19 374 L
305.913 374 L
306.637 374 L
307.36 374 L
308.083 374 L
308.807 374 L
309.53 374 L
310.253 374 L
310.977 374 L
311.7 374 L
312.423 374 L
313.147 374 L
313.87 374 L
314.593 374 L
315.317 374 L
316.04 374 L
316.763 374 L
317.487 374 L
318.21 374 L
318.933 374 L
319.657 374 L
320.38 374 L
321.103 374 L
321.827 374 L
322.55 374 L
323.273 374 L
323.997 374 L
324.72 374 L
325.443 374 L
326.167 374 L
326.89 374 L
327.613 374 L
328.337 374 L
329.06 374 L
329.783 374 L
330.507 374 L
331.23 374 L
331.953 374 L
332.677 374 L
333.4 374 L
334.123 374 L
334.847 374 L
335.57 374 L
336.293 374 L
337.017 374 L
337.74 374 L
338.463 374 L
339.187 374 L
339.91 374 L
340.633 374 L
341.357 374 L
342.08 374 L
342.803 374 L
343.527 374 L
344.25 374 L
344.973 374 L
345.697 374 L
346.42 374 L
347.143 374 L
347.867 374 L
348.59 374 L
349.313 374 L
350.037 374 L
350.76 374 L
351.483 374 L
352.207 374 L
352.93 374 L
353.653 374 L
354.377 374 L
355.1 374 L
355.823 374 L
356.547 374 L
357.27 374 L
357.993 374 L
358.717 374 L
359.44 374 L
360.163 374 L
360.887 374 L
361.61 374 L
362.333 374 L
363.057 374 L
363.78 374 L
364.503 374 L
365.227 374 L
365.95 374 L
366.673 374 L
367.397 374 L
368.12 374 L
368.843 374 L
369.567 374 L
370.29 374 L
371.013 374 L
371.737 374 L
372.46 374 L
373.183 374 L
373.907 374 L
374.63 374 L
375.353 374 L
376.077 374 L
376.8 374 L
377.523 374 L
378.247 374 L
378.97 374 L
379.693 374 L
380.417 374 L
381.14 374 L
381.863 374 L
382.587 374 L
383.31 374 L
384.033 374 L
384.757 374 L
385.48 374 L
386.203 374 L
386.927 374 L
387.65 374 L
388.373 374 L
389.097 374 L
389.82 374 L
390.543 374 L
391.267 374 L
391.99 374 L
392.713 374 L
393.437 374 L
394.16 374 L
394.883 374 L
395.607 374 L
396.33 374 L
397.053 374 L
397.777 374 L
398.5 374 L
399.223 374 L
399.947 374 L
400.67 374 L
401.393 374 L
402.117 374 L
402.84 374 L
403.563 374 L
404.287 374 L
405.01 374 L
405.733 374 L
406.457 374 L
407.18 374 L
407.903 374 L
408.627 374 L
409.35 374 L
410.073 374 L
410.797 374 L
411.52 374 L
412.243 374 L
412.967 374 L
413.69 374 L
414.413 374 L
415.137 374 L
415.86 374 L
416.583 374 L
417.307 374 L
418.03 374 L
418.753 374 L
419.477 374 L
420.2 374 L
420.923 374 L
421.647 374 L
422.37 374 L
423.093 374 L
423.817 374 L
424.54 374 L
425.263 374 L
425.987 374 L
426.71 374 L
427.433 374 L
428.157 374 L
428.88 374 L
429.603 374 L
430.327 374 L
431.05 374 L
431.773 374 L
432.497 374 L
433.22 374 L
433.943 374 L
434.667 374 L
435.39 374 L
436.113 374 L
436.837 374 L
437.56 374 L
438.283 374 L
439.007 374 L
439.73 374 L
440.453 374 L
441.177 374 L
441.9 374 L
442.623 374 L
443.347 374 L
444.07 374 L
444.793 374 L
445.517 374 L
446.24 374 L
446.963 374 L
447.687 374 L
448.41 374 L
449.133 374 L
449.857 374 L
450.58 374 L
451.303 374 L
452.027 374 L
452.75 374 L
453.473 374 L
454.197 374 L
454.92 374 L
455.643 374 L
456.367 374 L
457.09 374 L
457.813 374 L
458.537 374 L
459.26 374 L
459.983 374 L
460.707 374 L
461.43 374 L
462.153 374 L
462.877 374 L
463.6 374 L
464.323 374 L
465.047 374 L
465.77 374 L
466.493 374 L
467.217 374 L
467.94 374 L
468.663 374 L
469.387 374 L
470.11 374 L
470.833 374 L
471.557 374 L
472.28 374 L
473.003 374 L
473.727 374 L
474.45 374 L
475.173 374 L
475.897 374 L
476.62 374 L
477.343 374 L
478.067 374 L
478.79 374 L
479.513 374 L
480.237 374 L
480.96 374 L
481.683 374 L
482.407 374 L
483.13 374 L
483.853 374 L
484.577 374 L
485.3 374 L
486.023 374 L
486.747 374 L
487.47 374 L
488.193 374 L
488.917 374 L
489.64 374 L
490.363 374 L
491.087 374 L
491.81 374 L
492.533 374 L
493.257 374 L
493.98 374 L
494.703 374 L
495.427 374 L
496.15 374 L
496.873 374 L
497.597 374 L
498.32 374 L
499.043 374 L
499.767 374 L
500.49 374 L
501.213 374 L
501.937 374 L
502.66 374 L
503.383 374 L
504.107 374 L
504.83 374 L
505.553 374 L
506.277 374 L
507 374 L
507.052 374 L
S
GR
GS
[0.75 0 0 0.75 0 0] CT
0.902 0.945 0.973 RC
1 LJ
0.667 LW
N
507.052 374 M
507 374 L
506.277 374 L
505.553 374 L
504.83 374 L
504.107 374 L
503.383 374 L
502.66 374 L
501.937 374 L
501.213 374 L
500.49 374 L
499.767 374 L
499.043 374 L
498.32 374 L
497.597 374 L
496.873 374 L
496.15 374 L
495.427 374 L
494.703 374 L
493.98 374 L
493.257 374 L
492.533 374 L
491.81 374 L
491.087 374 L
490.363 374 L
489.64 374 L
488.917 374 L
488.193 374 L
487.47 374 L
486.747 374 L
486.023 374 L
485.3 374 L
484.577 374 L
483.853 374 L
483.13 374 L
482.407 374 L
481.683 374 L
480.96 374 L
480.237 374 L
479.513 374 L
478.79 374 L
478.067 374 L
477.343 374 L
476.62 374 L
475.897 374 L
475.173 374 L
474.45 374 L
473.727 374 L
473.003 374 L
472.28 374 L
471.557 374 L
470.833 374 L
470.11 374 L
469.387 374 L
468.663 374 L
467.94 374 L
467.217 374 L
466.493 374 L
465.77 374 L
465.047 374 L
464.323 374 L
463.6 374 L
462.877 374 L
462.153 374 L
461.43 374 L
460.707 374 L
459.983 374 L
459.26 374 L
458.537 374 L
457.813 374 L
457.09 374 L
456.367 374 L
455.643 374 L
454.92 374 L
454.197 374 L
453.473 374 L
452.75 374 L
452.027 374 L
451.303 374 L
450.58 374 L
449.857 374 L
449.133 374 L
448.41 374 L
447.687 374 L
446.963 374 L
446.24 374 L
445.517 374 L
444.793 374 L
444.07 374 L
443.347 374 L
442.623 374 L
441.9 374 L
441.177 374 L
440.453 374 L
439.73 374 L
439.007 374 L
438.283 374 L
437.56 374 L
436.837 374 L
436.113 374 L
435.39 374 L
434.667 374 L
433.943 374 L
433.22 374 L
432.497 374 L
431.773 374 L
431.05 374 L
430.327 374 L
429.603 374 L
428.88 374 L
428.157 374 L
427.433 374 L
426.71 374 L
425.987 374 L
425.263 374 L
424.54 374 L
423.817 374 L
423.093 374 L
422.37 374 L
421.647 374 L
420.923 374 L
420.2 374 L
419.477 374 L
418.753 374 L
418.03 374 L
417.307 374 L
416.583 374 L
415.86 374 L
415.137 374 L
414.413 374 L
413.69 374 L
412.967 374 L
412.243 374 L
411.52 374 L
410.797 374 L
410.073 374 L
409.35 374 L
408.627 374 L
407.903 374 L
407.18 374 L
406.457 374 L
405.733 374 L
405.01 374 L
404.287 374 L
403.563 374 L
402.84 374 L
402.117 374 L
401.393 374 L
400.67 374 L
399.947 374 L
399.223 374 L
398.5 374 L
397.777 374 L
397.053 374 L
396.33 374 L
395.607 374 L
394.883 374 L
394.16 374 L
393.437 374 L
392.713 374 L
391.99 374 L
391.267 374 L
390.543 374 L
389.82 374 L
389.097 374 L
388.373 374 L
387.65 374 L
386.927 374 L
386.203 374 L
385.48 374 L
384.757 374 L
384.033 374 L
383.31 374 L
382.587 374 L
381.863 374 L
381.14 374 L
380.417 374 L
379.693 374 L
378.97 374 L
378.247 374 L
377.523 374 L
376.8 374 L
376.077 374 L
375.353 374 L
374.63 374 L
373.907 374 L
373.183 374 L
372.46 374 L
371.737 374 L
371.013 374 L
370.29 374 L
369.567 374 L
368.843 374 L
368.12 374 L
367.397 374 L
366.673 374 L
365.95 374 L
365.227 374 L
364.503 374 L
363.78 374 L
363.057 374 L
362.333 374 L
361.61 374 L
360.887 374 L
360.163 374 L
359.44 374 L
358.717 374 L
357.993 374 L
357.27 374 L
356.547 374 L
355.823 374 L
355.1 374 L
354.377 374 L
353.653 374 L
352.93 374 L
352.207 374 L
351.483 374 L
350.76 374 L
350.037 374 L
349.313 374 L
348.59 374 L
347.867 374 L
347.143 374 L
346.42 374 L
345.697 374 L
344.973 374 L
344.25 374 L
343.527 374 L
342.803 374 L
342.08 374 L
341.357 374 L
340.633 374 L
339.91 374 L
339.187 374 L
338.463 374 L
337.74 374 L
337.017 374 L
336.293 374 L
335.57 374 L
334.847 374 L
334.123 374 L
333.4 374 L
332.677 374 L
331.953 374 L
331.23 374 L
330.507 374 L
329.783 374 L
329.06 374 L
328.337 374 L
327.613 374 L
326.89 374 L
326.167 374 L
325.443 374 L
324.72 374 L
323.997 374 L
323.273 374 L
322.55 374 L
321.827 374 L
321.103 374 L
320.38 374 L
319.657 374 L
318.933 374 L
318.21 374 L
317.487 374 L
316.763 374 L
316.04 374 L
315.317 374 L
314.593 374 L
313.87 374 L
313.147 374 L
312.423 374 L
311.7 374 L
310.977 374 L
310.253 374 L
309.53 374 L
308.807 374 L
308.083 374 L
307.36 374 L
306.637 374 L
305.913 374 L
305.19 374 L
304.467 374 L
303.743 374 L
303.02 374 L
302.297 374 L
301.573 374 L
300.85 374 L
300.127 374 L
299.403 374 L
298.68 374 L
297.957 374 L
297.233 374 L
296.51 374 L
295.787 374 L
295.063 374 L
294.34 374 L
293.617 374 L
292.893 374 L
292.17 374 L
291.447 374 L
290.723 374 L
290 374 L
289.277 374 L
288.553 374 L
287.83 374 L
287.107 374 L
286.383 374 L
285.66 374 L
284.937 374 L
284.213 374 L
283.49 374 L
282.767 374 L
282.043 374 L
281.32 374 L
280.597 374 L
279.873 374 L
279.15 374 L
278.427 374 L
277.703 374 L
276.98 374 L
276.257 374 L
275.533 374 L
274.81 374 L
274.087 374 L
273.363 374 L
272.64 374 L
271.917 374 L
271.193 374 L
270.47 374 L
269.747 374 L
269.023 374 L
268.3 374 L
267.577 374 L
266.853 374 L
266.13 374 L
265.407 374 L
264.683 374 L
263.96 374 L
263.237 374 L
262.513 374 L
261.79 374 L
261.067 374 L
260.343 374 L
259.62 374 L
258.897 374 L
258.173 374 L
257.45 374 L
256.727 374 L
256.003 374 L
255.28 374 L
254.557 374 L
253.833 374 L
253.11 374 L
252.387 374 L
251.663 374 L
250.94 374 L
250.217 374 L
249.493 374 L
248.77 374 L
248.047 374 L
247.323 374 L
246.6 374 L
245.877 374 L
245.153 374 L
244.43 374 L
243.707 374 L
242.983 374 L
242.26 374 L
241.537 374 L
240.813 374 L
240.09 374 L
239.367 374 L
238.643 374 L
237.92 374 L
237.197 374 L
236.473 374 L
235.75 374 L
235.027 374 L
234.303 374 L
233.58 374 L
232.857 374 L
232.133 374 L
231.41 374 L
230.687 374 L
229.963 374 L
229.24 374 L
228.517 374 L
227.793 374 L
227.07 374 L
226.347 374 L
225.623 374 L
224.9 374 L
224.177 374 L
223.453 374 L
222.73 374 L
222.007 374 L
221.283 374 L
220.56 374 L
219.837 374 L
219.113 374 L
218.39 374 L
217.667 374 L
216.943 31 L
216.22 31 L
215.497 31 L
214.773 31 L
214.05 31 L
213.327 31 L
212.603 31 L
211.88 31 L
211.157 31 L
210.433 31 L
209.71 31 L
208.987 31 L
208.263 31 L
207.54 31 L
206.817 31 L
206.093 31 L
205.37 31 L
204.647 31 L
203.923 31 L
203.2 31 L
202.477 31 L
201.753 31 L
201.03 31 L
200.307 31 L
199.583 31 L
198.86 31 L
198.137 31 L
197.413 31 L
196.69 31 L
195.967 31 L
195.243 31 L
194.52 31 L
193.797 31 L
193.073 31 L
192.35 31 L
191.627 31 L
190.903 31 L
190.18 31 L
189.457 31 L
188.733 31 L
188.01 31 L
187.287 31 L
186.563 31 L
185.84 31 L
185.117 31 L
184.393 31 L
183.67 31 L
182.947 31 L
182.223 31 L
181.5 31 L
180.777 31 L
180.053 31 L
179.33 31 L
178.607 31 L
177.883 31 L
177.16 31 L
176.437 31 L
175.713 31 L
174.99 31 L
174.267 31 L
173.543 31 L
172.82 31 L
172.097 31 L
171.373 31 L
170.65 31 L
169.927 31 L
169.203 31 L
168.48 31 L
167.757 31 L
167.033 31 L
166.31 31 L
165.587 31 L
164.863 31 L
164.14 31 L
163.417 31 L
162.693 31 L
161.97 31 L
161.247 31 L
160.523 31 L
159.8 31 L
159.077 31 L
158.353 31 L
157.63 31 L
156.907 31 L
156.183 31 L
155.46 31 L
154.737 31 L
154.013 31 L
153.29 31 L
152.567 31 L
151.843 31 L
151.12 31 L
150.397 31 L
149.673 31 L
148.95 31 L
148.227 31 L
147.503 31 L
146.78 31 L
146.057 31 L
145.333 31 L
144.61 31 L
143.887 31 L
143.163 31 L
142.44 31 L
141.717 31 L
140.993 31 L
140.27 31 L
139.547 31 L
138.823 31 L
138.1 31 L
137.377 31 L
136.653 31 L
135.93 31 L
135.207 31 L
134.483 31 L
133.76 31 L
133.037 31 L
132.313 31 L
131.59 31 L
130.867 31 L
130.143 31 L
129.42 31 L
128.697 31 L
127.973 31 L
127.25 31 L
126.527 31 L
125.803 31 L
125.08 31 L
124.357 31 L
123.633 31 L
122.91 31 L
122.187 31 L
121.463 31 L
120.74 31 L
120.017 31 L
119.293 31 L
118.57 31 L
117.847 31 L
117.123 31 L
116.4 31 L
115.677 31 L
114.953 31 L
114.23 31 L
113.507 31 L
112.783 31 L
112.06 31 L
111.337 31 L
110.613 31 L
109.89 31 L
109.167 31 L
108.443 31 L
107.72 31 L
106.997 31 L
106.273 31 L
105.55 31 L
104.827 31 L
104.103 31 L
103.38 31 L
102.657 31 L
101.933 31 L
101.21 31 L
100.487 31 L
99.763 31 L
99.04 31 L
98.317 31 L
97.593 31 L
96.87 31 L
96.147 31 L
95.423 31 L
94.7 31 L
93.977 31 L
93.253 31 L
92.53 31 L
91.807 31 L
91.083 31 L
90.36 31 L
89.637 31 L
88.913 31 L
88.19 31 L
87.467 31 L
86.743 31 L
86.02 31 L
85.297 31 L
84.573 31 L
83.85 31 L
83.127 31 L
82.403 31 L
81.68 31 L
80.957 31 L
80.233 31 L
79.51 31 L
78.787 31 L
78.063 31 L
77.34 31 L
76.617 31 L
75.893 31 L
75.17 31 L
74.447 31 L
73.723 31 L
73 31 L
72.948 31 L
S
GR
GS
[0.75 0 0 0.75 0 0] CT
0.984 0.933 0.91 RC
N
216.943 374 M
217.667 374 L
218.39 374 L
219.113 374 L
219.837 374 L
220.56 374 L
221.283 374 L
222.007 374 L
222.73 374 L
223.453 374 L
224.177 374 L
224.9 374 L
225.623 374 L
226.347 374 L
227.07 374 L
227.793 374 L
228.517 374 L
229.24 374 L
229.963 374 L
230.687 374 L
231.41 374 L
232.133 374 L
232.857 374 L
233.58 374 L
234.303 374 L
235.027 374 L
235.75 374 L
236.473 374 L
237.197 374 L
237.92 374 L
238.643 374 L
239.367 374 L
240.09 374 L
240.813 374 L
241.537 374 L
242.26 374 L
242.983 374 L
243.707 374 L
244.43 374 L
245.153 374 L
245.877 374 L
246.6 374 L
247.323 374 L
248.047 374 L
248.77 374 L
249.493 374 L
250.217 374 L
250.94 374 L
251.663 374 L
252.387 374 L
253.11 374 L
253.833 374 L
254.557 374 L
255.28 374 L
256.003 374 L
256.727 374 L
257.45 374 L
258.173 374 L
258.897 374 L
259.62 374 L
260.343 374 L
261.067 374 L
261.79 374 L
262.513 374 L
263.237 374 L
263.96 374 L
264.683 374 L
265.407 374 L
266.13 374 L
266.853 374 L
267.577 374 L
268.3 374 L
269.023 374 L
269.747 374 L
270.47 374 L
271.193 374 L
271.917 374 L
272.64 374 L
273.363 374 L
274.087 374 L
274.81 374 L
275.533 374 L
276.257 374 L
276.98 374 L
277.703 374 L
278.427 374 L
279.15 374 L
279.873 374 L
280.597 374 L
281.32 374 L
282.043 374 L
282.767 374 L
283.49 374 L
284.213 374 L
284.937 374 L
285.66 374 L
286.383 374 L
287.107 374 L
287.83 374 L
288.553 374 L
289.277 374 L
290 374 L
290.723 374 L
291.447 374 L
292.17 374 L
292.893 374 L
293.617 374 L
294.34 374 L
295.063 374 L
295.787 374 L
296.51 374 L
297.233 374 L
297.957 374 L
298.68 374 L
299.403 374 L
300.127 374 L
300.85 374 L
301.573 374 L
302.297 374 L
303.02 374 L
303.743 374 L
304.467 374 L
305.19 374 L
305.913 374 L
306.637 374 L
307.36 374 L
308.083 374 L
308.807 374 L
309.53 374 L
310.253 374 L
310.977 374 L
311.7 374 L
312.423 374 L
313.147 374 L
313.87 374 L
314.593 374 L
315.317 374 L
316.04 374 L
316.763 374 L
317.487 374 L
318.21 374 L
318.933 374 L
319.657 374 L
320.38 374 L
321.103 374 L
321.827 374 L
322.55 374 L
323.273 374 L
323.997 374 L
324.72 374 L
325.443 374 L
326.167 374 L
326.89 374 L
327.613 374 L
328.337 374 L
329.06 374 L
329.783 374 L
330.507 374 L
331.23 374 L
331.953 374 L
332.677 374 L
333.4 374 L
334.123 374 L
334.847 374 L
335.57 374 L
336.293 374 L
337.017 374 L
337.74 374 L
338.463 374 L
339.187 374 L
339.91 374 L
340.633 374 L
341.357 374 L
342.08 374 L
342.803 374 L
343.527 374 L
344.25 374 L
344.973 374 L
345.697 374 L
346.42 374 L
347.143 374 L
347.867 374 L
348.59 374 L
349.313 374 L
350.037 374 L
350.76 374 L
351.483 374 L
352.207 374 L
352.93 374 L
353.653 374 L
354.377 374 L
355.1 374 L
355.823 374 L
356.547 374 L
357.27 374 L
357.993 374 L
358.717 374 L
359.44 374 L
360.163 374 L
360.887 374 L
361.61 374 L
362.333 374 L
363.057 374 L
363.78 374 L
364.503 374 L
365.227 374 L
365.95 374 L
366.673 374 L
367.397 374 L
368.12 374 L
368.843 374 L
369.567 374 L
370.29 374 L
371.013 374 L
371.737 374 L
372.46 374 L
373.183 374 L
373.907 374 L
374.63 374 L
375.353 374 L
376.077 374 L
376.8 374 L
377.523 374 L
378.247 374 L
378.97 374 L
379.693 374 L
380.417 374 L
381.14 374 L
381.863 374 L
382.587 374 L
383.31 374 L
384.033 374 L
384.757 374 L
385.48 374 L
386.203 374 L
386.927 374 L
387.65 374 L
388.373 374 L
389.097 374 L
389.82 374 L
390.543 374 L
391.267 374 L
391.99 374 L
392.713 374 L
393.437 374 L
394.16 374 L
394.883 374 L
395.607 374 L
396.33 374 L
397.053 374 L
397.777 374 L
398.5 374 L
399.223 374 L
399.947 374 L
400.67 374 L
401.393 374 L
402.117 374 L
402.84 374 L
403.563 374 L
404.287 374 L
405.01 374 L
405.733 374 L
406.457 374 L
407.18 374 L
407.903 374 L
408.627 374 L
409.35 374 L
410.073 374 L
410.797 374 L
411.52 374 L
412.243 374 L
412.967 374 L
413.69 374 L
414.413 374 L
415.137 374 L
415.86 374 L
416.583 374 L
417.307 374 L
418.03 374 L
418.753 374 L
419.477 374 L
420.2 374 L
420.923 374 L
421.647 374 L
422.37 374 L
423.093 374 L
423.817 374 L
424.54 374 L
425.263 374 L
425.987 374 L
426.71 374 L
427.433 374 L
428.157 374 L
428.88 374 L
429.603 374 L
430.327 374 L
431.05 374 L
431.773 374 L
432.497 374 L
433.22 374 L
433.943 374 L
434.667 374 L
435.39 374 L
436.113 374 L
436.837 374 L
437.56 374 L
438.283 374 L
439.007 374 L
439.73 374 L
440.453 374 L
441.177 374 L
441.9 374 L
442.623 374 L
443.347 374 L
444.07 374 L
444.793 374 L
445.517 374 L
446.24 374 L
446.963 374 L
447.687 374 L
448.41 374 L
449.133 374 L
449.857 374 L
450.58 374 L
451.303 374 L
452.027 374 L
452.75 374 L
453.473 374 L
454.197 374 L
454.92 374 L
455.643 374 L
456.367 374 L
457.09 374 L
457.813 374 L
458.537 374 L
459.26 374 L
459.983 374 L
460.707 374 L
461.43 374 L
462.153 374 L
462.877 374 L
463.6 374 L
464.323 374 L
465.047 374 L
465.77 374 L
466.493 374 L
467.217 374 L
467.94 374 L
468.663 374 L
469.387 374 L
470.11 374 L
470.833 374 L
471.557 374 L
472.28 374 L
473.003 374 L
473.727 374 L
474.45 374 L
475.173 374 L
475.897 374 L
476.62 374 L
477.343 374 L
478.067 374 L
478.79 374 L
479.513 374 L
480.237 374 L
480.96 374 L
481.683 374 L
482.407 374 L
483.13 374 L
483.853 374 L
484.577 374 L
485.3 374 L
486.023 374 L
486.747 374 L
487.47 374 L
488.193 374 L
488.917 374 L
489.64 374 L
490.363 374 L
491.087 374 L
491.81 374 L
492.533 374 L
493.257 374 L
493.98 374 L
494.703 374 L
495.427 374 L
496.15 374 L
496.873 374 L
497.597 374 L
498.32 374 L
499.043 374 L
499.767 374 L
500.49 374 L
501.213 374 L
501.937 374 L
502.66 374 L
503.383 374 L
504.107 374 L
504.83 374 L
505.553 374 L
506.277 374 L
507 374 L
507.052 374 L
507.052 55.535 L
507.052 31 L
507 31 L
506.277 31 L
505.553 31 L
504.83 31 L
504.107 31 L
503.383 31 L
502.66 31 L
501.937 31 L
501.213 31 L
500.49 31 L
499.767 31 L
499.043 31 L
498.32 31 L
497.597 31 L
496.873 31 L
496.15 31 L
495.427 31 L
494.703 31 L
493.98 31 L
493.257 31 L
492.533 31 L
491.81 31 L
491.087 31 L
490.363 31 L
489.64 31 L
488.917 31 L
488.193 31 L
487.47 31 L
486.747 31 L
486.023 31 L
485.3 31 L
484.577 31 L
483.853 31 L
483.13 31 L
482.407 31 L
481.683 31 L
480.96 31 L
480.237 31 L
479.513 31 L
478.79 31 L
478.067 31 L
477.343 31 L
476.62 31 L
475.897 31 L
475.173 31 L
474.45 31 L
473.727 31 L
473.003 31 L
472.28 31 L
471.557 31 L
470.833 31 L
470.11 31 L
469.387 31 L
468.663 31 L
467.94 31 L
467.217 31 L
466.493 31 L
465.77 31 L
465.047 31 L
464.323 31 L
463.6 31 L
462.877 31 L
462.153 31 L
461.43 31 L
460.707 31 L
459.983 31 L
459.26 31 L
458.537 31 L
457.813 31 L
457.09 31 L
456.367 31 L
455.643 31 L
454.92 31 L
454.197 31 L
453.473 31 L
452.75 31 L
452.027 31 L
451.303 31 L
450.58 31 L
449.857 31 L
449.133 31 L
448.41 31 L
447.687 31 L
446.963 31 L
446.24 31 L
445.517 31 L
444.793 31 L
444.07 31 L
443.347 31 L
442.623 31 L
441.9 31 L
441.177 31 L
440.453 31 L
439.73 31 L
439.007 31 L
438.283 31 L
437.56 31 L
436.837 31 L
436.113 31 L
435.39 31 L
434.667 31 L
433.943 31 L
433.22 31 L
432.497 31 L
431.773 31 L
431.05 31 L
430.327 31 L
429.603 31 L
428.88 31 L
428.157 31 L
427.433 31 L
426.71 31 L
425.987 31 L
425.263 31 L
424.54 31 L
423.817 31 L
423.093 31 L
422.37 31 L
421.647 31 L
420.923 31 L
420.2 31 L
419.477 31 L
418.753 31 L
418.03 31 L
417.307 31 L
416.583 31 L
415.86 31 L
415.137 31 L
414.413 31 L
413.69 31 L
412.967 31 L
412.243 31 L
411.52 31 L
410.797 31 L
410.073 31 L
409.35 31 L
408.627 31 L
407.903 31 L
407.18 31 L
406.457 31 L
405.733 31 L
405.01 31 L
404.287 31 L
403.563 31 L
402.84 31 L
402.117 31 L
401.393 31 L
400.67 31 L
399.947 31 L
399.223 31 L
398.5 31 L
397.777 31 L
397.053 31 L
396.33 31 L
395.607 31 L
394.883 31 L
394.16 31 L
393.437 31 L
392.713 31 L
391.99 31 L
391.267 31 L
390.543 31 L
389.82 31 L
389.097 31 L
388.373 31 L
387.65 31 L
386.927 31 L
386.203 31 L
385.48 31 L
384.757 31 L
384.033 31 L
383.31 31 L
382.587 31 L
381.863 31 L
381.14 31 L
380.417 31 L
379.693 31 L
378.97 31 L
378.247 31 L
377.523 31 L
376.8 31 L
376.077 31 L
375.353 31 L
374.63 31 L
373.907 31 L
373.183 31 L
372.46 31 L
371.737 31 L
371.013 31 L
370.29 31 L
369.567 31 L
368.843 31 L
368.12 31 L
367.397 31 L
366.673 31 L
365.95 31 L
365.227 31 L
364.503 31 L
363.78 31 L
363.057 31 L
362.333 31 L
361.61 31 L
360.887 31 L
360.163 31 L
359.44 31 L
358.717 31 L
357.993 31 L
357.27 31 L
356.547 31 L
355.823 31 L
355.1 31 L
354.377 31 L
353.653 31 L
352.93 31 L
352.207 31 L
351.483 31 L
350.76 31 L
350.037 31 L
349.313 31 L
348.59 31 L
347.867 31 L
347.143 31 L
346.42 31 L
345.697 31 L
344.973 31 L
344.25 31 L
343.527 31 L
342.803 31 L
342.08 31 L
341.357 31 L
340.633 31 L
339.91 31 L
339.187 31 L
338.463 31 L
337.74 31 L
337.017 31 L
336.293 31 L
335.57 31 L
334.847 31 L
334.123 31 L
333.4 31 L
332.677 31 L
331.953 31 L
331.23 31 L
330.507 31 L
329.783 31 L
329.06 31 L
328.337 31 L
327.613 31 L
326.89 31 L
326.167 31 L
325.443 31 L
324.72 31 L
323.997 31 L
323.273 31 L
322.55 31 L
321.827 31 L
321.103 31 L
320.38 31 L
319.657 31 L
318.933 31 L
318.21 31 L
317.487 31 L
316.763 31 L
316.04 31 L
315.317 31 L
314.593 31 L
313.87 31 L
313.147 31 L
312.423 31 L
311.7 31 L
310.977 31 L
310.253 31 L
309.53 31 L
308.807 31 L
308.083 31 L
307.36 31 L
306.637 31 L
305.913 31 L
305.19 31 L
304.467 31 L
303.743 31 L
303.02 31 L
302.297 31 L
301.573 31 L
300.85 31 L
300.127 31 L
299.403 31 L
298.68 31 L
297.957 31 L
297.233 31 L
296.51 31 L
295.787 31 L
295.063 31 L
294.34 31 L
293.617 31 L
292.893 31 L
292.17 31 L
291.447 31 L
290.723 31 L
290 31 L
289.277 31 L
288.553 31 L
287.83 31 L
287.107 31 L
286.383 31 L
285.66 31 L
284.937 31 L
284.213 31 L
283.49 31 L
282.767 31 L
282.043 31 L
281.32 31 L
280.597 31 L
279.873 31 L
279.15 31 L
278.427 31 L
277.703 31 L
276.98 31 L
276.257 31 L
275.533 31 L
274.81 31 L
274.087 31 L
273.363 31 L
272.64 31 L
271.917 31 L
271.193 31 L
270.47 31 L
269.747 31 L
269.023 31 L
268.3 31 L
267.577 31 L
266.853 31 L
266.13 31 L
265.407 31 L
264.683 31 L
263.96 31 L
263.237 31 L
262.513 31 L
261.79 31 L
261.067 31 L
260.343 31 L
259.62 31 L
258.897 31 L
258.173 31 L
257.45 31 L
256.727 31 L
256.003 31 L
255.28 31 L
254.557 31 L
253.833 31 L
253.11 31 L
252.387 31 L
251.663 31 L
250.94 31 L
250.217 31 L
249.493 31 L
248.77 31 L
248.047 31 L
247.323 31 L
246.6 31 L
245.877 31 L
245.153 31 L
244.43 31 L
243.707 31 L
242.983 31 L
242.26 31 L
241.537 31 L
240.813 31 L
240.09 31 L
239.367 31 L
238.643 31 L
237.92 31 L
237.197 31 L
236.473 31 L
235.75 31 L
235.027 31 L
234.303 31 L
233.58 31 L
232.857 31 L
232.133 31 L
231.41 31 L
230.687 31 L
229.963 31 L
229.24 31 L
228.517 31 L
227.793 31 L
227.07 31 L
226.347 31 L
225.623 31 L
224.9 31 L
224.177 31 L
223.453 31 L
222.73 31 L
222.007 31 L
221.283 31 L
220.56 31 L
219.837 31 L
219.113 31 L
218.39 31 L
217.667 31 L
cp
f
GR
GS
[0.75 0 0 0.75 0 0] CT
0.984 0.933 0.91 RC
1 LJ
0.667 LW
N
72.948 374 M
73 374 L
73.723 374 L
74.447 374 L
75.17 374 L
75.893 374 L
76.617 374 L
77.34 374 L
78.063 374 L
78.787 374 L
79.51 374 L
80.233 374 L
80.957 374 L
81.68 374 L
82.403 374 L
83.127 374 L
83.85 374 L
84.573 374 L
85.297 374 L
86.02 374 L
86.743 374 L
87.467 374 L
88.19 374 L
88.913 374 L
89.637 374 L
90.36 374 L
91.083 374 L
91.807 374 L
92.53 374 L
93.253 374 L
93.977 374 L
94.7 374 L
95.423 374 L
96.147 374 L
96.87 374 L
97.593 374 L
98.317 374 L
99.04 374 L
99.763 374 L
100.487 374 L
101.21 374 L
101.933 374 L
102.657 374 L
103.38 374 L
104.103 374 L
104.827 374 L
105.55 374 L
106.273 374 L
106.997 374 L
107.72 374 L
108.443 374 L
109.167 374 L
109.89 374 L
110.613 374 L
111.337 374 L
112.06 374 L
112.783 374 L
113.507 374 L
114.23 374 L
114.953 374 L
115.677 374 L
116.4 374 L
117.123 374 L
117.847 374 L
118.57 374 L
119.293 374 L
120.017 374 L
120.74 374 L
121.463 374 L
122.187 374 L
122.91 374 L
123.633 374 L
124.357 374 L
125.08 374 L
125.803 374 L
126.527 374 L
127.25 374 L
127.973 374 L
128.697 374 L
129.42 374 L
130.143 374 L
130.867 374 L
131.59 374 L
132.313 374 L
133.037 374 L
133.76 374 L
134.483 374 L
135.207 374 L
135.93 374 L
136.653 374 L
137.377 374 L
138.1 374 L
138.823 374 L
139.547 374 L
140.27 374 L
140.993 374 L
141.717 374 L
142.44 374 L
143.163 374 L
143.887 374 L
144.61 374 L
145.333 374 L
146.057 374 L
146.78 374 L
147.503 374 L
148.227 374 L
148.95 374 L
149.673 374 L
150.397 374 L
151.12 374 L
151.843 374 L
152.567 374 L
153.29 374 L
154.013 374 L
154.737 374 L
155.46 374 L
156.183 374 L
156.907 374 L
157.63 374 L
158.353 374 L
159.077 374 L
159.8 374 L
160.523 374 L
161.247 374 L
161.97 374 L
162.693 374 L
163.417 374 L
164.14 374 L
164.863 374 L
165.587 374 L
166.31 374 L
167.033 374 L
167.757 374 L
168.48 374 L
169.203 374 L
169.927 374 L
170.65 374 L
171.373 374 L
172.097 374 L
172.82 374 L
173.543 374 L
174.267 374 L
174.99 374 L
175.713 374 L
176.437 374 L
177.16 374 L
177.883 374 L
178.607 374 L
179.33 374 L
180.053 374 L
180.777 374 L
181.5 374 L
182.223 374 L
182.947 374 L
183.67 374 L
184.393 374 L
185.117 374 L
185.84 374 L
186.563 374 L
187.287 374 L
188.01 374 L
188.733 374 L
189.457 374 L
190.18 374 L
190.903 374 L
191.627 374 L
192.35 374 L
193.073 374 L
193.797 374 L
194.52 374 L
195.243 374 L
195.967 374 L
196.69 374 L
197.413 374 L
198.137 374 L
198.86 374 L
199.583 374 L
200.307 374 L
201.03 374 L
201.753 374 L
202.477 374 L
203.2 374 L
203.923 374 L
204.647 374 L
205.37 374 L
206.093 374 L
206.817 374 L
207.54 374 L
208.263 374 L
208.987 374 L
209.71 374 L
210.433 374 L
211.157 374 L
211.88 374 L
212.603 374 L
213.327 374 L
214.05 374 L
214.773 374 L
215.497 374 L
216.22 374 L
216.943 374 L
217.667 374 L
218.39 374 L
219.113 374 L
219.837 374 L
220.56 374 L
221.283 374 L
222.007 374 L
222.73 374 L
223.453 374 L
224.177 374 L
224.9 374 L
225.623 374 L
226.347 374 L
227.07 374 L
227.793 374 L
228.517 374 L
229.24 374 L
229.963 374 L
230.687 374 L
231.41 374 L
232.133 374 L
232.857 374 L
233.58 374 L
234.303 374 L
235.027 374 L
235.75 374 L
236.473 374 L
237.197 374 L
237.92 374 L
238.643 374 L
239.367 374 L
240.09 374 L
240.813 374 L
241.537 374 L
242.26 374 L
242.983 374 L
243.707 374 L
244.43 374 L
245.153 374 L
245.877 374 L
246.6 374 L
247.323 374 L
248.047 374 L
248.77 374 L
249.493 374 L
250.217 374 L
250.94 374 L
251.663 374 L
252.387 374 L
253.11 374 L
253.833 374 L
254.557 374 L
255.28 374 L
256.003 374 L
256.727 374 L
257.45 374 L
258.173 374 L
258.897 374 L
259.62 374 L
260.343 374 L
261.067 374 L
261.79 374 L
262.513 374 L
263.237 374 L
263.96 374 L
264.683 374 L
265.407 374 L
266.13 374 L
266.853 374 L
267.577 374 L
268.3 374 L
269.023 374 L
269.747 374 L
270.47 374 L
271.193 374 L
271.917 374 L
272.64 374 L
273.363 374 L
274.087 374 L
274.81 374 L
275.533 374 L
276.257 374 L
276.98 374 L
277.703 374 L
278.427 374 L
279.15 374 L
279.873 374 L
280.597 374 L
281.32 374 L
282.043 374 L
282.767 374 L
283.49 374 L
284.213 374 L
284.937 374 L
285.66 374 L
286.383 374 L
287.107 374 L
287.83 374 L
288.553 374 L
289.277 374 L
290 374 L
290.723 374 L
291.447 374 L
292.17 374 L
292.893 374 L
293.617 374 L
294.34 374 L
295.063 374 L
295.787 374 L
296.51 374 L
297.233 374 L
297.957 374 L
298.68 374 L
299.403 374 L
300.127 374 L
300.85 374 L
301.573 374 L
302.297 374 L
303.02 374 L
303.743 374 L
304.467 374 L
305.19 374 L
305.913 374 L
306.637 374 L
307.36 374 L
308.083 374 L
308.807 374 L
309.53 374 L
310.253 374 L
310.977 374 L
311.7 374 L
312.423 374 L
313.147 374 L
313.87 374 L
314.593 374 L
315.317 374 L
316.04 374 L
316.763 374 L
317.487 374 L
318.21 374 L
318.933 374 L
319.657 374 L
320.38 374 L
321.103 374 L
321.827 374 L
322.55 374 L
323.273 374 L
323.997 374 L
324.72 374 L
325.443 374 L
326.167 374 L
326.89 374 L
327.613 374 L
328.337 374 L
329.06 374 L
329.783 374 L
330.507 374 L
331.23 374 L
331.953 374 L
332.677 374 L
333.4 374 L
334.123 374 L
334.847 374 L
335.57 374 L
336.293 374 L
337.017 374 L
337.74 374 L
338.463 374 L
339.187 374 L
339.91 374 L
340.633 374 L
341.357 374 L
342.08 374 L
342.803 374 L
343.527 374 L
344.25 374 L
344.973 374 L
345.697 374 L
346.42 374 L
347.143 374 L
347.867 374 L
348.59 374 L
349.313 374 L
350.037 374 L
350.76 374 L
351.483 374 L
352.207 374 L
352.93 374 L
353.653 374 L
354.377 374 L
355.1 374 L
355.823 374 L
356.547 374 L
357.27 374 L
357.993 374 L
358.717 374 L
359.44 374 L
360.163 374 L
360.887 374 L
361.61 374 L
362.333 374 L
363.057 374 L
363.78 374 L
364.503 374 L
365.227 374 L
365.95 374 L
366.673 374 L
367.397 374 L
368.12 374 L
368.843 374 L
369.567 374 L
370.29 374 L
371.013 374 L
371.737 374 L
372.46 374 L
373.183 374 L
373.907 374 L
374.63 374 L
375.353 374 L
376.077 374 L
376.8 374 L
377.523 374 L
378.247 374 L
378.97 374 L
379.693 374 L
380.417 374 L
381.14 374 L
381.863 374 L
382.587 374 L
383.31 374 L
384.033 374 L
384.757 374 L
385.48 374 L
386.203 374 L
386.927 374 L
387.65 374 L
388.373 374 L
389.097 374 L
389.82 374 L
390.543 374 L
391.267 374 L
391.99 374 L
392.713 374 L
393.437 374 L
394.16 374 L
394.883 374 L
395.607 374 L
396.33 374 L
397.053 374 L
397.777 374 L
398.5 374 L
399.223 374 L
399.947 374 L
400.67 374 L
401.393 374 L
402.117 374 L
402.84 374 L
403.563 374 L
404.287 374 L
405.01 374 L
405.733 374 L
406.457 374 L
407.18 374 L
407.903 374 L
408.627 374 L
409.35 374 L
410.073 374 L
410.797 374 L
411.52 374 L
412.243 374 L
412.967 374 L
413.69 374 L
414.413 374 L
415.137 374 L
415.86 374 L
416.583 374 L
417.307 374 L
418.03 374 L
418.753 374 L
419.477 374 L
420.2 374 L
420.923 374 L
421.647 374 L
422.37 374 L
423.093 374 L
423.817 374 L
424.54 374 L
425.263 374 L
425.987 374 L
426.71 374 L
427.433 374 L
428.157 374 L
428.88 374 L
429.603 374 L
430.327 374 L
431.05 374 L
431.773 374 L
432.497 374 L
433.22 374 L
433.943 374 L
434.667 374 L
435.39 374 L
436.113 374 L
436.837 374 L
437.56 374 L
438.283 374 L
439.007 374 L
439.73 374 L
440.453 374 L
441.177 374 L
441.9 374 L
442.623 374 L
443.347 374 L
444.07 374 L
444.793 374 L
445.517 374 L
446.24 374 L
446.963 374 L
447.687 374 L
448.41 374 L
449.133 374 L
449.857 374 L
450.58 374 L
451.303 374 L
452.027 374 L
452.75 374 L
453.473 374 L
454.197 374 L
454.92 374 L
455.643 374 L
456.367 374 L
457.09 374 L
457.813 374 L
458.537 374 L
459.26 374 L
459.983 374 L
460.707 374 L
461.43 374 L
462.153 374 L
462.877 374 L
463.6 374 L
464.323 374 L
465.047 374 L
465.77 374 L
466.493 374 L
467.217 374 L
467.94 374 L
468.663 374 L
469.387 374 L
470.11 374 L
470.833 374 L
471.557 374 L
472.28 374 L
473.003 374 L
473.727 374 L
474.45 374 L
475.173 374 L
475.897 374 L
476.62 374 L
477.343 374 L
478.067 374 L
478.79 374 L
479.513 374 L
480.237 374 L
480.96 374 L
481.683 374 L
482.407 374 L
483.13 374 L
483.853 374 L
484.577 374 L
485.3 374 L
486.023 374 L
486.747 374 L
487.47 374 L
488.193 374 L
488.917 374 L
489.64 374 L
490.363 374 L
491.087 374 L
491.81 374 L
492.533 374 L
493.257 374 L
493.98 374 L
494.703 374 L
495.427 374 L
496.15 374 L
496.873 374 L
497.597 374 L
498.32 374 L
499.043 374 L
499.767 374 L
500.49 374 L
501.213 374 L
501.937 374 L
502.66 374 L
503.383 374 L
504.107 374 L
504.83 374 L
505.553 374 L
506.277 374 L
507 374 L
507.052 374 L
S
GR
GS
[0.75 0 0 0.75 0 0] CT
0.984 0.933 0.91 RC
1 LJ
0.667 LW
N
507.052 31 M
507 31 L
506.277 31 L
505.553 31 L
504.83 31 L
504.107 31 L
503.383 31 L
502.66 31 L
501.937 31 L
501.213 31 L
500.49 31 L
499.767 31 L
499.043 31 L
498.32 31 L
497.597 31 L
496.873 31 L
496.15 31 L
495.427 31 L
494.703 31 L
493.98 31 L
493.257 31 L
492.533 31 L
491.81 31 L
491.087 31 L
490.363 31 L
489.64 31 L
488.917 31 L
488.193 31 L
487.47 31 L
486.747 31 L
486.023 31 L
485.3 31 L
484.577 31 L
483.853 31 L
483.13 31 L
482.407 31 L
481.683 31 L
480.96 31 L
480.237 31 L
479.513 31 L
478.79 31 L
478.067 31 L
477.343 31 L
476.62 31 L
475.897 31 L
475.173 31 L
474.45 31 L
473.727 31 L
473.003 31 L
472.28 31 L
471.557 31 L
470.833 31 L
470.11 31 L
469.387 31 L
468.663 31 L
467.94 31 L
467.217 31 L
466.493 31 L
465.77 31 L
465.047 31 L
464.323 31 L
463.6 31 L
462.877 31 L
462.153 31 L
461.43 31 L
460.707 31 L
459.983 31 L
459.26 31 L
458.537 31 L
457.813 31 L
457.09 31 L
456.367 31 L
455.643 31 L
454.92 31 L
454.197 31 L
453.473 31 L
452.75 31 L
452.027 31 L
451.303 31 L
450.58 31 L
449.857 31 L
449.133 31 L
448.41 31 L
447.687 31 L
446.963 31 L
446.24 31 L
445.517 31 L
444.793 31 L
444.07 31 L
443.347 31 L
442.623 31 L
441.9 31 L
441.177 31 L
440.453 31 L
439.73 31 L
439.007 31 L
438.283 31 L
437.56 31 L
436.837 31 L
436.113 31 L
435.39 31 L
434.667 31 L
433.943 31 L
433.22 31 L
432.497 31 L
431.773 31 L
431.05 31 L
430.327 31 L
429.603 31 L
428.88 31 L
428.157 31 L
427.433 31 L
426.71 31 L
425.987 31 L
425.263 31 L
424.54 31 L
423.817 31 L
423.093 31 L
422.37 31 L
421.647 31 L
420.923 31 L
420.2 31 L
419.477 31 L
418.753 31 L
418.03 31 L
417.307 31 L
416.583 31 L
415.86 31 L
415.137 31 L
414.413 31 L
413.69 31 L
412.967 31 L
412.243 31 L
411.52 31 L
410.797 31 L
410.073 31 L
409.35 31 L
408.627 31 L
407.903 31 L
407.18 31 L
406.457 31 L
405.733 31 L
405.01 31 L
404.287 31 L
403.563 31 L
402.84 31 L
402.117 31 L
401.393 31 L
400.67 31 L
399.947 31 L
399.223 31 L
398.5 31 L
397.777 31 L
397.053 31 L
396.33 31 L
395.607 31 L
394.883 31 L
394.16 31 L
393.437 31 L
392.713 31 L
391.99 31 L
391.267 31 L
390.543 31 L
389.82 31 L
389.097 31 L
388.373 31 L
387.65 31 L
386.927 31 L
386.203 31 L
385.48 31 L
384.757 31 L
384.033 31 L
383.31 31 L
382.587 31 L
381.863 31 L
381.14 31 L
380.417 31 L
379.693 31 L
378.97 31 L
378.247 31 L
377.523 31 L
376.8 31 L
376.077 31 L
375.353 31 L
374.63 31 L
373.907 31 L
373.183 31 L
372.46 31 L
371.737 31 L
371.013 31 L
370.29 31 L
369.567 31 L
368.843 31 L
368.12 31 L
367.397 31 L
366.673 31 L
365.95 31 L
365.227 31 L
364.503 31 L
363.78 31 L
363.057 31 L
362.333 31 L
361.61 31 L
360.887 31 L
360.163 31 L
359.44 31 L
358.717 31 L
357.993 31 L
357.27 31 L
356.547 31 L
355.823 31 L
355.1 31 L
354.377 31 L
353.653 31 L
352.93 31 L
352.207 31 L
351.483 31 L
350.76 31 L
350.037 31 L
349.313 31 L
348.59 31 L
347.867 31 L
347.143 31 L
346.42 31 L
345.697 31 L
344.973 31 L
344.25 31 L
343.527 31 L
342.803 31 L
342.08 31 L
341.357 31 L
340.633 31 L
339.91 31 L
339.187 31 L
338.463 31 L
337.74 31 L
337.017 31 L
336.293 31 L
335.57 31 L
334.847 31 L
334.123 31 L
333.4 31 L
332.677 31 L
331.953 31 L
331.23 31 L
330.507 31 L
329.783 31 L
329.06 31 L
328.337 31 L
327.613 31 L
326.89 31 L
326.167 31 L
325.443 31 L
324.72 31 L
323.997 31 L
323.273 31 L
322.55 31 L
321.827 31 L
321.103 31 L
320.38 31 L
319.657 31 L
318.933 31 L
318.21 31 L
317.487 31 L
316.763 31 L
316.04 31 L
315.317 31 L
314.593 31 L
313.87 31 L
313.147 31 L
312.423 31 L
311.7 31 L
310.977 31 L
310.253 31 L
309.53 31 L
308.807 31 L
308.083 31 L
307.36 31 L
306.637 31 L
305.913 31 L
305.19 31 L
304.467 31 L
303.743 31 L
303.02 31 L
302.297 31 L
301.573 31 L
300.85 31 L
300.127 31 L
299.403 31 L
298.68 31 L
297.957 31 L
297.233 31 L
296.51 31 L
295.787 31 L
295.063 31 L
294.34 31 L
293.617 31 L
292.893 31 L
292.17 31 L
291.447 31 L
290.723 31 L
290 31 L
289.277 31 L
288.553 31 L
287.83 31 L
287.107 31 L
286.383 31 L
285.66 31 L
284.937 31 L
284.213 31 L
283.49 31 L
282.767 31 L
282.043 31 L
281.32 31 L
280.597 31 L
279.873 31 L
279.15 31 L
278.427 31 L
277.703 31 L
276.98 31 L
276.257 31 L
275.533 31 L
274.81 31 L
274.087 31 L
273.363 31 L
272.64 31 L
271.917 31 L
271.193 31 L
270.47 31 L
269.747 31 L
269.023 31 L
268.3 31 L
267.577 31 L
266.853 31 L
266.13 31 L
265.407 31 L
264.683 31 L
263.96 31 L
263.237 31 L
262.513 31 L
261.79 31 L
261.067 31 L
260.343 31 L
259.62 31 L
258.897 31 L
258.173 31 L
257.45 31 L
256.727 31 L
256.003 31 L
255.28 31 L
254.557 31 L
253.833 31 L
253.11 31 L
252.387 31 L
251.663 31 L
250.94 31 L
250.217 31 L
249.493 31 L
248.77 31 L
248.047 31 L
247.323 31 L
246.6 31 L
245.877 31 L
245.153 31 L
244.43 31 L
243.707 31 L
242.983 31 L
242.26 31 L
241.537 31 L
240.813 31 L
240.09 31 L
239.367 31 L
238.643 31 L
237.92 31 L
237.197 31 L
236.473 31 L
235.75 31 L
235.027 31 L
234.303 31 L
233.58 31 L
232.857 31 L
232.133 31 L
231.41 31 L
230.687 31 L
229.963 31 L
229.24 31 L
228.517 31 L
227.793 31 L
227.07 31 L
226.347 31 L
225.623 31 L
224.9 31 L
224.177 31 L
223.453 31 L
222.73 31 L
222.007 31 L
221.283 31 L
220.56 31 L
219.837 31 L
219.113 31 L
218.39 31 L
217.667 31 L
216.943 374 L
216.22 374 L
215.497 374 L
214.773 374 L
214.05 374 L
213.327 374 L
212.603 374 L
211.88 374 L
211.157 374 L
210.433 374 L
209.71 374 L
208.987 374 L
208.263 374 L
207.54 374 L
206.817 374 L
206.093 374 L
205.37 374 L
204.647 374 L
203.923 374 L
203.2 374 L
202.477 374 L
201.753 374 L
201.03 374 L
200.307 374 L
199.583 374 L
198.86 374 L
198.137 374 L
197.413 374 L
196.69 374 L
195.967 374 L
195.243 374 L
194.52 374 L
193.797 374 L
193.073 374 L
192.35 374 L
191.627 374 L
190.903 374 L
190.18 374 L
189.457 374 L
188.733 374 L
188.01 374 L
187.287 374 L
186.563 374 L
185.84 374 L
185.117 374 L
184.393 374 L
183.67 374 L
182.947 374 L
182.223 374 L
181.5 374 L
180.777 374 L
180.053 374 L
179.33 374 L
178.607 374 L
177.883 374 L
177.16 374 L
176.437 374 L
175.713 374 L
174.99 374 L
174.267 374 L
173.543 374 L
172.82 374 L
172.097 374 L
171.373 374 L
170.65 374 L
169.927 374 L
169.203 374 L
168.48 374 L
167.757 374 L
167.033 374 L
166.31 374 L
165.587 374 L
164.863 374 L
164.14 374 L
163.417 374 L
162.693 374 L
161.97 374 L
161.247 374 L
160.523 374 L
159.8 374 L
159.077 374 L
158.353 374 L
157.63 374 L
156.907 374 L
156.183 374 L
155.46 374 L
154.737 374 L
154.013 374 L
153.29 374 L
152.567 374 L
151.843 374 L
151.12 374 L
150.397 374 L
149.673 374 L
148.95 374 L
148.227 374 L
147.503 374 L
146.78 374 L
146.057 374 L
145.333 374 L
144.61 374 L
143.887 374 L
143.163 374 L
142.44 374 L
141.717 374 L
140.993 374 L
140.27 374 L
139.547 374 L
138.823 374 L
138.1 374 L
137.377 374 L
136.653 374 L
135.93 374 L
135.207 374 L
134.483 374 L
133.76 374 L
133.037 374 L
132.313 374 L
131.59 374 L
130.867 374 L
130.143 374 L
129.42 374 L
128.697 374 L
127.973 374 L
127.25 374 L
126.527 374 L
125.803 374 L
125.08 374 L
124.357 374 L
123.633 374 L
122.91 374 L
122.187 374 L
121.463 374 L
120.74 374 L
120.017 374 L
119.293 374 L
118.57 374 L
117.847 374 L
117.123 374 L
116.4 374 L
115.677 374 L
114.953 374 L
114.23 374 L
113.507 374 L
112.783 374 L
112.06 374 L
111.337 374 L
110.613 374 L
109.89 374 L
109.167 374 L
108.443 374 L
107.72 374 L
106.997 374 L
106.273 374 L
105.55 374 L
104.827 374 L
104.103 374 L
103.38 374 L
102.657 374 L
101.933 374 L
101.21 374 L
100.487 374 L
99.763 374 L
99.04 374 L
98.317 374 L
97.593 374 L
96.87 374 L
96.147 374 L
95.423 374 L
94.7 374 L
93.977 374 L
93.253 374 L
92.53 374 L
91.807 374 L
91.083 374 L
90.36 374 L
89.637 374 L
88.913 374 L
88.19 374 L
87.467 374 L
86.743 374 L
86.02 374 L
85.297 374 L
84.573 374 L
83.85 374 L
83.127 374 L
82.403 374 L
81.68 374 L
80.957 374 L
80.233 374 L
79.51 374 L
78.787 374 L
78.063 374 L
77.34 374 L
76.617 374 L
75.893 374 L
75.17 374 L
74.447 374 L
73.723 374 L
73 374 L
72.948 374 L
S
GR
GS
[0.75 0 0 0.75 0 0] CT
0 0.447 0.741 RC
1 LJ
2.667 LW
N
72.948 372.416 M
73 372.416 L
73.723 372.416 L
74.447 372.416 L
75.17 372.416 L
75.893 372.416 L
76.617 372.416 L
77.34 372.416 L
78.063 372.416 L
78.787 372.416 L
79.51 372.416 L
80.233 372.416 L
80.957 372.416 L
81.68 372.416 L
82.403 372.416 L
83.127 372.416 L
83.85 372.416 L
84.573 372.416 L
85.297 372.416 L
86.02 372.416 L
86.743 372.416 L
87.467 372.416 L
88.19 372.416 L
88.913 372.416 L
89.637 372.416 L
90.36 372.416 L
91.083 372.416 L
91.807 372.416 L
92.53 372.416 L
93.253 372.416 L
93.977 372.416 L
94.7 372.416 L
95.423 372.416 L
96.147 372.416 L
96.87 372.416 L
97.593 372.416 L
98.317 372.416 L
99.04 372.416 L
99.763 372.416 L
100.487 372.416 L
101.21 372.416 L
101.933 372.416 L
102.657 372.416 L
103.38 372.416 L
104.103 372.416 L
104.827 372.416 L
105.55 372.416 L
106.273 372.416 L
106.997 372.416 L
107.72 372.416 L
108.443 372.416 L
109.167 372.416 L
109.89 372.416 L
110.613 372.416 L
111.337 372.416 L
112.06 372.416 L
112.783 372.416 L
113.507 372.416 L
114.23 372.416 L
114.953 372.416 L
115.677 372.416 L
116.4 372.416 L
117.123 372.416 L
117.847 372.416 L
118.57 372.416 L
119.293 372.416 L
120.017 372.416 L
120.74 372.416 L
121.463 372.416 L
122.187 372.416 L
122.91 372.416 L
123.633 372.416 L
124.357 372.416 L
125.08 372.416 L
125.803 372.416 L
126.527 372.416 L
127.25 372.416 L
127.973 372.416 L
128.697 372.416 L
129.42 372.416 L
130.143 372.416 L
130.867 372.416 L
131.59 372.416 L
132.313 372.416 L
133.037 372.416 L
133.76 372.416 L
134.483 372.416 L
135.207 372.416 L
135.93 372.416 L
136.653 372.416 L
137.377 372.415 L
138.1 372.414 L
138.823 372.411 L
139.547 372.402 L
140.27 372.378 L
140.993 372.311 L
141.717 372.132 L
142.44 371.653 L
143.163 370.404 L
143.887 367.36 L
144.61 361.008 L
145.333 351.207 L
146.057 341.405 L
146.78 335.053 L
147.503 332.009 L
148.227 330.76 L
148.95 330.281 L
149.673 330.102 L
150.397 330.035 L
151.12 330.011 L
151.843 330.002 L
152.567 329.999 L
153.29 329.998 L
154.013 329.997 L
154.737 329.997 L
155.46 329.997 L
156.183 329.997 L
156.907 329.997 L
157.63 329.997 L
158.353 329.997 L
159.077 329.997 L
159.8 329.997 L
160.523 329.997 L
161.247 329.997 L
161.97 329.997 L
162.693 329.997 L
163.417 329.997 L
164.14 329.997 L
164.863 329.997 L
165.587 329.997 L
166.31 329.997 L
167.033 329.997 L
167.757 329.997 L
168.48 329.997 L
169.203 329.997 L
169.927 329.997 L
170.65 329.997 L
171.373 329.997 L
172.097 329.997 L
172.82 329.997 L
173.543 329.997 L
174.267 329.997 L
174.99 329.997 L
175.713 329.997 L
176.437 329.997 L
177.16 329.997 L
177.883 329.997 L
178.607 329.997 L
179.33 329.997 L
180.053 329.997 L
180.777 329.997 L
181.5 329.997 L
182.223 329.997 L
182.947 329.997 L
183.67 329.997 L
184.393 329.997 L
185.117 329.997 L
185.84 329.997 L
186.563 329.997 L
187.287 329.997 L
188.01 329.997 L
188.733 329.997 L
189.457 329.997 L
190.18 329.997 L
190.903 329.997 L
191.627 329.997 L
192.35 329.997 L
193.073 329.997 L
193.797 329.997 L
194.52 329.997 L
195.243 329.997 L
195.967 329.997 L
196.69 329.997 L
197.413 329.997 L
198.137 329.997 L
198.86 329.997 L
199.583 329.997 L
200.307 329.997 L
201.03 329.997 L
201.753 329.997 L
202.477 329.997 L
203.2 329.997 L
203.923 329.997 L
204.647 329.997 L
205.37 329.997 L
206.093 329.997 L
206.817 329.997 L
207.54 329.997 L
208.263 329.997 L
208.987 329.997 L
209.71 329.997 L
210.433 329.998 L
211.157 330 L
211.88 330.004 L
212.603 330.017 L
213.327 330.052 L
214.05 330.145 L
214.773 330.396 L
215.497 331.049 L
216.22 332.641 L
216.943 335.961 L
217.667 341.086 L
218.39 346.21 L
219.113 349.531 L
219.837 351.123 L
220.56 351.776 L
221.283 352.027 L
222.007 352.12 L
222.73 352.155 L
223.453 352.168 L
224.177 352.172 L
224.9 352.174 L
225.623 352.175 L
226.347 352.175 L
227.07 352.175 L
227.793 352.175 L
228.517 352.175 L
229.24 352.175 L
229.963 352.175 L
230.687 352.175 L
231.41 352.175 L
232.133 352.175 L
232.857 352.175 L
233.58 352.175 L
234.303 352.175 L
235.027 352.175 L
235.75 352.175 L
236.473 352.175 L
237.197 352.175 L
237.92 352.175 L
238.643 352.175 L
239.367 352.175 L
240.09 352.175 L
240.813 352.175 L
241.537 352.175 L
242.26 352.175 L
242.983 352.175 L
243.707 352.175 L
244.43 352.175 L
245.153 352.175 L
245.877 352.175 L
246.6 352.175 L
247.323 352.175 L
248.047 352.175 L
248.77 352.175 L
249.493 352.175 L
250.217 352.175 L
250.94 352.175 L
251.663 352.175 L
252.387 352.175 L
253.11 352.175 L
253.833 352.175 L
254.557 352.175 L
255.28 352.175 L
256.003 352.175 L
256.727 352.175 L
257.45 352.175 L
258.173 352.175 L
258.897 352.175 L
259.62 352.175 L
260.343 352.175 L
261.067 352.175 L
261.79 352.175 L
262.513 352.175 L
263.237 352.175 L
263.96 352.175 L
264.683 352.175 L
265.407 352.175 L
266.13 352.175 L
266.853 352.175 L
267.577 352.175 L
268.3 352.175 L
269.023 352.175 L
269.747 352.175 L
270.47 352.175 L
271.193 352.175 L
271.917 352.175 L
272.64 352.175 L
273.363 352.175 L
274.087 352.175 L
274.81 352.175 L
275.533 352.175 L
276.257 352.175 L
276.98 352.175 L
277.703 352.175 L
278.427 352.175 L
279.15 352.175 L
279.873 352.175 L
280.597 352.175 L
281.32 352.175 L
282.043 352.175 L
282.767 352.175 L
283.49 352.174 L
284.213 352.173 L
284.937 352.17 L
285.66 352.162 L
286.383 352.139 L
287.107 352.077 L
287.83 351.918 L
288.553 351.528 L
289.277 350.716 L
290 349.462 L
290.723 348.208 L
291.447 347.395 L
292.17 347.006 L
292.893 346.846 L
293.617 346.785 L
294.34 346.762 L
295.063 346.753 L
295.787 346.75 L
296.51 346.749 L
297.233 346.749 L
297.957 346.748 L
298.68 346.748 L
299.403 346.748 L
300.127 346.748 L
300.85 346.748 L
301.573 346.748 L
302.297 346.748 L
303.02 346.748 L
303.743 346.748 L
304.467 346.748 L
305.19 346.748 L
305.913 346.748 L
306.637 346.748 L
307.36 346.748 L
308.083 346.748 L
308.807 346.748 L
309.53 346.748 L
310.253 346.748 L
310.977 346.748 L
311.7 346.748 L
312.423 346.748 L
313.147 346.748 L
313.87 346.748 L
314.593 346.748 L
315.317 346.748 L
316.04 346.748 L
316.763 346.748 L
317.487 346.748 L
318.21 346.748 L
318.933 346.748 L
319.657 346.748 L
320.38 346.748 L
321.103 346.748 L
321.827 346.748 L
322.55 346.748 L
323.273 346.748 L
323.997 346.748 L
324.72 346.748 L
325.443 346.748 L
326.167 346.748 L
326.89 346.748 L
327.613 346.748 L
328.337 346.748 L
329.06 346.748 L
329.783 346.748 L
330.507 346.748 L
331.23 346.748 L
331.953 346.748 L
332.677 346.748 L
333.4 346.748 L
334.123 346.748 L
334.847 346.748 L
335.57 346.748 L
336.293 346.748 L
337.017 346.748 L
337.74 346.748 L
338.463 346.748 L
339.187 346.748 L
339.91 346.748 L
340.633 346.748 L
341.357 346.748 L
342.08 346.748 L
342.803 346.748 L
343.527 346.748 L
344.25 346.748 L
344.973 346.748 L
345.697 346.748 L
346.42 346.748 L
347.143 346.748 L
347.867 346.748 L
348.59 346.748 L
349.313 346.748 L
350.037 346.748 L
350.76 346.748 L
351.483 346.748 L
352.207 346.748 L
352.93 346.748 L
353.653 346.748 L
354.377 346.748 L
355.1 346.747 L
355.823 346.745 L
356.547 346.739 L
357.27 346.724 L
357.993 346.682 L
358.717 346.568 L
359.44 346.264 L
360.163 345.471 L
360.887 343.539 L
361.61 339.507 L
362.333 333.285 L
363.057 327.064 L
363.78 323.032 L
364.503 321.099 L
365.227 320.306 L
365.95 320.002 L
366.673 319.888 L
367.397 319.846 L
368.12 319.831 L
368.843 319.825 L
369.567 319.823 L
370.29 319.822 L
371.013 319.822 L
371.737 319.822 L
372.46 319.822 L
373.183 319.822 L
373.907 319.822 L
374.63 319.822 L
375.353 319.822 L
376.077 319.822 L
376.8 319.822 L
377.523 319.822 L
378.247 319.822 L
378.97 319.822 L
379.693 319.822 L
380.417 319.822 L
381.14 319.822 L
381.863 319.822 L
382.587 319.822 L
383.31 319.822 L
384.033 319.822 L
384.757 319.822 L
385.48 319.822 L
386.203 319.822 L
386.927 319.822 L
387.65 319.822 L
388.373 319.822 L
389.097 319.822 L
389.82 319.822 L
390.543 319.822 L
391.267 319.822 L
391.99 319.822 L
392.713 319.822 L
393.437 319.822 L
394.16 319.822 L
394.883 319.822 L
395.607 319.822 L
396.33 319.822 L
397.053 319.822 L
397.777 319.822 L
398.5 319.822 L
399.223 319.822 L
399.947 319.822 L
400.67 319.822 L
401.393 319.822 L
402.117 319.822 L
402.84 319.822 L
403.563 319.822 L
404.287 319.822 L
405.01 319.822 L
405.733 319.822 L
406.457 319.822 L
407.18 319.822 L
407.903 319.822 L
408.627 319.822 L
409.35 319.822 L
410.073 319.822 L
410.797 319.822 L
411.52 319.822 L
412.243 319.822 L
412.967 319.822 L
413.69 319.822 L
414.413 319.822 L
415.137 319.822 L
415.86 319.822 L
416.583 319.822 L
417.307 319.822 L
418.03 319.822 L
418.753 319.822 L
419.477 319.822 L
420.2 319.822 L
420.923 319.822 L
421.647 319.822 L
422.37 319.822 L
423.093 319.822 L
423.817 319.822 L
424.54 319.822 L
425.263 319.822 L
425.987 319.822 L
426.71 319.823 L
427.433 319.824 L
428.157 319.828 L
428.88 319.84 L
429.603 319.87 L
430.327 319.952 L
431.05 320.175 L
431.773 320.77 L
432.497 322.323 L
433.22 326.108 L
433.943 334.005 L
434.667 346.19 L
435.39 358.375 L
436.113 366.272 L
436.837 370.057 L
437.56 371.61 L
438.283 372.205 L
439.007 372.428 L
439.73 372.51 L
440.453 372.541 L
441.177 372.552 L
441.9 372.556 L
442.623 372.557 L
443.347 372.558 L
444.07 372.558 L
444.793 372.558 L
445.517 372.558 L
446.24 372.558 L
446.963 372.558 L
447.687 372.558 L
448.41 372.558 L
449.133 372.558 L
449.857 372.558 L
450.58 372.558 L
451.303 372.558 L
452.027 372.558 L
452.75 372.558 L
453.473 372.558 L
454.197 372.558 L
454.92 372.558 L
455.643 372.558 L
456.367 372.558 L
457.09 372.558 L
457.813 372.558 L
458.537 372.558 L
459.26 372.558 L
459.983 372.558 L
460.707 372.558 L
461.43 372.558 L
462.153 372.558 L
462.877 372.558 L
463.6 372.558 L
464.323 372.558 L
465.047 372.558 L
465.77 372.558 L
466.493 372.558 L
467.217 372.558 L
467.94 372.558 L
468.663 372.558 L
469.387 372.558 L
470.11 372.558 L
470.833 372.558 L
471.557 372.558 L
472.28 372.558 L
473.003 372.558 L
473.727 372.558 L
474.45 372.558 L
475.173 372.558 L
475.897 372.558 L
476.62 372.558 L
477.343 372.558 L
478.067 372.558 L
478.79 372.558 L
479.513 372.558 L
480.237 372.558 L
480.96 372.558 L
481.683 372.558 L
482.407 372.558 L
483.13 372.558 L
483.853 372.558 L
484.577 372.558 L
485.3 372.558 L
486.023 372.558 L
486.747 372.558 L
487.47 372.558 L
488.193 372.558 L
488.917 372.558 L
489.64 372.558 L
490.363 372.558 L
491.087 372.558 L
491.81 372.558 L
492.533 372.558 L
493.257 372.558 L
493.98 372.558 L
494.703 372.558 L
495.427 372.558 L
496.15 372.558 L
496.873 372.558 L
497.597 372.558 L
498.32 372.558 L
499.043 372.558 L
499.767 372.558 L
500.49 372.558 L
501.213 372.558 L
501.937 372.558 L
502.66 372.558 L
503.383 372.558 L
504.107 372.558 L
504.83 372.558 L
505.553 372.558 L
506.277 372.558 L
507 372.558 L
507.052 372.558 L
S
GR
GS
[0.75 0 0 0.75 0 0] CT
0.851 0.325 0.098 RC
1 LJ
2.667 LW
N
72.948 373.388 M
73 373.388 L
73.723 373.388 L
74.447 373.388 L
75.17 373.388 L
75.893 373.388 L
76.617 373.388 L
77.34 373.388 L
78.063 373.388 L
78.787 373.388 L
79.51 373.388 L
80.233 373.388 L
80.957 373.388 L
81.68 373.388 L
82.403 373.388 L
83.127 373.388 L
83.85 373.388 L
84.573 373.388 L
85.297 373.388 L
86.02 373.388 L
86.743 373.388 L
87.467 373.388 L
88.19 373.388 L
88.913 373.388 L
89.637 373.388 L
90.36 373.388 L
91.083 373.388 L
91.807 373.388 L
92.53 373.388 L
93.253 373.388 L
93.977 373.388 L
94.7 373.388 L
95.423 373.388 L
96.147 373.388 L
96.87 373.388 L
97.593 373.388 L
98.317 373.388 L
99.04 373.388 L
99.763 373.388 L
100.487 373.388 L
101.21 373.388 L
101.933 373.388 L
102.657 373.388 L
103.38 373.388 L
104.103 373.388 L
104.827 373.388 L
105.55 373.388 L
106.273 373.388 L
106.997 373.388 L
107.72 373.388 L
108.443 373.388 L
109.167 373.388 L
109.89 373.388 L
110.613 373.388 L
111.337 373.388 L
112.06 373.388 L
112.783 373.388 L
113.507 373.388 L
114.23 373.388 L
114.953 373.388 L
115.677 373.388 L
116.4 373.388 L
117.123 373.388 L
117.847 373.388 L
118.57 373.388 L
119.293 373.388 L
120.017 373.388 L
120.74 373.388 L
121.463 373.388 L
122.187 373.388 L
122.91 373.388 L
123.633 373.388 L
124.357 373.388 L
125.08 373.388 L
125.803 373.388 L
126.527 373.388 L
127.25 373.388 L
127.973 373.388 L
128.697 373.388 L
129.42 373.388 L
130.143 373.388 L
130.867 373.388 L
131.59 373.388 L
132.313 373.388 L
133.037 373.388 L
133.76 373.388 L
134.483 373.388 L
135.207 373.388 L
135.93 373.388 L
136.653 373.388 L
137.377 373.387 L
138.1 373.386 L
138.823 373.384 L
139.547 373.378 L
140.27 373.361 L
140.993 373.316 L
141.717 373.193 L
142.44 372.865 L
143.163 372.009 L
143.887 369.922 L
144.61 365.57 L
145.333 358.853 L
146.057 352.136 L
146.78 347.783 L
147.503 345.697 L
148.227 344.841 L
148.95 344.512 L
149.673 344.39 L
150.397 344.344 L
151.12 344.328 L
151.843 344.322 L
152.567 344.319 L
153.29 344.318 L
154.013 344.318 L
154.737 344.318 L
155.46 344.318 L
156.183 344.318 L
156.907 344.318 L
157.63 344.318 L
158.353 344.318 L
159.077 344.318 L
159.8 344.318 L
160.523 344.318 L
161.247 344.318 L
161.97 344.318 L
162.693 344.318 L
163.417 344.318 L
164.14 344.318 L
164.863 344.318 L
165.587 344.318 L
166.31 344.318 L
167.033 344.318 L
167.757 344.318 L
168.48 344.318 L
169.203 344.318 L
169.927 344.318 L
170.65 344.318 L
171.373 344.318 L
172.097 344.318 L
172.82 344.318 L
173.543 344.318 L
174.267 344.318 L
174.99 344.318 L
175.713 344.318 L
176.437 344.318 L
177.16 344.318 L
177.883 344.318 L
178.607 344.318 L
179.33 344.318 L
180.053 344.318 L
180.777 344.318 L
181.5 344.318 L
182.223 344.318 L
182.947 344.318 L
183.67 344.318 L
184.393 344.318 L
185.117 344.318 L
185.84 344.318 L
186.563 344.318 L
187.287 344.318 L
188.01 344.318 L
188.733 344.318 L
189.457 344.318 L
190.18 344.318 L
190.903 344.318 L
191.627 344.318 L
192.35 344.318 L
193.073 344.318 L
193.797 344.318 L
194.52 344.318 L
195.243 344.318 L
195.967 344.318 L
196.69 344.318 L
197.413 344.318 L
198.137 344.318 L
198.86 344.318 L
199.583 344.318 L
200.307 344.318 L
201.03 344.318 L
201.753 344.318 L
202.477 344.318 L
203.2 344.318 L
203.923 344.318 L
204.647 344.318 L
205.37 344.318 L
206.093 344.318 L
206.817 344.318 L
207.54 344.318 L
208.263 344.318 L
208.987 344.318 L
209.71 344.317 L
210.433 344.317 L
211.157 344.314 L
211.88 344.308 L
212.603 344.291 L
213.327 344.245 L
214.05 344.12 L
214.773 343.787 L
215.497 342.919 L
216.22 340.801 L
216.943 336.383 L
217.667 329.565 L
218.39 322.747 L
219.113 318.329 L
219.837 316.211 L
220.56 315.343 L
221.283 315.009 L
222.007 314.885 L
222.73 314.839 L
223.453 314.822 L
224.177 314.815 L
224.9 314.813 L
225.623 314.812 L
226.347 314.812 L
227.07 314.812 L
227.793 314.812 L
228.517 314.812 L
229.24 314.812 L
229.963 314.812 L
230.687 314.812 L
231.41 314.812 L
232.133 314.812 L
232.857 314.812 L
233.58 314.812 L
234.303 314.812 L
235.027 314.812 L
235.75 314.812 L
236.473 314.812 L
237.197 314.812 L
237.92 314.812 L
238.643 314.812 L
239.367 314.812 L
240.09 314.812 L
240.813 314.812 L
241.537 314.812 L
242.26 314.812 L
242.983 314.812 L
243.707 314.812 L
244.43 314.812 L
245.153 314.812 L
245.877 314.812 L
246.6 314.812 L
247.323 314.812 L
248.047 314.812 L
248.77 314.812 L
249.493 314.812 L
250.217 314.812 L
250.94 314.812 L
251.663 314.812 L
252.387 314.812 L
253.11 314.812 L
253.833 314.812 L
254.557 314.812 L
255.28 314.812 L
256.003 314.812 L
256.727 314.812 L
257.45 314.812 L
258.173 314.812 L
258.897 314.812 L
259.62 314.812 L
260.343 314.812 L
261.067 314.812 L
261.79 314.812 L
262.513 314.812 L
263.237 314.812 L
263.96 314.812 L
264.683 314.812 L
265.407 314.812 L
266.13 314.812 L
266.853 314.812 L
267.577 314.812 L
268.3 314.812 L
269.023 314.812 L
269.747 314.812 L
270.47 314.812 L
271.193 314.812 L
271.917 314.812 L
272.64 314.812 L
273.363 314.812 L
274.087 314.812 L
274.81 314.812 L
275.533 314.812 L
276.257 314.812 L
276.98 314.812 L
277.703 314.812 L
278.427 314.812 L
279.15 314.812 L
279.873 314.812 L
280.597 314.812 L
281.32 314.812 L
282.043 314.811 L
282.767 314.81 L
283.49 314.806 L
284.213 314.796 L
284.937 314.769 L
285.66 314.695 L
286.383 314.496 L
287.107 313.963 L
287.83 312.574 L
288.553 309.187 L
289.277 302.122 L
290 291.22 L
290.723 280.317 L
291.447 273.252 L
292.17 269.865 L
292.893 268.476 L
293.617 267.943 L
294.34 267.744 L
295.063 267.671 L
295.787 267.643 L
296.51 267.633 L
297.233 267.63 L
297.957 267.628 L
298.68 267.628 L
299.403 267.628 L
300.127 267.628 L
300.85 267.628 L
301.573 267.628 L
302.297 267.628 L
303.02 267.628 L
303.743 267.628 L
304.467 267.628 L
305.19 267.628 L
305.913 267.628 L
306.637 267.628 L
307.36 267.628 L
308.083 267.628 L
308.807 267.628 L
309.53 267.628 L
310.253 267.628 L
310.977 267.628 L
311.7 267.628 L
312.423 267.628 L
313.147 267.628 L
313.87 267.628 L
314.593 267.628 L
315.317 267.628 L
316.04 267.628 L
316.763 267.628 L
317.487 267.628 L
318.21 267.628 L
318.933 267.628 L
319.657 267.628 L
320.38 267.628 L
321.103 267.628 L
321.827 267.628 L
322.55 267.628 L
323.273 267.628 L
323.997 267.628 L
324.72 267.628 L
325.443 267.628 L
326.167 267.628 L
326.89 267.628 L
327.613 267.628 L
328.337 267.628 L
329.06 267.628 L
329.783 267.628 L
330.507 267.628 L
331.23 267.628 L
331.953 267.628 L
332.677 267.628 L
333.4 267.628 L
334.123 267.628 L
334.847 267.628 L
335.57 267.628 L
336.293 267.628 L
337.017 267.628 L
337.74 267.628 L
338.463 267.628 L
339.187 267.628 L
339.91 267.628 L
340.633 267.628 L
341.357 267.628 L
342.08 267.628 L
342.803 267.628 L
343.527 267.628 L
344.25 267.628 L
344.973 267.628 L
345.697 267.628 L
346.42 267.628 L
347.143 267.628 L
347.867 267.628 L
348.59 267.628 L
349.313 267.628 L
350.037 267.628 L
350.76 267.627 L
351.483 267.627 L
352.207 267.627 L
352.93 267.627 L
353.653 267.627 L
354.377 267.626 L
355.1 267.622 L
355.823 267.614 L
356.547 267.59 L
357.27 267.527 L
357.993 267.354 L
358.717 266.887 L
359.44 265.638 L
360.163 262.382 L
360.887 254.443 L
361.61 237.881 L
362.333 212.324 L
363.057 186.767 L
363.78 170.205 L
364.503 162.266 L
365.227 159.009 L
365.95 157.76 L
366.673 157.293 L
367.397 157.121 L
368.12 157.057 L
368.843 157.034 L
369.567 157.025 L
370.29 157.022 L
371.013 157.021 L
371.737 157.02 L
372.46 157.02 L
373.183 157.02 L
373.907 157.02 L
374.63 157.02 L
375.353 157.02 L
376.077 157.02 L
376.8 157.02 L
377.523 157.02 L
378.247 157.02 L
378.97 157.02 L
379.693 157.02 L
380.417 157.02 L
381.14 157.02 L
381.863 157.02 L
382.587 157.02 L
383.31 157.02 L
384.033 157.02 L
384.757 157.02 L
385.48 157.02 L
386.203 157.02 L
386.927 157.02 L
387.65 157.02 L
388.373 157.02 L
389.097 157.02 L
389.82 157.02 L
390.543 157.02 L
391.267 157.02 L
391.99 157.02 L
392.713 157.02 L
393.437 157.02 L
394.16 157.02 L
394.883 157.02 L
395.607 157.02 L
396.33 157.02 L
397.053 157.02 L
397.777 157.02 L
398.5 157.02 L
399.223 157.02 L
399.947 157.02 L
400.67 157.02 L
401.393 157.02 L
402.117 157.02 L
402.84 157.02 L
403.563 157.02 L
404.287 157.02 L
405.01 157.02 L
405.733 157.02 L
406.457 157.02 L
407.18 157.02 L
407.903 157.02 L
408.627 157.02 L
409.35 157.02 L
410.073 157.02 L
410.797 157.02 L
411.52 157.02 L
412.243 157.02 L
412.967 157.02 L
413.69 157.02 L
414.413 157.02 L
415.137 157.02 L
415.86 157.02 L
416.583 157.02 L
417.307 157.02 L
418.03 157.02 L
418.753 157.02 L
419.477 157.02 L
420.2 157.02 L
420.923 157.02 L
421.647 157.02 L
422.37 157.02 L
423.093 157.02 L
423.817 157.02 L
424.54 157.02 L
425.263 157.02 L
425.987 157.021 L
426.71 157.023 L
427.433 157.03 L
428.157 157.046 L
428.88 157.092 L
429.603 157.215 L
430.327 157.548 L
431.05 158.45 L
431.773 160.864 L
432.497 167.155 L
433.22 182.495 L
433.943 214.496 L
434.667 263.876 L
435.39 313.256 L
436.113 345.257 L
436.837 360.597 L
437.56 366.888 L
438.283 369.302 L
439.007 370.204 L
439.73 370.537 L
440.453 370.66 L
441.177 370.706 L
441.9 370.722 L
442.623 370.729 L
443.347 370.731 L
444.07 370.732 L
444.793 370.732 L
445.517 370.732 L
446.24 370.732 L
446.963 370.732 L
447.687 370.732 L
448.41 370.732 L
449.133 370.732 L
449.857 370.732 L
450.58 370.732 L
451.303 370.732 L
452.027 370.732 L
452.75 370.732 L
453.473 370.732 L
454.197 370.732 L
454.92 370.732 L
455.643 370.732 L
456.367 370.732 L
457.09 370.732 L
457.813 370.732 L
458.537 370.732 L
459.26 370.732 L
459.983 370.732 L
460.707 370.732 L
461.43 370.732 L
462.153 370.732 L
462.877 370.732 L
463.6 370.732 L
464.323 370.732 L
465.047 370.732 L
465.77 370.732 L
466.493 370.732 L
467.217 370.732 L
467.94 370.732 L
468.663 370.732 L
469.387 370.732 L
470.11 370.732 L
470.833 370.732 L
471.557 370.732 L
472.28 370.732 L
473.003 370.732 L
473.727 370.732 L
474.45 370.732 L
475.173 370.732 L
475.897 370.732 L
476.62 370.732 L
477.343 370.732 L
478.067 370.732 L
478.79 370.732 L
479.513 370.732 L
480.237 370.732 L
480.96 370.732 L
481.683 370.732 L
482.407 370.732 L
483.13 370.732 L
483.853 370.732 L
484.577 370.732 L
485.3 370.732 L
486.023 370.732 L
486.747 370.732 L
487.47 370.732 L
488.193 370.732 L
488.917 370.732 L
489.64 370.732 L
490.363 370.732 L
491.087 370.732 L
491.81 370.732 L
492.533 370.732 L
493.257 370.732 L
493.98 370.732 L
494.703 370.732 L
495.427 370.732 L
496.15 370.732 L
496.873 370.732 L
497.597 370.732 L
498.32 370.732 L
499.043 370.732 L
499.767 370.732 L
500.49 370.732 L
501.213 370.732 L
501.937 370.732 L
502.66 370.732 L
503.383 370.732 L
504.107 370.732 L
504.83 370.732 L
505.553 370.732 L
506.277 370.732 L
507 370.732 L
507.052 370.732 L
S
GR
GS
[0.75 0 0 0.75 0 0] CT
0.775 GC
[1 3] 0 setdash
2 LJ
0.667 LW
N
80.233 374 M
80.233 31 L
S
GR
GS
[0.75 0 0 0.75 0 0] CT
0.775 GC
[1 3] 0 setdash
2 LJ
0.667 LW
N
94.7 374 M
94.7 31 L
S
GR
GS
[0.75 0 0 0.75 0 0] CT
0.775 GC
[1 3] 0 setdash
2 LJ
0.667 LW
N
123.633 374 M
123.633 31 L
S
GR
GS
[0.75 0 0 0.75 0 0] CT
0.775 GC
[1 3] 0 setdash
2 LJ
0.667 LW
N
138.1 374 M
138.1 31 L
S
GR
GS
[0.75 0 0 0.75 0 0] CT
0.775 GC
[1 3] 0 setdash
2 LJ
0.667 LW
N
152.567 374 M
152.567 31 L
S
GR
GS
[0.75 0 0 0.75 0 0] CT
0.775 GC
[1 3] 0 setdash
2 LJ
0.667 LW
N
167.033 374 M
167.033 31 L
S
GR
GS
[0.75 0 0 0.75 0 0] CT
0.775 GC
[1 3] 0 setdash
2 LJ
0.667 LW
N
195.967 374 M
195.967 31 L
S
GR
GS
[0.75 0 0 0.75 0 0] CT
0.775 GC
[1 3] 0 setdash
2 LJ
0.667 LW
N
210.433 374 M
210.433 31 L
S
GR
GS
[0.75 0 0 0.75 0 0] CT
0.775 GC
[1 3] 0 setdash
2 LJ
0.667 LW
N
224.9 374 M
224.9 31 L
S
GR
GS
[0.75 0 0 0.75 0 0] CT
0.775 GC
[1 3] 0 setdash
2 LJ
0.667 LW
N
239.367 374 M
239.367 31 L
S
GR
GS
[0.75 0 0 0.75 0 0] CT
0.775 GC
[1 3] 0 setdash
2 LJ
0.667 LW
N
268.3 374 M
268.3 31 L
S
GR
GS
[0.75 0 0 0.75 0 0] CT
0.775 GC
[1 3] 0 setdash
2 LJ
0.667 LW
N
282.767 374 M
282.767 31 L
S
GR
GS
[0.75 0 0 0.75 0 0] CT
0.775 GC
[1 3] 0 setdash
2 LJ
0.667 LW
N
297.233 374 M
297.233 31 L
S
GR
GS
[0.75 0 0 0.75 0 0] CT
0.775 GC
[1 3] 0 setdash
2 LJ
0.667 LW
N
311.7 374 M
311.7 31 L
S
GR
GS
[0.75 0 0 0.75 0 0] CT
0.775 GC
[1 3] 0 setdash
2 LJ
0.667 LW
N
340.633 374 M
340.633 31 L
S
GR
GS
[0.75 0 0 0.75 0 0] CT
0.775 GC
[1 3] 0 setdash
2 LJ
0.667 LW
N
355.1 374 M
355.1 31 L
S
GR
GS
[0.75 0 0 0.75 0 0] CT
0.775 GC
[1 3] 0 setdash
2 LJ
0.667 LW
N
369.567 374 M
369.567 31 L
S
GR
GS
[0.75 0 0 0.75 0 0] CT
0.775 GC
[1 3] 0 setdash
2 LJ
0.667 LW
N
384.033 374 M
384.033 31 L
S
GR
GS
[0.75 0 0 0.75 0 0] CT
0.775 GC
[1 3] 0 setdash
2 LJ
0.667 LW
N
412.967 374 M
412.967 31 L
S
GR
GS
[0.75 0 0 0.75 0 0] CT
0.775 GC
[1 3] 0 setdash
2 LJ
0.667 LW
N
427.433 374 M
427.433 31 L
S
GR
GS
[0.75 0 0 0.75 0 0] CT
0.775 GC
[1 3] 0 setdash
2 LJ
0.667 LW
N
441.9 374 M
441.9 31 L
S
GR
GS
[0.75 0 0 0.75 0 0] CT
0.775 GC
[1 3] 0 setdash
2 LJ
0.667 LW
N
456.367 374 M
456.367 31 L
S
GR
GS
[0.75 0 0 0.75 0 0] CT
0.775 GC
[1 3] 0 setdash
2 LJ
0.667 LW
N
485.3 374 M
485.3 31 L
S
GR
GS
[0.75 0 0 0.75 0 0] CT
0.775 GC
[1 3] 0 setdash
2 LJ
0.667 LW
N
499.767 374 M
499.767 31 L
S
GR
GS
[0.75 0 0 0.75 0 0] CT
0.873 GC
[1 3] 0 setdash
2 LJ
0.667 LW
N
109.167 374 M
109.167 31 L
S
GR
GS
[0.75 0 0 0.75 0 0] CT
0.873 GC
[1 3] 0 setdash
2 LJ
0.667 LW
N
181.5 374 M
181.5 31 L
S
GR
GS
[0.75 0 0 0.75 0 0] CT
0.873 GC
[1 3] 0 setdash
2 LJ
0.667 LW
N
253.833 374 M
253.833 31 L
S
GR
GS
[0.75 0 0 0.75 0 0] CT
0.873 GC
[1 3] 0 setdash
2 LJ
0.667 LW
N
326.167 374 M
326.167 31 L
S
GR
GS
[0.75 0 0 0.75 0 0] CT
0.873 GC
[1 3] 0 setdash
2 LJ
0.667 LW
N
398.5 374 M
398.5 31 L
S
GR
GS
[0.75 0 0 0.75 0 0] CT
0.873 GC
[1 3] 0 setdash
2 LJ
0.667 LW
N
470.833 374 M
470.833 31 L
S
GR
GS
[0.75 0 0 0.75 0 0] CT
0.775 GC
[1 3] 0 setdash
2 LJ
0.667 LW
N
507 352.563 M
73 352.563 L
S
GR
GS
[0.75 0 0 0.75 0 0] CT
0.775 GC
[1 3] 0 setdash
2 LJ
0.667 LW
N
507 331.125 M
73 331.125 L
S
GR
GS
[0.75 0 0 0.75 0 0] CT
0.775 GC
[1 3] 0 setdash
2 LJ
0.667 LW
N
507 309.688 M
73 309.688 L
S
GR
GS
[0.75 0 0 0.75 0 0] CT
0.775 GC
[1 3] 0 setdash
2 LJ
0.667 LW
N
507 266.813 M
73 266.813 L
S
GR
GS
[0.75 0 0 0.75 0 0] CT
0.775 GC
[1 3] 0 setdash
2 LJ
0.667 LW
N
507 245.375 M
73 245.375 L
S
GR
GS
[0.75 0 0 0.75 0 0] CT
0.775 GC
[1 3] 0 setdash
2 LJ
0.667 LW
N
507 223.938 M
73 223.938 L
S
GR
GS
[0.75 0 0 0.75 0 0] CT
0.775 GC
[1 3] 0 setdash
2 LJ
0.667 LW
N
507 181.063 M
73 181.063 L
S
GR
GS
[0.75 0 0 0.75 0 0] CT
0.775 GC
[1 3] 0 setdash
2 LJ
0.667 LW
N
507 159.625 M
73 159.625 L
S
GR
GS
[0.75 0 0 0.75 0 0] CT
0.775 GC
[1 3] 0 setdash
2 LJ
0.667 LW
N
507 138.188 M
73 138.188 L
S
GR
GS
[0.75 0 0 0.75 0 0] CT
0.775 GC
[1 3] 0 setdash
2 LJ
0.667 LW
N
507 95.313 M
73 95.313 L
S
GR
GS
[0.75 0 0 0.75 0 0] CT
0.775 GC
[1 3] 0 setdash
2 LJ
0.667 LW
N
507 73.875 M
73 73.875 L
S
GR
GS
[0.75 0 0 0.75 0 0] CT
0.775 GC
[1 3] 0 setdash
2 LJ
0.667 LW
N
507 52.438 M
73 52.438 L
S
GR
GS
[0.75 0 0 0.75 0 0] CT
0.873 GC
[1 3] 0 setdash
2 LJ
0.667 LW
N
507 374 M
73 374 L
S
GR
GS
[0.75 0 0 0.75 0 0] CT
0.873 GC
[1 3] 0 setdash
2 LJ
0.667 LW
N
507 288.25 M
73 288.25 L
S
GR
GS
[0.75 0 0 0.75 0 0] CT
0.873 GC
[1 3] 0 setdash
2 LJ
0.667 LW
N
507 202.5 M
73 202.5 L
S
GR
GS
[0.75 0 0 0.75 0 0] CT
0.873 GC
[1 3] 0 setdash
2 LJ
0.667 LW
N
507 116.75 M
73 116.75 L
S
GR
GS
[0.75 0 0 0.75 0 0] CT
0.873 GC
[1 3] 0 setdash
2 LJ
0.667 LW
N
507 31 M
73 31 L
S
GR
GS
[0.75 0 0 0.75 0 0] CT
0.149 GC
2 setlinecap
1 LJ
0.667 LW
N
73 374 M
507 374 L
S
GR
GS
[0.75 0 0 0.75 0 0] CT
0.149 GC
2 setlinecap
1 LJ
0.667 LW
N
109.167 374 M
109.167 369.66 L
S
GR
GS
[0.75 0 0 0.75 0 0] CT
0.149 GC
2 setlinecap
1 LJ
0.667 LW
N
181.5 374 M
181.5 369.66 L
S
GR
GS
[0.75 0 0 0.75 0 0] CT
0.149 GC
2 setlinecap
1 LJ
0.667 LW
N
253.833 374 M
253.833 369.66 L
S
GR
GS
[0.75 0 0 0.75 0 0] CT
0.149 GC
2 setlinecap
1 LJ
0.667 LW
N
326.167 374 M
326.167 369.66 L
S
GR
GS
[0.75 0 0 0.75 0 0] CT
0.149 GC
2 setlinecap
1 LJ
0.667 LW
N
398.5 374 M
398.5 369.66 L
S
GR
GS
[0.75 0 0 0.75 0 0] CT
0.149 GC
2 setlinecap
1 LJ
0.667 LW
N
470.833 374 M
470.833 369.66 L
S
GR
GS
[0.75 0 0 0.75 81.875 285.49999] CT
0.149 GC
/Helvetica 20 F
GS
[1 0 0 1 0 0] CT
-6 21 moveto 
1 -1 scale
(1) t 
GR
GR
GS
[0.75 0 0 0.75 136.125 285.49999] CT
0.149 GC
/Helvetica 20 F
GS
[1 0 0 1 0 0] CT
-6 21 moveto 
1 -1 scale
(2) t 
GR
GR
GS
[0.75 0 0 0.75 190.375 285.49999] CT
0.149 GC
/Helvetica 20 F
GS
[1 0 0 1 0 0] CT
-6 21 moveto 
1 -1 scale
(3) t 
GR
GR
GS
[0.75 0 0 0.75 244.62499 285.49999] CT
0.149 GC
/Helvetica 20 F
GS
[1 0 0 1 0 0] CT
-6 21 moveto 
1 -1 scale
(4) t 
GR
GR
GS
[0.75 0 0 0.75 298.875 285.49999] CT
0.149 GC
/Helvetica 20 F
GS
[1 0 0 1 0 0] CT
-6 21 moveto 
1 -1 scale
(5) t 
GR
GR
GS
[0.75 0 0 0.75 353.12501 285.49999] CT
0.149 GC
/Helvetica 20 F
GS
[1 0 0 1 0 0] CT
-6 21 moveto 
1 -1 scale
(6) t 
GR
GR
GS
[0.75 0 0 0.75 0 0] CT
0.149 GC
2 setlinecap
1 LJ
0.667 LW
N
73 374 M
73 31 L
S
GR
GS
[0.75 0 0 0.75 0 0] CT
0.149 GC
2 setlinecap
1 LJ
0.667 LW
N
73 374 M
77.34 374 L
S
GR
GS
[0.75 0 0 0.75 0 0] CT
0.149 GC
2 setlinecap
1 LJ
0.667 LW
N
73 288.25 M
77.34 288.25 L
S
GR
GS
[0.75 0 0 0.75 0 0] CT
0.149 GC
2 setlinecap
1 LJ
0.667 LW
N
73 202.5 M
77.34 202.5 L
S
GR
GS
[0.75 0 0 0.75 0 0] CT
0.149 GC
2 setlinecap
1 LJ
0.667 LW
N
73 116.75 M
77.34 116.75 L
S
GR
GS
[0.75 0 0 0.75 0 0] CT
0.149 GC
2 setlinecap
1 LJ
0.667 LW
N
73 31 M
77.34 31 L
S
GR
GS
[0.75 0 0 0.75 49.75 280.5] CT
0.149 GC
/Helvetica 20 F
GS
[1 0 0 1 0 0] CT
-12 8 moveto 
1 -1 scale
(0) t 
GR
GR
GS
[0.75 0 0 0.75 49.75 216.1875] CT
0.149 GC
/Helvetica 20 F
GS
[1 0 0 1 0 0] CT
-12 8 moveto 
1 -1 scale
(2) t 
GR
GR
GS
[0.75 0 0 0.75 49.75 151.875] CT
0.149 GC
/Helvetica 20 F
GS
[1 0 0 1 0 0] CT
-12 8 moveto 
1 -1 scale
(4) t 
GR
GR
GS
[0.75 0 0 0.75 49.75 87.5625] CT
0.149 GC
/Helvetica 20 F
GS
[1 0 0 1 0 0] CT
-12 8 moveto 
1 -1 scale
(6) t 
GR
GR
GS
[0.75 0 0 0.75 49.75 23.25] CT
0.149 GC
/Helvetica 20 F
GS
[1 0 0 1 0 0] CT
-12 8 moveto 
1 -1 scale
(8) t 
GR
GR
GS
[0.75 0 0 0.75 0 0] CT
1 GC
N
494 95 M
494 44 L
407 44 L
407 95 L
cp
f
GR
GS
[0.75 0 0 0.75 340.5 43.22525] CT
/Helvetica 18 F
GS
[1 0 0 1 0 0] CT
0 7.5 moveto 
1 -1 scale
(left) t 
GR
GR
GS
[0.75 0 0 0.75 0 0] CT
0 0.447 0.741 RC
1 LJ
2.667 LW
N
411 57.634 M
451 57.634 L
S
GR
GS
[0.75 0 0 0.75 340.5 61.02475] CT
/Helvetica 18 F
GS
[1 0 0 1 0 0] CT
0 7.5 moveto 
1 -1 scale
(right) t 
GR
GR
GS
[0.75 0 0 0.75 0 0] CT
0.851 0.325 0.098 RC
1 LJ
2.667 LW
N
411 81.366 M
451 81.366 L
S
GR
GS
[0.75 0 0 0.75 0 0] CT
0.149 GC
10.0 ML
0.667 LW
N
407 95 M
407 44 L
494 44 L
494 95 L
cp
S
GR
%%Trailer
%%Pages: 1
%%EOF
