%!PS-Adobe-3.0 EPSF-3.0
%%Creator: (MATLAB, The Mathworks, Inc. Version 9.3.0.713579 \(R2017b\). Operating System: Windows 7)
%%Title: fig/RBFN_1000_50_100000_convergence.eps
%%CreationDate: 2018-05-06T13:30:46
%%Pages: (atend)
%%BoundingBox:    18     3   483   384
%%LanguageLevel: 3
%%EndComments
%%BeginProlog
%%BeginResource: procset (Apache XML Graphics Std ProcSet) 1.2 0
%%Version: 1.2 0
%%Copyright: (Copyright 2001-2003,2010 The Apache Software Foundation. License terms: http://www.apache.org/licenses/LICENSE-2.0)
/bd{bind def}bind def
/ld{load def}bd
/GR/grestore ld
/GS/gsave ld
/RM/rmoveto ld
/C/curveto ld
/t/show ld
/L/lineto ld
/ML/setmiterlimit ld
/CT/concat ld
/f/fill ld
/N/newpath ld
/S/stroke ld
/CC/setcmykcolor ld
/A/ashow ld
/cp/closepath ld
/RC/setrgbcolor ld
/LJ/setlinejoin ld
/GC/setgray ld
/LW/setlinewidth ld
/M/moveto ld
/re {4 2 roll M
1 index 0 rlineto
0 exch rlineto
neg 0 rlineto
cp } bd
/_ctm matrix def
/_tm matrix def
/BT { _ctm currentmatrix pop matrix _tm copy pop 0 0 moveto } bd
/ET { _ctm setmatrix } bd
/iTm { _ctm setmatrix _tm concat } bd
/Tm { _tm astore pop iTm 0 0 moveto } bd
/ux 0.0 def
/uy 0.0 def
/F {
  /Tp exch def
  /Tf exch def
  Tf findfont Tp scalefont setfont
  /cf Tf def  /cs Tp def
} bd
/ULS {currentpoint /uy exch def /ux exch def} bd
/ULE {
  /Tcx currentpoint pop def
  gsave
  newpath
  cf findfont cs scalefont dup
  /FontMatrix get 0 get /Ts exch def /FontInfo get dup
  /UnderlinePosition get Ts mul /To exch def
  /UnderlineThickness get Ts mul /Tt exch def
  ux uy To add moveto  Tcx uy To add lineto
  Tt setlinewidth stroke
  grestore
} bd
/OLE {
  /Tcx currentpoint pop def
  gsave
  newpath
  cf findfont cs scalefont dup
  /FontMatrix get 0 get /Ts exch def /FontInfo get dup
  /UnderlinePosition get Ts mul /To exch def
  /UnderlineThickness get Ts mul /Tt exch def
  ux uy To add cs add moveto Tcx uy To add cs add lineto
  Tt setlinewidth stroke
  grestore
} bd
/SOE {
  /Tcx currentpoint pop def
  gsave
  newpath
  cf findfont cs scalefont dup
  /FontMatrix get 0 get /Ts exch def /FontInfo get dup
  /UnderlinePosition get Ts mul /To exch def
  /UnderlineThickness get Ts mul /Tt exch def
  ux uy To add cs 10 mul 26 idiv add moveto Tcx uy To add cs 10 mul 26 idiv add lineto
  Tt setlinewidth stroke
  grestore
} bd
/QT {
/Y22 exch store
/X22 exch store
/Y21 exch store
/X21 exch store
currentpoint
/Y21 load 2 mul add 3 div exch
/X21 load 2 mul add 3 div exch
/X21 load 2 mul /X22 load add 3 div
/Y21 load 2 mul /Y22 load add 3 div
/X22 load /Y22 load curveto
} bd
/SSPD {
dup length /d exch dict def
{
/v exch def
/k exch def
currentpagedevice k known {
/cpdv currentpagedevice k get def
v cpdv ne {
/upd false def
/nullv v type /nulltype eq def
/nullcpdv cpdv type /nulltype eq def
nullv nullcpdv or
{
/upd true def
} {
/sametype v type cpdv type eq def
sametype {
v type /arraytype eq {
/vlen v length def
/cpdvlen cpdv length def
vlen cpdvlen eq {
0 1 vlen 1 sub {
/i exch def
/obj v i get def
/cpdobj cpdv i get def
obj cpdobj ne {
/upd true def
exit
} if
} for
} {
/upd true def
} ifelse
} {
v type /dicttype eq {
v {
/dv exch def
/dk exch def
/cpddv cpdv dk get def
dv cpddv ne {
/upd true def
exit
} if
} forall
} {
/upd true def
} ifelse
} ifelse
} if
} ifelse
upd true eq {
d k v put
} if
} if
} if
} forall
d length 0 gt {
d setpagedevice
} if
} bd
/RE { % /NewFontName [NewEncodingArray] /FontName RE -
  findfont dup length dict begin
  {
    1 index /FID ne
    {def} {pop pop} ifelse
  } forall
  /Encoding exch def
  /FontName 1 index def
  currentdict definefont pop
  end
} bind def
%%EndResource
%%BeginResource: procset (Apache XML Graphics EPS ProcSet) 1.0 0
%%Version: 1.0 0
%%Copyright: (Copyright 2002-2003 The Apache Software Foundation. License terms: http://www.apache.org/licenses/LICENSE-2.0)
/BeginEPSF { %def
/b4_Inc_state save def         % Save state for cleanup
/dict_count countdictstack def % Count objects on dict stack
/op_count count 1 sub def      % Count objects on operand stack
userdict begin                 % Push userdict on dict stack
/showpage { } def              % Redefine showpage, { } = null proc
0 setgray 0 setlinecap         % Prepare graphics state
1 setlinewidth 0 setlinejoin
10 setmiterlimit [ ] 0 setdash newpath
/languagelevel where           % If level not equal to 1 then
{pop languagelevel             % set strokeadjust and
1 ne                           % overprint to their defaults.
{false setstrokeadjust false setoverprint
} if
} if
} bd
/EndEPSF { %def
count op_count sub {pop} repeat            % Clean up stacks
countdictstack dict_count sub {end} repeat
b4_Inc_state restore
} bd
%%EndResource
%FOPBeginFontDict
%%IncludeResource: font Courier-Oblique
%%IncludeResource: font Courier-BoldOblique
%%IncludeResource: font Courier-Bold
%%IncludeResource: font ZapfDingbats
%%IncludeResource: font Symbol
%%IncludeResource: font Helvetica
%%IncludeResource: font Helvetica-Oblique
%%IncludeResource: font Helvetica-Bold
%%IncludeResource: font Helvetica-BoldOblique
%%IncludeResource: font Times-Roman
%%IncludeResource: font Times-Italic
%%IncludeResource: font Times-Bold
%%IncludeResource: font Times-BoldItalic
%%IncludeResource: font Courier
%FOPEndFontDict
%%BeginResource: encoding WinAnsiEncoding
/WinAnsiEncoding [
/.notdef /.notdef /.notdef /.notdef /.notdef
/.notdef /.notdef /.notdef /.notdef /.notdef
/.notdef /.notdef /.notdef /.notdef /.notdef
/.notdef /.notdef /.notdef /.notdef /.notdef
/.notdef /.notdef /.notdef /.notdef /.notdef
/.notdef /.notdef /.notdef /.notdef /.notdef
/.notdef /.notdef /space /exclam /quotedbl
/numbersign /dollar /percent /ampersand /quotesingle
/parenleft /parenright /asterisk /plus /comma
/hyphen /period /slash /zero /one
/two /three /four /five /six
/seven /eight /nine /colon /semicolon
/less /equal /greater /question /at
/A /B /C /D /E
/F /G /H /I /J
/K /L /M /N /O
/P /Q /R /S /T
/U /V /W /X /Y
/Z /bracketleft /backslash /bracketright /asciicircum
/underscore /quoteleft /a /b /c
/d /e /f /g /h
/i /j /k /l /m
/n /o /p /q /r
/s /t /u /v /w
/x /y /z /braceleft /bar
/braceright /asciitilde /bullet /Euro /bullet
/quotesinglbase /florin /quotedblbase /ellipsis /dagger
/daggerdbl /circumflex /perthousand /Scaron /guilsinglleft
/OE /bullet /Zcaron /bullet /bullet
/quoteleft /quoteright /quotedblleft /quotedblright /bullet
/endash /emdash /asciitilde /trademark /scaron
/guilsinglright /oe /bullet /zcaron /Ydieresis
/space /exclamdown /cent /sterling /currency
/yen /brokenbar /section /dieresis /copyright
/ordfeminine /guillemotleft /logicalnot /sfthyphen /registered
/macron /degree /plusminus /twosuperior /threesuperior
/acute /mu /paragraph /middot /cedilla
/onesuperior /ordmasculine /guillemotright /onequarter /onehalf
/threequarters /questiondown /Agrave /Aacute /Acircumflex
/Atilde /Adieresis /Aring /AE /Ccedilla
/Egrave /Eacute /Ecircumflex /Edieresis /Igrave
/Iacute /Icircumflex /Idieresis /Eth /Ntilde
/Ograve /Oacute /Ocircumflex /Otilde /Odieresis
/multiply /Oslash /Ugrave /Uacute /Ucircumflex
/Udieresis /Yacute /Thorn /germandbls /agrave
/aacute /acircumflex /atilde /adieresis /aring
/ae /ccedilla /egrave /eacute /ecircumflex
/edieresis /igrave /iacute /icircumflex /idieresis
/eth /ntilde /ograve /oacute /ocircumflex
/otilde /odieresis /divide /oslash /ugrave
/uacute /ucircumflex /udieresis /yacute /thorn
/ydieresis
] def
%%EndResource
%FOPBeginFontReencode
/Courier-Oblique findfont
dup length dict begin
  {1 index /FID ne {def} {pop pop} ifelse} forall
  /Encoding WinAnsiEncoding def
  currentdict
end
/Courier-Oblique exch definefont pop
/Courier-BoldOblique findfont
dup length dict begin
  {1 index /FID ne {def} {pop pop} ifelse} forall
  /Encoding WinAnsiEncoding def
  currentdict
end
/Courier-BoldOblique exch definefont pop
/Courier-Bold findfont
dup length dict begin
  {1 index /FID ne {def} {pop pop} ifelse} forall
  /Encoding WinAnsiEncoding def
  currentdict
end
/Courier-Bold exch definefont pop
/Helvetica findfont
dup length dict begin
  {1 index /FID ne {def} {pop pop} ifelse} forall
  /Encoding WinAnsiEncoding def
  currentdict
end
/Helvetica exch definefont pop
/Helvetica-Oblique findfont
dup length dict begin
  {1 index /FID ne {def} {pop pop} ifelse} forall
  /Encoding WinAnsiEncoding def
  currentdict
end
/Helvetica-Oblique exch definefont pop
/Helvetica-Bold findfont
dup length dict begin
  {1 index /FID ne {def} {pop pop} ifelse} forall
  /Encoding WinAnsiEncoding def
  currentdict
end
/Helvetica-Bold exch definefont pop
/Helvetica-BoldOblique findfont
dup length dict begin
  {1 index /FID ne {def} {pop pop} ifelse} forall
  /Encoding WinAnsiEncoding def
  currentdict
end
/Helvetica-BoldOblique exch definefont pop
/Times-Roman findfont
dup length dict begin
  {1 index /FID ne {def} {pop pop} ifelse} forall
  /Encoding WinAnsiEncoding def
  currentdict
end
/Times-Roman exch definefont pop
/Times-Italic findfont
dup length dict begin
  {1 index /FID ne {def} {pop pop} ifelse} forall
  /Encoding WinAnsiEncoding def
  currentdict
end
/Times-Italic exch definefont pop
/Times-Bold findfont
dup length dict begin
  {1 index /FID ne {def} {pop pop} ifelse} forall
  /Encoding WinAnsiEncoding def
  currentdict
end
/Times-Bold exch definefont pop
/Times-BoldItalic findfont
dup length dict begin
  {1 index /FID ne {def} {pop pop} ifelse} forall
  /Encoding WinAnsiEncoding def
  currentdict
end
/Times-BoldItalic exch definefont pop
/Courier findfont
dup length dict begin
  {1 index /FID ne {def} {pop pop} ifelse} forall
  /Encoding WinAnsiEncoding def
  currentdict
end
/Courier exch definefont pop
%FOPEndFontReencode
%%EndProlog
%%Page: 1 1
%%PageBoundingBox: 0 0 525 394
%%BeginPageSetup
[1 0 0 -1 0 394] CT
%%EndPageSetup
GS
[0.75 0 0 0.74971 0 0.39999] CT
N
0 0 M
700 0 L
700 525 L
0 525 L
0 0 L
cp
clip
1 GC
N
0 0 700 525 re
f
GR
GS
[0.75 0 0 0.74971 0 0.39999] CT
1 GC
N
0 0 700 525 re
f
GR
GS
[0.75 0 0 0.74971 0 0.39999] CT
1 GC
N
91 459 M
634 459 L
634 39 L
91 39 L
cp
f
GR
GS
[0.75 0 0 0.74971 0 0.39999] CT
0.873 GC
1 LJ
0.667 LW
N
91 459 M
91 39 L
S
GR
GS
[0.75 0 0 0.74971 0 0.39999] CT
0.873 GC
1 LJ
0.667 LW
N
199.6 459 M
199.6 39 L
S
GR
GS
[0.75 0 0 0.74971 0 0.39999] CT
0.873 GC
1 LJ
0.667 LW
N
308.2 459 M
308.2 39 L
S
GR
GS
[0.75 0 0 0.74971 0 0.39999] CT
0.873 GC
1 LJ
0.667 LW
N
416.8 459 M
416.8 39 L
S
GR
GS
[0.75 0 0 0.74971 0 0.39999] CT
0.873 GC
1 LJ
0.667 LW
N
525.4 459 M
525.4 39 L
S
GR
GS
[0.75 0 0 0.74971 0 0.39999] CT
0.873 GC
1 LJ
0.667 LW
N
634 459 M
634 39 L
S
GR
GS
[0.75 0 0 0.74971 0 0.39999] CT
0.873 GC
1 LJ
0.667 LW
N
634 459 M
91 459 L
S
GR
GS
[0.75 0 0 0.74971 0 0.39999] CT
0.873 GC
1 LJ
0.667 LW
N
634 389 M
91 389 L
S
GR
GS
[0.75 0 0 0.74971 0 0.39999] CT
0.873 GC
1 LJ
0.667 LW
N
634 319 M
91 319 L
S
GR
GS
[0.75 0 0 0.74971 0 0.39999] CT
0.873 GC
1 LJ
0.667 LW
N
634 249 M
91 249 L
S
GR
GS
[0.75 0 0 0.74971 0 0.39999] CT
0.873 GC
1 LJ
0.667 LW
N
634 179 M
91 179 L
S
GR
GS
[0.75 0 0 0.74971 0 0.39999] CT
0.873 GC
1 LJ
0.667 LW
N
634 109 M
91 109 L
S
GR
GS
[0.75 0 0 0.74971 0 0.39999] CT
0.873 GC
1 LJ
0.667 LW
N
634 39 M
91 39 L
S
GR
GS
[0.75 0 0 0.74971 0 0.39999] CT
0.149 GC
2 setlinecap
1 LJ
0.667 LW
N
91 459 M
634 459 L
S
GR
GS
[0.75 0 0 0.74971 0 0.39999] CT
0.149 GC
2 setlinecap
1 LJ
0.667 LW
N
91 39 M
634 39 L
S
GR
GS
[0.75 0 0 0.74971 0 0.39999] CT
0.149 GC
2 setlinecap
1 LJ
0.667 LW
N
91 459 M
91 453.57 L
S
GR
GS
[0.75 0 0 0.74971 0 0.39999] CT
0.149 GC
2 setlinecap
1 LJ
0.667 LW
N
199.6 459 M
199.6 453.57 L
S
GR
GS
[0.75 0 0 0.74971 0 0.39999] CT
0.149 GC
2 setlinecap
1 LJ
0.667 LW
N
308.2 459 M
308.2 453.57 L
S
GR
GS
[0.75 0 0 0.74971 0 0.39999] CT
0.149 GC
2 setlinecap
1 LJ
0.667 LW
N
416.8 459 M
416.8 453.57 L
S
GR
GS
[0.75 0 0 0.74971 0 0.39999] CT
0.149 GC
2 setlinecap
1 LJ
0.667 LW
N
525.4 459 M
525.4 453.57 L
S
GR
GS
[0.75 0 0 0.74971 0 0.39999] CT
0.149 GC
2 setlinecap
1 LJ
0.667 LW
N
634 459 M
634 453.57 L
S
GR
GS
[0.75 0 0 0.74971 0 0.39999] CT
0.149 GC
2 setlinecap
1 LJ
0.667 LW
N
91 39 M
91 44.43 L
S
GR
GS
[0.75 0 0 0.74971 0 0.39999] CT
0.149 GC
2 setlinecap
1 LJ
0.667 LW
N
199.6 39 M
199.6 44.43 L
S
GR
GS
[0.75 0 0 0.74971 0 0.39999] CT
0.149 GC
2 setlinecap
1 LJ
0.667 LW
N
308.2 39 M
308.2 44.43 L
S
GR
GS
[0.75 0 0 0.74971 0 0.39999] CT
0.149 GC
2 setlinecap
1 LJ
0.667 LW
N
416.8 39 M
416.8 44.43 L
S
GR
GS
[0.75 0 0 0.74971 0 0.39999] CT
0.149 GC
2 setlinecap
1 LJ
0.667 LW
N
525.4 39 M
525.4 44.43 L
S
GR
GS
[0.75 0 0 0.74971 0 0.39999] CT
0.149 GC
2 setlinecap
1 LJ
0.667 LW
N
634 39 M
634 44.43 L
S
GR
GS
[0.75 0 0 0.74971 68.25 349.51694] CT
0.149 GC
/Helvetica 20 F
GS
[1 0 0 1 0 0] CT
-6 21 moveto 
1 -1 scale
(0) t 
GR
GR
GS
[0.75 0 0 0.74971 149.7 349.51694] CT
0.149 GC
/Helvetica 20 F
GS
[1 0 0 1 0 0] CT
-6 21 moveto 
1 -1 scale
(2) t 
GR
GR
GS
[0.75 0 0 0.74971 231.15001 349.51694] CT
0.149 GC
/Helvetica 20 F
GS
[1 0 0 1 0 0] CT
-6 21 moveto 
1 -1 scale
(4) t 
GR
GR
GS
[0.75 0 0 0.74971 312.59999 349.51694] CT
0.149 GC
/Helvetica 20 F
GS
[1 0 0 1 0 0] CT
-6 21 moveto 
1 -1 scale
(6) t 
GR
GR
GS
[0.75 0 0 0.74971 394.05002 349.51694] CT
0.149 GC
/Helvetica 20 F
GS
[1 0 0 1 0 0] CT
-6 21 moveto 
1 -1 scale
(8) t 
GR
GR
GS
[0.75 0 0 0.74971 475.5 349.51694] CT
0.149 GC
/Helvetica 20 F
GS
[1 0 0 1 0 0] CT
-11.5 21 moveto 
1 -1 scale
(10) t 
GR
GR
GS
[0.75 0 0 0.74971 271.87518 370.00914] CT
0.149 GC
/Helvetica 22 F
GS
[1 0 0 1 0 0] CT
-48.5 23 moveto 
1 -1 scale
(Itterations) t 
GR
GR
GS
[0.75 0 0 0.74971 439.5 390.25143] CT
0.149 GC
N
2.938 -0.578 M
2.938 -0.734 3.031 -0.859 QT
7.203 -5 L
3.031 -9.156 L
2.938 -9.266 2.938 -9.422 QT
2.938 -9.578 3.055 -9.703 QT
3.172 -9.828 3.344 -9.828 QT
3.484 -9.828 3.641 -9.703 QT
7.781 -5.563 L
11.906 -9.703 L
12.078 -9.828 12.203 -9.828 QT
12.359 -9.828 12.477 -9.711 QT
12.594 -9.594 12.594 -9.422 QT
12.594 -9.266 12.5 -9.156 QT
8.344 -5 L
12.5 -0.859 L
12.594 -0.734 12.594 -0.578 QT
12.594 -0.406 12.477 -0.289 QT
12.359 -0.172 12.203 -0.172 QT
12.047 -0.172 11.906 -0.328 QT
7.781 -4.438 L
3.641 -0.328 L
3.5 -0.172 3.344 -0.172 QT
3.172 -0.172 3.055 -0.305 QT
2.938 -0.438 2.938 -0.578 QT
cp
f
GR
GS
[0.75 0 0 0.74971 451.5 390.25143] CT
0.149 GC
/Helvetica 20 F
GS
[1 0 0 1 0 0] CT
0 0 moveto 
1 -1 scale
(10) t 
GR
GR
GS
[0.75 0 0 0.74971 468.75 382.75429] CT
0.149 GC
/Helvetica 16 F
GS
[1 0 0 1 0 0] CT
0 0 moveto 
1 -1 scale
(4) t 
GR
GR
GS
[0.75 0 0 0.74971 0 0.39999] CT
0.149 GC
2 setlinecap
1 LJ
0.667 LW
N
91 459 M
91 39 L
S
GR
GS
[0.75 0 0 0.74971 0 0.39999] CT
0.149 GC
2 setlinecap
1 LJ
0.667 LW
N
634 459 M
634 39 L
S
GR
GS
[0.75 0 0 0.74971 0 0.39999] CT
0.149 GC
2 setlinecap
1 LJ
0.667 LW
N
91 459 M
96.43 459 L
S
GR
GS
[0.75 0 0 0.74971 0 0.39999] CT
0.149 GC
2 setlinecap
1 LJ
0.667 LW
N
91 389 M
96.43 389 L
S
GR
GS
[0.75 0 0 0.74971 0 0.39999] CT
0.149 GC
2 setlinecap
1 LJ
0.667 LW
N
91 319 M
96.43 319 L
S
GR
GS
[0.75 0 0 0.74971 0 0.39999] CT
0.149 GC
2 setlinecap
1 LJ
0.667 LW
N
91 249 M
96.43 249 L
S
GR
GS
[0.75 0 0 0.74971 0 0.39999] CT
0.149 GC
2 setlinecap
1 LJ
0.667 LW
N
91 179 M
96.43 179 L
S
GR
GS
[0.75 0 0 0.74971 0 0.39999] CT
0.149 GC
2 setlinecap
1 LJ
0.667 LW
N
91 109 M
96.43 109 L
S
GR
GS
[0.75 0 0 0.74971 0 0.39999] CT
0.149 GC
2 setlinecap
1 LJ
0.667 LW
N
91 39 M
96.43 39 L
S
GR
GS
[0.75 0 0 0.74971 0 0.39999] CT
0.149 GC
2 setlinecap
1 LJ
0.667 LW
N
634 459 M
628.57 459 L
S
GR
GS
[0.75 0 0 0.74971 0 0.39999] CT
0.149 GC
2 setlinecap
1 LJ
0.667 LW
N
634 389 M
628.57 389 L
S
GR
GS
[0.75 0 0 0.74971 0 0.39999] CT
0.149 GC
2 setlinecap
1 LJ
0.667 LW
N
634 319 M
628.57 319 L
S
GR
GS
[0.75 0 0 0.74971 0 0.39999] CT
0.149 GC
2 setlinecap
1 LJ
0.667 LW
N
634 249 M
628.57 249 L
S
GR
GS
[0.75 0 0 0.74971 0 0.39999] CT
0.149 GC
2 setlinecap
1 LJ
0.667 LW
N
634 179 M
628.57 179 L
S
GR
GS
[0.75 0 0 0.74971 0 0.39999] CT
0.149 GC
2 setlinecap
1 LJ
0.667 LW
N
634 109 M
628.57 109 L
S
GR
GS
[0.75 0 0 0.74971 0 0.39999] CT
0.149 GC
2 setlinecap
1 LJ
0.667 LW
N
634 39 M
628.57 39 L
S
GR
GS
[0.75 0 0 0.74971 63.25 344.51886] CT
0.149 GC
/Helvetica 20 F
GS
[1 0 0 1 0 0] CT
-12 8 moveto 
1 -1 scale
(0) t 
GR
GR
GS
[0.75 0 0 0.74971 63.25 292.03886] CT
0.149 GC
/Helvetica 20 F
GS
[1 0 0 1 0 0] CT
-23 8 moveto 
1 -1 scale
(20) t 
GR
GR
GS
[0.75 0 0 0.74971 63.25 239.55885] CT
0.149 GC
/Helvetica 20 F
GS
[1 0 0 1 0 0] CT
-23 8 moveto 
1 -1 scale
(40) t 
GR
GR
GS
[0.75 0 0 0.74971 63.25 187.07885] CT
0.149 GC
/Helvetica 20 F
GS
[1 0 0 1 0 0] CT
-23 8 moveto 
1 -1 scale
(60) t 
GR
GR
GS
[0.75 0 0 0.74971 63.25 134.59885] CT
0.149 GC
/Helvetica 20 F
GS
[1 0 0 1 0 0] CT
-23 8 moveto 
1 -1 scale
(80) t 
GR
GR
GS
[0.75 0 0 0.74971 63.25 82.11885] CT
0.149 GC
/Helvetica 20 F
GS
[1 0 0 1 0 0] CT
-34 8 moveto 
1 -1 scale
(100) t 
GR
GR
GS
[0.75 0 0 0.74971 63.25 29.63885] CT
0.149 GC
/Helvetica 20 F
GS
[1 0 0 1 0 0] CT
-34 8 moveto 
1 -1 scale
(120) t 
GR
GR
GS
[0 -0.74971 0.75 0 34.75 187.07871] CT
0.149 GC
/Helvetica 22 F
GS
[1 0 0 1 0 0] CT
-50.5 -5 moveto 
1 -1 scale
(Difference) t 
GR
GR
GS
[0.75 0 0 0.74971 162.75 22.89142] CT
/Helvetica-Bold 22 F
GS
[1 0 0 1 0 0] CT
0 0 moveto 
1 -1 scale
(Norm 2 distance from ) t 
GR
GR
GS
[0.75 0 0 0.74971 337.5 22.89142] CT
N
3.547 0.25 M
2.547 0.25 1.945 -0.484 QT
1.344 -1.219 1.109 -2.25 QT
0.875 -3.281 0.875 -4.281 QT
0.875 -4.313 L
0.875 -5.406 1.086 -6.586 QT
1.297 -7.766 1.695 -8.945 QT
2.094 -10.125 2.563 -11.047 QT
2.875 -11.688 3.391 -12.484 QT
3.906 -13.281 4.531 -13.969 QT
5.156 -14.656 5.883 -15.086 QT
6.609 -15.516 7.344 -15.516 QT
7.375 -15.516 L
9.172 -15.516 9.703 -15.07 QT
10.234 -14.625 10.523 -13.938 QT
10.813 -13.25 10.938 -12.469 QT
11.063 -11.688 11.063 -10.984 QT
11.063 -9.313 10.609 -7.578 QT
10.156 -5.844 9.359 -4.219 QT
9.063 -3.609 8.531 -2.781 QT
8 -1.953 7.398 -1.297 QT
6.797 -0.641 6.055 -0.195 QT
5.313 0.25 3.563 0.25 QT
3.547 0.25 L
cp
3.594 -0.328 M
4.313 -0.328 4.984 -1.109 QT
5.656 -1.891 6.164 -3 QT
6.672 -4.109 7.055 -5.281 QT
7.438 -6.453 7.609 -7.266 QT
4.125 -7.266 L
3.781 -5.875 3.586 -4.875 QT
3.391 -3.875 3.391 -2.906 QT
3.391 -0.328 3.594 -0.328 QT
cp
4.297 -8.031 M
7.813 -8.031 L
8.047 -9 8.188 -9.648 QT
8.328 -10.297 8.422 -11.016 QT
8.516 -11.734 8.516 -12.359 QT
8.516 -14.938 7.344 -14.938 QT
6.953 -14.938 5.938 -12.688 QT
4.922 -10.438 4.297 -8.031 QT
cp
f
GR
GS
[0.75 0 0 0.74971 346.5 22.89142] CT
/Helvetica-Bold 22 F
GS
[1 0 0 1 0 0] CT
0 0 moveto 
1 -1 scale
( to 0) t 
GR
GR
GS
[0.75 0 0 0.74971 0 0.39999] CT
0 0.447 0.741 RC
1 LJ
2.667 LW
N
91.005 458.974 M
91.331 458.391 L
91.337 458.391 L
91.999 457.367 L
92.005 457.346 L
92.662 455.305 L
92.667 455.305 L
93.329 452.993 L
93.335 452.993 L
93.965 451.101 L
93.997 451.102 L
94.003 451.078 L
94.665 449.491 L
94.671 449.491 L
95.322 447.779 L
95.333 447.779 L
95.339 447.759 L
95.344 447.76 L
95.996 446.282 L
96.001 446.282 L
96.023 446.282 L
96.663 444.774 L
96.669 444.774 L
96.691 444.774 L
97.331 443.631 L
97.337 443.631 L
97.353 443.631 L
97.999 441.921 L
98.005 441.921 L
98.662 440.652 L
98.667 440.631 L
99.33 439.456 L
99.335 439.456 L
99.998 438.001 L
100.003 438.001 L
100.665 436.322 L
100.671 436.305 L
101.333 435.394 L
101.339 435.394 L
101.996 433.334 L
102.001 433.334 L
102.653 431.816 L
102.664 431.817 L
102.669 431.817 L
103.332 430.23 L
103.337 430.23 L
103.999 428.804 L
104.005 428.784 L
104.021 428.785 L
104.656 427.31 L
104.662 427.31 L
104.667 427.213 L
104.673 427.214 L
105.33 425.554 L
105.335 425.554 L
105.998 424.28 L
106.003 424.28 L
106.666 422.598 L
106.671 422.579 L
107.328 421.324 L
107.333 421.324 L
107.382 421.324 L
107.98 420.103 L
107.996 420.103 L
108.001 420.103 L
108.664 418.943 L
108.669 418.943 L
109.321 417.822 L
109.332 417.823 L
109.337 417.824 L
109.989 416.467 L
110 416.468 L
110.005 416.468 L
110.662 414.613 L
110.667 414.613 L
111.33 413.552 L
111.335 413.551 L
111.998 412.065 L
112.003 412.065 L
112.666 410.889 L
112.671 410.889 L
113.328 409.724 L
113.334 409.724 L
113.991 408.306 L
113.996 408.307 L
114.001 408.207 L
114.664 406.947 L
114.669 406.947 L
115.316 405.859 L
115.332 405.859 L
115.337 405.859 L
115.983 404.912 L
116 404.925 L
116.005 404.924 L
116.032 404.93 L
116.662 403.924 L
116.668 403.829 L
117.33 402.311 L
117.336 402.311 L
117.987 400.773 L
117.998 400.773 L
118.003 400.773 L
118.644 399.449 L
118.666 399.449 L
118.671 399.448 L
119.328 398.392 L
119.334 398.392 L
119.996 397.225 L
120.002 397.224 L
120.653 395.725 L
120.664 395.727 L
120.67 395.727 L
121.305 393.985 L
121.332 393.987 L
121.337 393.987 L
122 392.255 L
122.005 392.255 L
122.662 390.516 L
122.668 390.516 L
123.325 389.151 L
123.33 389.151 L
123.336 389.151 L
123.998 388.146 L
124.004 388.126 L
124.666 386.492 L
124.671 386.492 L
125.312 385.111 L
125.328 385.111 L
125.334 385.111 L
125.356 385.112 L
125.969 383.931 L
125.996 383.939 L
126.002 383.939 L
126.664 382.796 L
126.67 382.804 L
127.332 381.446 L
127.338 381.446 L
127.995 380.277 L
128 380.258 L
128.662 379.261 L
128.668 379.262 L
129.33 378.087 L
129.336 378.087 L
129.987 376.699 L
129.998 376.701 L
130.004 376.702 L
130.015 376.702 L
130.666 375.274 L
130.672 375.256 L
131.329 373.83 L
131.334 373.829 L
131.997 372.913 L
132.002 372.913 L
132.664 371.465 L
132.67 371.463 L
133.332 370.26 L
133.338 370.193 L
133.349 370.195 L
133.995 369.118 L
134 369.117 L
134.663 368.2 L
134.668 368.199 L
135.331 366.944 L
135.336 366.944 L
135.998 365.604 L
136.004 365.604 L
136.607 364.413 L
136.666 364.419 L
136.672 364.419 L
137.329 362.966 L
137.334 362.966 L
137.997 362.407 L
138.002 362.407 L
138.665 361.648 L
138.67 361.564 L
139.332 361.026 L
139.338 360.947 L
139.995 359.081 L
140 358.994 L
140.017 358.995 L
140.663 358.198 L
140.668 358.198 L
141.331 357.12 L
141.336 357.104 L
141.347 357.105 L
141.971 356.408 L
141.999 356.408 L
142.004 356.408 L
142.666 355.406 L
142.672 355.323 L
143.329 354.391 L
143.334 354.391 L
143.997 353.28 L
144.002 353.28 L
144.648 351.679 L
144.665 351.68 L
144.67 351.679 L
145.333 350.133 L
145.338 350.116 L
145.995 349.122 L
146 349.042 L
146.652 348.187 L
146.663 348.188 L
146.668 348.121 L
146.69 348.136 L
147.331 347.103 L
147.336 347.102 L
147.999 346.19 L
148.004 346.19 L
148.015 346.191 L
148.667 345.245 L
148.672 345.245 L
148.677 345.246 L
149.329 344.43 L
149.334 344.43 L
149.997 343.87 L
150.002 343.87 L
150.019 343.872 L
150.665 342.889 L
150.67 342.889 L
151.333 341.868 L
151.338 341.789 L
151.995 340.213 L
152.001 340.213 L
152.663 339.566 L
152.669 339.566 L
153.304 338.421 L
153.331 338.423 L
153.336 338.423 L
153.999 337.663 L
154.004 337.662 L
154.037 337.663 L
154.661 336.664 L
154.667 336.663 L
155.329 335.508 L
155.335 335.507 L
155.34 335.516 L
155.997 334.483 L
156.003 334.483 L
156.665 333.156 L
156.67 333.156 L
157.333 332.006 L
157.338 332.006 L
157.99 330.688 L
157.995 330.691 L
158.001 330.677 L
158.663 329.591 L
158.669 329.599 L
159.326 328.862 L
159.331 328.863 L
159.337 328.862 L
159.999 328.037 L
160.004 328.037 L
160.021 328.04 L
160.661 327.359 L
160.667 327.345 L
161.329 326.51 L
161.335 326.508 L
161.997 325.42 L
162.003 325.406 L
162.66 324.722 L
162.665 324.723 L
162.671 324.722 L
163.333 323.976 L
163.338 323.927 L
163.995 323.367 L
164.001 323.354 L
164.663 322.284 L
164.669 322.215 L
165.331 321.255 L
165.337 321.255 L
165.999 320.51 L
166.005 320.51 L
166.662 319.614 L
166.667 319.613 L
167.33 318.555 L
167.335 318.555 L
167.997 317.632 L
168.003 317.632 L
168.665 316.609 L
168.671 316.608 L
169.333 315.392 L
169.339 315.392 L
169.344 315.398 L
169.947 314.542 L
169.996 314.544 L
170.001 314.544 L
170.664 313.63 L
170.669 313.628 L
170.674 313.629 L
171.326 312.309 L
171.331 312.323 L
171.337 312.32 L
171.353 312.324 L
171.999 311.336 L
172.005 311.335 L
172.662 310.299 L
172.667 310.288 L
173.33 309.17 L
173.335 309.102 L
173.998 308.171 L
174.003 308.17 L
174.665 307.364 L
174.671 307.363 L
175.317 305.999 L
175.333 305.999 L
175.339 305.995 L
175.99 305.234 L
175.996 305.234 L
176.001 305.223 L
176.642 304.163 L
176.664 304.165 L
176.669 304.163 L
177.332 303.18 L
177.337 303.179 L
177.359 303.193 L
177.999 302.127 L
178.005 302.127 L
178.662 301.309 L
178.667 301.309 L
179.33 300.589 L
179.335 300.588 L
179.998 300.005 L
180.003 299.954 L
180.666 299.179 L
180.671 299.178 L
180.676 299.193 L
181.328 298.588 L
181.333 298.587 L
181.996 297.52 L
182.001 297.518 L
182.664 296.579 L
182.669 296.579 L
183.332 295.691 L
183.337 295.691 L
184 294.943 L
184.005 294.93 L
184.651 294.127 L
184.662 294.128 L
184.667 294.126 L
185.33 293.093 L
185.335 293.027 L
185.998 292.453 L
186.003 292.453 L
186.66 291.952 L
186.666 291.957 L
186.671 291.905 L
187.328 291.11 L
187.334 291.107 L
187.996 290.104 L
188.002 290.105 L
188.067 290.112 L
188.664 289.291 L
188.669 289.293 L
188.691 289.297 L
189.332 288.701 L
189.337 288.718 L
190 287.979 L
190.005 287.978 L
190.662 287.228 L
190.668 287.224 L
191.325 286.177 L
191.33 286.178 L
191.336 286.178 L
191.998 285.422 L
192.003 285.366 L
192.047 285.375 L
192.666 284.607 L
192.671 284.606 L
193.328 283.726 L
193.334 283.722 L
193.996 282.489 L
194.002 282.489 L
194.664 281.416 L
194.67 281.415 L
194.675 281.423 L
195.332 280.672 L
195.337 280.672 L
196 279.866 L
196.005 279.805 L
196.657 279.109 L
196.662 279.109 L
196.668 279.109 L
197.33 278.004 L
197.336 277.993 L
197.993 276.863 L
197.998 276.864 L
198.004 276.863 L
198.666 276.232 L
198.671 276.231 L
199.329 275.237 L
199.334 275.237 L
199.996 274.475 L
200.002 274.472 L
200.664 273.316 L
200.67 273.316 L
200.675 273.317 L
201.332 272.54 L
201.338 272.54 L
201.37 272.543 L
201.995 271.927 L
202 271.951 L
202.663 271.169 L
202.668 271.168 L
202.684 271.172 L
203.32 270.448 L
203.33 270.448 L
203.336 270.439 L
203.993 269.534 L
203.998 269.537 L
204.004 269.532 L
204.666 268.647 L
204.672 268.644 L
205.329 267.688 L
205.334 267.688 L
205.421 267.711 L
205.991 266.589 L
205.997 266.592 L
206.002 266.541 L
206.018 266.567 L
206.664 265.957 L
206.67 265.952 L
207.332 264.829 L
207.338 264.842 L
207.995 264.294 L
208 264.243 L
208.016 264.251 L
208.663 263.456 L
208.668 263.456 L
209.331 262.701 L
209.336 262.698 L
209.998 261.841 L
210.004 261.84 L
210.634 261.111 L
210.666 261.122 L
210.672 261.122 L
210.677 261.123 L
211.329 260.333 L
211.334 260.332 L
211.997 259.707 L
212.002 259.706 L
212.665 258.99 L
212.67 258.993 L
212.675 258.996 L
213.332 257.511 L
213.338 257.51 L
213.99 256.903 L
213.995 256.912 L
214 256.9 L
214.63 256.246 L
214.663 256.25 L
214.668 256.249 L
214.674 256.253 L
215.331 255.775 L
215.336 255.773 L
215.999 255.106 L
216.004 255.106 L
216.666 254.269 L
216.672 254.269 L
217.329 253.485 L
217.334 253.485 L
217.997 252.961 L
218.002 252.952 L
218.665 252.382 L
218.67 252.388 L
218.681 252.397 L
219.333 251.809 L
219.338 251.809 L
219.354 251.813 L
219.995 251.09 L
220.001 251.086 L
220.663 250.539 L
220.668 250.53 L
221.331 249.646 L
221.336 249.645 L
221.999 248.93 L
222.004 248.929 L
222.667 247.956 L
222.672 247.948 L
222.683 247.95 L
223.329 247.145 L
223.335 247.146 L
223.997 246.46 L
224.002 246.46 L
224.665 245.806 L
224.67 245.806 L
224.708 245.809 L
225.333 244.965 L
225.338 244.956 L
225.995 244.188 L
226.001 244.188 L
226.652 243.352 L
226.663 243.357 L
226.669 243.356 L
227.331 242.607 L
227.336 242.605 L
227.993 241.671 L
227.999 241.675 L
228.004 241.675 L
228.661 240.962 L
228.667 240.954 L
229.329 240.248 L
229.335 240.251 L
229.997 239.369 L
230.003 239.364 L
230.665 238.506 L
230.67 238.461 L
231.333 237.865 L
231.338 237.865 L
231.36 237.865 L
231.995 237.151 L
232.001 237.151 L
232.663 236.625 L
232.669 236.575 L
233.331 236.085 L
233.337 236.088 L
233.999 235.538 L
234.004 235.49 L
234.015 235.506 L
234.662 234.686 L
234.667 234.686 L
235.329 234.017 L
235.335 234.017 L
235.997 233.42 L
236.003 233.42 L
236.665 232.936 L
236.671 232.936 L
237.333 232.311 L
237.339 232.336 L
237.996 231.598 L
238.001 231.597 L
238.028 231.619 L
238.663 231.088 L
238.669 231.081 L
239.331 230.438 L
239.337 230.438 L
239.999 229.835 L
240.005 229.827 L
240.651 229.104 L
240.662 229.105 L
240.667 229.105 L
241.33 228.482 L
241.335 228.478 L
241.997 227.524 L
242.003 227.524 L
242.665 227.044 L
242.671 227.043 L
243.311 226.287 L
243.333 226.287 L
243.339 226.287 L
243.35 226.288 L
243.996 225.808 L
244.001 225.807 L
244.664 225.129 L
244.669 225.127 L
244.707 225.15 L
245.331 224.619 L
245.337 224.616 L
245.999 223.881 L
246.005 223.877 L
246.662 223.066 L
246.667 223.065 L
247.33 222.323 L
247.335 222.323 L
247.998 221.638 L
248.003 221.637 L
248.665 220.84 L
248.671 220.838 L
248.676 220.849 L
249.328 220.157 L
249.333 220.157 L
249.996 219.372 L
250.001 219.371 L
250.664 218.758 L
250.669 218.754 L
250.696 218.757 L
251.326 218.282 L
251.332 218.286 L
251.337 218.284 L
251.999 217.591 L
252.005 217.59 L
252.054 217.621 L
252.662 216.802 L
252.667 216.822 L
252.689 216.841 L
253.319 216.465 L
253.33 216.467 L
253.335 216.47 L
253.998 216.02 L
254.003 216.019 L
254.666 215.362 L
254.671 215.361 L
255.328 214.816 L
255.334 214.811 L
255.996 213.847 L
256.001 213.846 L
256.664 213.444 L
256.669 213.443 L
257.326 212.973 L
257.332 212.977 L
257.337 212.981 L
257.353 212.987 L
258 212.116 L
258.005 212.115 L
258.662 210.991 L
258.668 210.998 L
258.695 211 L
259.308 210.434 L
259.33 210.434 L
259.335 210.433 L
259.998 209.931 L
260.003 209.93 L
260.666 209.313 L
260.671 209.307 L
261.328 208.912 L
261.334 208.911 L
261.345 208.913 L
261.996 208.365 L
262.002 208.359 L
262.659 207.791 L
262.664 207.795 L
262.669 207.795 L
263.326 207.057 L
263.332 207.062 L
263.337 207.055 L
263.343 207.06 L
264 206.18 L
264.005 206.18 L
264.032 206.185 L
264.662 205.705 L
264.668 205.704 L
265.33 205.097 L
265.336 205.097 L
265.482 205.121 L
265.998 204.613 L
266.003 204.613 L
266.666 204.156 L
266.671 204.15 L
267.328 203.697 L
267.334 203.694 L
267.996 203.116 L
268.002 203.109 L
268.007 203.113 L
268.664 202.372 L
268.67 202.369 L
269.332 201.537 L
269.337 201.536 L
269.995 200.948 L
270 200.959 L
270.005 200.922 L
270.662 200.303 L
270.668 200.272 L
270.717 200.275 L
271.33 199.628 L
271.336 199.628 L
271.998 199.019 L
272.004 199.018 L
272.666 198.532 L
272.672 198.532 L
272.688 198.535 L
273.323 197.945 L
273.329 197.947 L
273.334 197.946 L
273.996 197.234 L
274.002 197.234 L
274.013 197.234 L
274.664 196.513 L
274.67 196.513 L
275.332 195.877 L
275.338 195.869 L
275.343 195.877 L
275.995 195.128 L
276 195.128 L
276.652 194.595 L
276.663 194.609 L
276.668 194.602 L
276.673 194.61 L
277.33 193.981 L
277.336 193.98 L
277.998 193.512 L
278.004 193.515 L
278.666 192.873 L
278.672 192.868 L
279.329 192.28 L
279.334 192.279 L
279.997 191.708 L
280.002 191.707 L
280.654 191.16 L
280.664 191.161 L
280.67 191.161 L
281.332 190.746 L
281.338 190.744 L
281.995 190.283 L
282 190.277 L
282.044 190.301 L
282.663 189.813 L
282.668 189.813 L
282.674 189.814 L
283.331 188.877 L
283.336 188.877 L
283.45 188.895 L
283.999 188.424 L
284.004 188.424 L
284.639 187.973 L
284.666 187.979 L
284.672 187.979 L
285.307 187.338 L
285.329 187.34 L
285.334 187.34 L
285.85 186.819 L
285.997 186.82 L
286.002 186.821 L
286.654 186.386 L
286.665 186.386 L
286.67 186.392 L
287.333 185.791 L
287.338 185.781 L
287.995 185.453 L
288 185.465 L
288.663 184.926 L
288.668 184.925 L
288.706 184.927 L
289.331 184.494 L
289.336 184.494 L
289.999 183.774 L
290.004 183.793 L
290.65 183.305 L
290.667 183.316 L
290.672 183.316 L
290.705 183.338 L
291.329 183.046 L
291.334 183.046 L
291.372 183.09 L
291.997 182.476 L
292.002 182.471 L
292.051 182.49 L
292.665 181.916 L
292.67 181.915 L
293.327 181.432 L
293.333 181.467 L
293.338 181.432 L
293.952 181.049 L
293.995 181.054 L
294.001 181.053 L
294.663 180.608 L
294.668 180.626 L
295.293 180.152 L
295.331 180.157 L
295.336 180.157 L
295.342 180.157 L
295.955 179.646 L
295.999 179.646 L
296.004 179.645 L
296.661 179.189 L
296.667 179.183 L
297.329 178.497 L
297.335 178.497 L
297.997 178.017 L
298.002 178.017 L
298.008 178.024 L
298.665 177.391 L
298.67 177.391 L
299.333 176.955 L
299.338 176.954 L
299.995 176.183 L
300.001 176.183 L
300.647 175.562 L
300.663 175.582 L
300.669 175.582 L
301.331 175.376 L
301.336 175.372 L
301.999 174.832 L
302.004 174.824 L
302.01 174.826 L
302.661 174.327 L
302.667 174.326 L
303.329 173.846 L
303.335 173.84 L
303.997 173.102 L
304.003 173.102 L
304.008 173.103 L
304.665 172.435 L
304.671 172.433 L
304.681 172.436 L
305.333 171.972 L
305.338 171.971 L
305.995 171.508 L
306.001 171.504 L
306.663 170.987 L
306.669 170.986 L
307.331 170.475 L
307.337 170.492 L
307.999 169.884 L
308.005 169.884 L
308.662 169.425 L
308.667 169.422 L
309.329 169.006 L
309.335 169.006 L
309.997 168.518 L
310.003 168.517 L
310.665 168.002 L
310.671 168 L
311.333 167.606 L
311.339 167.605 L
311.968 167.155 L
311.996 167.163 L
312.001 167.136 L
312.663 166.363 L
312.669 166.36 L
313.331 165.977 L
313.337 165.977 L
313.999 165.359 L
314.005 165.359 L
314.662 164.932 L
314.667 164.933 L
315.33 164.579 L
315.335 164.579 L
315.997 164.18 L
316.003 164.176 L
316.66 163.563 L
316.665 163.573 L
316.671 163.544 L
316.676 163.554 L
317.333 163.005 L
317.339 163.004 L
317.996 162.589 L
318.001 162.588 L
318.664 162.11 L
318.669 162.104 L
318.68 162.105 L
319.332 161.703 L
319.337 161.703 L
319.999 161.291 L
320.005 161.291 L
320.016 161.292 L
320.651 160.757 L
320.662 160.762 L
320.667 160.755 L
320.705 160.768 L
321.33 160.144 L
321.335 160.148 L
321.449 160.149 L
321.998 159.405 L
322.003 159.405 L
322.008 159.406 L
322.622 158.971 L
322.666 158.984 L
322.671 158.982 L
322.682 158.998 L
323.328 158.465 L
323.333 158.464 L
323.996 157.902 L
324.001 157.882 L
324.664 157.466 L
324.669 157.466 L
325.332 156.905 L
325.337 156.904 L
326 156.307 L
326.005 156.306 L
326.662 155.967 L
326.667 155.928 L
326.684 155.933 L
327.33 155.441 L
327.335 155.441 L
327.987 155.104 L
327.998 155.122 L
328.003 155.124 L
328.639 154.561 L
328.666 154.568 L
328.671 154.567 L
329.328 154 L
329.334 153.999 L
329.98 153.602 L
329.996 153.623 L
330.001 153.613 L
330.664 153.121 L
330.669 153.121 L
330.675 153.124 L
331.261 152.661 L
331.332 152.669 L
331.337 152.669 L
331.364 152.674 L
331.989 152.197 L
332 152.199 L
332.005 152.198 L
332.662 151.761 L
332.668 151.76 L
332.678 151.766 L
333.33 151.271 L
333.335 151.27 L
333.998 150.818 L
334.003 150.82 L
334.666 150.241 L
334.671 150.24 L
334.682 150.246 L
335.328 149.862 L
335.334 149.861 L
335.996 149.508 L
336.002 149.506 L
336.664 149.203 L
336.669 149.202 L
337.332 148.846 L
337.337 148.846 L
337.343 148.847 L
337.989 148.524 L
338 148.524 L
338.005 148.524 L
338.662 148.089 L
338.668 148.09 L
338.673 148.096 L
339.33 147.764 L
339.336 147.761 L
339.938 147.171 L
339.998 147.204 L
340.004 147.203 L
340.666 146.808 L
340.671 146.791 L
340.677 146.792 L
341.328 146.21 L
341.334 146.212 L
341.35 146.219 L
341.996 145.841 L
342.002 145.837 L
342.664 145.344 L
342.67 145.339 L
343.332 145.032 L
343.338 145.026 L
344 144.55 L
344.005 144.55 L
344.043 144.572 L
344.662 144.128 L
344.668 144.127 L
345.33 143.546 L
345.336 143.531 L
345.998 143.23 L
346.004 143.23 L
346.606 142.81 L
346.666 142.822 L
346.672 142.821 L
347.329 142.451 L
347.334 142.451 L
347.383 142.471 L
347.98 142.078 L
347.996 142.081 L
348.002 142.076 L
348.024 142.09 L
348.659 141.547 L
348.664 141.548 L
348.67 141.545 L
348.681 141.548 L
349.332 140.945 L
349.338 140.94 L
349.973 140.52 L
349.995 140.534 L
350 140.534 L
350.663 140.214 L
350.668 140.214 L
351.33 139.622 L
351.336 139.618 L
351.445 139.625 L
351.993 139.308 L
351.998 139.311 L
352.004 139.311 L
352.031 139.347 L
352.666 138.866 L
352.672 138.82 L
352.699 138.831 L
353.285 138.456 L
353.329 138.456 L
353.334 138.454 L
353.997 138.076 L
354.002 138.076 L
354.007 138.08 L
354.665 137.686 L
354.67 137.686 L
355.332 137.144 L
355.338 137.136 L
355.343 137.146 L
355.989 136.687 L
355.995 136.691 L
356 136.691 L
356.663 136.239 L
356.668 136.239 L
357.331 135.832 L
357.336 135.827 L
357.396 135.853 L
357.999 135.537 L
358.004 135.537 L
358.666 135.165 L
358.672 135.159 L
359.329 134.881 L
359.334 134.875 L
359.997 134.383 L
360.002 134.383 L
360.659 133.998 L
360.665 133.998 L
360.67 133.999 L
360.692 134.014 L
361.333 133.529 L
361.338 133.528 L
361.995 133.177 L
362 133.159 L
362.663 132.789 L
362.668 132.789 L
363.276 132.471 L
363.331 132.475 L
363.336 132.44 L
363.347 132.441 L
363.999 132.142 L
364.004 132.141 L
364.667 131.821 L
364.672 131.814 L
364.677 131.814 L
365.329 131.512 L
365.334 131.51 L
365.34 131.542 L
365.997 131.076 L
366.002 131.072 L
366.008 131.072 L
366.665 130.765 L
366.67 130.765 L
366.687 130.772 L
367.333 130.395 L
367.338 130.398 L
367.349 130.401 L
367.995 129.943 L
368.001 129.936 L
368.663 129.461 L
368.668 129.461 L
369.331 129.123 L
369.336 129.081 L
369.999 128.699 L
370.004 128.695 L
370.661 128.373 L
370.667 128.373 L
370.672 128.375 L
371.329 128.035 L
371.335 128.034 L
371.997 127.645 L
372.003 127.645 L
372.665 127.168 L
372.67 127.167 L
373.327 126.884 L
373.333 126.924 L
373.338 126.896 L
373.995 126.461 L
374.001 126.476 L
374.663 126.073 L
374.669 126.073 L
374.674 126.073 L
375.331 125.726 L
375.337 125.726 L
375.999 125.293 L
376.004 125.291 L
376.037 125.292 L
376.661 125.004 L
376.667 125.025 L
377.329 124.599 L
377.335 124.598 L
377.997 124.07 L
378.003 124.067 L
378.643 123.556 L
378.665 123.556 L
378.671 123.554 L
378.801 123.577 L
379.333 123.24 L
379.338 123.239 L
379.979 122.856 L
379.995 122.857 L
380.001 122.857 L
380.663 122.366 L
380.669 122.365 L
381.331 122.052 L
381.337 122.052 L
381.994 121.696 L
381.999 121.698 L
382.005 121.686 L
382.01 121.689 L
382.662 121.375 L
382.667 121.375 L
383.329 121.12 L
383.335 121.119 L
383.997 120.774 L
384.003 120.774 L
384.665 120.484 L
384.671 120.483 L
384.747 120.515 L
385.333 120.298 L
385.339 120.29 L
385.979 119.91 L
385.996 119.914 L
386.001 119.91 L
386.647 119.497 L
386.664 119.5 L
386.669 119.5 L
387.331 119.33 L
387.337 119.337 L
387.999 119.003 L
388.005 119.003 L
388.662 118.715 L
388.667 118.711 L
389.324 118.197 L
389.33 118.2 L
389.335 118.187 L
389.998 117.89 L
390.003 117.881 L
390.665 117.643 L
390.671 117.64 L
390.785 117.652 L
391.333 117.485 L
391.339 117.484 L
391.35 117.487 L
391.99 117.222 L
391.996 117.222 L
392.001 117.222 L
392.664 116.955 L
392.669 116.952 L
393.321 116.636 L
393.332 116.639 L
393.337 116.638 L
393.972 116.21 L
393.999 116.211 L
394.005 116.21 L
394.662 115.843 L
394.667 115.839 L
395.33 115.575 L
395.335 115.569 L
395.987 115.213 L
395.998 115.218 L
396.003 115.217 L
396.03 115.219 L
396.66 114.903 L
396.666 114.904 L
396.671 114.881 L
397.317 114.548 L
397.328 114.566 L
397.333 114.554 L
397.996 114.192 L
398.001 114.19 L
398.007 114.212 L
398.664 113.793 L
398.669 113.791 L
399.332 113.353 L
399.337 113.332 L
400 112.992 L
400.005 112.991 L
400.662 112.778 L
400.667 112.777 L
401.33 112.303 L
401.335 112.3 L
401.998 111.849 L
402.003 111.848 L
402.601 111.411 L
402.666 111.416 L
402.671 111.415 L
403.328 110.966 L
403.334 110.965 L
403.996 110.714 L
404.001 110.711 L
404.653 110.438 L
404.664 110.441 L
404.669 110.437 L
405.332 109.988 L
405.337 109.982 L
405.348 109.987 L
406 109.623 L
406.005 109.625 L
406.027 109.629 L
406.662 109.376 L
406.668 109.375 L
406.689 109.379 L
407.33 108.952 L
407.336 108.948 L
407.352 108.977 L
407.998 108.53 L
408.003 108.527 L
408.666 108.239 L
408.671 108.238 L
409.328 107.878 L
409.334 107.877 L
409.35 107.888 L
409.996 107.482 L
410.002 107.482 L
410.664 107.154 L
410.67 107.151 L
410.691 107.168 L
411.332 106.771 L
411.337 106.771 L
412 106.471 L
412.005 106.467 L
412.662 106.194 L
412.668 106.195 L
413.33 105.911 L
413.336 105.905 L
413.352 105.912 L
413.993 105.564 L
413.998 105.57 L
414.004 105.566 L
414.02 105.572 L
414.666 105.227 L
414.671 105.227 L
415.328 105.047 L
415.334 105.04 L
415.339 105.041 L
415.996 104.703 L
416.002 104.699 L
416.664 104.397 L
416.67 104.397 L
416.691 104.408 L
417.332 104.107 L
417.338 104.108 L
417.381 104.12 L
417.995 103.825 L
418 103.825 L
418.662 103.455 L
418.668 103.455 L
418.706 103.461 L
419.33 103.158 L
419.336 103.19 L
419.39 103.192 L
419.993 102.832 L
419.998 102.845 L
420.004 102.838 L
420.009 102.851 L
420.666 102.628 L
420.672 102.629 L
421.329 102.212 L
421.334 102.211 L
421.399 102.214 L
421.997 101.963 L
422.002 101.96 L
422.616 101.657 L
422.664 101.661 L
422.67 101.66 L
422.708 101.674 L
423.321 101.528 L
423.332 101.532 L
423.338 101.527 L
423.381 101.533 L
423.995 101.183 L
424 101.181 L
424.006 101.204 L
424.625 100.955 L
424.663 100.957 L
424.668 100.957 L
425.331 100.493 L
425.336 100.493 L
425.407 100.497 L
425.998 100.153 L
426.004 100.152 L
426.666 99.751 L
426.672 99.75 L
427.329 99.602 L
427.334 99.602 L
427.361 99.602 L
427.997 99.312 L
428.002 99.313 L
428.035 99.329 L
428.665 99.123 L
428.67 99.123 L
429.332 98.904 L
429.338 98.903 L
429.995 98.545 L
430 98.525 L
430.006 98.538 L
430.663 98.246 L
430.668 98.245 L
431.331 97.835 L
431.336 97.813 L
431.483 97.819 L
431.999 97.482 L
432.004 97.482 L
432.666 97.038 L
432.672 97.037 L
433.329 96.811 L
433.334 96.81 L
433.959 96.574 L
433.997 96.597 L
434.002 96.597 L
434.643 96.3 L
434.665 96.309 L
434.67 96.307 L
434.686 96.308 L
435.316 95.917 L
435.333 95.92 L
435.338 95.919 L
435.995 95.561 L
436 95.561 L
436.663 95.27 L
436.668 95.27 L
436.679 95.271 L
437.331 95.006 L
437.336 95.007 L
437.363 95.016 L
437.923 94.821 L
437.999 94.859 L
438.004 94.839 L
438.667 94.521 L
438.672 94.515 L
438.71 94.534 L
439.215 94.226 L
439.329 94.23 L
439.335 94.233 L
439.997 93.928 L
440.002 93.928 L
440.008 93.933 L
440.611 93.664 L
440.665 93.668 L
440.67 93.668 L
440.676 93.675 L
441.333 93.355 L
441.338 93.354 L
441.995 93 L
442.001 93.001 L
442.012 93.002 L
442.663 92.623 L
442.669 92.622 L
442.717 92.629 L
443.326 92.352 L
443.331 92.352 L
443.336 92.352 L
443.385 92.363 L
443.939 92.144 L
443.999 92.145 L
444.004 92.143 L
444.015 92.187 L
444.661 91.915 L
444.667 91.915 L
445.329 91.61 L
445.335 91.609 L
445.997 91.319 L
446.003 91.319 L
446.665 91.123 L
446.67 91.12 L
446.741 91.131 L
447.333 90.844 L
447.338 90.844 L
447.36 90.848 L
447.995 90.691 L
448.001 90.691 L
448.012 90.701 L
448.663 90.422 L
448.669 90.423 L
448.718 90.448 L
449.326 90.173 L
449.331 90.174 L
449.337 90.173 L
449.668 90.187 L
449.999 89.97 L
450.004 89.969 L
450.623 89.816 L
450.661 89.836 L
450.667 89.836 L
451.329 89.555 L
451.335 89.556 L
451.997 89.244 L
452.003 89.243 L
452.665 88.935 L
452.671 88.935 L
453.214 88.737 L
453.333 88.737 L
453.338 88.737 L
453.55 88.749 L
453.99 88.547 L
453.996 88.548 L
454.001 88.546 L
454.017 88.588 L
454.642 88.258 L
454.663 88.273 L
454.669 88.272 L
455.326 88.016 L
455.331 88.019 L
455.337 88.019 L
455.999 87.762 L
456.005 87.762 L
456.656 87.477 L
456.662 87.477 L
456.667 87.48 L
456.857 87.487 L
457.319 87.373 L
457.33 87.392 L
457.335 87.389 L
457.34 87.389 L
457.927 87.22 L
457.997 87.223 L
458.003 87.222 L
458.665 87.063 L
458.671 87.059 L
459.333 86.799 L
459.339 86.798 L
459.349 86.801 L
459.952 86.596 L
459.996 86.619 L
460.001 86.619 L
460.023 86.646 L
460.664 86.432 L
460.669 86.429 L
461.331 86.163 L
461.337 86.164 L
461.999 85.801 L
462.005 85.805 L
462.662 85.524 L
462.667 85.523 L
462.738 85.551 L
463.33 85.302 L
463.335 85.302 L
463.341 85.312 L
463.998 85.097 L
464.003 85.094 L
464.665 84.848 L
464.671 84.847 L
465.284 84.69 L
465.328 84.728 L
465.333 84.731 L
465.355 84.732 L
465.98 84.571 L
465.996 84.571 L
466.001 84.567 L
466.647 84.382 L
466.664 84.412 L
466.669 84.391 L
467.332 84.073 L
467.337 84.073 L
467.999 83.797 L
468.005 83.797 L
468.021 83.814 L
468.662 83.502 L
468.667 83.5 L
469.33 83.231 L
469.335 83.231 L
469.96 83.001 L
469.998 83.004 L
470.003 83.001 L
470.307 83.001 L
470.666 82.759 L
470.671 82.759 L
471.209 82.571 L
471.328 82.596 L
471.333 82.595 L
471.518 82.612 L
471.996 82.389 L
472.001 82.351 L
472.039 82.37 L
472.664 82.217 L
472.669 82.214 L
472.707 82.215 L
473.288 81.971 L
473.332 81.974 L
473.337 81.973 L
473.397 81.981 L
474 81.646 L
474.005 81.648 L
474.662 81.45 L
474.668 81.452 L
474.711 81.453 L
475.325 81.181 L
475.33 81.195 L
475.335 81.175 L
475.411 81.189 L
475.998 80.978 L
476.003 80.979 L
476.068 80.98 L
476.666 80.842 L
476.671 80.841 L
476.704 80.844 L
477.23 80.691 L
477.328 80.71 L
477.334 80.707 L
477.35 80.713 L
477.996 80.518 L
478.002 80.519 L
478.382 80.295 L
478.664 80.295 L
478.669 80.301 L
479.321 80.06 L
479.332 80.085 L
479.337 80.077 L
479.397 80.096 L
480 79.836 L
480.005 79.835 L
480.662 79.525 L
480.668 79.523 L
480.695 79.561 L
481.27 79.344 L
481.33 79.345 L
481.336 79.345 L
481.439 79.365 L
481.998 79.14 L
482.003 79.125 L
482.66 78.832 L
482.666 78.838 L
482.671 78.832 L
482.677 78.843 L
483.301 78.739 L
483.328 78.741 L
483.334 78.741 L
483.996 78.334 L
484.002 78.329 L
484.083 78.352 L
484.664 78.016 L
484.67 78.015 L
484.675 78.016 L
485.321 77.763 L
485.332 77.767 L
485.337 77.764 L
485.348 77.764 L
486 77.578 L
486.005 77.573 L
486.054 77.581 L
486.635 77.426 L
486.662 77.43 L
486.668 77.429 L
486.695 77.435 L
487.298 77.26 L
487.33 77.349 L
487.336 77.341 L
487.341 77.354 L
487.998 77.033 L
488.004 77.033 L
488.666 76.781 L
488.671 76.779 L
488.813 76.802 L
489.329 76.648 L
489.334 76.646 L
489.356 76.648 L
489.986 76.383 L
489.996 76.385 L
490.002 76.391 L
490.056 76.406 L
490.664 76.226 L
490.67 76.207 L
491.3 75.875 L
491.332 75.889 L
491.338 75.887 L
491.908 75.723 L
491.995 75.735 L
492 75.735 L
492.663 75.464 L
492.668 75.464 L
493.33 75.174 L
493.336 75.174 L
493.406 75.188 L
493.977 74.832 L
493.998 74.833 L
494.004 74.838 L
494.085 74.846 L
494.666 74.601 L
494.672 74.6 L
495.329 74.451 L
495.334 74.449 L
495.426 74.473 L
495.921 74.281 L
495.997 74.289 L
496.002 74.288 L
496.637 74.14 L
496.664 74.141 L
496.67 74.14 L
496.702 74.144 L
497.321 73.975 L
497.332 74.007 L
497.338 74.009 L
497.37 74.03 L
497.995 73.755 L
498 73.754 L
498.663 73.406 L
498.668 73.406 L
499.331 73.239 L
499.336 73.237 L
499.477 73.243 L
499.95 73.009 L
499.998 73.01 L
500.004 73.006 L
500.655 72.842 L
500.666 72.846 L
500.672 72.846 L
500.677 72.849 L
501.313 72.613 L
501.329 72.615 L
501.334 72.616 L
501.492 72.656 L
501.997 72.519 L
502.002 72.518 L
502.084 72.528 L
502.665 72.405 L
502.67 72.405 L
502.724 72.409 L
503.327 72.128 L
503.332 72.129 L
503.338 72.117 L
503.354 72.15 L
503.968 71.938 L
503.995 71.941 L
504 71.939 L
504.109 71.97 L
504.663 71.784 L
504.668 71.785 L
505.325 71.618 L
505.331 71.619 L
505.336 71.615 L
505.999 71.369 L
506.004 71.369 L
506.026 71.394 L
506.661 71.089 L
506.667 71.09 L
506.672 71.088 L
506.694 71.095 L
507.258 70.872 L
507.329 70.874 L
507.334 70.873 L
507.345 70.887 L
507.953 70.75 L
507.997 70.756 L
508.002 70.757 L
508.013 70.759 L
508.665 70.478 L
508.67 70.483 L
509.333 70.189 L
509.338 70.188 L
509.887 70.079 L
509.995 70.117 L
510.001 70.116 L
510.033 70.119 L
510.663 69.945 L
510.668 69.943 L
511.331 69.659 L
511.336 69.658 L
511.456 69.678 L
511.999 69.539 L
512.004 69.539 L
512.01 69.54 L
512.656 69.28 L
512.667 69.287 L
512.672 69.286 L
513.329 69.114 L
513.335 69.113 L
513.601 69.125 L
513.992 69.014 L
513.997 69.019 L
514.002 69.018 L
514.154 69.032 L
514.638 68.839 L
514.665 68.85 L
514.67 68.849 L
514.741 68.858 L
515.273 68.678 L
515.333 68.686 L
515.338 68.686 L
515.42 68.691 L
515.974 68.477 L
515.995 68.49 L
516.001 68.48 L
516.071 68.519 L
516.663 68.258 L
516.669 68.258 L
516.685 68.261 L
517.331 67.975 L
517.336 67.963 L
517.358 67.972 L
517.977 67.83 L
517.999 67.842 L
518.004 67.824 L
518.113 67.878 L
518.661 67.638 L
518.667 67.636 L
518.987 67.651 L
519.329 67.425 L
519.335 67.425 L
519.997 67.27 L
520.003 67.265 L
520.035 67.284 L
520.649 66.97 L
520.665 66.973 L
520.67 66.973 L
520.752 66.983 L
521.333 66.703 L
521.338 66.703 L
521.442 66.727 L
521.985 66.551 L
521.995 66.553 L
522.001 66.55 L
522.033 66.567 L
522.566 66.457 L
522.663 66.491 L
522.669 66.497 L
522.696 66.499 L
523.32 66.226 L
523.331 66.229 L
523.337 66.228 L
523.358 66.237 L
523.988 66.052 L
523.999 66.053 L
524.005 66.049 L
524.01 66.051 L
524.645 65.897 L
524.661 65.898 L
524.667 65.898 L
524.672 65.898 L
525.329 65.755 L
525.335 65.755 L
525.997 65.549 L
526.003 65.548 L
526.665 65.388 L
526.671 65.363 L
526.676 65.363 L
527.333 65.234 L
527.339 65.233 L
527.36 65.24 L
527.996 65.047 L
528.001 65.047 L
528.11 65.053 L
528.663 64.931 L
528.669 64.931 L
528.859 64.933 L
529.32 64.829 L
529.331 64.832 L
529.337 64.83 L
529.994 64.576 L
529.999 64.576 L
530.005 64.537 L
530.651 64.183 L
530.662 64.184 L
530.667 64.162 L
530.743 64.169 L
531.248 64.011 L
531.33 64.012 L
531.335 63.984 L
531.449 63.986 L
531.997 63.743 L
532.003 63.744 L
532.41 63.64 L
532.665 63.681 L
532.671 63.689 L
533.333 63.573 L
533.339 63.57 L
533.931 63.415 L
533.996 63.425 L
534.001 63.425 L
534.012 63.436 L
534.653 63.242 L
534.664 63.247 L
534.669 63.246 L
535.315 63.048 L
535.331 63.053 L
535.337 63.053 L
535.375 63.066 L
535.967 62.834 L
535.999 62.843 L
536.005 62.842 L
536.635 62.647 L
536.662 62.66 L
536.667 62.66 L
536.841 62.667 L
537.265 62.482 L
537.33 62.486 L
537.335 62.485 L
537.389 62.494 L
537.916 62.304 L
537.998 62.305 L
538.003 62.307 L
538.144 62.313 L
538.589 62.132 L
538.665 62.135 L
538.671 62.135 L
539.035 62.151 L
539.328 61.892 L
539.333 61.892 L
539.371 61.944 L
539.963 61.722 L
539.996 61.724 L
540.001 61.723 L
540.62 61.606 L
540.664 61.61 L
540.669 61.61 L
541.31 61.387 L
541.332 61.387 L
541.337 61.387 L
541.342 61.387 L
541.994 61.205 L
542 61.209 L
542.005 61.198 L
542.108 61.207 L
542.657 61.009 L
542.662 61.009 L
542.667 61.008 L
542.673 61.013 L
543.33 60.832 L
543.335 60.832 L
543.352 60.837 L
543.992 60.688 L
543.998 60.689 L
544.003 60.69 L
544.649 60.435 L
544.666 60.436 L
544.671 60.435 L
544.677 60.44 L
545.328 60.232 L
545.334 60.232 L
545.404 60.28 L
545.953 60.198 L
545.996 60.213 L
546.001 60.2 L
546.029 60.225 L
546.62 60.087 L
546.664 60.099 L
546.669 60.096 L
546.675 60.105 L
547.321 59.983 L
547.332 59.99 L
547.337 59.987 L
547.359 59.998 L
547.907 59.924 L
548 59.936 L
548.005 59.934 L
548.021 59.94 L
548.635 59.835 L
548.662 59.844 L
548.668 59.845 L
548.678 59.846 L
549.27 59.719 L
549.33 59.721 L
549.335 59.721 L
549.84 59.569 L
549.998 59.594 L
550.003 59.561 L
550.03 59.599 L
550.644 59.365 L
550.666 59.384 L
550.671 59.385 L
550.709 59.401 L
551.323 59.196 L
551.328 59.197 L
551.334 59.196 L
551.464 59.202 L
551.991 58.982 L
551.996 58.983 L
552.002 58.979 L
552.007 58.98 L
552.637 58.768 L
552.664 58.771 L
552.669 58.772 L
553.223 58.564 L
553.332 58.578 L
553.337 58.578 L
553.973 58.379 L
554 58.38 L
554.005 58.38 L
554.011 58.389 L
554.624 58.233 L
554.662 58.235 L
554.668 58.235 L
554.879 58.261 L
555.33 58.161 L
555.336 58.159 L
555.422 58.194 L
555.96 58.036 L
555.998 58.04 L
556.003 58.036 L
556.666 57.906 L
556.671 57.905 L
556.715 57.911 L
557.323 57.71 L
557.328 57.711 L
557.334 57.706 L
557.399 57.714 L
557.833 57.562 L
557.996 57.569 L
558.002 57.566 L
558.648 57.301 L
558.664 57.31 L
558.67 57.31 L
558.816 57.316 L
559.321 57.143 L
559.332 57.143 L
559.338 57.141 L
559.414 57.179 L
560 56.864 L
560.005 56.863 L
560.033 56.867 L
560.51 56.721 L
560.662 56.739 L
560.668 56.738 L
561.33 56.526 L
561.336 56.526 L
561.998 56.212 L
562.004 56.211 L
562.058 56.226 L
562.666 56.078 L
562.672 56.078 L
562.715 56.081 L
563.128 55.975 L
563.329 55.976 L
563.334 55.968 L
563.562 55.969 L
563.904 55.899 L
563.996 55.901 L
564.002 55.894 L
564.664 55.702 L
564.67 55.7 L
565.332 55.557 L
565.338 55.557 L
565.951 55.324 L
565.995 55.349 L
566 55.344 L
566.006 55.351 L
566.657 55.038 L
566.663 55.038 L
566.668 55.043 L
566.673 55.043 L
567.33 54.798 L
567.336 54.797 L
567.368 54.821 L
567.987 54.701 L
567.998 54.702 L
568.004 54.701 L
568.661 54.523 L
568.666 54.534 L
568.672 54.529 L
569.329 54.336 L
569.334 54.336 L
569.568 54.338 L
569.997 54.215 L
570.002 54.219 L
570.664 54.105 L
570.67 54.105 L
570.903 54.12 L
571.273 53.951 L
571.332 53.964 L
571.338 53.964 L
571.441 53.993 L
571.995 53.857 L
572 53.856 L
572.12 53.867 L
572.663 53.694 L
572.668 53.694 L
572.706 53.703 L
573.141 53.553 L
573.331 53.554 L
573.336 53.552 L
573.982 53.357 L
573.998 53.362 L
574.004 53.362 L
574.123 53.377 L
574.666 53.243 L
574.672 53.284 L
574.683 53.305 L
575.323 53.027 L
575.329 53.028 L
575.334 53.025 L
575.345 53.058 L
575.801 52.936 L
575.997 52.967 L
576.002 52.963 L
576.127 52.971 L
576.648 52.8 L
576.665 52.8 L
576.67 52.796 L
577.197 52.628 L
577.333 52.637 L
577.338 52.66 L
577.99 52.558 L
577.995 52.568 L
578 52.567 L
578.56 52.361 L
578.663 52.373 L
578.668 52.37 L
579.331 52.241 L
579.336 52.24 L
579.445 52.194 L
579.765 52.312 L
579.999 52.224 L
580.004 52.224 L
580.01 52.224 L
580.591 52.106 L
580.667 52.121 L
580.672 52.127 L
580.759 52.142 L
581.226 52.057 L
581.329 52.065 L
581.334 52.064 L
581.606 51.996 L
581.997 52.045 L
582.002 52.045 L
582.029 52.047 L
582.589 51.931 L
582.665 51.934 L
582.67 51.936 L
583.262 51.799 L
583.333 51.801 L
583.338 51.802 L
583.376 51.806 L
583.995 51.56 L
584.001 51.56 L
584.006 51.568 L
584.554 51.508 L
584.663 51.526 L
584.668 51.527 L
584.696 51.569 L
585.141 51.437 L
585.331 51.445 L
585.336 51.445 L
585.353 51.45 L
585.841 51.355 L
585.999 51.377 L
586.004 51.376 L
586.102 51.385 L
586.661 51.267 L
586.667 51.266 L
587.329 50.915 L
587.335 50.913 L
587.704 50.871 L
587.997 50.897 L
588.002 50.901 L
588.013 50.902 L
588.605 50.744 L
588.665 50.749 L
588.67 50.749 L
589.333 50.556 L
589.338 50.556 L
589.365 50.574 L
589.995 50.437 L
590.001 50.438 L
590.098 50.48 L
590.663 50.339 L
590.669 50.338 L
591.174 50.202 L
591.331 50.21 L
591.336 50.209 L
591.342 50.21 L
591.999 50.106 L
592.004 50.105 L
592.14 50.123 L
592.591 50.045 L
592.661 50.07 L
592.667 50.066 L
592.683 50.083 L
593.329 49.935 L
593.335 49.946 L
593.992 49.686 L
593.997 49.688 L
594.003 49.687 L
594.1 49.727 L
594.633 49.669 L
594.665 49.673 L
594.671 49.673 L
594.833 49.712 L
595.333 49.536 L
595.338 49.541 L
595.366 49.581 L
595.61 49.496 L
595.995 49.519 L
596.001 49.519 L
596.191 49.553 L
596.663 49.37 L
596.669 49.365 L
597.027 49.411 L
597.331 49.319 L
597.337 49.319 L
597.907 49.181 L
597.999 49.209 L
598.005 49.208 L
598.07 49.24 L
598.662 49.132 L
598.667 49.132 L
599.319 48.993 L
599.329 48.993 L
599.335 48.993 L
599.965 48.899 L
599.997 48.903 L
600.003 48.867 L
600.491 48.889 L
600.595 48.828 L
600.665 48.836 L
600.671 48.837 L
601.295 48.583 L
601.333 48.615 L
601.339 48.614 L
601.92 48.475 L
601.996 48.477 L
602.001 48.475 L
602.148 48.521 L
602.539 48.403 L
602.663 48.411 L
602.669 48.408 L
602.685 48.473 L
603.331 48.27 L
603.337 48.266 L
603.483 48.298 L
603.988 48.214 L
603.999 48.215 L
604.005 48.212 L
604.043 48.235 L
604.662 48.025 L
604.667 48.024 L
604.678 48.037 L
605.324 47.947 L
605.33 47.948 L
605.335 47.911 L
605.4 47.923 L
605.997 47.747 L
606.003 47.746 L
606.014 47.753 L
606.66 47.64 L
606.665 47.64 L
606.671 47.64 L
606.703 47.646 L
607.333 47.542 L
607.339 47.542 L
607.366 47.544 L
607.941 47.437 L
607.996 47.465 L
608.001 47.486 L
608.039 47.486 L
608.664 47.323 L
608.669 47.322 L
608.957 47.357 L
609.304 47.287 L
609.331 47.288 L
609.337 47.287 L
609.44 47.31 L
609.923 47.181 L
609.999 47.185 L
610.005 47.185 L
610.602 47.005 L
610.662 47.012 L
610.667 47.009 L
610.727 47.025 L
611.216 46.84 L
611.33 46.847 L
611.335 46.85 L
611.368 46.89 L
611.965 46.75 L
611.998 46.753 L
612.003 46.753 L
612.579 46.573 L
612.666 46.599 L
612.671 46.596 L
612.704 46.56 L
612.856 46.624 L
613.328 46.589 L
613.333 46.589 L
613.35 46.598 L
613.79 46.535 L
613.996 46.549 L
614.001 46.547 L
614.664 46.442 L
614.669 46.441 L
615.332 46.276 L
615.337 46.276 L
615.424 46.299 L
615.913 46.046 L
616 46.067 L
616.005 46.067 L
616.657 45.938 L
616.662 45.971 L
616.667 45.95 L
616.722 45.954 L
617.01 45.868 L
617.33 45.897 L
617.335 45.897 L
617.493 45.939 L
617.933 45.841 L
617.998 45.849 L
618.003 45.848 L
618.112 45.914 L
618.568 45.816 L
618.666 45.853 L
618.671 45.853 L
618.785 45.858 L
619.328 45.592 L
619.334 45.59 L
619.41 45.612 L
619.866 45.434 L
619.996 45.519 L
620.001 45.497 L
620.126 45.506 L
620.604 45.304 L
620.664 45.322 L
620.669 45.323 L
620.675 45.341 L
620.957 45.195 L
621.332 45.208 L
621.337 45.207 L
621.354 45.226 L
622 45.098 L
622.005 45.097 L
622.336 45.164 L
622.646 45.027 L
622.662 45.027 L
622.668 45.026 L
623.33 44.906 L
623.336 44.905 L
623.357 44.925 L
623.998 44.809 L
624.003 44.809 L
624.666 44.726 L
624.671 44.722 L
624.72 44.733 L
625.307 44.556 L
625.328 44.557 L
625.334 44.563 L
625.909 44.44 L
625.996 44.473 L
626.002 44.473 L
626.007 44.474 L
626.626 44.223 L
626.664 44.226 L
626.669 44.225 L
626.963 44.229 L
627.191 44.124 L
627.332 44.226 L
627.337 44.211 L
627.984 44.086 L
628 44.087 L
628.005 44.086 L
628.239 44.097 L
628.608 43.957 L
628.662 43.973 L
628.668 43.972 L
628.727 43.985 L
629.325 43.796 L
629.33 43.797 L
629.336 43.756 L
629.689 43.734 L
629.933 43.831 L
629.998 43.816 L
630.004 43.814 L
630.014 43.822 L
630.65 43.7 L
630.666 43.702 L
630.671 43.702 L
630.704 43.7 L
631.073 43.791 L
631.328 43.734 L
631.334 43.734 L
631.404 43.749 L
631.937 43.657 L
631.996 43.671 L
632.002 43.67 L
632.626 43.329 L
632.664 43.336 L
632.67 43.335 L
633.332 43.214 L
633.338 43.201 L
633.967 43.064 L
633.995 43.072 L
634 43.069 L
S
GR
%%Trailer
%%Pages: 1
%%EOF
