%!PS-Adobe-3.0 EPSF-3.0
%%Creator: (MATLAB, The Mathworks, Inc. Version 9.3.0.713579 \(R2017b\). Operating System: Windows 7)
%%Title: fig/RBFN_2_0,1_100000_convergence.eps
%%CreationDate: 2018-05-06T11:38:07
%%Pages: (atend)
%%BoundingBox:    35     3   483   384
%%LanguageLevel: 3
%%EndComments
%%BeginProlog
%%BeginResource: procset (Apache XML Graphics Std ProcSet) 1.2 0
%%Version: 1.2 0
%%Copyright: (Copyright 2001-2003,2010 The Apache Software Foundation. License terms: http://www.apache.org/licenses/LICENSE-2.0)
/bd{bind def}bind def
/ld{load def}bd
/GR/grestore ld
/GS/gsave ld
/RM/rmoveto ld
/C/curveto ld
/t/show ld
/L/lineto ld
/ML/setmiterlimit ld
/CT/concat ld
/f/fill ld
/N/newpath ld
/S/stroke ld
/CC/setcmykcolor ld
/A/ashow ld
/cp/closepath ld
/RC/setrgbcolor ld
/LJ/setlinejoin ld
/GC/setgray ld
/LW/setlinewidth ld
/M/moveto ld
/re {4 2 roll M
1 index 0 rlineto
0 exch rlineto
neg 0 rlineto
cp } bd
/_ctm matrix def
/_tm matrix def
/BT { _ctm currentmatrix pop matrix _tm copy pop 0 0 moveto } bd
/ET { _ctm setmatrix } bd
/iTm { _ctm setmatrix _tm concat } bd
/Tm { _tm astore pop iTm 0 0 moveto } bd
/ux 0.0 def
/uy 0.0 def
/F {
  /Tp exch def
  /Tf exch def
  Tf findfont Tp scalefont setfont
  /cf Tf def  /cs Tp def
} bd
/ULS {currentpoint /uy exch def /ux exch def} bd
/ULE {
  /Tcx currentpoint pop def
  gsave
  newpath
  cf findfont cs scalefont dup
  /FontMatrix get 0 get /Ts exch def /FontInfo get dup
  /UnderlinePosition get Ts mul /To exch def
  /UnderlineThickness get Ts mul /Tt exch def
  ux uy To add moveto  Tcx uy To add lineto
  Tt setlinewidth stroke
  grestore
} bd
/OLE {
  /Tcx currentpoint pop def
  gsave
  newpath
  cf findfont cs scalefont dup
  /FontMatrix get 0 get /Ts exch def /FontInfo get dup
  /UnderlinePosition get Ts mul /To exch def
  /UnderlineThickness get Ts mul /Tt exch def
  ux uy To add cs add moveto Tcx uy To add cs add lineto
  Tt setlinewidth stroke
  grestore
} bd
/SOE {
  /Tcx currentpoint pop def
  gsave
  newpath
  cf findfont cs scalefont dup
  /FontMatrix get 0 get /Ts exch def /FontInfo get dup
  /UnderlinePosition get Ts mul /To exch def
  /UnderlineThickness get Ts mul /Tt exch def
  ux uy To add cs 10 mul 26 idiv add moveto Tcx uy To add cs 10 mul 26 idiv add lineto
  Tt setlinewidth stroke
  grestore
} bd
/QT {
/Y22 exch store
/X22 exch store
/Y21 exch store
/X21 exch store
currentpoint
/Y21 load 2 mul add 3 div exch
/X21 load 2 mul add 3 div exch
/X21 load 2 mul /X22 load add 3 div
/Y21 load 2 mul /Y22 load add 3 div
/X22 load /Y22 load curveto
} bd
/SSPD {
dup length /d exch dict def
{
/v exch def
/k exch def
currentpagedevice k known {
/cpdv currentpagedevice k get def
v cpdv ne {
/upd false def
/nullv v type /nulltype eq def
/nullcpdv cpdv type /nulltype eq def
nullv nullcpdv or
{
/upd true def
} {
/sametype v type cpdv type eq def
sametype {
v type /arraytype eq {
/vlen v length def
/cpdvlen cpdv length def
vlen cpdvlen eq {
0 1 vlen 1 sub {
/i exch def
/obj v i get def
/cpdobj cpdv i get def
obj cpdobj ne {
/upd true def
exit
} if
} for
} {
/upd true def
} ifelse
} {
v type /dicttype eq {
v {
/dv exch def
/dk exch def
/cpddv cpdv dk get def
dv cpddv ne {
/upd true def
exit
} if
} forall
} {
/upd true def
} ifelse
} ifelse
} if
} ifelse
upd true eq {
d k v put
} if
} if
} if
} forall
d length 0 gt {
d setpagedevice
} if
} bd
/RE { % /NewFontName [NewEncodingArray] /FontName RE -
  findfont dup length dict begin
  {
    1 index /FID ne
    {def} {pop pop} ifelse
  } forall
  /Encoding exch def
  /FontName 1 index def
  currentdict definefont pop
  end
} bind def
%%EndResource
%%BeginResource: procset (Apache XML Graphics EPS ProcSet) 1.0 0
%%Version: 1.0 0
%%Copyright: (Copyright 2002-2003 The Apache Software Foundation. License terms: http://www.apache.org/licenses/LICENSE-2.0)
/BeginEPSF { %def
/b4_Inc_state save def         % Save state for cleanup
/dict_count countdictstack def % Count objects on dict stack
/op_count count 1 sub def      % Count objects on operand stack
userdict begin                 % Push userdict on dict stack
/showpage { } def              % Redefine showpage, { } = null proc
0 setgray 0 setlinecap         % Prepare graphics state
1 setlinewidth 0 setlinejoin
10 setmiterlimit [ ] 0 setdash newpath
/languagelevel where           % If level not equal to 1 then
{pop languagelevel             % set strokeadjust and
1 ne                           % overprint to their defaults.
{false setstrokeadjust false setoverprint
} if
} if
} bd
/EndEPSF { %def
count op_count sub {pop} repeat            % Clean up stacks
countdictstack dict_count sub {end} repeat
b4_Inc_state restore
} bd
%%EndResource
%FOPBeginFontDict
%%IncludeResource: font Courier-Oblique
%%IncludeResource: font Courier-BoldOblique
%%IncludeResource: font Courier-Bold
%%IncludeResource: font ZapfDingbats
%%IncludeResource: font Symbol
%%IncludeResource: font Helvetica
%%IncludeResource: font Helvetica-Oblique
%%IncludeResource: font Helvetica-Bold
%%IncludeResource: font Helvetica-BoldOblique
%%IncludeResource: font Times-Roman
%%IncludeResource: font Times-Italic
%%IncludeResource: font Times-Bold
%%IncludeResource: font Times-BoldItalic
%%IncludeResource: font Courier
%FOPEndFontDict
%%BeginResource: encoding WinAnsiEncoding
/WinAnsiEncoding [
/.notdef /.notdef /.notdef /.notdef /.notdef
/.notdef /.notdef /.notdef /.notdef /.notdef
/.notdef /.notdef /.notdef /.notdef /.notdef
/.notdef /.notdef /.notdef /.notdef /.notdef
/.notdef /.notdef /.notdef /.notdef /.notdef
/.notdef /.notdef /.notdef /.notdef /.notdef
/.notdef /.notdef /space /exclam /quotedbl
/numbersign /dollar /percent /ampersand /quotesingle
/parenleft /parenright /asterisk /plus /comma
/hyphen /period /slash /zero /one
/two /three /four /five /six
/seven /eight /nine /colon /semicolon
/less /equal /greater /question /at
/A /B /C /D /E
/F /G /H /I /J
/K /L /M /N /O
/P /Q /R /S /T
/U /V /W /X /Y
/Z /bracketleft /backslash /bracketright /asciicircum
/underscore /quoteleft /a /b /c
/d /e /f /g /h
/i /j /k /l /m
/n /o /p /q /r
/s /t /u /v /w
/x /y /z /braceleft /bar
/braceright /asciitilde /bullet /Euro /bullet
/quotesinglbase /florin /quotedblbase /ellipsis /dagger
/daggerdbl /circumflex /perthousand /Scaron /guilsinglleft
/OE /bullet /Zcaron /bullet /bullet
/quoteleft /quoteright /quotedblleft /quotedblright /bullet
/endash /emdash /asciitilde /trademark /scaron
/guilsinglright /oe /bullet /zcaron /Ydieresis
/space /exclamdown /cent /sterling /currency
/yen /brokenbar /section /dieresis /copyright
/ordfeminine /guillemotleft /logicalnot /sfthyphen /registered
/macron /degree /plusminus /twosuperior /threesuperior
/acute /mu /paragraph /middot /cedilla
/onesuperior /ordmasculine /guillemotright /onequarter /onehalf
/threequarters /questiondown /Agrave /Aacute /Acircumflex
/Atilde /Adieresis /Aring /AE /Ccedilla
/Egrave /Eacute /Ecircumflex /Edieresis /Igrave
/Iacute /Icircumflex /Idieresis /Eth /Ntilde
/Ograve /Oacute /Ocircumflex /Otilde /Odieresis
/multiply /Oslash /Ugrave /Uacute /Ucircumflex
/Udieresis /Yacute /Thorn /germandbls /agrave
/aacute /acircumflex /atilde /adieresis /aring
/ae /ccedilla /egrave /eacute /ecircumflex
/edieresis /igrave /iacute /icircumflex /idieresis
/eth /ntilde /ograve /oacute /ocircumflex
/otilde /odieresis /divide /oslash /ugrave
/uacute /ucircumflex /udieresis /yacute /thorn
/ydieresis
] def
%%EndResource
%FOPBeginFontReencode
/Courier-Oblique findfont
dup length dict begin
  {1 index /FID ne {def} {pop pop} ifelse} forall
  /Encoding WinAnsiEncoding def
  currentdict
end
/Courier-Oblique exch definefont pop
/Courier-BoldOblique findfont
dup length dict begin
  {1 index /FID ne {def} {pop pop} ifelse} forall
  /Encoding WinAnsiEncoding def
  currentdict
end
/Courier-BoldOblique exch definefont pop
/Courier-Bold findfont
dup length dict begin
  {1 index /FID ne {def} {pop pop} ifelse} forall
  /Encoding WinAnsiEncoding def
  currentdict
end
/Courier-Bold exch definefont pop
/Helvetica findfont
dup length dict begin
  {1 index /FID ne {def} {pop pop} ifelse} forall
  /Encoding WinAnsiEncoding def
  currentdict
end
/Helvetica exch definefont pop
/Helvetica-Oblique findfont
dup length dict begin
  {1 index /FID ne {def} {pop pop} ifelse} forall
  /Encoding WinAnsiEncoding def
  currentdict
end
/Helvetica-Oblique exch definefont pop
/Helvetica-Bold findfont
dup length dict begin
  {1 index /FID ne {def} {pop pop} ifelse} forall
  /Encoding WinAnsiEncoding def
  currentdict
end
/Helvetica-Bold exch definefont pop
/Helvetica-BoldOblique findfont
dup length dict begin
  {1 index /FID ne {def} {pop pop} ifelse} forall
  /Encoding WinAnsiEncoding def
  currentdict
end
/Helvetica-BoldOblique exch definefont pop
/Times-Roman findfont
dup length dict begin
  {1 index /FID ne {def} {pop pop} ifelse} forall
  /Encoding WinAnsiEncoding def
  currentdict
end
/Times-Roman exch definefont pop
/Times-Italic findfont
dup length dict begin
  {1 index /FID ne {def} {pop pop} ifelse} forall
  /Encoding WinAnsiEncoding def
  currentdict
end
/Times-Italic exch definefont pop
/Times-Bold findfont
dup length dict begin
  {1 index /FID ne {def} {pop pop} ifelse} forall
  /Encoding WinAnsiEncoding def
  currentdict
end
/Times-Bold exch definefont pop
/Times-BoldItalic findfont
dup length dict begin
  {1 index /FID ne {def} {pop pop} ifelse} forall
  /Encoding WinAnsiEncoding def
  currentdict
end
/Times-BoldItalic exch definefont pop
/Courier findfont
dup length dict begin
  {1 index /FID ne {def} {pop pop} ifelse} forall
  /Encoding WinAnsiEncoding def
  currentdict
end
/Courier exch definefont pop
%FOPEndFontReencode
%%EndProlog
%%Page: 1 1
%%PageBoundingBox: 0 0 525 394
%%BeginPageSetup
[1 0 0 -1 0 394] CT
%%EndPageSetup
GS
[0.75 0 0 0.74971 0 0.39999] CT
N
0 0 M
700 0 L
700 525 L
0 525 L
0 0 L
cp
clip
1 GC
N
0 0 700 525 re
f
GR
GS
[0.75 0 0 0.74971 0 0.39999] CT
1 GC
N
0 0 700 525 re
f
GR
GS
[0.75 0 0 0.74971 0 0.39999] CT
1 GC
N
91 459 M
634 459 L
634 39 L
91 39 L
cp
f
GR
GS
[0.75 0 0 0.74971 0 0.39999] CT
0.873 GC
1 LJ
0.667 LW
N
91 459 M
91 39 L
S
GR
GS
[0.75 0 0 0.74971 0 0.39999] CT
0.873 GC
1 LJ
0.667 LW
N
199.6 459 M
199.6 39 L
S
GR
GS
[0.75 0 0 0.74971 0 0.39999] CT
0.873 GC
1 LJ
0.667 LW
N
308.2 459 M
308.2 39 L
S
GR
GS
[0.75 0 0 0.74971 0 0.39999] CT
0.873 GC
1 LJ
0.667 LW
N
416.8 459 M
416.8 39 L
S
GR
GS
[0.75 0 0 0.74971 0 0.39999] CT
0.873 GC
1 LJ
0.667 LW
N
525.4 459 M
525.4 39 L
S
GR
GS
[0.75 0 0 0.74971 0 0.39999] CT
0.873 GC
1 LJ
0.667 LW
N
634 459 M
634 39 L
S
GR
GS
[0.75 0 0 0.74971 0 0.39999] CT
0.873 GC
1 LJ
0.667 LW
N
634 459 M
91 459 L
S
GR
GS
[0.75 0 0 0.74971 0 0.39999] CT
0.873 GC
1 LJ
0.667 LW
N
634 389 M
91 389 L
S
GR
GS
[0.75 0 0 0.74971 0 0.39999] CT
0.873 GC
1 LJ
0.667 LW
N
634 319 M
91 319 L
S
GR
GS
[0.75 0 0 0.74971 0 0.39999] CT
0.873 GC
1 LJ
0.667 LW
N
634 249 M
91 249 L
S
GR
GS
[0.75 0 0 0.74971 0 0.39999] CT
0.873 GC
1 LJ
0.667 LW
N
634 179 M
91 179 L
S
GR
GS
[0.75 0 0 0.74971 0 0.39999] CT
0.873 GC
1 LJ
0.667 LW
N
634 109 M
91 109 L
S
GR
GS
[0.75 0 0 0.74971 0 0.39999] CT
0.873 GC
1 LJ
0.667 LW
N
634 39 M
91 39 L
S
GR
GS
[0.75 0 0 0.74971 0 0.39999] CT
0.149 GC
2 setlinecap
1 LJ
0.667 LW
N
91 459 M
634 459 L
S
GR
GS
[0.75 0 0 0.74971 0 0.39999] CT
0.149 GC
2 setlinecap
1 LJ
0.667 LW
N
91 39 M
634 39 L
S
GR
GS
[0.75 0 0 0.74971 0 0.39999] CT
0.149 GC
2 setlinecap
1 LJ
0.667 LW
N
91 459 M
91 453.57 L
S
GR
GS
[0.75 0 0 0.74971 0 0.39999] CT
0.149 GC
2 setlinecap
1 LJ
0.667 LW
N
199.6 459 M
199.6 453.57 L
S
GR
GS
[0.75 0 0 0.74971 0 0.39999] CT
0.149 GC
2 setlinecap
1 LJ
0.667 LW
N
308.2 459 M
308.2 453.57 L
S
GR
GS
[0.75 0 0 0.74971 0 0.39999] CT
0.149 GC
2 setlinecap
1 LJ
0.667 LW
N
416.8 459 M
416.8 453.57 L
S
GR
GS
[0.75 0 0 0.74971 0 0.39999] CT
0.149 GC
2 setlinecap
1 LJ
0.667 LW
N
525.4 459 M
525.4 453.57 L
S
GR
GS
[0.75 0 0 0.74971 0 0.39999] CT
0.149 GC
2 setlinecap
1 LJ
0.667 LW
N
634 459 M
634 453.57 L
S
GR
GS
[0.75 0 0 0.74971 0 0.39999] CT
0.149 GC
2 setlinecap
1 LJ
0.667 LW
N
91 39 M
91 44.43 L
S
GR
GS
[0.75 0 0 0.74971 0 0.39999] CT
0.149 GC
2 setlinecap
1 LJ
0.667 LW
N
199.6 39 M
199.6 44.43 L
S
GR
GS
[0.75 0 0 0.74971 0 0.39999] CT
0.149 GC
2 setlinecap
1 LJ
0.667 LW
N
308.2 39 M
308.2 44.43 L
S
GR
GS
[0.75 0 0 0.74971 0 0.39999] CT
0.149 GC
2 setlinecap
1 LJ
0.667 LW
N
416.8 39 M
416.8 44.43 L
S
GR
GS
[0.75 0 0 0.74971 0 0.39999] CT
0.149 GC
2 setlinecap
1 LJ
0.667 LW
N
525.4 39 M
525.4 44.43 L
S
GR
GS
[0.75 0 0 0.74971 0 0.39999] CT
0.149 GC
2 setlinecap
1 LJ
0.667 LW
N
634 39 M
634 44.43 L
S
GR
GS
[0.75 0 0 0.74971 68.25 349.51694] CT
0.149 GC
/Helvetica 20 F
GS
[1 0 0 1 0 0] CT
-6 21 moveto 
1 -1 scale
(0) t 
GR
GR
GS
[0.75 0 0 0.74971 149.7 349.51694] CT
0.149 GC
/Helvetica 20 F
GS
[1 0 0 1 0 0] CT
-6 21 moveto 
1 -1 scale
(2) t 
GR
GR
GS
[0.75 0 0 0.74971 231.15001 349.51694] CT
0.149 GC
/Helvetica 20 F
GS
[1 0 0 1 0 0] CT
-6 21 moveto 
1 -1 scale
(4) t 
GR
GR
GS
[0.75 0 0 0.74971 312.59999 349.51694] CT
0.149 GC
/Helvetica 20 F
GS
[1 0 0 1 0 0] CT
-6 21 moveto 
1 -1 scale
(6) t 
GR
GR
GS
[0.75 0 0 0.74971 394.05002 349.51694] CT
0.149 GC
/Helvetica 20 F
GS
[1 0 0 1 0 0] CT
-6 21 moveto 
1 -1 scale
(8) t 
GR
GR
GS
[0.75 0 0 0.74971 475.5 349.51694] CT
0.149 GC
/Helvetica 20 F
GS
[1 0 0 1 0 0] CT
-11.5 21 moveto 
1 -1 scale
(10) t 
GR
GR
GS
[0.75 0 0 0.74971 271.87518 370.00914] CT
0.149 GC
/Helvetica 22 F
GS
[1 0 0 1 0 0] CT
-48.5 23 moveto 
1 -1 scale
(Itterations) t 
GR
GR
GS
[0.75 0 0 0.74971 439.5 390.25143] CT
0.149 GC
N
2.938 -0.578 M
2.938 -0.734 3.031 -0.859 QT
7.203 -5 L
3.031 -9.156 L
2.938 -9.266 2.938 -9.422 QT
2.938 -9.578 3.055 -9.703 QT
3.172 -9.828 3.344 -9.828 QT
3.484 -9.828 3.641 -9.703 QT
7.781 -5.563 L
11.906 -9.703 L
12.078 -9.828 12.203 -9.828 QT
12.359 -9.828 12.477 -9.711 QT
12.594 -9.594 12.594 -9.422 QT
12.594 -9.266 12.5 -9.156 QT
8.344 -5 L
12.5 -0.859 L
12.594 -0.734 12.594 -0.578 QT
12.594 -0.406 12.477 -0.289 QT
12.359 -0.172 12.203 -0.172 QT
12.047 -0.172 11.906 -0.328 QT
7.781 -4.438 L
3.641 -0.328 L
3.5 -0.172 3.344 -0.172 QT
3.172 -0.172 3.055 -0.305 QT
2.938 -0.438 2.938 -0.578 QT
cp
f
GR
GS
[0.75 0 0 0.74971 451.5 390.25143] CT
0.149 GC
/Helvetica 20 F
GS
[1 0 0 1 0 0] CT
0 0 moveto 
1 -1 scale
(10) t 
GR
GR
GS
[0.75 0 0 0.74971 468.75 382.75429] CT
0.149 GC
/Helvetica 16 F
GS
[1 0 0 1 0 0] CT
0 0 moveto 
1 -1 scale
(4) t 
GR
GR
GS
[0.75 0 0 0.74971 0 0.39999] CT
0.149 GC
2 setlinecap
1 LJ
0.667 LW
N
91 459 M
91 39 L
S
GR
GS
[0.75 0 0 0.74971 0 0.39999] CT
0.149 GC
2 setlinecap
1 LJ
0.667 LW
N
634 459 M
634 39 L
S
GR
GS
[0.75 0 0 0.74971 0 0.39999] CT
0.149 GC
2 setlinecap
1 LJ
0.667 LW
N
91 459 M
96.43 459 L
S
GR
GS
[0.75 0 0 0.74971 0 0.39999] CT
0.149 GC
2 setlinecap
1 LJ
0.667 LW
N
91 389 M
96.43 389 L
S
GR
GS
[0.75 0 0 0.74971 0 0.39999] CT
0.149 GC
2 setlinecap
1 LJ
0.667 LW
N
91 319 M
96.43 319 L
S
GR
GS
[0.75 0 0 0.74971 0 0.39999] CT
0.149 GC
2 setlinecap
1 LJ
0.667 LW
N
91 249 M
96.43 249 L
S
GR
GS
[0.75 0 0 0.74971 0 0.39999] CT
0.149 GC
2 setlinecap
1 LJ
0.667 LW
N
91 179 M
96.43 179 L
S
GR
GS
[0.75 0 0 0.74971 0 0.39999] CT
0.149 GC
2 setlinecap
1 LJ
0.667 LW
N
91 109 M
96.43 109 L
S
GR
GS
[0.75 0 0 0.74971 0 0.39999] CT
0.149 GC
2 setlinecap
1 LJ
0.667 LW
N
91 39 M
96.43 39 L
S
GR
GS
[0.75 0 0 0.74971 0 0.39999] CT
0.149 GC
2 setlinecap
1 LJ
0.667 LW
N
634 459 M
628.57 459 L
S
GR
GS
[0.75 0 0 0.74971 0 0.39999] CT
0.149 GC
2 setlinecap
1 LJ
0.667 LW
N
634 389 M
628.57 389 L
S
GR
GS
[0.75 0 0 0.74971 0 0.39999] CT
0.149 GC
2 setlinecap
1 LJ
0.667 LW
N
634 319 M
628.57 319 L
S
GR
GS
[0.75 0 0 0.74971 0 0.39999] CT
0.149 GC
2 setlinecap
1 LJ
0.667 LW
N
634 249 M
628.57 249 L
S
GR
GS
[0.75 0 0 0.74971 0 0.39999] CT
0.149 GC
2 setlinecap
1 LJ
0.667 LW
N
634 179 M
628.57 179 L
S
GR
GS
[0.75 0 0 0.74971 0 0.39999] CT
0.149 GC
2 setlinecap
1 LJ
0.667 LW
N
634 109 M
628.57 109 L
S
GR
GS
[0.75 0 0 0.74971 0 0.39999] CT
0.149 GC
2 setlinecap
1 LJ
0.667 LW
N
634 39 M
628.57 39 L
S
GR
GS
[0.75 0 0 0.74971 63.25 344.51886] CT
0.149 GC
/Helvetica 20 F
GS
[1 0 0 1 0 0] CT
-12 8 moveto 
1 -1 scale
(0) t 
GR
GR
GS
[0.75 0 0 0.74971 63.25 292.03886] CT
0.149 GC
/Helvetica 20 F
GS
[1 0 0 1 0 0] CT
-12 8 moveto 
1 -1 scale
(1) t 
GR
GR
GS
[0.75 0 0 0.74971 63.25 239.55885] CT
0.149 GC
/Helvetica 20 F
GS
[1 0 0 1 0 0] CT
-12 8 moveto 
1 -1 scale
(2) t 
GR
GR
GS
[0.75 0 0 0.74971 63.25 187.07885] CT
0.149 GC
/Helvetica 20 F
GS
[1 0 0 1 0 0] CT
-12 8 moveto 
1 -1 scale
(3) t 
GR
GR
GS
[0.75 0 0 0.74971 63.25 134.59885] CT
0.149 GC
/Helvetica 20 F
GS
[1 0 0 1 0 0] CT
-12 8 moveto 
1 -1 scale
(4) t 
GR
GR
GS
[0.75 0 0 0.74971 63.25 82.11885] CT
0.149 GC
/Helvetica 20 F
GS
[1 0 0 1 0 0] CT
-12 8 moveto 
1 -1 scale
(5) t 
GR
GR
GS
[0.75 0 0 0.74971 63.25 29.63885] CT
0.149 GC
/Helvetica 20 F
GS
[1 0 0 1 0 0] CT
-12 8 moveto 
1 -1 scale
(6) t 
GR
GR
GS
[0 -0.74971 0.75 0 51.25 187.07871] CT
0.149 GC
/Helvetica 22 F
GS
[1 0 0 1 0 0] CT
-50.5 -5 moveto 
1 -1 scale
(Difference) t 
GR
GR
GS
[0.75 0 0 0.74971 162.75 22.89142] CT
/Helvetica-Bold 22 F
GS
[1 0 0 1 0 0] CT
0 0 moveto 
1 -1 scale
(Norm 2 distance from ) t 
GR
GR
GS
[0.75 0 0 0.74971 337.5 22.89142] CT
N
3.547 0.25 M
2.547 0.25 1.945 -0.484 QT
1.344 -1.219 1.109 -2.25 QT
0.875 -3.281 0.875 -4.281 QT
0.875 -4.313 L
0.875 -5.406 1.086 -6.586 QT
1.297 -7.766 1.695 -8.945 QT
2.094 -10.125 2.563 -11.047 QT
2.875 -11.688 3.391 -12.484 QT
3.906 -13.281 4.531 -13.969 QT
5.156 -14.656 5.883 -15.086 QT
6.609 -15.516 7.344 -15.516 QT
7.375 -15.516 L
9.172 -15.516 9.703 -15.07 QT
10.234 -14.625 10.523 -13.938 QT
10.813 -13.25 10.938 -12.469 QT
11.063 -11.688 11.063 -10.984 QT
11.063 -9.313 10.609 -7.578 QT
10.156 -5.844 9.359 -4.219 QT
9.063 -3.609 8.531 -2.781 QT
8 -1.953 7.398 -1.297 QT
6.797 -0.641 6.055 -0.195 QT
5.313 0.25 3.563 0.25 QT
3.547 0.25 L
cp
3.594 -0.328 M
4.313 -0.328 4.984 -1.109 QT
5.656 -1.891 6.164 -3 QT
6.672 -4.109 7.055 -5.281 QT
7.438 -6.453 7.609 -7.266 QT
4.125 -7.266 L
3.781 -5.875 3.586 -4.875 QT
3.391 -3.875 3.391 -2.906 QT
3.391 -0.328 3.594 -0.328 QT
cp
4.297 -8.031 M
7.813 -8.031 L
8.047 -9 8.188 -9.648 QT
8.328 -10.297 8.422 -11.016 QT
8.516 -11.734 8.516 -12.359 QT
8.516 -14.938 7.344 -14.938 QT
6.953 -14.938 5.938 -12.688 QT
4.922 -10.438 4.297 -8.031 QT
cp
f
GR
GS
[0.75 0 0 0.74971 346.5 22.89142] CT
/Helvetica-Bold 22 F
GS
[1 0 0 1 0 0] CT
0 0 moveto 
1 -1 scale
( to 0) t 
GR
GR
GS
[0.75 0 0 0.74971 0 0.39999] CT
0 0.447 0.741 RC
1 LJ
2.667 LW
N
91.005 459 M
91.315 457.672 L
91.331 457.672 L
91.337 457.672 L
91.353 457.672 L
91.999 452.549 L
92.005 452.552 L
92.613 448.942 L
92.662 448.944 L
92.667 448.944 L
92.672 448.948 L
93.302 443.999 L
93.329 444.006 L
93.335 444.008 L
93.351 444.014 L
93.997 436.394 L
94.003 436.394 L
94.041 436.397 L
94.627 432.98 L
94.665 432.982 L
94.671 432.986 L
95.246 429.775 L
95.333 429.791 L
95.339 429.454 L
95.355 429.456 L
95.974 425.523 L
95.996 425.534 L
96.001 425.532 L
96.006 425.545 L
96.653 418.746 L
96.663 418.749 L
96.669 418.752 L
96.68 418.755 L
97.326 412.894 L
97.331 412.897 L
97.337 412.896 L
97.369 412.913 L
97.999 410.44 L
98.005 410.445 L
98.01 410.465 L
98.662 404.371 L
98.667 404.371 L
98.765 404.387 L
99.313 398.246 L
99.33 398.276 L
99.335 397.951 L
99.351 397.981 L
99.998 393.373 L
100.003 393.37 L
100.025 393.372 L
100.573 389.256 L
100.665 389.265 L
100.671 389.295 L
101.333 384.33 L
101.339 384.336 L
101.35 384.341 L
101.958 379.319 L
101.996 379.326 L
102.001 379.265 L
102.012 379.271 L
102.566 376.594 L
102.664 376.65 L
102.669 376.648 L
102.691 376.651 L
103.31 374.234 L
103.332 374.31 L
103.337 374.31 L
103.342 374.317 L
103.978 371.784 L
103.999 371.824 L
104.005 371.511 L
104.613 367.832 L
104.662 367.908 L
104.667 367.906 L
104.673 367.943 L
105.319 363.597 L
105.33 363.604 L
105.335 363.546 L
105.357 363.57 L
105.998 360.488 L
106.003 360.179 L
106.009 360.187 L
106.655 357.73 L
106.666 357.738 L
106.671 357.746 L
106.682 357.753 L
107.323 353.531 L
107.328 353.574 L
107.333 353.56 L
107.366 353.605 L
107.985 351.21 L
107.996 351.216 L
108.001 351.212 L
108.007 351.256 L
108.642 345.92 L
108.664 345.947 L
108.669 345.993 L
109.332 341.662 L
109.337 341.645 L
109.348 341.654 L
110 339.303 L
110.005 339.302 L
110.038 339.373 L
110.662 337.217 L
110.667 337.217 L
110.722 337.244 L
111.324 333.502 L
111.33 333.502 L
111.335 333.498 L
111.363 333.553 L
111.987 331.039 L
111.998 331.048 L
112.003 331.049 L
112.052 331.105 L
112.655 327.651 L
112.666 327.661 L
112.671 327.662 L
112.725 327.715 L
113.301 324.718 L
113.328 324.831 L
113.334 324.537 L
113.388 324.538 L
113.991 321.83 L
113.996 321.84 L
114.001 321.819 L
114.05 321.907 L
114.62 319.339 L
114.664 319.351 L
114.669 319.352 L
114.675 319.361 L
115.31 316.811 L
115.332 316.912 L
115.337 316.622 L
115.402 316.656 L
115.994 314.697 L
116 314.698 L
116.005 314.692 L
116.032 314.78 L
116.597 312.948 L
116.662 313.047 L
116.668 312.997 L
116.673 313.007 L
117.33 309.967 L
117.336 309.961 L
117.341 310.02 L
117.889 307.728 L
117.998 307.827 L
118.003 307.833 L
118.009 307.834 L
118.666 303.422 L
118.671 303.424 L
118.677 303.434 L
119.279 300.207 L
119.328 300.3 L
119.334 300.252 L
119.345 300.378 L
119.985 297.087 L
119.996 297.102 L
120.002 297.054 L
120.007 297.066 L
120.637 293.456 L
120.664 293.509 L
120.67 293.521 L
121.202 291.802 L
121.332 292.07 L
121.337 292.136 L
121.359 292.17 L
122 288.893 L
122.005 288.904 L
122.022 288.917 L
122.657 285.378 L
122.662 285.446 L
122.668 285.418 L
122.673 285.486 L
123.319 281.364 L
123.33 281.369 L
123.336 281.387 L
123.906 279.951 L
123.998 280.045 L
124.004 280.016 L
124.009 280.086 L
124.639 277.717 L
124.666 277.803 L
124.671 277.814 L
124.742 277.89 L
125.328 275.283 L
125.334 275.295 L
125.399 275.355 L
125.991 271.95 L
125.996 271.955 L
126.002 271.966 L
126.078 271.978 L
126.653 270.552 L
126.664 270.595 L
126.67 270.323 L
126.702 270.396 L
127.321 267.897 L
127.332 267.936 L
127.338 268.009 L
127.359 268.085 L
127.995 266.55 L
128 266.559 L
128.065 266.618 L
128.662 264.011 L
128.668 264.018 L
128.717 264.07 L
129.33 261.171 L
129.336 261.128 L
129.352 261.198 L
129.998 258.616 L
130.004 258.607 L
130.015 258.625 L
130.666 256.067 L
130.672 256.08 L
130.737 256.284 L
131.329 253.542 L
131.334 253.553 L
131.345 253.622 L
131.997 251.058 L
132.002 251.048 L
132.007 251.128 L
132.659 248.36 L
132.664 248.373 L
132.67 248.375 L
132.724 248.47 L
133.332 246.575 L
133.338 246.657 L
133.995 244.089 L
134 244.054 L
134.011 244.074 L
134.456 241.959 L
134.663 242.188 L
134.668 242.191 L
134.75 242.259 L
135.32 239.663 L
135.331 239.711 L
135.336 239.719 L
135.379 239.733 L
135.993 236.196 L
135.998 236.204 L
136.004 236.217 L
136.639 232.768 L
136.666 232.864 L
136.672 232.607 L
136.699 232.657 L
137.329 230.932 L
137.334 230.94 L
137.367 231.082 L
137.991 228.862 L
137.997 228.872 L
138.002 228.875 L
138.013 228.952 L
138.659 225.831 L
138.665 225.916 L
138.67 225.662 L
139.322 222.886 L
139.332 222.909 L
139.338 222.87 L
139.463 223.077 L
139.984 221.014 L
139.995 221.065 L
140 221.156 L
140.543 219.103 L
140.663 219.404 L
140.668 219.414 L
140.706 219.471 L
141.325 218.323 L
141.331 218.333 L
141.336 218.322 L
141.352 218.412 L
141.852 216.92 L
141.999 217.058 L
142.004 217.062 L
142.037 217.135 L
142.661 213.764 L
142.666 213.857 L
142.672 213.818 L
142.742 213.992 L
142.938 212.415 L
143.329 212.593 L
143.334 212.582 L
143.481 212.672 L
143.981 210.616 L
143.997 210.643 L
144.002 210.631 L
144.008 210.725 L
144.665 208.52 L
144.67 208.482 L
144.676 208.576 L
145.305 207.178 L
145.333 207.234 L
145.338 207.329 L
145.349 207.382 L
145.995 205.091 L
146 205.102 L
146.033 205.176 L
146.663 203.101 L
146.668 203.062 L
147.331 201.203 L
147.336 201.214 L
147.45 201.435 L
147.814 199.57 L
147.999 199.646 L
148.004 199.634 L
148.02 199.731 L
148.639 197.305 L
148.667 197.327 L
148.672 197.315 L
148.944 197.463 L
149.144 196.871 L
149.329 197.067 L
149.334 197.164 L
149.465 197.242 L
149.992 195.13 L
149.997 195.229 L
150.002 194.986 L
150.638 191.688 L
150.665 191.802 L
150.67 191.764 L
150.909 191.823 L
151.278 191.42 L
151.333 191.589 L
151.338 191.688 L
151.392 191.798 L
151.984 190.313 L
151.995 190.33 L
152.001 190.335 L
152.011 190.422 L
152.652 187.827 L
152.663 187.852 L
152.669 187.815 L
153.32 185.823 L
153.331 185.881 L
153.336 185.893 L
153.38 185.945 L
153.988 183.809 L
153.999 183.835 L
154.004 183.84 L
154.01 183.853 L
154.526 181.617 L
154.661 181.745 L
154.667 181.758 L
154.726 181.904 L
155.318 180.248 L
155.329 180.266 L
155.335 180.23 L
155.373 180.302 L
155.986 178.459 L
155.997 178.518 L
156.003 178.621 L
156.035 178.679 L
156.627 176.458 L
156.665 176.681 L
156.67 176.445 L
156.703 176.535 L
157.322 174.445 L
157.333 174.464 L
157.338 174.451 L
157.425 174.68 L
157.995 173.229 L
158.001 173.243 L
158.044 173.313 L
158.598 171.774 L
158.663 171.99 L
158.669 171.755 L
158.685 171.872 L
159.331 167.818 L
159.337 167.831 L
159.461 168.106 L
159.869 166.113 L
159.999 166.298 L
160.004 166.285 L
160.108 166.662 L
160.613 164.813 L
160.661 164.957 L
160.667 164.97 L
160.721 165.177 L
161.302 163.681 L
161.329 163.693 L
161.335 163.79 L
161.34 163.897 L
161.986 161.532 L
161.997 161.533 L
162.003 161.641 L
162.28 161.808 L
162.665 159.943 L
162.671 159.956 L
162.681 160.029 L
163.224 157.717 L
163.333 158.004 L
163.338 157.974 L
163.344 158.03 L
163.757 156.607 L
163.995 156.946 L
164.001 156.716 L
164.11 157.081 L
164.625 155.83 L
164.663 156.07 L
164.669 156.025 L
164.761 156.127 L
165.315 154.303 L
165.331 154.331 L
165.337 154.319 L
165.342 154.429 L
165.988 152.686 L
165.999 152.746 L
166.005 152.763 L
166.064 152.953 L
166.629 151.086 L
166.662 151.129 L
166.667 151.132 L
166.683 151.246 L
167.161 150.318 L
167.33 150.886 L
167.335 150.872 L
167.444 151.167 L
167.889 149.312 L
167.997 149.532 L
168.003 149.538 L
168.046 149.576 L
168.654 148.915 L
168.665 149.12 L
168.671 149.075 L
168.676 149.186 L
169.252 146.218 L
169.333 146.26 L
169.339 146.268 L
169.387 146.544 L
169.876 145.548 L
169.996 145.729 L
170.001 145.502 L
170.077 145.771 L
170.588 144.029 L
170.664 144.266 L
170.669 144.222 L
170.702 144.34 L
170.848 143.778 L
171.331 144.103 L
171.337 144.11 L
171.424 144.24 L
171.956 142.845 L
171.999 142.99 L
172.005 142.976 L
172.016 143.009 L
172.548 141.583 L
172.662 141.814 L
172.667 141.781 L
173.243 140.268 L
173.33 140.481 L
173.335 140.502 L
173.357 140.607 L
173.607 139.584 L
173.998 140.295 L
174.003 140.07 L
174.019 140.163 L
174.627 137.996 L
174.665 138.005 L
174.671 138.119 L
174.828 138.29 L
175.333 136.029 L
175.339 136.015 L
175.35 136.048 L
175.974 133.256 L
175.996 133.387 L
176.001 133.375 L
176.007 133.491 L
176.626 132.68 L
176.664 132.757 L
176.669 132.777 L
176.713 132.893 L
177.326 131.935 L
177.332 131.943 L
177.337 131.956 L
177.364 132.087 L
177.934 129.986 L
177.999 130.324 L
178.005 130.291 L
178.103 130.37 L
178.608 128.775 L
178.662 128.935 L
178.667 128.889 L
178.803 129.276 L
179.265 127.97 L
179.33 128.01 L
179.335 127.996 L
179.357 128.127 L
179.992 125.329 L
179.998 125.441 L
180.003 125.222 L
180.047 125.349 L
180.649 123.721 L
180.666 123.911 L
180.671 123.864 L
180.676 123.983 L
181.225 121.993 L
181.328 121.995 L
181.333 121.997 L
181.491 122.36 L
181.73 121.71 L
181.996 121.873 L
182.001 121.84 L
182.24 122.404 L
182.664 121.467 L
182.669 121.476 L
182.675 121.489 L
183.315 119.315 L
183.332 119.411 L
183.337 119.424 L
183.652 119.833 L
183.848 119.032 L
184 119.331 L
184.005 119.307 L
184.103 119.547 L
184.602 118.32 L
184.662 118.475 L
184.667 118.442 L
184.673 118.455 L
185.319 117.08 L
185.33 117.153 L
185.335 117.272 L
185.487 117.392 L
185.835 116.318 L
185.998 116.728 L
186.003 116.737 L
186.014 116.842 L
186.666 114.531 L
186.671 114.544 L
186.682 114.658 L
187.084 113.96 L
187.328 114.386 L
187.334 114.506 L
187.344 114.581 L
187.996 113.487 L
188.002 113.501 L
188.55 112.117 L
188.664 112.432 L
188.669 112.553 L
189.316 110.587 L
189.332 110.717 L
189.337 110.702 L
189.37 110.882 L
189.935 109.064 L
190 109.278 L
190.005 109.287 L
190.103 109.445 L
190.662 107.915 L
190.668 107.925 L
190.874 108.229 L
191.281 107.249 L
191.33 107.366 L
191.336 107.351 L
191.824 107.827 L
191.955 106.796 L
191.998 106.887 L
192.003 106.901 L
192.622 105.352 L
192.666 105.417 L
192.671 105.402 L
192.965 105.755 L
193.312 104.282 L
193.328 104.343 L
193.334 104.297 L
193.339 104.311 L
193.98 103.093 L
193.996 103.1 L
194.002 103.124 L
194.154 103.498 L
194.664 102.122 L
194.67 102.076 L
194.816 102.641 L
195.294 101.795 L
195.332 101.956 L
195.337 101.946 L
195.343 102.07 L
195.967 99.941 L
196 100.092 L
196.005 100.061 L
196.032 100.159 L
196.25 98.916 L
196.662 99.254 L
196.668 99.378 L
197.243 98.163 L
197.33 98.456 L
197.336 98.244 L
197.412 98.643 L
197.987 97.853 L
197.998 97.96 L
198.004 97.922 L
198.128 98.483 L
198.492 97.908 L
198.666 98.1 L
198.671 98.085 L
198.677 98.209 L
199.068 97.306 L
199.329 97.635 L
199.334 97.619 L
199.453 97.963 L
199.931 96.942 L
199.996 97.06 L
200.002 97.184 L
200.034 96.946 L
200.48 97.931 L
200.664 97.267 L
200.67 97.237 L
200.93 97.661 L
201.327 96.541 L
201.332 96.568 L
201.338 96.553 L
201.414 96.739 L
201.957 94.957 L
201.995 95.254 L
202 95.042 L
202.424 95.654 L
202.581 94.596 L
202.663 94.864 L
202.668 94.849 L
203.178 94.345 L
203.33 94.693 L
203.336 94.719 L
203.548 95.049 L
203.998 94.155 L
204.004 94.169 L
204.042 94.283 L
204.661 92.065 L
204.666 92.19 L
204.672 92.145 L
205.073 92.474 L
205.329 91.955 L
205.334 91.745 L
205.47 91.703 L
205.959 92.465 L
205.997 92.243 L
206.002 92.033 L
206.159 92.205 L
206.659 91.371 L
206.664 91.385 L
206.67 91.396 L
206.735 91.245 L
207.191 92.466 L
207.332 92.117 L
207.338 92.128 L
207.441 92.264 L
207.989 90.925 L
207.995 90.951 L
208 90.936 L
208.174 91.53 L
208.652 90.07 L
208.663 90.11 L
208.668 90.121 L
209.075 90.366 L
209.2 89.638 L
209.331 89.822 L
209.336 89.836 L
209.363 89.97 L
209.884 88.94 L
209.998 89.132 L
210.004 89.154 L
210.156 89.587 L
210.558 88.516 L
210.666 88.597 L
210.672 88.603 L
210.742 88.813 L
211.323 87.589 L
211.329 87.716 L
211.334 87.671 L
211.617 87.261 L
211.959 88.009 L
211.997 87.848 L
212.002 87.817 L
212.035 87.917 L
212.409 86.167 L
212.665 86.449 L
212.67 86.463 L
212.795 85.95 L
213.034 86.588 L
213.332 86.37 L
213.338 86.162 L
213.376 86.308 L
213.897 85.19 L
213.995 85.36 L
214 85.371 L
214.185 85.643 L
214.359 84.829 L
214.663 85.188 L
214.668 85.199 L
214.983 85.062 L
215.152 85.707 L
215.331 85.522 L
215.336 85.536 L
215.412 85.694 L
215.961 84.624 L
215.999 84.786 L
216.004 84.801 L
216.205 85.474 L
216.59 84.594 L
216.666 84.766 L
216.672 84.558 L
216.813 85.27 L
217.329 83.61 L
217.334 83.624 L
217.367 83.842 L
217.856 82.012 L
217.997 82.449 L
218.002 82.406 L
218.415 82.341 L
218.659 83.068 L
218.665 83.026 L
218.67 83.151 L
218.838 83.413 L
219.181 82.293 L
219.333 82.575 L
219.338 82.367 L
219.425 81.956 L
219.881 82.89 L
219.995 82.112 L
220.001 82.14 L
220.234 81.772 L
220.647 82.794 L
220.663 82.766 L
220.668 82.794 L
220.869 83.128 L
221.315 81.645 L
221.331 81.687 L
221.336 81.672 L
221.342 81.797 L
221.841 80.552 L
221.999 80.98 L
222.004 80.995 L
222.178 80.834 L
222.466 81.405 L
222.667 81.246 L
222.672 81.211 L
222.732 81.665 L
223.182 80.113 L
223.329 80.174 L
223.335 80.162 L
223.818 80.888 L
223.905 80.007 L
223.997 80.194 L
224.002 80.18 L
224.078 79.885 L
224.431 80.525 L
224.665 80.136 L
224.67 80.148 L
224.871 80.48 L
225.268 79.52 L
225.333 79.714 L
225.338 79.684 L
225.371 79.81 L
225.979 78.404 L
225.995 78.475 L
226.001 78.504 L
226.093 78.74 L
226.337 77.683 L
226.663 78.307 L
226.669 78.32 L
226.945 78.386 L
227.239 77.33 L
227.331 77.465 L
227.336 77.48 L
227.445 77.991 L
227.95 76.672 L
227.999 76.851 L
228.004 76.836 L
228.27 77.202 L
228.656 76.466 L
228.661 76.54 L
228.667 76.668 L
228.678 76.753 L
229.248 74.896 L
229.329 75.114 L
229.335 75.116 L
229.394 75.532 L
229.889 74.282 L
229.997 74.446 L
230.003 74.449 L
230.095 74.728 L
230.643 73.321 L
230.665 73.479 L
230.67 73.274 L
230.746 73.571 L
231.295 72.2 L
231.333 72.263 L
231.338 72.278 L
231.49 72.507 L
231.957 71.192 L
231.995 71.359 L
232.001 71.329 L
232.582 71.662 L
232.663 70.82 L
232.669 70.838 L
232.696 70.806 L
233.125 71.7 L
233.331 71.096 L
233.337 71.081 L
233.608 71.858 L
233.858 71.024 L
233.999 71.271 L
234.004 71.286 L
234.037 71.151 L
234.662 72.201 L
234.667 72.331 L
234.987 71.747 L
235.145 72.391 L
235.329 72.002 L
235.335 71.972 L
235.433 72.332 L
235.557 71.796 L
235.997 72.05 L
236.003 71.845 L
236.041 71.201 L
236.649 71.908 L
236.665 71.731 L
236.671 71.744 L
236.736 72.141 L
237.083 71.066 L
237.333 71.282 L
237.339 71.294 L
237.485 71.557 L
237.985 70.449 L
237.996 70.492 L
238.001 70.462 L
238.359 70.778 L
238.658 69.319 L
238.663 69.341 L
238.669 69.329 L
238.897 69.621 L
239.223 68.467 L
239.331 68.581 L
239.337 68.594 L
239.396 68.471 L
239.684 69.389 L
239.999 69.134 L
240.005 69.119 L
240.113 69.481 L
240.466 68.204 L
240.662 68.34 L
240.667 68.394 L
240.683 68.535 L
240.911 67.426 L
241.33 67.888 L
241.335 67.685 L
241.357 67.787 L
241.786 66.553 L
241.997 66.786 L
242.003 66.771 L
242.025 67.044 L
242.568 66.201 L
242.665 66.616 L
242.671 66.645 L
243.187 67.496 L
243.333 66.404 L
243.339 66.201 L
243.377 66.402 L
243.958 65.275 L
243.996 65.46 L
244.001 65.417 L
244.007 65.545 L
244.55 64.307 L
244.664 64.77 L
244.669 64.568 L
244.761 64.618 L
245.017 63.802 L
245.331 64.558 L
245.337 64.586 L
245.407 64.733 L
245.836 64.252 L
245.999 64.592 L
246.005 64.712 L
246.445 64.389 L
246.613 64.931 L
246.662 64.6 L
246.667 64.585 L
247.313 65.509 L
247.33 65.325 L
247.335 65.345 L
247.862 66.154 L
247.998 65.757 L
248.003 65.773 L
248.144 65.447 L
248.617 66.083 L
248.665 65.774 L
248.671 65.804 L
248.693 65.934 L
249.051 64.716 L
249.328 65.243 L
249.333 65.202 L
249.415 65.563 L
249.806 64.288 L
249.996 64.407 L
250.001 64.473 L
250.506 63.632 L
250.664 64.134 L
250.669 64.105 L
250.691 63.902 L
251.212 64.678 L
251.332 64.411 L
251.337 64.541 L
251.397 64.672 L
251.717 63.72 L
251.999 64.213 L
252.005 64.229 L
252.336 64.715 L
252.619 63.639 L
252.662 63.741 L
252.667 63.757 L
252.825 63.972 L
253.248 62.945 L
253.33 62.979 L
253.335 62.95 L
253.482 62.61 L
253.933 63.316 L
253.998 63.028 L
254.003 63 L
254.03 63.002 L
254.313 61.707 L
254.666 62.128 L
254.671 61.925 L
254.693 62.025 L
255.247 61.208 L
255.328 61.649 L
255.334 61.67 L
255.388 61.836 L
255.991 60.951 L
255.996 61.083 L
256.001 61.041 L
256.023 61.176 L
256.572 59.53 L
256.664 59.749 L
256.669 59.765 L
257.326 58.379 L
257.332 58.409 L
257.337 58.426 L
257.353 58.487 L
257.788 57.632 L
258 57.913 L
258.005 57.871 L
258.032 58.184 L
258.396 56.878 L
258.662 56.969 L
258.668 56.999 L
259.075 57.642 L
259.287 56.632 L
259.33 56.713 L
259.335 56.729 L
259.363 56.782 L
259.884 56.153 L
259.998 56.332 L
260.003 56.345 L
260.231 56.163 L
260.481 56.88 L
260.666 56.287 L
260.671 56.259 L
260.704 56.422 L
261.013 55.726 L
261.328 56.048 L
261.334 56.062 L
261.502 56.535 L
261.779 55.654 L
261.996 56.075 L
262.002 56.092 L
262.333 55.925 L
262.653 56.865 L
262.664 56.853 L
262.669 56.838 L
263.153 56.554 L
263.31 57.107 L
263.332 57.081 L
263.337 57.097 L
263.614 57.45 L
263.973 55.873 L
264 55.925 L
264.005 55.943 L
264.222 56.549 L
264.657 55.495 L
264.662 55.525 L
264.668 55.542 L
264.89 56.23 L
265.308 55.362 L
265.33 55.525 L
265.336 55.542 L
265.401 55.803 L
265.661 54.968 L
265.998 55.624 L
266.003 55.596 L
266.199 55.972 L
266.666 54.337 L
266.671 54.137 L
267.209 54.672 L
267.301 53.788 L
267.328 53.864 L
267.334 53.881 L
267.556 53.131 L
267.947 53.993 L
267.996 53.586 L
268.002 53.602 L
268.056 53.719 L
268.203 53.037 L
268.664 53.419 L
268.67 53.376 L
268.903 53.133 L
269.332 53.773 L
269.337 53.786 L
269.403 53.702 L
270 54.391 L
270.005 54.349 L
270.125 54.648 L
270.652 53.476 L
270.662 53.515 L
270.668 53.486 L
271.026 53.474 L
271.276 54.499 L
271.33 54.363 L
271.336 54.334 L
271.444 54.076 L
271.955 54.842 L
271.998 54.45 L
272.004 54.435 L
272.129 54.73 L
272.411 53.838 L
272.666 54.32 L
272.672 54.336 L
272.682 54.265 L
273.329 55.388 L
273.334 55.359 L
273.448 55.452 L
273.562 54.787 L
273.996 54.952 L
274.002 54.921 L
274.029 54.818 L
274.442 55.656 L
274.664 55.21 L
274.67 55.01 L
274.996 54.694 L
275.332 55.347 L
275.338 55.363 L
275.408 55.354 L
275.691 55.964 L
275.995 55.962 L
276 55.933 L
276.288 55.532 L
276.462 56.471 L
276.663 56.065 L
276.668 56.081 L
277.113 56.548 L
277.292 55.991 L
277.33 56.189 L
277.336 56.321 L
277.553 56.369 L
277.835 55.42 L
277.998 55.526 L
278.004 55.497 L
278.596 55.729 L
278.661 55.172 L
278.666 55.304 L
278.672 55.262 L
279.318 56.545 L
279.329 56.143 L
279.334 56.16 L
279.356 56.252 L
279.573 55.21 L
279.997 55.583 L
280.002 55.541 L
280.29 56.086 L
280.664 55.824 L
280.67 55.855 L
280.784 56.03 L
281.327 54.798 L
281.332 54.812 L
281.338 54.828 L
281.522 54.239 L
281.962 55.004 L
281.995 54.844 L
282 54.803 L
282.093 55.235 L
282.255 54.329 L
282.663 54.681 L
282.668 54.711 L
282.679 54.699 L
283.32 55.309 L
283.331 55.122 L
283.336 55.107 L
283.689 55.659 L
283.993 54.821 L
283.999 54.954 L
284.004 54.968 L
284.199 54.51 L
284.59 55.358 L
284.666 55.355 L
284.672 55.374 L
285.128 55.921 L
285.302 54.763 L
285.329 54.825 L
285.334 54.81 L
285.465 55.281 L
285.78 54.221 L
285.997 54.393 L
286.002 54.351 L
286.029 54.497 L
286.388 52.934 L
286.665 53.206 L
286.67 53.236 L
287.159 53.521 L
287.267 52.746 L
287.333 52.985 L
287.338 53.119 L
287.984 51.669 L
287.995 51.692 L
288 51.678 L
288.424 52.317 L
288.478 51.278 L
288.663 51.546 L
288.668 51.572 L
288.896 51.838 L
289.271 51.384 L
289.331 51.468 L
289.336 51.482 L
289.347 51.599 L
289.434 50.552 L
289.999 50.92 L
290.004 50.933 L
290.026 51.086 L
290.395 50.456 L
290.667 50.705 L
290.672 50.734 L
290.786 50.62 L
291.275 51.608 L
291.329 51.191 L
291.334 50.992 L
291.687 51.637 L
291.926 50.586 L
291.997 50.951 L
292.002 50.978 L
292.545 49.191 L
292.665 49.496 L
292.67 49.297 L
292.686 49.241 L
293.115 49.973 L
293.333 49.609 L
293.338 49.594 L
293.441 49.392 L
293.892 50.58 L
293.995 50.129 L
294.001 50.094 L
294.294 50.374 L
294.484 49.388 L
294.663 49.427 L
294.668 49.562 L
295.325 47.813 L
295.331 47.844 L
295.336 47.861 L
295.391 47.82 L
295.912 48.785 L
295.999 48.132 L
296.004 48.146 L
296.042 47.979 L
296.645 49.387 L
296.661 49.332 L
296.667 49.349 L
296.857 49.721 L
296.933 48.679 L
297.329 49.421 L
297.335 49.439 L
297.345 49.383 L
297.802 50.182 L
297.997 49.59 L
298.002 49.724 L
298.339 49.058 L
298.583 50.17 L
298.665 49.889 L
298.67 49.906 L
299.061 50.366 L
299.322 49.341 L
299.333 49.357 L
299.338 49.388 L
299.523 48.999 L
299.664 49.617 L
299.995 49.128 L
300.001 49.09 L
300.039 49.257 L
300.538 48.493 L
300.663 48.641 L
300.669 48.613 L
300.81 49.246 L
300.886 48.546 L
301.331 48.719 L
301.336 48.749 L
301.841 48.262 L
301.999 48.838 L
302.004 48.852 L
302.254 49.396 L
302.661 49.215 L
302.667 49.246 L
302.808 48.79 L
303.112 49.782 L
303.329 49.544 L
303.335 49.558 L
303.514 49.452 L
303.927 49.961 L
303.997 49.925 L
304.003 49.883 L
304.323 49.481 L
304.665 50.696 L
304.671 50.496 L
305.154 51.016 L
305.333 50.392 L
305.338 50.377 L
305.528 50.591 L
305.919 49.235 L
305.995 49.29 L
306.001 49.262 L
306.033 49.387 L
306.479 48.69 L
306.663 49.287 L
306.669 49.318 L
306.696 49.27 L
307.309 50.482 L
307.331 50.115 L
307.337 50.13 L
307.521 50.664 L
307.961 48.958 L
307.999 49.022 L
308.005 49.052 L
308.01 49.038 L
308.662 50.045 L
308.667 50.031 L
308.689 49.887 L
309.205 50.976 L
309.329 50.531 L
309.335 50.503 L
309.384 50.737 L
309.818 49.995 L
309.997 50.044 L
310.003 50.003 L
310.111 50.246 L
310.627 49.204 L
310.665 49.328 L
310.671 49.314 L
310.73 49.54 L
311.225 48.479 L
311.333 48.562 L
311.339 48.578 L
311.355 48.539 L
311.925 49.521 L
311.996 49.295 L
312.001 49.309 L
312.202 49.252 L
312.663 50.16 L
312.669 50.12 L
312.832 50.587 L
312.892 49.541 L
313.331 50.339 L
313.337 50.37 L
313.342 50.355 L
313.956 51.158 L
313.999 50.908 L
314.005 51.041 L
314.591 49.002 L
314.662 49.224 L
314.667 49.227 L
315.302 50.309 L
315.33 50.167 L
315.335 50.139 L
315.585 50.874 L
315.927 49.6 L
315.997 49.659 L
316.003 49.748 L
316.28 49.588 L
316.66 50.49 L
316.665 50.291 L
316.671 50.323 L
316.752 49.913 L
317.333 50.91 L
317.339 51.042 L
317.485 51.445 L
317.789 50.56 L
317.996 50.915 L
318.001 50.932 L
318.115 50.672 L
318.658 51.412 L
318.664 51.385 L
318.669 51.357 L
318.865 51.607 L
318.951 50.896 L
319.332 51.018 L
319.337 51.051 L
319.674 51.469 L
319.891 50.423 L
319.999 50.597 L
320.005 50.611 L
320.037 50.448 L
320.515 51.473 L
320.662 51.24 L
320.667 51.225 L
320.928 51.538 L
321.319 50.481 L
321.33 50.574 L
321.335 50.606 L
321.525 51.001 L
321.759 49.985 L
321.998 50.47 L
322.003 50.455 L
322.188 50.227 L
322.53 51.057 L
322.666 50.544 L
322.671 50.576 L
322.742 50.833 L
322.997 49.811 L
323.328 49.886 L
323.333 49.914 L
323.529 49.603 L
323.942 51.023 L
323.996 50.935 L
324.001 50.92 L
324.186 50.315 L
324.637 51.425 L
324.664 51.39 L
324.669 51.523 L
324.756 51.039 L
325.125 51.858 L
325.332 51.73 L
325.337 51.691 L
325.429 52.114 L
325.918 50.631 L
326 50.821 L
326.005 50.806 L
326.157 51.242 L
326.505 49.93 L
326.662 50.228 L
326.667 50.213 L
326.695 50.455 L
326.993 49.948 L
327.33 50.323 L
327.335 50.284 L
327.417 50.637 L
327.471 49.957 L
327.998 49.992 L
328.003 49.983 L
328.655 50.51 L
328.666 50.499 L
328.671 50.471 L
328.736 50.428 L
328.926 51.318 L
329.328 51.248 L
329.334 51.21 L
329.676 51.586 L
329.898 50.791 L
329.996 51.018 L
330.001 51.138 L
330.512 51.989 L
330.664 51.637 L
330.669 51.769 L
330.8 51.416 L
331.207 52.104 L
331.332 51.525 L
331.337 51.516 L
331.506 51.838 L
331.983 50.741 L
332 50.758 L
332.005 50.89 L
332.016 50.983 L
332.38 49.468 L
332.662 50.153 L
332.668 50.177 L
332.825 49.731 L
333.086 50.492 L
333.33 50.291 L
333.335 50.263 L
333.417 50.632 L
333.775 49.853 L
333.998 50.246 L
334.003 50.261 L
334.047 50.125 L
334.421 51.298 L
334.666 50.363 L
334.671 50.378 L
334.975 50.287 L
335.187 51.042 L
335.328 50.781 L
335.334 50.798 L
335.388 50.954 L
335.991 50.081 L
335.996 50.214 L
336.002 50.174 L
336.653 51.178 L
336.664 51.166 L
336.669 51.139 L
336.707 51.038 L
337.283 52.579 L
337.332 52.407 L
337.337 52.206 L
337.365 52.102 L
337.886 53.086 L
338 52.822 L
338.005 52.808 L
338.141 52.51 L
338.413 53.121 L
338.662 52.863 L
338.668 52.825 L
338.679 52.755 L
339.33 53.768 L
339.336 53.73 L
339.428 54.178 L
339.743 52.987 L
339.998 53.542 L
340.004 53.515 L
340.156 54.097 L
340.661 53.103 L
340.666 53.119 L
340.671 53.092 L
341.204 51.488 L
341.328 51.877 L
341.334 51.85 L
341.339 51.811 L
341.975 53.671 L
341.996 53.636 L
342.002 53.767 L
342.078 53.797 L
342.577 52.866 L
342.664 53.224 L
342.67 53.257 L
342.702 53.423 L
342.968 52.106 L
343.332 52.53 L
343.338 52.491 L
343.419 52.3 L
344 52.793 L
344.005 52.78 L
344.174 53.174 L
344.402 52.525 L
344.662 52.97 L
344.668 52.984 L
344.901 52.415 L
345.33 53.486 L
345.336 53.503 L
345.672 54.262 L
345.998 54.235 L
346.004 54.207 L
346.536 55.187 L
346.666 55.026 L
346.672 55.012 L
346.682 55.061 L
347.307 53.837 L
347.329 53.89 L
347.334 53.888 L
347.345 53.818 L
347.709 55.027 L
347.996 54.707 L
348.002 54.68 L
348.056 54.597 L
348.561 55.602 L
348.664 55.315 L
348.67 55.446 L
348.773 54.998 L
349.034 55.668 L
349.332 55.169 L
349.338 55.299 L
349.511 55.587 L
349.658 54.565 L
349.995 54.943 L
350 55.074 L
350.033 55.316 L
350.608 54.048 L
350.663 54.297 L
350.668 54.428 L
350.766 54.21 L
350.902 54.946 L
351.33 54.533 L
351.336 54.55 L
351.651 54.447 L
351.982 55.369 L
351.998 55.344 L
352.004 55.376 L
352.172 55.741 L
352.558 54.62 L
352.666 54.627 L
352.672 54.758 L
352.704 54.96 L
353.264 53.59 L
353.329 53.743 L
353.334 53.874 L
353.34 53.673 L
353.741 54.319 L
353.997 53.723 L
354.002 53.737 L
354.111 54.127 L
354.659 53.298 L
354.665 53.313 L
354.67 53.33 L
354.844 53.719 L
355.126 53.201 L
355.332 53.22 L
355.338 53.353 L
355.582 52.802 L
355.941 53.368 L
355.995 53.251 L
356 53.223 L
356.212 53.147 L
356.554 53.827 L
356.663 53.666 L
356.668 53.798 L
356.674 53.758 L
357.01 54.412 L
357.331 54.236 L
357.336 54.222 L
357.341 54.353 L
357.944 53.647 L
357.999 53.799 L
358.004 53.771 L
358.292 53.537 L
358.639 54.288 L
358.666 53.89 L
358.672 53.908 L
358.721 53.997 L
359.22 51.863 L
359.329 52.027 L
359.334 52.012 L
359.53 52.193 L
359.698 51.198 L
359.997 51.949 L
360.002 51.921 L
360.328 52.085 L
360.48 51.417 L
360.665 51.82 L
360.67 51.809 L
360.914 51.545 L
361.208 52.371 L
361.333 52.139 L
361.338 52.098 L
361.615 52.736 L
361.962 51.81 L
361.995 51.951 L
362 51.751 L
362.033 51.865 L
362.663 50.733 L
362.668 50.75 L
362.706 50.687 L
363.038 51.489 L
363.331 51.001 L
363.336 51.015 L
363.407 51.215 L
363.999 50.384 L
364.004 50.356 L
364.553 49.191 L
364.667 49.534 L
364.672 49.668 L
364.753 49.305 L
365.139 50.188 L
365.329 50.127 L
365.334 50.233 L
365.758 50.495 L
365.937 49.538 L
365.997 49.765 L
366.002 49.724 L
366.008 49.857 L
366.562 48.9 L
366.665 49.034 L
366.67 49.162 L
367.045 49.574 L
367.316 48.335 L
367.333 48.501 L
367.338 48.636 L
367.702 48.585 L
367.827 49.127 L
367.995 48.779 L
368.001 48.751 L
368.006 48.769 L
368.658 47.929 L
368.663 47.944 L
368.668 47.745 L
369.326 48.652 L
369.331 48.611 L
369.336 48.745 L
369.499 48.928 L
369.738 48.251 L
369.999 48.454 L
370.004 48.44 L
370.325 48.127 L
370.531 48.876 L
370.661 48.546 L
370.667 48.68 L
370.721 48.991 L
371.313 47.637 L
371.329 47.686 L
371.335 47.7 L
371.416 47.98 L
371.628 46.577 L
371.997 47.543 L
372.003 47.516 L
372.144 46.852 L
372.643 47.674 L
372.665 47.672 L
372.67 47.687 L
372.757 47.671 L
373.159 48.172 L
373.333 48.119 L
373.338 48.133 L
373.436 48.022 L
373.751 48.704 L
373.995 48.332 L
374.001 48.359 L
374.071 48.319 L
374.609 49.078 L
374.663 48.841 L
374.669 48.975 L
374.973 49.667 L
375.331 48.846 L
375.337 48.819 L
375.402 48.789 L
375.977 49.595 L
375.999 49.36 L
376.004 49.377 L
376.401 49.299 L
376.591 49.768 L
376.661 49.632 L
376.667 49.65 L
376.873 49.176 L
377.28 50.088 L
377.329 49.903 L
377.335 49.893 L
377.34 49.99 L
377.883 49.052 L
377.997 49.194 L
378.003 49.326 L
378.041 48.996 L
378.22 49.791 L
378.665 49.564 L
378.671 49.364 L
378.768 49.818 L
378.888 48.359 L
379.333 48.899 L
379.338 48.872 L
379.371 49.152 L
379.941 47.038 L
379.995 47.154 L
380.001 47.114 L
380.088 46.83 L
380.5 47.798 L
380.663 47.626 L
380.669 47.759 L
381.152 48.266 L
381.331 47.005 L
381.337 47.139 L
381.364 46.874 L
381.874 47.908 L
381.999 46.995 L
382.005 46.988 L
382.151 46.695 L
382.374 47.683 L
382.662 46.908 L
382.667 46.898 L
382.835 46.879 L
383.313 48.268 L
383.329 48.092 L
383.335 48.065 L
383.498 48.368 L
383.997 47.754 L
384.003 47.887 L
384.084 47.533 L
384.513 48.483 L
384.665 48.29 L
384.671 48.308 L
384.801 48.059 L
385.333 49.001 L
385.339 49.134 L
385.393 48.633 L
385.996 48.731 L
386.001 48.864 L
386.555 47.285 L
386.664 47.827 L
386.669 47.815 L
386.729 47.734 L
387.033 48.493 L
387.331 48.048 L
387.337 48.065 L
387.348 48.065 L
387.82 49.057 L
387.999 48.943 L
388.005 49.075 L
388.282 48.107 L
388.662 48.483 L
388.667 48.497 L
388.678 48.615 L
388.868 48.01 L
389.33 48.475 L
389.335 48.508 L
389.601 49.129 L
389.987 47.936 L
389.998 47.954 L
390.003 47.987 L
390.177 48.377 L
390.492 47.526 L
390.665 47.689 L
390.671 47.807 L
390.741 48.19 L
391.317 47.313 L
391.333 47.441 L
391.339 47.459 L
391.594 47.69 L
391.713 46.566 L
391.996 47.359 L
392.001 47.32 L
392.017 47.548 L
392.533 46.623 L
392.664 46.86 L
392.669 46.878 L
392.756 46.483 L
392.984 47.28 L
393.332 47.045 L
393.337 47.078 L
393.435 46.852 L
393.891 48.153 L
393.999 47.884 L
394.005 47.857 L
394.249 47.531 L
394.428 48.222 L
394.662 47.798 L
394.667 47.829 L
394.874 47.603 L
395.265 48.464 L
395.33 48.321 L
395.335 48.121 L
395.639 48.234 L
395.867 47.627 L
395.998 47.885 L
396.003 47.871 L
396.177 47.54 L
396.372 48.126 L
396.666 48.03 L
396.671 48.048 L
397.252 49.178 L
397.328 48.76 L
397.333 48.884 L
397.632 49.45 L
397.936 48.801 L
397.996 48.955 L
398.001 48.969 L
398.316 48.83 L
398.544 49.732 L
398.664 49.175 L
398.669 49.147 L
399 49.534 L
399.104 48.586 L
399.332 48.791 L
399.337 48.81 L
399.484 48.456 L
399.875 49.432 L
400 48.877 L
400.005 48.677 L
400.076 48.693 L
400.559 47.403 L
400.662 47.886 L
400.667 47.846 L
401.02 48.41 L
401.33 47.449 L
401.335 47.463 L
401.444 47.783 L
401.987 46.012 L
401.998 46.046 L
402.003 46.06 L
402.15 45.983 L
402.487 46.733 L
402.666 46.352 L
402.671 46.485 L
403.285 44.482 L
403.328 44.681 L
403.334 44.713 L
403.355 44.438 L
403.974 45.49 L
403.996 45.188 L
404.001 44.991 L
404.083 45.181 L
404.555 44.385 L
404.664 44.452 L
404.669 44.484 L
404.735 44.777 L
405.164 43.208 L
405.332 43.419 L
405.337 43.437 L
405.478 43.214 L
405.994 44.195 L
406 43.998 L
406.005 44.012 L
406.125 43.825 L
406.543 44.578 L
406.662 44.346 L
406.668 44.305 L
407.325 45.315 L
407.33 45.3 L
407.336 45.435 L
407.564 45.887 L
407.938 44.581 L
407.998 44.976 L
408.003 44.993 L
408.014 45.101 L
408.65 44.154 L
408.666 44.2 L
408.671 44.218 L
409.019 44.742 L
409.111 43.963 L
409.328 44.455 L
409.334 44.474 L
409.638 44.961 L
409.926 44.128 L
409.996 44.244 L
410.002 44.23 L
410.023 44.21 L
410.621 44.973 L
410.664 44.75 L
410.67 44.767 L
410.702 44.584 L
411.213 45.481 L
411.332 45.467 L
411.337 45.452 L
411.951 47.021 L
412 46.717 L
412.005 46.741 L
412.027 46.538 L
412.597 47.224 L
412.662 47.155 L
412.668 47.17 L
412.787 47.397 L
413.325 45.897 L
413.33 45.911 L
413.336 45.928 L
413.385 45.379 L
413.727 46.087 L
413.998 45.652 L
414.004 45.625 L
414.08 45.26 L
414.492 45.746 L
414.666 45.704 L
414.671 45.676 L
414.769 45.048 L
415.22 45.886 L
415.328 45.666 L
415.334 45.801 L
415.605 45.29 L
415.975 46.272 L
415.996 46.108 L
416.002 46.08 L
416.545 45.15 L
416.664 45.344 L
416.67 45.361 L
416.681 45.32 L
417.267 46.603 L
417.332 46.361 L
417.338 46.322 L
417.777 46.899 L
417.995 45.836 L
418 45.851 L
418.288 46.477 L
418.38 45.735 L
418.662 46.19 L
418.668 46.174 L
418.777 46.365 L
419.243 45.458 L
419.33 45.633 L
419.336 45.651 L
419.542 46.18 L
419.998 45.402 L
420.004 45.537 L
420.215 45.887 L
420.248 45.256 L
420.666 45.727 L
420.672 45.756 L
420.677 45.742 L
421.301 46.731 L
421.329 46.541 L
421.334 46.526 L
421.73 46.872 L
421.958 45.483 L
421.997 45.744 L
422.002 45.776 L
422.062 45.238 L
422.534 47.018 L
422.664 46.894 L
422.67 46.926 L
423.207 47.467 L
423.283 46.754 L
423.332 46.943 L
423.338 46.929 L
423.598 47.457 L
423.854 46.44 L
423.995 46.654 L
424 46.642 L
424.31 47.131 L
424.663 46.698 L
424.668 46.713 L
424.69 46.58 L
425.314 47.326 L
425.331 46.889 L
425.336 47.023 L
425.559 47.353 L
425.727 46.019 L
425.998 46.35 L
426.004 46.322 L
426.216 45.954 L
426.666 46.863 L
426.672 46.88 L
426.786 47.211 L
426.938 46.328 L
427.329 46.468 L
427.334 46.453 L
427.437 46.809 L
427.959 45.672 L
427.997 45.766 L
428.002 45.783 L
428.208 45.155 L
428.534 46.089 L
428.665 45.655 L
428.67 45.614 L
428.931 45.489 L
429.224 46.512 L
429.332 46.465 L
429.338 46.472 L
429.609 45.964 L
429.903 46.929 L
429.995 46.601 L
430 46.62 L
430.402 47.255 L
430.538 46.294 L
430.663 46.567 L
430.668 46.584 L
431.179 47.579 L
431.331 46.583 L
431.336 46.569 L
431.722 47.097 L
431.961 46.281 L
431.999 46.44 L
432.004 46.412 L
432.346 45.924 L
432.656 46.903 L
432.666 46.722 L
432.672 46.737 L
433.166 47.788 L
433.329 47.459 L
433.334 47.451 L
433.459 46.883 L
433.915 47.56 L
433.997 47.496 L
434.002 47.528 L
434.078 47.47 L
434.594 48.775 L
434.665 48.617 L
434.67 48.632 L
435.251 49.676 L
435.333 49.429 L
435.338 49.401 L
435.669 49.186 L
435.99 49.855 L
435.995 49.84 L
436 49.873 L
436.174 49.291 L
436.663 49.995 L
436.668 50.012 L
436.875 50.267 L
437.331 49.252 L
437.336 49.224 L
437.727 48.889 L
437.993 49.733 L
437.999 49.694 L
438.004 49.826 L
438.096 50.014 L
438.422 48.283 L
438.667 48.646 L
438.672 48.609 L
438.84 48.113 L
439.324 49.147 L
439.329 49.108 L
439.335 49.14 L
439.449 48.946 L
439.91 49.576 L
439.997 49.432 L
440.002 49.233 L
440.019 49.43 L
440.116 48.62 L
440.665 49.129 L
440.67 49.144 L
440.746 49.376 L
440.801 48.735 L
441.333 49.146 L
441.338 49.16 L
441.349 49.127 L
441.659 50.28 L
441.995 49.682 L
442.001 49.673 L
442.017 49.488 L
442.462 50.375 L
442.663 49.745 L
442.669 49.776 L
442.788 49.416 L
443.07 49.927 L
443.331 49.7 L
443.336 49.661 L
443.342 49.793 L
443.863 48.46 L
443.999 48.776 L
444.004 48.762 L
444.221 48.976 L
444.471 47.434 L
444.661 47.613 L
444.667 47.631 L
445.09 46.237 L
445.329 46.883 L
445.335 47.016 L
445.34 46.818 L
445.948 47.784 L
445.997 47.716 L
446.003 47.731 L
446.024 47.61 L
446.556 48.546 L
446.665 48.211 L
446.67 48.183 L
446.73 47.915 L
447.251 49.02 L
447.333 48.609 L
447.338 48.624 L
447.441 48.481 L
447.903 49.543 L
447.995 49.365 L
448.001 49.382 L
448.652 50.369 L
448.663 50.358 L
448.669 50.159 L
449.277 50.749 L
449.331 50.734 L
449.337 50.706 L
449.733 50.518 L
449.994 51.123 L
449.999 51.084 L
450.004 51.116 L
450.01 51.133 L
450.167 50.3 L
450.661 50.909 L
450.667 51.04 L
450.824 50.976 L
451.232 52.368 L
451.329 52.329 L
451.335 52.316 L
451.487 52.501 L
451.84 50.79 L
451.997 51.326 L
452.003 51.311 L
452.22 51.617 L
452.486 50.831 L
452.665 51.301 L
452.671 51.319 L
452.692 51.423 L
453.333 50.03 L
453.338 50.002 L
453.458 50.278 L
453.854 48.603 L
453.996 48.757 L
454.001 48.872 L
454.446 48.632 L
454.582 49.23 L
454.663 48.891 L
454.669 48.864 L
454.756 48.815 L
455.206 49.641 L
455.331 49.114 L
455.337 49.074 L
455.44 48.887 L
455.994 49.623 L
455.999 49.424 L
456.005 49.439 L
456.108 49.706 L
456.586 48.652 L
456.662 48.874 L
456.667 48.906 L
456.928 49.272 L
457.281 48.47 L
457.33 48.687 L
457.335 48.819 L
457.541 48.223 L
457.954 49.077 L
457.997 48.975 L
458.003 48.992 L
458.014 48.594 L
458.649 49.626 L
458.665 49.386 L
458.671 49.507 L
459.263 50.796 L
459.333 50.618 L
459.339 50.604 L
459.833 51.841 L
459.996 51.798 L
460.001 51.815 L
460.278 52.177 L
460.664 51.463 L
460.669 51.435 L
460.826 51.681 L
461.299 50.345 L
461.331 50.38 L
461.337 50.411 L
461.348 50.402 L
461.923 51.465 L
461.999 51.13 L
462.005 51.147 L
462.336 50.583 L
462.613 51.392 L
462.662 51.219 L
462.667 51.25 L
463.053 52.061 L
463.254 51.046 L
463.33 51.363 L
463.335 51.359 L
463.368 51.144 L
463.818 51.683 L
463.998 51.432 L
464.003 51.45 L
464.264 51.8 L
464.573 50.712 L
464.665 50.823 L
464.671 50.809 L
464.866 50.582 L
465.236 51.675 L
465.328 51.52 L
465.333 51.492 L
465.388 51.641 L
465.958 49.519 L
465.996 49.635 L
466.001 49.767 L
466.197 49.636 L
466.647 50.431 L
466.664 50.409 L
466.669 50.541 L
466.946 50.779 L
467.332 50.108 L
467.337 50.126 L
467.581 50.512 L
467.907 49.235 L
467.999 49.402 L
468.005 49.374 L
468.238 49.587 L
468.548 49.067 L
468.662 49.369 L
468.667 49.387 L
468.716 49.646 L
469.205 48.937 L
469.33 49.492 L
469.335 49.509 L
469.52 49.883 L
469.58 49.114 L
469.998 49.326 L
470.003 49.343 L
470.009 49.316 L
470.247 50.256 L
470.666 49.599 L
470.671 49.616 L
470.915 49.926 L
471.268 49.185 L
471.328 49.565 L
471.333 49.365 L
471.371 49.521 L
471.659 48.421 L
471.996 49.275 L
472.001 49.29 L
472.007 49.275 L
472.506 50.152 L
472.664 49.464 L
472.669 49.596 L
472.843 49.233 L
473.077 49.847 L
473.332 49.573 L
473.337 49.588 L
473.478 49.817 L
473.5 49.02 L
474 49.543 L
474.005 49.529 L
474.135 49.376 L
474.662 50.06 L
474.668 50.075 L
474.749 50.396 L
475.297 49.157 L
475.33 49.325 L
475.335 49.125 L
475.368 49.423 L
475.688 48.644 L
475.998 49.161 L
476.003 49.133 L
476.02 49.252 L
476.568 47.617 L
476.666 47.837 L
476.671 47.638 L
476.742 47.584 L
476.921 48.425 L
477.328 48.017 L
477.334 47.818 L
477.399 48.169 L
477.931 46.831 L
477.996 47.134 L
478.002 47.119 L
478.648 48.105 L
478.664 47.84 L
478.669 47.8 L
478.952 47.728 L
479.332 48.818 L
479.337 48.79 L
479.907 49.567 L
479.994 48.701 L
480 48.834 L
480.005 48.851 L
480.407 48.195 L
480.63 49.035 L
480.662 48.982 L
480.668 49.114 L
480.793 49.293 L
481.097 48.317 L
481.33 49.054 L
481.336 49.015 L
481.976 49.776 L
481.998 49.47 L
482.003 49.487 L
482.161 50.219 L
482.508 49.091 L
482.666 49.453 L
482.671 49.253 L
482.802 49.638 L
483.209 48.192 L
483.328 48.328 L
483.334 48.345 L
483.383 48.534 L
483.996 47.461 L
484.002 47.421 L
484.583 47.876 L
484.664 47.232 L
484.67 47.247 L
484.74 47.564 L
485.191 46.711 L
485.332 46.844 L
485.337 46.977 L
485.777 46.152 L
486 46.514 L
486.005 46.529 L
486.054 46.676 L
486.445 45.953 L
486.662 46.097 L
486.668 46.082 L
486.738 46.418 L
487.042 45.324 L
487.33 45.616 L
487.336 45.576 L
487.591 46.05 L
487.982 45.123 L
487.998 45.186 L
488.004 45.203 L
488.107 44.932 L
488.4 45.556 L
488.666 45.401 L
488.671 45.535 L
488.97 44.598 L
489.193 45.77 L
489.329 45.658 L
489.334 45.63 L
489.453 46.053 L
489.763 45.304 L
489.996 45.447 L
490.002 45.462 L
490.208 45.676 L
490.409 44.775 L
490.664 44.995 L
490.67 45.027 L
490.876 44.337 L
491.327 45.159 L
491.332 45.131 L
491.338 44.933 L
491.354 45.161 L
491.924 43.978 L
491.995 44.089 L
492 44.104 L
492.141 43.79 L
492.614 44.556 L
492.663 44.248 L
492.668 44.382 L
492.728 44.545 L
492.858 43.695 L
493.33 43.878 L
493.336 43.899 L
493.998 45.336 L
494.004 45.353 L
494.199 45.841 L
494.634 45.217 L
494.666 45.299 L
494.672 45.271 L
494.78 45.546 L
495.269 44.813 L
495.329 44.932 L
495.334 44.917 L
495.41 45.102 L
495.942 44.119 L
495.997 44.218 L
496.002 44.249 L
496.1 44.409 L
496.572 43.691 L
496.664 44.092 L
496.67 44.064 L
496.746 43.541 L
497.262 44.488 L
497.332 44.487 L
497.338 44.502 L
497.365 44.458 L
497.582 45.38 L
497.995 44.778 L
498 44.904 L
498.239 44.593 L
498.598 45.224 L
498.663 45.167 L
498.668 45.127 L
499.048 46.126 L
499.331 45.645 L
499.336 45.66 L
499.684 46.046 L
499.982 45.178 L
499.998 45.234 L
500.004 45.225 L
500.069 44.883 L
500.498 45.773 L
500.666 45.767 L
500.672 45.789 L
500.97 45.338 L
501.323 46.387 L
501.329 46.372 L
501.334 46.505 L
501.627 47.03 L
501.839 46.094 L
501.997 46.636 L
502.002 46.669 L
502.246 46.348 L
502.377 47.061 L
502.665 46.824 L
502.67 46.841 L
502.681 46.88 L
502.98 45.554 L
503.332 46.119 L
503.338 45.921 L
503.512 45.723 L
503.979 46.412 L
503.995 46.001 L
504 46.033 L
504.104 46.206 L
504.63 45.493 L
504.663 45.635 L
504.668 45.652 L
505.124 45.892 L
505.2 45.364 L
505.331 45.564 L
505.336 45.595 L
505.342 45.582 L
505.933 46.842 L
505.999 46.511 L
506.004 46.525 L
506.037 46.769 L
506.607 45.843 L
506.667 45.875 L
506.672 45.86 L
506.748 46.204 L
507.318 44.827 L
507.329 44.859 L
507.334 44.831 L
507.438 44.265 L
507.997 45.927 L
508.002 45.945 L
508.046 45.51 L
508.659 46.368 L
508.665 46.17 L
508.67 45.972 L
508.681 46.091 L
509.208 45.362 L
509.333 45.868 L
509.338 45.67 L
509.376 45.814 L
509.859 44.376 L
509.995 44.584 L
510.001 44.57 L
510.044 44.747 L
510.462 43.735 L
510.663 44.073 L
510.668 44.209 L
510.848 42.946 L
511.331 43.71 L
511.336 43.727 L
511.993 45.188 L
511.999 45.159 L
512.004 44.962 L
512.037 44.929 L
512.368 46.088 L
512.667 45.501 L
512.672 45.487 L
512.677 45.621 L
512.732 45.033 L
513.329 45.371 L
513.335 45.388 L
513.546 44.663 L
513.997 45.249 L
514.002 45.384 L
514.268 45.593 L
514.616 44.186 L
514.665 44.228 L
514.67 44.2 L
514.692 44.129 L
515.208 45.14 L
515.333 44.998 L
515.338 45.133 L
515.691 44.781 L
515.881 45.566 L
515.995 45.456 L
516.001 45.591 L
516.066 46.011 L
516.256 45.482 L
516.663 45.805 L
516.669 45.764 L
516.701 45.952 L
516.848 45.444 L
517.331 45.517 L
517.336 45.519 L
517.63 46.184 L
517.82 45.319 L
517.999 45.502 L
518.004 45.487 L
518.173 45.026 L
518.531 46.08 L
518.661 45.21 L
518.667 45.013 L
518.748 45.149 L
519.074 44.33 L
519.329 44.791 L
519.335 44.806 L
519.356 45.018 L
519.975 43.805 L
519.997 43.962 L
520.003 43.993 L
520.312 43.696 L
520.643 44.762 L
520.665 44.614 L
520.67 44.586 L
520.757 44.781 L
521.203 43.977 L
521.333 44.155 L
521.338 44.172 L
521.729 44.471 L
521.822 43.577 L
521.995 43.722 L
522.001 43.525 L
522.316 43.316 L
522.631 44.495 L
522.663 44.427 L
522.669 44.561 L
522.68 44.336 L
523.331 45.357 L
523.337 45.375 L
523.445 45.371 L
523.787 46.179 L
523.999 45.833 L
524.005 45.85 L
524.053 45.952 L
524.482 44.702 L
524.661 44.831 L
524.667 44.965 L
525.047 44.701 L
525.281 45.281 L
525.329 45.174 L
525.335 45.205 L
525.557 45.658 L
525.981 44.328 L
525.997 44.502 L
526.003 44.304 L
526.171 44.07 L
526.6 45.075 L
526.665 45.053 L
526.671 45.084 L
526.774 44.658 L
527.328 45.61 L
527.333 45.571 L
527.339 45.602 L
527.36 45.55 L
527.74 46.581 L
527.996 46.129 L
528.001 46.144 L
528.473 47.179 L
528.587 45.954 L
528.663 46.158 L
528.669 46.131 L
528.81 45.784 L
529.141 46.753 L
529.331 45.985 L
529.337 46 L
529.342 45.985 L
529.717 46.928 L
529.999 46.212 L
530.005 46.013 L
530.249 45.882 L
530.651 46.796 L
530.662 46.729 L
530.667 46.531 L
530.705 46.274 L
531.036 47.084 L
531.33 46.756 L
531.335 46.716 L
531.384 46.652 L
531.965 47.632 L
531.997 47.516 L
532.003 47.533 L
532.041 47.477 L
532.399 48.11 L
532.665 47.673 L
532.671 47.784 L
533.018 47.665 L
533.17 48.351 L
533.333 48.237 L
533.339 48.199 L
533.382 48.008 L
533.692 49.188 L
533.996 48.265 L
534.001 48.284 L
534.066 48.477 L
534.533 47.811 L
534.664 48.154 L
534.669 48.116 L
534.756 48.474 L
535.065 47.436 L
535.331 47.825 L
535.337 47.932 L
535.5 47.844 L
535.804 48.385 L
535.999 48.307 L
536.005 48.322 L
536.016 48.44 L
536.417 47.379 L
536.662 47.929 L
536.667 47.944 L
537.183 48.387 L
537.33 47.687 L
537.335 47.659 L
537.78 46.482 L
537.998 46.824 L
538.003 46.796 L
538.264 47.616 L
538.503 46.648 L
538.665 47.08 L
538.671 47.112 L
538.856 47.363 L
539.214 46.866 L
539.328 46.959 L
539.333 46.974 L
539.382 47.208 L
539.947 46.248 L
539.996 46.309 L
540.001 46.281 L
540.175 46.151 L
540.658 47.259 L
540.664 47.237 L
540.669 47.265 L
540.827 47.793 L
540.99 47.137 L
541.332 47.286 L
541.337 47.273 L
541.554 47.614 L
541.744 47.014 L
542 47.193 L
542.005 47.179 L
542.304 47.816 L
542.428 47.156 L
542.662 47.193 L
542.667 47.25 L
542.906 47.721 L
543.265 46.519 L
543.33 46.599 L
543.335 46.616 L
543.422 46.804 L
543.743 46.183 L
543.998 46.529 L
544.003 46.547 L
544.079 46.463 L
544.66 47.392 L
544.666 47.364 L
544.671 47.381 L
544.981 47.08 L
545.328 47.525 L
545.334 47.484 L
545.41 47.227 L
545.665 48.097 L
545.996 47.324 L
546.001 47.296 L
546.322 46.846 L
546.642 47.527 L
546.664 47.349 L
546.669 47.379 L
547.321 48.504 L
547.332 48.488 L
547.337 48.506 L
547.647 48.92 L
547.945 48.126 L
548 48.354 L
548.005 48.314 L
548.163 47.852 L
548.64 48.648 L
548.662 48.527 L
548.668 48.557 L
548.944 48.145 L
549.189 49.09 L
549.33 48.834 L
549.335 48.964 L
549.764 47.49 L
549.998 47.831 L
550.003 47.964 L
550.514 48.027 L
550.601 47.23 L
550.666 47.375 L
550.671 47.335 L
551.209 48.32 L
551.328 47.722 L
551.334 47.693 L
551.507 48.249 L
551.893 47.283 L
551.996 47.399 L
552.002 47.533 L
552.235 47.168 L
552.653 48.027 L
552.664 47.788 L
552.669 47.818 L
552.838 47.59 L
553.278 48.22 L
553.332 48.092 L
553.337 48.077 L
553.549 47.799 L
554 48.433 L
554.005 48.235 L
554.603 46.838 L
554.662 46.977 L
554.668 46.779 L
554.727 46.599 L
555.33 47.367 L
555.336 47.384 L
555.433 46.442 L
555.96 47.393 L
555.998 47.048 L
556.003 47.182 L
556.009 46.983 L
556.661 48.577 L
556.666 48.378 L
556.671 48.393 L
556.72 48.292 L
557.263 49.48 L
557.328 49.181 L
557.334 49.313 L
557.356 49.497 L
557.888 47.574 L
557.996 47.783 L
558.002 47.755 L
558.306 48.141 L
558.404 47.205 L
558.664 47.239 L
558.67 47.255 L
558.881 47.076 L
559.332 48.163 L
559.338 47.964 L
559.549 48.277 L
560 46.857 L
560.005 46.824 L
560.309 47.129 L
560.543 45.596 L
560.662 46.005 L
560.668 46.022 L
561.287 47.259 L
561.33 47.106 L
561.336 47.124 L
561.575 47.474 L
561.911 46.43 L
561.998 46.631 L
562.004 46.433 L
562.319 45.823 L
562.536 46.451 L
562.666 46.239 L
562.672 46.269 L
562.72 46.429 L
563.291 45.049 L
563.329 45.121 L
563.334 45.093 L
563.339 44.895 L
563.866 45.718 L
563.996 45.317 L
564.002 45.348 L
564.29 45.099 L
564.594 45.913 L
564.664 45.227 L
564.67 45.213 L
564.952 44.837 L
565.251 45.542 L
565.332 45.438 L
565.338 45.455 L
565.701 45.686 L
565.843 44.924 L
565.995 45.245 L
566 45.264 L
566.418 44.518 L
566.635 45.492 L
566.663 45.261 L
566.668 45.276 L
566.967 45.033 L
567.325 45.557 L
567.33 45.516 L
567.336 45.65 L
567.607 45.158 L
567.982 45.941 L
567.998 45.518 L
568.004 45.477 L
568.074 45.727 L
568.362 44.79 L
568.666 45.177 L
568.672 45.15 L
568.748 45.393 L
568.916 44.603 L
569.329 45 L
569.334 44.993 L
569.34 45.063 L
569.546 44.335 L
569.997 44.684 L
570.002 44.657 L
570.583 43.28 L
570.664 43.575 L
570.67 43.606 L
570.806 43.95 L
571.305 42.78 L
571.332 42.819 L
571.338 42.954 L
571.381 42.911 L
571.989 43.457 L
571.995 43.416 L
572 43.551 L
572.255 42.449 L
572.663 43.481 L
572.668 43.284 L
572.798 43.689 L
572.989 42.87 L
573.331 43.456 L
573.336 43.487 L
573.955 44.621 L
573.998 44.349 L
574.004 44.334 L
574.02 44.244 L
574.612 45.036 L
574.666 44.8 L
574.672 44.773 L
575.057 44.56 L
575.242 45.197 L
575.329 44.869 L
575.334 45.004 L
575.421 45.214 L
575.649 44.519 L
575.997 44.869 L
576.002 44.858 L
576.008 44.96 L
576.111 44.327 L
576.665 44.781 L
576.67 44.806 L
576.719 45.033 L
577.153 44.285 L
577.333 44.517 L
577.338 44.489 L
577.414 44.745 L
577.995 44.102 L
578 44.061 L
578.299 44.55 L
578.63 43.726 L
578.663 43.781 L
578.668 43.812 L
578.864 44.237 L
579.304 43.535 L
579.331 43.66 L
579.336 43.645 L
579.488 43.378 L
579.825 43.845 L
579.999 43.699 L
580.004 43.684 L
580.216 44.278 L
580.667 44.181 L
580.672 44.196 L
580.851 44.525 L
581.139 43.635 L
581.329 44.03 L
581.334 44.048 L
581.367 43.904 L
581.731 44.537 L
581.997 44.147 L
582.002 43.95 L
582.621 42.583 L
582.665 42.607 L
582.67 42.621 L
582.692 42.339 L
583.3 43.538 L
583.333 43.374 L
583.338 43.402 L
583.675 43.87 L
583.897 42.738 L
583.995 42.956 L
584.001 42.974 L
584.033 43.078 L
584.592 41.908 L
584.663 42.038 L
584.668 42.023 L
584.793 42.512 L
585.054 41.271 L
585.331 41.552 L
585.336 41.51 L
585.765 41.13 L
585.993 42.231 L
585.999 42.035 L
586.004 42.02 L
586.189 42.385 L
586.515 41.385 L
586.661 41.541 L
586.667 41.676 L
586.781 41.603 L
587.324 42.309 L
587.329 42.281 L
587.335 42.31 L
587.552 42.276 L
587.926 43.05 L
587.997 42.647 L
588.002 42.678 L
588.377 42.414 L
588.545 43.209 L
588.665 42.674 L
588.67 42.477 L
589.317 43.849 L
589.333 43.652 L
589.338 43.68 L
589.403 43.555 L
589.881 44.423 L
589.995 44.107 L
590.001 44.138 L
590.077 43.921 L
590.576 45.095 L
590.663 44.946 L
590.669 44.748 L
590.679 44.737 L
591.331 45.73 L
591.336 45.747 L
591.429 45.745 L
591.945 46.408 L
591.999 46.355 L
592.004 46.37 L
592.336 45.886 L
592.656 46.703 L
592.661 46.664 L
592.667 46.793 L
592.792 46.954 L
593.047 45.458 L
593.329 45.86 L
593.335 45.892 L
593.373 46.184 L
593.769 45.296 L
593.997 45.74 L
594.003 45.725 L
594.242 45.345 L
594.622 46.19 L
594.665 46 L
594.671 46.031 L
594.736 46.136 L
595.175 45.302 L
595.333 45.693 L
595.338 45.709 L
595.61 45.975 L
595.789 45.081 L
595.995 45.261 L
596.001 45.249 L
596.164 44.797 L
596.457 45.525 L
596.663 45.122 L
596.669 45.094 L
596.794 44.832 L
597.119 45.547 L
597.331 44.886 L
597.337 44.901 L
597.538 45.326 L
597.929 44.623 L
597.999 44.974 L
598.005 45.109 L
598.075 45.293 L
598.319 44.051 L
598.662 44.484 L
598.667 44.499 L
598.754 44.331 L
598.928 45.063 L
599.329 44.865 L
599.335 45 L
599.731 45.218 L
599.921 44.6 L
599.997 44.67 L
600.003 44.687 L
600.144 45.056 L
600.595 44.153 L
600.665 44.258 L
600.671 44.23 L
600.692 44.295 L
600.991 43.244 L
601.333 43.522 L
601.339 43.549 L
601.485 43.477 L
601.963 44.012 L
601.996 43.998 L
602.001 43.956 L
602.457 44.306 L
602.511 43.6 L
602.663 43.898 L
602.669 44.014 L
602.87 44.434 L
602.962 43.651 L
603.331 44.042 L
603.337 44.057 L
603.386 44.001 L
603.69 45.06 L
603.999 44.324 L
604.005 44.331 L
604.043 44.37 L
604.618 42.765 L
604.662 42.835 L
604.667 42.844 L
604.922 42.647 L
605.324 43.479 L
605.33 43.438 L
605.335 43.434 L
605.4 43.077 L
605.997 44.456 L
606.003 44.415 L
606.204 44.915 L
606.644 43.941 L
606.665 44.059 L
606.671 44.09 L
606.703 44.25 L
607.236 42.813 L
607.333 43.091 L
607.339 43.225 L
607.697 42.899 L
607.941 43.6 L
607.996 43.261 L
608.001 43.278 L
608.012 43.04 L
608.658 44.466 L
608.664 44.454 L
608.669 44.485 L
608.789 44.183 L
609.31 44.874 L
609.331 44.796 L
609.337 44.813 L
609.467 45.145 L
609.847 42.838 L
609.999 43.158 L
610.005 43.184 L
610.141 42.807 L
610.548 43.24 L
610.662 43.145 L
610.667 42.947 L
610.727 42.598 L
610.982 43.179 L
611.33 42.628 L
611.335 42.62 L
611.835 42.267 L
611.976 42.873 L
611.998 42.64 L
612.003 42.625 L
612.465 42.532 L
612.617 43.395 L
612.666 43.215 L
612.671 43.188 L
612.676 43.322 L
613.312 42.495 L
613.328 42.559 L
613.333 42.544 L
613.551 42.136 L
613.985 43.395 L
613.996 43.327 L
614.001 43.286 L
614.419 43.525 L
614.642 42.754 L
614.664 42.835 L
614.669 42.85 L
614.865 42.282 L
615.229 43.073 L
615.332 42.58 L
615.337 42.715 L
615.429 42.139 L
615.853 43.265 L
616 43.057 L
616.005 43.087 L
616.184 42.178 L
616.515 43.5 L
616.662 43.15 L
616.667 43.183 L
617.21 43.614 L
617.243 42.6 L
617.33 42.753 L
617.335 42.739 L
617.433 43.229 L
617.982 42.407 L
617.998 42.556 L
618.003 42.359 L
618.313 43.22 L
618.639 42.062 L
618.666 42.102 L
618.671 42.062 L
619.068 41.477 L
619.274 42.455 L
619.328 42.298 L
619.334 42.315 L
619.583 42.068 L
619.697 42.71 L
619.996 42.424 L
620.001 42.439 L
620.229 41.832 L
620.43 42.625 L
620.664 42.447 L
620.669 42.462 L
620.838 42.202 L
621.256 43.184 L
621.332 43.156 L
621.337 43.171 L
621.413 43.097 L
621.864 43.824 L
622 43.785 L
622.005 43.771 L
622.662 45.275 L
622.668 45.235 L
622.901 45.664 L
623.075 44.697 L
623.33 45.152 L
623.336 45.125 L
623.705 44.994 L
623.792 45.732 L
623.998 45.235 L
624.003 45.267 L
624.036 45.436 L
624.612 44.165 L
624.666 44.403 L
624.671 44.435 L
624.688 44.384 L
625.241 45.269 L
625.328 44.766 L
625.334 44.9 L
625.681 45.306 L
625.958 44.052 L
625.996 44.177 L
626.002 44.178 L
626.078 43.777 L
626.659 44.267 L
626.664 44.069 L
626.669 44.084 L
626.979 43.783 L
627.321 44.514 L
627.332 44.289 L
627.337 44.306 L
627.5 44.795 L
627.815 44.156 L
628 44.533 L
628.005 44.552 L
628.081 44.755 L
628.554 43.783 L
628.662 44.152 L
628.668 44.112 L
628.863 44.459 L
629.314 43.889 L
629.33 43.922 L
629.336 43.939 L
629.83 44.119 L
629.976 43.355 L
629.998 43.44 L
630.004 43.546 L
630.069 43.228 L
630.416 44.324 L
630.666 43.505 L
630.671 43.308 L
630.742 43.186 L
631.269 44.346 L
631.328 44.216 L
631.334 44.189 L
631.345 43.963 L
631.817 45.13 L
631.996 44.853 L
632.002 44.885 L
632.078 45.256 L
632.643 43.75 L
632.664 43.845 L
632.67 43.877 L
632.838 44.335 L
633.283 43.295 L
633.332 43.409 L
633.338 43.426 L
633.359 43.234 L
633.68 43.838 L
633.995 43.628 L
634 43.659 L
S
GR
%%Trailer
%%Pages: 1
%%EOF
