%!PS-Adobe-3.0 EPSF-3.0
%%Creator: (MATLAB, The Mathworks, Inc. Version 9.3.0.713579 \(R2017b\). Operating System: Windows 7)
%%Title: fig/RBFN_600_5_1000_convergence.eps
%%CreationDate: 2018-05-06T11:32:08
%%Pages: (atend)
%%BoundingBox:    35     3   492   384
%%LanguageLevel: 3
%%EndComments
%%BeginProlog
%%BeginResource: procset (Apache XML Graphics Std ProcSet) 1.2 0
%%Version: 1.2 0
%%Copyright: (Copyright 2001-2003,2010 The Apache Software Foundation. License terms: http://www.apache.org/licenses/LICENSE-2.0)
/bd{bind def}bind def
/ld{load def}bd
/GR/grestore ld
/GS/gsave ld
/RM/rmoveto ld
/C/curveto ld
/t/show ld
/L/lineto ld
/ML/setmiterlimit ld
/CT/concat ld
/f/fill ld
/N/newpath ld
/S/stroke ld
/CC/setcmykcolor ld
/A/ashow ld
/cp/closepath ld
/RC/setrgbcolor ld
/LJ/setlinejoin ld
/GC/setgray ld
/LW/setlinewidth ld
/M/moveto ld
/re {4 2 roll M
1 index 0 rlineto
0 exch rlineto
neg 0 rlineto
cp } bd
/_ctm matrix def
/_tm matrix def
/BT { _ctm currentmatrix pop matrix _tm copy pop 0 0 moveto } bd
/ET { _ctm setmatrix } bd
/iTm { _ctm setmatrix _tm concat } bd
/Tm { _tm astore pop iTm 0 0 moveto } bd
/ux 0.0 def
/uy 0.0 def
/F {
  /Tp exch def
  /Tf exch def
  Tf findfont Tp scalefont setfont
  /cf Tf def  /cs Tp def
} bd
/ULS {currentpoint /uy exch def /ux exch def} bd
/ULE {
  /Tcx currentpoint pop def
  gsave
  newpath
  cf findfont cs scalefont dup
  /FontMatrix get 0 get /Ts exch def /FontInfo get dup
  /UnderlinePosition get Ts mul /To exch def
  /UnderlineThickness get Ts mul /Tt exch def
  ux uy To add moveto  Tcx uy To add lineto
  Tt setlinewidth stroke
  grestore
} bd
/OLE {
  /Tcx currentpoint pop def
  gsave
  newpath
  cf findfont cs scalefont dup
  /FontMatrix get 0 get /Ts exch def /FontInfo get dup
  /UnderlinePosition get Ts mul /To exch def
  /UnderlineThickness get Ts mul /Tt exch def
  ux uy To add cs add moveto Tcx uy To add cs add lineto
  Tt setlinewidth stroke
  grestore
} bd
/SOE {
  /Tcx currentpoint pop def
  gsave
  newpath
  cf findfont cs scalefont dup
  /FontMatrix get 0 get /Ts exch def /FontInfo get dup
  /UnderlinePosition get Ts mul /To exch def
  /UnderlineThickness get Ts mul /Tt exch def
  ux uy To add cs 10 mul 26 idiv add moveto Tcx uy To add cs 10 mul 26 idiv add lineto
  Tt setlinewidth stroke
  grestore
} bd
/QT {
/Y22 exch store
/X22 exch store
/Y21 exch store
/X21 exch store
currentpoint
/Y21 load 2 mul add 3 div exch
/X21 load 2 mul add 3 div exch
/X21 load 2 mul /X22 load add 3 div
/Y21 load 2 mul /Y22 load add 3 div
/X22 load /Y22 load curveto
} bd
/SSPD {
dup length /d exch dict def
{
/v exch def
/k exch def
currentpagedevice k known {
/cpdv currentpagedevice k get def
v cpdv ne {
/upd false def
/nullv v type /nulltype eq def
/nullcpdv cpdv type /nulltype eq def
nullv nullcpdv or
{
/upd true def
} {
/sametype v type cpdv type eq def
sametype {
v type /arraytype eq {
/vlen v length def
/cpdvlen cpdv length def
vlen cpdvlen eq {
0 1 vlen 1 sub {
/i exch def
/obj v i get def
/cpdobj cpdv i get def
obj cpdobj ne {
/upd true def
exit
} if
} for
} {
/upd true def
} ifelse
} {
v type /dicttype eq {
v {
/dv exch def
/dk exch def
/cpddv cpdv dk get def
dv cpddv ne {
/upd true def
exit
} if
} forall
} {
/upd true def
} ifelse
} ifelse
} if
} ifelse
upd true eq {
d k v put
} if
} if
} if
} forall
d length 0 gt {
d setpagedevice
} if
} bd
/RE { % /NewFontName [NewEncodingArray] /FontName RE -
  findfont dup length dict begin
  {
    1 index /FID ne
    {def} {pop pop} ifelse
  } forall
  /Encoding exch def
  /FontName 1 index def
  currentdict definefont pop
  end
} bind def
%%EndResource
%%BeginResource: procset (Apache XML Graphics EPS ProcSet) 1.0 0
%%Version: 1.0 0
%%Copyright: (Copyright 2002-2003 The Apache Software Foundation. License terms: http://www.apache.org/licenses/LICENSE-2.0)
/BeginEPSF { %def
/b4_Inc_state save def         % Save state for cleanup
/dict_count countdictstack def % Count objects on dict stack
/op_count count 1 sub def      % Count objects on operand stack
userdict begin                 % Push userdict on dict stack
/showpage { } def              % Redefine showpage, { } = null proc
0 setgray 0 setlinecap         % Prepare graphics state
1 setlinewidth 0 setlinejoin
10 setmiterlimit [ ] 0 setdash newpath
/languagelevel where           % If level not equal to 1 then
{pop languagelevel             % set strokeadjust and
1 ne                           % overprint to their defaults.
{false setstrokeadjust false setoverprint
} if
} if
} bd
/EndEPSF { %def
count op_count sub {pop} repeat            % Clean up stacks
countdictstack dict_count sub {end} repeat
b4_Inc_state restore
} bd
%%EndResource
%FOPBeginFontDict
%%IncludeResource: font Courier-Oblique
%%IncludeResource: font Courier-BoldOblique
%%IncludeResource: font Courier-Bold
%%IncludeResource: font ZapfDingbats
%%IncludeResource: font Symbol
%%IncludeResource: font Helvetica
%%IncludeResource: font Helvetica-Oblique
%%IncludeResource: font Helvetica-Bold
%%IncludeResource: font Helvetica-BoldOblique
%%IncludeResource: font Times-Roman
%%IncludeResource: font Times-Italic
%%IncludeResource: font Times-Bold
%%IncludeResource: font Times-BoldItalic
%%IncludeResource: font Courier
%FOPEndFontDict
%%BeginResource: encoding WinAnsiEncoding
/WinAnsiEncoding [
/.notdef /.notdef /.notdef /.notdef /.notdef
/.notdef /.notdef /.notdef /.notdef /.notdef
/.notdef /.notdef /.notdef /.notdef /.notdef
/.notdef /.notdef /.notdef /.notdef /.notdef
/.notdef /.notdef /.notdef /.notdef /.notdef
/.notdef /.notdef /.notdef /.notdef /.notdef
/.notdef /.notdef /space /exclam /quotedbl
/numbersign /dollar /percent /ampersand /quotesingle
/parenleft /parenright /asterisk /plus /comma
/hyphen /period /slash /zero /one
/two /three /four /five /six
/seven /eight /nine /colon /semicolon
/less /equal /greater /question /at
/A /B /C /D /E
/F /G /H /I /J
/K /L /M /N /O
/P /Q /R /S /T
/U /V /W /X /Y
/Z /bracketleft /backslash /bracketright /asciicircum
/underscore /quoteleft /a /b /c
/d /e /f /g /h
/i /j /k /l /m
/n /o /p /q /r
/s /t /u /v /w
/x /y /z /braceleft /bar
/braceright /asciitilde /bullet /Euro /bullet
/quotesinglbase /florin /quotedblbase /ellipsis /dagger
/daggerdbl /circumflex /perthousand /Scaron /guilsinglleft
/OE /bullet /Zcaron /bullet /bullet
/quoteleft /quoteright /quotedblleft /quotedblright /bullet
/endash /emdash /asciitilde /trademark /scaron
/guilsinglright /oe /bullet /zcaron /Ydieresis
/space /exclamdown /cent /sterling /currency
/yen /brokenbar /section /dieresis /copyright
/ordfeminine /guillemotleft /logicalnot /sfthyphen /registered
/macron /degree /plusminus /twosuperior /threesuperior
/acute /mu /paragraph /middot /cedilla
/onesuperior /ordmasculine /guillemotright /onequarter /onehalf
/threequarters /questiondown /Agrave /Aacute /Acircumflex
/Atilde /Adieresis /Aring /AE /Ccedilla
/Egrave /Eacute /Ecircumflex /Edieresis /Igrave
/Iacute /Icircumflex /Idieresis /Eth /Ntilde
/Ograve /Oacute /Ocircumflex /Otilde /Odieresis
/multiply /Oslash /Ugrave /Uacute /Ucircumflex
/Udieresis /Yacute /Thorn /germandbls /agrave
/aacute /acircumflex /atilde /adieresis /aring
/ae /ccedilla /egrave /eacute /ecircumflex
/edieresis /igrave /iacute /icircumflex /idieresis
/eth /ntilde /ograve /oacute /ocircumflex
/otilde /odieresis /divide /oslash /ugrave
/uacute /ucircumflex /udieresis /yacute /thorn
/ydieresis
] def
%%EndResource
%FOPBeginFontReencode
/Courier-Oblique findfont
dup length dict begin
  {1 index /FID ne {def} {pop pop} ifelse} forall
  /Encoding WinAnsiEncoding def
  currentdict
end
/Courier-Oblique exch definefont pop
/Courier-BoldOblique findfont
dup length dict begin
  {1 index /FID ne {def} {pop pop} ifelse} forall
  /Encoding WinAnsiEncoding def
  currentdict
end
/Courier-BoldOblique exch definefont pop
/Courier-Bold findfont
dup length dict begin
  {1 index /FID ne {def} {pop pop} ifelse} forall
  /Encoding WinAnsiEncoding def
  currentdict
end
/Courier-Bold exch definefont pop
/Helvetica findfont
dup length dict begin
  {1 index /FID ne {def} {pop pop} ifelse} forall
  /Encoding WinAnsiEncoding def
  currentdict
end
/Helvetica exch definefont pop
/Helvetica-Oblique findfont
dup length dict begin
  {1 index /FID ne {def} {pop pop} ifelse} forall
  /Encoding WinAnsiEncoding def
  currentdict
end
/Helvetica-Oblique exch definefont pop
/Helvetica-Bold findfont
dup length dict begin
  {1 index /FID ne {def} {pop pop} ifelse} forall
  /Encoding WinAnsiEncoding def
  currentdict
end
/Helvetica-Bold exch definefont pop
/Helvetica-BoldOblique findfont
dup length dict begin
  {1 index /FID ne {def} {pop pop} ifelse} forall
  /Encoding WinAnsiEncoding def
  currentdict
end
/Helvetica-BoldOblique exch definefont pop
/Times-Roman findfont
dup length dict begin
  {1 index /FID ne {def} {pop pop} ifelse} forall
  /Encoding WinAnsiEncoding def
  currentdict
end
/Times-Roman exch definefont pop
/Times-Italic findfont
dup length dict begin
  {1 index /FID ne {def} {pop pop} ifelse} forall
  /Encoding WinAnsiEncoding def
  currentdict
end
/Times-Italic exch definefont pop
/Times-Bold findfont
dup length dict begin
  {1 index /FID ne {def} {pop pop} ifelse} forall
  /Encoding WinAnsiEncoding def
  currentdict
end
/Times-Bold exch definefont pop
/Times-BoldItalic findfont
dup length dict begin
  {1 index /FID ne {def} {pop pop} ifelse} forall
  /Encoding WinAnsiEncoding def
  currentdict
end
/Times-BoldItalic exch definefont pop
/Courier findfont
dup length dict begin
  {1 index /FID ne {def} {pop pop} ifelse} forall
  /Encoding WinAnsiEncoding def
  currentdict
end
/Courier exch definefont pop
%FOPEndFontReencode
%%EndProlog
%%Page: 1 1
%%PageBoundingBox: 0 0 525 394
%%BeginPageSetup
[1 0 0 -1 0 394] CT
%%EndPageSetup
GS
[0.75 0 0 0.74971 0 0.39999] CT
N
0 0 M
700 0 L
700 525 L
0 525 L
0 0 L
cp
clip
1 GC
N
0 0 700 525 re
f
GR
GS
[0.75 0 0 0.74971 0 0.39999] CT
1 GC
N
0 0 700 525 re
f
GR
GS
[0.75 0 0 0.74971 0 0.39999] CT
1 GC
N
91 463 M
634 463 L
634 39 L
91 39 L
cp
f
GR
GS
[0.75 0 0 0.74971 0 0.39999] CT
0.873 GC
1 LJ
0.667 LW
N
91 463 M
91 39 L
S
GR
GS
[0.75 0 0 0.74971 0 0.39999] CT
0.873 GC
1 LJ
0.667 LW
N
199.6 463 M
199.6 39 L
S
GR
GS
[0.75 0 0 0.74971 0 0.39999] CT
0.873 GC
1 LJ
0.667 LW
N
308.2 463 M
308.2 39 L
S
GR
GS
[0.75 0 0 0.74971 0 0.39999] CT
0.873 GC
1 LJ
0.667 LW
N
416.8 463 M
416.8 39 L
S
GR
GS
[0.75 0 0 0.74971 0 0.39999] CT
0.873 GC
1 LJ
0.667 LW
N
525.4 463 M
525.4 39 L
S
GR
GS
[0.75 0 0 0.74971 0 0.39999] CT
0.873 GC
1 LJ
0.667 LW
N
634 463 M
634 39 L
S
GR
GS
[0.75 0 0 0.74971 0 0.39999] CT
0.873 GC
1 LJ
0.667 LW
N
634 463 M
91 463 L
S
GR
GS
[0.75 0 0 0.74971 0 0.39999] CT
0.873 GC
1 LJ
0.667 LW
N
634 392.333 M
91 392.333 L
S
GR
GS
[0.75 0 0 0.74971 0 0.39999] CT
0.873 GC
1 LJ
0.667 LW
N
634 321.667 M
91 321.667 L
S
GR
GS
[0.75 0 0 0.74971 0 0.39999] CT
0.873 GC
1 LJ
0.667 LW
N
634 251 M
91 251 L
S
GR
GS
[0.75 0 0 0.74971 0 0.39999] CT
0.873 GC
1 LJ
0.667 LW
N
634 180.333 M
91 180.333 L
S
GR
GS
[0.75 0 0 0.74971 0 0.39999] CT
0.873 GC
1 LJ
0.667 LW
N
634 109.667 M
91 109.667 L
S
GR
GS
[0.75 0 0 0.74971 0 0.39999] CT
0.873 GC
1 LJ
0.667 LW
N
634 39 M
91 39 L
S
GR
GS
[0.75 0 0 0.74971 0 0.39999] CT
0.149 GC
2 setlinecap
1 LJ
0.667 LW
N
91 463 M
634 463 L
S
GR
GS
[0.75 0 0 0.74971 0 0.39999] CT
0.149 GC
2 setlinecap
1 LJ
0.667 LW
N
91 39 M
634 39 L
S
GR
GS
[0.75 0 0 0.74971 0 0.39999] CT
0.149 GC
2 setlinecap
1 LJ
0.667 LW
N
91 463 M
91 457.57 L
S
GR
GS
[0.75 0 0 0.74971 0 0.39999] CT
0.149 GC
2 setlinecap
1 LJ
0.667 LW
N
199.6 463 M
199.6 457.57 L
S
GR
GS
[0.75 0 0 0.74971 0 0.39999] CT
0.149 GC
2 setlinecap
1 LJ
0.667 LW
N
308.2 463 M
308.2 457.57 L
S
GR
GS
[0.75 0 0 0.74971 0 0.39999] CT
0.149 GC
2 setlinecap
1 LJ
0.667 LW
N
416.8 463 M
416.8 457.57 L
S
GR
GS
[0.75 0 0 0.74971 0 0.39999] CT
0.149 GC
2 setlinecap
1 LJ
0.667 LW
N
525.4 463 M
525.4 457.57 L
S
GR
GS
[0.75 0 0 0.74971 0 0.39999] CT
0.149 GC
2 setlinecap
1 LJ
0.667 LW
N
634 463 M
634 457.57 L
S
GR
GS
[0.75 0 0 0.74971 0 0.39999] CT
0.149 GC
2 setlinecap
1 LJ
0.667 LW
N
91 39 M
91 44.43 L
S
GR
GS
[0.75 0 0 0.74971 0 0.39999] CT
0.149 GC
2 setlinecap
1 LJ
0.667 LW
N
199.6 39 M
199.6 44.43 L
S
GR
GS
[0.75 0 0 0.74971 0 0.39999] CT
0.149 GC
2 setlinecap
1 LJ
0.667 LW
N
308.2 39 M
308.2 44.43 L
S
GR
GS
[0.75 0 0 0.74971 0 0.39999] CT
0.149 GC
2 setlinecap
1 LJ
0.667 LW
N
416.8 39 M
416.8 44.43 L
S
GR
GS
[0.75 0 0 0.74971 0 0.39999] CT
0.149 GC
2 setlinecap
1 LJ
0.667 LW
N
525.4 39 M
525.4 44.43 L
S
GR
GS
[0.75 0 0 0.74971 0 0.39999] CT
0.149 GC
2 setlinecap
1 LJ
0.667 LW
N
634 39 M
634 44.43 L
S
GR
GS
[0.75 0 0 0.74971 68.25 352.5158] CT
0.149 GC
/Helvetica 20 F
GS
[1 0 0 1 0 0] CT
-6 21 moveto 
1 -1 scale
(0) t 
GR
GR
GS
[0.75 0 0 0.74971 149.7 352.5158] CT
0.149 GC
/Helvetica 20 F
GS
[1 0 0 1 0 0] CT
-17 21 moveto 
1 -1 scale
(200) t 
GR
GR
GS
[0.75 0 0 0.74971 231.15001 352.5158] CT
0.149 GC
/Helvetica 20 F
GS
[1 0 0 1 0 0] CT
-17 21 moveto 
1 -1 scale
(400) t 
GR
GR
GS
[0.75 0 0 0.74971 312.59999 352.5158] CT
0.149 GC
/Helvetica 20 F
GS
[1 0 0 1 0 0] CT
-17 21 moveto 
1 -1 scale
(600) t 
GR
GR
GS
[0.75 0 0 0.74971 394.05002 352.5158] CT
0.149 GC
/Helvetica 20 F
GS
[1 0 0 1 0 0] CT
-17 21 moveto 
1 -1 scale
(800) t 
GR
GR
GS
[0.75 0 0 0.74971 475.5 352.5158] CT
0.149 GC
/Helvetica 20 F
GS
[1 0 0 1 0 0] CT
-22.5 21 moveto 
1 -1 scale
(1000) t 
GR
GR
GS
[0.75 0 0 0.74971 271.87521 373.008] CT
0.149 GC
/Helvetica 22 F
GS
[1 0 0 1 0 0] CT
-48.5 23 moveto 
1 -1 scale
(Itterations) t 
GR
GR
GS
[0.75 0 0 0.74971 0 0.39999] CT
0.149 GC
2 setlinecap
1 LJ
0.667 LW
N
91 463 M
91 39 L
S
GR
GS
[0.75 0 0 0.74971 0 0.39999] CT
0.149 GC
2 setlinecap
1 LJ
0.667 LW
N
634 463 M
634 39 L
S
GR
GS
[0.75 0 0 0.74971 0 0.39999] CT
0.149 GC
2 setlinecap
1 LJ
0.667 LW
N
91 463 M
96.43 463 L
S
GR
GS
[0.75 0 0 0.74971 0 0.39999] CT
0.149 GC
2 setlinecap
1 LJ
0.667 LW
N
91 392.333 M
96.43 392.333 L
S
GR
GS
[0.75 0 0 0.74971 0 0.39999] CT
0.149 GC
2 setlinecap
1 LJ
0.667 LW
N
91 321.667 M
96.43 321.667 L
S
GR
GS
[0.75 0 0 0.74971 0 0.39999] CT
0.149 GC
2 setlinecap
1 LJ
0.667 LW
N
91 251 M
96.43 251 L
S
GR
GS
[0.75 0 0 0.74971 0 0.39999] CT
0.149 GC
2 setlinecap
1 LJ
0.667 LW
N
91 180.333 M
96.43 180.333 L
S
GR
GS
[0.75 0 0 0.74971 0 0.39999] CT
0.149 GC
2 setlinecap
1 LJ
0.667 LW
N
91 109.667 M
96.43 109.667 L
S
GR
GS
[0.75 0 0 0.74971 0 0.39999] CT
0.149 GC
2 setlinecap
1 LJ
0.667 LW
N
91 39 M
96.43 39 L
S
GR
GS
[0.75 0 0 0.74971 0 0.39999] CT
0.149 GC
2 setlinecap
1 LJ
0.667 LW
N
634 463 M
628.57 463 L
S
GR
GS
[0.75 0 0 0.74971 0 0.39999] CT
0.149 GC
2 setlinecap
1 LJ
0.667 LW
N
634 392.333 M
628.57 392.333 L
S
GR
GS
[0.75 0 0 0.74971 0 0.39999] CT
0.149 GC
2 setlinecap
1 LJ
0.667 LW
N
634 321.667 M
628.57 321.667 L
S
GR
GS
[0.75 0 0 0.74971 0 0.39999] CT
0.149 GC
2 setlinecap
1 LJ
0.667 LW
N
634 251 M
628.57 251 L
S
GR
GS
[0.75 0 0 0.74971 0 0.39999] CT
0.149 GC
2 setlinecap
1 LJ
0.667 LW
N
634 180.333 M
628.57 180.333 L
S
GR
GS
[0.75 0 0 0.74971 0 0.39999] CT
0.149 GC
2 setlinecap
1 LJ
0.667 LW
N
634 109.667 M
628.57 109.667 L
S
GR
GS
[0.75 0 0 0.74971 0 0.39999] CT
0.149 GC
2 setlinecap
1 LJ
0.667 LW
N
634 39 M
628.57 39 L
S
GR
GS
[0.75 0 0 0.74971 63.25 347.51771] CT
0.149 GC
/Helvetica 20 F
GS
[1 0 0 1 0 0] CT
-12 8 moveto 
1 -1 scale
(0) t 
GR
GR
GS
[0.75 0 0 0.74971 63.25 294.53791] CT
0.149 GC
/Helvetica 20 F
GS
[1 0 0 1 0 0] CT
-12 8 moveto 
1 -1 scale
(1) t 
GR
GR
GS
[0.75 0 0 0.74971 63.25 241.55809] CT
0.149 GC
/Helvetica 20 F
GS
[1 0 0 1 0 0] CT
-12 8 moveto 
1 -1 scale
(2) t 
GR
GR
GS
[0.75 0 0 0.74971 63.25 188.57828] CT
0.149 GC
/Helvetica 20 F
GS
[1 0 0 1 0 0] CT
-12 8 moveto 
1 -1 scale
(3) t 
GR
GR
GS
[0.75 0 0 0.74971 63.25 135.59847] CT
0.149 GC
/Helvetica 20 F
GS
[1 0 0 1 0 0] CT
-12 8 moveto 
1 -1 scale
(4) t 
GR
GR
GS
[0.75 0 0 0.74971 63.25 82.61866] CT
0.149 GC
/Helvetica 20 F
GS
[1 0 0 1 0 0] CT
-12 8 moveto 
1 -1 scale
(5) t 
GR
GR
GS
[0.75 0 0 0.74971 63.25 29.63885] CT
0.149 GC
/Helvetica 20 F
GS
[1 0 0 1 0 0] CT
-12 8 moveto 
1 -1 scale
(6) t 
GR
GR
GS
[0 -0.74971 0.75 0 51.25 188.57813] CT
0.149 GC
/Helvetica 22 F
GS
[1 0 0 1 0 0] CT
-50.5 -5 moveto 
1 -1 scale
(Difference) t 
GR
GR
GS
[0.75 0 0 0.74971 162.75 22.89142] CT
/Helvetica-Bold 22 F
GS
[1 0 0 1 0 0] CT
0 0 moveto 
1 -1 scale
(Norm 2 distance from ) t 
GR
GR
GS
[0.75 0 0 0.74971 337.5 22.89142] CT
N
3.547 0.25 M
2.547 0.25 1.945 -0.484 QT
1.344 -1.219 1.109 -2.25 QT
0.875 -3.281 0.875 -4.281 QT
0.875 -4.313 L
0.875 -5.406 1.086 -6.586 QT
1.297 -7.766 1.695 -8.945 QT
2.094 -10.125 2.563 -11.047 QT
2.875 -11.688 3.391 -12.484 QT
3.906 -13.281 4.531 -13.969 QT
5.156 -14.656 5.883 -15.086 QT
6.609 -15.516 7.344 -15.516 QT
7.375 -15.516 L
9.172 -15.516 9.703 -15.07 QT
10.234 -14.625 10.523 -13.938 QT
10.813 -13.25 10.938 -12.469 QT
11.063 -11.688 11.063 -10.984 QT
11.063 -9.313 10.609 -7.578 QT
10.156 -5.844 9.359 -4.219 QT
9.063 -3.609 8.531 -2.781 QT
8 -1.953 7.398 -1.297 QT
6.797 -0.641 6.055 -0.195 QT
5.313 0.25 3.563 0.25 QT
3.547 0.25 L
cp
3.594 -0.328 M
4.313 -0.328 4.984 -1.109 QT
5.656 -1.891 6.164 -3 QT
6.672 -4.109 7.055 -5.281 QT
7.438 -6.453 7.609 -7.266 QT
4.125 -7.266 L
3.781 -5.875 3.586 -4.875 QT
3.391 -3.875 3.391 -2.906 QT
3.391 -0.328 3.594 -0.328 QT
cp
4.297 -8.031 M
7.813 -8.031 L
8.047 -9 8.188 -9.648 QT
8.328 -10.297 8.422 -11.016 QT
8.516 -11.734 8.516 -12.359 QT
8.516 -14.938 7.344 -14.938 QT
6.953 -14.938 5.938 -12.688 QT
4.922 -10.438 4.297 -8.031 QT
cp
f
GR
GS
[0.75 0 0 0.74971 346.5 22.89142] CT
/Helvetica-Bold 22 F
GS
[1 0 0 1 0 0] CT
0 0 moveto 
1 -1 scale
( to 0) t 
GR
GR
GS
[0.75 0 0 0.74971 0 0.39999] CT
0 0.447 0.741 RC
1 LJ
2.667 LW
N
91.543 463 M
92.086 463 L
92.629 461.321 L
93.172 452.929 L
93.715 452.929 L
94.258 452.929 L
94.801 452.929 L
95.344 452.929 L
95.887 452.929 L
96.43 452.929 L
96.973 449.453 L
97.516 449.453 L
98.059 448.757 L
98.602 448.757 L
99.145 448.757 L
99.688 448.757 L
100.231 448.757 L
100.774 447.658 L
101.317 446.923 L
101.86 446.923 L
102.403 446.923 L
102.946 446.923 L
103.489 446.923 L
104.032 446.923 L
104.575 446.923 L
105.118 446.102 L
105.661 446.102 L
106.204 446.102 L
106.747 446.102 L
107.29 445.827 L
107.833 445.287 L
108.376 445.287 L
108.919 445.287 L
109.462 445.287 L
110.005 445.287 L
110.548 445.287 L
111.091 445.287 L
111.634 445.287 L
112.177 445.287 L
112.72 445.287 L
113.263 445.287 L
113.806 445.287 L
114.349 445.287 L
114.892 445.287 L
115.435 445.287 L
115.978 445.287 L
116.521 445.287 L
117.064 445.287 L
117.607 445.287 L
118.15 440.635 L
118.693 440.635 L
119.236 440.635 L
119.779 438.626 L
120.322 438.626 L
120.865 438.626 L
121.408 438.626 L
121.951 432.746 L
122.494 432.746 L
123.037 432.746 L
123.58 432.746 L
124.123 432.746 L
124.666 432.746 L
125.209 432.746 L
125.752 432.746 L
126.295 432.746 L
126.838 432.746 L
127.381 432.746 L
127.924 432.746 L
128.467 432.746 L
129.01 432.746 L
129.553 431.877 L
130.096 431.877 L
130.639 431.877 L
131.182 431.877 L
131.725 431.877 L
132.268 431.877 L
132.811 429.642 L
133.354 429.642 L
133.897 429.642 L
134.44 429.429 L
134.983 428.963 L
135.526 425.067 L
136.069 425.067 L
136.612 425.067 L
137.155 425.067 L
137.698 425.067 L
138.241 422.115 L
138.784 422.115 L
139.327 422.115 L
139.87 421.161 L
140.413 421.161 L
140.956 421.161 L
141.499 421.161 L
142.042 421.161 L
142.585 416.484 L
143.128 416.484 L
143.671 416.484 L
144.214 416.484 L
144.757 416.484 L
145.3 416.484 L
145.843 415.029 L
146.386 415.029 L
146.929 415.028 L
147.472 415.028 L
148.015 415.028 L
148.558 413.09 L
149.101 412.671 L
149.644 412.671 L
150.187 412.671 L
150.73 412.671 L
151.273 411.636 L
151.816 411.636 L
152.359 411.636 L
152.902 411.636 L
153.445 411.636 L
153.988 411.636 L
154.531 411.636 L
155.074 411.139 L
155.617 411.139 L
156.16 406.892 L
156.703 406.892 L
157.246 406.892 L
157.789 406.891 L
158.332 401.044 L
158.875 401.044 L
159.418 401.044 L
159.961 401.044 L
160.504 401.044 L
161.047 401.044 L
161.59 401.044 L
162.133 401.044 L
162.676 401.044 L
163.219 401.044 L
163.762 401.044 L
164.305 401.044 L
164.848 401.044 L
165.391 401.044 L
165.934 401.044 L
166.477 400.223 L
167.02 397.918 L
167.563 397.918 L
168.106 397.918 L
168.649 397.918 L
169.192 397.918 L
169.735 397.918 L
170.278 397.918 L
170.821 397.918 L
171.364 394.927 L
171.907 394.927 L
172.45 394.927 L
172.993 394.927 L
173.536 394.927 L
174.079 394.927 L
174.622 394.927 L
175.165 394.344 L
175.708 394.344 L
176.251 394.344 L
176.794 391.643 L
177.337 391.643 L
177.88 390.951 L
178.423 390.47 L
178.966 390.47 L
179.509 390.472 L
180.052 390.293 L
180.595 389.61 L
181.138 389.61 L
181.681 389.61 L
182.224 389.61 L
182.767 387.791 L
183.31 384.365 L
183.853 384.365 L
184.396 384.365 L
184.939 382.68 L
185.482 382.68 L
186.025 382.68 L
186.568 382.68 L
187.111 382.098 L
187.654 382.098 L
188.197 382.098 L
188.74 382.097 L
189.283 382.097 L
189.826 382.097 L
190.369 379.466 L
190.912 379.466 L
191.455 379.466 L
191.998 379.466 L
192.541 379.466 L
193.084 379.466 L
193.627 378.981 L
194.17 378.981 L
194.713 378.981 L
195.256 378.981 L
195.799 378.981 L
196.342 375.181 L
196.885 374.529 L
197.428 371.728 L
197.971 371.728 L
198.514 371.728 L
199.057 371.728 L
199.6 371.728 L
200.143 371.728 L
200.686 371.728 L
201.229 371.728 L
201.772 370.994 L
202.315 370.992 L
202.858 367.198 L
203.401 367.198 L
203.944 367.198 L
204.487 367.198 L
205.03 367.198 L
205.573 367.198 L
206.116 367.198 L
206.659 367.198 L
207.202 367.198 L
207.745 367.198 L
208.288 366.623 L
208.831 366.623 L
209.374 366.229 L
209.917 366.229 L
210.46 366.229 L
211.003 366.229 L
211.546 366.229 L
212.089 366.229 L
212.632 366.229 L
213.175 365.675 L
213.718 365.675 L
214.261 362.866 L
214.804 362.866 L
215.347 362.866 L
215.89 362.866 L
216.433 362.866 L
216.976 362.866 L
217.519 362.198 L
218.062 362.198 L
218.605 362.198 L
219.148 362.198 L
219.691 362.198 L
220.234 362.198 L
220.777 362.197 L
221.32 359.26 L
221.863 359.26 L
222.406 359.26 L
222.949 359.26 L
223.492 358.655 L
224.035 358.655 L
224.578 358.655 L
225.121 358.655 L
225.664 358.655 L
226.207 358.655 L
226.75 358.667 L
227.293 358.667 L
227.836 358.684 L
228.379 358.684 L
228.922 358.704 L
229.465 357.669 L
230.008 357.669 L
230.551 357.669 L
231.094 357.669 L
231.637 357.669 L
232.18 357.669 L
232.723 357.185 L
233.266 353.893 L
233.809 353.893 L
234.352 353.893 L
234.895 353.893 L
235.438 353.14 L
235.981 353.14 L
236.524 353.139 L
237.067 353.139 L
237.61 353.151 L
238.153 353.151 L
238.696 353.151 L
239.239 353.151 L
239.782 353.151 L
240.325 353.151 L
240.868 353.151 L
241.411 353.151 L
241.954 353.151 L
242.497 353.15 L
243.04 349.287 L
243.583 349.287 L
244.126 349.287 L
244.669 349.287 L
245.212 349.286 L
245.755 349.286 L
246.298 349.286 L
246.841 346.263 L
247.384 346.263 L
247.927 346.263 L
248.47 346.262 L
249.013 342.304 L
249.556 342.304 L
250.099 338.797 L
250.642 338.797 L
251.185 338.797 L
251.728 338.797 L
252.271 338.797 L
252.814 338.797 L
253.357 338.797 L
253.9 338.797 L
254.443 338.797 L
254.986 338.113 L
255.529 338.113 L
256.072 338.113 L
256.615 337.715 L
257.158 337.715 L
257.701 337.715 L
258.244 337.715 L
258.787 335.971 L
259.33 335.608 L
259.873 333.079 L
260.416 333.078 L
260.959 332.374 L
261.502 331.687 L
262.045 331.687 L
262.588 331.687 L
263.131 331.686 L
263.674 331.686 L
264.217 331.686 L
264.76 331.686 L
265.303 331.686 L
265.846 331.686 L
266.389 331.685 L
266.932 331.685 L
267.475 331.684 L
268.018 331.684 L
268.561 331.683 L
269.104 328.33 L
269.647 328.33 L
270.19 328.33 L
270.733 328.329 L
271.276 324.883 L
271.819 324.883 L
272.362 324.883 L
272.905 324.883 L
273.448 324.883 L
273.991 324.882 L
274.534 324.882 L
275.077 324.882 L
275.62 324.882 L
276.163 324.882 L
276.706 324.882 L
277.249 324.882 L
277.792 324.882 L
278.335 324.882 L
278.878 324.882 L
279.421 324.882 L
279.964 324.882 L
280.507 324.881 L
281.05 321.829 L
281.593 321.827 L
282.136 318.139 L
282.679 318.138 L
283.222 318.138 L
283.765 318.138 L
284.308 318.138 L
284.851 318.138 L
285.394 318.138 L
285.937 317.439 L
286.48 317.439 L
287.023 317.439 L
287.566 317.439 L
288.109 317.438 L
288.652 317.438 L
289.195 317.437 L
289.738 317.437 L
290.281 317.437 L
290.824 317.437 L
291.367 316.671 L
291.91 316.671 L
292.453 316.671 L
292.996 316.671 L
293.539 316.062 L
294.082 316.062 L
294.625 316.053 L
295.168 316.053 L
295.711 316.051 L
296.254 312.135 L
296.797 311.433 L
297.34 311.433 L
297.883 311.433 L
298.426 310.99 L
298.969 310.99 L
299.512 310.99 L
300.055 310.99 L
300.598 310.99 L
301.141 310.989 L
301.684 310.989 L
302.227 310.988 L
302.77 310.988 L
303.313 310.987 L
303.856 307.755 L
304.399 307.122 L
304.942 307.122 L
305.485 307.122 L
306.028 307.122 L
306.571 307.122 L
307.114 307.122 L
307.657 306.617 L
308.2 306.617 L
308.743 306.617 L
309.286 306.617 L
309.829 306.617 L
310.372 306.617 L
310.915 306.617 L
311.458 306.617 L
312.001 306.617 L
312.544 306.617 L
313.087 306.616 L
313.63 306.616 L
314.173 306.616 L
314.716 306.616 L
315.259 306.616 L
315.802 306.616 L
316.345 305.9 L
316.888 305.9 L
317.431 305.9 L
317.974 305.9 L
318.517 305.9 L
319.06 305.899 L
319.603 305.899 L
320.146 305.899 L
320.689 305.899 L
321.232 305.899 L
321.775 305.899 L
322.318 305.899 L
322.861 305.899 L
323.404 305.898 L
323.947 302.426 L
324.49 301.833 L
325.033 301.833 L
325.576 301.831 L
326.119 298.086 L
326.662 298.085 L
327.205 298.084 L
327.748 298.084 L
328.291 298.084 L
328.834 298.084 L
329.377 298.084 L
329.92 298.084 L
330.463 298.084 L
331.006 296.702 L
331.549 296.08 L
332.092 296.08 L
332.635 296.078 L
333.178 296.078 L
333.721 296.077 L
334.264 296.077 L
334.807 296.077 L
335.35 296.077 L
335.893 296.076 L
336.436 292.786 L
336.979 289.066 L
337.522 289.066 L
338.065 289.065 L
338.608 287.327 L
339.151 287.325 L
339.694 284.053 L
340.237 284.053 L
340.78 284.053 L
341.323 284.052 L
341.866 284.057 L
342.409 280.525 L
342.952 280.525 L
343.495 280.525 L
344.038 280.525 L
344.581 280.523 L
345.124 277.105 L
345.667 277.105 L
346.21 277.104 L
346.753 277.104 L
347.296 277.104 L
347.839 277.104 L
348.382 277.104 L
348.925 277.104 L
349.468 277.102 L
350.011 274.49 L
350.554 274.49 L
351.097 274.488 L
351.64 274.488 L
352.183 274.487 L
352.726 271.834 L
353.269 271.834 L
353.812 271.834 L
354.355 271.834 L
354.898 271.833 L
355.441 271.833 L
355.984 271.833 L
356.527 271.833 L
357.07 271.1 L
357.613 271.1 L
358.156 271.098 L
358.699 267.628 L
359.242 265.1 L
359.785 265.1 L
360.328 265.1 L
360.871 265.1 L
361.414 265.1 L
361.957 264.302 L
362.5 264.301 L
363.043 264.303 L
363.586 264.303 L
364.129 264.321 L
364.672 263.738 L
365.215 263.738 L
365.758 263.737 L
366.301 262.955 L
366.844 262.955 L
367.387 262.955 L
367.93 262.955 L
368.473 262.954 L
369.016 262.954 L
369.559 262.954 L
370.102 262.954 L
370.645 260.708 L
371.188 260.708 L
371.731 260.236 L
372.274 260.236 L
372.817 260.235 L
373.36 258.298 L
373.903 258.298 L
374.446 257.848 L
374.989 257.848 L
375.532 257.848 L
376.075 257.848 L
376.618 257.848 L
377.161 257.848 L
377.704 257.847 L
378.247 255.037 L
378.79 255.037 L
379.333 255.037 L
379.876 255.037 L
380.419 255.036 L
380.962 255.036 L
381.505 255.036 L
382.048 255.036 L
382.591 255.035 L
383.134 255.035 L
383.677 255.035 L
384.22 255.035 L
384.763 255.035 L
385.306 255.034 L
385.849 255.034 L
386.392 255.034 L
386.935 255.034 L
387.478 255.034 L
388.021 255.033 L
388.564 255.033 L
389.107 255.033 L
389.65 255.033 L
390.193 255.032 L
390.736 252.161 L
391.279 252.16 L
391.822 252.16 L
392.365 252.16 L
392.908 252.16 L
393.451 252.15 L
393.994 252.15 L
394.537 252.15 L
395.08 252.149 L
395.623 252.15 L
396.166 252.15 L
396.709 252.143 L
397.252 249.242 L
397.795 249.241 L
398.338 246.285 L
398.881 246.285 L
399.424 246.285 L
399.967 246.285 L
400.51 246.283 L
401.053 243.129 L
401.596 242.508 L
402.139 242.508 L
402.682 242.508 L
403.225 242.506 L
403.768 239.818 L
404.311 239.818 L
404.854 239.816 L
405.397 236.904 L
405.94 236.904 L
406.483 236.904 L
407.026 236.902 L
407.569 234.2 L
408.112 230.906 L
408.655 230.906 L
409.198 230.897 L
409.741 230.897 L
410.284 230.897 L
410.827 230.897 L
411.37 230.897 L
411.913 230.174 L
412.456 230.174 L
412.999 230.174 L
413.542 230.173 L
414.085 230.173 L
414.628 230.173 L
415.171 230.173 L
415.714 230.173 L
416.257 230.173 L
416.8 230.173 L
417.343 229.639 L
417.886 229.639 L
418.429 229.637 L
418.972 226.2 L
419.515 226.2 L
420.058 226.2 L
420.601 226.2 L
421.144 226.2 L
421.687 226.2 L
422.23 226.2 L
422.773 226.2 L
423.316 226.199 L
423.859 226.199 L
424.402 226.199 L
424.945 226.199 L
425.488 225.388 L
426.031 225.386 L
426.574 225.386 L
427.117 225.386 L
427.66 225.386 L
428.203 225.386 L
428.746 225.386 L
429.289 225.386 L
429.832 225.386 L
430.375 225.386 L
430.918 225.385 L
431.461 225.385 L
432.004 225.384 L
432.547 225.384 L
433.09 225.384 L
433.633 225.384 L
434.176 225.383 L
434.719 224.986 L
435.262 224.986 L
435.805 224.984 L
436.348 224.984 L
436.891 224.984 L
437.434 224.984 L
437.977 224.983 L
438.52 225.009 L
439.063 225.009 L
439.606 225.007 L
440.149 221.549 L
440.692 221.549 L
441.235 221.549 L
441.778 221.549 L
442.321 221.548 L
442.864 221.548 L
443.407 221.548 L
443.95 221.548 L
444.493 221.548 L
445.036 221.025 L
445.579 221.025 L
446.122 221.024 L
446.665 221.024 L
447.208 221.024 L
447.751 221.02 L
448.294 221.02 L
448.837 221.02 L
449.38 221.02 L
449.923 221.02 L
450.466 221.02 L
451.009 220.393 L
451.552 220.393 L
452.095 220.393 L
452.638 219.765 L
453.181 219.091 L
453.724 219.09 L
454.267 219.09 L
454.81 219.09 L
455.353 219.09 L
455.896 219.09 L
456.439 219.089 L
456.982 219.089 L
457.525 219.089 L
458.068 219.089 L
458.611 219.086 L
459.154 215.287 L
459.697 215.287 L
460.24 215.287 L
460.783 215.285 L
461.326 215.285 L
461.869 215.285 L
462.412 215.285 L
462.955 215.279 L
463.498 215.279 L
464.041 215.279 L
464.584 215.278 L
465.127 214.559 L
465.67 214.559 L
466.213 214.558 L
466.756 214.558 L
467.299 214.558 L
467.842 214.558 L
468.385 214.558 L
468.928 213.832 L
469.471 213.832 L
470.014 213.832 L
470.557 213.832 L
471.1 213.829 L
471.643 213.829 L
472.186 213.829 L
472.729 213.829 L
473.272 213.174 L
473.815 213.173 L
474.358 213.19 L
474.901 209.92 L
475.444 209.92 L
475.987 209.918 L
476.53 209.918 L
477.073 209.918 L
477.616 209.918 L
478.159 209.226 L
478.702 209.226 L
479.245 209.226 L
479.788 209.224 L
480.331 209.224 L
480.874 209.224 L
481.417 209.224 L
481.96 209.224 L
482.503 209.223 L
483.046 208.447 L
483.589 208.446 L
484.132 208.446 L
484.675 208.446 L
485.218 208.446 L
485.761 208.099 L
486.304 208.099 L
486.847 208.099 L
487.39 208.099 L
487.933 207.296 L
488.476 207.294 L
489.019 204.586 L
489.562 204.586 L
490.105 204.017 L
490.648 204.021 L
491.191 204.021 L
491.734 204.02 L
492.277 204.022 L
492.82 204.022 L
493.363 204.022 L
493.906 204.021 L
494.449 203.547 L
494.992 203.547 L
495.535 203.536 L
496.078 203.536 L
496.621 203.536 L
497.164 203.536 L
497.707 203.536 L
498.25 203.535 L
498.793 203.535 L
499.336 203.535 L
499.879 203.535 L
500.422 203.535 L
500.965 203.06 L
501.508 200.304 L
502.051 200.304 L
502.594 200.304 L
503.137 200.302 L
503.68 200.302 L
504.223 200.302 L
504.766 200.302 L
505.309 200.299 L
505.852 200.299 L
506.395 200.299 L
506.938 200.299 L
507.481 200.296 L
508.024 200.484 L
508.567 200.483 L
509.11 200.483 L
509.653 200.483 L
510.196 200.483 L
510.739 200.483 L
511.282 200.483 L
511.825 200.483 L
512.368 200.483 L
512.911 200.483 L
513.454 200.483 L
513.997 200.483 L
514.54 200.483 L
515.083 200.483 L
515.626 200.483 L
516.169 200.483 L
516.712 200.483 L
517.255 200.483 L
517.798 200.483 L
518.341 200.482 L
518.884 200.482 L
519.427 200.482 L
519.97 200.482 L
520.513 199.931 L
521.056 199.23 L
521.599 199.23 L
522.142 198.7 L
522.685 198.7 L
523.228 198.7 L
523.771 198.699 L
524.314 198.699 L
524.857 198.699 L
525.4 198.697 L
525.943 198.077 L
526.486 198.077 L
527.029 198.067 L
527.572 198.067 L
528.115 198.067 L
528.658 198.066 L
529.201 197.311 L
529.744 196.733 L
530.287 193.808 L
530.83 193.808 L
531.373 193.808 L
531.916 193.806 L
532.459 190.67 L
533.002 187.547 L
533.545 187.547 L
534.088 187.547 L
534.631 187.547 L
535.174 186.839 L
535.717 186.839 L
536.26 186.837 L
536.803 183.942 L
537.346 183.943 L
537.889 183.943 L
538.432 183.943 L
538.975 183.943 L
539.518 183.943 L
540.061 183.941 L
540.604 183.941 L
541.147 183.94 L
541.69 183.94 L
542.233 183.939 L
542.776 180.982 L
543.319 180.982 L
543.862 177.658 L
544.405 175.015 L
544.948 175.015 L
545.491 175.015 L
546.034 175.015 L
546.577 175.003 L
547.12 175.003 L
547.663 175.003 L
548.206 175.002 L
548.749 175.002 L
549.292 175.002 L
549.835 174.488 L
550.378 174.485 L
550.921 171.351 L
551.464 171.351 L
552.007 171.349 L
552.55 168.328 L
553.093 168.328 L
553.636 165.154 L
554.179 165.154 L
554.722 165.154 L
555.265 165.154 L
555.808 165.154 L
556.351 165.152 L
556.894 165.152 L
557.437 165.149 L
557.98 162.005 L
558.523 162.005 L
559.066 162.005 L
559.609 162.002 L
560.152 162.002 L
560.695 162.002 L
561.238 162.002 L
561.781 162.002 L
562.324 162.002 L
562.867 162 L
563.41 162.089 L
563.953 159.296 L
564.496 159.296 L
565.039 159.294 L
565.582 156.536 L
566.125 156.536 L
566.668 156.136 L
567.211 156.136 L
567.754 156.133 L
568.297 156.133 L
568.84 156.133 L
569.383 156.133 L
569.926 156.133 L
570.469 155.152 L
571.012 152.058 L
571.555 152.058 L
572.098 152.058 L
572.641 152.058 L
573.184 152.058 L
573.727 152.057 L
574.27 152.057 L
574.813 152.057 L
575.356 151.522 L
575.899 151.522 L
576.442 151.519 L
576.985 151.519 L
577.528 151.516 L
578.071 148.177 L
578.614 148.177 L
579.157 148.176 L
579.7 148.221 L
580.243 146.24 L
580.786 146.24 L
581.329 146.24 L
581.872 145.798 L
582.415 145.798 L
582.958 145.798 L
583.501 145.209 L
584.044 145.209 L
584.587 145.209 L
585.13 145.206 L
585.673 141.783 L
586.216 141.783 L
586.759 141.783 L
587.302 141.782 L
587.845 141.782 L
588.388 141.782 L
588.931 141.779 L
589.474 138.768 L
590.017 138.764 L
590.56 138.764 L
591.103 138.764 L
591.646 138.763 L
592.189 138.763 L
592.732 138.763 L
593.275 138.763 L
593.818 138.762 L
594.361 138.762 L
594.904 138.762 L
595.447 138.759 L
595.99 135.559 L
596.533 135.016 L
597.076 135.016 L
597.619 135.016 L
598.162 134.741 L
598.705 134.23 L
599.248 133.674 L
599.791 133.674 L
600.334 133.673 L
600.877 132.97 L
601.42 132.381 L
601.963 129.277 L
602.506 129.277 L
603.049 129.276 L
603.592 129.276 L
604.135 129.276 L
604.678 129.273 L
605.221 126.145 L
605.764 126.145 L
606.307 126.142 L
606.85 125.546 L
607.393 125.546 L
607.936 125.546 L
608.479 125.545 L
609.022 125.059 L
609.565 125.059 L
610.108 125.059 L
610.651 125.059 L
611.194 125.059 L
611.737 125.057 L
612.28 122.925 L
612.823 119.839 L
613.366 119.839 L
613.909 119.839 L
614.452 119.839 L
614.995 119.838 L
615.538 119.838 L
616.081 119.838 L
616.624 119.838 L
617.167 119.835 L
617.71 116.62 L
618.253 116.006 L
618.796 113.202 L
619.339 113.202 L
619.882 113.202 L
620.425 113.202 L
620.968 113.202 L
621.511 113.202 L
622.054 113.198 L
622.597 113.198 L
623.14 113.198 L
623.683 113.198 L
624.226 113.198 L
624.769 113.212 L
625.312 113.212 L
625.855 112.784 L
626.398 112.783 L
626.941 112.783 L
627.484 112.783 L
628.027 112.783 L
628.57 112.783 L
629.113 112.77 L
629.656 109.405 L
630.199 109.405 L
630.742 109.405 L
631.285 109.424 L
631.828 108.938 L
632.371 105.543 L
632.914 105.649 L
633.457 105.647 L
634 103.588 L
S
GR
%%Trailer
%%Pages: 1
%%EOF
