%!PS-Adobe-3.0 EPSF-3.0
%%Creator: (MATLAB, The Mathworks, Inc. Version 9.3.0.713579 \(R2017b\). Operating System: Windows 7)
%%Title: fig/RBFN_2_5_1000_RBF.eps
%%CreationDate: 2018-05-06T11:34:51
%%Pages: (atend)
%%BoundingBox:    74     3   954   384
%%LanguageLevel: 3
%%EndComments
%%BeginProlog
%%BeginResource: procset (Apache XML Graphics Std ProcSet) 1.2 0
%%Version: 1.2 0
%%Copyright: (Copyright 2001-2003,2010 The Apache Software Foundation. License terms: http://www.apache.org/licenses/LICENSE-2.0)
/bd{bind def}bind def
/ld{load def}bd
/GR/grestore ld
/GS/gsave ld
/RM/rmoveto ld
/C/curveto ld
/t/show ld
/L/lineto ld
/ML/setmiterlimit ld
/CT/concat ld
/f/fill ld
/N/newpath ld
/S/stroke ld
/CC/setcmykcolor ld
/A/ashow ld
/cp/closepath ld
/RC/setrgbcolor ld
/LJ/setlinejoin ld
/GC/setgray ld
/LW/setlinewidth ld
/M/moveto ld
/re {4 2 roll M
1 index 0 rlineto
0 exch rlineto
neg 0 rlineto
cp } bd
/_ctm matrix def
/_tm matrix def
/BT { _ctm currentmatrix pop matrix _tm copy pop 0 0 moveto } bd
/ET { _ctm setmatrix } bd
/iTm { _ctm setmatrix _tm concat } bd
/Tm { _tm astore pop iTm 0 0 moveto } bd
/ux 0.0 def
/uy 0.0 def
/F {
  /Tp exch def
  /Tf exch def
  Tf findfont Tp scalefont setfont
  /cf Tf def  /cs Tp def
} bd
/ULS {currentpoint /uy exch def /ux exch def} bd
/ULE {
  /Tcx currentpoint pop def
  gsave
  newpath
  cf findfont cs scalefont dup
  /FontMatrix get 0 get /Ts exch def /FontInfo get dup
  /UnderlinePosition get Ts mul /To exch def
  /UnderlineThickness get Ts mul /Tt exch def
  ux uy To add moveto  Tcx uy To add lineto
  Tt setlinewidth stroke
  grestore
} bd
/OLE {
  /Tcx currentpoint pop def
  gsave
  newpath
  cf findfont cs scalefont dup
  /FontMatrix get 0 get /Ts exch def /FontInfo get dup
  /UnderlinePosition get Ts mul /To exch def
  /UnderlineThickness get Ts mul /Tt exch def
  ux uy To add cs add moveto Tcx uy To add cs add lineto
  Tt setlinewidth stroke
  grestore
} bd
/SOE {
  /Tcx currentpoint pop def
  gsave
  newpath
  cf findfont cs scalefont dup
  /FontMatrix get 0 get /Ts exch def /FontInfo get dup
  /UnderlinePosition get Ts mul /To exch def
  /UnderlineThickness get Ts mul /Tt exch def
  ux uy To add cs 10 mul 26 idiv add moveto Tcx uy To add cs 10 mul 26 idiv add lineto
  Tt setlinewidth stroke
  grestore
} bd
/QT {
/Y22 exch store
/X22 exch store
/Y21 exch store
/X21 exch store
currentpoint
/Y21 load 2 mul add 3 div exch
/X21 load 2 mul add 3 div exch
/X21 load 2 mul /X22 load add 3 div
/Y21 load 2 mul /Y22 load add 3 div
/X22 load /Y22 load curveto
} bd
/SSPD {
dup length /d exch dict def
{
/v exch def
/k exch def
currentpagedevice k known {
/cpdv currentpagedevice k get def
v cpdv ne {
/upd false def
/nullv v type /nulltype eq def
/nullcpdv cpdv type /nulltype eq def
nullv nullcpdv or
{
/upd true def
} {
/sametype v type cpdv type eq def
sametype {
v type /arraytype eq {
/vlen v length def
/cpdvlen cpdv length def
vlen cpdvlen eq {
0 1 vlen 1 sub {
/i exch def
/obj v i get def
/cpdobj cpdv i get def
obj cpdobj ne {
/upd true def
exit
} if
} for
} {
/upd true def
} ifelse
} {
v type /dicttype eq {
v {
/dv exch def
/dk exch def
/cpddv cpdv dk get def
dv cpddv ne {
/upd true def
exit
} if
} forall
} {
/upd true def
} ifelse
} ifelse
} if
} ifelse
upd true eq {
d k v put
} if
} if
} if
} forall
d length 0 gt {
d setpagedevice
} if
} bd
/RE { % /NewFontName [NewEncodingArray] /FontName RE -
  findfont dup length dict begin
  {
    1 index /FID ne
    {def} {pop pop} ifelse
  } forall
  /Encoding exch def
  /FontName 1 index def
  currentdict definefont pop
  end
} bind def
%%EndResource
%%BeginResource: procset (Apache XML Graphics EPS ProcSet) 1.0 0
%%Version: 1.0 0
%%Copyright: (Copyright 2002-2003 The Apache Software Foundation. License terms: http://www.apache.org/licenses/LICENSE-2.0)
/BeginEPSF { %def
/b4_Inc_state save def         % Save state for cleanup
/dict_count countdictstack def % Count objects on dict stack
/op_count count 1 sub def      % Count objects on operand stack
userdict begin                 % Push userdict on dict stack
/showpage { } def              % Redefine showpage, { } = null proc
0 setgray 0 setlinecap         % Prepare graphics state
1 setlinewidth 0 setlinejoin
10 setmiterlimit [ ] 0 setdash newpath
/languagelevel where           % If level not equal to 1 then
{pop languagelevel             % set strokeadjust and
1 ne                           % overprint to their defaults.
{false setstrokeadjust false setoverprint
} if
} if
} bd
/EndEPSF { %def
count op_count sub {pop} repeat            % Clean up stacks
countdictstack dict_count sub {end} repeat
b4_Inc_state restore
} bd
%%EndResource
%FOPBeginFontDict
%%IncludeResource: font Courier-Oblique
%%IncludeResource: font Courier-BoldOblique
%%IncludeResource: font Courier-Bold
%%IncludeResource: font ZapfDingbats
%%IncludeResource: font Symbol
%%IncludeResource: font Helvetica
%%IncludeResource: font Helvetica-Oblique
%%IncludeResource: font Helvetica-Bold
%%IncludeResource: font Helvetica-BoldOblique
%%IncludeResource: font Times-Roman
%%IncludeResource: font Times-Italic
%%IncludeResource: font Times-Bold
%%IncludeResource: font Times-BoldItalic
%%IncludeResource: font Courier
%FOPEndFontDict
%%BeginResource: encoding WinAnsiEncoding
/WinAnsiEncoding [
/.notdef /.notdef /.notdef /.notdef /.notdef
/.notdef /.notdef /.notdef /.notdef /.notdef
/.notdef /.notdef /.notdef /.notdef /.notdef
/.notdef /.notdef /.notdef /.notdef /.notdef
/.notdef /.notdef /.notdef /.notdef /.notdef
/.notdef /.notdef /.notdef /.notdef /.notdef
/.notdef /.notdef /space /exclam /quotedbl
/numbersign /dollar /percent /ampersand /quotesingle
/parenleft /parenright /asterisk /plus /comma
/hyphen /period /slash /zero /one
/two /three /four /five /six
/seven /eight /nine /colon /semicolon
/less /equal /greater /question /at
/A /B /C /D /E
/F /G /H /I /J
/K /L /M /N /O
/P /Q /R /S /T
/U /V /W /X /Y
/Z /bracketleft /backslash /bracketright /asciicircum
/underscore /quoteleft /a /b /c
/d /e /f /g /h
/i /j /k /l /m
/n /o /p /q /r
/s /t /u /v /w
/x /y /z /braceleft /bar
/braceright /asciitilde /bullet /Euro /bullet
/quotesinglbase /florin /quotedblbase /ellipsis /dagger
/daggerdbl /circumflex /perthousand /Scaron /guilsinglleft
/OE /bullet /Zcaron /bullet /bullet
/quoteleft /quoteright /quotedblleft /quotedblright /bullet
/endash /emdash /asciitilde /trademark /scaron
/guilsinglright /oe /bullet /zcaron /Ydieresis
/space /exclamdown /cent /sterling /currency
/yen /brokenbar /section /dieresis /copyright
/ordfeminine /guillemotleft /logicalnot /sfthyphen /registered
/macron /degree /plusminus /twosuperior /threesuperior
/acute /mu /paragraph /middot /cedilla
/onesuperior /ordmasculine /guillemotright /onequarter /onehalf
/threequarters /questiondown /Agrave /Aacute /Acircumflex
/Atilde /Adieresis /Aring /AE /Ccedilla
/Egrave /Eacute /Ecircumflex /Edieresis /Igrave
/Iacute /Icircumflex /Idieresis /Eth /Ntilde
/Ograve /Oacute /Ocircumflex /Otilde /Odieresis
/multiply /Oslash /Ugrave /Uacute /Ucircumflex
/Udieresis /Yacute /Thorn /germandbls /agrave
/aacute /acircumflex /atilde /adieresis /aring
/ae /ccedilla /egrave /eacute /ecircumflex
/edieresis /igrave /iacute /icircumflex /idieresis
/eth /ntilde /ograve /oacute /ocircumflex
/otilde /odieresis /divide /oslash /ugrave
/uacute /ucircumflex /udieresis /yacute /thorn
/ydieresis
] def
%%EndResource
%FOPBeginFontReencode
/Courier-Oblique findfont
dup length dict begin
  {1 index /FID ne {def} {pop pop} ifelse} forall
  /Encoding WinAnsiEncoding def
  currentdict
end
/Courier-Oblique exch definefont pop
/Courier-BoldOblique findfont
dup length dict begin
  {1 index /FID ne {def} {pop pop} ifelse} forall
  /Encoding WinAnsiEncoding def
  currentdict
end
/Courier-BoldOblique exch definefont pop
/Courier-Bold findfont
dup length dict begin
  {1 index /FID ne {def} {pop pop} ifelse} forall
  /Encoding WinAnsiEncoding def
  currentdict
end
/Courier-Bold exch definefont pop
/Helvetica findfont
dup length dict begin
  {1 index /FID ne {def} {pop pop} ifelse} forall
  /Encoding WinAnsiEncoding def
  currentdict
end
/Helvetica exch definefont pop
/Helvetica-Oblique findfont
dup length dict begin
  {1 index /FID ne {def} {pop pop} ifelse} forall
  /Encoding WinAnsiEncoding def
  currentdict
end
/Helvetica-Oblique exch definefont pop
/Helvetica-Bold findfont
dup length dict begin
  {1 index /FID ne {def} {pop pop} ifelse} forall
  /Encoding WinAnsiEncoding def
  currentdict
end
/Helvetica-Bold exch definefont pop
/Helvetica-BoldOblique findfont
dup length dict begin
  {1 index /FID ne {def} {pop pop} ifelse} forall
  /Encoding WinAnsiEncoding def
  currentdict
end
/Helvetica-BoldOblique exch definefont pop
/Times-Roman findfont
dup length dict begin
  {1 index /FID ne {def} {pop pop} ifelse} forall
  /Encoding WinAnsiEncoding def
  currentdict
end
/Times-Roman exch definefont pop
/Times-Italic findfont
dup length dict begin
  {1 index /FID ne {def} {pop pop} ifelse} forall
  /Encoding WinAnsiEncoding def
  currentdict
end
/Times-Italic exch definefont pop
/Times-Bold findfont
dup length dict begin
  {1 index /FID ne {def} {pop pop} ifelse} forall
  /Encoding WinAnsiEncoding def
  currentdict
end
/Times-Bold exch definefont pop
/Times-BoldItalic findfont
dup length dict begin
  {1 index /FID ne {def} {pop pop} ifelse} forall
  /Encoding WinAnsiEncoding def
  currentdict
end
/Times-BoldItalic exch definefont pop
/Courier findfont
dup length dict begin
  {1 index /FID ne {def} {pop pop} ifelse} forall
  /Encoding WinAnsiEncoding def
  currentdict
end
/Courier exch definefont pop
%FOPEndFontReencode
%%EndProlog
%%Page: 1 1
%%PageBoundingBox: 0 0 1050 394
%%BeginPageSetup
[1 0 0 -1 0 394] CT
%%EndPageSetup
GS
[0.75 0 0 0.74971 0 0.39999] CT
N
0 0 M
1400 0 L
1400 525 L
0 525 L
0 0 L
cp
clip
1 GC
N
0 0 1400 525 re
f
GR
GS
[0.75 0 0 0.74971 0 0.39999] CT
1 GC
N
0 0 1400 525 re
f
GR
GS
[0.75 0 0 0.74971 0 0.39999] CT
1 GC
N
182 463 M
1267 463 L
1267 39 L
182 39 L
cp
f
GR
GS
[0.75 0 0 0.74971 0 0.39999] CT
0.873 GC
1 LJ
0.667 LW
N
182 463 M
182 39 L
S
GR
GS
[0.75 0 0 0.74971 0 0.39999] CT
0.873 GC
1 LJ
0.667 LW
N
337 463 M
337 39 L
S
GR
GS
[0.75 0 0 0.74971 0 0.39999] CT
0.873 GC
1 LJ
0.667 LW
N
492 463 M
492 39 L
S
GR
GS
[0.75 0 0 0.74971 0 0.39999] CT
0.873 GC
1 LJ
0.667 LW
N
647 463 M
647 39 L
S
GR
GS
[0.75 0 0 0.74971 0 0.39999] CT
0.873 GC
1 LJ
0.667 LW
N
802 463 M
802 39 L
S
GR
GS
[0.75 0 0 0.74971 0 0.39999] CT
0.873 GC
1 LJ
0.667 LW
N
957 463 M
957 39 L
S
GR
GS
[0.75 0 0 0.74971 0 0.39999] CT
0.873 GC
1 LJ
0.667 LW
N
1112 463 M
1112 39 L
S
GR
GS
[0.75 0 0 0.74971 0 0.39999] CT
0.873 GC
1 LJ
0.667 LW
N
1267 463 M
1267 39 L
S
GR
GS
[0.75 0 0 0.74971 0 0.39999] CT
0.873 GC
1 LJ
0.667 LW
N
1267 463 M
182 463 L
S
GR
GS
[0.75 0 0 0.74971 0 0.39999] CT
0.873 GC
1 LJ
0.667 LW
N
1267 410 M
182 410 L
S
GR
GS
[0.75 0 0 0.74971 0 0.39999] CT
0.873 GC
1 LJ
0.667 LW
N
1267 357 M
182 357 L
S
GR
GS
[0.75 0 0 0.74971 0 0.39999] CT
0.873 GC
1 LJ
0.667 LW
N
1267 304 M
182 304 L
S
GR
GS
[0.75 0 0 0.74971 0 0.39999] CT
0.873 GC
1 LJ
0.667 LW
N
1267 251 M
182 251 L
S
GR
GS
[0.75 0 0 0.74971 0 0.39999] CT
0.873 GC
1 LJ
0.667 LW
N
1267 198.001 M
182 198.001 L
S
GR
GS
[0.75 0 0 0.74971 0 0.39999] CT
0.873 GC
1 LJ
0.667 LW
N
1267 145 M
182 145 L
S
GR
GS
[0.75 0 0 0.74971 0 0.39999] CT
0.873 GC
1 LJ
0.667 LW
N
1267 92 M
182 92 L
S
GR
GS
[0.75 0 0 0.74971 0 0.39999] CT
0.873 GC
1 LJ
0.667 LW
N
1267 39 M
182 39 L
S
GR
GS
[0.75 0 0 0.74971 0 0.39999] CT
0.149 GC
2 setlinecap
1 LJ
0.667 LW
N
182 463 M
1267 463 L
S
GR
GS
[0.75 0 0 0.74971 0 0.39999] CT
0.149 GC
2 setlinecap
1 LJ
0.667 LW
N
182 39 M
1267 39 L
S
GR
GS
[0.75 0 0 0.74971 0 0.39999] CT
0.149 GC
2 setlinecap
1 LJ
0.667 LW
N
182 463 M
182 452.15 L
S
GR
GS
[0.75 0 0 0.74971 0 0.39999] CT
0.149 GC
2 setlinecap
1 LJ
0.667 LW
N
337 463 M
337 452.15 L
S
GR
GS
[0.75 0 0 0.74971 0 0.39999] CT
0.149 GC
2 setlinecap
1 LJ
0.667 LW
N
492 463 M
492 452.15 L
S
GR
GS
[0.75 0 0 0.74971 0 0.39999] CT
0.149 GC
2 setlinecap
1 LJ
0.667 LW
N
647 463 M
647 452.15 L
S
GR
GS
[0.75 0 0 0.74971 0 0.39999] CT
0.149 GC
2 setlinecap
1 LJ
0.667 LW
N
802 463 M
802 452.15 L
S
GR
GS
[0.75 0 0 0.74971 0 0.39999] CT
0.149 GC
2 setlinecap
1 LJ
0.667 LW
N
957 463 M
957 452.15 L
S
GR
GS
[0.75 0 0 0.74971 0 0.39999] CT
0.149 GC
2 setlinecap
1 LJ
0.667 LW
N
1112 463 M
1112 452.15 L
S
GR
GS
[0.75 0 0 0.74971 0 0.39999] CT
0.149 GC
2 setlinecap
1 LJ
0.667 LW
N
1267 463 M
1267 452.15 L
S
GR
GS
[0.75 0 0 0.74971 0 0.39999] CT
0.149 GC
2 setlinecap
1 LJ
0.667 LW
N
182 39 M
182 49.849 L
S
GR
GS
[0.75 0 0 0.74971 0 0.39999] CT
0.149 GC
2 setlinecap
1 LJ
0.667 LW
N
337 39 M
337 49.849 L
S
GR
GS
[0.75 0 0 0.74971 0 0.39999] CT
0.149 GC
2 setlinecap
1 LJ
0.667 LW
N
492 39 M
492 49.849 L
S
GR
GS
[0.75 0 0 0.74971 0 0.39999] CT
0.149 GC
2 setlinecap
1 LJ
0.667 LW
N
647 39 M
647 49.849 L
S
GR
GS
[0.75 0 0 0.74971 0 0.39999] CT
0.149 GC
2 setlinecap
1 LJ
0.667 LW
N
802 39 M
802 49.849 L
S
GR
GS
[0.75 0 0 0.74971 0 0.39999] CT
0.149 GC
2 setlinecap
1 LJ
0.667 LW
N
957 39 M
957 49.849 L
S
GR
GS
[0.75 0 0 0.74971 0 0.39999] CT
0.149 GC
2 setlinecap
1 LJ
0.667 LW
N
1112 39 M
1112 49.849 L
S
GR
GS
[0.75 0 0 0.74971 0 0.39999] CT
0.149 GC
2 setlinecap
1 LJ
0.667 LW
N
1267 39 M
1267 49.849 L
S
GR
GS
[0.75 0 0 0.74971 136.5 352.51532] CT
0.149 GC
/Helvetica 20 F
GS
[1 0 0 1 0 0] CT
-6 21 moveto 
1 -1 scale
(0) t 
GR
GR
GS
[0.75 0 0 0.74971 252.75 352.51532] CT
0.149 GC
/Helvetica 20 F
GS
[1 0 0 1 0 0] CT
-6 21 moveto 
1 -1 scale
(1) t 
GR
GR
GS
[0.75 0 0 0.74971 369 352.51532] CT
0.149 GC
/Helvetica 20 F
GS
[1 0 0 1 0 0] CT
-6 21 moveto 
1 -1 scale
(2) t 
GR
GR
GS
[0.75 0 0 0.74971 485.25 352.51532] CT
0.149 GC
/Helvetica 20 F
GS
[1 0 0 1 0 0] CT
-6 21 moveto 
1 -1 scale
(3) t 
GR
GR
GS
[0.75 0 0 0.74971 601.5 352.51532] CT
0.149 GC
/Helvetica 20 F
GS
[1 0 0 1 0 0] CT
-6 21 moveto 
1 -1 scale
(4) t 
GR
GR
GS
[0.75 0 0 0.74971 717.75 352.51532] CT
0.149 GC
/Helvetica 20 F
GS
[1 0 0 1 0 0] CT
-6 21 moveto 
1 -1 scale
(5) t 
GR
GR
GS
[0.75 0 0 0.74971 834 352.51532] CT
0.149 GC
/Helvetica 20 F
GS
[1 0 0 1 0 0] CT
-6 21 moveto 
1 -1 scale
(6) t 
GR
GR
GS
[0.75 0 0 0.74971 950.25 352.51532] CT
0.149 GC
/Helvetica 20 F
GS
[1 0 0 1 0 0] CT
-6 21 moveto 
1 -1 scale
(7) t 
GR
GR
GS
[0.75 0 0 0.74971 543.37537 373.00775] CT
0.149 GC
/Helvetica 22 F
GS
[1 0 0 1 0 0] CT
-24 23 moveto 
1 -1 scale
(state) t 
GR
GR
GS
[0.75 0 0 0.74971 0 0.39999] CT
0.149 GC
2 setlinecap
1 LJ
0.667 LW
N
182 463 M
182 39 L
S
GR
GS
[0.75 0 0 0.74971 0 0.39999] CT
0.149 GC
2 setlinecap
1 LJ
0.667 LW
N
1267 463 M
1267 39 L
S
GR
GS
[0.75 0 0 0.74971 0 0.39999] CT
0.149 GC
2 setlinecap
1 LJ
0.667 LW
N
182 463 M
192.85 463 L
S
GR
GS
[0.75 0 0 0.74971 0 0.39999] CT
0.149 GC
2 setlinecap
1 LJ
0.667 LW
N
182 410 M
192.85 410 L
S
GR
GS
[0.75 0 0 0.74971 0 0.39999] CT
0.149 GC
2 setlinecap
1 LJ
0.667 LW
N
182 357 M
192.85 357 L
S
GR
GS
[0.75 0 0 0.74971 0 0.39999] CT
0.149 GC
2 setlinecap
1 LJ
0.667 LW
N
182 304 M
192.85 304 L
S
GR
GS
[0.75 0 0 0.74971 0 0.39999] CT
0.149 GC
2 setlinecap
1 LJ
0.667 LW
N
182 251 M
192.85 251 L
S
GR
GS
[0.75 0 0 0.74971 0 0.39999] CT
0.149 GC
2 setlinecap
1 LJ
0.667 LW
N
182 198.001 M
192.85 198.001 L
S
GR
GS
[0.75 0 0 0.74971 0 0.39999] CT
0.149 GC
2 setlinecap
1 LJ
0.667 LW
N
182 145 M
192.85 145 L
S
GR
GS
[0.75 0 0 0.74971 0 0.39999] CT
0.149 GC
2 setlinecap
1 LJ
0.667 LW
N
182 92 M
192.85 92 L
S
GR
GS
[0.75 0 0 0.74971 0 0.39999] CT
0.149 GC
2 setlinecap
1 LJ
0.667 LW
N
182 39 M
192.85 39 L
S
GR
GS
[0.75 0 0 0.74971 0 0.39999] CT
0.149 GC
2 setlinecap
1 LJ
0.667 LW
N
1267 463 M
1256.15 463 L
S
GR
GS
[0.75 0 0 0.74971 0 0.39999] CT
0.149 GC
2 setlinecap
1 LJ
0.667 LW
N
1267 410 M
1256.15 410 L
S
GR
GS
[0.75 0 0 0.74971 0 0.39999] CT
0.149 GC
2 setlinecap
1 LJ
0.667 LW
N
1267 357 M
1256.15 357 L
S
GR
GS
[0.75 0 0 0.74971 0 0.39999] CT
0.149 GC
2 setlinecap
1 LJ
0.667 LW
N
1267 304 M
1256.15 304 L
S
GR
GS
[0.75 0 0 0.74971 0 0.39999] CT
0.149 GC
2 setlinecap
1 LJ
0.667 LW
N
1267 251 M
1256.15 251 L
S
GR
GS
[0.75 0 0 0.74971 0 0.39999] CT
0.149 GC
2 setlinecap
1 LJ
0.667 LW
N
1267 198.001 M
1256.15 198.001 L
S
GR
GS
[0.75 0 0 0.74971 0 0.39999] CT
0.149 GC
2 setlinecap
1 LJ
0.667 LW
N
1267 145 M
1256.15 145 L
S
GR
GS
[0.75 0 0 0.74971 0 0.39999] CT
0.149 GC
2 setlinecap
1 LJ
0.667 LW
N
1267 92 M
1256.15 92 L
S
GR
GS
[0.75 0 0 0.74971 0 0.39999] CT
0.149 GC
2 setlinecap
1 LJ
0.667 LW
N
1267 39 M
1256.15 39 L
S
GR
GS
[0.75 0 0 0.74971 131.5 347.51744] CT
0.149 GC
/Helvetica 20 F
GS
[1 0 0 1 0 0] CT
-51 8 moveto 
1 -1 scale
(0.492) t 
GR
GR
GS
[0.75 0 0 0.74971 131.5 307.78311] CT
0.149 GC
/Helvetica 20 F
GS
[1 0 0 1 0 0] CT
-51 8 moveto 
1 -1 scale
(0.494) t 
GR
GR
GS
[0.75 0 0 0.74971 131.5 268.04816] CT
0.149 GC
/Helvetica 20 F
GS
[1 0 0 1 0 0] CT
-51 8 moveto 
1 -1 scale
(0.496) t 
GR
GR
GS
[0.75 0 0 0.74971 131.5 228.31323] CT
0.149 GC
/Helvetica 20 F
GS
[1 0 0 1 0 0] CT
-51 8 moveto 
1 -1 scale
(0.498) t 
GR
GR
GS
[0.75 0 0 0.74971 131.5 188.57828] CT
0.149 GC
/Helvetica 20 F
GS
[1 0 0 1 0 0] CT
-28 8 moveto 
1 -1 scale
(0.5) t 
GR
GR
GS
[0.75 0 0 0.74971 131.5 148.84394] CT
0.149 GC
/Helvetica 20 F
GS
[1 0 0 1 0 0] CT
-51 8 moveto 
1 -1 scale
(0.502) t 
GR
GR
GS
[0.75 0 0 0.74971 131.5 109.10841] CT
0.149 GC
/Helvetica 20 F
GS
[1 0 0 1 0 0] CT
-51 8 moveto 
1 -1 scale
(0.504) t 
GR
GR
GS
[0.75 0 0 0.74971 131.5 69.37406] CT
0.149 GC
/Helvetica 20 F
GS
[1 0 0 1 0 0] CT
-51 8 moveto 
1 -1 scale
(0.506) t 
GR
GR
GS
[0.75 0 0 0.74971 131.5 29.63853] CT
0.149 GC
/Helvetica 20 F
GS
[1 0 0 1 0 0] CT
-51 8 moveto 
1 -1 scale
(0.508) t 
GR
GR
GS
[0 -0.74971 0.75 0 90.25 188.57828] CT
0.149 GC
/Helvetica 22 F
GS
[1 0 0 1 0 0] CT
-46.5 -5 moveto 
1 -1 scale
(activation) t 
GR
GR
GS
[0.75 0 0 0.74971 543.37555 26.54542] CT
/Helvetica-Bold 22 F
GS
[1 0 0 1 0 0] CT
-121.5 -5 moveto 
1 -1 scale
(Radial Basis Functions) t 
GR
GR
GS
[0.75 0 0 0.74971 0 0.39999] CT
0 0.447 0.741 RC
1 LJ
2.667 LW
N
182 65.512 M
183.55 66.043 L
185.1 66.572 L
186.65 67.102 L
188.2 67.632 L
189.75 68.162 L
191.3 68.691 L
192.85 69.222 L
194.4 69.751 L
195.95 70.28 L
197.5 70.811 L
199.05 71.34 L
200.6 71.871 L
202.15 72.4 L
203.7 72.931 L
205.25 73.46 L
206.8 73.991 L
208.35 74.52 L
209.9 75.051 L
211.45 75.58 L
213 76.11 L
214.55 76.64 L
216.1 77.17 L
217.65 77.699 L
219.2 78.23 L
220.75 78.759 L
222.3 79.29 L
223.85 79.819 L
225.4 80.35 L
226.95 80.879 L
228.5 81.41 L
230.05 81.939 L
231.6 82.47 L
233.15 82.999 L
234.7 83.529 L
236.25 84.059 L
237.8 84.589 L
239.35 85.118 L
240.9 85.649 L
242.45 86.178 L
244 86.709 L
245.55 87.238 L
247.1 87.769 L
248.65 88.298 L
250.2 88.829 L
251.75 89.358 L
253.3 89.889 L
254.85 90.418 L
256.4 90.949 L
257.95 91.478 L
259.5 92.008 L
261.05 92.538 L
262.6 93.068 L
264.15 93.597 L
265.7 94.128 L
267.25 94.657 L
268.8 95.188 L
270.35 95.717 L
271.9 96.248 L
273.45 96.777 L
275 97.308 L
276.55 97.837 L
278.1 98.368 L
279.65 98.897 L
281.2 99.427 L
282.75 99.957 L
284.3 100.487 L
285.85 101.016 L
287.4 101.547 L
288.95 102.076 L
290.5 102.607 L
292.05 103.136 L
293.6 103.667 L
295.15 104.196 L
296.7 104.727 L
298.25 105.256 L
299.8 105.787 L
301.35 106.316 L
302.9 106.846 L
304.45 107.376 L
306 107.906 L
307.55 108.435 L
309.1 108.966 L
310.65 109.495 L
312.2 110.026 L
313.75 110.555 L
315.3 111.086 L
316.85 111.615 L
318.4 112.146 L
319.95 112.675 L
321.5 113.206 L
323.05 113.735 L
324.6 114.265 L
326.15 114.795 L
327.7 115.325 L
329.25 115.854 L
330.8 116.385 L
332.35 116.914 L
333.9 117.445 L
335.45 117.974 L
337 118.505 L
338.55 119.034 L
340.1 119.565 L
341.65 120.094 L
343.2 120.625 L
344.75 121.154 L
346.3 121.684 L
347.85 122.214 L
349.4 122.744 L
350.95 123.273 L
352.5 123.804 L
354.05 124.333 L
355.6 124.864 L
357.15 125.393 L
358.7 125.924 L
360.25 126.453 L
361.8 126.984 L
363.35 127.513 L
364.9 128.044 L
366.45 128.573 L
368 129.103 L
369.55 129.633 L
371.1 130.163 L
372.65 130.694 L
374.2 131.223 L
375.75 131.754 L
377.3 132.283 L
378.85 132.814 L
380.4 133.343 L
381.95 133.874 L
383.5 134.403 L
385.05 134.933 L
386.6 135.463 L
388.15 135.993 L
389.7 136.522 L
391.25 137.053 L
392.8 137.582 L
394.35 138.113 L
395.9 138.642 L
397.45 139.173 L
399 139.702 L
400.55 140.233 L
402.1 140.762 L
403.65 141.293 L
405.2 141.822 L
406.75 142.353 L
408.3 142.882 L
409.85 143.412 L
411.4 143.943 L
412.95 144.472 L
414.5 145.003 L
416.05 145.532 L
417.6 146.063 L
419.15 146.592 L
420.7 147.123 L
422.25 147.652 L
423.8 148.183 L
425.35 148.712 L
426.9 149.242 L
428.45 149.772 L
430 150.302 L
431.55 150.831 L
433.1 151.362 L
434.65 151.891 L
436.2 152.422 L
437.75 152.951 L
439.3 153.482 L
440.85 154.011 L
442.4 154.542 L
443.95 155.072 L
445.5 155.602 L
447.05 156.132 L
448.6 156.661 L
450.15 157.192 L
451.7 157.721 L
453.25 158.252 L
454.8 158.781 L
456.35 159.312 L
457.9 159.841 L
459.45 160.372 L
461 160.901 L
462.55 161.432 L
464.1 161.961 L
465.65 162.491 L
467.2 163.021 L
468.75 163.551 L
470.3 164.082 L
471.85 164.611 L
473.4 165.142 L
474.95 165.671 L
476.5 166.202 L
478.05 166.731 L
479.6 167.262 L
481.15 167.791 L
482.7 168.321 L
484.25 168.851 L
485.8 169.381 L
487.35 169.91 L
488.9 170.441 L
490.45 170.97 L
492 171.501 L
493.55 172.03 L
495.1 172.561 L
496.65 173.092 L
498.2 173.621 L
499.75 174.151 L
501.3 174.681 L
502.85 175.211 L
504.4 175.74 L
505.95 176.271 L
507.5 176.8 L
509.05 177.331 L
510.6 177.86 L
512.15 178.391 L
513.7 178.92 L
515.25 179.451 L
516.8 179.98 L
518.35 180.511 L
519.9 181.041 L
521.45 181.57 L
523 182.101 L
524.55 182.63 L
526.1 183.161 L
527.65 183.69 L
529.2 184.221 L
530.75 184.75 L
532.3 185.281 L
533.85 185.81 L
535.4 186.341 L
536.95 186.87 L
538.5 187.4 L
540.05 187.931 L
541.6 188.46 L
543.15 188.991 L
544.7 189.52 L
546.25 190.051 L
547.8 190.58 L
549.35 191.111 L
550.9 191.64 L
552.45 192.171 L
554 192.7 L
555.55 193.231 L
557.1 193.76 L
558.65 194.29 L
560.2 194.821 L
561.75 195.35 L
563.3 195.881 L
564.85 196.41 L
566.4 196.941 L
567.95 197.47 L
569.5 198.001 L
571.05 198.53 L
572.6 199.061 L
574.15 199.59 L
575.7 200.12 L
577.25 200.65 L
578.8 201.18 L
580.35 201.711 L
581.9 202.24 L
583.45 202.771 L
585 203.3 L
586.55 203.831 L
588.1 204.36 L
589.65 204.891 L
591.2 205.42 L
592.75 205.95 L
594.3 206.48 L
595.85 207.01 L
597.4 207.539 L
598.95 208.07 L
600.5 208.601 L
602.05 209.13 L
603.6 209.661 L
605.15 210.19 L
606.7 210.721 L
608.25 211.25 L
609.8 211.78 L
611.35 212.31 L
612.9 212.84 L
614.45 213.369 L
616 213.9 L
617.55 214.431 L
619.1 214.96 L
620.65 215.491 L
622.2 216.02 L
623.75 216.551 L
625.3 217.08 L
626.85 217.61 L
628.4 218.14 L
629.95 218.67 L
631.5 219.199 L
633.05 219.73 L
634.6 220.259 L
636.15 220.79 L
637.7 221.321 L
639.25 221.85 L
640.8 222.381 L
642.35 222.91 L
643.9 223.44 L
645.45 223.97 L
647 224.5 L
648.55 225.029 L
650.1 225.56 L
651.65 226.089 L
653.2 226.62 L
654.75 227.151 L
656.3 227.68 L
657.85 228.211 L
659.4 228.74 L
660.95 229.271 L
662.5 229.8 L
664.05 230.33 L
665.6 230.859 L
667.15 231.39 L
668.7 231.919 L
670.25 232.45 L
671.8 232.981 L
673.35 233.51 L
674.9 234.041 L
676.45 234.57 L
678 235.101 L
679.55 235.63 L
681.1 236.16 L
682.65 236.69 L
684.2 237.22 L
685.75 237.749 L
687.3 238.28 L
688.85 238.809 L
690.4 239.34 L
691.95 239.871 L
693.5 240.4 L
695.05 240.931 L
696.6 241.46 L
698.15 241.99 L
699.7 242.52 L
701.25 243.05 L
702.8 243.579 L
704.35 244.11 L
705.9 244.639 L
707.45 245.17 L
709 245.701 L
710.55 246.23 L
712.1 246.761 L
713.65 247.29 L
715.2 247.82 L
716.75 248.35 L
718.3 248.88 L
719.85 249.409 L
721.4 249.94 L
722.95 250.469 L
724.5 251 L
726.05 251.53 L
727.6 252.06 L
729.15 252.59 L
730.7 253.12 L
732.25 253.65 L
733.8 254.18 L
735.35 254.71 L
736.9 255.24 L
738.45 255.77 L
740 256.3 L
741.55 256.83 L
743.1 257.36 L
744.65 257.89 L
746.2 258.42 L
747.75 258.95 L
749.3 259.48 L
750.85 260.01 L
752.4 260.54 L
753.95 261.07 L
755.5 261.6 L
757.05 262.13 L
758.6 262.66 L
760.15 263.19 L
761.7 263.72 L
763.25 264.25 L
764.8 264.78 L
766.35 265.31 L
767.9 265.84 L
769.45 266.37 L
771 266.9 L
772.55 267.43 L
774.1 267.96 L
775.65 268.49 L
777.2 269.02 L
778.75 269.55 L
780.3 270.08 L
781.85 270.61 L
783.4 271.14 L
784.95 271.67 L
786.5 272.2 L
788.05 272.73 L
789.6 273.26 L
791.15 273.79 L
792.7 274.32 L
794.25 274.85 L
795.8 275.38 L
797.35 275.91 L
798.9 276.44 L
800.45 276.97 L
802 277.5 L
803.55 278.03 L
805.1 278.56 L
806.65 279.09 L
808.2 279.62 L
809.75 280.15 L
811.3 280.68 L
812.85 281.21 L
814.4 281.74 L
815.95 282.27 L
817.5 282.8 L
819.05 283.33 L
820.6 283.86 L
822.15 284.39 L
823.7 284.92 L
825.25 285.45 L
826.8 285.98 L
828.35 286.51 L
829.9 287.04 L
831.45 287.57 L
833 288.1 L
834.55 288.63 L
836.1 289.16 L
837.65 289.69 L
839.2 290.22 L
840.75 290.749 L
842.3 291.28 L
843.85 291.81 L
845.4 292.34 L
846.95 292.87 L
848.5 293.4 L
850.05 293.93 L
851.6 294.46 L
853.15 294.99 L
854.7 295.52 L
856.25 296.05 L
857.8 296.579 L
859.35 297.109 L
860.9 297.64 L
862.45 298.17 L
864 298.7 L
865.55 299.23 L
867.1 299.76 L
868.65 300.29 L
870.2 300.82 L
871.75 301.35 L
873.3 301.88 L
874.85 302.41 L
876.4 302.939 L
877.95 303.469 L
879.5 304 L
881.05 304.53 L
882.6 305.06 L
884.15 305.59 L
885.7 306.12 L
887.25 306.65 L
888.8 307.18 L
890.35 307.71 L
891.9 308.24 L
893.45 308.769 L
895 309.299 L
896.55 309.829 L
898.1 310.359 L
899.65 310.889 L
901.2 311.42 L
902.75 311.95 L
904.3 312.48 L
905.85 313.01 L
907.4 313.54 L
908.95 314.07 L
910.5 314.599 L
912.05 315.129 L
913.6 315.659 L
915.15 316.189 L
916.7 316.719 L
918.25 317.249 L
919.8 317.779 L
921.35 318.31 L
922.9 318.84 L
924.45 319.37 L
926 319.9 L
927.55 320.43 L
929.1 320.959 L
930.65 321.489 L
932.2 322.019 L
933.75 322.549 L
935.3 323.079 L
936.85 323.609 L
938.4 324.139 L
939.95 324.669 L
941.5 325.199 L
943.05 325.729 L
944.6 326.26 L
946.15 326.789 L
947.7 327.319 L
949.25 327.849 L
950.8 328.379 L
952.35 328.909 L
953.9 329.439 L
955.45 329.969 L
957 330.499 L
958.55 331.029 L
960.1 331.559 L
961.65 332.089 L
963.2 332.619 L
964.75 333.149 L
966.3 333.679 L
967.85 334.209 L
969.4 334.739 L
970.95 335.269 L
972.5 335.799 L
974.05 336.329 L
975.6 336.859 L
977.15 337.389 L
978.7 337.919 L
980.25 338.449 L
981.8 338.979 L
983.35 339.509 L
984.9 340.039 L
986.45 340.568 L
988 341.098 L
989.55 341.628 L
991.1 342.158 L
992.65 342.688 L
994.2 343.219 L
995.75 343.749 L
997.3 344.279 L
998.85 344.809 L
1000.4 345.339 L
1001.95 345.869 L
1003.5 346.398 L
1005.05 346.928 L
1006.6 347.458 L
1008.15 347.988 L
1009.7 348.518 L
1011.25 349.048 L
1012.8 349.578 L
1014.35 350.108 L
1015.9 350.638 L
1017.45 351.168 L
1019 351.698 L
1020.55 352.228 L
1022.1 352.758 L
1023.65 353.288 L
1025.2 353.818 L
1026.75 354.348 L
1028.3 354.878 L
1029.85 355.408 L
1031.4 355.938 L
1032.95 356.468 L
1034.5 356.998 L
1036.05 357.528 L
1037.6 358.058 L
1039.15 358.588 L
1040.7 359.118 L
1042.25 359.647 L
1043.8 360.177 L
1045.35 360.707 L
1046.9 361.237 L
1048.45 361.767 L
1050 362.297 L
1051.55 362.827 L
1053.1 363.357 L
1054.65 363.887 L
1056.2 364.417 L
1057.75 364.948 L
1059.3 365.478 L
1060.85 366.007 L
1062.4 366.537 L
1063.95 367.067 L
1065.5 367.597 L
1067.05 368.127 L
1068.6 368.657 L
1070.15 369.187 L
1071.7 369.717 L
1073.25 370.247 L
1074.8 370.777 L
1076.35 371.307 L
1077.9 371.837 L
1079.45 372.367 L
1081 372.897 L
1082.55 373.426 L
1084.1 373.956 L
1085.65 374.486 L
1087.2 375.016 L
1088.75 375.546 L
1090.3 376.076 L
1091.85 376.606 L
1093.4 377.136 L
1094.95 377.666 L
1096.5 378.196 L
1098.05 378.726 L
1099.6 379.256 L
1101.15 379.786 L
1102.7 380.316 L
1104.25 380.845 L
1105.8 381.375 L
1107.35 381.906 L
1108.9 382.436 L
1110.45 382.966 L
1112 383.496 L
1113.55 384.026 L
1115.1 384.556 L
1116.65 385.086 L
1118.2 385.616 L
1119.75 386.146 L
1121.3 386.676 L
1122.85 387.205 L
1124.4 387.735 L
1125.95 388.265 L
1127.5 388.795 L
1129.05 389.325 L
1130.6 389.855 L
1132.15 390.385 L
1133.7 390.915 L
1135.25 391.445 L
1136.8 391.975 L
1138.35 392.505 L
1139.9 393.035 L
1141.45 393.565 L
1143 394.095 L
1144.55 394.624 L
1146.1 395.154 L
1147.65 395.684 L
1149.2 396.214 L
1150.75 396.744 L
1152.3 397.274 L
1153.85 397.804 L
1155.4 398.334 L
1156.95 398.864 L
1158.5 399.394 L
1160.05 399.924 L
1161.6 400.454 L
1163.15 400.984 L
1164.7 401.514 L
1166.25 402.043 L
1167.8 402.573 L
1169.35 403.103 L
1170.9 403.633 L
1172.45 404.163 L
1174 404.693 L
1175.55 405.223 L
1177.1 405.753 L
1178.65 406.283 L
1180.2 406.813 L
1181.75 407.343 L
1183.3 407.873 L
1184.85 408.403 L
1186.4 408.933 L
1187.95 409.462 L
1189.5 409.992 L
1191.05 410.522 L
1192.6 411.052 L
1194.15 411.582 L
1195.7 412.112 L
1197.25 412.642 L
1198.8 413.172 L
1200.35 413.702 L
1201.9 414.232 L
1203.45 414.762 L
1205 415.292 L
1206.55 415.822 L
1208.1 416.352 L
1209.65 416.882 L
1211.2 417.411 L
1212.75 417.941 L
1214.3 418.471 L
1215.85 419.001 L
1217.4 419.531 L
1218.95 420.061 L
1220.5 420.591 L
1222.05 421.121 L
1223.6 421.651 L
1225.15 422.181 L
1226.7 422.711 L
1228.25 423.241 L
1229.8 423.77 L
1231.35 424.3 L
1232.9 424.83 L
1234.45 425.36 L
1236 425.89 L
1237.55 426.419 L
1239.1 426.949 L
1240.65 427.479 L
1242.2 428.009 L
1243.75 428.539 L
1245.3 429.069 L
1246.85 429.599 L
1248.4 430.129 L
1249.95 430.659 L
1251.5 431.189 L
1253.05 431.719 L
1254.6 432.249 L
1256.15 432.779 L
1257.7 433.309 L
1259.25 433.838 L
1260.8 434.368 L
1262.35 434.898 L
1263.9 435.428 L
1265.45 435.958 L
1267 436.488 L
S
GR
GS
[0.75 0 0 0.74971 0 0.39999] CT
0.851 0.325 0.098 RC
1 LJ
2.667 LW
N
182 436.488 M
183.55 435.958 L
185.1 435.428 L
186.65 434.898 L
188.2 434.368 L
189.75 433.838 L
191.3 433.309 L
192.85 432.779 L
194.4 432.249 L
195.95 431.719 L
197.5 431.189 L
199.05 430.659 L
200.6 430.129 L
202.15 429.599 L
203.7 429.069 L
205.25 428.539 L
206.8 428.009 L
208.35 427.479 L
209.9 426.949 L
211.45 426.419 L
213 425.89 L
214.55 425.36 L
216.1 424.83 L
217.65 424.3 L
219.2 423.77 L
220.75 423.241 L
222.3 422.711 L
223.85 422.181 L
225.4 421.651 L
226.95 421.121 L
228.5 420.591 L
230.05 420.061 L
231.6 419.531 L
233.15 419.001 L
234.7 418.471 L
236.25 417.941 L
237.8 417.411 L
239.35 416.882 L
240.9 416.352 L
242.45 415.822 L
244 415.292 L
245.55 414.762 L
247.1 414.232 L
248.65 413.702 L
250.2 413.172 L
251.75 412.642 L
253.3 412.112 L
254.85 411.582 L
256.4 411.052 L
257.95 410.522 L
259.5 409.992 L
261.05 409.462 L
262.6 408.933 L
264.15 408.403 L
265.7 407.873 L
267.25 407.343 L
268.8 406.813 L
270.35 406.283 L
271.9 405.753 L
273.45 405.223 L
275 404.693 L
276.55 404.163 L
278.1 403.633 L
279.65 403.103 L
281.2 402.573 L
282.75 402.043 L
284.3 401.514 L
285.85 400.984 L
287.4 400.454 L
288.95 399.924 L
290.5 399.394 L
292.05 398.864 L
293.6 398.334 L
295.15 397.804 L
296.7 397.274 L
298.25 396.744 L
299.8 396.214 L
301.35 395.684 L
302.9 395.154 L
304.45 394.624 L
306 394.095 L
307.55 393.565 L
309.1 393.035 L
310.65 392.505 L
312.2 391.975 L
313.75 391.445 L
315.3 390.915 L
316.85 390.385 L
318.4 389.855 L
319.95 389.325 L
321.5 388.795 L
323.05 388.265 L
324.6 387.735 L
326.15 387.205 L
327.7 386.676 L
329.25 386.146 L
330.8 385.616 L
332.35 385.086 L
333.9 384.556 L
335.45 384.026 L
337 383.496 L
338.55 382.966 L
340.1 382.436 L
341.65 381.906 L
343.2 381.375 L
344.75 380.845 L
346.3 380.316 L
347.85 379.786 L
349.4 379.256 L
350.95 378.726 L
352.5 378.196 L
354.05 377.666 L
355.6 377.136 L
357.15 376.606 L
358.7 376.076 L
360.25 375.546 L
361.8 375.016 L
363.35 374.486 L
364.9 373.956 L
366.45 373.426 L
368 372.897 L
369.55 372.367 L
371.1 371.837 L
372.65 371.307 L
374.2 370.777 L
375.75 370.247 L
377.3 369.717 L
378.85 369.187 L
380.4 368.657 L
381.95 368.127 L
383.5 367.597 L
385.05 367.067 L
386.6 366.537 L
388.15 366.007 L
389.7 365.478 L
391.25 364.948 L
392.8 364.417 L
394.35 363.887 L
395.9 363.357 L
397.45 362.827 L
399 362.297 L
400.55 361.767 L
402.1 361.237 L
403.65 360.707 L
405.2 360.177 L
406.75 359.647 L
408.3 359.118 L
409.85 358.588 L
411.4 358.058 L
412.95 357.528 L
414.5 356.998 L
416.05 356.468 L
417.6 355.938 L
419.15 355.408 L
420.7 354.878 L
422.25 354.348 L
423.8 353.818 L
425.35 353.288 L
426.9 352.758 L
428.45 352.228 L
430 351.698 L
431.55 351.168 L
433.1 350.638 L
434.65 350.108 L
436.2 349.578 L
437.75 349.048 L
439.3 348.518 L
440.85 347.988 L
442.4 347.458 L
443.95 346.928 L
445.5 346.398 L
447.05 345.869 L
448.6 345.339 L
450.15 344.809 L
451.7 344.279 L
453.25 343.749 L
454.8 343.219 L
456.35 342.688 L
457.9 342.158 L
459.45 341.628 L
461 341.098 L
462.55 340.568 L
464.1 340.039 L
465.65 339.509 L
467.2 338.979 L
468.75 338.449 L
470.3 337.919 L
471.85 337.389 L
473.4 336.859 L
474.95 336.329 L
476.5 335.799 L
478.05 335.269 L
479.6 334.739 L
481.15 334.209 L
482.7 333.679 L
484.25 333.149 L
485.8 332.619 L
487.35 332.089 L
488.9 331.559 L
490.45 331.029 L
492 330.499 L
493.55 329.969 L
495.1 329.439 L
496.65 328.909 L
498.2 328.379 L
499.75 327.849 L
501.3 327.319 L
502.85 326.789 L
504.4 326.26 L
505.95 325.729 L
507.5 325.199 L
509.05 324.669 L
510.6 324.139 L
512.15 323.609 L
513.7 323.079 L
515.25 322.549 L
516.8 322.019 L
518.35 321.489 L
519.9 320.959 L
521.45 320.43 L
523 319.9 L
524.55 319.37 L
526.1 318.84 L
527.65 318.31 L
529.2 317.779 L
530.75 317.249 L
532.3 316.719 L
533.85 316.189 L
535.4 315.659 L
536.95 315.129 L
538.5 314.599 L
540.05 314.07 L
541.6 313.54 L
543.15 313.01 L
544.7 312.48 L
546.25 311.95 L
547.8 311.42 L
549.35 310.889 L
550.9 310.359 L
552.45 309.829 L
554 309.299 L
555.55 308.769 L
557.1 308.24 L
558.65 307.71 L
560.2 307.18 L
561.75 306.65 L
563.3 306.12 L
564.85 305.59 L
566.4 305.06 L
567.95 304.53 L
569.5 304 L
571.05 303.469 L
572.6 302.939 L
574.15 302.41 L
575.7 301.88 L
577.25 301.35 L
578.8 300.82 L
580.35 300.29 L
581.9 299.76 L
583.45 299.23 L
585 298.7 L
586.55 298.17 L
588.1 297.64 L
589.65 297.109 L
591.2 296.579 L
592.75 296.05 L
594.3 295.52 L
595.85 294.99 L
597.4 294.46 L
598.95 293.93 L
600.5 293.4 L
602.05 292.87 L
603.6 292.34 L
605.15 291.81 L
606.7 291.28 L
608.25 290.749 L
609.8 290.22 L
611.35 289.69 L
612.9 289.16 L
614.45 288.63 L
616 288.1 L
617.55 287.57 L
619.1 287.04 L
620.65 286.51 L
622.2 285.98 L
623.75 285.45 L
625.3 284.92 L
626.85 284.39 L
628.4 283.86 L
629.95 283.33 L
631.5 282.8 L
633.05 282.27 L
634.6 281.74 L
636.15 281.21 L
637.7 280.68 L
639.25 280.15 L
640.8 279.62 L
642.35 279.09 L
643.9 278.56 L
645.45 278.03 L
647 277.5 L
648.55 276.97 L
650.1 276.44 L
651.65 275.91 L
653.2 275.38 L
654.75 274.85 L
656.3 274.32 L
657.85 273.79 L
659.4 273.26 L
660.95 272.73 L
662.5 272.2 L
664.05 271.67 L
665.6 271.14 L
667.15 270.61 L
668.7 270.08 L
670.25 269.55 L
671.8 269.02 L
673.35 268.49 L
674.9 267.96 L
676.45 267.43 L
678 266.9 L
679.55 266.37 L
681.1 265.84 L
682.65 265.31 L
684.2 264.78 L
685.75 264.25 L
687.3 263.72 L
688.85 263.19 L
690.4 262.66 L
691.95 262.13 L
693.5 261.6 L
695.05 261.07 L
696.6 260.54 L
698.15 260.01 L
699.7 259.48 L
701.25 258.95 L
702.8 258.42 L
704.35 257.89 L
705.9 257.36 L
707.45 256.83 L
709 256.3 L
710.55 255.77 L
712.1 255.24 L
713.65 254.71 L
715.2 254.18 L
716.75 253.65 L
718.3 253.12 L
719.85 252.59 L
721.4 252.06 L
722.95 251.53 L
724.5 251 L
726.05 250.469 L
727.6 249.94 L
729.15 249.409 L
730.7 248.88 L
732.25 248.35 L
733.8 247.82 L
735.35 247.29 L
736.9 246.761 L
738.45 246.23 L
740 245.701 L
741.55 245.17 L
743.1 244.639 L
744.65 244.11 L
746.2 243.579 L
747.75 243.05 L
749.3 242.52 L
750.85 241.99 L
752.4 241.46 L
753.95 240.931 L
755.5 240.4 L
757.05 239.871 L
758.6 239.34 L
760.15 238.809 L
761.7 238.28 L
763.25 237.749 L
764.8 237.22 L
766.35 236.69 L
767.9 236.16 L
769.45 235.63 L
771 235.101 L
772.55 234.57 L
774.1 234.041 L
775.65 233.51 L
777.2 232.981 L
778.75 232.45 L
780.3 231.919 L
781.85 231.39 L
783.4 230.859 L
784.95 230.33 L
786.5 229.8 L
788.05 229.271 L
789.6 228.74 L
791.15 228.211 L
792.7 227.68 L
794.25 227.151 L
795.8 226.62 L
797.35 226.089 L
798.9 225.56 L
800.45 225.029 L
802 224.5 L
803.55 223.97 L
805.1 223.44 L
806.65 222.91 L
808.2 222.381 L
809.75 221.85 L
811.3 221.321 L
812.85 220.79 L
814.4 220.259 L
815.95 219.73 L
817.5 219.199 L
819.05 218.67 L
820.6 218.14 L
822.15 217.61 L
823.7 217.08 L
825.25 216.551 L
826.8 216.02 L
828.35 215.491 L
829.9 214.96 L
831.45 214.431 L
833 213.9 L
834.55 213.369 L
836.1 212.84 L
837.65 212.31 L
839.2 211.78 L
840.75 211.25 L
842.3 210.721 L
843.85 210.19 L
845.4 209.661 L
846.95 209.13 L
848.5 208.601 L
850.05 208.07 L
851.6 207.539 L
853.15 207.01 L
854.7 206.48 L
856.25 205.95 L
857.8 205.42 L
859.35 204.891 L
860.9 204.36 L
862.45 203.831 L
864 203.3 L
865.55 202.771 L
867.1 202.24 L
868.65 201.711 L
870.2 201.18 L
871.75 200.65 L
873.3 200.12 L
874.85 199.59 L
876.4 199.061 L
877.95 198.53 L
879.5 198.001 L
881.05 197.47 L
882.6 196.941 L
884.15 196.41 L
885.7 195.881 L
887.25 195.35 L
888.8 194.821 L
890.35 194.29 L
891.9 193.76 L
893.45 193.231 L
895 192.7 L
896.55 192.171 L
898.1 191.64 L
899.65 191.111 L
901.2 190.58 L
902.75 190.051 L
904.3 189.52 L
905.85 188.991 L
907.4 188.46 L
908.95 187.931 L
910.5 187.4 L
912.05 186.87 L
913.6 186.341 L
915.15 185.81 L
916.7 185.281 L
918.25 184.75 L
919.8 184.221 L
921.35 183.69 L
922.9 183.161 L
924.45 182.63 L
926 182.101 L
927.55 181.57 L
929.1 181.041 L
930.65 180.511 L
932.2 179.98 L
933.75 179.451 L
935.3 178.92 L
936.85 178.391 L
938.4 177.86 L
939.95 177.331 L
941.5 176.8 L
943.05 176.271 L
944.6 175.74 L
946.15 175.211 L
947.7 174.681 L
949.25 174.151 L
950.8 173.621 L
952.35 173.092 L
953.9 172.561 L
955.45 172.03 L
957 171.501 L
958.55 170.97 L
960.1 170.441 L
961.65 169.91 L
963.2 169.381 L
964.75 168.851 L
966.3 168.321 L
967.85 167.791 L
969.4 167.262 L
970.95 166.731 L
972.5 166.202 L
974.05 165.671 L
975.6 165.142 L
977.15 164.611 L
978.7 164.082 L
980.25 163.551 L
981.8 163.021 L
983.35 162.491 L
984.9 161.961 L
986.45 161.432 L
988 160.901 L
989.55 160.372 L
991.1 159.841 L
992.65 159.312 L
994.2 158.781 L
995.75 158.252 L
997.3 157.721 L
998.85 157.192 L
1000.4 156.661 L
1001.95 156.132 L
1003.5 155.602 L
1005.05 155.072 L
1006.6 154.542 L
1008.15 154.011 L
1009.7 153.482 L
1011.25 152.951 L
1012.8 152.422 L
1014.35 151.891 L
1015.9 151.362 L
1017.45 150.831 L
1019 150.302 L
1020.55 149.772 L
1022.1 149.242 L
1023.65 148.712 L
1025.2 148.183 L
1026.75 147.652 L
1028.3 147.123 L
1029.85 146.592 L
1031.4 146.063 L
1032.95 145.532 L
1034.5 145.003 L
1036.05 144.472 L
1037.6 143.943 L
1039.15 143.412 L
1040.7 142.882 L
1042.25 142.353 L
1043.8 141.822 L
1045.35 141.293 L
1046.9 140.762 L
1048.45 140.233 L
1050 139.702 L
1051.55 139.173 L
1053.1 138.642 L
1054.65 138.113 L
1056.2 137.582 L
1057.75 137.053 L
1059.3 136.522 L
1060.85 135.993 L
1062.4 135.463 L
1063.95 134.933 L
1065.5 134.403 L
1067.05 133.874 L
1068.6 133.343 L
1070.15 132.814 L
1071.7 132.283 L
1073.25 131.754 L
1074.8 131.223 L
1076.35 130.694 L
1077.9 130.163 L
1079.45 129.633 L
1081 129.103 L
1082.55 128.573 L
1084.1 128.044 L
1085.65 127.513 L
1087.2 126.984 L
1088.75 126.453 L
1090.3 125.924 L
1091.85 125.393 L
1093.4 124.864 L
1094.95 124.333 L
1096.5 123.804 L
1098.05 123.273 L
1099.6 122.744 L
1101.15 122.214 L
1102.7 121.684 L
1104.25 121.154 L
1105.8 120.625 L
1107.35 120.094 L
1108.9 119.565 L
1110.45 119.034 L
1112 118.505 L
1113.55 117.974 L
1115.1 117.445 L
1116.65 116.914 L
1118.2 116.385 L
1119.75 115.854 L
1121.3 115.325 L
1122.85 114.795 L
1124.4 114.265 L
1125.95 113.735 L
1127.5 113.206 L
1129.05 112.675 L
1130.6 112.146 L
1132.15 111.615 L
1133.7 111.086 L
1135.25 110.555 L
1136.8 110.026 L
1138.35 109.495 L
1139.9 108.966 L
1141.45 108.435 L
1143 107.906 L
1144.55 107.376 L
1146.1 106.846 L
1147.65 106.316 L
1149.2 105.787 L
1150.75 105.256 L
1152.3 104.727 L
1153.85 104.196 L
1155.4 103.667 L
1156.95 103.136 L
1158.5 102.607 L
1160.05 102.076 L
1161.6 101.547 L
1163.15 101.016 L
1164.7 100.487 L
1166.25 99.957 L
1167.8 99.427 L
1169.35 98.897 L
1170.9 98.368 L
1172.45 97.837 L
1174 97.308 L
1175.55 96.777 L
1177.1 96.248 L
1178.65 95.717 L
1180.2 95.188 L
1181.75 94.657 L
1183.3 94.128 L
1184.85 93.597 L
1186.4 93.068 L
1187.95 92.538 L
1189.5 92.008 L
1191.05 91.478 L
1192.6 90.949 L
1194.15 90.418 L
1195.7 89.889 L
1197.25 89.358 L
1198.8 88.829 L
1200.35 88.298 L
1201.9 87.769 L
1203.45 87.238 L
1205 86.709 L
1206.55 86.178 L
1208.1 85.649 L
1209.65 85.118 L
1211.2 84.589 L
1212.75 84.059 L
1214.3 83.529 L
1215.85 82.999 L
1217.4 82.47 L
1218.95 81.939 L
1220.5 81.41 L
1222.05 80.879 L
1223.6 80.35 L
1225.15 79.819 L
1226.7 79.29 L
1228.25 78.759 L
1229.8 78.23 L
1231.35 77.699 L
1232.9 77.17 L
1234.45 76.64 L
1236 76.11 L
1237.55 75.58 L
1239.1 75.051 L
1240.65 74.52 L
1242.2 73.991 L
1243.75 73.46 L
1245.3 72.931 L
1246.85 72.4 L
1248.4 71.871 L
1249.95 71.34 L
1251.5 70.811 L
1253.05 70.28 L
1254.6 69.751 L
1256.15 69.222 L
1257.7 68.691 L
1259.25 68.162 L
1260.8 67.632 L
1262.35 67.102 L
1263.9 66.572 L
1265.45 66.043 L
1267 65.512 L
S
GR
%%Trailer
%%Pages: 1
%%EOF
