%!PS-Adobe-3.0 EPSF-3.0
%%Creator: (MATLAB, The Mathworks, Inc. Version 9.3.0.713579 \(R2017b\). Operating System: Windows 7)
%%Title: fig/RBFN_convergence6.eps
%%CreationDate: 2018-05-06T10:36:13
%%Pages: (atend)
%%BoundingBox:     6     3   396   300
%%LanguageLevel: 3
%%EndComments
%%BeginProlog
%%BeginResource: procset (Apache XML Graphics Std ProcSet) 1.2 0
%%Version: 1.2 0
%%Copyright: (Copyright 2001-2003,2010 The Apache Software Foundation. License terms: http://www.apache.org/licenses/LICENSE-2.0)
/bd{bind def}bind def
/ld{load def}bd
/GR/grestore ld
/GS/gsave ld
/RM/rmoveto ld
/C/curveto ld
/t/show ld
/L/lineto ld
/ML/setmiterlimit ld
/CT/concat ld
/f/fill ld
/N/newpath ld
/S/stroke ld
/CC/setcmykcolor ld
/A/ashow ld
/cp/closepath ld
/RC/setrgbcolor ld
/LJ/setlinejoin ld
/GC/setgray ld
/LW/setlinewidth ld
/M/moveto ld
/re {4 2 roll M
1 index 0 rlineto
0 exch rlineto
neg 0 rlineto
cp } bd
/_ctm matrix def
/_tm matrix def
/BT { _ctm currentmatrix pop matrix _tm copy pop 0 0 moveto } bd
/ET { _ctm setmatrix } bd
/iTm { _ctm setmatrix _tm concat } bd
/Tm { _tm astore pop iTm 0 0 moveto } bd
/ux 0.0 def
/uy 0.0 def
/F {
  /Tp exch def
  /Tf exch def
  Tf findfont Tp scalefont setfont
  /cf Tf def  /cs Tp def
} bd
/ULS {currentpoint /uy exch def /ux exch def} bd
/ULE {
  /Tcx currentpoint pop def
  gsave
  newpath
  cf findfont cs scalefont dup
  /FontMatrix get 0 get /Ts exch def /FontInfo get dup
  /UnderlinePosition get Ts mul /To exch def
  /UnderlineThickness get Ts mul /Tt exch def
  ux uy To add moveto  Tcx uy To add lineto
  Tt setlinewidth stroke
  grestore
} bd
/OLE {
  /Tcx currentpoint pop def
  gsave
  newpath
  cf findfont cs scalefont dup
  /FontMatrix get 0 get /Ts exch def /FontInfo get dup
  /UnderlinePosition get Ts mul /To exch def
  /UnderlineThickness get Ts mul /Tt exch def
  ux uy To add cs add moveto Tcx uy To add cs add lineto
  Tt setlinewidth stroke
  grestore
} bd
/SOE {
  /Tcx currentpoint pop def
  gsave
  newpath
  cf findfont cs scalefont dup
  /FontMatrix get 0 get /Ts exch def /FontInfo get dup
  /UnderlinePosition get Ts mul /To exch def
  /UnderlineThickness get Ts mul /Tt exch def
  ux uy To add cs 10 mul 26 idiv add moveto Tcx uy To add cs 10 mul 26 idiv add lineto
  Tt setlinewidth stroke
  grestore
} bd
/QT {
/Y22 exch store
/X22 exch store
/Y21 exch store
/X21 exch store
currentpoint
/Y21 load 2 mul add 3 div exch
/X21 load 2 mul add 3 div exch
/X21 load 2 mul /X22 load add 3 div
/Y21 load 2 mul /Y22 load add 3 div
/X22 load /Y22 load curveto
} bd
/SSPD {
dup length /d exch dict def
{
/v exch def
/k exch def
currentpagedevice k known {
/cpdv currentpagedevice k get def
v cpdv ne {
/upd false def
/nullv v type /nulltype eq def
/nullcpdv cpdv type /nulltype eq def
nullv nullcpdv or
{
/upd true def
} {
/sametype v type cpdv type eq def
sametype {
v type /arraytype eq {
/vlen v length def
/cpdvlen cpdv length def
vlen cpdvlen eq {
0 1 vlen 1 sub {
/i exch def
/obj v i get def
/cpdobj cpdv i get def
obj cpdobj ne {
/upd true def
exit
} if
} for
} {
/upd true def
} ifelse
} {
v type /dicttype eq {
v {
/dv exch def
/dk exch def
/cpddv cpdv dk get def
dv cpddv ne {
/upd true def
exit
} if
} forall
} {
/upd true def
} ifelse
} ifelse
} if
} ifelse
upd true eq {
d k v put
} if
} if
} if
} forall
d length 0 gt {
d setpagedevice
} if
} bd
/RE { % /NewFontName [NewEncodingArray] /FontName RE -
  findfont dup length dict begin
  {
    1 index /FID ne
    {def} {pop pop} ifelse
  } forall
  /Encoding exch def
  /FontName 1 index def
  currentdict definefont pop
  end
} bind def
%%EndResource
%%BeginResource: procset (Apache XML Graphics EPS ProcSet) 1.0 0
%%Version: 1.0 0
%%Copyright: (Copyright 2002-2003 The Apache Software Foundation. License terms: http://www.apache.org/licenses/LICENSE-2.0)
/BeginEPSF { %def
/b4_Inc_state save def         % Save state for cleanup
/dict_count countdictstack def % Count objects on dict stack
/op_count count 1 sub def      % Count objects on operand stack
userdict begin                 % Push userdict on dict stack
/showpage { } def              % Redefine showpage, { } = null proc
0 setgray 0 setlinecap         % Prepare graphics state
1 setlinewidth 0 setlinejoin
10 setmiterlimit [ ] 0 setdash newpath
/languagelevel where           % If level not equal to 1 then
{pop languagelevel             % set strokeadjust and
1 ne                           % overprint to their defaults.
{false setstrokeadjust false setoverprint
} if
} if
} bd
/EndEPSF { %def
count op_count sub {pop} repeat            % Clean up stacks
countdictstack dict_count sub {end} repeat
b4_Inc_state restore
} bd
%%EndResource
%FOPBeginFontDict
%%IncludeResource: font Courier-Oblique
%%IncludeResource: font Courier-BoldOblique
%%IncludeResource: font Courier-Bold
%%IncludeResource: font ZapfDingbats
%%IncludeResource: font Symbol
%%IncludeResource: font Helvetica
%%IncludeResource: font Helvetica-Oblique
%%IncludeResource: font Helvetica-Bold
%%IncludeResource: font Helvetica-BoldOblique
%%IncludeResource: font Times-Roman
%%IncludeResource: font Times-Italic
%%IncludeResource: font Times-Bold
%%IncludeResource: font Times-BoldItalic
%%IncludeResource: font Courier
%FOPEndFontDict
%%BeginResource: encoding WinAnsiEncoding
/WinAnsiEncoding [
/.notdef /.notdef /.notdef /.notdef /.notdef
/.notdef /.notdef /.notdef /.notdef /.notdef
/.notdef /.notdef /.notdef /.notdef /.notdef
/.notdef /.notdef /.notdef /.notdef /.notdef
/.notdef /.notdef /.notdef /.notdef /.notdef
/.notdef /.notdef /.notdef /.notdef /.notdef
/.notdef /.notdef /space /exclam /quotedbl
/numbersign /dollar /percent /ampersand /quotesingle
/parenleft /parenright /asterisk /plus /comma
/hyphen /period /slash /zero /one
/two /three /four /five /six
/seven /eight /nine /colon /semicolon
/less /equal /greater /question /at
/A /B /C /D /E
/F /G /H /I /J
/K /L /M /N /O
/P /Q /R /S /T
/U /V /W /X /Y
/Z /bracketleft /backslash /bracketright /asciicircum
/underscore /quoteleft /a /b /c
/d /e /f /g /h
/i /j /k /l /m
/n /o /p /q /r
/s /t /u /v /w
/x /y /z /braceleft /bar
/braceright /asciitilde /bullet /Euro /bullet
/quotesinglbase /florin /quotedblbase /ellipsis /dagger
/daggerdbl /circumflex /perthousand /Scaron /guilsinglleft
/OE /bullet /Zcaron /bullet /bullet
/quoteleft /quoteright /quotedblleft /quotedblright /bullet
/endash /emdash /asciitilde /trademark /scaron
/guilsinglright /oe /bullet /zcaron /Ydieresis
/space /exclamdown /cent /sterling /currency
/yen /brokenbar /section /dieresis /copyright
/ordfeminine /guillemotleft /logicalnot /sfthyphen /registered
/macron /degree /plusminus /twosuperior /threesuperior
/acute /mu /paragraph /middot /cedilla
/onesuperior /ordmasculine /guillemotright /onequarter /onehalf
/threequarters /questiondown /Agrave /Aacute /Acircumflex
/Atilde /Adieresis /Aring /AE /Ccedilla
/Egrave /Eacute /Ecircumflex /Edieresis /Igrave
/Iacute /Icircumflex /Idieresis /Eth /Ntilde
/Ograve /Oacute /Ocircumflex /Otilde /Odieresis
/multiply /Oslash /Ugrave /Uacute /Ucircumflex
/Udieresis /Yacute /Thorn /germandbls /agrave
/aacute /acircumflex /atilde /adieresis /aring
/ae /ccedilla /egrave /eacute /ecircumflex
/edieresis /igrave /iacute /icircumflex /idieresis
/eth /ntilde /ograve /oacute /ocircumflex
/otilde /odieresis /divide /oslash /ugrave
/uacute /ucircumflex /udieresis /yacute /thorn
/ydieresis
] def
%%EndResource
%FOPBeginFontReencode
/Courier-Oblique findfont
dup length dict begin
  {1 index /FID ne {def} {pop pop} ifelse} forall
  /Encoding WinAnsiEncoding def
  currentdict
end
/Courier-Oblique exch definefont pop
/Courier-BoldOblique findfont
dup length dict begin
  {1 index /FID ne {def} {pop pop} ifelse} forall
  /Encoding WinAnsiEncoding def
  currentdict
end
/Courier-BoldOblique exch definefont pop
/Courier-Bold findfont
dup length dict begin
  {1 index /FID ne {def} {pop pop} ifelse} forall
  /Encoding WinAnsiEncoding def
  currentdict
end
/Courier-Bold exch definefont pop
/Helvetica findfont
dup length dict begin
  {1 index /FID ne {def} {pop pop} ifelse} forall
  /Encoding WinAnsiEncoding def
  currentdict
end
/Helvetica exch definefont pop
/Helvetica-Oblique findfont
dup length dict begin
  {1 index /FID ne {def} {pop pop} ifelse} forall
  /Encoding WinAnsiEncoding def
  currentdict
end
/Helvetica-Oblique exch definefont pop
/Helvetica-Bold findfont
dup length dict begin
  {1 index /FID ne {def} {pop pop} ifelse} forall
  /Encoding WinAnsiEncoding def
  currentdict
end
/Helvetica-Bold exch definefont pop
/Helvetica-BoldOblique findfont
dup length dict begin
  {1 index /FID ne {def} {pop pop} ifelse} forall
  /Encoding WinAnsiEncoding def
  currentdict
end
/Helvetica-BoldOblique exch definefont pop
/Times-Roman findfont
dup length dict begin
  {1 index /FID ne {def} {pop pop} ifelse} forall
  /Encoding WinAnsiEncoding def
  currentdict
end
/Times-Roman exch definefont pop
/Times-Italic findfont
dup length dict begin
  {1 index /FID ne {def} {pop pop} ifelse} forall
  /Encoding WinAnsiEncoding def
  currentdict
end
/Times-Italic exch definefont pop
/Times-Bold findfont
dup length dict begin
  {1 index /FID ne {def} {pop pop} ifelse} forall
  /Encoding WinAnsiEncoding def
  currentdict
end
/Times-Bold exch definefont pop
/Times-BoldItalic findfont
dup length dict begin
  {1 index /FID ne {def} {pop pop} ifelse} forall
  /Encoding WinAnsiEncoding def
  currentdict
end
/Times-BoldItalic exch definefont pop
/Courier findfont
dup length dict begin
  {1 index /FID ne {def} {pop pop} ifelse} forall
  /Encoding WinAnsiEncoding def
  currentdict
end
/Courier exch definefont pop
%FOPEndFontReencode
%%EndProlog
%%Page: 1 1
%%PageBoundingBox: 0 0 420 315
%%BeginPageSetup
[1 0 0 -1 0 315] CT
%%EndPageSetup
GS
[0.75 0 0 0.75 0 0] CT
1 GC
N
0 0 560 420 re
f
GR
GS
[0.75 0 0 0.75 0 0] CT
1 GC
N
0 0 560 420 re
f
GR
GS
[0.75 0 0 0.75 0 0] CT
1 GC
N
73 358 M
507 358 L
507 31 L
73 31 L
cp
f
GR
GS
[0.75 0 0 0.75 0 0] CT
0.873 GC
1 LJ
0.667 LW
N
73 358 M
73 31 L
S
GR
GS
[0.75 0 0 0.75 0 0] CT
0.873 GC
1 LJ
0.667 LW
N
159.8 358 M
159.8 31 L
S
GR
GS
[0.75 0 0 0.75 0 0] CT
0.873 GC
1 LJ
0.667 LW
N
246.6 358 M
246.6 31 L
S
GR
GS
[0.75 0 0 0.75 0 0] CT
0.873 GC
1 LJ
0.667 LW
N
333.4 358 M
333.4 31 L
S
GR
GS
[0.75 0 0 0.75 0 0] CT
0.873 GC
1 LJ
0.667 LW
N
420.2 358 M
420.2 31 L
S
GR
GS
[0.75 0 0 0.75 0 0] CT
0.873 GC
1 LJ
0.667 LW
N
507 358 M
507 31 L
S
GR
GS
[0.75 0 0 0.75 0 0] CT
0.775 GC
[1 3] 0 setdash
2 LJ
0.667 LW
N
507 325.188 M
73 325.188 L
S
GR
GS
[0.75 0 0 0.75 0 0] CT
0.775 GC
[1 3] 0 setdash
2 LJ
0.667 LW
N
507 305.994 M
73 305.994 L
S
GR
GS
[0.75 0 0 0.75 0 0] CT
0.775 GC
[1 3] 0 setdash
2 LJ
0.667 LW
N
507 292.375 M
73 292.375 L
S
GR
GS
[0.75 0 0 0.75 0 0] CT
0.775 GC
[1 3] 0 setdash
2 LJ
0.667 LW
N
507 281.812 M
73 281.812 L
S
GR
GS
[0.75 0 0 0.75 0 0] CT
0.775 GC
[1 3] 0 setdash
2 LJ
0.667 LW
N
507 273.182 M
73 273.182 L
S
GR
GS
[0.75 0 0 0.75 0 0] CT
0.775 GC
[1 3] 0 setdash
2 LJ
0.667 LW
N
507 265.884 M
73 265.884 L
S
GR
GS
[0.75 0 0 0.75 0 0] CT
0.775 GC
[1 3] 0 setdash
2 LJ
0.667 LW
N
507 259.563 M
73 259.563 L
S
GR
GS
[0.75 0 0 0.75 0 0] CT
0.775 GC
[1 3] 0 setdash
2 LJ
0.667 LW
N
507 253.988 M
73 253.988 L
S
GR
GS
[0.75 0 0 0.75 0 0] CT
0.775 GC
[1 3] 0 setdash
2 LJ
0.667 LW
N
507 216.188 M
73 216.188 L
S
GR
GS
[0.75 0 0 0.75 0 0] CT
0.775 GC
[1 3] 0 setdash
2 LJ
0.667 LW
N
507 196.994 M
73 196.994 L
S
GR
GS
[0.75 0 0 0.75 0 0] CT
0.775 GC
[1 3] 0 setdash
2 LJ
0.667 LW
N
507 183.375 M
73 183.375 L
S
GR
GS
[0.75 0 0 0.75 0 0] CT
0.775 GC
[1 3] 0 setdash
2 LJ
0.667 LW
N
507 172.812 M
73 172.812 L
S
GR
GS
[0.75 0 0 0.75 0 0] CT
0.775 GC
[1 3] 0 setdash
2 LJ
0.667 LW
N
507 164.182 M
73 164.182 L
S
GR
GS
[0.75 0 0 0.75 0 0] CT
0.775 GC
[1 3] 0 setdash
2 LJ
0.667 LW
N
507 156.884 M
73 156.884 L
S
GR
GS
[0.75 0 0 0.75 0 0] CT
0.775 GC
[1 3] 0 setdash
2 LJ
0.667 LW
N
507 150.563 M
73 150.563 L
S
GR
GS
[0.75 0 0 0.75 0 0] CT
0.775 GC
[1 3] 0 setdash
2 LJ
0.667 LW
N
507 144.988 M
73 144.988 L
S
GR
GS
[0.75 0 0 0.75 0 0] CT
0.775 GC
[1 3] 0 setdash
2 LJ
0.667 LW
N
507 107.188 M
73 107.188 L
S
GR
GS
[0.75 0 0 0.75 0 0] CT
0.775 GC
[1 3] 0 setdash
2 LJ
0.667 LW
N
507 87.994 M
73 87.994 L
S
GR
GS
[0.75 0 0 0.75 0 0] CT
0.775 GC
[1 3] 0 setdash
2 LJ
0.667 LW
N
507 74.375 M
73 74.375 L
S
GR
GS
[0.75 0 0 0.75 0 0] CT
0.775 GC
[1 3] 0 setdash
2 LJ
0.667 LW
N
507 63.812 M
73 63.812 L
S
GR
GS
[0.75 0 0 0.75 0 0] CT
0.775 GC
[1 3] 0 setdash
2 LJ
0.667 LW
N
507 55.182 M
73 55.182 L
S
GR
GS
[0.75 0 0 0.75 0 0] CT
0.775 GC
[1 3] 0 setdash
2 LJ
0.667 LW
N
507 47.884 M
73 47.884 L
S
GR
GS
[0.75 0 0 0.75 0 0] CT
0.775 GC
[1 3] 0 setdash
2 LJ
0.667 LW
N
507 41.563 M
73 41.563 L
S
GR
GS
[0.75 0 0 0.75 0 0] CT
0.775 GC
[1 3] 0 setdash
2 LJ
0.667 LW
N
507 35.988 M
73 35.988 L
S
GR
GS
[0.75 0 0 0.75 0 0] CT
0.873 GC
1 LJ
0.667 LW
N
507 358 M
73 358 L
S
GR
GS
[0.75 0 0 0.75 0 0] CT
0.873 GC
1 LJ
0.667 LW
N
507 249 M
73 249 L
S
GR
GS
[0.75 0 0 0.75 0 0] CT
0.873 GC
1 LJ
0.667 LW
N
507 140 M
73 140 L
S
GR
GS
[0.75 0 0 0.75 0 0] CT
0.873 GC
1 LJ
0.667 LW
N
507 31 M
73 31 L
S
GR
GS
[0.75 0 0 0.75 0 0] CT
0.149 GC
2 setlinecap
1 LJ
0.667 LW
N
73 358 M
507 358 L
S
GR
GS
[0.75 0 0 0.75 0 0] CT
0.149 GC
2 setlinecap
1 LJ
0.667 LW
N
73 31 M
507 31 L
S
GR
GS
[0.75 0 0 0.75 0 0] CT
0.149 GC
2 setlinecap
1 LJ
0.667 LW
N
73 358 M
73 353.66 L
S
GR
GS
[0.75 0 0 0.75 0 0] CT
0.149 GC
2 setlinecap
1 LJ
0.667 LW
N
159.8 358 M
159.8 353.66 L
S
GR
GS
[0.75 0 0 0.75 0 0] CT
0.149 GC
2 setlinecap
1 LJ
0.667 LW
N
246.6 358 M
246.6 353.66 L
S
GR
GS
[0.75 0 0 0.75 0 0] CT
0.149 GC
2 setlinecap
1 LJ
0.667 LW
N
333.4 358 M
333.4 353.66 L
S
GR
GS
[0.75 0 0 0.75 0 0] CT
0.149 GC
2 setlinecap
1 LJ
0.667 LW
N
420.2 358 M
420.2 353.66 L
S
GR
GS
[0.75 0 0 0.75 0 0] CT
0.149 GC
2 setlinecap
1 LJ
0.667 LW
N
507 358 M
507 353.66 L
S
GR
GS
[0.75 0 0 0.75 0 0] CT
0.149 GC
2 setlinecap
1 LJ
0.667 LW
N
73 31 M
73 35.34 L
S
GR
GS
[0.75 0 0 0.75 0 0] CT
0.149 GC
2 setlinecap
1 LJ
0.667 LW
N
159.8 31 M
159.8 35.34 L
S
GR
GS
[0.75 0 0 0.75 0 0] CT
0.149 GC
2 setlinecap
1 LJ
0.667 LW
N
246.6 31 M
246.6 35.34 L
S
GR
GS
[0.75 0 0 0.75 0 0] CT
0.149 GC
2 setlinecap
1 LJ
0.667 LW
N
333.4 31 M
333.4 35.34 L
S
GR
GS
[0.75 0 0 0.75 0 0] CT
0.149 GC
2 setlinecap
1 LJ
0.667 LW
N
420.2 31 M
420.2 35.34 L
S
GR
GS
[0.75 0 0 0.75 0 0] CT
0.149 GC
2 setlinecap
1 LJ
0.667 LW
N
507 31 M
507 35.34 L
S
GR
GS
[0.75 0 0 0.75 54.75 273.49999] CT
0.149 GC
/Helvetica 20 F
GS
[1 0 0 1 0 0] CT
-6 21 moveto 
1 -1 scale
(0) t 
GR
GR
GS
[0.75 0 0 0.75 119.85 273.49999] CT
0.149 GC
/Helvetica 20 F
GS
[1 0 0 1 0 0] CT
-17 21 moveto 
1 -1 scale
(200) t 
GR
GR
GS
[0.75 0 0 0.75 184.95 273.49999] CT
0.149 GC
/Helvetica 20 F
GS
[1 0 0 1 0 0] CT
-17 21 moveto 
1 -1 scale
(400) t 
GR
GR
GS
[0.75 0 0 0.75 250.05002 273.49999] CT
0.149 GC
/Helvetica 20 F
GS
[1 0 0 1 0 0] CT
-17 21 moveto 
1 -1 scale
(600) t 
GR
GR
GS
[0.75 0 0 0.75 315.15001 273.49999] CT
0.149 GC
/Helvetica 20 F
GS
[1 0 0 1 0 0] CT
-17 21 moveto 
1 -1 scale
(800) t 
GR
GR
GS
[0.75 0 0 0.75 380.25 273.49999] CT
0.149 GC
/Helvetica 20 F
GS
[1 0 0 1 0 0] CT
-22.5 21 moveto 
1 -1 scale
(1000) t 
GR
GR
GS
[0.75 0 0 0.75 217.50016 294] CT
0.149 GC
/Helvetica 22 F
GS
[1 0 0 1 0 0] CT
-48.5 23 moveto 
1 -1 scale
(Itterations) t 
GR
GR
GS
[0.75 0 0 0.75 0 0] CT
0.149 GC
2 setlinecap
1 LJ
0.667 LW
N
73 358 M
73 31 L
S
GR
GS
[0.75 0 0 0.75 0 0] CT
0.149 GC
2 setlinecap
1 LJ
0.667 LW
N
507 358 M
507 31 L
S
GR
GS
[0.75 0 0 0.75 0 0] CT
0.149 GC
2 setlinecap
1 LJ
0.667 LW
N
73 358 M
77.34 358 L
S
GR
GS
[0.75 0 0 0.75 0 0] CT
0.149 GC
2 setlinecap
1 LJ
0.667 LW
N
73 249 M
77.34 249 L
S
GR
GS
[0.75 0 0 0.75 0 0] CT
0.149 GC
2 setlinecap
1 LJ
0.667 LW
N
73 140 M
77.34 140 L
S
GR
GS
[0.75 0 0 0.75 0 0] CT
0.149 GC
2 setlinecap
1 LJ
0.667 LW
N
73 31 M
77.34 31 L
S
GR
GS
[0.75 0 0 0.75 0 0] CT
0.149 GC
2 setlinecap
1 LJ
0.667 LW
N
507 358 M
502.66 358 L
S
GR
GS
[0.75 0 0 0.75 0 0] CT
0.149 GC
2 setlinecap
1 LJ
0.667 LW
N
507 249 M
502.66 249 L
S
GR
GS
[0.75 0 0 0.75 0 0] CT
0.149 GC
2 setlinecap
1 LJ
0.667 LW
N
507 140 M
502.66 140 L
S
GR
GS
[0.75 0 0 0.75 0 0] CT
0.149 GC
2 setlinecap
1 LJ
0.667 LW
N
507 31 M
502.66 31 L
S
GR
GS
[0.75 0 0 0.75 0 0] CT
0.149 GC
2 setlinecap
1 LJ
0.667 LW
N
73 358 M
75.17 358 L
S
GR
GS
[0.75 0 0 0.75 0 0] CT
0.149 GC
2 setlinecap
1 LJ
0.667 LW
N
73 325.188 M
75.17 325.188 L
S
GR
GS
[0.75 0 0 0.75 0 0] CT
0.149 GC
2 setlinecap
1 LJ
0.667 LW
N
73 305.994 M
75.17 305.994 L
S
GR
GS
[0.75 0 0 0.75 0 0] CT
0.149 GC
2 setlinecap
1 LJ
0.667 LW
N
73 292.375 M
75.17 292.375 L
S
GR
GS
[0.75 0 0 0.75 0 0] CT
0.149 GC
2 setlinecap
1 LJ
0.667 LW
N
73 281.812 M
75.17 281.812 L
S
GR
GS
[0.75 0 0 0.75 0 0] CT
0.149 GC
2 setlinecap
1 LJ
0.667 LW
N
73 273.182 M
75.17 273.182 L
S
GR
GS
[0.75 0 0 0.75 0 0] CT
0.149 GC
2 setlinecap
1 LJ
0.667 LW
N
73 265.884 M
75.17 265.884 L
S
GR
GS
[0.75 0 0 0.75 0 0] CT
0.149 GC
2 setlinecap
1 LJ
0.667 LW
N
73 259.563 M
75.17 259.563 L
S
GR
GS
[0.75 0 0 0.75 0 0] CT
0.149 GC
2 setlinecap
1 LJ
0.667 LW
N
73 253.988 M
75.17 253.988 L
S
GR
GS
[0.75 0 0 0.75 0 0] CT
0.149 GC
2 setlinecap
1 LJ
0.667 LW
N
73 249 M
75.17 249 L
S
GR
GS
[0.75 0 0 0.75 0 0] CT
0.149 GC
2 setlinecap
1 LJ
0.667 LW
N
73 216.188 M
75.17 216.188 L
S
GR
GS
[0.75 0 0 0.75 0 0] CT
0.149 GC
2 setlinecap
1 LJ
0.667 LW
N
73 196.994 M
75.17 196.994 L
S
GR
GS
[0.75 0 0 0.75 0 0] CT
0.149 GC
2 setlinecap
1 LJ
0.667 LW
N
73 183.375 M
75.17 183.375 L
S
GR
GS
[0.75 0 0 0.75 0 0] CT
0.149 GC
2 setlinecap
1 LJ
0.667 LW
N
73 172.812 M
75.17 172.812 L
S
GR
GS
[0.75 0 0 0.75 0 0] CT
0.149 GC
2 setlinecap
1 LJ
0.667 LW
N
73 164.182 M
75.17 164.182 L
S
GR
GS
[0.75 0 0 0.75 0 0] CT
0.149 GC
2 setlinecap
1 LJ
0.667 LW
N
73 156.884 M
75.17 156.884 L
S
GR
GS
[0.75 0 0 0.75 0 0] CT
0.149 GC
2 setlinecap
1 LJ
0.667 LW
N
73 150.563 M
75.17 150.563 L
S
GR
GS
[0.75 0 0 0.75 0 0] CT
0.149 GC
2 setlinecap
1 LJ
0.667 LW
N
73 144.988 M
75.17 144.988 L
S
GR
GS
[0.75 0 0 0.75 0 0] CT
0.149 GC
2 setlinecap
1 LJ
0.667 LW
N
73 140 M
75.17 140 L
S
GR
GS
[0.75 0 0 0.75 0 0] CT
0.149 GC
2 setlinecap
1 LJ
0.667 LW
N
73 107.188 M
75.17 107.188 L
S
GR
GS
[0.75 0 0 0.75 0 0] CT
0.149 GC
2 setlinecap
1 LJ
0.667 LW
N
73 87.994 M
75.17 87.994 L
S
GR
GS
[0.75 0 0 0.75 0 0] CT
0.149 GC
2 setlinecap
1 LJ
0.667 LW
N
73 74.375 M
75.17 74.375 L
S
GR
GS
[0.75 0 0 0.75 0 0] CT
0.149 GC
2 setlinecap
1 LJ
0.667 LW
N
73 63.812 M
75.17 63.812 L
S
GR
GS
[0.75 0 0 0.75 0 0] CT
0.149 GC
2 setlinecap
1 LJ
0.667 LW
N
73 55.182 M
75.17 55.182 L
S
GR
GS
[0.75 0 0 0.75 0 0] CT
0.149 GC
2 setlinecap
1 LJ
0.667 LW
N
73 47.884 M
75.17 47.884 L
S
GR
GS
[0.75 0 0 0.75 0 0] CT
0.149 GC
2 setlinecap
1 LJ
0.667 LW
N
73 41.563 M
75.17 41.563 L
S
GR
GS
[0.75 0 0 0.75 0 0] CT
0.149 GC
2 setlinecap
1 LJ
0.667 LW
N
73 35.988 M
75.17 35.988 L
S
GR
GS
[0.75 0 0 0.75 0 0] CT
0.149 GC
2 setlinecap
1 LJ
0.667 LW
N
73 31 M
75.17 31 L
S
GR
GS
[0.75 0 0 0.75 0 0] CT
0.149 GC
2 setlinecap
1 LJ
0.667 LW
N
507 358 M
504.83 358 L
S
GR
GS
[0.75 0 0 0.75 0 0] CT
0.149 GC
2 setlinecap
1 LJ
0.667 LW
N
507 325.188 M
504.83 325.188 L
S
GR
GS
[0.75 0 0 0.75 0 0] CT
0.149 GC
2 setlinecap
1 LJ
0.667 LW
N
507 305.994 M
504.83 305.994 L
S
GR
GS
[0.75 0 0 0.75 0 0] CT
0.149 GC
2 setlinecap
1 LJ
0.667 LW
N
507 292.375 M
504.83 292.375 L
S
GR
GS
[0.75 0 0 0.75 0 0] CT
0.149 GC
2 setlinecap
1 LJ
0.667 LW
N
507 281.812 M
504.83 281.812 L
S
GR
GS
[0.75 0 0 0.75 0 0] CT
0.149 GC
2 setlinecap
1 LJ
0.667 LW
N
507 273.182 M
504.83 273.182 L
S
GR
GS
[0.75 0 0 0.75 0 0] CT
0.149 GC
2 setlinecap
1 LJ
0.667 LW
N
507 265.884 M
504.83 265.884 L
S
GR
GS
[0.75 0 0 0.75 0 0] CT
0.149 GC
2 setlinecap
1 LJ
0.667 LW
N
507 259.563 M
504.83 259.563 L
S
GR
GS
[0.75 0 0 0.75 0 0] CT
0.149 GC
2 setlinecap
1 LJ
0.667 LW
N
507 253.988 M
504.83 253.988 L
S
GR
GS
[0.75 0 0 0.75 0 0] CT
0.149 GC
2 setlinecap
1 LJ
0.667 LW
N
507 249 M
504.83 249 L
S
GR
GS
[0.75 0 0 0.75 0 0] CT
0.149 GC
2 setlinecap
1 LJ
0.667 LW
N
507 216.188 M
504.83 216.188 L
S
GR
GS
[0.75 0 0 0.75 0 0] CT
0.149 GC
2 setlinecap
1 LJ
0.667 LW
N
507 196.994 M
504.83 196.994 L
S
GR
GS
[0.75 0 0 0.75 0 0] CT
0.149 GC
2 setlinecap
1 LJ
0.667 LW
N
507 183.375 M
504.83 183.375 L
S
GR
GS
[0.75 0 0 0.75 0 0] CT
0.149 GC
2 setlinecap
1 LJ
0.667 LW
N
507 172.812 M
504.83 172.812 L
S
GR
GS
[0.75 0 0 0.75 0 0] CT
0.149 GC
2 setlinecap
1 LJ
0.667 LW
N
507 164.182 M
504.83 164.182 L
S
GR
GS
[0.75 0 0 0.75 0 0] CT
0.149 GC
2 setlinecap
1 LJ
0.667 LW
N
507 156.884 M
504.83 156.884 L
S
GR
GS
[0.75 0 0 0.75 0 0] CT
0.149 GC
2 setlinecap
1 LJ
0.667 LW
N
507 150.563 M
504.83 150.563 L
S
GR
GS
[0.75 0 0 0.75 0 0] CT
0.149 GC
2 setlinecap
1 LJ
0.667 LW
N
507 144.988 M
504.83 144.988 L
S
GR
GS
[0.75 0 0 0.75 0 0] CT
0.149 GC
2 setlinecap
1 LJ
0.667 LW
N
507 140 M
504.83 140 L
S
GR
GS
[0.75 0 0 0.75 0 0] CT
0.149 GC
2 setlinecap
1 LJ
0.667 LW
N
507 107.188 M
504.83 107.188 L
S
GR
GS
[0.75 0 0 0.75 0 0] CT
0.149 GC
2 setlinecap
1 LJ
0.667 LW
N
507 87.994 M
504.83 87.994 L
S
GR
GS
[0.75 0 0 0.75 0 0] CT
0.149 GC
2 setlinecap
1 LJ
0.667 LW
N
507 74.375 M
504.83 74.375 L
S
GR
GS
[0.75 0 0 0.75 0 0] CT
0.149 GC
2 setlinecap
1 LJ
0.667 LW
N
507 63.812 M
504.83 63.812 L
S
GR
GS
[0.75 0 0 0.75 0 0] CT
0.149 GC
2 setlinecap
1 LJ
0.667 LW
N
507 55.182 M
504.83 55.182 L
S
GR
GS
[0.75 0 0 0.75 0 0] CT
0.149 GC
2 setlinecap
1 LJ
0.667 LW
N
507 47.884 M
504.83 47.884 L
S
GR
GS
[0.75 0 0 0.75 0 0] CT
0.149 GC
2 setlinecap
1 LJ
0.667 LW
N
507 41.563 M
504.83 41.563 L
S
GR
GS
[0.75 0 0 0.75 0 0] CT
0.149 GC
2 setlinecap
1 LJ
0.667 LW
N
507 35.988 M
504.83 35.988 L
S
GR
GS
[0.75 0 0 0.75 0 0] CT
0.149 GC
2 setlinecap
1 LJ
0.667 LW
N
507 31 M
504.83 31 L
S
GR
GS
[0.75 0 0 0.75 25.5 276.75] CT
0.149 GC
/Helvetica 20 F
GS
[1 0 0 1 0 0] CT
0 0 moveto 
1 -1 scale
(10) t 
GR
GR
GS
[0.75 0 0 0.75 42.75 269.25] CT
0.149 GC
/Helvetica 16 F
GS
[1 0 0 1 0 0] CT
0 0 moveto 
1 -1 scale
(1) t 
GR
GR
GS
[0.75 0 0 0.75 25.5 195] CT
0.149 GC
/Helvetica 20 F
GS
[1 0 0 1 0 0] CT
0 0 moveto 
1 -1 scale
(10) t 
GR
GR
GS
[0.75 0 0 0.75 42.75 187.5] CT
0.149 GC
/Helvetica 16 F
GS
[1 0 0 1 0 0] CT
0 0 moveto 
1 -1 scale
(2) t 
GR
GR
GS
[0.75 0 0 0.75 25.5 113.25] CT
0.149 GC
/Helvetica 20 F
GS
[1 0 0 1 0 0] CT
0 0 moveto 
1 -1 scale
(10) t 
GR
GR
GS
[0.75 0 0 0.75 42.75 105.75] CT
0.149 GC
/Helvetica 16 F
GS
[1 0 0 1 0 0] CT
0 0 moveto 
1 -1 scale
(3) t 
GR
GR
GS
[0.75 0 0 0.75 25.5 31.5] CT
0.149 GC
/Helvetica 20 F
GS
[1 0 0 1 0 0] CT
0 0 moveto 
1 -1 scale
(10) t 
GR
GR
GS
[0.75 0 0 0.75 42.75 24] CT
0.149 GC
/Helvetica 16 F
GS
[1 0 0 1 0 0] CT
0 0 moveto 
1 -1 scale
(4) t 
GR
GR
GS
[0 -0.75 0.75 0 22.75 145.87489] CT
0.149 GC
/Helvetica 22 F
GS
[1 0 0 1 0 0] CT
-54 -5 moveto 
1 -1 scale
(Defference) t 
GR
GR
GS
[0.75 0 0 0.75 0 0] CT
0 0.447 0.741 RC
1 LJ
2.667 LW
N
73.434 358 M
73.868 355.691 L
74.302 326.386 L
74.736 326.386 L
75.17 324.135 L
75.604 308.291 L
76.038 308.407 L
76.472 306.365 L
76.906 306.223 L
77.34 304.387 L
77.774 304.177 L
78.208 304.11 L
78.642 304.018 L
79.076 303.953 L
79.51 302.442 L
79.944 302.326 L
80.378 302.325 L
80.812 258.154 L
81.246 258.154 L
81.68 257.548 L
82.114 253.586 L
82.548 253.584 L
82.982 253.537 L
83.416 253.542 L
83.85 253.497 L
84.284 253.494 L
84.718 252.812 L
85.152 252.69 L
85.586 252.086 L
86.02 251.948 L
86.454 251.908 L
86.888 250.666 L
87.322 232.554 L
87.756 230.41 L
88.19 230.408 L
88.624 230.329 L
89.058 230.298 L
89.492 230.196 L
89.926 230.066 L
90.36 227.537 L
90.794 227.502 L
91.228 227.019 L
91.662 225.409 L
92.096 214.996 L
92.53 215.094 L
92.964 214.687 L
93.398 214.598 L
93.832 214.578 L
94.266 214.52 L
94.7 214.5 L
95.134 213.033 L
95.568 212.933 L
96.002 211.653 L
96.436 211.502 L
96.87 211.009 L
97.304 209.97 L
97.738 208.885 L
98.172 208.704 L
98.606 208.709 L
99.04 207.891 L
99.474 208.315 L
99.908 201.296 L
100.342 201.201 L
100.776 201.201 L
101.21 201.116 L
101.644 200.004 L
102.078 199.819 L
102.512 198.844 L
102.946 193.705 L
103.38 192.693 L
103.814 188.586 L
104.248 188.54 L
104.682 188.297 L
105.116 187.715 L
105.55 187.704 L
105.984 187.461 L
106.418 186.946 L
106.852 186.882 L
107.286 186.702 L
107.72 181.175 L
108.154 180.769 L
108.588 180.406 L
109.022 180.06 L
109.456 179.61 L
109.89 179.304 L
110.324 176.48 L
110.758 176.085 L
111.192 175.679 L
111.626 175.33 L
112.06 172.98 L
112.494 172.57 L
112.928 172.193 L
113.362 172.177 L
113.796 171.762 L
114.23 171.401 L
114.664 169.447 L
115.098 169.461 L
115.532 169.422 L
115.966 169.052 L
116.4 169.03 L
116.834 168.835 L
117.268 168.79 L
117.702 168.462 L
118.136 168.066 L
118.57 167.722 L
119.004 167.371 L
119.438 167.048 L
119.872 167.013 L
120.306 166.845 L
120.74 166.792 L
121.174 166.645 L
121.608 166.403 L
122.042 166.086 L
122.476 165.781 L
122.91 164.213 L
123.344 163.925 L
123.778 163.867 L
124.212 163.61 L
124.646 163.544 L
125.08 163.315 L
125.514 162.98 L
125.948 161.647 L
126.382 161.636 L
126.816 161.647 L
127.25 161.579 L
127.684 161.447 L
128.118 161.353 L
128.552 161.234 L
128.986 161.04 L
129.42 160.98 L
129.854 161.102 L
130.288 160.877 L
130.722 160.527 L
131.156 160.229 L
131.59 159.918 L
132.024 159.637 L
132.458 159.58 L
132.892 159.467 L
133.326 159.299 L
133.76 158.186 L
134.194 158.039 L
134.628 157.989 L
135.062 157.768 L
135.496 157.448 L
135.93 156.483 L
136.364 156.078 L
136.798 155.753 L
137.232 155.491 L
137.666 155.201 L
138.1 154.953 L
138.534 154.901 L
138.968 154.785 L
139.402 154.674 L
139.836 154.576 L
140.27 153.735 L
140.704 153.518 L
141.138 153.472 L
141.572 153.361 L
142.006 153.274 L
142.44 153.233 L
142.874 153.129 L
143.308 153.044 L
143.742 152.95 L
144.176 152.874 L
144.61 152.652 L
145.044 152.367 L
145.478 151.665 L
145.912 151.587 L
146.346 151.379 L
146.78 151.095 L
147.214 150.479 L
147.648 150.282 L
148.082 150.002 L
148.516 149.78 L
148.95 149.716 L
149.384 149.637 L
149.818 149.565 L
150.252 149.378 L
150.686 149.311 L
151.12 149.237 L
151.554 149.142 L
151.988 149.076 L
152.422 148.991 L
152.856 148.824 L
153.29 148.579 L
153.724 148.373 L
154.158 148.306 L
154.592 148.146 L
155.026 148.078 L
155.46 147.934 L
155.894 147.717 L
156.328 147.525 L
156.762 147.457 L
157.196 147.319 L
157.63 147.252 L
158.064 147.128 L
158.498 147.06 L
158.932 146.951 L
159.366 146.606 L
159.8 146.518 L
160.234 146.151 L
160.668 146.129 L
161.102 146.033 L
161.536 146.008 L
161.97 145.952 L
162.404 145.892 L
162.838 145.596 L
163.272 145.431 L
163.706 145.409 L
164.14 145.323 L
164.574 145.139 L
165.008 144.982 L
165.442 144.958 L
165.876 144.912 L
166.31 144.826 L
166.744 144.785 L
167.178 144.707 L
167.612 144.671 L
168.046 144.601 L
168.48 144.517 L
168.914 144.491 L
169.348 144.458 L
169.782 144.392 L
170.216 144.362 L
170.65 144.325 L
171.084 144.302 L
171.518 144.226 L
171.952 144.064 L
172.386 143.918 L
172.82 143.894 L
173.254 143.865 L
173.688 143.802 L
174.122 143.727 L
174.556 143.702 L
174.99 143.677 L
175.424 143.644 L
175.858 143.576 L
176.292 143.432 L
176.726 143.314 L
177.16 143.241 L
177.594 143.178 L
178.028 143.11 L
178.462 143.088 L
178.896 143.027 L
179.33 143.004 L
179.764 142.98 L
180.198 142.918 L
180.632 142.863 L
181.066 142.84 L
181.5 142.819 L
181.934 142.76 L
182.368 142.741 L
182.802 142.688 L
183.236 142.639 L
183.67 142.512 L
184.104 142.383 L
184.538 142.36 L
184.972 142.343 L
185.406 142.293 L
185.84 142.215 L
186.274 141.974 L
186.708 141.939 L
187.142 141.91 L
187.576 141.894 L
188.01 141.869 L
188.444 141.827 L
188.878 141.714 L
189.312 141.259 L
189.746 141.259 L
190.18 140.985 L
190.614 140.935 L
191.048 140.893 L
191.482 140.89 L
191.916 140.902 L
192.35 140.879 L
192.784 140.762 L
193.218 140.641 L
193.652 140.531 L
194.086 140.528 L
194.52 140.485 L
194.954 140.48 L
195.388 140.441 L
195.822 140.332 L
196.256 139.934 L
196.69 139.831 L
197.124 138.349 L
197.558 138.237 L
197.992 138.226 L
198.426 138.235 L
198.86 138.182 L
199.294 138.19 L
199.728 138.17 L
200.162 138.153 L
200.596 138.053 L
201.03 138.086 L
201.464 137.744 L
201.898 137.756 L
202.332 137.598 L
202.766 137.583 L
203.2 137.496 L
203.634 137.478 L
204.068 137.4 L
204.502 137.411 L
204.936 137.108 L
205.37 137.048 L
205.804 136.979 L
206.238 136.956 L
206.672 136.894 L
207.106 136.87 L
207.54 136.814 L
207.974 137.3 L
208.408 137.246 L
208.842 137.068 L
209.276 137.173 L
209.71 137.061 L
210.144 135.736 L
210.578 135.741 L
211.012 135.68 L
211.446 135.591 L
211.88 135.576 L
212.314 135.543 L
212.748 135.464 L
213.182 135.548 L
213.616 135.4 L
214.05 135.093 L
214.484 135.099 L
214.918 135.021 L
215.352 135.087 L
215.786 135.24 L
216.22 135.184 L
216.654 133.942 L
217.088 133.745 L
217.522 133.738 L
217.956 133.629 L
218.39 133.808 L
218.824 133.64 L
219.258 133.801 L
219.692 133.547 L
220.126 133.679 L
220.56 133.543 L
220.994 133.662 L
221.428 133.434 L
221.862 133.529 L
222.296 133.324 L
222.73 133.313 L
223.164 133.249 L
223.598 133.236 L
224.032 133.24 L
224.466 133.168 L
224.9 133.11 L
225.334 133.096 L
225.768 133.044 L
226.202 133.119 L
226.636 132.936 L
227.07 132.941 L
227.504 132.777 L
227.938 132.782 L
228.372 132.74 L
228.806 132.789 L
229.24 132.686 L
229.674 132.668 L
230.108 132.632 L
230.542 132.614 L
230.976 132.619 L
231.41 132.822 L
231.844 132.802 L
232.278 132.888 L
232.712 132.838 L
233.146 132.767 L
233.58 132.735 L
234.014 132.717 L
234.448 132.688 L
234.882 132.733 L
235.316 132.586 L
235.75 132.362 L
236.184 132.336 L
236.618 132.314 L
237.052 132.361 L
237.486 132.519 L
237.92 132.5 L
238.354 132.48 L
238.788 132.448 L
239.222 132.506 L
239.656 132.406 L
240.09 132.428 L
240.524 132.297 L
240.958 132.274 L
241.392 133.619 L
241.826 133.316 L
242.26 133.398 L
242.694 133.326 L
243.128 133.399 L
243.562 133.141 L
243.996 133.159 L
244.43 133.159 L
244.864 133.14 L
245.298 133.137 L
245.732 133.19 L
246.166 133.132 L
246.6 133.114 L
247.034 133.115 L
247.468 133.162 L
247.902 133.113 L
248.336 133.096 L
248.77 133.099 L
249.204 133.142 L
249.638 133.099 L
250.072 133.085 L
250.506 133.085 L
250.94 133.064 L
251.374 133.063 L
251.808 133.044 L
252.242 133.045 L
252.676 133.042 L
253.11 132.971 L
253.544 132.969 L
253.978 132.904 L
254.412 132.902 L
254.846 132.845 L
255.28 132.843 L
255.714 132.826 L
256.148 132.844 L
256.582 132.831 L
257.016 132.836 L
257.45 132.874 L
257.884 132.838 L
258.318 132.872 L
258.752 132.841 L
259.186 132.83 L
259.62 132.838 L
260.054 132.828 L
260.488 132.826 L
260.922 132.775 L
261.356 132.773 L
261.79 132.726 L
262.224 132.725 L
262.658 132.719 L
263.092 132.678 L
263.526 132.676 L
263.96 132.639 L
264.394 132.638 L
264.828 132.624 L
265.262 132.624 L
265.696 132.622 L
266.13 132.589 L
266.564 132.587 L
266.998 132.574 L
267.432 132.605 L
267.866 132.579 L
268.3 132.607 L
268.734 132.812 L
269.168 132.384 L
269.602 132.342 L
270.036 132.367 L
270.47 132.139 L
270.904 132.115 L
271.338 132.062 L
271.772 132.115 L
272.206 132.526 L
272.64 132.742 L
273.074 132.202 L
273.508 132.281 L
273.942 132.212 L
274.376 132.008 L
274.81 131.998 L
275.244 131.975 L
275.678 132.041 L
276.112 132.024 L
276.546 132.02 L
276.98 132.011 L
277.414 132.021 L
277.848 132.005 L
278.282 132.066 L
278.716 131.994 L
279.15 131.848 L
279.584 131.821 L
280.018 131.871 L
280.452 130.521 L
280.886 130.498 L
281.32 130.562 L
281.754 130.435 L
282.188 130.427 L
282.622 130.418 L
283.056 130.414 L
283.49 130.407 L
283.924 130.39 L
284.358 130.44 L
284.792 130.326 L
285.226 130.254 L
285.66 130.244 L
286.094 130.24 L
286.528 130.212 L
286.962 130.199 L
287.396 130.239 L
287.83 130.175 L
288.264 129.207 L
288.698 129.2 L
289.132 129.097 L
289.566 129.227 L
290 129.141 L
290.434 129.132 L
290.868 129.128 L
291.302 129.103 L
291.736 129.099 L
292.17 129.077 L
292.604 129.074 L
293.038 129.068 L
293.472 129.077 L
293.906 129.092 L
294.34 129.089 L
294.774 129.068 L
295.208 129.018 L
295.642 129.135 L
296.076 129.063 L
296.51 129.169 L
296.944 129.109 L
297.378 129.204 L
297.812 129.105 L
298.246 129.102 L
298.68 129.098 L
299.114 129.106 L
299.548 129.187 L
299.982 129.142 L
300.416 129.215 L
300.85 129.125 L
301.284 129.186 L
301.718 129.106 L
302.152 128.608 L
302.586 128.62 L
303.02 128.61 L
303.454 128.591 L
303.888 128.581 L
304.322 128.564 L
304.756 128.554 L
305.19 128.538 L
305.624 128.529 L
306.058 128.515 L
306.492 128.504 L
306.926 128.112 L
307.36 128.182 L
307.794 128.478 L
308.228 128.528 L
308.662 128.456 L
309.096 128.465 L
309.53 128.427 L
309.964 128.455 L
310.398 128.478 L
310.832 128.413 L
311.266 128.381 L
311.7 128.378 L
312.134 128.374 L
312.568 128.388 L
313.002 128.296 L
313.436 128.318 L
313.87 128.381 L
314.304 128.49 L
314.738 128.474 L
315.172 128.489 L
315.606 128.475 L
316.04 128.489 L
316.474 128.477 L
316.908 128.473 L
317.342 128.456 L
317.776 128.469 L
318.21 128.459 L
318.644 128.455 L
319.078 128.452 L
319.512 128.439 L
319.946 127.505 L
320.38 127.519 L
320.814 127.508 L
321.248 127.48 L
321.682 127.516 L
322.116 127.502 L
322.55 127.499 L
322.984 127.497 L
323.418 127.471 L
323.852 127.589 L
324.286 127.51 L
324.72 127.493 L
325.154 127.489 L
325.588 127.499 L
326.022 127.563 L
326.456 127.497 L
326.89 127.481 L
327.324 127.811 L
327.758 127.666 L
328.192 127.661 L
328.626 127.648 L
329.06 127.731 L
329.494 127.806 L
329.928 127.797 L
330.362 127.842 L
330.796 127.832 L
331.23 127.821 L
331.664 127.803 L
332.098 127.795 L
332.532 127.846 L
332.966 127.797 L
333.4 127.787 L
333.834 127.948 L
334.268 126.933 L
334.702 126.939 L
335.136 126.9 L
335.57 127.038 L
336.004 127.009 L
336.438 127.01 L
336.872 127.002 L
337.306 127.005 L
337.74 127.254 L
338.174 127.232 L
338.608 126.422 L
339.042 126.338 L
339.476 126.521 L
339.91 126.477 L
340.344 126.643 L
340.778 126.596 L
341.212 127.483 L
341.646 127.092 L
342.08 126.961 L
342.514 126.963 L
342.948 126.955 L
343.382 126.948 L
343.816 126.834 L
344.25 126.841 L
344.684 126.838 L
345.118 126.831 L
345.552 126.815 L
345.986 126.758 L
346.42 126.753 L
346.854 126.746 L
347.288 126.749 L
347.722 126.92 L
348.156 126.817 L
348.59 126.726 L
349.024 126.613 L
349.458 125.966 L
349.892 126.155 L
350.326 126.086 L
350.76 126.084 L
351.194 126.073 L
351.628 126.026 L
352.062 126.193 L
352.496 126.199 L
352.93 126.187 L
353.364 126.182 L
353.798 126.184 L
354.232 126.179 L
354.666 126.154 L
355.1 126.156 L
355.534 126.126 L
355.968 126.092 L
356.402 126.079 L
356.836 126.075 L
357.27 126.054 L
357.704 126.023 L
358.138 126.173 L
358.572 126.186 L
359.006 126.173 L
359.44 126.169 L
359.874 126.149 L
360.308 126.145 L
360.742 126.126 L
361.176 126.106 L
361.61 126.094 L
362.044 126.091 L
362.478 126.092 L
362.912 126.09 L
363.346 126.072 L
363.78 126.054 L
364.214 126.189 L
364.648 127.086 L
365.082 126.752 L
365.516 126.802 L
365.95 126.793 L
366.384 126.795 L
366.818 126.777 L
367.252 126.774 L
367.686 126.776 L
368.12 126.823 L
368.554 126.569 L
368.988 126.552 L
369.422 126.544 L
369.856 126.529 L
370.29 126.521 L
370.724 126.689 L
371.158 126.536 L
371.592 126.589 L
372.026 126.733 L
372.46 126.788 L
372.894 126.774 L
373.328 126.772 L
373.762 126.773 L
374.196 126.784 L
374.63 127.045 L
375.064 127.104 L
375.498 127.095 L
375.932 127.092 L
376.366 127.103 L
376.8 127.1 L
377.234 127.102 L
377.668 127.111 L
378.102 127.109 L
378.536 127.11 L
378.97 127.111 L
379.404 127.122 L
379.838 126.983 L
380.272 126.993 L
380.706 127.001 L
381.14 127.005 L
381.574 126.996 L
382.008 126.999 L
382.442 127.122 L
382.876 127.152 L
383.31 127.145 L
383.744 127.154 L
384.178 127.264 L
384.612 127.298 L
385.046 127.397 L
385.48 127.273 L
385.914 127.281 L
386.348 127.3 L
386.782 127.383 L
387.216 127.271 L
387.65 127.284 L
388.084 127.353 L
388.518 127.252 L
388.952 127.25 L
389.386 127.259 L
389.82 127.284 L
390.254 127.341 L
390.688 127.25 L
391.122 127.129 L
391.556 127.124 L
391.99 126.884 L
392.424 126.843 L
392.858 126.828 L
393.292 126.877 L
393.726 126.867 L
394.16 126.91 L
394.594 126.957 L
395.028 127.015 L
395.462 127.057 L
395.896 126.974 L
396.33 127.008 L
396.764 126.933 L
397.198 126.945 L
397.632 126.947 L
398.066 127.194 L
398.5 127.259 L
398.934 127.255 L
399.368 127.295 L
399.802 127.321 L
400.236 127.354 L
400.67 127.352 L
401.104 127.387 L
401.538 127.388 L
401.972 127.393 L
402.406 127.382 L
402.84 127.315 L
403.274 127.343 L
403.708 127.344 L
404.142 127.377 L
404.576 127.379 L
405.01 127.409 L
405.444 127.43 L
405.878 127.458 L
406.312 127.461 L
406.746 127.458 L
407.18 127.47 L
407.614 127.468 L
408.048 127.478 L
408.482 127.476 L
408.916 127.486 L
409.35 127.514 L
409.784 127.533 L
410.218 127.472 L
410.652 127.498 L
411.086 127.502 L
411.52 127.529 L
411.954 127.542 L
412.388 127.566 L
412.822 127.578 L
413.256 127.601 L
413.69 127.606 L
414.124 127.631 L
414.558 127.642 L
414.992 127.587 L
415.426 127.581 L
415.86 127.58 L
416.294 127.582 L
416.728 127.577 L
417.162 127.588 L
417.596 127.587 L
418.03 127.6 L
418.464 127.623 L
418.898 127.63 L
419.332 127.651 L
419.766 127.658 L
420.2 127.677 L
420.634 127.684 L
421.068 127.635 L
421.502 127.22 L
421.936 127.448 L
422.37 127.458 L
422.804 127.472 L
423.238 127.47 L
423.672 127.388 L
424.106 127.405 L
424.54 127.409 L
424.974 127.449 L
425.408 127.453 L
425.842 127.489 L
426.276 127.492 L
426.71 127.448 L
427.144 127.444 L
427.578 127.454 L
428.012 127.466 L
428.446 127.477 L
428.88 127.491 L
429.314 127.485 L
429.748 127.495 L
430.182 127.491 L
430.616 127.499 L
431.05 127.506 L
431.484 127.589 L
431.918 127.592 L
432.352 127.6 L
432.786 127.616 L
433.22 127.624 L
433.654 127.638 L
434.088 127.646 L
434.522 127.659 L
434.956 127.734 L
435.39 127.592 L
435.824 127.578 L
436.258 127.61 L
436.692 127.608 L
437.126 127.603 L
437.56 127.626 L
437.994 127.621 L
438.428 127.642 L
438.862 127.637 L
439.296 127.656 L
439.73 127.671 L
440.164 127.67 L
440.598 127.683 L
441.032 127.686 L
441.466 127.715 L
441.9 127.717 L
442.334 127.678 L
442.768 127.681 L
443.202 127.686 L
443.636 127.688 L
444.07 127.691 L
444.504 127.691 L
444.938 127.656 L
445.372 127.675 L
445.806 127.671 L
446.24 127.673 L
446.674 127.677 L
447.108 127.679 L
447.542 127.68 L
447.976 127.676 L
448.41 127.693 L
448.844 127.705 L
449.278 127.706 L
449.712 127.703 L
450.146 127.705 L
450.58 127.702 L
451.014 127.718 L
451.448 127.716 L
451.882 127.73 L
452.316 127.728 L
452.75 127.729 L
453.184 127.731 L
453.618 127.699 L
454.052 127.71 L
454.486 127.68 L
454.92 127.707 L
455.354 127.701 L
455.788 127.725 L
456.222 127.726 L
456.656 127.736 L
457.09 127.737 L
457.524 127.736 L
457.958 127.737 L
458.392 127.744 L
458.826 127.753 L
459.26 127.754 L
459.694 127.753 L
460.128 127.767 L
460.562 127.775 L
460.996 127.776 L
461.43 127.784 L
461.864 127.786 L
462.298 127.793 L
462.732 127.787 L
463.166 127.787 L
463.6 127.789 L
464.034 127.799 L
464.468 127.809 L
464.902 127.814 L
465.336 127.824 L
465.77 127.927 L
466.204 127.885 L
466.638 127.955 L
467.072 127.951 L
467.506 127.994 L
467.94 128.007 L
468.374 128.006 L
468.808 127.804 L
469.242 127.783 L
469.676 127.758 L
470.11 127.755 L
470.544 127.785 L
470.978 127.798 L
471.412 127.778 L
471.846 127.809 L
472.28 127.809 L
472.714 127.808 L
473.148 127.81 L
473.582 127.791 L
474.016 127.769 L
474.45 127.768 L
474.884 127.769 L
475.318 127.799 L
475.752 127.809 L
476.186 127.81 L
476.62 127.809 L
477.054 127.811 L
477.488 127.819 L
477.922 127.802 L
478.356 127.828 L
478.79 128.099 L
479.224 127.411 L
479.658 127.411 L
480.092 127.412 L
480.526 127.44 L
480.96 127.46 L
481.394 127.398 L
481.828 127.405 L
482.262 127.374 L
482.696 126.999 L
483.13 127.003 L
483.564 127.015 L
483.998 127.019 L
484.432 126.995 L
484.866 126.951 L
485.3 126.988 L
485.734 126.981 L
486.168 127.002 L
486.602 126.992 L
487.036 126.993 L
487.47 126.995 L
487.904 127.011 L
488.338 127.011 L
488.772 127.012 L
489.206 127.013 L
489.64 127.014 L
490.074 127.008 L
490.508 127.044 L
490.942 126.997 L
491.376 127.008 L
491.81 126.997 L
492.244 127.014 L
492.678 126.986 L
493.112 127.017 L
493.546 126.975 L
493.98 126.985 L
494.414 127.01 L
494.848 127.01 L
495.282 127.033 L
495.716 127.034 L
496.15 127.055 L
496.584 127.018 L
497.018 127.026 L
497.452 127.028 L
497.886 127.045 L
498.32 127.012 L
498.754 127.033 L
499.188 127.003 L
499.622 127.02 L
500.056 126.993 L
500.49 127.001 L
500.924 127.014 L
501.358 127.017 L
501.792 127.028 L
502.226 127.004 L
502.66 127.011 L
503.094 126.99 L
503.528 127 L
503.962 127.003 L
504.396 127.001 L
504.83 127.005 L
505.264 126.986 L
505.698 126.992 L
506.132 126.995 L
506.566 126.556 L
507 126.53 L
S
GR
%%Trailer
%%Pages: 1
%%EOF
