%!PS-Adobe-3.0 EPSF-3.0
%%Creator: (MATLAB, The Mathworks, Inc. Version 9.3.0.713579 \(R2017b\). Operating System: Windows 7)
%%Title: fig/RBFN_Q_600_2_100000.eps
%%CreationDate: 2018-05-06T11:06:27
%%Pages: (atend)
%%BoundingBox:    40    13   384   297
%%LanguageLevel: 3
%%EndComments
%%BeginProlog
%%BeginResource: procset (Apache XML Graphics Std ProcSet) 1.2 0
%%Version: 1.2 0
%%Copyright: (Copyright 2001-2003,2010 The Apache Software Foundation. License terms: http://www.apache.org/licenses/LICENSE-2.0)
/bd{bind def}bind def
/ld{load def}bd
/GR/grestore ld
/GS/gsave ld
/RM/rmoveto ld
/C/curveto ld
/t/show ld
/L/lineto ld
/ML/setmiterlimit ld
/CT/concat ld
/f/fill ld
/N/newpath ld
/S/stroke ld
/CC/setcmykcolor ld
/A/ashow ld
/cp/closepath ld
/RC/setrgbcolor ld
/LJ/setlinejoin ld
/GC/setgray ld
/LW/setlinewidth ld
/M/moveto ld
/re {4 2 roll M
1 index 0 rlineto
0 exch rlineto
neg 0 rlineto
cp } bd
/_ctm matrix def
/_tm matrix def
/BT { _ctm currentmatrix pop matrix _tm copy pop 0 0 moveto } bd
/ET { _ctm setmatrix } bd
/iTm { _ctm setmatrix _tm concat } bd
/Tm { _tm astore pop iTm 0 0 moveto } bd
/ux 0.0 def
/uy 0.0 def
/F {
  /Tp exch def
  /Tf exch def
  Tf findfont Tp scalefont setfont
  /cf Tf def  /cs Tp def
} bd
/ULS {currentpoint /uy exch def /ux exch def} bd
/ULE {
  /Tcx currentpoint pop def
  gsave
  newpath
  cf findfont cs scalefont dup
  /FontMatrix get 0 get /Ts exch def /FontInfo get dup
  /UnderlinePosition get Ts mul /To exch def
  /UnderlineThickness get Ts mul /Tt exch def
  ux uy To add moveto  Tcx uy To add lineto
  Tt setlinewidth stroke
  grestore
} bd
/OLE {
  /Tcx currentpoint pop def
  gsave
  newpath
  cf findfont cs scalefont dup
  /FontMatrix get 0 get /Ts exch def /FontInfo get dup
  /UnderlinePosition get Ts mul /To exch def
  /UnderlineThickness get Ts mul /Tt exch def
  ux uy To add cs add moveto Tcx uy To add cs add lineto
  Tt setlinewidth stroke
  grestore
} bd
/SOE {
  /Tcx currentpoint pop def
  gsave
  newpath
  cf findfont cs scalefont dup
  /FontMatrix get 0 get /Ts exch def /FontInfo get dup
  /UnderlinePosition get Ts mul /To exch def
  /UnderlineThickness get Ts mul /Tt exch def
  ux uy To add cs 10 mul 26 idiv add moveto Tcx uy To add cs 10 mul 26 idiv add lineto
  Tt setlinewidth stroke
  grestore
} bd
/QT {
/Y22 exch store
/X22 exch store
/Y21 exch store
/X21 exch store
currentpoint
/Y21 load 2 mul add 3 div exch
/X21 load 2 mul add 3 div exch
/X21 load 2 mul /X22 load add 3 div
/Y21 load 2 mul /Y22 load add 3 div
/X22 load /Y22 load curveto
} bd
/SSPD {
dup length /d exch dict def
{
/v exch def
/k exch def
currentpagedevice k known {
/cpdv currentpagedevice k get def
v cpdv ne {
/upd false def
/nullv v type /nulltype eq def
/nullcpdv cpdv type /nulltype eq def
nullv nullcpdv or
{
/upd true def
} {
/sametype v type cpdv type eq def
sametype {
v type /arraytype eq {
/vlen v length def
/cpdvlen cpdv length def
vlen cpdvlen eq {
0 1 vlen 1 sub {
/i exch def
/obj v i get def
/cpdobj cpdv i get def
obj cpdobj ne {
/upd true def
exit
} if
} for
} {
/upd true def
} ifelse
} {
v type /dicttype eq {
v {
/dv exch def
/dk exch def
/cpddv cpdv dk get def
dv cpddv ne {
/upd true def
exit
} if
} forall
} {
/upd true def
} ifelse
} ifelse
} if
} ifelse
upd true eq {
d k v put
} if
} if
} if
} forall
d length 0 gt {
d setpagedevice
} if
} bd
/RE { % /NewFontName [NewEncodingArray] /FontName RE -
  findfont dup length dict begin
  {
    1 index /FID ne
    {def} {pop pop} ifelse
  } forall
  /Encoding exch def
  /FontName 1 index def
  currentdict definefont pop
  end
} bind def
%%EndResource
%%BeginResource: procset (Apache XML Graphics EPS ProcSet) 1.0 0
%%Version: 1.0 0
%%Copyright: (Copyright 2002-2003 The Apache Software Foundation. License terms: http://www.apache.org/licenses/LICENSE-2.0)
/BeginEPSF { %def
/b4_Inc_state save def         % Save state for cleanup
/dict_count countdictstack def % Count objects on dict stack
/op_count count 1 sub def      % Count objects on operand stack
userdict begin                 % Push userdict on dict stack
/showpage { } def              % Redefine showpage, { } = null proc
0 setgray 0 setlinecap         % Prepare graphics state
1 setlinewidth 0 setlinejoin
10 setmiterlimit [ ] 0 setdash newpath
/languagelevel where           % If level not equal to 1 then
{pop languagelevel             % set strokeadjust and
1 ne                           % overprint to their defaults.
{false setstrokeadjust false setoverprint
} if
} if
} bd
/EndEPSF { %def
count op_count sub {pop} repeat            % Clean up stacks
countdictstack dict_count sub {end} repeat
b4_Inc_state restore
} bd
%%EndResource
%FOPBeginFontDict
%%IncludeResource: font Courier-Oblique
%%IncludeResource: font Courier-BoldOblique
%%IncludeResource: font Courier-Bold
%%IncludeResource: font ZapfDingbats
%%IncludeResource: font Symbol
%%IncludeResource: font Helvetica
%%IncludeResource: font Helvetica-Oblique
%%IncludeResource: font Helvetica-Bold
%%IncludeResource: font Helvetica-BoldOblique
%%IncludeResource: font Times-Roman
%%IncludeResource: font Times-Italic
%%IncludeResource: font Times-Bold
%%IncludeResource: font Times-BoldItalic
%%IncludeResource: font Courier
%FOPEndFontDict
%%BeginResource: encoding WinAnsiEncoding
/WinAnsiEncoding [
/.notdef /.notdef /.notdef /.notdef /.notdef
/.notdef /.notdef /.notdef /.notdef /.notdef
/.notdef /.notdef /.notdef /.notdef /.notdef
/.notdef /.notdef /.notdef /.notdef /.notdef
/.notdef /.notdef /.notdef /.notdef /.notdef
/.notdef /.notdef /.notdef /.notdef /.notdef
/.notdef /.notdef /space /exclam /quotedbl
/numbersign /dollar /percent /ampersand /quotesingle
/parenleft /parenright /asterisk /plus /comma
/hyphen /period /slash /zero /one
/two /three /four /five /six
/seven /eight /nine /colon /semicolon
/less /equal /greater /question /at
/A /B /C /D /E
/F /G /H /I /J
/K /L /M /N /O
/P /Q /R /S /T
/U /V /W /X /Y
/Z /bracketleft /backslash /bracketright /asciicircum
/underscore /quoteleft /a /b /c
/d /e /f /g /h
/i /j /k /l /m
/n /o /p /q /r
/s /t /u /v /w
/x /y /z /braceleft /bar
/braceright /asciitilde /bullet /Euro /bullet
/quotesinglbase /florin /quotedblbase /ellipsis /dagger
/daggerdbl /circumflex /perthousand /Scaron /guilsinglleft
/OE /bullet /Zcaron /bullet /bullet
/quoteleft /quoteright /quotedblleft /quotedblright /bullet
/endash /emdash /asciitilde /trademark /scaron
/guilsinglright /oe /bullet /zcaron /Ydieresis
/space /exclamdown /cent /sterling /currency
/yen /brokenbar /section /dieresis /copyright
/ordfeminine /guillemotleft /logicalnot /sfthyphen /registered
/macron /degree /plusminus /twosuperior /threesuperior
/acute /mu /paragraph /middot /cedilla
/onesuperior /ordmasculine /guillemotright /onequarter /onehalf
/threequarters /questiondown /Agrave /Aacute /Acircumflex
/Atilde /Adieresis /Aring /AE /Ccedilla
/Egrave /Eacute /Ecircumflex /Edieresis /Igrave
/Iacute /Icircumflex /Idieresis /Eth /Ntilde
/Ograve /Oacute /Ocircumflex /Otilde /Odieresis
/multiply /Oslash /Ugrave /Uacute /Ucircumflex
/Udieresis /Yacute /Thorn /germandbls /agrave
/aacute /acircumflex /atilde /adieresis /aring
/ae /ccedilla /egrave /eacute /ecircumflex
/edieresis /igrave /iacute /icircumflex /idieresis
/eth /ntilde /ograve /oacute /ocircumflex
/otilde /odieresis /divide /oslash /ugrave
/uacute /ucircumflex /udieresis /yacute /thorn
/ydieresis
] def
%%EndResource
%FOPBeginFontReencode
/Courier-Oblique findfont
dup length dict begin
  {1 index /FID ne {def} {pop pop} ifelse} forall
  /Encoding WinAnsiEncoding def
  currentdict
end
/Courier-Oblique exch definefont pop
/Courier-BoldOblique findfont
dup length dict begin
  {1 index /FID ne {def} {pop pop} ifelse} forall
  /Encoding WinAnsiEncoding def
  currentdict
end
/Courier-BoldOblique exch definefont pop
/Courier-Bold findfont
dup length dict begin
  {1 index /FID ne {def} {pop pop} ifelse} forall
  /Encoding WinAnsiEncoding def
  currentdict
end
/Courier-Bold exch definefont pop
/Helvetica findfont
dup length dict begin
  {1 index /FID ne {def} {pop pop} ifelse} forall
  /Encoding WinAnsiEncoding def
  currentdict
end
/Helvetica exch definefont pop
/Helvetica-Oblique findfont
dup length dict begin
  {1 index /FID ne {def} {pop pop} ifelse} forall
  /Encoding WinAnsiEncoding def
  currentdict
end
/Helvetica-Oblique exch definefont pop
/Helvetica-Bold findfont
dup length dict begin
  {1 index /FID ne {def} {pop pop} ifelse} forall
  /Encoding WinAnsiEncoding def
  currentdict
end
/Helvetica-Bold exch definefont pop
/Helvetica-BoldOblique findfont
dup length dict begin
  {1 index /FID ne {def} {pop pop} ifelse} forall
  /Encoding WinAnsiEncoding def
  currentdict
end
/Helvetica-BoldOblique exch definefont pop
/Times-Roman findfont
dup length dict begin
  {1 index /FID ne {def} {pop pop} ifelse} forall
  /Encoding WinAnsiEncoding def
  currentdict
end
/Times-Roman exch definefont pop
/Times-Italic findfont
dup length dict begin
  {1 index /FID ne {def} {pop pop} ifelse} forall
  /Encoding WinAnsiEncoding def
  currentdict
end
/Times-Italic exch definefont pop
/Times-Bold findfont
dup length dict begin
  {1 index /FID ne {def} {pop pop} ifelse} forall
  /Encoding WinAnsiEncoding def
  currentdict
end
/Times-Bold exch definefont pop
/Times-BoldItalic findfont
dup length dict begin
  {1 index /FID ne {def} {pop pop} ifelse} forall
  /Encoding WinAnsiEncoding def
  currentdict
end
/Times-BoldItalic exch definefont pop
/Courier findfont
dup length dict begin
  {1 index /FID ne {def} {pop pop} ifelse} forall
  /Encoding WinAnsiEncoding def
  currentdict
end
/Courier exch definefont pop
%FOPEndFontReencode
%%EndProlog
%%Page: 1 1
%%PageBoundingBox: 0 0 420 315
%%BeginPageSetup
[1 0 0 -1 0 315] CT
%%EndPageSetup
GS
[0.75 0 0 0.75 0 0] CT
1 GC
N
0 0 560 420 re
f
GR
GS
[0.75 0 0 0.75 0 0] CT
1 GC
N
0 0 560 420 re
f
GR
GS
[0.75 0 0 0.75 0 0] CT
1 GC
N
73 374 M
507 374 L
507 31 L
73 31 L
cp
f
GR
GS
[0.75 0 0 0.75 0 0] CT
0.149 GC
1 LJ
0.667 LW
N
73 374 M
507 374 L
S
GR
GS
[0.75 0 0 0.75 0 0] CT
0.902 0.945 0.973 RC
N
72.948 353.556 M
72.948 374 L
73 374 L
73.868 374 L
74.736 374 L
75.604 374 L
76.472 374 L
77.34 374 L
76.472 31 L
75.604 31 L
74.736 31 L
73.868 31 L
73 31 L
72.948 31 L
cp
81.68 374 M
82.548 374 L
83.416 374 L
84.284 374 L
85.152 374 L
86.02 374 L
86.888 374 L
87.756 374 L
86.888 31 L
86.02 31 L
85.152 31 L
84.284 31 L
83.416 31 L
82.548 31 L
cp
92.096 374 M
92.964 374 L
93.832 374 L
94.7 374 L
95.568 374 L
96.436 374 L
97.304 374 L
98.172 374 L
97.304 31 L
96.436 31 L
95.568 31 L
94.7 31 L
93.832 31 L
92.964 31 L
cp
103.38 374 M
104.248 374 L
105.116 374 L
105.984 374 L
106.852 374 L
107.72 374 L
108.588 374 L
107.72 31 L
106.852 31 L
105.984 31 L
105.116 31 L
104.248 31 L
cp
112.06 374 M
112.928 374 L
113.796 374 L
114.664 374 L
115.532 374 L
116.4 374 L
117.268 374 L
118.136 374 L
119.004 374 L
119.872 374 L
120.74 374 L
121.608 374 L
122.476 374 L
123.344 374 L
124.212 374 L
125.08 374 L
125.948 374 L
126.816 374 L
127.684 374 L
128.552 374 L
129.42 374 L
130.288 374 L
131.156 374 L
132.024 374 L
132.892 374 L
133.76 374 L
134.628 374 L
135.496 374 L
136.364 374 L
137.232 374 L
138.1 374 L
138.968 374 L
139.836 374 L
140.704 374 L
141.572 374 L
142.44 374 L
143.308 374 L
144.176 374 L
145.044 374 L
145.912 374 L
146.78 374 L
147.648 374 L
148.516 374 L
149.384 374 L
150.252 374 L
151.12 374 L
151.988 374 L
152.856 374 L
153.724 374 L
154.592 374 L
155.46 374 L
156.328 374 L
157.196 374 L
158.064 374 L
158.932 374 L
159.8 374 L
160.668 374 L
161.536 374 L
162.404 374 L
163.272 374 L
164.14 374 L
165.008 374 L
165.876 374 L
166.744 374 L
167.612 374 L
168.48 374 L
169.348 374 L
170.216 374 L
171.084 374 L
171.952 374 L
172.82 374 L
173.688 374 L
174.556 374 L
175.424 374 L
176.292 374 L
177.16 374 L
178.028 374 L
178.896 374 L
179.764 374 L
180.632 374 L
181.5 374 L
182.368 374 L
183.236 374 L
184.104 374 L
184.972 374 L
185.84 374 L
186.708 374 L
187.576 374 L
188.444 374 L
189.312 374 L
190.18 374 L
191.048 374 L
191.916 374 L
192.784 374 L
193.652 374 L
194.52 374 L
195.388 374 L
196.256 374 L
197.124 374 L
197.992 374 L
198.86 374 L
199.728 374 L
200.596 374 L
201.464 374 L
202.332 374 L
201.464 31 L
200.596 31 L
199.728 31 L
198.86 31 L
197.992 31 L
197.124 31 L
196.256 31 L
195.388 31 L
194.52 31 L
193.652 31 L
192.784 31 L
191.916 31 L
191.048 31 L
190.18 31 L
189.312 31 L
188.444 31 L
187.576 31 L
186.708 31 L
185.84 31 L
184.972 31 L
184.104 31 L
183.236 31 L
182.368 31 L
181.5 31 L
180.632 31 L
179.764 31 L
178.896 31 L
178.028 31 L
177.16 31 L
176.292 31 L
175.424 31 L
174.556 31 L
173.688 31 L
172.82 31 L
171.952 31 L
171.084 31 L
170.216 31 L
169.348 31 L
168.48 31 L
167.612 31 L
166.744 31 L
165.876 31 L
165.008 31 L
164.14 31 L
163.272 31 L
162.404 31 L
161.536 31 L
160.668 31 L
159.8 31 L
158.932 31 L
158.064 31 L
157.196 31 L
156.328 31 L
155.46 31 L
154.592 31 L
153.724 31 L
152.856 31 L
151.988 31 L
151.12 31 L
150.252 31 L
149.384 31 L
148.516 31 L
147.648 31 L
146.78 31 L
145.912 31 L
145.044 31 L
144.176 31 L
143.308 31 L
142.44 31 L
141.572 31 L
140.704 31 L
139.836 31 L
138.968 31 L
138.1 31 L
137.232 31 L
136.364 31 L
135.496 31 L
134.628 31 L
133.76 31 L
132.892 31 L
132.024 31 L
131.156 31 L
130.288 31 L
129.42 31 L
128.552 31 L
127.684 31 L
126.816 31 L
125.948 31 L
125.08 31 L
124.212 31 L
123.344 31 L
122.476 31 L
121.608 31 L
120.74 31 L
119.872 31 L
119.004 31 L
118.136 31 L
117.268 31 L
116.4 31 L
115.532 31 L
114.664 31 L
113.796 31 L
112.928 31 L
cp
467.072 374 M
467.94 374 L
468.808 374 L
469.676 374 L
470.544 374 L
471.412 374 L
472.28 374 L
471.412 31 L
470.544 31 L
469.676 31 L
468.808 31 L
467.94 31 L
cp
476.62 374 M
477.488 374 L
478.356 374 L
479.224 374 L
480.092 374 L
480.96 374 L
481.828 374 L
480.96 31 L
480.092 31 L
479.224 31 L
478.356 31 L
477.488 31 L
cp
486.168 374 M
487.036 374 L
487.904 374 L
488.772 374 L
489.64 374 L
490.508 374 L
491.376 374 L
492.244 374 L
491.376 31 L
490.508 31 L
489.64 31 L
488.772 31 L
487.904 31 L
487.036 31 L
cp
497.452 374 M
498.32 374 L
499.188 374 L
500.056 374 L
500.924 374 L
501.792 374 L
502.66 374 L
503.528 374 L
502.66 31 L
501.792 31 L
500.924 31 L
500.056 31 L
499.188 31 L
498.32 31 L
cp
f
GR
GS
[0.75 0 0 0.75 0 0] CT
0.902 0.945 0.973 RC
1 LJ
0.667 LW
N
72.948 374 M
73 374 L
73.868 374 L
74.736 374 L
75.604 374 L
76.472 374 L
77.34 374 L
78.208 374 L
79.076 374 L
79.944 374 L
80.812 374 L
81.68 374 L
82.548 374 L
83.416 374 L
84.284 374 L
85.152 374 L
86.02 374 L
86.888 374 L
87.756 374 L
88.624 374 L
89.492 374 L
90.36 374 L
91.228 374 L
92.096 374 L
92.964 374 L
93.832 374 L
94.7 374 L
95.568 374 L
96.436 374 L
97.304 374 L
98.172 374 L
99.04 374 L
99.908 374 L
100.776 374 L
101.644 374 L
102.512 374 L
103.38 374 L
104.248 374 L
105.116 374 L
105.984 374 L
106.852 374 L
107.72 374 L
108.588 374 L
109.456 374 L
110.324 374 L
111.192 374 L
112.06 374 L
112.928 374 L
113.796 374 L
114.664 374 L
115.532 374 L
116.4 374 L
117.268 374 L
118.136 374 L
119.004 374 L
119.872 374 L
120.74 374 L
121.608 374 L
122.476 374 L
123.344 374 L
124.212 374 L
125.08 374 L
125.948 374 L
126.816 374 L
127.684 374 L
128.552 374 L
129.42 374 L
130.288 374 L
131.156 374 L
132.024 374 L
132.892 374 L
133.76 374 L
134.628 374 L
135.496 374 L
136.364 374 L
137.232 374 L
138.1 374 L
138.968 374 L
139.836 374 L
140.704 374 L
141.572 374 L
142.44 374 L
143.308 374 L
144.176 374 L
145.044 374 L
145.912 374 L
146.78 374 L
147.648 374 L
148.516 374 L
149.384 374 L
150.252 374 L
151.12 374 L
151.988 374 L
152.856 374 L
153.724 374 L
154.592 374 L
155.46 374 L
156.328 374 L
157.196 374 L
158.064 374 L
158.932 374 L
159.8 374 L
160.668 374 L
161.536 374 L
162.404 374 L
163.272 374 L
164.14 374 L
165.008 374 L
165.876 374 L
166.744 374 L
167.612 374 L
168.48 374 L
169.348 374 L
170.216 374 L
171.084 374 L
171.952 374 L
172.82 374 L
173.688 374 L
174.556 374 L
175.424 374 L
176.292 374 L
177.16 374 L
178.028 374 L
178.896 374 L
179.764 374 L
180.632 374 L
181.5 374 L
182.368 374 L
183.236 374 L
184.104 374 L
184.972 374 L
185.84 374 L
186.708 374 L
187.576 374 L
188.444 374 L
189.312 374 L
190.18 374 L
191.048 374 L
191.916 374 L
192.784 374 L
193.652 374 L
194.52 374 L
195.388 374 L
196.256 374 L
197.124 374 L
197.992 374 L
198.86 374 L
199.728 374 L
200.596 374 L
201.464 374 L
202.332 374 L
203.2 374 L
204.068 374 L
204.936 374 L
205.804 374 L
206.672 374 L
207.54 374 L
208.408 374 L
209.276 374 L
210.144 374 L
211.012 374 L
211.88 374 L
212.748 374 L
213.616 374 L
214.484 374 L
215.352 374 L
216.22 374 L
217.088 374 L
217.956 374 L
218.824 374 L
219.692 374 L
220.56 374 L
221.428 374 L
222.296 374 L
223.164 374 L
224.032 374 L
224.9 374 L
225.768 374 L
226.636 374 L
227.504 374 L
228.372 374 L
229.24 374 L
230.108 374 L
230.976 374 L
231.844 374 L
232.712 374 L
233.58 374 L
234.448 374 L
235.316 374 L
236.184 374 L
237.052 374 L
237.92 374 L
238.788 374 L
239.656 374 L
240.524 374 L
241.392 374 L
242.26 374 L
243.128 374 L
243.996 374 L
244.864 374 L
245.732 374 L
246.6 374 L
247.468 374 L
248.336 374 L
249.204 374 L
250.072 374 L
250.94 374 L
251.808 374 L
252.676 374 L
253.544 374 L
254.412 374 L
255.28 374 L
256.148 374 L
257.016 374 L
257.884 374 L
258.752 374 L
259.62 374 L
260.488 374 L
261.356 374 L
262.224 374 L
263.092 374 L
263.96 374 L
264.828 374 L
265.696 374 L
266.564 374 L
267.432 374 L
268.3 374 L
269.168 374 L
270.036 374 L
270.904 374 L
271.772 374 L
272.64 374 L
273.508 374 L
274.376 374 L
275.244 374 L
276.112 374 L
276.98 374 L
277.848 374 L
278.716 374 L
279.584 374 L
280.452 374 L
281.32 374 L
282.188 374 L
283.056 374 L
283.924 374 L
284.792 374 L
285.66 374 L
286.528 374 L
287.396 374 L
288.264 374 L
289.132 374 L
290 374 L
290.868 374 L
291.736 374 L
292.604 374 L
293.472 374 L
294.34 374 L
295.208 374 L
296.076 374 L
296.944 374 L
297.812 374 L
298.68 374 L
299.548 374 L
300.416 374 L
301.284 374 L
302.152 374 L
303.02 374 L
303.888 374 L
304.756 374 L
305.624 374 L
306.492 374 L
307.36 374 L
308.228 374 L
309.096 374 L
309.964 374 L
310.832 374 L
311.7 374 L
312.568 374 L
313.436 374 L
314.304 374 L
315.172 374 L
316.04 374 L
316.908 374 L
317.776 374 L
318.644 374 L
319.512 374 L
320.38 374 L
321.248 374 L
322.116 374 L
322.984 374 L
323.852 374 L
324.72 374 L
325.588 374 L
326.456 374 L
327.324 374 L
328.192 374 L
329.06 374 L
329.928 374 L
330.796 374 L
331.664 374 L
332.532 374 L
333.4 374 L
334.268 374 L
335.136 374 L
336.004 374 L
336.872 374 L
337.74 374 L
338.608 374 L
339.476 374 L
340.344 374 L
341.212 374 L
342.08 374 L
342.948 374 L
343.816 374 L
344.684 374 L
345.552 374 L
346.42 374 L
347.288 374 L
348.156 374 L
349.024 374 L
349.892 374 L
350.76 374 L
351.628 374 L
352.496 374 L
353.364 374 L
354.232 374 L
355.1 374 L
355.968 374 L
356.836 374 L
357.704 374 L
358.572 374 L
359.44 374 L
360.308 374 L
361.176 374 L
362.044 374 L
362.912 374 L
363.78 374 L
364.648 374 L
365.516 374 L
366.384 374 L
367.252 374 L
368.12 374 L
368.988 374 L
369.856 374 L
370.724 374 L
371.592 374 L
372.46 374 L
373.328 374 L
374.196 374 L
375.064 374 L
375.932 374 L
376.8 374 L
377.668 374 L
378.536 374 L
379.404 374 L
380.272 374 L
381.14 374 L
382.008 374 L
382.876 374 L
383.744 374 L
384.612 374 L
385.48 374 L
386.348 374 L
387.216 374 L
388.084 374 L
388.952 374 L
389.82 374 L
390.688 374 L
391.556 374 L
392.424 374 L
393.292 374 L
394.16 374 L
395.028 374 L
395.896 374 L
396.764 374 L
397.632 374 L
398.5 374 L
399.368 374 L
400.236 374 L
401.104 374 L
401.972 374 L
402.84 374 L
403.708 374 L
404.576 374 L
405.444 374 L
406.312 374 L
407.18 374 L
408.048 374 L
408.916 374 L
409.784 374 L
410.652 374 L
411.52 374 L
412.388 374 L
413.256 374 L
414.124 374 L
414.992 374 L
415.86 374 L
416.728 374 L
417.596 374 L
418.464 374 L
419.332 374 L
420.2 374 L
421.068 374 L
421.936 374 L
422.804 374 L
423.672 374 L
424.54 374 L
425.408 374 L
426.276 374 L
427.144 374 L
428.012 374 L
428.88 374 L
429.748 374 L
430.616 374 L
431.484 374 L
432.352 374 L
433.22 374 L
434.088 374 L
434.956 374 L
435.824 374 L
436.692 374 L
437.56 374 L
438.428 374 L
439.296 374 L
440.164 374 L
441.032 374 L
441.9 374 L
442.768 374 L
443.636 374 L
444.504 374 L
445.372 374 L
446.24 374 L
447.108 374 L
447.976 374 L
448.844 374 L
449.712 374 L
450.58 374 L
451.448 374 L
452.316 374 L
453.184 374 L
454.052 374 L
454.92 374 L
455.788 374 L
456.656 374 L
457.524 374 L
458.392 374 L
459.26 374 L
460.128 374 L
460.996 374 L
461.864 374 L
462.732 374 L
463.6 374 L
464.468 374 L
465.336 374 L
466.204 374 L
467.072 374 L
467.94 374 L
468.808 374 L
469.676 374 L
470.544 374 L
471.412 374 L
472.28 374 L
473.148 374 L
474.016 374 L
474.884 374 L
475.752 374 L
476.62 374 L
477.488 374 L
478.356 374 L
479.224 374 L
480.092 374 L
480.96 374 L
481.828 374 L
482.696 374 L
483.564 374 L
484.432 374 L
485.3 374 L
486.168 374 L
487.036 374 L
487.904 374 L
488.772 374 L
489.64 374 L
490.508 374 L
491.376 374 L
492.244 374 L
493.112 374 L
493.98 374 L
494.848 374 L
495.716 374 L
496.584 374 L
497.452 374 L
498.32 374 L
499.188 374 L
500.056 374 L
500.924 374 L
501.792 374 L
502.66 374 L
503.528 374 L
504.396 374 L
505.264 374 L
506.132 374 L
507 374 L
507.052 374 L
S
GR
GS
[0.75 0 0 0.75 0 0] CT
0.902 0.945 0.973 RC
1 LJ
0.667 LW
N
507.052 374 M
507 374 L
506.132 374 L
505.264 374 L
504.396 374 L
503.528 374 L
502.66 31 L
501.792 31 L
500.924 31 L
500.056 31 L
499.188 31 L
498.32 31 L
497.452 374 L
496.584 374 L
495.716 374 L
494.848 374 L
493.98 374 L
493.112 374 L
492.244 374 L
491.376 31 L
490.508 31 L
489.64 31 L
488.772 31 L
487.904 31 L
487.036 31 L
486.168 374 L
485.3 374 L
484.432 374 L
483.564 374 L
482.696 374 L
481.828 374 L
480.96 31 L
480.092 31 L
479.224 31 L
478.356 31 L
477.488 31 L
476.62 374 L
475.752 374 L
474.884 374 L
474.016 374 L
473.148 374 L
472.28 374 L
471.412 31 L
470.544 31 L
469.676 31 L
468.808 31 L
467.94 31 L
467.072 374 L
466.204 374 L
465.336 374 L
464.468 374 L
463.6 374 L
462.732 374 L
461.864 374 L
460.996 374 L
460.128 374 L
459.26 374 L
458.392 374 L
457.524 374 L
456.656 374 L
455.788 374 L
454.92 374 L
454.052 374 L
453.184 374 L
452.316 374 L
451.448 374 L
450.58 374 L
449.712 374 L
448.844 374 L
447.976 374 L
447.108 374 L
446.24 374 L
445.372 374 L
444.504 374 L
443.636 374 L
442.768 374 L
441.9 374 L
441.032 374 L
440.164 374 L
439.296 374 L
438.428 374 L
437.56 374 L
436.692 374 L
435.824 374 L
434.956 374 L
434.088 374 L
433.22 374 L
432.352 374 L
431.484 374 L
430.616 374 L
429.748 374 L
428.88 374 L
428.012 374 L
427.144 374 L
426.276 374 L
425.408 374 L
424.54 374 L
423.672 374 L
422.804 374 L
421.936 374 L
421.068 374 L
420.2 374 L
419.332 374 L
418.464 374 L
417.596 374 L
416.728 374 L
415.86 374 L
414.992 374 L
414.124 374 L
413.256 374 L
412.388 374 L
411.52 374 L
410.652 374 L
409.784 374 L
408.916 374 L
408.048 374 L
407.18 374 L
406.312 374 L
405.444 374 L
404.576 374 L
403.708 374 L
402.84 374 L
401.972 374 L
401.104 374 L
400.236 374 L
399.368 374 L
398.5 374 L
397.632 374 L
396.764 374 L
395.896 374 L
395.028 374 L
394.16 374 L
393.292 374 L
392.424 374 L
391.556 374 L
390.688 374 L
389.82 374 L
388.952 374 L
388.084 374 L
387.216 374 L
386.348 374 L
385.48 374 L
384.612 374 L
383.744 374 L
382.876 374 L
382.008 374 L
381.14 374 L
380.272 374 L
379.404 374 L
378.536 374 L
377.668 374 L
376.8 374 L
375.932 374 L
375.064 374 L
374.196 374 L
373.328 374 L
372.46 374 L
371.592 374 L
370.724 374 L
369.856 374 L
368.988 374 L
368.12 374 L
367.252 374 L
366.384 374 L
365.516 374 L
364.648 374 L
363.78 374 L
362.912 374 L
362.044 374 L
361.176 374 L
360.308 374 L
359.44 374 L
358.572 374 L
357.704 374 L
356.836 374 L
355.968 374 L
355.1 374 L
354.232 374 L
353.364 374 L
352.496 374 L
351.628 374 L
350.76 374 L
349.892 374 L
349.024 374 L
348.156 374 L
347.288 374 L
346.42 374 L
345.552 374 L
344.684 374 L
343.816 374 L
342.948 374 L
342.08 374 L
341.212 374 L
340.344 374 L
339.476 374 L
338.608 374 L
337.74 374 L
336.872 374 L
336.004 374 L
335.136 374 L
334.268 374 L
333.4 374 L
332.532 374 L
331.664 374 L
330.796 374 L
329.928 374 L
329.06 374 L
328.192 374 L
327.324 374 L
326.456 374 L
325.588 374 L
324.72 374 L
323.852 374 L
322.984 374 L
322.116 374 L
321.248 374 L
320.38 374 L
319.512 374 L
318.644 374 L
317.776 374 L
316.908 374 L
316.04 374 L
315.172 374 L
314.304 374 L
313.436 374 L
312.568 374 L
311.7 374 L
310.832 374 L
309.964 374 L
309.096 374 L
308.228 374 L
307.36 374 L
306.492 374 L
305.624 374 L
304.756 374 L
303.888 374 L
303.02 374 L
302.152 374 L
301.284 374 L
300.416 374 L
299.548 374 L
298.68 374 L
297.812 374 L
296.944 374 L
296.076 374 L
295.208 374 L
294.34 374 L
293.472 374 L
292.604 374 L
291.736 374 L
290.868 374 L
290 374 L
289.132 374 L
288.264 374 L
287.396 374 L
286.528 374 L
285.66 374 L
284.792 374 L
283.924 374 L
283.056 374 L
282.188 374 L
281.32 374 L
280.452 374 L
279.584 374 L
278.716 374 L
277.848 374 L
276.98 374 L
276.112 374 L
275.244 374 L
274.376 374 L
273.508 374 L
272.64 374 L
271.772 374 L
270.904 374 L
270.036 374 L
269.168 374 L
268.3 374 L
267.432 374 L
266.564 374 L
265.696 374 L
264.828 374 L
263.96 374 L
263.092 374 L
262.224 374 L
261.356 374 L
260.488 374 L
259.62 374 L
258.752 374 L
257.884 374 L
257.016 374 L
256.148 374 L
255.28 374 L
254.412 374 L
253.544 374 L
252.676 374 L
251.808 374 L
250.94 374 L
250.072 374 L
249.204 374 L
248.336 374 L
247.468 374 L
246.6 374 L
245.732 374 L
244.864 374 L
243.996 374 L
243.128 374 L
242.26 374 L
241.392 374 L
240.524 374 L
239.656 374 L
238.788 374 L
237.92 374 L
237.052 374 L
236.184 374 L
235.316 374 L
234.448 374 L
233.58 374 L
232.712 374 L
231.844 374 L
230.976 374 L
230.108 374 L
229.24 374 L
228.372 374 L
227.504 374 L
226.636 374 L
225.768 374 L
224.9 374 L
224.032 374 L
223.164 374 L
222.296 374 L
221.428 374 L
220.56 374 L
219.692 374 L
218.824 374 L
217.956 374 L
217.088 374 L
216.22 374 L
215.352 374 L
214.484 374 L
213.616 374 L
212.748 374 L
211.88 374 L
211.012 374 L
210.144 374 L
209.276 374 L
208.408 374 L
207.54 374 L
206.672 374 L
205.804 374 L
204.936 374 L
204.068 374 L
203.2 374 L
202.332 374 L
201.464 31 L
200.596 31 L
199.728 31 L
198.86 31 L
197.992 31 L
197.124 31 L
196.256 31 L
195.388 31 L
194.52 31 L
193.652 31 L
192.784 31 L
191.916 31 L
191.048 31 L
190.18 31 L
189.312 31 L
188.444 31 L
187.576 31 L
186.708 31 L
185.84 31 L
184.972 31 L
184.104 31 L
183.236 31 L
182.368 31 L
181.5 31 L
180.632 31 L
179.764 31 L
178.896 31 L
178.028 31 L
177.16 31 L
176.292 31 L
175.424 31 L
174.556 31 L
173.688 31 L
172.82 31 L
171.952 31 L
171.084 31 L
170.216 31 L
169.348 31 L
168.48 31 L
167.612 31 L
166.744 31 L
165.876 31 L
165.008 31 L
164.14 31 L
163.272 31 L
162.404 31 L
161.536 31 L
160.668 31 L
159.8 31 L
158.932 31 L
158.064 31 L
157.196 31 L
156.328 31 L
155.46 31 L
154.592 31 L
153.724 31 L
152.856 31 L
151.988 31 L
151.12 31 L
150.252 31 L
149.384 31 L
148.516 31 L
147.648 31 L
146.78 31 L
145.912 31 L
145.044 31 L
144.176 31 L
143.308 31 L
142.44 31 L
141.572 31 L
140.704 31 L
139.836 31 L
138.968 31 L
138.1 31 L
137.232 31 L
136.364 31 L
135.496 31 L
134.628 31 L
133.76 31 L
132.892 31 L
132.024 31 L
131.156 31 L
130.288 31 L
129.42 31 L
128.552 31 L
127.684 31 L
126.816 31 L
125.948 31 L
125.08 31 L
124.212 31 L
123.344 31 L
122.476 31 L
121.608 31 L
120.74 31 L
119.872 31 L
119.004 31 L
118.136 31 L
117.268 31 L
116.4 31 L
115.532 31 L
114.664 31 L
113.796 31 L
112.928 31 L
112.06 374 L
111.192 374 L
110.324 374 L
109.456 374 L
108.588 374 L
107.72 31 L
106.852 31 L
105.984 31 L
105.116 31 L
104.248 31 L
103.38 374 L
102.512 374 L
101.644 374 L
100.776 374 L
99.908 374 L
99.04 374 L
98.172 374 L
97.304 31 L
96.436 31 L
95.568 31 L
94.7 31 L
93.832 31 L
92.964 31 L
92.096 374 L
91.228 374 L
90.36 374 L
89.492 374 L
88.624 374 L
87.756 374 L
86.888 31 L
86.02 31 L
85.152 31 L
84.284 31 L
83.416 31 L
82.548 31 L
81.68 374 L
80.812 374 L
79.944 374 L
79.076 374 L
78.208 374 L
77.34 374 L
76.472 31 L
75.604 31 L
74.736 31 L
73.868 31 L
73 31 L
72.948 31 L
S
GR
GS
[0.75 0 0 0.75 0 0] CT
0.984 0.933 0.91 RC
N
76.472 374 M
77.34 374 L
78.208 374 L
79.076 374 L
79.944 374 L
80.812 374 L
81.68 374 L
82.548 374 L
81.68 31 L
80.812 31 L
79.944 31 L
79.076 31 L
78.208 31 L
77.34 31 L
cp
86.888 374 M
87.756 374 L
88.624 374 L
89.492 374 L
90.36 374 L
91.228 374 L
92.096 374 L
92.964 374 L
92.096 31 L
91.228 31 L
90.36 31 L
89.492 31 L
88.624 31 L
87.756 31 L
cp
97.304 374 M
98.172 374 L
99.04 374 L
99.908 374 L
100.776 374 L
101.644 374 L
102.512 374 L
103.38 374 L
104.248 374 L
103.38 31 L
102.512 31 L
101.644 31 L
100.776 31 L
99.908 31 L
99.04 31 L
98.172 31 L
cp
107.72 374 M
108.588 374 L
109.456 374 L
110.324 374 L
111.192 374 L
112.06 374 L
112.928 374 L
112.06 31 L
111.192 31 L
110.324 31 L
109.456 31 L
108.588 31 L
cp
201.464 374 M
202.332 374 L
203.2 374 L
204.068 374 L
204.936 374 L
205.804 374 L
206.672 374 L
207.54 374 L
208.408 374 L
209.276 374 L
210.144 374 L
211.012 374 L
211.88 374 L
212.748 374 L
213.616 374 L
214.484 374 L
215.352 374 L
216.22 374 L
217.088 374 L
217.956 374 L
218.824 374 L
219.692 374 L
220.56 374 L
221.428 374 L
222.296 374 L
223.164 374 L
224.032 374 L
224.9 374 L
225.768 374 L
226.636 374 L
227.504 374 L
228.372 374 L
229.24 374 L
230.108 374 L
230.976 374 L
231.844 374 L
232.712 374 L
233.58 374 L
234.448 374 L
235.316 374 L
236.184 374 L
237.052 374 L
237.92 374 L
238.788 374 L
239.656 374 L
240.524 374 L
241.392 374 L
242.26 374 L
243.128 374 L
243.996 374 L
244.864 374 L
245.732 374 L
246.6 374 L
247.468 374 L
248.336 374 L
249.204 374 L
250.072 374 L
250.94 374 L
251.808 374 L
252.676 374 L
253.544 374 L
254.412 374 L
255.28 374 L
256.148 374 L
257.016 374 L
257.884 374 L
258.752 374 L
259.62 374 L
260.488 374 L
261.356 374 L
262.224 374 L
263.092 374 L
263.96 374 L
264.828 374 L
265.696 374 L
266.564 374 L
267.432 374 L
268.3 374 L
269.168 374 L
270.036 374 L
270.904 374 L
271.772 374 L
272.64 374 L
273.508 374 L
274.376 374 L
275.244 374 L
276.112 374 L
276.98 374 L
277.848 374 L
278.716 374 L
279.584 374 L
280.452 374 L
281.32 374 L
282.188 374 L
283.056 374 L
283.924 374 L
284.792 374 L
285.66 374 L
286.528 374 L
287.396 374 L
288.264 374 L
289.132 374 L
290 374 L
290.868 374 L
291.736 374 L
292.604 374 L
293.472 374 L
294.34 374 L
295.208 374 L
296.076 374 L
296.944 374 L
297.812 374 L
298.68 374 L
299.548 374 L
300.416 374 L
301.284 374 L
302.152 374 L
303.02 374 L
303.888 374 L
304.756 374 L
305.624 374 L
306.492 374 L
307.36 374 L
308.228 374 L
309.096 374 L
309.964 374 L
310.832 374 L
311.7 374 L
312.568 374 L
313.436 374 L
314.304 374 L
315.172 374 L
316.04 374 L
316.908 374 L
317.776 374 L
318.644 374 L
319.512 374 L
320.38 374 L
321.248 374 L
322.116 374 L
322.984 374 L
323.852 374 L
324.72 374 L
325.588 374 L
326.456 374 L
327.324 374 L
328.192 374 L
329.06 374 L
329.928 374 L
330.796 374 L
331.664 374 L
332.532 374 L
333.4 374 L
334.268 374 L
335.136 374 L
336.004 374 L
336.872 374 L
337.74 374 L
338.608 374 L
339.476 374 L
340.344 374 L
341.212 374 L
342.08 374 L
342.948 374 L
343.816 374 L
344.684 374 L
345.552 374 L
346.42 374 L
347.288 374 L
348.156 374 L
349.024 374 L
349.892 374 L
350.76 374 L
351.628 374 L
352.496 374 L
353.364 374 L
354.232 374 L
355.1 374 L
355.968 374 L
356.836 374 L
357.704 374 L
358.572 374 L
359.44 374 L
360.308 374 L
361.176 374 L
362.044 374 L
362.912 374 L
363.78 374 L
364.648 374 L
365.516 374 L
366.384 374 L
367.252 374 L
368.12 374 L
368.988 374 L
369.856 374 L
370.724 374 L
371.592 374 L
372.46 374 L
373.328 374 L
374.196 374 L
375.064 374 L
375.932 374 L
376.8 374 L
377.668 374 L
378.536 374 L
379.404 374 L
380.272 374 L
381.14 374 L
382.008 374 L
382.876 374 L
383.744 374 L
384.612 374 L
385.48 374 L
386.348 374 L
387.216 374 L
388.084 374 L
388.952 374 L
389.82 374 L
390.688 374 L
391.556 374 L
392.424 374 L
393.292 374 L
394.16 374 L
395.028 374 L
395.896 374 L
396.764 374 L
397.632 374 L
398.5 374 L
399.368 374 L
400.236 374 L
401.104 374 L
401.972 374 L
402.84 374 L
403.708 374 L
404.576 374 L
405.444 374 L
406.312 374 L
407.18 374 L
408.048 374 L
408.916 374 L
409.784 374 L
410.652 374 L
411.52 374 L
412.388 374 L
413.256 374 L
414.124 374 L
414.992 374 L
415.86 374 L
416.728 374 L
417.596 374 L
418.464 374 L
419.332 374 L
420.2 374 L
421.068 374 L
421.936 374 L
422.804 374 L
423.672 374 L
424.54 374 L
425.408 374 L
426.276 374 L
427.144 374 L
428.012 374 L
428.88 374 L
429.748 374 L
430.616 374 L
431.484 374 L
432.352 374 L
433.22 374 L
434.088 374 L
434.956 374 L
435.824 374 L
436.692 374 L
437.56 374 L
438.428 374 L
439.296 374 L
440.164 374 L
441.032 374 L
441.9 374 L
442.768 374 L
443.636 374 L
444.504 374 L
445.372 374 L
446.24 374 L
447.108 374 L
447.976 374 L
448.844 374 L
449.712 374 L
450.58 374 L
451.448 374 L
452.316 374 L
453.184 374 L
454.052 374 L
454.92 374 L
455.788 374 L
456.656 374 L
457.524 374 L
458.392 374 L
459.26 374 L
460.128 374 L
460.996 374 L
461.864 374 L
462.732 374 L
463.6 374 L
464.468 374 L
465.336 374 L
466.204 374 L
467.072 374 L
467.94 374 L
467.072 31 L
466.204 31 L
465.336 31 L
464.468 31 L
463.6 31 L
462.732 31 L
461.864 31 L
460.996 31 L
460.128 31 L
459.26 31 L
458.392 31 L
457.524 31 L
456.656 31 L
455.788 31 L
454.92 31 L
454.052 31 L
453.184 31 L
452.316 31 L
451.448 31 L
450.58 31 L
449.712 31 L
448.844 31 L
447.976 31 L
447.108 31 L
446.24 31 L
445.372 31 L
444.504 31 L
443.636 31 L
442.768 31 L
441.9 31 L
441.032 31 L
440.164 31 L
439.296 31 L
438.428 31 L
437.56 31 L
436.692 31 L
435.824 31 L
434.956 31 L
434.088 31 L
433.22 31 L
432.352 31 L
431.484 31 L
430.616 31 L
429.748 31 L
428.88 31 L
428.012 31 L
427.144 31 L
426.276 31 L
425.408 31 L
424.54 31 L
423.672 31 L
422.804 31 L
421.936 31 L
421.068 31 L
420.2 31 L
419.332 31 L
418.464 31 L
417.596 31 L
416.728 31 L
415.86 31 L
414.992 31 L
414.124 31 L
413.256 31 L
412.388 31 L
411.52 31 L
410.652 31 L
409.784 31 L
408.916 31 L
408.048 31 L
407.18 31 L
406.312 31 L
405.444 31 L
404.576 31 L
403.708 31 L
402.84 31 L
401.972 31 L
401.104 31 L
400.236 31 L
399.368 31 L
398.5 31 L
397.632 31 L
396.764 31 L
395.896 31 L
395.028 31 L
394.16 31 L
393.292 31 L
392.424 31 L
391.556 31 L
390.688 31 L
389.82 31 L
388.952 31 L
388.084 31 L
387.216 31 L
386.348 31 L
385.48 31 L
384.612 31 L
383.744 31 L
382.876 31 L
382.008 31 L
381.14 31 L
380.272 31 L
379.404 31 L
378.536 31 L
377.668 31 L
376.8 31 L
375.932 31 L
375.064 31 L
374.196 31 L
373.328 31 L
372.46 31 L
371.592 31 L
370.724 31 L
369.856 31 L
368.988 31 L
368.12 31 L
367.252 31 L
366.384 31 L
365.516 31 L
364.648 31 L
363.78 31 L
362.912 31 L
362.044 31 L
361.176 31 L
360.308 31 L
359.44 31 L
358.572 31 L
357.704 31 L
356.836 31 L
355.968 31 L
355.1 31 L
354.232 31 L
353.364 31 L
352.496 31 L
351.628 31 L
350.76 31 L
349.892 31 L
349.024 31 L
348.156 31 L
347.288 31 L
346.42 31 L
345.552 31 L
344.684 31 L
343.816 31 L
342.948 31 L
342.08 31 L
341.212 31 L
340.344 31 L
339.476 31 L
338.608 31 L
337.74 31 L
336.872 31 L
336.004 31 L
335.136 31 L
334.268 31 L
333.4 31 L
332.532 31 L
331.664 31 L
330.796 31 L
329.928 31 L
329.06 31 L
328.192 31 L
327.324 31 L
326.456 31 L
325.588 31 L
324.72 31 L
323.852 31 L
322.984 31 L
322.116 31 L
321.248 31 L
320.38 31 L
319.512 31 L
318.644 31 L
317.776 31 L
316.908 31 L
316.04 31 L
315.172 31 L
314.304 31 L
313.436 31 L
312.568 31 L
311.7 31 L
310.832 31 L
309.964 31 L
309.096 31 L
308.228 31 L
307.36 31 L
306.492 31 L
305.624 31 L
304.756 31 L
303.888 31 L
303.02 31 L
302.152 31 L
301.284 31 L
300.416 31 L
299.548 31 L
298.68 31 L
297.812 31 L
296.944 31 L
296.076 31 L
295.208 31 L
294.34 31 L
293.472 31 L
292.604 31 L
291.736 31 L
290.868 31 L
290 31 L
289.132 31 L
288.264 31 L
287.396 31 L
286.528 31 L
285.66 31 L
284.792 31 L
283.924 31 L
283.056 31 L
282.188 31 L
281.32 31 L
280.452 31 L
279.584 31 L
278.716 31 L
277.848 31 L
276.98 31 L
276.112 31 L
275.244 31 L
274.376 31 L
273.508 31 L
272.64 31 L
271.772 31 L
270.904 31 L
270.036 31 L
269.168 31 L
268.3 31 L
267.432 31 L
266.564 31 L
265.696 31 L
264.828 31 L
263.96 31 L
263.092 31 L
262.224 31 L
261.356 31 L
260.488 31 L
259.62 31 L
258.752 31 L
257.884 31 L
257.016 31 L
256.148 31 L
255.28 31 L
254.412 31 L
253.544 31 L
252.676 31 L
251.808 31 L
250.94 31 L
250.072 31 L
249.204 31 L
248.336 31 L
247.468 31 L
246.6 31 L
245.732 31 L
244.864 31 L
243.996 31 L
243.128 31 L
242.26 31 L
241.392 31 L
240.524 31 L
239.656 31 L
238.788 31 L
237.92 31 L
237.052 31 L
236.184 31 L
235.316 31 L
234.448 31 L
233.58 31 L
232.712 31 L
231.844 31 L
230.976 31 L
230.108 31 L
229.24 31 L
228.372 31 L
227.504 31 L
226.636 31 L
225.768 31 L
224.9 31 L
224.032 31 L
223.164 31 L
222.296 31 L
221.428 31 L
220.56 31 L
219.692 31 L
218.824 31 L
217.956 31 L
217.088 31 L
216.22 31 L
215.352 31 L
214.484 31 L
213.616 31 L
212.748 31 L
211.88 31 L
211.012 31 L
210.144 31 L
209.276 31 L
208.408 31 L
207.54 31 L
206.672 31 L
205.804 31 L
204.936 31 L
204.068 31 L
203.2 31 L
202.332 31 L
cp
471.412 374 M
472.28 374 L
473.148 374 L
474.016 374 L
474.884 374 L
475.752 374 L
476.62 374 L
477.488 374 L
476.62 31 L
475.752 31 L
474.884 31 L
474.016 31 L
473.148 31 L
472.28 31 L
cp
480.96 374 M
481.828 374 L
482.696 374 L
483.564 374 L
484.432 374 L
485.3 374 L
486.168 374 L
487.036 374 L
486.168 31 L
485.3 31 L
484.432 31 L
483.564 31 L
482.696 31 L
481.828 31 L
cp
491.376 374 M
492.244 374 L
493.112 374 L
493.98 374 L
494.848 374 L
495.716 374 L
496.584 374 L
497.452 374 L
498.32 374 L
497.452 31 L
496.584 31 L
495.716 31 L
494.848 31 L
493.98 31 L
493.112 31 L
492.244 31 L
cp
502.66 374 M
503.528 374 L
504.396 374 L
505.264 374 L
506.132 374 L
507 374 L
507.052 374 L
507.052 51.446 L
507.052 31 L
507 31 L
506.132 31 L
505.264 31 L
504.396 31 L
503.528 31 L
cp
f
GR
GS
[0.75 0 0 0.75 0 0] CT
0.984 0.933 0.91 RC
1 LJ
0.667 LW
N
72.948 374 M
73 374 L
73.868 374 L
74.736 374 L
75.604 374 L
76.472 374 L
77.34 374 L
78.208 374 L
79.076 374 L
79.944 374 L
80.812 374 L
81.68 374 L
82.548 374 L
83.416 374 L
84.284 374 L
85.152 374 L
86.02 374 L
86.888 374 L
87.756 374 L
88.624 374 L
89.492 374 L
90.36 374 L
91.228 374 L
92.096 374 L
92.964 374 L
93.832 374 L
94.7 374 L
95.568 374 L
96.436 374 L
97.304 374 L
98.172 374 L
99.04 374 L
99.908 374 L
100.776 374 L
101.644 374 L
102.512 374 L
103.38 374 L
104.248 374 L
105.116 374 L
105.984 374 L
106.852 374 L
107.72 374 L
108.588 374 L
109.456 374 L
110.324 374 L
111.192 374 L
112.06 374 L
112.928 374 L
113.796 374 L
114.664 374 L
115.532 374 L
116.4 374 L
117.268 374 L
118.136 374 L
119.004 374 L
119.872 374 L
120.74 374 L
121.608 374 L
122.476 374 L
123.344 374 L
124.212 374 L
125.08 374 L
125.948 374 L
126.816 374 L
127.684 374 L
128.552 374 L
129.42 374 L
130.288 374 L
131.156 374 L
132.024 374 L
132.892 374 L
133.76 374 L
134.628 374 L
135.496 374 L
136.364 374 L
137.232 374 L
138.1 374 L
138.968 374 L
139.836 374 L
140.704 374 L
141.572 374 L
142.44 374 L
143.308 374 L
144.176 374 L
145.044 374 L
145.912 374 L
146.78 374 L
147.648 374 L
148.516 374 L
149.384 374 L
150.252 374 L
151.12 374 L
151.988 374 L
152.856 374 L
153.724 374 L
154.592 374 L
155.46 374 L
156.328 374 L
157.196 374 L
158.064 374 L
158.932 374 L
159.8 374 L
160.668 374 L
161.536 374 L
162.404 374 L
163.272 374 L
164.14 374 L
165.008 374 L
165.876 374 L
166.744 374 L
167.612 374 L
168.48 374 L
169.348 374 L
170.216 374 L
171.084 374 L
171.952 374 L
172.82 374 L
173.688 374 L
174.556 374 L
175.424 374 L
176.292 374 L
177.16 374 L
178.028 374 L
178.896 374 L
179.764 374 L
180.632 374 L
181.5 374 L
182.368 374 L
183.236 374 L
184.104 374 L
184.972 374 L
185.84 374 L
186.708 374 L
187.576 374 L
188.444 374 L
189.312 374 L
190.18 374 L
191.048 374 L
191.916 374 L
192.784 374 L
193.652 374 L
194.52 374 L
195.388 374 L
196.256 374 L
197.124 374 L
197.992 374 L
198.86 374 L
199.728 374 L
200.596 374 L
201.464 374 L
202.332 374 L
203.2 374 L
204.068 374 L
204.936 374 L
205.804 374 L
206.672 374 L
207.54 374 L
208.408 374 L
209.276 374 L
210.144 374 L
211.012 374 L
211.88 374 L
212.748 374 L
213.616 374 L
214.484 374 L
215.352 374 L
216.22 374 L
217.088 374 L
217.956 374 L
218.824 374 L
219.692 374 L
220.56 374 L
221.428 374 L
222.296 374 L
223.164 374 L
224.032 374 L
224.9 374 L
225.768 374 L
226.636 374 L
227.504 374 L
228.372 374 L
229.24 374 L
230.108 374 L
230.976 374 L
231.844 374 L
232.712 374 L
233.58 374 L
234.448 374 L
235.316 374 L
236.184 374 L
237.052 374 L
237.92 374 L
238.788 374 L
239.656 374 L
240.524 374 L
241.392 374 L
242.26 374 L
243.128 374 L
243.996 374 L
244.864 374 L
245.732 374 L
246.6 374 L
247.468 374 L
248.336 374 L
249.204 374 L
250.072 374 L
250.94 374 L
251.808 374 L
252.676 374 L
253.544 374 L
254.412 374 L
255.28 374 L
256.148 374 L
257.016 374 L
257.884 374 L
258.752 374 L
259.62 374 L
260.488 374 L
261.356 374 L
262.224 374 L
263.092 374 L
263.96 374 L
264.828 374 L
265.696 374 L
266.564 374 L
267.432 374 L
268.3 374 L
269.168 374 L
270.036 374 L
270.904 374 L
271.772 374 L
272.64 374 L
273.508 374 L
274.376 374 L
275.244 374 L
276.112 374 L
276.98 374 L
277.848 374 L
278.716 374 L
279.584 374 L
280.452 374 L
281.32 374 L
282.188 374 L
283.056 374 L
283.924 374 L
284.792 374 L
285.66 374 L
286.528 374 L
287.396 374 L
288.264 374 L
289.132 374 L
290 374 L
290.868 374 L
291.736 374 L
292.604 374 L
293.472 374 L
294.34 374 L
295.208 374 L
296.076 374 L
296.944 374 L
297.812 374 L
298.68 374 L
299.548 374 L
300.416 374 L
301.284 374 L
302.152 374 L
303.02 374 L
303.888 374 L
304.756 374 L
305.624 374 L
306.492 374 L
307.36 374 L
308.228 374 L
309.096 374 L
309.964 374 L
310.832 374 L
311.7 374 L
312.568 374 L
313.436 374 L
314.304 374 L
315.172 374 L
316.04 374 L
316.908 374 L
317.776 374 L
318.644 374 L
319.512 374 L
320.38 374 L
321.248 374 L
322.116 374 L
322.984 374 L
323.852 374 L
324.72 374 L
325.588 374 L
326.456 374 L
327.324 374 L
328.192 374 L
329.06 374 L
329.928 374 L
330.796 374 L
331.664 374 L
332.532 374 L
333.4 374 L
334.268 374 L
335.136 374 L
336.004 374 L
336.872 374 L
337.74 374 L
338.608 374 L
339.476 374 L
340.344 374 L
341.212 374 L
342.08 374 L
342.948 374 L
343.816 374 L
344.684 374 L
345.552 374 L
346.42 374 L
347.288 374 L
348.156 374 L
349.024 374 L
349.892 374 L
350.76 374 L
351.628 374 L
352.496 374 L
353.364 374 L
354.232 374 L
355.1 374 L
355.968 374 L
356.836 374 L
357.704 374 L
358.572 374 L
359.44 374 L
360.308 374 L
361.176 374 L
362.044 374 L
362.912 374 L
363.78 374 L
364.648 374 L
365.516 374 L
366.384 374 L
367.252 374 L
368.12 374 L
368.988 374 L
369.856 374 L
370.724 374 L
371.592 374 L
372.46 374 L
373.328 374 L
374.196 374 L
375.064 374 L
375.932 374 L
376.8 374 L
377.668 374 L
378.536 374 L
379.404 374 L
380.272 374 L
381.14 374 L
382.008 374 L
382.876 374 L
383.744 374 L
384.612 374 L
385.48 374 L
386.348 374 L
387.216 374 L
388.084 374 L
388.952 374 L
389.82 374 L
390.688 374 L
391.556 374 L
392.424 374 L
393.292 374 L
394.16 374 L
395.028 374 L
395.896 374 L
396.764 374 L
397.632 374 L
398.5 374 L
399.368 374 L
400.236 374 L
401.104 374 L
401.972 374 L
402.84 374 L
403.708 374 L
404.576 374 L
405.444 374 L
406.312 374 L
407.18 374 L
408.048 374 L
408.916 374 L
409.784 374 L
410.652 374 L
411.52 374 L
412.388 374 L
413.256 374 L
414.124 374 L
414.992 374 L
415.86 374 L
416.728 374 L
417.596 374 L
418.464 374 L
419.332 374 L
420.2 374 L
421.068 374 L
421.936 374 L
422.804 374 L
423.672 374 L
424.54 374 L
425.408 374 L
426.276 374 L
427.144 374 L
428.012 374 L
428.88 374 L
429.748 374 L
430.616 374 L
431.484 374 L
432.352 374 L
433.22 374 L
434.088 374 L
434.956 374 L
435.824 374 L
436.692 374 L
437.56 374 L
438.428 374 L
439.296 374 L
440.164 374 L
441.032 374 L
441.9 374 L
442.768 374 L
443.636 374 L
444.504 374 L
445.372 374 L
446.24 374 L
447.108 374 L
447.976 374 L
448.844 374 L
449.712 374 L
450.58 374 L
451.448 374 L
452.316 374 L
453.184 374 L
454.052 374 L
454.92 374 L
455.788 374 L
456.656 374 L
457.524 374 L
458.392 374 L
459.26 374 L
460.128 374 L
460.996 374 L
461.864 374 L
462.732 374 L
463.6 374 L
464.468 374 L
465.336 374 L
466.204 374 L
467.072 374 L
467.94 374 L
468.808 374 L
469.676 374 L
470.544 374 L
471.412 374 L
472.28 374 L
473.148 374 L
474.016 374 L
474.884 374 L
475.752 374 L
476.62 374 L
477.488 374 L
478.356 374 L
479.224 374 L
480.092 374 L
480.96 374 L
481.828 374 L
482.696 374 L
483.564 374 L
484.432 374 L
485.3 374 L
486.168 374 L
487.036 374 L
487.904 374 L
488.772 374 L
489.64 374 L
490.508 374 L
491.376 374 L
492.244 374 L
493.112 374 L
493.98 374 L
494.848 374 L
495.716 374 L
496.584 374 L
497.452 374 L
498.32 374 L
499.188 374 L
500.056 374 L
500.924 374 L
501.792 374 L
502.66 374 L
503.528 374 L
504.396 374 L
505.264 374 L
506.132 374 L
507 374 L
507.052 374 L
S
GR
GS
[0.75 0 0 0.75 0 0] CT
0.984 0.933 0.91 RC
1 LJ
0.667 LW
N
507.052 31 M
507 31 L
506.132 31 L
505.264 31 L
504.396 31 L
503.528 31 L
502.66 374 L
501.792 374 L
500.924 374 L
500.056 374 L
499.188 374 L
498.32 374 L
497.452 31 L
496.584 31 L
495.716 31 L
494.848 31 L
493.98 31 L
493.112 31 L
492.244 31 L
491.376 374 L
490.508 374 L
489.64 374 L
488.772 374 L
487.904 374 L
487.036 374 L
486.168 31 L
485.3 31 L
484.432 31 L
483.564 31 L
482.696 31 L
481.828 31 L
480.96 374 L
480.092 374 L
479.224 374 L
478.356 374 L
477.488 374 L
476.62 31 L
475.752 31 L
474.884 31 L
474.016 31 L
473.148 31 L
472.28 31 L
471.412 374 L
470.544 374 L
469.676 374 L
468.808 374 L
467.94 374 L
467.072 31 L
466.204 31 L
465.336 31 L
464.468 31 L
463.6 31 L
462.732 31 L
461.864 31 L
460.996 31 L
460.128 31 L
459.26 31 L
458.392 31 L
457.524 31 L
456.656 31 L
455.788 31 L
454.92 31 L
454.052 31 L
453.184 31 L
452.316 31 L
451.448 31 L
450.58 31 L
449.712 31 L
448.844 31 L
447.976 31 L
447.108 31 L
446.24 31 L
445.372 31 L
444.504 31 L
443.636 31 L
442.768 31 L
441.9 31 L
441.032 31 L
440.164 31 L
439.296 31 L
438.428 31 L
437.56 31 L
436.692 31 L
435.824 31 L
434.956 31 L
434.088 31 L
433.22 31 L
432.352 31 L
431.484 31 L
430.616 31 L
429.748 31 L
428.88 31 L
428.012 31 L
427.144 31 L
426.276 31 L
425.408 31 L
424.54 31 L
423.672 31 L
422.804 31 L
421.936 31 L
421.068 31 L
420.2 31 L
419.332 31 L
418.464 31 L
417.596 31 L
416.728 31 L
415.86 31 L
414.992 31 L
414.124 31 L
413.256 31 L
412.388 31 L
411.52 31 L
410.652 31 L
409.784 31 L
408.916 31 L
408.048 31 L
407.18 31 L
406.312 31 L
405.444 31 L
404.576 31 L
403.708 31 L
402.84 31 L
401.972 31 L
401.104 31 L
400.236 31 L
399.368 31 L
398.5 31 L
397.632 31 L
396.764 31 L
395.896 31 L
395.028 31 L
394.16 31 L
393.292 31 L
392.424 31 L
391.556 31 L
390.688 31 L
389.82 31 L
388.952 31 L
388.084 31 L
387.216 31 L
386.348 31 L
385.48 31 L
384.612 31 L
383.744 31 L
382.876 31 L
382.008 31 L
381.14 31 L
380.272 31 L
379.404 31 L
378.536 31 L
377.668 31 L
376.8 31 L
375.932 31 L
375.064 31 L
374.196 31 L
373.328 31 L
372.46 31 L
371.592 31 L
370.724 31 L
369.856 31 L
368.988 31 L
368.12 31 L
367.252 31 L
366.384 31 L
365.516 31 L
364.648 31 L
363.78 31 L
362.912 31 L
362.044 31 L
361.176 31 L
360.308 31 L
359.44 31 L
358.572 31 L
357.704 31 L
356.836 31 L
355.968 31 L
355.1 31 L
354.232 31 L
353.364 31 L
352.496 31 L
351.628 31 L
350.76 31 L
349.892 31 L
349.024 31 L
348.156 31 L
347.288 31 L
346.42 31 L
345.552 31 L
344.684 31 L
343.816 31 L
342.948 31 L
342.08 31 L
341.212 31 L
340.344 31 L
339.476 31 L
338.608 31 L
337.74 31 L
336.872 31 L
336.004 31 L
335.136 31 L
334.268 31 L
333.4 31 L
332.532 31 L
331.664 31 L
330.796 31 L
329.928 31 L
329.06 31 L
328.192 31 L
327.324 31 L
326.456 31 L
325.588 31 L
324.72 31 L
323.852 31 L
322.984 31 L
322.116 31 L
321.248 31 L
320.38 31 L
319.512 31 L
318.644 31 L
317.776 31 L
316.908 31 L
316.04 31 L
315.172 31 L
314.304 31 L
313.436 31 L
312.568 31 L
311.7 31 L
310.832 31 L
309.964 31 L
309.096 31 L
308.228 31 L
307.36 31 L
306.492 31 L
305.624 31 L
304.756 31 L
303.888 31 L
303.02 31 L
302.152 31 L
301.284 31 L
300.416 31 L
299.548 31 L
298.68 31 L
297.812 31 L
296.944 31 L
296.076 31 L
295.208 31 L
294.34 31 L
293.472 31 L
292.604 31 L
291.736 31 L
290.868 31 L
290 31 L
289.132 31 L
288.264 31 L
287.396 31 L
286.528 31 L
285.66 31 L
284.792 31 L
283.924 31 L
283.056 31 L
282.188 31 L
281.32 31 L
280.452 31 L
279.584 31 L
278.716 31 L
277.848 31 L
276.98 31 L
276.112 31 L
275.244 31 L
274.376 31 L
273.508 31 L
272.64 31 L
271.772 31 L
270.904 31 L
270.036 31 L
269.168 31 L
268.3 31 L
267.432 31 L
266.564 31 L
265.696 31 L
264.828 31 L
263.96 31 L
263.092 31 L
262.224 31 L
261.356 31 L
260.488 31 L
259.62 31 L
258.752 31 L
257.884 31 L
257.016 31 L
256.148 31 L
255.28 31 L
254.412 31 L
253.544 31 L
252.676 31 L
251.808 31 L
250.94 31 L
250.072 31 L
249.204 31 L
248.336 31 L
247.468 31 L
246.6 31 L
245.732 31 L
244.864 31 L
243.996 31 L
243.128 31 L
242.26 31 L
241.392 31 L
240.524 31 L
239.656 31 L
238.788 31 L
237.92 31 L
237.052 31 L
236.184 31 L
235.316 31 L
234.448 31 L
233.58 31 L
232.712 31 L
231.844 31 L
230.976 31 L
230.108 31 L
229.24 31 L
228.372 31 L
227.504 31 L
226.636 31 L
225.768 31 L
224.9 31 L
224.032 31 L
223.164 31 L
222.296 31 L
221.428 31 L
220.56 31 L
219.692 31 L
218.824 31 L
217.956 31 L
217.088 31 L
216.22 31 L
215.352 31 L
214.484 31 L
213.616 31 L
212.748 31 L
211.88 31 L
211.012 31 L
210.144 31 L
209.276 31 L
208.408 31 L
207.54 31 L
206.672 31 L
205.804 31 L
204.936 31 L
204.068 31 L
203.2 31 L
202.332 31 L
201.464 374 L
200.596 374 L
199.728 374 L
198.86 374 L
197.992 374 L
197.124 374 L
196.256 374 L
195.388 374 L
194.52 374 L
193.652 374 L
192.784 374 L
191.916 374 L
191.048 374 L
190.18 374 L
189.312 374 L
188.444 374 L
187.576 374 L
186.708 374 L
185.84 374 L
184.972 374 L
184.104 374 L
183.236 374 L
182.368 374 L
181.5 374 L
180.632 374 L
179.764 374 L
178.896 374 L
178.028 374 L
177.16 374 L
176.292 374 L
175.424 374 L
174.556 374 L
173.688 374 L
172.82 374 L
171.952 374 L
171.084 374 L
170.216 374 L
169.348 374 L
168.48 374 L
167.612 374 L
166.744 374 L
165.876 374 L
165.008 374 L
164.14 374 L
163.272 374 L
162.404 374 L
161.536 374 L
160.668 374 L
159.8 374 L
158.932 374 L
158.064 374 L
157.196 374 L
156.328 374 L
155.46 374 L
154.592 374 L
153.724 374 L
152.856 374 L
151.988 374 L
151.12 374 L
150.252 374 L
149.384 374 L
148.516 374 L
147.648 374 L
146.78 374 L
145.912 374 L
145.044 374 L
144.176 374 L
143.308 374 L
142.44 374 L
141.572 374 L
140.704 374 L
139.836 374 L
138.968 374 L
138.1 374 L
137.232 374 L
136.364 374 L
135.496 374 L
134.628 374 L
133.76 374 L
132.892 374 L
132.024 374 L
131.156 374 L
130.288 374 L
129.42 374 L
128.552 374 L
127.684 374 L
126.816 374 L
125.948 374 L
125.08 374 L
124.212 374 L
123.344 374 L
122.476 374 L
121.608 374 L
120.74 374 L
119.872 374 L
119.004 374 L
118.136 374 L
117.268 374 L
116.4 374 L
115.532 374 L
114.664 374 L
113.796 374 L
112.928 374 L
112.06 31 L
111.192 31 L
110.324 31 L
109.456 31 L
108.588 31 L
107.72 374 L
106.852 374 L
105.984 374 L
105.116 374 L
104.248 374 L
103.38 31 L
102.512 31 L
101.644 31 L
100.776 31 L
99.908 31 L
99.04 31 L
98.172 31 L
97.304 374 L
96.436 374 L
95.568 374 L
94.7 374 L
93.832 374 L
92.964 374 L
92.096 31 L
91.228 31 L
90.36 31 L
89.492 31 L
88.624 31 L
87.756 31 L
86.888 374 L
86.02 374 L
85.152 374 L
84.284 374 L
83.416 374 L
82.548 374 L
81.68 31 L
80.812 31 L
79.944 31 L
79.076 31 L
78.208 31 L
77.34 31 L
76.472 374 L
75.604 374 L
74.736 374 L
73.868 374 L
73 374 L
72.948 374 L
S
GR
GS
[0.75 0 0 0.75 0 0] CT
0 0.447 0.741 RC
1 LJ
2.667 LW
N
72.948 374 M
73 374 L
73.868 374 L
74.736 374 L
75.604 374 L
76.472 374 L
77.34 374 L
78.208 374 L
79.076 374 L
79.944 374 L
80.812 374 L
81.68 374 L
82.548 374 L
83.416 374 L
84.284 374 L
85.152 374 L
86.02 374 L
86.888 374 L
87.756 374 L
88.624 374 L
89.492 374 L
90.36 374 L
91.228 374 L
92.096 374 L
92.964 374 L
93.832 374 L
94.7 374 L
95.568 374 L
96.436 374 L
97.304 374 L
98.172 374 L
99.04 374 L
99.908 374 L
100.776 374 L
101.644 374 L
102.512 374 L
103.38 374 L
104.248 373.999 L
105.116 373.998 L
105.984 373.995 L
106.852 373.993 L
107.72 373.996 L
108.588 374.018 L
108.919 374.041 L
S
GR
GS
[0.75 0 0 0.75 0 0] CT
0 0.447 0.741 RC
1 LJ
2.667 LW
N
111.426 374.041 M
112.06 373.695 L
112.928 371.936 L
113.796 367.758 L
114.664 360.271 L
115.532 349.708 L
116.4 337.876 L
117.268 327.49 L
118.136 320.673 L
119.004 317.829 L
119.872 317.764 L
120.74 318.73 L
121.608 319.439 L
122.476 319.443 L
123.344 318.952 L
124.212 318.394 L
125.08 318.051 L
125.948 317.959 L
126.816 318.029 L
127.684 318.185 L
128.552 318.353 L
129.42 318.421 L
130.288 318.267 L
131.156 317.874 L
132.024 317.403 L
132.892 317.133 L
133.76 317.268 L
134.628 317.76 L
135.496 318.314 L
136.364 318.604 L
137.232 318.491 L
138.1 318.093 L
138.968 317.683 L
139.836 317.527 L
140.704 317.726 L
141.572 318.159 L
142.44 318.555 L
143.308 318.674 L
144.176 318.454 L
145.044 318.02 L
145.912 317.569 L
146.78 317.243 L
147.648 317.101 L
148.516 317.152 L
149.384 317.39 L
150.252 317.774 L
151.12 318.197 L
151.988 318.502 L
152.856 318.561 L
153.724 318.363 L
154.592 318.008 L
155.46 317.615 L
156.328 317.284 L
157.196 317.142 L
158.064 317.323 L
158.932 317.824 L
159.8 318.397 L
160.668 318.666 L
161.536 318.433 L
162.404 317.876 L
163.272 317.418 L
164.14 317.344 L
165.008 317.572 L
165.876 317.81 L
166.744 317.882 L
167.612 317.863 L
168.48 317.921 L
169.348 318.107 L
170.216 318.292 L
171.084 318.286 L
171.952 318.02 L
172.82 317.63 L
173.688 317.369 L
174.556 317.411 L
175.424 317.728 L
176.292 318.129 L
177.16 318.407 L
178.028 318.436 L
178.896 318.194 L
179.764 317.761 L
180.632 317.339 L
181.5 317.207 L
182.368 317.551 L
183.236 318.272 L
184.104 318.979 L
184.972 319.242 L
185.84 318.927 L
186.708 318.293 L
187.576 317.781 L
188.444 317.685 L
189.312 317.993 L
190.18 318.512 L
191.048 319.101 L
191.916 319.756 L
192.784 320.484 L
193.652 321.171 L
194.52 321.664 L
195.388 321.99 L
196.256 322.408 L
197.124 323.215 L
197.992 324.52 L
198.86 326.162 L
199.728 327.826 L
200.596 329.242 L
201.464 330.363 L
202.332 331.356 L
203.2 332.422 L
204.068 333.633 L
204.936 334.913 L
205.804 336.144 L
206.672 337.252 L
207.54 338.246 L
208.408 339.216 L
209.276 340.245 L
210.144 341.3 L
211.012 342.199 L
211.88 342.742 L
212.748 342.904 L
213.616 342.899 L
214.484 343.035 L
215.352 343.497 L
216.22 344.236 L
217.088 345.055 L
217.956 345.767 L
218.824 346.293 L
219.692 346.633 L
220.56 346.814 L
221.428 346.874 L
222.296 346.866 L
223.164 346.85 L
224.032 346.855 L
224.9 346.884 L
225.768 346.923 L
226.636 346.966 L
227.504 347.009 L
228.372 347.038 L
229.24 347.033 L
230.108 346.978 L
230.976 346.885 L
231.844 346.79 L
232.712 346.727 L
233.58 346.709 L
234.448 346.735 L
235.316 346.79 L
236.184 346.852 L
237.052 346.898 L
237.92 346.922 L
238.788 346.927 L
239.656 346.913 L
240.524 346.876 L
241.392 346.822 L
242.26 346.786 L
243.128 346.8 L
243.996 346.857 L
244.864 346.914 L
245.732 346.932 L
246.6 346.91 L
247.468 346.876 L
248.336 346.854 L
249.204 346.843 L
250.072 346.826 L
250.94 346.806 L
251.808 346.808 L
252.676 346.853 L
253.544 346.925 L
254.412 346.975 L
255.28 346.953 L
256.148 346.854 L
257.016 346.727 L
257.884 346.645 L
258.752 346.656 L
259.62 346.762 L
260.488 346.918 L
261.356 347.058 L
262.224 347.122 L
263.092 347.082 L
263.96 346.972 L
264.828 346.871 L
265.696 346.854 L
266.564 346.941 L
267.432 347.086 L
268.3 347.232 L
269.168 347.361 L
270.036 347.487 L
270.904 347.614 L
271.772 347.712 L
272.64 347.763 L
273.508 347.799 L
274.376 347.886 L
275.244 348.051 L
276.112 348.243 L
276.98 348.383 L
277.848 348.447 L
278.716 348.497 L
279.584 348.625 L
280.452 348.88 L
281.32 349.242 L
282.188 349.639 L
283.056 349.997 L
283.924 350.266 L
284.792 350.425 L
285.66 350.478 L
286.528 350.466 L
287.396 350.467 L
288.264 350.547 L
289.132 350.701 L
290 350.85 L
290.868 350.924 L
291.736 350.921 L
292.604 350.904 L
293.472 350.932 L
294.34 351.006 L
295.208 351.069 L
296.076 351.055 L
296.944 350.947 L
297.812 350.778 L
298.68 350.6 L
299.548 350.444 L
300.416 350.326 L
301.284 350.245 L
302.152 350.175 L
303.02 350.054 L
303.888 349.831 L
304.756 349.508 L
305.624 349.148 L
306.492 348.818 L
307.36 348.557 L
308.228 348.374 L
309.096 348.257 L
309.964 348.169 L
310.832 348.059 L
311.7 347.888 L
312.568 347.659 L
313.436 347.408 L
314.304 347.172 L
315.172 346.966 L
316.04 346.785 L
316.908 346.64 L
317.776 346.566 L
318.644 346.579 L
319.512 346.631 L
320.38 346.631 L
321.248 346.525 L
322.116 346.35 L
322.984 346.196 L
323.852 346.123 L
324.72 346.119 L
325.588 346.136 L
326.456 346.135 L
327.324 346.097 L
328.192 346.003 L
329.06 345.825 L
329.928 345.559 L
330.796 345.263 L
331.664 345.034 L
332.532 344.946 L
333.4 344.998 L
334.268 345.135 L
335.136 345.316 L
336.004 345.53 L
336.872 345.764 L
337.74 345.972 L
338.608 346.094 L
339.476 346.102 L
340.344 346.012 L
341.212 345.861 L
342.08 345.681 L
342.948 345.496 L
343.816 345.325 L
344.684 345.179 L
345.552 345.047 L
346.42 344.905 L
347.288 344.737 L
348.156 344.565 L
349.024 344.445 L
349.892 344.415 L
350.76 344.444 L
351.628 344.444 L
352.496 344.348 L
353.364 344.169 L
354.232 343.97 L
355.1 343.781 L
355.968 343.568 L
356.836 343.273 L
357.704 342.881 L
358.572 342.445 L
359.44 342.045 L
360.308 341.718 L
361.176 341.428 L
362.044 341.091 L
362.912 340.617 L
363.78 339.952 L
364.648 339.107 L
365.516 338.178 L
366.384 337.311 L
367.252 336.611 L
368.12 336.063 L
368.988 335.562 L
369.856 335.005 L
370.724 334.362 L
371.592 333.661 L
372.46 332.939 L
373.328 332.207 L
374.196 331.455 L
375.064 330.692 L
375.932 329.972 L
376.8 329.38 L
377.668 328.952 L
378.536 328.627 L
379.404 328.265 L
380.272 327.714 L
381.14 326.869 L
382.008 325.718 L
382.876 324.369 L
383.744 323.057 L
384.612 322.079 L
385.48 321.646 L
386.348 321.756 L
387.216 322.161 L
388.084 322.492 L
388.952 322.462 L
389.82 322.03 L
390.688 321.398 L
391.556 320.83 L
392.424 320.438 L
393.292 320.116 L
394.16 319.672 L
395.028 319.002 L
395.896 318.139 L
396.764 317.201 L
397.632 316.356 L
398.5 315.798 L
399.368 315.668 L
400.236 315.937 L
401.104 316.391 L
401.972 316.758 L
402.84 316.865 L
403.708 316.692 L
404.576 316.324 L
405.444 315.891 L
406.312 315.538 L
407.18 315.385 L
408.048 315.451 L
408.916 315.585 L
409.784 315.537 L
410.652 315.143 L
411.52 314.509 L
412.388 313.978 L
413.256 313.885 L
414.124 314.28 L
414.992 314.893 L
415.86 315.357 L
416.728 315.464 L
417.596 315.225 L
418.464 314.754 L
419.332 314.179 L
420.2 313.661 L
421.068 313.385 L
421.936 313.45 L
422.804 313.78 L
423.672 314.17 L
424.54 314.463 L
425.408 314.652 L
426.276 314.826 L
427.144 315.005 L
428.012 315.058 L
428.88 314.785 L
429.748 314.109 L
430.616 313.202 L
431.484 312.433 L
432.352 312.175 L
433.22 312.574 L
434.088 313.432 L
434.956 314.277 L
435.824 314.641 L
436.692 314.359 L
437.56 313.673 L
438.428 313.023 L
439.296 312.71 L
440.164 312.716 L
441.032 312.818 L
441.9 312.826 L
442.768 312.693 L
443.636 312.433 L
444.504 311.993 L
445.372 311.25 L
446.24 310.13 L
447.108 308.71 L
447.976 307.199 L
448.844 305.817 L
449.712 304.684 L
450.58 303.803 L
451.448 303.112 L
452.316 302.544 L
453.184 302.053 L
454.052 301.607 L
454.92 301.126 L
455.788 300.418 L
456.656 299.183 L
457.524 297.146 L
458.392 294.229 L
459.26 290.692 L
460.128 287.317 L
460.996 285.649 L
461.864 287.853 L
462.732 295.733 L
463.6 309.314 L
464.468 326.266 L
465.336 342.967 L
466.204 356.397 L
467.072 365.373 L
467.94 370.407 L
468.808 372.781 L
469.676 373.708 L
470.544 373.991 L
471.411 374.041 L
S
GR
GS
[0.75 0 0 0.75 0 0] CT
0 0.447 0.741 RC
1 LJ
2.667 LW
N
471.418 374.041 M
472.28 374.03 L
473.148 374.014 L
474.016 374.005 L
474.884 374.001 L
475.752 374 L
476.62 373.999 L
477.488 374 L
478.356 374 L
479.224 374 L
480.092 374 L
480.96 374 L
481.828 374 L
482.696 374 L
483.564 374 L
484.432 374 L
485.3 374 L
486.168 374 L
487.036 374 L
487.904 374 L
488.772 374 L
489.64 374 L
490.508 374 L
491.376 374 L
492.244 374 L
493.112 374 L
493.98 374 L
494.848 374 L
495.716 374 L
496.584 374 L
497.452 374 L
498.32 374 L
499.188 374 L
500.056 374 L
500.924 374 L
501.792 374 L
502.66 374 L
503.528 374 L
504.396 374 L
505.264 374 L
506.132 374 L
507 374 L
507.052 374 L
S
GR
GS
[0.75 0 0 0.75 0 0] CT
0.851 0.325 0.098 RC
1 LJ
2.667 LW
N
72.948 374 M
73 374 L
73.868 374 L
74.736 374 L
75.604 374 L
76.472 374 L
77.34 374 L
78.208 374 L
79.076 374 L
79.944 374 L
80.812 374 L
81.68 374 L
82.548 374 L
83.416 374 L
84.284 374 L
85.152 374 L
86.02 374 L
86.888 374 L
87.756 374 L
88.624 374 L
89.492 374 L
90.36 374 L
91.228 374 L
92.096 374 L
92.964 374 L
93.832 374 L
94.7 374 L
95.568 374 L
96.436 374 L
97.304 374 L
98.172 374 L
99.04 374 L
99.908 374 L
100.776 374 L
101.644 374 L
102.512 374 L
103.38 374 L
104.248 374 L
105.116 374 L
105.984 374.001 L
106.852 374.003 L
107.72 374.005 L
108.588 374.003 L
109.456 373.981 L
110.324 373.899 L
111.192 373.665 L
112.06 373.112 L
112.928 371.994 L
113.796 370.049 L
114.664 367.159 L
115.532 363.535 L
116.4 359.744 L
117.268 356.489 L
118.136 354.259 L
119.004 353.124 L
119.872 352.83 L
120.74 353.02 L
121.608 353.389 L
122.476 353.709 L
123.344 353.819 L
124.212 353.652 L
125.08 353.257 L
125.948 352.795 L
126.816 352.453 L
127.684 352.336 L
128.552 352.41 L
129.42 352.549 L
130.288 352.632 L
131.156 352.608 L
132.024 352.488 L
132.892 352.301 L
133.76 352.063 L
134.628 351.777 L
135.496 351.451 L
136.364 351.115 L
137.232 350.807 L
138.1 350.556 L
138.968 350.358 L
139.836 350.176 L
140.704 349.957 L
141.572 349.682 L
142.44 349.399 L
143.308 349.197 L
144.176 349.14 L
145.044 349.214 L
145.912 349.323 L
146.78 349.343 L
147.648 349.186 L
148.516 348.852 L
149.384 348.438 L
150.252 348.078 L
151.12 347.863 L
151.988 347.784 L
152.856 347.779 L
153.724 347.802 L
154.592 347.878 L
155.46 348.054 L
156.328 348.322 L
157.196 348.585 L
158.064 348.71 L
158.932 348.622 L
159.8 348.366 L
160.668 348.082 L
161.536 347.924 L
162.404 347.964 L
163.272 348.158 L
164.14 348.383 L
165.008 348.529 L
165.876 348.557 L
166.744 348.492 L
167.612 348.39 L
168.48 348.297 L
169.348 348.22 L
170.216 348.12 L
171.084 347.935 L
171.952 347.647 L
172.82 347.307 L
173.688 347.005 L
174.556 346.798 L
175.424 346.681 L
176.292 346.607 L
177.16 346.542 L
178.028 346.494 L
178.896 346.488 L
179.764 346.503 L
180.632 346.446 L
181.5 346.205 L
182.368 345.758 L
183.236 345.216 L
184.104 344.742 L
184.972 344.427 L
185.84 344.223 L
186.708 344.006 L
187.576 343.681 L
188.444 343.245 L
189.312 342.764 L
190.18 342.318 L
191.048 341.944 L
191.916 341.601 L
192.784 341.186 L
193.652 340.583 L
194.52 339.729 L
195.388 338.636 L
196.256 337.372 L
197.124 336.041 L
197.992 334.779 L
198.86 333.714 L
199.728 332.883 L
200.596 332.171 L
201.464 331.382 L
202.332 330.389 L
203.2 329.238 L
204.068 328.103 L
204.936 327.144 L
205.804 326.401 L
206.672 325.798 L
207.54 325.241 L
208.408 324.676 L
209.276 324.046 L
210.144 323.248 L
211.012 322.21 L
211.88 321.017 L
212.748 319.926 L
213.616 319.195 L
214.484 318.876 L
215.352 318.753 L
216.22 318.491 L
217.088 317.878 L
217.956 316.99 L
218.824 316.127 L
219.692 315.567 L
220.56 315.341 L
221.428 315.23 L
222.296 314.982 L
223.164 314.525 L
224.032 313.984 L
224.9 313.521 L
225.768 313.187 L
226.636 312.913 L
227.504 312.624 L
228.372 312.34 L
229.24 312.149 L
230.108 312.099 L
230.976 312.11 L
231.844 312.018 L
232.712 311.714 L
233.58 311.235 L
234.448 310.732 L
235.316 310.371 L
236.184 310.24 L
237.052 310.321 L
237.92 310.503 L
238.788 310.611 L
239.656 310.498 L
240.524 310.164 L
241.392 309.791 L
242.26 309.621 L
243.128 309.752 L
243.996 310.049 L
244.864 310.27 L
245.732 310.261 L
246.6 310.033 L
247.468 309.708 L
248.336 309.42 L
249.204 309.264 L
250.072 309.282 L
250.94 309.455 L
251.808 309.707 L
252.676 309.932 L
253.544 310.045 L
254.412 310.025 L
255.28 309.911 L
256.148 309.766 L
257.016 309.63 L
257.884 309.517 L
258.752 309.453 L
259.62 309.483 L
260.488 309.612 L
261.356 309.748 L
262.224 309.744 L
263.092 309.53 L
263.96 309.178 L
264.828 308.827 L
265.696 308.546 L
266.564 308.29 L
267.432 308.004 L
268.3 307.709 L
269.168 307.458 L
270.036 307.188 L
270.904 306.706 L
271.772 305.881 L
272.64 304.862 L
273.508 304.009 L
274.376 303.555 L
275.244 303.348 L
276.112 302.933 L
276.98 301.9 L
277.848 300.139 L
278.716 297.849 L
279.584 295.396 L
280.452 293.18 L
281.32 291.518 L
282.188 290.464 L
283.056 289.707 L
283.924 288.692 L
284.792 286.981 L
285.66 284.534 L
286.528 281.688 L
287.396 278.839 L
288.264 276.197 L
289.132 273.808 L
290 271.737 L
290.868 270.091 L
291.736 268.834 L
292.604 267.662 L
293.472 266.15 L
294.34 264.074 L
295.208 261.584 L
296.076 259.105 L
296.944 257.066 L
297.812 255.649 L
298.68 254.707 L
299.548 253.906 L
300.416 252.958 L
301.284 251.748 L
302.152 250.343 L
303.02 248.963 L
303.888 247.887 L
304.756 247.213 L
305.624 246.686 L
306.492 245.856 L
307.36 244.52 L
308.228 242.972 L
309.096 241.766 L
309.964 241.237 L
310.832 241.263 L
311.7 241.435 L
312.568 241.382 L
313.436 240.968 L
314.304 240.289 L
315.172 239.563 L
316.04 238.996 L
316.908 238.687 L
317.776 238.612 L
318.644 238.665 L
319.512 238.693 L
320.38 238.56 L
321.248 238.213 L
322.116 237.768 L
322.984 237.469 L
323.852 237.491 L
324.72 237.737 L
325.588 237.895 L
326.456 237.753 L
327.324 237.446 L
328.192 237.312 L
329.06 237.491 L
329.928 237.75 L
330.796 237.756 L
331.664 237.482 L
332.532 237.254 L
333.4 237.379 L
334.268 237.804 L
335.136 238.158 L
336.004 238.128 L
336.872 237.749 L
337.74 237.347 L
338.608 237.228 L
339.476 237.435 L
340.344 237.764 L
341.212 237.973 L
342.08 237.926 L
342.948 237.628 L
343.816 237.198 L
344.684 236.806 L
345.552 236.556 L
346.42 236.438 L
347.288 236.417 L
348.156 236.529 L
349.024 236.822 L
349.892 237.2 L
350.76 237.41 L
351.628 237.249 L
352.496 236.801 L
353.364 236.453 L
354.232 236.635 L
355.1 237.457 L
355.968 238.566 L
356.836 239.361 L
357.704 239.383 L
358.572 238.527 L
359.44 236.997 L
360.308 235.166 L
361.176 233.474 L
362.044 232.283 L
362.912 231.659 L
363.78 231.232 L
364.648 230.235 L
365.516 227.801 L
366.384 223.441 L
367.252 217.409 L
368.12 210.666 L
368.988 204.489 L
369.856 200.003 L
370.724 197.756 L
371.592 197.354 L
372.46 197.403 L
373.328 196.091 L
374.196 192.152 L
375.064 185.548 L
375.932 177.376 L
376.8 169.066 L
377.668 161.416 L
378.536 154.207 L
379.404 146.851 L
380.272 139.49 L
381.14 133.278 L
382.008 129.318 L
382.876 127.301 L
383.744 125.392 L
384.612 121.665 L
385.48 115.798 L
386.348 109.407 L
387.216 104.695 L
388.084 102.724 L
388.952 102.78 L
389.82 103.104 L
390.688 102.12 L
391.556 99.293 L
392.424 95.295 L
393.292 91.58 L
394.16 89.642 L
395.028 90.268 L
395.896 93.038 L
396.764 96.382 L
397.632 98.386 L
398.5 97.997 L
399.368 95.748 L
400.236 93.34 L
401.104 92.34 L
401.972 93.088 L
402.84 94.649 L
403.708 95.703 L
404.576 95.499 L
405.444 94.215 L
406.312 92.673 L
407.18 91.724 L
408.048 91.776 L
408.916 92.669 L
409.784 93.826 L
410.652 94.504 L
411.52 94.189 L
412.388 93.064 L
413.256 92.005 L
414.124 91.808 L
414.992 92.361 L
415.86 92.846 L
416.728 92.807 L
417.596 92.719 L
418.464 93.313 L
419.332 94.586 L
420.2 95.74 L
421.068 95.969 L
421.936 95.078 L
422.804 93.42 L
423.672 91.546 L
424.54 90.014 L
425.408 89.308 L
426.276 89.669 L
427.144 90.893 L
428.012 92.37 L
428.88 93.448 L
429.748 93.834 L
430.616 93.671 L
431.484 93.27 L
432.352 92.797 L
433.22 92.273 L
434.088 91.82 L
434.956 91.794 L
435.824 92.52 L
436.692 93.894 L
437.56 95.341 L
438.428 96.176 L
439.296 95.986 L
440.164 94.815 L
441.032 93.162 L
441.9 91.759 L
442.768 91.165 L
443.636 91.455 L
444.504 92.275 L
445.372 93.186 L
446.24 93.955 L
447.108 94.59 L
447.976 95.125 L
448.844 95.472 L
449.712 95.481 L
450.58 95.047 L
451.448 94.104 L
452.316 92.768 L
453.184 91.645 L
454.052 91.717 L
454.92 93.492 L
455.788 96.191 L
456.656 97.93 L
457.524 96.882 L
458.392 92.523 L
459.26 86.408 L
460.128 82.526 L
460.996 87.074 L
461.864 106.718 L
462.732 144.884 L
463.6 198.115 L
464.468 256.152 L
465.336 306.908 L
466.204 342.707 L
467.072 362.891 L
467.94 371.693 L
468.706 374.041 L
S
GR
GS
[0.75 0 0 0.75 0 0] CT
0.851 0.325 0.098 RC
1 LJ
2.667 LW
N
471.97 374.041 M
472.28 374.005 L
473.148 373.982 L
474.016 373.986 L
474.884 373.993 L
475.752 373.997 L
476.62 373.999 L
477.488 374 L
478.356 374 L
479.224 374 L
480.092 374 L
480.96 374 L
481.828 374 L
482.696 374 L
483.564 374 L
484.432 374 L
485.3 374 L
486.168 374 L
487.036 374 L
487.904 374 L
488.772 374 L
489.64 374 L
490.508 374 L
491.376 374 L
492.244 374 L
493.112 374 L
493.98 374 L
494.848 374 L
495.716 374 L
496.584 374 L
497.452 374 L
498.32 374 L
499.188 374 L
500.056 374 L
500.924 374 L
501.792 374 L
502.66 374 L
503.528 374 L
504.396 374 L
505.264 374 L
506.132 374 L
507 374 L
507.052 374 L
S
GR
GS
[0.75 0 0 0.75 0 0] CT
0.775 GC
[1 3] 0 setdash
2 LJ
0.667 LW
N
90.36 374 M
90.36 31 L
S
GR
GS
[0.75 0 0 0.75 0 0] CT
0.775 GC
[1 3] 0 setdash
2 LJ
0.667 LW
N
107.72 374 M
107.72 31 L
S
GR
GS
[0.75 0 0 0.75 0 0] CT
0.775 GC
[1 3] 0 setdash
2 LJ
0.667 LW
N
125.08 374 M
125.08 31 L
S
GR
GS
[0.75 0 0 0.75 0 0] CT
0.775 GC
[1 3] 0 setdash
2 LJ
0.667 LW
N
142.44 374 M
142.44 31 L
S
GR
GS
[0.75 0 0 0.75 0 0] CT
0.775 GC
[1 3] 0 setdash
2 LJ
0.667 LW
N
177.16 374 M
177.16 31 L
S
GR
GS
[0.75 0 0 0.75 0 0] CT
0.775 GC
[1 3] 0 setdash
2 LJ
0.667 LW
N
194.52 374 M
194.52 31 L
S
GR
GS
[0.75 0 0 0.75 0 0] CT
0.775 GC
[1 3] 0 setdash
2 LJ
0.667 LW
N
211.88 374 M
211.88 31 L
S
GR
GS
[0.75 0 0 0.75 0 0] CT
0.775 GC
[1 3] 0 setdash
2 LJ
0.667 LW
N
229.24 374 M
229.24 31 L
S
GR
GS
[0.75 0 0 0.75 0 0] CT
0.775 GC
[1 3] 0 setdash
2 LJ
0.667 LW
N
263.96 374 M
263.96 31 L
S
GR
GS
[0.75 0 0 0.75 0 0] CT
0.775 GC
[1 3] 0 setdash
2 LJ
0.667 LW
N
281.32 374 M
281.32 31 L
S
GR
GS
[0.75 0 0 0.75 0 0] CT
0.775 GC
[1 3] 0 setdash
2 LJ
0.667 LW
N
298.68 374 M
298.68 31 L
S
GR
GS
[0.75 0 0 0.75 0 0] CT
0.775 GC
[1 3] 0 setdash
2 LJ
0.667 LW
N
316.04 374 M
316.04 31 L
S
GR
GS
[0.75 0 0 0.75 0 0] CT
0.775 GC
[1 3] 0 setdash
2 LJ
0.667 LW
N
350.76 374 M
350.76 31 L
S
GR
GS
[0.75 0 0 0.75 0 0] CT
0.775 GC
[1 3] 0 setdash
2 LJ
0.667 LW
N
368.12 374 M
368.12 31 L
S
GR
GS
[0.75 0 0 0.75 0 0] CT
0.775 GC
[1 3] 0 setdash
2 LJ
0.667 LW
N
385.48 374 M
385.48 31 L
S
GR
GS
[0.75 0 0 0.75 0 0] CT
0.775 GC
[1 3] 0 setdash
2 LJ
0.667 LW
N
402.84 374 M
402.84 31 L
S
GR
GS
[0.75 0 0 0.75 0 0] CT
0.775 GC
[1 3] 0 setdash
2 LJ
0.667 LW
N
437.56 374 M
437.56 31 L
S
GR
GS
[0.75 0 0 0.75 0 0] CT
0.775 GC
[1 3] 0 setdash
2 LJ
0.667 LW
N
454.92 374 M
454.92 31 L
S
GR
GS
[0.75 0 0 0.75 0 0] CT
0.775 GC
[1 3] 0 setdash
2 LJ
0.667 LW
N
472.28 374 M
472.28 31 L
S
GR
GS
[0.75 0 0 0.75 0 0] CT
0.775 GC
[1 3] 0 setdash
2 LJ
0.667 LW
N
489.64 374 M
489.64 31 L
S
GR
GS
[0.75 0 0 0.75 0 0] CT
0.873 GC
[1 3] 0 setdash
2 LJ
0.667 LW
N
73 374 M
73 31 L
S
GR
GS
[0.75 0 0 0.75 0 0] CT
0.873 GC
[1 3] 0 setdash
2 LJ
0.667 LW
N
159.8 374 M
159.8 31 L
S
GR
GS
[0.75 0 0 0.75 0 0] CT
0.873 GC
[1 3] 0 setdash
2 LJ
0.667 LW
N
246.6 374 M
246.6 31 L
S
GR
GS
[0.75 0 0 0.75 0 0] CT
0.873 GC
[1 3] 0 setdash
2 LJ
0.667 LW
N
333.4 374 M
333.4 31 L
S
GR
GS
[0.75 0 0 0.75 0 0] CT
0.873 GC
[1 3] 0 setdash
2 LJ
0.667 LW
N
420.2 374 M
420.2 31 L
S
GR
GS
[0.75 0 0 0.75 0 0] CT
0.873 GC
[1 3] 0 setdash
2 LJ
0.667 LW
N
507 374 M
507 31 L
S
GR
GS
[0.75 0 0 0.75 0 0] CT
0.775 GC
[1 3] 0 setdash
2 LJ
0.667 LW
N
507 362.567 M
73 362.567 L
S
GR
GS
[0.75 0 0 0.75 0 0] CT
0.775 GC
[1 3] 0 setdash
2 LJ
0.667 LW
N
507 351.133 M
73 351.133 L
S
GR
GS
[0.75 0 0 0.75 0 0] CT
0.775 GC
[1 3] 0 setdash
2 LJ
0.667 LW
N
507 339.7 M
73 339.7 L
S
GR
GS
[0.75 0 0 0.75 0 0] CT
0.775 GC
[1 3] 0 setdash
2 LJ
0.667 LW
N
507 328.267 M
73 328.267 L
S
GR
GS
[0.75 0 0 0.75 0 0] CT
0.775 GC
[1 3] 0 setdash
2 LJ
0.667 LW
N
507 305.4 M
73 305.4 L
S
GR
GS
[0.75 0 0 0.75 0 0] CT
0.775 GC
[1 3] 0 setdash
2 LJ
0.667 LW
N
507 293.967 M
73 293.967 L
S
GR
GS
[0.75 0 0 0.75 0 0] CT
0.775 GC
[1 3] 0 setdash
2 LJ
0.667 LW
N
507 282.533 M
73 282.533 L
S
GR
GS
[0.75 0 0 0.75 0 0] CT
0.775 GC
[1 3] 0 setdash
2 LJ
0.667 LW
N
507 271.1 M
73 271.1 L
S
GR
GS
[0.75 0 0 0.75 0 0] CT
0.775 GC
[1 3] 0 setdash
2 LJ
0.667 LW
N
507 248.233 M
73 248.233 L
S
GR
GS
[0.75 0 0 0.75 0 0] CT
0.775 GC
[1 3] 0 setdash
2 LJ
0.667 LW
N
507 236.8 M
73 236.8 L
S
GR
GS
[0.75 0 0 0.75 0 0] CT
0.775 GC
[1 3] 0 setdash
2 LJ
0.667 LW
N
507 225.367 M
73 225.367 L
S
GR
GS
[0.75 0 0 0.75 0 0] CT
0.775 GC
[1 3] 0 setdash
2 LJ
0.667 LW
N
507 213.933 M
73 213.933 L
S
GR
GS
[0.75 0 0 0.75 0 0] CT
0.775 GC
[1 3] 0 setdash
2 LJ
0.667 LW
N
507 191.067 M
73 191.067 L
S
GR
GS
[0.75 0 0 0.75 0 0] CT
0.775 GC
[1 3] 0 setdash
2 LJ
0.667 LW
N
507 179.633 M
73 179.633 L
S
GR
GS
[0.75 0 0 0.75 0 0] CT
0.775 GC
[1 3] 0 setdash
2 LJ
0.667 LW
N
507 168.2 M
73 168.2 L
S
GR
GS
[0.75 0 0 0.75 0 0] CT
0.775 GC
[1 3] 0 setdash
2 LJ
0.667 LW
N
507 156.767 M
73 156.767 L
S
GR
GS
[0.75 0 0 0.75 0 0] CT
0.775 GC
[1 3] 0 setdash
2 LJ
0.667 LW
N
507 133.9 M
73 133.9 L
S
GR
GS
[0.75 0 0 0.75 0 0] CT
0.775 GC
[1 3] 0 setdash
2 LJ
0.667 LW
N
507 122.467 M
73 122.467 L
S
GR
GS
[0.75 0 0 0.75 0 0] CT
0.775 GC
[1 3] 0 setdash
2 LJ
0.667 LW
N
507 111.033 M
73 111.033 L
S
GR
GS
[0.75 0 0 0.75 0 0] CT
0.775 GC
[1 3] 0 setdash
2 LJ
0.667 LW
N
507 99.6 M
73 99.6 L
S
GR
GS
[0.75 0 0 0.75 0 0] CT
0.775 GC
[1 3] 0 setdash
2 LJ
0.667 LW
N
507 76.733 M
73 76.733 L
S
GR
GS
[0.75 0 0 0.75 0 0] CT
0.775 GC
[1 3] 0 setdash
2 LJ
0.667 LW
N
507 65.3 M
73 65.3 L
S
GR
GS
[0.75 0 0 0.75 0 0] CT
0.775 GC
[1 3] 0 setdash
2 LJ
0.667 LW
N
507 53.867 M
73 53.867 L
S
GR
GS
[0.75 0 0 0.75 0 0] CT
0.775 GC
[1 3] 0 setdash
2 LJ
0.667 LW
N
507 42.433 M
73 42.433 L
S
GR
GS
[0.75 0 0 0.75 0 0] CT
0.873 GC
[1 3] 0 setdash
2 LJ
0.667 LW
N
507 374 M
73 374 L
S
GR
GS
[0.75 0 0 0.75 0 0] CT
0.873 GC
[1 3] 0 setdash
2 LJ
0.667 LW
N
507 316.833 M
73 316.833 L
S
GR
GS
[0.75 0 0 0.75 0 0] CT
0.873 GC
[1 3] 0 setdash
2 LJ
0.667 LW
N
507 259.667 M
73 259.667 L
S
GR
GS
[0.75 0 0 0.75 0 0] CT
0.873 GC
[1 3] 0 setdash
2 LJ
0.667 LW
N
507 202.5 M
73 202.5 L
S
GR
GS
[0.75 0 0 0.75 0 0] CT
0.873 GC
[1 3] 0 setdash
2 LJ
0.667 LW
N
507 145.333 M
73 145.333 L
S
GR
GS
[0.75 0 0 0.75 0 0] CT
0.873 GC
[1 3] 0 setdash
2 LJ
0.667 LW
N
507 88.167 M
73 88.167 L
S
GR
GS
[0.75 0 0 0.75 0 0] CT
0.873 GC
[1 3] 0 setdash
2 LJ
0.667 LW
N
507 31 M
73 31 L
S
GR
GS
[0.75 0 0 0.75 0 0] CT
0.149 GC
2 setlinecap
1 LJ
0.667 LW
N
73 374 M
507 374 L
S
GR
GS
[0.75 0 0 0.75 0 0] CT
0.149 GC
2 setlinecap
1 LJ
0.667 LW
N
73 374 M
73 369.66 L
S
GR
GS
[0.75 0 0 0.75 0 0] CT
0.149 GC
2 setlinecap
1 LJ
0.667 LW
N
159.8 374 M
159.8 369.66 L
S
GR
GS
[0.75 0 0 0.75 0 0] CT
0.149 GC
2 setlinecap
1 LJ
0.667 LW
N
246.6 374 M
246.6 369.66 L
S
GR
GS
[0.75 0 0 0.75 0 0] CT
0.149 GC
2 setlinecap
1 LJ
0.667 LW
N
333.4 374 M
333.4 369.66 L
S
GR
GS
[0.75 0 0 0.75 0 0] CT
0.149 GC
2 setlinecap
1 LJ
0.667 LW
N
420.2 374 M
420.2 369.66 L
S
GR
GS
[0.75 0 0 0.75 0 0] CT
0.149 GC
2 setlinecap
1 LJ
0.667 LW
N
507 374 M
507 369.66 L
S
GR
GS
[0.75 0 0 0.75 54.75 285.49999] CT
0.149 GC
/Helvetica 20 F
GS
[1 0 0 1 0 0] CT
-6 21 moveto 
1 -1 scale
(1) t 
GR
GR
GS
[0.75 0 0 0.75 119.85 285.49999] CT
0.149 GC
/Helvetica 20 F
GS
[1 0 0 1 0 0] CT
-6 21 moveto 
1 -1 scale
(2) t 
GR
GR
GS
[0.75 0 0 0.75 184.95 285.49999] CT
0.149 GC
/Helvetica 20 F
GS
[1 0 0 1 0 0] CT
-6 21 moveto 
1 -1 scale
(3) t 
GR
GR
GS
[0.75 0 0 0.75 250.05 285.49999] CT
0.149 GC
/Helvetica 20 F
GS
[1 0 0 1 0 0] CT
-6 21 moveto 
1 -1 scale
(4) t 
GR
GR
GS
[0.75 0 0 0.75 315.15001 285.49999] CT
0.149 GC
/Helvetica 20 F
GS
[1 0 0 1 0 0] CT
-6 21 moveto 
1 -1 scale
(5) t 
GR
GR
GS
[0.75 0 0 0.75 380.25 285.49999] CT
0.149 GC
/Helvetica 20 F
GS
[1 0 0 1 0 0] CT
-6 21 moveto 
1 -1 scale
(6) t 
GR
GR
GS
[0.75 0 0 0.75 0 0] CT
0.149 GC
2 setlinecap
1 LJ
0.667 LW
N
73 374 M
73 31 L
S
GR
GS
[0.75 0 0 0.75 0 0] CT
0.149 GC
2 setlinecap
1 LJ
0.667 LW
N
73 374 M
77.34 374 L
S
GR
GS
[0.75 0 0 0.75 0 0] CT
0.149 GC
2 setlinecap
1 LJ
0.667 LW
N
73 316.833 M
77.34 316.833 L
S
GR
GS
[0.75 0 0 0.75 0 0] CT
0.149 GC
2 setlinecap
1 LJ
0.667 LW
N
73 259.667 M
77.34 259.667 L
S
GR
GS
[0.75 0 0 0.75 0 0] CT
0.149 GC
2 setlinecap
1 LJ
0.667 LW
N
73 202.5 M
77.34 202.5 L
S
GR
GS
[0.75 0 0 0.75 0 0] CT
0.149 GC
2 setlinecap
1 LJ
0.667 LW
N
73 145.333 M
77.34 145.333 L
S
GR
GS
[0.75 0 0 0.75 0 0] CT
0.149 GC
2 setlinecap
1 LJ
0.667 LW
N
73 88.167 M
77.34 88.167 L
S
GR
GS
[0.75 0 0 0.75 0 0] CT
0.149 GC
2 setlinecap
1 LJ
0.667 LW
N
73 31 M
77.34 31 L
S
GR
GS
[0.75 0 0 0.75 49.75 280.5] CT
0.149 GC
/Helvetica 20 F
GS
[1 0 0 1 0 0] CT
-12 8 moveto 
1 -1 scale
(0) t 
GR
GR
GS
[0.75 0 0 0.75 49.75 237.62501] CT
0.149 GC
/Helvetica 20 F
GS
[1 0 0 1 0 0] CT
-12 8 moveto 
1 -1 scale
(1) t 
GR
GR
GS
[0.75 0 0 0.75 49.75 194.74999] CT
0.149 GC
/Helvetica 20 F
GS
[1 0 0 1 0 0] CT
-12 8 moveto 
1 -1 scale
(2) t 
GR
GR
GS
[0.75 0 0 0.75 49.75 151.875] CT
0.149 GC
/Helvetica 20 F
GS
[1 0 0 1 0 0] CT
-12 8 moveto 
1 -1 scale
(3) t 
GR
GR
GS
[0.75 0 0 0.75 49.75 109] CT
0.149 GC
/Helvetica 20 F
GS
[1 0 0 1 0 0] CT
-12 8 moveto 
1 -1 scale
(4) t 
GR
GR
GS
[0.75 0 0 0.75 49.75 66.125] CT
0.149 GC
/Helvetica 20 F
GS
[1 0 0 1 0 0] CT
-12 8 moveto 
1 -1 scale
(5) t 
GR
GR
GS
[0.75 0 0 0.75 49.75 23.25] CT
0.149 GC
/Helvetica 20 F
GS
[1 0 0 1 0 0] CT
-12 8 moveto 
1 -1 scale
(6) t 
GR
GR
GS
[0.75 0 0 0.75 0 0] CT
1 GC
N
173 95 M
173 44 L
86 44 L
86 95 L
cp
f
GR
GS
[0.75 0 0 0.75 99.75 43.22525] CT
/Helvetica 18 F
GS
[1 0 0 1 0 0] CT
0 7.5 moveto 
1 -1 scale
(left) t 
GR
GR
GS
[0.75 0 0 0.75 0 0] CT
0 0.447 0.741 RC
1 LJ
2.667 LW
N
90 57.634 M
130 57.634 L
S
GR
GS
[0.75 0 0 0.75 99.75 61.02475] CT
/Helvetica 18 F
GS
[1 0 0 1 0 0] CT
0 7.5 moveto 
1 -1 scale
(right) t 
GR
GR
GS
[0.75 0 0 0.75 0 0] CT
0.851 0.325 0.098 RC
1 LJ
2.667 LW
N
90 81.366 M
130 81.366 L
S
GR
GS
[0.75 0 0 0.75 0 0] CT
0.149 GC
10.0 ML
0.667 LW
N
86 95 M
86 44 L
173 44 L
173 95 L
cp
S
GR
%%Trailer
%%Pages: 1
%%EOF
