%!PS-Adobe-3.0 EPSF-3.0
%%Creator: (MATLAB, The Mathworks, Inc. Version 9.3.0.713579 \(R2017b\). Operating System: Windows 7)
%%Title: fig/RBFN_1000_20_100000_convergence.eps
%%CreationDate: 2018-05-06T13:30:00
%%Pages: (atend)
%%BoundingBox:    18     3   483   384
%%LanguageLevel: 3
%%EndComments
%%BeginProlog
%%BeginResource: procset (Apache XML Graphics Std ProcSet) 1.2 0
%%Version: 1.2 0
%%Copyright: (Copyright 2001-2003,2010 The Apache Software Foundation. License terms: http://www.apache.org/licenses/LICENSE-2.0)
/bd{bind def}bind def
/ld{load def}bd
/GR/grestore ld
/GS/gsave ld
/RM/rmoveto ld
/C/curveto ld
/t/show ld
/L/lineto ld
/ML/setmiterlimit ld
/CT/concat ld
/f/fill ld
/N/newpath ld
/S/stroke ld
/CC/setcmykcolor ld
/A/ashow ld
/cp/closepath ld
/RC/setrgbcolor ld
/LJ/setlinejoin ld
/GC/setgray ld
/LW/setlinewidth ld
/M/moveto ld
/re {4 2 roll M
1 index 0 rlineto
0 exch rlineto
neg 0 rlineto
cp } bd
/_ctm matrix def
/_tm matrix def
/BT { _ctm currentmatrix pop matrix _tm copy pop 0 0 moveto } bd
/ET { _ctm setmatrix } bd
/iTm { _ctm setmatrix _tm concat } bd
/Tm { _tm astore pop iTm 0 0 moveto } bd
/ux 0.0 def
/uy 0.0 def
/F {
  /Tp exch def
  /Tf exch def
  Tf findfont Tp scalefont setfont
  /cf Tf def  /cs Tp def
} bd
/ULS {currentpoint /uy exch def /ux exch def} bd
/ULE {
  /Tcx currentpoint pop def
  gsave
  newpath
  cf findfont cs scalefont dup
  /FontMatrix get 0 get /Ts exch def /FontInfo get dup
  /UnderlinePosition get Ts mul /To exch def
  /UnderlineThickness get Ts mul /Tt exch def
  ux uy To add moveto  Tcx uy To add lineto
  Tt setlinewidth stroke
  grestore
} bd
/OLE {
  /Tcx currentpoint pop def
  gsave
  newpath
  cf findfont cs scalefont dup
  /FontMatrix get 0 get /Ts exch def /FontInfo get dup
  /UnderlinePosition get Ts mul /To exch def
  /UnderlineThickness get Ts mul /Tt exch def
  ux uy To add cs add moveto Tcx uy To add cs add lineto
  Tt setlinewidth stroke
  grestore
} bd
/SOE {
  /Tcx currentpoint pop def
  gsave
  newpath
  cf findfont cs scalefont dup
  /FontMatrix get 0 get /Ts exch def /FontInfo get dup
  /UnderlinePosition get Ts mul /To exch def
  /UnderlineThickness get Ts mul /Tt exch def
  ux uy To add cs 10 mul 26 idiv add moveto Tcx uy To add cs 10 mul 26 idiv add lineto
  Tt setlinewidth stroke
  grestore
} bd
/QT {
/Y22 exch store
/X22 exch store
/Y21 exch store
/X21 exch store
currentpoint
/Y21 load 2 mul add 3 div exch
/X21 load 2 mul add 3 div exch
/X21 load 2 mul /X22 load add 3 div
/Y21 load 2 mul /Y22 load add 3 div
/X22 load /Y22 load curveto
} bd
/SSPD {
dup length /d exch dict def
{
/v exch def
/k exch def
currentpagedevice k known {
/cpdv currentpagedevice k get def
v cpdv ne {
/upd false def
/nullv v type /nulltype eq def
/nullcpdv cpdv type /nulltype eq def
nullv nullcpdv or
{
/upd true def
} {
/sametype v type cpdv type eq def
sametype {
v type /arraytype eq {
/vlen v length def
/cpdvlen cpdv length def
vlen cpdvlen eq {
0 1 vlen 1 sub {
/i exch def
/obj v i get def
/cpdobj cpdv i get def
obj cpdobj ne {
/upd true def
exit
} if
} for
} {
/upd true def
} ifelse
} {
v type /dicttype eq {
v {
/dv exch def
/dk exch def
/cpddv cpdv dk get def
dv cpddv ne {
/upd true def
exit
} if
} forall
} {
/upd true def
} ifelse
} ifelse
} if
} ifelse
upd true eq {
d k v put
} if
} if
} if
} forall
d length 0 gt {
d setpagedevice
} if
} bd
/RE { % /NewFontName [NewEncodingArray] /FontName RE -
  findfont dup length dict begin
  {
    1 index /FID ne
    {def} {pop pop} ifelse
  } forall
  /Encoding exch def
  /FontName 1 index def
  currentdict definefont pop
  end
} bind def
%%EndResource
%%BeginResource: procset (Apache XML Graphics EPS ProcSet) 1.0 0
%%Version: 1.0 0
%%Copyright: (Copyright 2002-2003 The Apache Software Foundation. License terms: http://www.apache.org/licenses/LICENSE-2.0)
/BeginEPSF { %def
/b4_Inc_state save def         % Save state for cleanup
/dict_count countdictstack def % Count objects on dict stack
/op_count count 1 sub def      % Count objects on operand stack
userdict begin                 % Push userdict on dict stack
/showpage { } def              % Redefine showpage, { } = null proc
0 setgray 0 setlinecap         % Prepare graphics state
1 setlinewidth 0 setlinejoin
10 setmiterlimit [ ] 0 setdash newpath
/languagelevel where           % If level not equal to 1 then
{pop languagelevel             % set strokeadjust and
1 ne                           % overprint to their defaults.
{false setstrokeadjust false setoverprint
} if
} if
} bd
/EndEPSF { %def
count op_count sub {pop} repeat            % Clean up stacks
countdictstack dict_count sub {end} repeat
b4_Inc_state restore
} bd
%%EndResource
%FOPBeginFontDict
%%IncludeResource: font Courier-Oblique
%%IncludeResource: font Courier-BoldOblique
%%IncludeResource: font Courier-Bold
%%IncludeResource: font ZapfDingbats
%%IncludeResource: font Symbol
%%IncludeResource: font Helvetica
%%IncludeResource: font Helvetica-Oblique
%%IncludeResource: font Helvetica-Bold
%%IncludeResource: font Helvetica-BoldOblique
%%IncludeResource: font Times-Roman
%%IncludeResource: font Times-Italic
%%IncludeResource: font Times-Bold
%%IncludeResource: font Times-BoldItalic
%%IncludeResource: font Courier
%FOPEndFontDict
%%BeginResource: encoding WinAnsiEncoding
/WinAnsiEncoding [
/.notdef /.notdef /.notdef /.notdef /.notdef
/.notdef /.notdef /.notdef /.notdef /.notdef
/.notdef /.notdef /.notdef /.notdef /.notdef
/.notdef /.notdef /.notdef /.notdef /.notdef
/.notdef /.notdef /.notdef /.notdef /.notdef
/.notdef /.notdef /.notdef /.notdef /.notdef
/.notdef /.notdef /space /exclam /quotedbl
/numbersign /dollar /percent /ampersand /quotesingle
/parenleft /parenright /asterisk /plus /comma
/hyphen /period /slash /zero /one
/two /three /four /five /six
/seven /eight /nine /colon /semicolon
/less /equal /greater /question /at
/A /B /C /D /E
/F /G /H /I /J
/K /L /M /N /O
/P /Q /R /S /T
/U /V /W /X /Y
/Z /bracketleft /backslash /bracketright /asciicircum
/underscore /quoteleft /a /b /c
/d /e /f /g /h
/i /j /k /l /m
/n /o /p /q /r
/s /t /u /v /w
/x /y /z /braceleft /bar
/braceright /asciitilde /bullet /Euro /bullet
/quotesinglbase /florin /quotedblbase /ellipsis /dagger
/daggerdbl /circumflex /perthousand /Scaron /guilsinglleft
/OE /bullet /Zcaron /bullet /bullet
/quoteleft /quoteright /quotedblleft /quotedblright /bullet
/endash /emdash /asciitilde /trademark /scaron
/guilsinglright /oe /bullet /zcaron /Ydieresis
/space /exclamdown /cent /sterling /currency
/yen /brokenbar /section /dieresis /copyright
/ordfeminine /guillemotleft /logicalnot /sfthyphen /registered
/macron /degree /plusminus /twosuperior /threesuperior
/acute /mu /paragraph /middot /cedilla
/onesuperior /ordmasculine /guillemotright /onequarter /onehalf
/threequarters /questiondown /Agrave /Aacute /Acircumflex
/Atilde /Adieresis /Aring /AE /Ccedilla
/Egrave /Eacute /Ecircumflex /Edieresis /Igrave
/Iacute /Icircumflex /Idieresis /Eth /Ntilde
/Ograve /Oacute /Ocircumflex /Otilde /Odieresis
/multiply /Oslash /Ugrave /Uacute /Ucircumflex
/Udieresis /Yacute /Thorn /germandbls /agrave
/aacute /acircumflex /atilde /adieresis /aring
/ae /ccedilla /egrave /eacute /ecircumflex
/edieresis /igrave /iacute /icircumflex /idieresis
/eth /ntilde /ograve /oacute /ocircumflex
/otilde /odieresis /divide /oslash /ugrave
/uacute /ucircumflex /udieresis /yacute /thorn
/ydieresis
] def
%%EndResource
%FOPBeginFontReencode
/Courier-Oblique findfont
dup length dict begin
  {1 index /FID ne {def} {pop pop} ifelse} forall
  /Encoding WinAnsiEncoding def
  currentdict
end
/Courier-Oblique exch definefont pop
/Courier-BoldOblique findfont
dup length dict begin
  {1 index /FID ne {def} {pop pop} ifelse} forall
  /Encoding WinAnsiEncoding def
  currentdict
end
/Courier-BoldOblique exch definefont pop
/Courier-Bold findfont
dup length dict begin
  {1 index /FID ne {def} {pop pop} ifelse} forall
  /Encoding WinAnsiEncoding def
  currentdict
end
/Courier-Bold exch definefont pop
/Helvetica findfont
dup length dict begin
  {1 index /FID ne {def} {pop pop} ifelse} forall
  /Encoding WinAnsiEncoding def
  currentdict
end
/Helvetica exch definefont pop
/Helvetica-Oblique findfont
dup length dict begin
  {1 index /FID ne {def} {pop pop} ifelse} forall
  /Encoding WinAnsiEncoding def
  currentdict
end
/Helvetica-Oblique exch definefont pop
/Helvetica-Bold findfont
dup length dict begin
  {1 index /FID ne {def} {pop pop} ifelse} forall
  /Encoding WinAnsiEncoding def
  currentdict
end
/Helvetica-Bold exch definefont pop
/Helvetica-BoldOblique findfont
dup length dict begin
  {1 index /FID ne {def} {pop pop} ifelse} forall
  /Encoding WinAnsiEncoding def
  currentdict
end
/Helvetica-BoldOblique exch definefont pop
/Times-Roman findfont
dup length dict begin
  {1 index /FID ne {def} {pop pop} ifelse} forall
  /Encoding WinAnsiEncoding def
  currentdict
end
/Times-Roman exch definefont pop
/Times-Italic findfont
dup length dict begin
  {1 index /FID ne {def} {pop pop} ifelse} forall
  /Encoding WinAnsiEncoding def
  currentdict
end
/Times-Italic exch definefont pop
/Times-Bold findfont
dup length dict begin
  {1 index /FID ne {def} {pop pop} ifelse} forall
  /Encoding WinAnsiEncoding def
  currentdict
end
/Times-Bold exch definefont pop
/Times-BoldItalic findfont
dup length dict begin
  {1 index /FID ne {def} {pop pop} ifelse} forall
  /Encoding WinAnsiEncoding def
  currentdict
end
/Times-BoldItalic exch definefont pop
/Courier findfont
dup length dict begin
  {1 index /FID ne {def} {pop pop} ifelse} forall
  /Encoding WinAnsiEncoding def
  currentdict
end
/Courier exch definefont pop
%FOPEndFontReencode
%%EndProlog
%%Page: 1 1
%%PageBoundingBox: 0 0 525 394
%%BeginPageSetup
[1 0 0 -1 0 394] CT
%%EndPageSetup
GS
[0.75 0 0 0.74971 0 0.39999] CT
N
0 0 M
700 0 L
700 525 L
0 525 L
0 0 L
cp
clip
1 GC
N
0 0 700 525 re
f
GR
GS
[0.75 0 0 0.74971 0 0.39999] CT
1 GC
N
0 0 700 525 re
f
GR
GS
[0.75 0 0 0.74971 0 0.39999] CT
1 GC
N
91 459 M
634 459 L
634 39 L
91 39 L
cp
f
GR
GS
[0.75 0 0 0.74971 0 0.39999] CT
0.873 GC
1 LJ
0.667 LW
N
91 459 M
91 39 L
S
GR
GS
[0.75 0 0 0.74971 0 0.39999] CT
0.873 GC
1 LJ
0.667 LW
N
199.6 459 M
199.6 39 L
S
GR
GS
[0.75 0 0 0.74971 0 0.39999] CT
0.873 GC
1 LJ
0.667 LW
N
308.2 459 M
308.2 39 L
S
GR
GS
[0.75 0 0 0.74971 0 0.39999] CT
0.873 GC
1 LJ
0.667 LW
N
416.8 459 M
416.8 39 L
S
GR
GS
[0.75 0 0 0.74971 0 0.39999] CT
0.873 GC
1 LJ
0.667 LW
N
525.4 459 M
525.4 39 L
S
GR
GS
[0.75 0 0 0.74971 0 0.39999] CT
0.873 GC
1 LJ
0.667 LW
N
634 459 M
634 39 L
S
GR
GS
[0.75 0 0 0.74971 0 0.39999] CT
0.873 GC
1 LJ
0.667 LW
N
634 459 M
91 459 L
S
GR
GS
[0.75 0 0 0.74971 0 0.39999] CT
0.873 GC
1 LJ
0.667 LW
N
634 389 M
91 389 L
S
GR
GS
[0.75 0 0 0.74971 0 0.39999] CT
0.873 GC
1 LJ
0.667 LW
N
634 319 M
91 319 L
S
GR
GS
[0.75 0 0 0.74971 0 0.39999] CT
0.873 GC
1 LJ
0.667 LW
N
634 249 M
91 249 L
S
GR
GS
[0.75 0 0 0.74971 0 0.39999] CT
0.873 GC
1 LJ
0.667 LW
N
634 179 M
91 179 L
S
GR
GS
[0.75 0 0 0.74971 0 0.39999] CT
0.873 GC
1 LJ
0.667 LW
N
634 109 M
91 109 L
S
GR
GS
[0.75 0 0 0.74971 0 0.39999] CT
0.873 GC
1 LJ
0.667 LW
N
634 39 M
91 39 L
S
GR
GS
[0.75 0 0 0.74971 0 0.39999] CT
0.149 GC
2 setlinecap
1 LJ
0.667 LW
N
91 459 M
634 459 L
S
GR
GS
[0.75 0 0 0.74971 0 0.39999] CT
0.149 GC
2 setlinecap
1 LJ
0.667 LW
N
91 39 M
634 39 L
S
GR
GS
[0.75 0 0 0.74971 0 0.39999] CT
0.149 GC
2 setlinecap
1 LJ
0.667 LW
N
91 459 M
91 453.57 L
S
GR
GS
[0.75 0 0 0.74971 0 0.39999] CT
0.149 GC
2 setlinecap
1 LJ
0.667 LW
N
199.6 459 M
199.6 453.57 L
S
GR
GS
[0.75 0 0 0.74971 0 0.39999] CT
0.149 GC
2 setlinecap
1 LJ
0.667 LW
N
308.2 459 M
308.2 453.57 L
S
GR
GS
[0.75 0 0 0.74971 0 0.39999] CT
0.149 GC
2 setlinecap
1 LJ
0.667 LW
N
416.8 459 M
416.8 453.57 L
S
GR
GS
[0.75 0 0 0.74971 0 0.39999] CT
0.149 GC
2 setlinecap
1 LJ
0.667 LW
N
525.4 459 M
525.4 453.57 L
S
GR
GS
[0.75 0 0 0.74971 0 0.39999] CT
0.149 GC
2 setlinecap
1 LJ
0.667 LW
N
634 459 M
634 453.57 L
S
GR
GS
[0.75 0 0 0.74971 0 0.39999] CT
0.149 GC
2 setlinecap
1 LJ
0.667 LW
N
91 39 M
91 44.43 L
S
GR
GS
[0.75 0 0 0.74971 0 0.39999] CT
0.149 GC
2 setlinecap
1 LJ
0.667 LW
N
199.6 39 M
199.6 44.43 L
S
GR
GS
[0.75 0 0 0.74971 0 0.39999] CT
0.149 GC
2 setlinecap
1 LJ
0.667 LW
N
308.2 39 M
308.2 44.43 L
S
GR
GS
[0.75 0 0 0.74971 0 0.39999] CT
0.149 GC
2 setlinecap
1 LJ
0.667 LW
N
416.8 39 M
416.8 44.43 L
S
GR
GS
[0.75 0 0 0.74971 0 0.39999] CT
0.149 GC
2 setlinecap
1 LJ
0.667 LW
N
525.4 39 M
525.4 44.43 L
S
GR
GS
[0.75 0 0 0.74971 0 0.39999] CT
0.149 GC
2 setlinecap
1 LJ
0.667 LW
N
634 39 M
634 44.43 L
S
GR
GS
[0.75 0 0 0.74971 68.25 349.51694] CT
0.149 GC
/Helvetica 20 F
GS
[1 0 0 1 0 0] CT
-6 21 moveto 
1 -1 scale
(0) t 
GR
GR
GS
[0.75 0 0 0.74971 149.7 349.51694] CT
0.149 GC
/Helvetica 20 F
GS
[1 0 0 1 0 0] CT
-6 21 moveto 
1 -1 scale
(2) t 
GR
GR
GS
[0.75 0 0 0.74971 231.15001 349.51694] CT
0.149 GC
/Helvetica 20 F
GS
[1 0 0 1 0 0] CT
-6 21 moveto 
1 -1 scale
(4) t 
GR
GR
GS
[0.75 0 0 0.74971 312.59999 349.51694] CT
0.149 GC
/Helvetica 20 F
GS
[1 0 0 1 0 0] CT
-6 21 moveto 
1 -1 scale
(6) t 
GR
GR
GS
[0.75 0 0 0.74971 394.05002 349.51694] CT
0.149 GC
/Helvetica 20 F
GS
[1 0 0 1 0 0] CT
-6 21 moveto 
1 -1 scale
(8) t 
GR
GR
GS
[0.75 0 0 0.74971 475.5 349.51694] CT
0.149 GC
/Helvetica 20 F
GS
[1 0 0 1 0 0] CT
-11.5 21 moveto 
1 -1 scale
(10) t 
GR
GR
GS
[0.75 0 0 0.74971 271.87518 370.00914] CT
0.149 GC
/Helvetica 22 F
GS
[1 0 0 1 0 0] CT
-48.5 23 moveto 
1 -1 scale
(Itterations) t 
GR
GR
GS
[0.75 0 0 0.74971 439.5 390.25143] CT
0.149 GC
N
2.938 -0.578 M
2.938 -0.734 3.031 -0.859 QT
7.203 -5 L
3.031 -9.156 L
2.938 -9.266 2.938 -9.422 QT
2.938 -9.578 3.055 -9.703 QT
3.172 -9.828 3.344 -9.828 QT
3.484 -9.828 3.641 -9.703 QT
7.781 -5.563 L
11.906 -9.703 L
12.078 -9.828 12.203 -9.828 QT
12.359 -9.828 12.477 -9.711 QT
12.594 -9.594 12.594 -9.422 QT
12.594 -9.266 12.5 -9.156 QT
8.344 -5 L
12.5 -0.859 L
12.594 -0.734 12.594 -0.578 QT
12.594 -0.406 12.477 -0.289 QT
12.359 -0.172 12.203 -0.172 QT
12.047 -0.172 11.906 -0.328 QT
7.781 -4.438 L
3.641 -0.328 L
3.5 -0.172 3.344 -0.172 QT
3.172 -0.172 3.055 -0.305 QT
2.938 -0.438 2.938 -0.578 QT
cp
f
GR
GS
[0.75 0 0 0.74971 451.5 390.25143] CT
0.149 GC
/Helvetica 20 F
GS
[1 0 0 1 0 0] CT
0 0 moveto 
1 -1 scale
(10) t 
GR
GR
GS
[0.75 0 0 0.74971 468.75 382.75429] CT
0.149 GC
/Helvetica 16 F
GS
[1 0 0 1 0 0] CT
0 0 moveto 
1 -1 scale
(4) t 
GR
GR
GS
[0.75 0 0 0.74971 0 0.39999] CT
0.149 GC
2 setlinecap
1 LJ
0.667 LW
N
91 459 M
91 39 L
S
GR
GS
[0.75 0 0 0.74971 0 0.39999] CT
0.149 GC
2 setlinecap
1 LJ
0.667 LW
N
634 459 M
634 39 L
S
GR
GS
[0.75 0 0 0.74971 0 0.39999] CT
0.149 GC
2 setlinecap
1 LJ
0.667 LW
N
91 459 M
96.43 459 L
S
GR
GS
[0.75 0 0 0.74971 0 0.39999] CT
0.149 GC
2 setlinecap
1 LJ
0.667 LW
N
91 389 M
96.43 389 L
S
GR
GS
[0.75 0 0 0.74971 0 0.39999] CT
0.149 GC
2 setlinecap
1 LJ
0.667 LW
N
91 319 M
96.43 319 L
S
GR
GS
[0.75 0 0 0.74971 0 0.39999] CT
0.149 GC
2 setlinecap
1 LJ
0.667 LW
N
91 249 M
96.43 249 L
S
GR
GS
[0.75 0 0 0.74971 0 0.39999] CT
0.149 GC
2 setlinecap
1 LJ
0.667 LW
N
91 179 M
96.43 179 L
S
GR
GS
[0.75 0 0 0.74971 0 0.39999] CT
0.149 GC
2 setlinecap
1 LJ
0.667 LW
N
91 109 M
96.43 109 L
S
GR
GS
[0.75 0 0 0.74971 0 0.39999] CT
0.149 GC
2 setlinecap
1 LJ
0.667 LW
N
91 39 M
96.43 39 L
S
GR
GS
[0.75 0 0 0.74971 0 0.39999] CT
0.149 GC
2 setlinecap
1 LJ
0.667 LW
N
634 459 M
628.57 459 L
S
GR
GS
[0.75 0 0 0.74971 0 0.39999] CT
0.149 GC
2 setlinecap
1 LJ
0.667 LW
N
634 389 M
628.57 389 L
S
GR
GS
[0.75 0 0 0.74971 0 0.39999] CT
0.149 GC
2 setlinecap
1 LJ
0.667 LW
N
634 319 M
628.57 319 L
S
GR
GS
[0.75 0 0 0.74971 0 0.39999] CT
0.149 GC
2 setlinecap
1 LJ
0.667 LW
N
634 249 M
628.57 249 L
S
GR
GS
[0.75 0 0 0.74971 0 0.39999] CT
0.149 GC
2 setlinecap
1 LJ
0.667 LW
N
634 179 M
628.57 179 L
S
GR
GS
[0.75 0 0 0.74971 0 0.39999] CT
0.149 GC
2 setlinecap
1 LJ
0.667 LW
N
634 109 M
628.57 109 L
S
GR
GS
[0.75 0 0 0.74971 0 0.39999] CT
0.149 GC
2 setlinecap
1 LJ
0.667 LW
N
634 39 M
628.57 39 L
S
GR
GS
[0.75 0 0 0.74971 63.25 344.51886] CT
0.149 GC
/Helvetica 20 F
GS
[1 0 0 1 0 0] CT
-12 8 moveto 
1 -1 scale
(0) t 
GR
GR
GS
[0.75 0 0 0.74971 63.25 292.03886] CT
0.149 GC
/Helvetica 20 F
GS
[1 0 0 1 0 0] CT
-23 8 moveto 
1 -1 scale
(20) t 
GR
GR
GS
[0.75 0 0 0.74971 63.25 239.55885] CT
0.149 GC
/Helvetica 20 F
GS
[1 0 0 1 0 0] CT
-23 8 moveto 
1 -1 scale
(40) t 
GR
GR
GS
[0.75 0 0 0.74971 63.25 187.07885] CT
0.149 GC
/Helvetica 20 F
GS
[1 0 0 1 0 0] CT
-23 8 moveto 
1 -1 scale
(60) t 
GR
GR
GS
[0.75 0 0 0.74971 63.25 134.59885] CT
0.149 GC
/Helvetica 20 F
GS
[1 0 0 1 0 0] CT
-23 8 moveto 
1 -1 scale
(80) t 
GR
GR
GS
[0.75 0 0 0.74971 63.25 82.11885] CT
0.149 GC
/Helvetica 20 F
GS
[1 0 0 1 0 0] CT
-34 8 moveto 
1 -1 scale
(100) t 
GR
GR
GS
[0.75 0 0 0.74971 63.25 29.63885] CT
0.149 GC
/Helvetica 20 F
GS
[1 0 0 1 0 0] CT
-34 8 moveto 
1 -1 scale
(120) t 
GR
GR
GS
[0 -0.74971 0.75 0 34.75 187.07871] CT
0.149 GC
/Helvetica 22 F
GS
[1 0 0 1 0 0] CT
-50.5 -5 moveto 
1 -1 scale
(Difference) t 
GR
GR
GS
[0.75 0 0 0.74971 162.75 22.89142] CT
/Helvetica-Bold 22 F
GS
[1 0 0 1 0 0] CT
0 0 moveto 
1 -1 scale
(Norm 2 distance from ) t 
GR
GR
GS
[0.75 0 0 0.74971 337.5 22.89142] CT
N
3.547 0.25 M
2.547 0.25 1.945 -0.484 QT
1.344 -1.219 1.109 -2.25 QT
0.875 -3.281 0.875 -4.281 QT
0.875 -4.313 L
0.875 -5.406 1.086 -6.586 QT
1.297 -7.766 1.695 -8.945 QT
2.094 -10.125 2.563 -11.047 QT
2.875 -11.688 3.391 -12.484 QT
3.906 -13.281 4.531 -13.969 QT
5.156 -14.656 5.883 -15.086 QT
6.609 -15.516 7.344 -15.516 QT
7.375 -15.516 L
9.172 -15.516 9.703 -15.07 QT
10.234 -14.625 10.523 -13.938 QT
10.813 -13.25 10.938 -12.469 QT
11.063 -11.688 11.063 -10.984 QT
11.063 -9.313 10.609 -7.578 QT
10.156 -5.844 9.359 -4.219 QT
9.063 -3.609 8.531 -2.781 QT
8 -1.953 7.398 -1.297 QT
6.797 -0.641 6.055 -0.195 QT
5.313 0.25 3.563 0.25 QT
3.547 0.25 L
cp
3.594 -0.328 M
4.313 -0.328 4.984 -1.109 QT
5.656 -1.891 6.164 -3 QT
6.672 -4.109 7.055 -5.281 QT
7.438 -6.453 7.609 -7.266 QT
4.125 -7.266 L
3.781 -5.875 3.586 -4.875 QT
3.391 -3.875 3.391 -2.906 QT
3.391 -0.328 3.594 -0.328 QT
cp
4.297 -8.031 M
7.813 -8.031 L
8.047 -9 8.188 -9.648 QT
8.328 -10.297 8.422 -11.016 QT
8.516 -11.734 8.516 -12.359 QT
8.516 -14.938 7.344 -14.938 QT
6.953 -14.938 5.938 -12.688 QT
4.922 -10.438 4.297 -8.031 QT
cp
f
GR
GS
[0.75 0 0 0.74971 346.5 22.89142] CT
/Helvetica-Bold 22 F
GS
[1 0 0 1 0 0] CT
0 0 moveto 
1 -1 scale
( to 0) t 
GR
GR
GS
[0.75 0 0 0.74971 0 0.39999] CT
0 0.447 0.741 RC
1 LJ
2.667 LW
N
91.005 458.958 M
91.016 458.958 L
91.32 457.513 L
91.331 457.513 L
91.337 457.513 L
91.999 455.453 L
92.005 455.453 L
92.01 455.454 L
92.662 454.45 L
92.667 454.34 L
93.329 453.165 L
93.335 453.165 L
93.346 453.165 L
93.987 451.158 L
93.997 451.158 L
94.003 451.158 L
94.649 449.623 L
94.665 449.623 L
94.671 449.623 L
95.333 448.023 L
95.339 447.897 L
95.996 446.729 L
96.001 446.729 L
96.663 445.365 L
96.669 445.365 L
96.674 445.366 L
97.331 443.739 L
97.337 443.739 L
97.999 441.613 L
98.005 441.502 L
98.662 440.212 L
98.667 440.212 L
99.33 438.12 L
99.335 438.12 L
99.992 436.902 L
99.998 436.902 L
100.003 436.902 L
100.665 435.216 L
100.671 435.216 L
101.333 433.353 L
101.339 433.352 L
101.344 433.353 L
101.996 431.947 L
102.001 431.835 L
102.664 430.527 L
102.669 430.527 L
103.332 429.186 L
103.337 429.186 L
103.999 427.682 L
104.005 427.681 L
104.662 426.638 L
104.667 426.637 L
105.33 425.119 L
105.335 425.01 L
105.998 423.651 L
106.003 423.568 L
106.666 422.173 L
106.671 422.172 L
107.328 420.567 L
107.333 420.567 L
107.996 418.769 L
108.001 418.769 L
108.664 417.68 L
108.669 417.663 L
109.332 415.966 L
109.337 415.947 L
110 414.5 L
110.005 414.5 L
110.651 412.523 L
110.662 412.523 L
110.667 412.525 L
111.33 411.275 L
111.335 411.255 L
111.998 409.654 L
112.003 409.653 L
112.66 408.651 L
112.666 408.658 L
112.671 408.657 L
113.328 407.215 L
113.334 407.134 L
113.996 405.792 L
114.001 405.792 L
114.664 404.509 L
114.669 404.509 L
115.332 403.287 L
115.337 403.287 L
116 402.375 L
116.005 402.375 L
116.662 401.221 L
116.668 401.222 L
117.33 399.805 L
117.336 399.805 L
117.998 398.666 L
118.003 398.666 L
118.666 397.58 L
118.671 397.579 L
119.328 396.443 L
119.334 396.444 L
119.996 394.45 L
120.002 394.45 L
120.664 393.635 L
120.67 393.616 L
121.332 392.686 L
121.337 392.686 L
122 391.583 L
122.005 391.582 L
122.027 391.585 L
122.662 390.824 L
122.668 390.823 L
123.33 389.502 L
123.336 389.483 L
123.412 389.493 L
123.998 388.318 L
124.004 388.318 L
124.666 387.255 L
124.671 387.254 L
125.328 385.757 L
125.334 385.757 L
125.996 384.709 L
126.002 384.69 L
126.664 383.785 L
126.67 383.785 L
127.332 382.389 L
127.338 382.389 L
127.989 380.641 L
127.995 380.641 L
128 380.64 L
128.662 379.867 L
128.668 379.776 L
129.33 378.741 L
129.336 378.648 L
129.998 377.272 L
130.004 377.272 L
130.666 376.065 L
130.672 376.063 L
131.329 374.79 L
131.334 374.79 L
131.997 373.621 L
132.002 373.621 L
132.664 372.63 L
132.67 372.63 L
132.675 372.631 L
133.332 371.183 L
133.338 371.166 L
133.995 370.128 L
134 370.128 L
134.635 369.25 L
134.663 369.25 L
134.668 369.233 L
135.331 367.772 L
135.336 367.772 L
135.998 366.894 L
136.004 366.892 L
136.666 365.638 L
136.672 365.622 L
137.329 364.479 L
137.334 364.462 L
137.997 363.664 L
138.002 363.647 L
138.008 363.647 L
138.654 362.489 L
138.665 362.492 L
138.67 362.492 L
139.332 361.411 L
139.338 361.409 L
139.995 360.517 L
140 360.517 L
140.663 359.429 L
140.668 359.429 L
141.331 358.461 L
141.336 358.461 L
141.999 357.084 L
142.004 357.084 L
142.666 355.984 L
142.672 355.984 L
143.329 354.799 L
143.334 354.799 L
143.997 353.32 L
144.002 353.32 L
144.665 352.104 L
144.67 352.104 L
144.676 352.111 L
145.333 351.365 L
145.338 351.364 L
145.995 349.96 L
146 349.958 L
146.663 348.898 L
146.668 348.897 L
147.331 347.739 L
147.336 347.726 L
147.999 346.994 L
148.004 346.994 L
148.015 346.996 L
148.667 345.554 L
148.672 345.554 L
149.329 344.412 L
149.334 344.412 L
149.997 343.302 L
150.002 343.228 L
150.008 343.229 L
150.665 342.101 L
150.67 342.099 L
151.322 341.268 L
151.333 341.269 L
151.338 341.269 L
151.995 339.961 L
152.001 339.961 L
152.663 339.412 L
152.669 339.412 L
153.331 338.003 L
153.336 337.989 L
153.342 337.989 L
153.999 336.636 L
154.004 336.633 L
154.661 335.313 L
154.667 335.313 L
155.329 334.051 L
155.335 334.05 L
155.997 333.06 L
156.003 333.06 L
156.665 331.896 L
156.67 331.896 L
157.333 331.352 L
157.338 331.352 L
157.995 330.132 L
158.001 330.132 L
158.663 328.984 L
158.669 328.983 L
158.674 328.989 L
159.331 327.982 L
159.337 327.912 L
159.353 327.915 L
159.999 326.59 L
160.004 326.59 L
160.661 325.812 L
160.667 325.811 L
161.329 324.657 L
161.335 324.644 L
161.997 323.805 L
162.003 323.805 L
162.665 322.925 L
162.671 322.925 L
163.333 321.867 L
163.338 321.867 L
163.995 320.653 L
164.001 320.653 L
164.663 319.48 L
164.669 319.468 L
164.674 319.468 L
165.331 318.508 L
165.337 318.507 L
165.999 317.464 L
166.005 317.464 L
166.662 316.564 L
166.667 316.563 L
167.33 315.406 L
167.335 315.406 L
167.34 315.407 L
167.997 314.203 L
168.003 314.203 L
168.654 313.234 L
168.665 313.237 L
168.671 313.237 L
169.333 312.226 L
169.339 312.222 L
169.996 311.28 L
170.001 311.28 L
170.664 310.139 L
170.669 310.138 L
171.331 309.015 L
171.337 309.015 L
171.999 307.776 L
172.005 307.775 L
172.01 307.781 L
172.662 306.835 L
172.667 306.771 L
173.33 305.929 L
173.335 305.926 L
173.998 305.277 L
174.003 305.277 L
174.03 305.278 L
174.665 304.34 L
174.671 304.34 L
174.676 304.343 L
175.333 303.527 L
175.339 303.464 L
175.35 303.467 L
175.996 302.766 L
176.001 302.766 L
176.664 301.656 L
176.669 301.656 L
177.332 300.723 L
177.337 300.712 L
177.342 300.712 L
177.999 299.768 L
178.005 299.755 L
178.662 298.661 L
178.667 298.661 L
179.324 297.521 L
179.33 297.525 L
179.335 297.47 L
179.998 296.684 L
180.003 296.628 L
180.666 296.069 L
180.671 296.069 L
181.328 295.237 L
181.333 295.181 L
181.996 294.302 L
182.001 294.302 L
182.664 293.621 L
182.669 293.617 L
183.332 292.994 L
183.337 292.994 L
183.343 292.995 L
184 292.218 L
184.005 292.218 L
184.662 291.343 L
184.667 291.343 L
185.33 290.474 L
185.335 290.474 L
185.998 289.354 L
186.003 289.35 L
186.666 288.545 L
186.671 288.541 L
187.285 287.777 L
187.328 287.779 L
187.334 287.779 L
187.996 286.957 L
188.002 286.957 L
188.664 285.844 L
188.669 285.844 L
189.332 285.219 L
189.337 285.219 L
190 284.566 L
190.005 284.566 L
190.662 283.893 L
190.668 283.893 L
191.33 282.881 L
191.336 282.881 L
191.346 282.885 L
191.998 282.074 L
192.003 282.074 L
192.666 281.407 L
192.671 281.402 L
193.328 280.901 L
193.334 280.839 L
193.996 279.954 L
194.002 279.954 L
194.664 279.302 L
194.67 279.302 L
195.332 278.425 L
195.337 278.425 L
195.951 277.757 L
196 277.766 L
196.005 277.765 L
196.662 277.183 L
196.668 277.183 L
197.33 276.586 L
197.336 276.585 L
197.998 275.756 L
198.004 275.747 L
198.666 274.999 L
198.671 274.999 L
198.682 274.999 L
199.329 274 L
199.334 273.999 L
199.996 273.439 L
200.002 273.439 L
200.664 272.705 L
200.67 272.705 L
201.332 272.091 L
201.338 272.095 L
201.995 271.421 L
202 271.37 L
202.663 270.139 L
202.668 270.138 L
203.33 269.505 L
203.336 269.503 L
203.998 268.572 L
204.004 268.571 L
204.666 267.882 L
204.672 267.881 L
205.329 267.333 L
205.334 267.332 L
205.383 267.342 L
205.997 266.551 L
206.002 266.55 L
206.664 265.651 L
206.67 265.65 L
206.675 265.651 L
207.332 265.102 L
207.338 265.095 L
207.995 264.405 L
208 264.404 L
208.006 264.404 L
208.663 263.69 L
208.668 263.685 L
209.303 263.082 L
209.331 263.112 L
209.336 263.111 L
209.971 262.367 L
209.998 262.37 L
210.004 262.362 L
210.65 261.477 L
210.666 261.478 L
210.672 261.474 L
211.329 260.676 L
211.334 260.675 L
211.997 259.727 L
212.002 259.725 L
212.665 258.715 L
212.67 258.715 L
212.703 258.723 L
213.332 257.835 L
213.338 257.834 L
213.995 256.905 L
214 256.905 L
214.663 256.258 L
214.668 256.258 L
215.331 255.728 L
215.336 255.718 L
215.999 254.956 L
216.004 254.951 L
216.666 254.367 L
216.672 254.365 L
217.329 253.364 L
217.334 253.363 L
217.997 252.68 L
218.002 252.675 L
218.024 252.677 L
218.665 251.843 L
218.67 251.836 L
218.676 251.836 L
219.333 251.031 L
219.338 250.97 L
219.995 250.037 L
220.001 250.036 L
220.603 249.549 L
220.663 249.555 L
220.668 249.554 L
221.331 248.767 L
221.336 248.767 L
221.999 248.247 L
222.004 248.247 L
222.667 247.702 L
222.672 247.702 L
223.329 247.041 L
223.335 247.04 L
223.992 246.436 L
223.997 246.436 L
224.002 246.431 L
224.654 245.52 L
224.665 245.525 L
224.67 245.534 L
225.333 244.81 L
225.338 244.81 L
225.995 244.156 L
226.001 244.119 L
226.663 243.399 L
226.669 243.352 L
227.331 242.733 L
227.336 242.732 L
227.999 242.025 L
228.004 242.025 L
228.661 241.497 L
228.667 241.497 L
229.329 240.956 L
229.335 240.921 L
229.997 240.164 L
230.003 240.164 L
230.665 239.413 L
230.67 239.413 L
230.687 239.413 L
231.333 238.919 L
231.338 238.912 L
231.995 238.349 L
232.001 238.348 L
232.663 237.684 L
232.669 237.684 L
232.718 237.703 L
233.331 236.867 L
233.337 236.867 L
233.342 236.869 L
233.999 236.383 L
234.004 236.378 L
234.662 236.091 L
234.667 236.091 L
235.329 235.402 L
235.335 235.402 L
235.997 234.665 L
236.003 234.632 L
236.144 234.645 L
236.665 234.098 L
236.671 234.097 L
237.333 233.401 L
237.339 233.401 L
237.996 232.666 L
238.001 232.666 L
238.663 231.999 L
238.669 231.998 L
239.331 231.413 L
239.337 231.38 L
239.38 231.38 L
239.999 230.903 L
240.005 230.897 L
240.662 230.325 L
240.667 230.325 L
240.711 230.339 L
241.33 229.774 L
241.335 229.768 L
241.351 229.779 L
241.992 228.948 L
241.997 228.956 L
242.003 228.952 L
242.654 228.38 L
242.665 228.396 L
242.671 228.391 L
243.333 227.723 L
243.339 227.722 L
243.996 227.224 L
244.001 227.225 L
244.664 226.593 L
244.669 226.593 L
245.331 225.734 L
245.337 225.726 L
245.999 225.077 L
246.005 225.046 L
246.016 225.046 L
246.662 224.404 L
246.667 224.402 L
246.792 224.407 L
247.33 223.919 L
247.335 223.889 L
247.395 223.893 L
247.998 223.343 L
248.003 223.337 L
248.665 222.705 L
248.671 222.705 L
249.328 222.189 L
249.333 222.159 L
249.996 221.863 L
250.001 221.81 L
250.007 221.81 L
250.664 221.276 L
250.669 221.247 L
251.332 220.58 L
251.337 220.598 L
251.999 219.899 L
252.005 219.898 L
252.662 219.182 L
252.667 219.181 L
253.33 218.605 L
253.335 218.605 L
253.998 218.164 L
254.003 218.161 L
254.666 217.535 L
254.671 217.532 L
255.328 217.004 L
255.334 217.003 L
255.996 216.467 L
256.001 216.462 L
256.664 216.016 L
256.669 216.015 L
257.332 215.347 L
257.337 215.371 L
258 214.926 L
258.005 214.923 L
258.01 214.955 L
258.662 214.547 L
258.668 214.545 L
258.689 214.567 L
259.325 213.931 L
259.33 213.931 L
259.335 213.931 L
259.39 213.939 L
259.992 213.547 L
259.998 213.552 L
260.003 213.545 L
260.666 213.005 L
260.671 213.005 L
260.693 213.005 L
261.328 212.477 L
261.334 212.476 L
261.996 212.059 L
262.002 212.05 L
262.621 211.565 L
262.664 211.566 L
262.669 211.565 L
262.68 211.573 L
263.332 211.109 L
263.337 211.108 L
264 210.641 L
264.005 210.64 L
264.657 210.025 L
264.662 210.027 L
264.668 210.026 L
265.33 209.488 L
265.336 209.488 L
265.368 209.49 L
265.993 208.875 L
265.998 208.875 L
266.003 208.875 L
266.666 208.597 L
266.671 208.596 L
267.312 208.168 L
267.328 208.168 L
267.334 208.168 L
267.996 207.714 L
268.002 207.71 L
268.664 207.235 L
268.67 207.234 L
269.332 206.751 L
269.337 206.727 L
269.348 206.727 L
270 206.084 L
270.005 206.084 L
270.662 205.517 L
270.668 205.516 L
271.33 204.92 L
271.336 204.897 L
271.998 204.4 L
272.004 204.4 L
272.666 203.954 L
272.672 203.949 L
273.329 203.445 L
273.334 203.44 L
273.996 203.059 L
274.002 203.053 L
274.664 202.577 L
274.67 202.572 L
275.327 201.94 L
275.332 201.945 L
275.338 201.945 L
275.995 201.563 L
276 201.563 L
276.663 200.985 L
276.668 200.98 L
277.254 200.481 L
277.33 200.52 L
277.336 200.513 L
277.998 199.869 L
278.004 199.868 L
278.666 199.314 L
278.672 199.314 L
279.329 198.739 L
279.334 198.738 L
279.345 198.741 L
279.997 198.289 L
280.002 198.282 L
280.664 197.963 L
280.67 197.961 L
281.332 197.514 L
281.338 197.513 L
281.995 196.969 L
282 196.964 L
282.663 196.563 L
282.668 196.563 L
283.331 196.121 L
283.336 196.12 L
283.999 195.53 L
284.004 195.529 L
284.645 194.947 L
284.666 194.947 L
284.672 194.946 L
284.753 194.95 L
285.264 194.478 L
285.329 194.485 L
285.334 194.485 L
285.997 193.983 L
286.002 193.983 L
286.018 194.025 L
286.665 193.512 L
286.67 193.512 L
286.675 193.513 L
287.333 192.952 L
287.338 192.951 L
287.995 192.531 L
288 192.534 L
288.663 192.084 L
288.668 192.083 L
289.331 191.642 L
289.336 191.638 L
289.993 191.105 L
289.999 191.106 L
290.004 191.101 L
290.65 190.705 L
290.667 190.726 L
290.672 190.728 L
291.329 190.093 L
291.334 190.073 L
291.34 190.075 L
291.997 189.537 L
292.002 189.537 L
292.665 189.032 L
292.67 189.031 L
293.333 188.555 L
293.338 188.551 L
293.995 187.861 L
294.001 187.86 L
294.663 187.395 L
294.668 187.395 L
295.331 186.944 L
295.336 186.94 L
295.944 186.529 L
295.999 186.533 L
296.004 186.533 L
296.661 186.103 L
296.667 186.1 L
297.329 185.769 L
297.335 185.769 L
297.997 185.289 L
298.002 185.289 L
298.659 184.871 L
298.665 184.879 L
298.67 184.879 L
299.333 184.505 L
299.338 184.505 L
299.995 184.09 L
300.001 184.09 L
300.006 184.09 L
300.663 183.608 L
300.669 183.599 L
301.331 183.128 L
301.336 183.128 L
301.353 183.137 L
301.983 182.772 L
301.999 182.788 L
302.004 182.787 L
302.661 182.362 L
302.667 182.361 L
303.329 181.894 L
303.335 181.894 L
303.997 181.472 L
304.003 181.455 L
304.665 181.092 L
304.671 181.091 L
305.333 180.705 L
305.338 180.703 L
305.995 180.281 L
306.001 180.246 L
306.006 180.247 L
306.663 179.857 L
306.669 179.856 L
307.326 179.461 L
307.331 179.461 L
307.337 179.46 L
307.353 179.461 L
307.999 179.057 L
308.005 179.057 L
308.037 179.071 L
308.662 178.557 L
308.667 178.556 L
309.329 178.17 L
309.335 178.168 L
309.997 177.614 L
310.003 177.614 L
310.008 177.614 L
310.665 177.179 L
310.671 177.175 L
311.333 176.642 L
311.339 176.637 L
311.974 176.271 L
311.996 176.295 L
312.001 176.251 L
312.05 176.255 L
312.663 175.928 L
312.669 175.927 L
313.331 175.507 L
313.337 175.507 L
313.364 175.507 L
313.994 175.078 L
313.999 175.082 L
314.005 175.077 L
314.021 175.115 L
314.662 174.558 L
314.667 174.558 L
315.33 174.078 L
315.335 174.074 L
315.992 173.607 L
315.997 173.61 L
316.003 173.609 L
316.665 173.401 L
316.671 173.4 L
317.333 173.084 L
317.339 173.081 L
317.996 172.597 L
318.001 172.593 L
318.664 172.293 L
318.669 172.293 L
318.674 172.293 L
319.332 171.945 L
319.337 171.94 L
319.999 171.345 L
320.005 171.344 L
320.021 171.355 L
320.662 171.029 L
320.667 171.029 L
321.33 170.593 L
321.335 170.593 L
321.998 170.217 L
322.003 170.217 L
322.666 169.935 L
322.671 169.931 L
322.676 169.931 L
323.312 169.547 L
323.328 169.551 L
323.333 169.547 L
323.99 169.219 L
323.996 169.24 L
324.001 169.223 L
324.664 168.695 L
324.669 168.721 L
325.332 168.375 L
325.337 168.356 L
326 167.943 L
326.005 167.939 L
326.657 167.49 L
326.662 167.49 L
326.667 167.487 L
327.324 167.143 L
327.33 167.147 L
327.335 167.147 L
327.341 167.149 L
327.976 166.831 L
327.998 166.833 L
328.003 166.833 L
328.014 166.833 L
328.666 166.493 L
328.671 166.48 L
328.725 166.497 L
329.328 166.095 L
329.334 166.095 L
329.996 165.687 L
330.001 165.686 L
330.658 165.332 L
330.664 165.332 L
330.669 165.332 L
331.332 164.805 L
331.337 164.801 L
332 164.417 L
332.005 164.415 L
332.021 164.46 L
332.662 164.164 L
332.668 164.163 L
333.33 163.777 L
333.335 163.777 L
333.395 163.785 L
333.998 163.358 L
334.003 163.357 L
334.666 163.021 L
334.671 163.02 L
335.269 162.619 L
335.328 162.62 L
335.334 162.619 L
335.996 162.29 L
336.002 162.29 L
336.012 162.296 L
336.664 161.937 L
336.669 161.936 L
337.332 161.532 L
337.337 161.521 L
337.354 161.522 L
337.994 161.214 L
338 161.217 L
338.005 161.214 L
338.646 160.807 L
338.662 160.811 L
338.668 160.811 L
339.33 160.384 L
339.336 160.384 L
339.998 159.863 L
340.004 159.862 L
340.666 159.437 L
340.671 159.433 L
341.328 159.032 L
341.334 159.026 L
341.345 159.026 L
341.996 158.732 L
342.002 158.732 L
342.664 158.462 L
342.67 158.461 L
343.332 158.18 L
343.338 158.18 L
344 157.769 L
344.005 157.769 L
344.662 157.512 L
344.668 157.512 L
345.33 157.118 L
345.336 157.115 L
345.368 157.119 L
345.998 156.713 L
346.004 156.71 L
346.666 156.272 L
346.672 156.28 L
346.682 156.29 L
347.329 155.9 L
347.334 155.899 L
347.996 155.483 L
348.002 155.481 L
348.605 155.217 L
348.664 155.251 L
348.67 155.247 L
349.332 154.91 L
349.338 154.91 L
349.995 154.656 L
350 154.652 L
350.663 154.251 L
350.668 154.248 L
351.33 153.938 L
351.336 153.938 L
351.998 153.694 L
352.004 153.693 L
352.655 153.278 L
352.666 153.28 L
352.672 153.281 L
353.323 152.974 L
353.329 152.979 L
353.334 152.975 L
353.997 152.599 L
354.002 152.599 L
354.665 152.258 L
354.67 152.227 L
355.332 151.93 L
355.338 151.93 L
355.995 151.661 L
356 151.659 L
356.022 151.663 L
356.663 151.231 L
356.668 151.231 L
356.679 151.233 L
357.331 150.996 L
357.336 150.995 L
357.999 150.695 L
358.004 150.684 L
358.666 150.253 L
358.672 150.253 L
359.329 149.952 L
359.334 149.95 L
359.997 149.483 L
360.002 149.483 L
360.013 149.486 L
360.665 149.173 L
360.67 149.173 L
361.327 148.701 L
361.333 148.701 L
361.338 148.7 L
361.349 148.727 L
361.995 148.429 L
362 148.429 L
362.663 148.035 L
362.668 148.034 L
363.331 147.689 L
363.336 147.689 L
363.342 147.689 L
363.999 147.343 L
364.004 147.342 L
364.667 147.086 L
364.672 147.085 L
365.329 146.872 L
365.334 146.872 L
365.997 146.546 L
366.002 146.547 L
366.665 146.061 L
366.67 146.055 L
366.687 146.059 L
367.333 145.685 L
367.338 145.684 L
367.99 145.316 L
367.995 145.364 L
368.001 145.346 L
368.663 145.033 L
368.668 145.032 L
369.331 144.796 L
369.336 144.796 L
369.999 144.494 L
370.004 144.49 L
370.661 144.122 L
370.667 144.121 L
371.329 143.732 L
371.335 143.728 L
371.997 143.286 L
372.003 143.278 L
372.665 142.936 L
372.67 142.935 L
373.333 142.569 L
373.338 142.568 L
373.995 142.274 L
374.001 142.275 L
374.663 141.878 L
374.669 141.874 L
375.331 141.421 L
375.337 141.406 L
375.999 141.034 L
376.004 141.033 L
376.661 140.844 L
376.667 140.843 L
377.329 140.561 L
377.335 140.556 L
377.997 140.303 L
378.003 140.303 L
378.66 139.996 L
378.665 139.996 L
378.671 139.995 L
379.333 139.775 L
379.338 139.775 L
379.99 139.517 L
379.995 139.517 L
380.001 139.515 L
380.006 139.547 L
380.663 139.178 L
380.669 139.17 L
381.331 138.903 L
381.337 138.903 L
381.988 138.559 L
381.999 138.562 L
382.005 138.563 L
382.662 138.261 L
382.667 138.26 L
383.319 137.955 L
383.329 137.981 L
383.335 137.979 L
383.34 137.982 L
383.997 137.737 L
384.003 137.731 L
384.644 137.444 L
384.665 137.448 L
384.671 137.448 L
384.698 137.46 L
385.311 137.14 L
385.333 137.153 L
385.339 137.153 L
385.366 137.155 L
385.996 136.921 L
386.001 136.921 L
386.104 136.925 L
386.642 136.712 L
386.664 136.73 L
386.669 136.73 L
387.331 136.472 L
387.337 136.471 L
387.999 136.263 L
388.005 136.263 L
388.656 135.804 L
388.662 135.806 L
388.667 135.806 L
389.33 135.385 L
389.335 135.384 L
389.346 135.392 L
389.998 135.044 L
390.003 135.044 L
390.633 134.879 L
390.665 134.888 L
390.671 134.884 L
391.328 134.299 L
391.333 134.299 L
391.339 134.304 L
391.996 133.988 L
392.001 133.986 L
392.598 133.653 L
392.664 133.676 L
392.669 133.674 L
393.332 133.433 L
393.337 133.412 L
393.94 133.216 L
393.999 133.249 L
394.005 133.248 L
394.662 133.113 L
394.667 133.113 L
395.33 132.768 L
395.335 132.767 L
395.368 132.769 L
395.998 132.47 L
396.003 132.47 L
396.666 132.157 L
396.671 132.157 L
397.328 131.854 L
397.333 131.853 L
397.344 131.88 L
397.996 131.619 L
398.001 131.623 L
398.664 131.373 L
398.669 131.372 L
398.718 131.373 L
399.332 131.222 L
399.337 131.221 L
400 131.015 L
400.005 131.015 L
400.602 130.689 L
400.662 130.691 L
400.667 130.691 L
400.705 130.708 L
401.33 130.418 L
401.335 130.414 L
401.998 130.105 L
402.003 130.105 L
402.66 129.861 L
402.666 129.861 L
402.671 129.856 L
403.263 129.666 L
403.328 129.688 L
403.334 129.688 L
403.996 129.46 L
404.001 129.46 L
404.012 129.46 L
404.642 129.253 L
404.664 129.254 L
404.669 129.254 L
405.332 129.058 L
405.337 129.055 L
405.348 129.059 L
405.994 128.752 L
406 128.753 L
406.005 128.75 L
406.038 128.77 L
406.64 128.431 L
406.662 128.433 L
406.668 128.433 L
407.33 128.183 L
407.336 128.178 L
407.998 127.96 L
408.003 127.96 L
408.666 127.562 L
408.671 127.562 L
409.307 127.425 L
409.328 127.453 L
409.334 127.451 L
409.996 127.055 L
410.002 127.054 L
410.659 126.818 L
410.664 126.85 L
410.67 126.837 L
411.251 126.608 L
411.332 126.612 L
411.337 126.612 L
411.343 126.614 L
411.94 126.38 L
412 126.386 L
412.005 126.382 L
412.662 126.052 L
412.668 126.05 L
413.33 125.743 L
413.336 125.743 L
413.998 125.453 L
414.004 125.453 L
414.666 125.257 L
414.671 125.257 L
415.328 124.964 L
415.334 124.966 L
415.377 124.97 L
415.996 124.669 L
416.002 124.668 L
416.664 124.376 L
416.67 124.37 L
416.675 124.37 L
417.332 124.09 L
417.338 124.087 L
417.995 123.924 L
418 123.925 L
418.119 123.937 L
418.624 123.738 L
418.662 123.767 L
418.668 123.764 L
419.33 123.373 L
419.336 123.373 L
419.358 123.377 L
419.998 123.042 L
420.004 123.042 L
420.666 122.876 L
420.672 122.873 L
421.329 122.566 L
421.334 122.562 L
421.997 122.281 L
422.002 122.28 L
422.664 121.934 L
422.67 121.93 L
422.675 121.93 L
423.332 121.654 L
423.338 121.654 L
423.995 121.337 L
424 121.313 L
424.065 121.315 L
424.663 121.099 L
424.668 121.098 L
425.32 120.896 L
425.331 120.898 L
425.336 120.897 L
425.998 120.538 L
426.004 120.535 L
426.655 120.333 L
426.666 120.334 L
426.672 120.334 L
426.677 120.379 L
427.329 120.163 L
427.334 120.162 L
427.35 120.225 L
427.997 120.049 L
428.002 120.048 L
428.665 119.863 L
428.67 119.86 L
429.311 119.613 L
429.332 119.624 L
429.338 119.622 L
429.995 119.485 L
430 119.481 L
430.663 119.256 L
430.668 119.255 L
431.228 119.118 L
431.331 119.133 L
431.336 119.133 L
431.999 118.903 L
432.004 118.9 L
432.02 118.901 L
432.661 118.709 L
432.666 118.71 L
432.672 118.708 L
432.704 118.711 L
433.329 118.521 L
433.334 118.522 L
433.991 118.235 L
433.997 118.236 L
434.002 118.236 L
434.529 118.052 L
434.665 118.054 L
434.67 118.033 L
435.333 117.744 L
435.338 117.731 L
435.343 117.731 L
435.995 117.422 L
436 117.424 L
436.663 117.274 L
436.668 117.272 L
437.325 116.947 L
437.331 116.947 L
437.336 116.947 L
437.434 116.96 L
437.999 116.736 L
438.004 116.729 L
438.667 116.472 L
438.672 116.47 L
438.677 116.474 L
439.324 116.321 L
439.329 116.326 L
439.335 116.323 L
439.378 116.375 L
439.997 116.123 L
440.002 116.123 L
440.03 116.128 L
440.48 115.952 L
440.665 115.961 L
440.67 115.959 L
441.333 115.679 L
441.338 115.675 L
441.995 115.438 L
442.001 115.438 L
442.663 115.308 L
442.669 115.307 L
443.331 115.158 L
443.336 115.157 L
443.999 115.018 L
444.004 115.017 L
444.064 115.053 L
444.661 114.855 L
444.667 114.856 L
444.688 114.874 L
445.291 114.732 L
445.329 114.737 L
445.335 114.736 L
445.997 114.51 L
446.003 114.51 L
446.008 114.51 L
446.649 114.258 L
446.665 114.269 L
446.67 114.266 L
447.333 113.969 L
447.338 113.969 L
447.979 113.818 L
447.995 113.819 L
448.001 113.815 L
448.061 113.866 L
448.663 113.623 L
448.669 113.622 L
449.331 113.46 L
449.337 113.459 L
449.353 113.465 L
449.972 113.123 L
449.999 113.141 L
450.004 113.141 L
450.661 112.92 L
450.667 112.918 L
451.264 112.722 L
451.329 112.726 L
451.335 112.723 L
451.34 112.723 L
451.992 112.51 L
451.997 112.512 L
452.003 112.506 L
452.665 112.358 L
452.671 112.357 L
453.241 112.158 L
453.333 112.225 L
453.338 112.224 L
453.99 112.073 L
453.996 112.073 L
454.001 112.07 L
454.663 111.96 L
454.669 111.96 L
455.331 111.701 L
455.337 111.701 L
455.999 111.555 L
456.005 111.555 L
456.032 111.58 L
456.662 111.458 L
456.667 111.457 L
456.705 111.459 L
457.297 111.324 L
457.33 111.331 L
457.335 111.328 L
457.997 111.01 L
458.003 111 L
458.063 111.001 L
458.665 110.887 L
458.671 110.887 L
459.333 110.731 L
459.339 110.727 L
459.996 110.619 L
460.001 110.614 L
460.332 110.64 L
460.664 110.506 L
460.669 110.507 L
460.756 110.593 L
461.331 110.327 L
461.337 110.325 L
461.999 110.07 L
462.005 110.07 L
462.64 109.876 L
462.662 109.877 L
462.667 109.877 L
462.716 109.884 L
463.232 109.776 L
463.33 109.782 L
463.335 109.781 L
463.998 109.571 L
464.003 109.569 L
464.198 109.58 L
464.622 109.457 L
464.665 109.459 L
464.671 109.459 L
465.328 109.253 L
465.333 109.251 L
465.344 109.308 L
465.909 109.12 L
465.996 109.122 L
466.001 109.119 L
466.658 108.977 L
466.664 108.978 L
466.669 108.996 L
467.332 108.844 L
467.337 108.842 L
467.983 108.581 L
467.999 108.584 L
468.005 108.585 L
468.662 108.401 L
468.667 108.401 L
469.319 108.215 L
469.33 108.232 L
469.335 108.232 L
469.352 108.234 L
469.998 108.109 L
470.003 108.109 L
470.052 108.142 L
470.666 108.033 L
470.671 108.032 L
471.328 107.849 L
471.333 107.849 L
471.355 107.849 L
471.996 107.632 L
472.001 107.631 L
472.648 107.461 L
472.664 107.465 L
472.669 107.462 L
472.696 107.466 L
473.332 107.232 L
473.337 107.231 L
473.413 107.239 L
474 107.116 L
474.005 107.116 L
474.228 107.139 L
474.646 106.978 L
474.662 106.979 L
474.668 106.979 L
474.798 106.999 L
475.33 106.8 L
475.335 106.797 L
475.515 106.81 L
475.998 106.621 L
476.003 106.62 L
476.666 106.481 L
476.671 106.481 L
477.187 106.283 L
477.328 106.287 L
477.334 106.284 L
477.996 106.065 L
478.002 106.065 L
478.577 105.827 L
478.664 105.869 L
478.669 105.868 L
479.299 105.627 L
479.332 105.634 L
479.337 105.634 L
479.978 105.504 L
480 105.51 L
480.005 105.507 L
480.662 105.296 L
480.668 105.296 L
480.869 105.314 L
481.33 105.187 L
481.336 105.183 L
481.955 104.931 L
481.998 104.951 L
482.003 104.951 L
482.09 104.954 L
482.666 104.791 L
482.671 104.793 L
482.736 104.795 L
483.328 104.687 L
483.334 104.686 L
483.996 104.447 L
484.002 104.447 L
484.664 104.222 L
484.67 104.22 L
484.751 104.223 L
485.332 104.097 L
485.337 104.096 L
485.994 103.927 L
486 103.927 L
486.005 103.927 L
486.652 103.776 L
486.662 103.787 L
486.668 103.785 L
487.33 103.541 L
487.336 103.541 L
487.341 103.542 L
487.993 103.435 L
487.998 103.435 L
488.004 103.435 L
488.074 103.439 L
488.644 103.249 L
488.666 103.254 L
488.671 103.254 L
489.329 103.072 L
489.334 103.07 L
489.996 102.891 L
490.002 102.892 L
490.501 102.787 L
490.664 102.808 L
490.67 102.808 L
491.332 102.581 L
491.338 102.579 L
491.577 102.595 L
491.995 102.415 L
492 102.412 L
492.005 102.412 L
492.451 102.292 L
492.663 102.307 L
492.668 102.306 L
493.309 102.145 L
493.33 102.147 L
493.336 102.201 L
493.993 101.97 L
493.998 101.97 L
494.004 101.97 L
494.025 101.972 L
494.666 101.88 L
494.672 101.88 L
494.807 101.932 L
495.296 101.777 L
495.329 101.78 L
495.334 101.767 L
495.997 101.665 L
496.002 101.664 L
496.024 101.703 L
496.664 101.426 L
496.67 101.425 L
496.844 101.474 L
497.332 101.255 L
497.338 101.257 L
497.349 101.26 L
497.94 101.104 L
497.995 101.106 L
498 101.108 L
498.017 101.12 L
498.663 100.954 L
498.668 100.953 L
499.331 100.833 L
499.336 100.834 L
499.998 100.63 L
500.004 100.627 L
500.639 100.48 L
500.666 100.483 L
500.672 100.482 L
500.927 100.508 L
501.329 100.385 L
501.334 100.385 L
501.991 100.185 L
501.997 100.185 L
502.002 100.184 L
502.029 100.184 L
502.648 100.023 L
502.665 100.024 L
502.67 100.023 L
503.332 99.855 L
503.338 99.855 L
503.577 99.89 L
503.99 99.839 L
503.995 99.843 L
504 99.84 L
504.038 99.841 L
504.641 99.64 L
504.663 99.644 L
504.668 99.643 L
505.325 99.445 L
505.331 99.445 L
505.336 99.444 L
505.999 99.273 L
506.004 99.271 L
506.667 99.069 L
506.672 99.069 L
506.867 99.096 L
507.329 99.019 L
507.334 99.021 L
507.383 99.042 L
507.997 98.817 L
508.002 98.817 L
508.171 98.841 L
508.665 98.726 L
508.67 98.726 L
509.333 98.601 L
509.338 98.598 L
509.343 98.598 L
509.887 98.418 L
509.995 98.419 L
510.001 98.416 L
510.457 98.3 L
510.663 98.361 L
510.668 98.361 L
510.685 98.363 L
511.315 98.154 L
511.331 98.17 L
511.336 98.168 L
511.358 98.169 L
511.999 98.056 L
512.004 98.059 L
512.015 98.065 L
512.656 97.919 L
512.667 97.924 L
512.672 97.923 L
513.324 97.701 L
513.329 97.701 L
513.335 97.702 L
513.34 97.703 L
513.937 97.572 L
513.997 97.594 L
514.002 97.601 L
514.013 97.644 L
514.665 97.452 L
514.67 97.452 L
514.703 97.523 L
515.246 97.331 L
515.333 97.349 L
515.338 97.348 L
515.995 97.158 L
516.001 97.155 L
516.223 97.178 L
516.663 97.092 L
516.669 97.091 L
516.707 97.128 L
517.331 97.007 L
517.336 97.007 L
517.999 96.862 L
518.004 96.863 L
518.113 96.88 L
518.656 96.702 L
518.661 96.704 L
518.667 96.7 L
519.329 96.523 L
519.335 96.523 L
519.622 96.461 L
519.921 96.578 L
519.997 96.544 L
520.003 96.541 L
520.301 96.45 L
520.665 96.486 L
520.67 96.475 L
521.295 96.375 L
521.333 96.377 L
521.338 96.381 L
521.344 96.389 L
521.974 96.271 L
521.995 96.273 L
522.001 96.273 L
522.023 96.283 L
522.663 96.112 L
522.669 96.109 L
522.777 96.136 L
523.315 95.978 L
523.331 95.979 L
523.337 95.979 L
523.994 95.852 L
523.999 95.852 L
524.005 95.851 L
524.569 95.717 L
524.661 95.734 L
524.667 95.707 L
524.7 95.727 L
525.324 95.643 L
525.329 95.643 L
525.335 95.642 L
525.384 95.642 L
525.997 95.502 L
526.003 95.502 L
526.008 95.502 L
526.584 95.354 L
526.665 95.363 L
526.671 95.363 L
527.246 95.151 L
527.333 95.154 L
527.339 95.154 L
527.496 95.164 L
527.996 95.048 L
528.001 95.048 L
528.028 95.054 L
528.642 94.903 L
528.663 94.904 L
528.669 94.903 L
528.68 94.905 L
529.32 94.745 L
529.331 94.747 L
529.337 94.745 L
529.353 94.745 L
529.733 94.604 L
529.999 94.632 L
530.005 94.636 L
530.292 94.661 L
530.662 94.589 L
530.667 94.589 L
530.694 94.589 L
531.281 94.525 L
531.33 94.533 L
531.335 94.533 L
531.981 94.385 L
531.997 94.39 L
532.003 94.389 L
532.616 94.309 L
532.665 94.323 L
532.671 94.323 L
532.725 94.343 L
533.317 94.192 L
533.333 94.193 L
533.339 94.192 L
533.996 94.068 L
534.001 94.065 L
534.664 93.89 L
534.669 93.89 L
534.674 93.89 L
535.331 93.697 L
535.337 93.697 L
535.999 93.545 L
536.005 93.545 L
536.037 93.547 L
536.656 93.376 L
536.662 93.377 L
536.667 93.377 L
537.292 93.206 L
537.33 93.231 L
537.335 93.231 L
537.373 93.232 L
537.97 93.107 L
537.998 93.108 L
538.003 93.135 L
538.513 93.082 L
538.665 93.094 L
538.671 93.094 L
538.845 93.116 L
539.323 92.995 L
539.328 92.996 L
539.333 92.993 L
539.366 92.998 L
539.99 92.847 L
539.996 92.867 L
540.001 92.853 L
540.653 92.76 L
540.664 92.761 L
540.669 92.76 L
541.31 92.573 L
541.332 92.574 L
541.337 92.573 L
541.896 92.347 L
542 92.403 L
542.005 92.403 L
542.483 92.349 L
542.553 92.435 L
542.662 92.399 L
542.667 92.399 L
543.33 92.254 L
543.335 92.254 L
543.362 92.258 L
543.992 92.092 L
543.998 92.092 L
544.003 92.093 L
544.666 91.995 L
544.671 91.995 L
544.725 91.997 L
545.328 91.833 L
545.334 91.831 L
545.372 91.895 L
545.963 91.628 L
545.996 91.665 L
546.001 91.664 L
546.186 91.668 L
546.648 91.555 L
546.664 91.556 L
546.669 91.555 L
546.696 91.559 L
547.332 91.472 L
547.337 91.468 L
547.381 91.473 L
547.994 91.124 L
548 91.125 L
548.005 91.122 L
548.662 91.026 L
548.668 91.022 L
549.042 91.033 L
549.33 90.993 L
549.335 90.992 L
549.504 91.058 L
549.992 90.92 L
549.998 90.933 L
550.003 90.933 L
550.492 90.791 L
550.666 90.821 L
550.671 90.821 L
550.704 90.834 L
551.285 90.763 L
551.328 90.788 L
551.334 90.788 L
551.41 90.79 L
551.996 90.655 L
552.002 90.655 L
552.007 90.656 L
552.648 90.507 L
552.664 90.508 L
552.669 90.508 L
552.925 90.51 L
553.326 90.477 L
553.332 90.482 L
553.337 90.464 L
553.609 90.475 L
554 90.292 L
554.005 90.292 L
554.619 90.162 L
554.662 90.17 L
554.668 90.17 L
555.33 90.111 L
555.336 90.111 L
555.461 90.141 L
555.987 90.015 L
555.998 90.015 L
556.003 90.015 L
556.226 90.036 L
556.508 89.953 L
556.666 89.96 L
556.671 89.96 L
556.747 89.967 L
557.328 89.768 L
557.334 89.77 L
557.339 89.77 L
557.871 89.594 L
557.996 89.602 L
558.002 89.601 L
558.045 89.649 L
558.664 89.507 L
558.67 89.507 L
558.713 89.514 L
559.332 89.425 L
559.338 89.425 L
559.397 89.486 L
560 89.34 L
560.005 89.342 L
560.619 89.27 L
560.662 89.294 L
560.668 89.286 L
560.673 89.298 L
561.33 89.194 L
561.336 89.195 L
561.39 89.219 L
561.998 89.051 L
562.004 89.049 L
562.509 88.986 L
562.514 89.062 L
562.666 89.013 L
562.672 89.012 L
562.78 89.032 L
563.263 88.982 L
563.329 88.984 L
563.334 88.983 L
563.996 88.847 L
564.002 88.848 L
564.192 88.859 L
564.664 88.777 L
564.67 88.778 L
565.262 88.644 L
565.332 88.652 L
565.338 88.652 L
565.349 88.652 L
565.995 88.482 L
566 88.481 L
566.011 88.482 L
566.663 88.437 L
566.668 88.436 L
566.777 88.484 L
567.227 88.382 L
567.33 88.412 L
567.336 88.41 L
567.374 88.429 L
567.971 88.319 L
567.998 88.324 L
568.004 88.324 L
568.172 88.361 L
568.547 88.287 L
568.666 88.305 L
568.672 88.304 L
569.323 88.2 L
569.329 88.2 L
569.334 88.199 L
569.464 88.208 L
569.66 88.165 L
569.997 88.17 L
570.002 88.167 L
570.664 88.07 L
570.67 88.068 L
571.332 88.004 L
571.338 88.004 L
571.343 88.029 L
571.903 87.909 L
571.995 87.913 L
572 87.909 L
572.663 87.868 L
572.668 87.868 L
573.016 87.811 L
573.032 87.87 L
573.331 87.815 L
573.336 87.815 L
573.694 87.827 L
573.982 87.685 L
573.998 87.691 L
574.004 87.691 L
574.666 87.609 L
574.672 87.581 L
574.742 87.582 L
575.22 87.473 L
575.329 87.484 L
575.334 87.484 L
575.405 87.529 L
575.959 87.374 L
575.997 87.376 L
576.002 87.377 L
576.024 87.38 L
576.627 87.239 L
576.665 87.265 L
576.67 87.256 L
576.681 87.26 L
577.333 87.129 L
577.338 87.129 L
577.403 87.147 L
577.968 87.015 L
577.995 87.029 L
578 87.029 L
578.017 87.03 L
578.663 86.872 L
578.668 86.87 L
578.869 86.878 L
579.32 86.833 L
579.331 86.834 L
579.336 86.835 L
579.342 86.835 L
579.971 86.689 L
579.999 86.69 L
580.004 86.69 L
580.286 86.744 L
580.552 86.669 L
580.667 86.677 L
580.672 86.677 L
581.329 86.509 L
581.334 86.512 L
581.351 86.512 L
581.997 86.409 L
582.002 86.375 L
582.008 86.376 L
582.665 86.175 L
582.67 86.174 L
582.676 86.174 L
583.322 86.007 L
583.333 86.009 L
583.338 86.009 L
583.425 86.051 L
583.8 85.958 L
583.995 85.989 L
584.001 85.989 L
584.663 85.852 L
584.668 85.85 L
584.864 85.885 L
585.331 85.771 L
585.336 85.771 L
585.999 85.734 L
586.004 85.734 L
586.433 85.601 L
586.661 85.617 L
586.667 85.615 L
586.949 85.589 L
586.954 85.649 L
587.329 85.611 L
587.335 85.611 L
587.954 85.492 L
587.997 85.495 L
588.002 85.495 L
588.008 85.496 L
588.665 85.384 L
588.67 85.384 L
588.936 85.404 L
589.333 85.313 L
589.338 85.311 L
589.979 85.187 L
589.995 85.188 L
590.001 85.187 L
590.017 85.188 L
590.641 85.064 L
590.663 85.111 L
590.669 85.112 L
590.701 85.117 L
591.233 85.047 L
591.331 85.055 L
591.336 85.055 L
591.787 85.024 L
591.994 85.113 L
591.999 85.113 L
592.004 85.113 L
592.075 85.049 L
592.661 85.08 L
592.667 85.084 L
593.302 84.821 L
593.329 84.822 L
593.335 84.82 L
593.373 84.812 L
593.872 84.889 L
593.997 84.836 L
594.003 84.835 L
594.654 84.655 L
594.665 84.655 L
594.671 84.653 L
594.785 84.655 L
595.159 84.584 L
595.333 84.599 L
595.338 84.595 L
595.387 84.638 L
595.995 84.53 L
596.001 84.53 L
596.566 84.441 L
596.663 84.444 L
596.669 84.443 L
597.331 84.389 L
597.337 84.389 L
597.999 84.235 L
598.005 84.234 L
598.243 84.249 L
598.656 84.183 L
598.662 84.2 L
598.667 84.194 L
599.329 84.009 L
599.335 84.008 L
599.976 83.931 L
599.997 83.967 L
600.003 83.97 L
600.312 83.987 L
600.66 83.945 L
600.665 83.945 L
600.671 83.944 L
600.687 83.945 L
601.328 83.845 L
601.333 83.848 L
601.339 83.846 L
601.686 83.853 L
601.876 83.793 L
601.996 83.807 L
602.001 83.807 L
602.175 83.749 L
602.229 83.828 L
602.663 83.752 L
602.669 83.752 L
603.288 83.525 L
603.331 83.526 L
603.337 83.525 L
603.342 83.526 L
603.999 83.387 L
604.005 83.387 L
604.662 83.182 L
604.667 83.182 L
605.33 82.975 L
605.335 82.975 L
605.438 82.958 L
605.731 83.017 L
605.997 82.973 L
606.003 82.972 L
606.09 82.98 L
606.454 82.802 L
606.665 82.803 L
606.671 82.801 L
606.714 82.801 L
607.322 82.664 L
607.333 82.671 L
607.339 82.671 L
607.947 82.68 L
607.99 82.624 L
607.996 82.624 L
608.001 82.623 L
608.023 82.63 L
608.658 82.489 L
608.664 82.493 L
608.669 82.493 L
608.951 82.496 L
609.315 82.411 L
609.331 82.416 L
609.337 82.416 L
609.408 82.416 L
609.999 82.322 L
610.005 82.322 L
610.021 82.347 L
610.58 82.169 L
610.662 82.171 L
610.667 82.171 L
611.254 82.086 L
611.33 82.101 L
611.335 82.101 L
611.351 82.102 L
611.998 82.028 L
612.003 82.028 L
612.057 82.032 L
612.666 81.982 L
612.671 81.981 L
612.676 81.981 L
613.219 81.905 L
613.328 81.923 L
613.333 81.926 L
613.35 81.935 L
613.882 81.766 L
613.996 81.773 L
614.001 81.773 L
614.289 81.716 L
614.664 81.739 L
614.669 81.739 L
614.908 81.777 L
615.147 81.721 L
615.332 81.755 L
615.337 81.755 L
615.44 81.797 L
616 81.691 L
616.005 81.691 L
616.086 81.695 L
616.635 81.609 L
616.662 81.61 L
616.667 81.605 L
617.205 81.56 L
617.33 81.561 L
617.335 81.561 L
617.493 81.484 L
617.998 81.5 L
618.003 81.5 L
618.666 81.286 L
618.671 81.281 L
618.698 81.323 L
619.328 81.168 L
619.334 81.167 L
619.98 81.052 L
619.996 81.055 L
620.001 81.056 L
620.007 81.067 L
620.637 81.002 L
620.664 81.003 L
620.669 81.003 L
620.941 81.039 L
621.332 80.965 L
621.337 80.965 L
621.462 80.952 L
621.62 80.993 L
622 80.965 L
622.005 80.965 L
622.445 80.866 L
622.662 80.904 L
622.668 80.904 L
622.733 80.972 L
623.325 80.87 L
623.33 80.873 L
623.336 80.873 L
623.439 80.921 L
623.878 80.819 L
623.998 80.82 L
624.003 80.82 L
624.02 80.82 L
624.617 80.921 L
624.666 80.881 L
624.671 80.881 L
625.073 80.699 L
625.328 80.734 L
625.334 80.734 L
625.73 80.775 L
625.974 80.655 L
625.996 80.657 L
626.002 80.657 L
626.132 80.657 L
626.539 80.562 L
626.664 80.589 L
626.669 80.588 L
627.299 80.468 L
627.332 80.47 L
627.337 80.47 L
628 80.331 L
628.005 80.331 L
628.06 80.333 L
628.662 80.208 L
628.668 80.21 L
629.33 80.127 L
629.336 80.127 L
629.792 80.055 L
629.955 80.147 L
629.998 80.134 L
630.004 80.135 L
630.666 80.069 L
630.671 80.069 L
631.035 80.102 L
631.193 80.045 L
631.328 80.09 L
631.334 80.09 L
631.388 80.092 L
631.888 80.026 L
631.996 80.034 L
632.002 80.034 L
632.013 80.034 L
632.664 79.932 L
632.67 79.901 L
632.876 79.915 L
633.31 79.847 L
633.332 79.849 L
633.338 79.849 L
633.739 79.764 L
633.995 79.809 L
634 79.808 L
S
GR
%%Trailer
%%Pages: 1
%%EOF
