%!PS-Adobe-3.0 EPSF-3.0
%%Creator: (MATLAB, The Mathworks, Inc. Version 9.3.0.713579 \(R2017b\). Operating System: Windows 7)
%%Title: fig/RBFN_600_5_500000_convergence.eps
%%CreationDate: 2018-05-06T11:30:45
%%Pages: (atend)
%%BoundingBox:    27     3   479   384
%%LanguageLevel: 3
%%EndComments
%%BeginProlog
%%BeginResource: procset (Apache XML Graphics Std ProcSet) 1.2 0
%%Version: 1.2 0
%%Copyright: (Copyright 2001-2003,2010 The Apache Software Foundation. License terms: http://www.apache.org/licenses/LICENSE-2.0)
/bd{bind def}bind def
/ld{load def}bd
/GR/grestore ld
/GS/gsave ld
/RM/rmoveto ld
/C/curveto ld
/t/show ld
/L/lineto ld
/ML/setmiterlimit ld
/CT/concat ld
/f/fill ld
/N/newpath ld
/S/stroke ld
/CC/setcmykcolor ld
/A/ashow ld
/cp/closepath ld
/RC/setrgbcolor ld
/LJ/setlinejoin ld
/GC/setgray ld
/LW/setlinewidth ld
/M/moveto ld
/re {4 2 roll M
1 index 0 rlineto
0 exch rlineto
neg 0 rlineto
cp } bd
/_ctm matrix def
/_tm matrix def
/BT { _ctm currentmatrix pop matrix _tm copy pop 0 0 moveto } bd
/ET { _ctm setmatrix } bd
/iTm { _ctm setmatrix _tm concat } bd
/Tm { _tm astore pop iTm 0 0 moveto } bd
/ux 0.0 def
/uy 0.0 def
/F {
  /Tp exch def
  /Tf exch def
  Tf findfont Tp scalefont setfont
  /cf Tf def  /cs Tp def
} bd
/ULS {currentpoint /uy exch def /ux exch def} bd
/ULE {
  /Tcx currentpoint pop def
  gsave
  newpath
  cf findfont cs scalefont dup
  /FontMatrix get 0 get /Ts exch def /FontInfo get dup
  /UnderlinePosition get Ts mul /To exch def
  /UnderlineThickness get Ts mul /Tt exch def
  ux uy To add moveto  Tcx uy To add lineto
  Tt setlinewidth stroke
  grestore
} bd
/OLE {
  /Tcx currentpoint pop def
  gsave
  newpath
  cf findfont cs scalefont dup
  /FontMatrix get 0 get /Ts exch def /FontInfo get dup
  /UnderlinePosition get Ts mul /To exch def
  /UnderlineThickness get Ts mul /Tt exch def
  ux uy To add cs add moveto Tcx uy To add cs add lineto
  Tt setlinewidth stroke
  grestore
} bd
/SOE {
  /Tcx currentpoint pop def
  gsave
  newpath
  cf findfont cs scalefont dup
  /FontMatrix get 0 get /Ts exch def /FontInfo get dup
  /UnderlinePosition get Ts mul /To exch def
  /UnderlineThickness get Ts mul /Tt exch def
  ux uy To add cs 10 mul 26 idiv add moveto Tcx uy To add cs 10 mul 26 idiv add lineto
  Tt setlinewidth stroke
  grestore
} bd
/QT {
/Y22 exch store
/X22 exch store
/Y21 exch store
/X21 exch store
currentpoint
/Y21 load 2 mul add 3 div exch
/X21 load 2 mul add 3 div exch
/X21 load 2 mul /X22 load add 3 div
/Y21 load 2 mul /Y22 load add 3 div
/X22 load /Y22 load curveto
} bd
/SSPD {
dup length /d exch dict def
{
/v exch def
/k exch def
currentpagedevice k known {
/cpdv currentpagedevice k get def
v cpdv ne {
/upd false def
/nullv v type /nulltype eq def
/nullcpdv cpdv type /nulltype eq def
nullv nullcpdv or
{
/upd true def
} {
/sametype v type cpdv type eq def
sametype {
v type /arraytype eq {
/vlen v length def
/cpdvlen cpdv length def
vlen cpdvlen eq {
0 1 vlen 1 sub {
/i exch def
/obj v i get def
/cpdobj cpdv i get def
obj cpdobj ne {
/upd true def
exit
} if
} for
} {
/upd true def
} ifelse
} {
v type /dicttype eq {
v {
/dv exch def
/dk exch def
/cpddv cpdv dk get def
dv cpddv ne {
/upd true def
exit
} if
} forall
} {
/upd true def
} ifelse
} ifelse
} if
} ifelse
upd true eq {
d k v put
} if
} if
} if
} forall
d length 0 gt {
d setpagedevice
} if
} bd
/RE { % /NewFontName [NewEncodingArray] /FontName RE -
  findfont dup length dict begin
  {
    1 index /FID ne
    {def} {pop pop} ifelse
  } forall
  /Encoding exch def
  /FontName 1 index def
  currentdict definefont pop
  end
} bind def
%%EndResource
%%BeginResource: procset (Apache XML Graphics EPS ProcSet) 1.0 0
%%Version: 1.0 0
%%Copyright: (Copyright 2002-2003 The Apache Software Foundation. License terms: http://www.apache.org/licenses/LICENSE-2.0)
/BeginEPSF { %def
/b4_Inc_state save def         % Save state for cleanup
/dict_count countdictstack def % Count objects on dict stack
/op_count count 1 sub def      % Count objects on operand stack
userdict begin                 % Push userdict on dict stack
/showpage { } def              % Redefine showpage, { } = null proc
0 setgray 0 setlinecap         % Prepare graphics state
1 setlinewidth 0 setlinejoin
10 setmiterlimit [ ] 0 setdash newpath
/languagelevel where           % If level not equal to 1 then
{pop languagelevel             % set strokeadjust and
1 ne                           % overprint to their defaults.
{false setstrokeadjust false setoverprint
} if
} if
} bd
/EndEPSF { %def
count op_count sub {pop} repeat            % Clean up stacks
countdictstack dict_count sub {end} repeat
b4_Inc_state restore
} bd
%%EndResource
%FOPBeginFontDict
%%IncludeResource: font Courier-Oblique
%%IncludeResource: font Courier-BoldOblique
%%IncludeResource: font Courier-Bold
%%IncludeResource: font ZapfDingbats
%%IncludeResource: font Symbol
%%IncludeResource: font Helvetica
%%IncludeResource: font Helvetica-Oblique
%%IncludeResource: font Helvetica-Bold
%%IncludeResource: font Helvetica-BoldOblique
%%IncludeResource: font Times-Roman
%%IncludeResource: font Times-Italic
%%IncludeResource: font Times-Bold
%%IncludeResource: font Times-BoldItalic
%%IncludeResource: font Courier
%FOPEndFontDict
%%BeginResource: encoding WinAnsiEncoding
/WinAnsiEncoding [
/.notdef /.notdef /.notdef /.notdef /.notdef
/.notdef /.notdef /.notdef /.notdef /.notdef
/.notdef /.notdef /.notdef /.notdef /.notdef
/.notdef /.notdef /.notdef /.notdef /.notdef
/.notdef /.notdef /.notdef /.notdef /.notdef
/.notdef /.notdef /.notdef /.notdef /.notdef
/.notdef /.notdef /space /exclam /quotedbl
/numbersign /dollar /percent /ampersand /quotesingle
/parenleft /parenright /asterisk /plus /comma
/hyphen /period /slash /zero /one
/two /three /four /five /six
/seven /eight /nine /colon /semicolon
/less /equal /greater /question /at
/A /B /C /D /E
/F /G /H /I /J
/K /L /M /N /O
/P /Q /R /S /T
/U /V /W /X /Y
/Z /bracketleft /backslash /bracketright /asciicircum
/underscore /quoteleft /a /b /c
/d /e /f /g /h
/i /j /k /l /m
/n /o /p /q /r
/s /t /u /v /w
/x /y /z /braceleft /bar
/braceright /asciitilde /bullet /Euro /bullet
/quotesinglbase /florin /quotedblbase /ellipsis /dagger
/daggerdbl /circumflex /perthousand /Scaron /guilsinglleft
/OE /bullet /Zcaron /bullet /bullet
/quoteleft /quoteright /quotedblleft /quotedblright /bullet
/endash /emdash /asciitilde /trademark /scaron
/guilsinglright /oe /bullet /zcaron /Ydieresis
/space /exclamdown /cent /sterling /currency
/yen /brokenbar /section /dieresis /copyright
/ordfeminine /guillemotleft /logicalnot /sfthyphen /registered
/macron /degree /plusminus /twosuperior /threesuperior
/acute /mu /paragraph /middot /cedilla
/onesuperior /ordmasculine /guillemotright /onequarter /onehalf
/threequarters /questiondown /Agrave /Aacute /Acircumflex
/Atilde /Adieresis /Aring /AE /Ccedilla
/Egrave /Eacute /Ecircumflex /Edieresis /Igrave
/Iacute /Icircumflex /Idieresis /Eth /Ntilde
/Ograve /Oacute /Ocircumflex /Otilde /Odieresis
/multiply /Oslash /Ugrave /Uacute /Ucircumflex
/Udieresis /Yacute /Thorn /germandbls /agrave
/aacute /acircumflex /atilde /adieresis /aring
/ae /ccedilla /egrave /eacute /ecircumflex
/edieresis /igrave /iacute /icircumflex /idieresis
/eth /ntilde /ograve /oacute /ocircumflex
/otilde /odieresis /divide /oslash /ugrave
/uacute /ucircumflex /udieresis /yacute /thorn
/ydieresis
] def
%%EndResource
%FOPBeginFontReencode
/Courier-Oblique findfont
dup length dict begin
  {1 index /FID ne {def} {pop pop} ifelse} forall
  /Encoding WinAnsiEncoding def
  currentdict
end
/Courier-Oblique exch definefont pop
/Courier-BoldOblique findfont
dup length dict begin
  {1 index /FID ne {def} {pop pop} ifelse} forall
  /Encoding WinAnsiEncoding def
  currentdict
end
/Courier-BoldOblique exch definefont pop
/Courier-Bold findfont
dup length dict begin
  {1 index /FID ne {def} {pop pop} ifelse} forall
  /Encoding WinAnsiEncoding def
  currentdict
end
/Courier-Bold exch definefont pop
/Helvetica findfont
dup length dict begin
  {1 index /FID ne {def} {pop pop} ifelse} forall
  /Encoding WinAnsiEncoding def
  currentdict
end
/Helvetica exch definefont pop
/Helvetica-Oblique findfont
dup length dict begin
  {1 index /FID ne {def} {pop pop} ifelse} forall
  /Encoding WinAnsiEncoding def
  currentdict
end
/Helvetica-Oblique exch definefont pop
/Helvetica-Bold findfont
dup length dict begin
  {1 index /FID ne {def} {pop pop} ifelse} forall
  /Encoding WinAnsiEncoding def
  currentdict
end
/Helvetica-Bold exch definefont pop
/Helvetica-BoldOblique findfont
dup length dict begin
  {1 index /FID ne {def} {pop pop} ifelse} forall
  /Encoding WinAnsiEncoding def
  currentdict
end
/Helvetica-BoldOblique exch definefont pop
/Times-Roman findfont
dup length dict begin
  {1 index /FID ne {def} {pop pop} ifelse} forall
  /Encoding WinAnsiEncoding def
  currentdict
end
/Times-Roman exch definefont pop
/Times-Italic findfont
dup length dict begin
  {1 index /FID ne {def} {pop pop} ifelse} forall
  /Encoding WinAnsiEncoding def
  currentdict
end
/Times-Italic exch definefont pop
/Times-Bold findfont
dup length dict begin
  {1 index /FID ne {def} {pop pop} ifelse} forall
  /Encoding WinAnsiEncoding def
  currentdict
end
/Times-Bold exch definefont pop
/Times-BoldItalic findfont
dup length dict begin
  {1 index /FID ne {def} {pop pop} ifelse} forall
  /Encoding WinAnsiEncoding def
  currentdict
end
/Times-BoldItalic exch definefont pop
/Courier findfont
dup length dict begin
  {1 index /FID ne {def} {pop pop} ifelse} forall
  /Encoding WinAnsiEncoding def
  currentdict
end
/Courier exch definefont pop
%FOPEndFontReencode
%%EndProlog
%%Page: 1 1
%%PageBoundingBox: 0 0 525 394
%%BeginPageSetup
[1 0 0 -1 0 394] CT
%%EndPageSetup
GS
[0.75 0 0 0.74971 0 0.39999] CT
N
0 0 M
700 0 L
700 525 L
0 525 L
0 0 L
cp
clip
1 GC
N
0 0 700 525 re
f
GR
GS
[0.75 0 0 0.74971 0 0.39999] CT
1 GC
N
0 0 700 525 re
f
GR
GS
[0.75 0 0 0.74971 0 0.39999] CT
1 GC
N
91 459 M
634 459 L
634 39 L
91 39 L
cp
f
GR
GS
[0.75 0 0 0.74971 0 0.39999] CT
0.873 GC
1 LJ
0.667 LW
N
91 459 M
91 39 L
S
GR
GS
[0.75 0 0 0.74971 0 0.39999] CT
0.873 GC
1 LJ
0.667 LW
N
199.6 459 M
199.6 39 L
S
GR
GS
[0.75 0 0 0.74971 0 0.39999] CT
0.873 GC
1 LJ
0.667 LW
N
308.2 459 M
308.2 39 L
S
GR
GS
[0.75 0 0 0.74971 0 0.39999] CT
0.873 GC
1 LJ
0.667 LW
N
416.8 459 M
416.8 39 L
S
GR
GS
[0.75 0 0 0.74971 0 0.39999] CT
0.873 GC
1 LJ
0.667 LW
N
525.4 459 M
525.4 39 L
S
GR
GS
[0.75 0 0 0.74971 0 0.39999] CT
0.873 GC
1 LJ
0.667 LW
N
634 459 M
634 39 L
S
GR
GS
[0.75 0 0 0.74971 0 0.39999] CT
0.873 GC
1 LJ
0.667 LW
N
634 459 M
91 459 L
S
GR
GS
[0.75 0 0 0.74971 0 0.39999] CT
0.873 GC
1 LJ
0.667 LW
N
634 412.333 M
91 412.333 L
S
GR
GS
[0.75 0 0 0.74971 0 0.39999] CT
0.873 GC
1 LJ
0.667 LW
N
634 365.667 M
91 365.667 L
S
GR
GS
[0.75 0 0 0.74971 0 0.39999] CT
0.873 GC
1 LJ
0.667 LW
N
634 319 M
91 319 L
S
GR
GS
[0.75 0 0 0.74971 0 0.39999] CT
0.873 GC
1 LJ
0.667 LW
N
634 272.333 M
91 272.333 L
S
GR
GS
[0.75 0 0 0.74971 0 0.39999] CT
0.873 GC
1 LJ
0.667 LW
N
634 225.667 M
91 225.667 L
S
GR
GS
[0.75 0 0 0.74971 0 0.39999] CT
0.873 GC
1 LJ
0.667 LW
N
634 179 M
91 179 L
S
GR
GS
[0.75 0 0 0.74971 0 0.39999] CT
0.873 GC
1 LJ
0.667 LW
N
634 132.333 M
91 132.333 L
S
GR
GS
[0.75 0 0 0.74971 0 0.39999] CT
0.873 GC
1 LJ
0.667 LW
N
634 85.667 M
91 85.667 L
S
GR
GS
[0.75 0 0 0.74971 0 0.39999] CT
0.873 GC
1 LJ
0.667 LW
N
634 39 M
91 39 L
S
GR
GS
[0.75 0 0 0.74971 0 0.39999] CT
0.149 GC
2 setlinecap
1 LJ
0.667 LW
N
91 459 M
634 459 L
S
GR
GS
[0.75 0 0 0.74971 0 0.39999] CT
0.149 GC
2 setlinecap
1 LJ
0.667 LW
N
91 39 M
634 39 L
S
GR
GS
[0.75 0 0 0.74971 0 0.39999] CT
0.149 GC
2 setlinecap
1 LJ
0.667 LW
N
91 459 M
91 453.57 L
S
GR
GS
[0.75 0 0 0.74971 0 0.39999] CT
0.149 GC
2 setlinecap
1 LJ
0.667 LW
N
199.6 459 M
199.6 453.57 L
S
GR
GS
[0.75 0 0 0.74971 0 0.39999] CT
0.149 GC
2 setlinecap
1 LJ
0.667 LW
N
308.2 459 M
308.2 453.57 L
S
GR
GS
[0.75 0 0 0.74971 0 0.39999] CT
0.149 GC
2 setlinecap
1 LJ
0.667 LW
N
416.8 459 M
416.8 453.57 L
S
GR
GS
[0.75 0 0 0.74971 0 0.39999] CT
0.149 GC
2 setlinecap
1 LJ
0.667 LW
N
525.4 459 M
525.4 453.57 L
S
GR
GS
[0.75 0 0 0.74971 0 0.39999] CT
0.149 GC
2 setlinecap
1 LJ
0.667 LW
N
634 459 M
634 453.57 L
S
GR
GS
[0.75 0 0 0.74971 0 0.39999] CT
0.149 GC
2 setlinecap
1 LJ
0.667 LW
N
91 39 M
91 44.43 L
S
GR
GS
[0.75 0 0 0.74971 0 0.39999] CT
0.149 GC
2 setlinecap
1 LJ
0.667 LW
N
199.6 39 M
199.6 44.43 L
S
GR
GS
[0.75 0 0 0.74971 0 0.39999] CT
0.149 GC
2 setlinecap
1 LJ
0.667 LW
N
308.2 39 M
308.2 44.43 L
S
GR
GS
[0.75 0 0 0.74971 0 0.39999] CT
0.149 GC
2 setlinecap
1 LJ
0.667 LW
N
416.8 39 M
416.8 44.43 L
S
GR
GS
[0.75 0 0 0.74971 0 0.39999] CT
0.149 GC
2 setlinecap
1 LJ
0.667 LW
N
525.4 39 M
525.4 44.43 L
S
GR
GS
[0.75 0 0 0.74971 0 0.39999] CT
0.149 GC
2 setlinecap
1 LJ
0.667 LW
N
634 39 M
634 44.43 L
S
GR
GS
[0.75 0 0 0.74971 68.25 349.51694] CT
0.149 GC
/Helvetica 20 F
GS
[1 0 0 1 0 0] CT
-6 21 moveto 
1 -1 scale
(0) t 
GR
GR
GS
[0.75 0 0 0.74971 149.7 349.51694] CT
0.149 GC
/Helvetica 20 F
GS
[1 0 0 1 0 0] CT
-6 21 moveto 
1 -1 scale
(1) t 
GR
GR
GS
[0.75 0 0 0.74971 231.15001 349.51694] CT
0.149 GC
/Helvetica 20 F
GS
[1 0 0 1 0 0] CT
-6 21 moveto 
1 -1 scale
(2) t 
GR
GR
GS
[0.75 0 0 0.74971 312.59999 349.51694] CT
0.149 GC
/Helvetica 20 F
GS
[1 0 0 1 0 0] CT
-6 21 moveto 
1 -1 scale
(3) t 
GR
GR
GS
[0.75 0 0 0.74971 394.05002 349.51694] CT
0.149 GC
/Helvetica 20 F
GS
[1 0 0 1 0 0] CT
-6 21 moveto 
1 -1 scale
(4) t 
GR
GR
GS
[0.75 0 0 0.74971 475.5 349.51694] CT
0.149 GC
/Helvetica 20 F
GS
[1 0 0 1 0 0] CT
-6 21 moveto 
1 -1 scale
(5) t 
GR
GR
GS
[0.75 0 0 0.74971 271.87518 370.00914] CT
0.149 GC
/Helvetica 22 F
GS
[1 0 0 1 0 0] CT
-48.5 23 moveto 
1 -1 scale
(Itterations) t 
GR
GR
GS
[0.75 0 0 0.74971 439.5 390.25143] CT
0.149 GC
N
2.938 -0.578 M
2.938 -0.734 3.031 -0.859 QT
7.203 -5 L
3.031 -9.156 L
2.938 -9.266 2.938 -9.422 QT
2.938 -9.578 3.055 -9.703 QT
3.172 -9.828 3.344 -9.828 QT
3.484 -9.828 3.641 -9.703 QT
7.781 -5.563 L
11.906 -9.703 L
12.078 -9.828 12.203 -9.828 QT
12.359 -9.828 12.477 -9.711 QT
12.594 -9.594 12.594 -9.422 QT
12.594 -9.266 12.5 -9.156 QT
8.344 -5 L
12.5 -0.859 L
12.594 -0.734 12.594 -0.578 QT
12.594 -0.406 12.477 -0.289 QT
12.359 -0.172 12.203 -0.172 QT
12.047 -0.172 11.906 -0.328 QT
7.781 -4.438 L
3.641 -0.328 L
3.5 -0.172 3.344 -0.172 QT
3.172 -0.172 3.055 -0.305 QT
2.938 -0.438 2.938 -0.578 QT
cp
f
GR
GS
[0.75 0 0 0.74971 451.5 390.25143] CT
0.149 GC
/Helvetica 20 F
GS
[1 0 0 1 0 0] CT
0 0 moveto 
1 -1 scale
(10) t 
GR
GR
GS
[0.75 0 0 0.74971 468.75 382.75429] CT
0.149 GC
/Helvetica 16 F
GS
[1 0 0 1 0 0] CT
0 0 moveto 
1 -1 scale
(5) t 
GR
GR
GS
[0.75 0 0 0.74971 0 0.39999] CT
0.149 GC
2 setlinecap
1 LJ
0.667 LW
N
91 459 M
91 39 L
S
GR
GS
[0.75 0 0 0.74971 0 0.39999] CT
0.149 GC
2 setlinecap
1 LJ
0.667 LW
N
634 459 M
634 39 L
S
GR
GS
[0.75 0 0 0.74971 0 0.39999] CT
0.149 GC
2 setlinecap
1 LJ
0.667 LW
N
91 459 M
96.43 459 L
S
GR
GS
[0.75 0 0 0.74971 0 0.39999] CT
0.149 GC
2 setlinecap
1 LJ
0.667 LW
N
91 412.333 M
96.43 412.333 L
S
GR
GS
[0.75 0 0 0.74971 0 0.39999] CT
0.149 GC
2 setlinecap
1 LJ
0.667 LW
N
91 365.667 M
96.43 365.667 L
S
GR
GS
[0.75 0 0 0.74971 0 0.39999] CT
0.149 GC
2 setlinecap
1 LJ
0.667 LW
N
91 319 M
96.43 319 L
S
GR
GS
[0.75 0 0 0.74971 0 0.39999] CT
0.149 GC
2 setlinecap
1 LJ
0.667 LW
N
91 272.333 M
96.43 272.333 L
S
GR
GS
[0.75 0 0 0.74971 0 0.39999] CT
0.149 GC
2 setlinecap
1 LJ
0.667 LW
N
91 225.667 M
96.43 225.667 L
S
GR
GS
[0.75 0 0 0.74971 0 0.39999] CT
0.149 GC
2 setlinecap
1 LJ
0.667 LW
N
91 179 M
96.43 179 L
S
GR
GS
[0.75 0 0 0.74971 0 0.39999] CT
0.149 GC
2 setlinecap
1 LJ
0.667 LW
N
91 132.333 M
96.43 132.333 L
S
GR
GS
[0.75 0 0 0.74971 0 0.39999] CT
0.149 GC
2 setlinecap
1 LJ
0.667 LW
N
91 85.667 M
96.43 85.667 L
S
GR
GS
[0.75 0 0 0.74971 0 0.39999] CT
0.149 GC
2 setlinecap
1 LJ
0.667 LW
N
91 39 M
96.43 39 L
S
GR
GS
[0.75 0 0 0.74971 0 0.39999] CT
0.149 GC
2 setlinecap
1 LJ
0.667 LW
N
634 459 M
628.57 459 L
S
GR
GS
[0.75 0 0 0.74971 0 0.39999] CT
0.149 GC
2 setlinecap
1 LJ
0.667 LW
N
634 412.333 M
628.57 412.333 L
S
GR
GS
[0.75 0 0 0.74971 0 0.39999] CT
0.149 GC
2 setlinecap
1 LJ
0.667 LW
N
634 365.667 M
628.57 365.667 L
S
GR
GS
[0.75 0 0 0.74971 0 0.39999] CT
0.149 GC
2 setlinecap
1 LJ
0.667 LW
N
634 319 M
628.57 319 L
S
GR
GS
[0.75 0 0 0.74971 0 0.39999] CT
0.149 GC
2 setlinecap
1 LJ
0.667 LW
N
634 272.333 M
628.57 272.333 L
S
GR
GS
[0.75 0 0 0.74971 0 0.39999] CT
0.149 GC
2 setlinecap
1 LJ
0.667 LW
N
634 225.667 M
628.57 225.667 L
S
GR
GS
[0.75 0 0 0.74971 0 0.39999] CT
0.149 GC
2 setlinecap
1 LJ
0.667 LW
N
634 179 M
628.57 179 L
S
GR
GS
[0.75 0 0 0.74971 0 0.39999] CT
0.149 GC
2 setlinecap
1 LJ
0.667 LW
N
634 132.333 M
628.57 132.333 L
S
GR
GS
[0.75 0 0 0.74971 0 0.39999] CT
0.149 GC
2 setlinecap
1 LJ
0.667 LW
N
634 85.667 M
628.57 85.667 L
S
GR
GS
[0.75 0 0 0.74971 0 0.39999] CT
0.149 GC
2 setlinecap
1 LJ
0.667 LW
N
634 39 M
628.57 39 L
S
GR
GS
[0.75 0 0 0.74971 63.25 344.51886] CT
0.149 GC
/Helvetica 20 F
GS
[1 0 0 1 0 0] CT
-12 8 moveto 
1 -1 scale
(0) t 
GR
GR
GS
[0.75 0 0 0.74971 63.25 309.5322] CT
0.149 GC
/Helvetica 20 F
GS
[1 0 0 1 0 0] CT
-23 8 moveto 
1 -1 scale
(10) t 
GR
GR
GS
[0.75 0 0 0.74971 63.25 274.54551] CT
0.149 GC
/Helvetica 20 F
GS
[1 0 0 1 0 0] CT
-23 8 moveto 
1 -1 scale
(20) t 
GR
GR
GS
[0.75 0 0 0.74971 63.25 239.55885] CT
0.149 GC
/Helvetica 20 F
GS
[1 0 0 1 0 0] CT
-23 8 moveto 
1 -1 scale
(30) t 
GR
GR
GS
[0.75 0 0 0.74971 63.25 204.5722] CT
0.149 GC
/Helvetica 20 F
GS
[1 0 0 1 0 0] CT
-23 8 moveto 
1 -1 scale
(40) t 
GR
GR
GS
[0.75 0 0 0.74971 63.25 169.58552] CT
0.149 GC
/Helvetica 20 F
GS
[1 0 0 1 0 0] CT
-23 8 moveto 
1 -1 scale
(50) t 
GR
GR
GS
[0.75 0 0 0.74971 63.25 134.59885] CT
0.149 GC
/Helvetica 20 F
GS
[1 0 0 1 0 0] CT
-23 8 moveto 
1 -1 scale
(60) t 
GR
GR
GS
[0.75 0 0 0.74971 63.25 99.61218] CT
0.149 GC
/Helvetica 20 F
GS
[1 0 0 1 0 0] CT
-23 8 moveto 
1 -1 scale
(70) t 
GR
GR
GS
[0.75 0 0 0.74971 63.25 64.62552] CT
0.149 GC
/Helvetica 20 F
GS
[1 0 0 1 0 0] CT
-23 8 moveto 
1 -1 scale
(80) t 
GR
GR
GS
[0.75 0 0 0.74971 63.25 29.63885] CT
0.149 GC
/Helvetica 20 F
GS
[1 0 0 1 0 0] CT
-23 8 moveto 
1 -1 scale
(90) t 
GR
GR
GS
[0 -0.74971 0.75 0 43 187.07871] CT
0.149 GC
/Helvetica 22 F
GS
[1 0 0 1 0 0] CT
-50.5 -5 moveto 
1 -1 scale
(Difference) t 
GR
GR
GS
[0.75 0 0 0.74971 162.75 22.89142] CT
/Helvetica-Bold 22 F
GS
[1 0 0 1 0 0] CT
0 0 moveto 
1 -1 scale
(Norm 2 distance from ) t 
GR
GR
GS
[0.75 0 0 0.74971 337.5 22.89142] CT
N
3.547 0.25 M
2.547 0.25 1.945 -0.484 QT
1.344 -1.219 1.109 -2.25 QT
0.875 -3.281 0.875 -4.281 QT
0.875 -4.313 L
0.875 -5.406 1.086 -6.586 QT
1.297 -7.766 1.695 -8.945 QT
2.094 -10.125 2.563 -11.047 QT
2.875 -11.688 3.391 -12.484 QT
3.906 -13.281 4.531 -13.969 QT
5.156 -14.656 5.883 -15.086 QT
6.609 -15.516 7.344 -15.516 QT
7.375 -15.516 L
9.172 -15.516 9.703 -15.07 QT
10.234 -14.625 10.523 -13.938 QT
10.813 -13.25 10.938 -12.469 QT
11.063 -11.688 11.063 -10.984 QT
11.063 -9.313 10.609 -7.578 QT
10.156 -5.844 9.359 -4.219 QT
9.063 -3.609 8.531 -2.781 QT
8 -1.953 7.398 -1.297 QT
6.797 -0.641 6.055 -0.195 QT
5.313 0.25 3.563 0.25 QT
3.547 0.25 L
cp
3.594 -0.328 M
4.313 -0.328 4.984 -1.109 QT
5.656 -1.891 6.164 -3 QT
6.672 -4.109 7.055 -5.281 QT
7.438 -6.453 7.609 -7.266 QT
4.125 -7.266 L
3.781 -5.875 3.586 -4.875 QT
3.391 -3.875 3.391 -2.906 QT
3.391 -0.328 3.594 -0.328 QT
cp
4.297 -8.031 M
7.813 -8.031 L
8.047 -9 8.188 -9.648 QT
8.328 -10.297 8.422 -11.016 QT
8.516 -11.734 8.516 -12.359 QT
8.516 -14.938 7.344 -14.938 QT
6.953 -14.938 5.938 -12.688 QT
4.922 -10.438 4.297 -8.031 QT
cp
f
GR
GS
[0.75 0 0 0.74971 346.5 22.89142] CT
/Helvetica-Bold 22 F
GS
[1 0 0 1 0 0] CT
0 0 moveto 
1 -1 scale
( to 0) t 
GR
GR
GS
[0.75 0 0 0.74971 0 0.39999] CT
0 0.447 0.741 RC
1 LJ
2.667 LW
N
91.001 458.446 M
91.328 452.585 L
91.332 452.585 L
91.333 452.585 L
91.999 439.02 L
92 439.02 L
92.666 424.385 L
92.667 424.21 L
93.333 411.012 L
93.334 411.012 L
94 400.203 L
94.001 400.202 L
94.004 400.207 L
94.666 387.338 L
94.667 387.306 L
95.333 376.281 L
95.334 376.281 L
96 364.965 L
96.001 364.965 L
96.666 354.661 L
96.667 354.661 L
97.332 343.031 L
97.334 343.031 L
97.999 334.181 L
98 334.179 L
98.666 324.348 L
98.667 324.347 L
99.333 314.968 L
99.334 314.968 L
99.999 307.268 L
100 307.27 L
100.001 307.27 L
100.666 298.892 L
100.668 298.892 L
101.333 291.267 L
101.334 291.265 L
101.999 284.189 L
102 284.189 L
102.665 277.837 L
102.666 277.839 L
102.667 277.838 L
103.333 270.496 L
103.334 270.481 L
103.999 264.366 L
104.001 264.287 L
104.663 257.268 L
104.666 257.27 L
104.667 257.262 L
105.333 250.946 L
105.334 250.944 L
106 243.745 L
106.001 243.739 L
106.004 243.765 L
106.667 237.761 L
106.668 237.751 L
107.332 232.646 L
107.333 232.638 L
107.341 232.639 L
107.999 227.431 L
108 227.371 L
108.665 221.345 L
108.666 221.345 L
108.667 221.344 L
109.333 215.539 L
109.334 215.489 L
109.335 215.489 L
110 210.615 L
110.001 210.615 L
110.004 210.616 L
110.666 206.064 L
110.667 206.013 L
111.331 201.486 L
111.333 201.545 L
111.334 201.538 L
112 196.841 L
112.001 196.84 L
112.666 193.163 L
112.667 193.161 L
113.333 189.148 L
113.334 189.108 L
113.999 185.397 L
114 185.397 L
114.666 181.306 L
114.667 181.301 L
115.333 177.327 L
115.334 177.327 L
115.335 177.327 L
116 173.332 L
116.001 173.334 L
116.655 169.903 L
116.667 169.908 L
116.668 169.899 L
117.333 166.752 L
117.334 166.751 L
117.999 163.349 L
118 163.343 L
118.664 160.156 L
118.666 160.201 L
118.667 160.168 L
119.333 156.991 L
119.334 156.99 L
119.338 157.025 L
119.999 153.367 L
120.001 153.34 L
120.666 150.458 L
120.667 150.45 L
121.333 147.417 L
121.334 147.409 L
122 144.554 L
122.001 144.554 L
122.666 142.074 L
122.667 142.074 L
123.332 139.617 L
123.333 139.61 L
123.993 137.349 L
123.999 137.354 L
124 137.353 L
124.665 134.852 L
124.666 134.852 L
124.667 134.843 L
125.333 132.49 L
125.334 132.488 L
126 130.1 L
126.001 130.099 L
126.666 128.008 L
126.667 128.002 L
126.674 128.002 L
127.333 125.967 L
127.334 125.959 L
127.999 123.52 L
128 123.513 L
128.666 121.374 L
128.667 121.373 L
129.333 119.52 L
129.334 119.516 L
129.998 117.721 L
129.999 117.721 L
130 117.72 L
130.666 116.084 L
130.667 116.084 L
130.67 116.085 L
131.333 114.251 L
131.334 114.195 L
132 112.745 L
132.001 112.744 L
132.665 110.739 L
132.667 110.739 L
132.668 110.799 L
132.695 110.838 L
133.326 108.947 L
133.332 108.994 L
133.333 108.953 L
133.998 107.143 L
133.999 107.143 L
134 107.146 L
134.666 105.65 L
134.667 105.651 L
135.332 103.799 L
135.333 103.8 L
135.334 103.798 L
135.35 103.816 L
135.993 102.447 L
135.999 102.448 L
136.001 102.447 L
136.006 102.452 L
136.645 101.094 L
136.666 101.196 L
136.667 101.195 L
137.324 99.823 L
137.333 99.824 L
137.334 99.823 L
137.428 99.84 L
138 98.691 L
138.001 98.691 L
138.64 97.396 L
138.666 97.443 L
138.667 97.442 L
139.332 96.019 L
139.334 96.018 L
139.339 96.021 L
139.999 94.479 L
140 94.479 L
140.666 93.254 L
140.667 93.252 L
141.333 91.939 L
141.334 91.938 L
142 90.746 L
142.001 90.745 L
142.666 89.826 L
142.668 89.826 L
143.333 88.961 L
143.334 88.959 L
143.406 88.991 L
143.999 87.845 L
144 87.845 L
144.005 87.848 L
144.661 86.796 L
144.666 86.804 L
144.667 86.803 L
144.707 86.826 L
145.183 86.474 L
145.333 86.482 L
145.334 86.482 L
145.348 86.579 L
145.999 86.012 L
146 85.976 L
146.01 86.109 L
146.666 85.526 L
146.667 85.525 L
147.254 84.624 L
147.333 84.626 L
147.334 84.626 L
147.992 83.945 L
148 84.008 L
148.001 84.008 L
148.643 83.194 L
148.667 83.195 L
148.668 83.195 L
148.701 83.329 L
149.332 83.042 L
149.333 83.041 L
149.984 82.385 L
149.999 82.394 L
150 82.394 L
150.052 82.428 L
150.646 81.69 L
150.666 81.695 L
150.667 81.694 L
151.331 81.082 L
151.333 81.086 L
151.334 81.081 L
151.593 81.154 L
151.998 80.582 L
152 80.582 L
152.001 80.581 L
152.013 80.585 L
152.666 79.823 L
152.667 79.823 L
152.682 79.904 L
153.331 79.351 L
153.333 79.355 L
153.334 79.355 L
153.336 79.369 L
153.978 78.86 L
154 78.895 L
154.001 78.895 L
154.666 78.471 L
154.667 78.467 L
154.856 78.54 L
155.324 78.035 L
155.332 78.042 L
155.334 78.042 L
155.778 77.555 L
155.999 77.76 L
156 77.759 L
156.012 77.771 L
156.603 76.963 L
156.666 76.971 L
156.667 76.971 L
156.675 77.018 L
157.32 76.385 L
157.333 76.409 L
157.334 76.409 L
157.562 76.522 L
157.837 76.268 L
158 76.338 L
158.001 76.338 L
158.089 76.36 L
158.604 76.06 L
158.666 76.125 L
158.668 76.124 L
158.669 76.127 L
159.246 75.594 L
159.333 75.674 L
159.334 75.673 L
159.337 75.673 L
159.952 75.327 L
159.999 75.36 L
160 75.359 L
160.666 74.827 L
160.667 74.827 L
160.671 74.829 L
161.333 74.242 L
161.334 74.241 L
161.945 73.868 L
161.999 73.886 L
162.001 73.886 L
162.048 73.923 L
162.656 73.393 L
162.666 73.408 L
162.667 73.405 L
162.683 73.436 L
163.333 72.69 L
163.334 72.69 L
163.496 72.632 L
163.555 72.802 L
164 72.7 L
164.001 72.699 L
164.628 72.36 L
164.667 72.476 L
164.668 72.479 L
164.732 72.508 L
165.266 72.234 L
165.332 72.278 L
165.333 72.272 L
165.489 72.661 L
165.999 72.436 L
166 72.448 L
166.014 72.463 L
166.657 71.77 L
166.666 71.772 L
166.667 71.772 L
166.669 71.773 L
167.33 71.125 L
167.333 71.126 L
167.334 71.126 L
167.341 71.179 L
168 70.75 L
168.001 70.749 L
168.004 70.754 L
168.543 70.203 L
168.666 70.252 L
168.667 70.251 L
168.682 70.26 L
168.962 70.055 L
169.333 70.072 L
169.334 70.074 L
169.467 70.113 L
169.997 69.742 L
170 69.742 L
170.001 69.742 L
170.041 69.757 L
170.653 69.297 L
170.666 69.317 L
170.667 69.316 L
171.058 69.354 L
171.306 69.077 L
171.333 69.087 L
171.334 69.086 L
171.637 69.212 L
171.897 68.979 L
171.999 69.024 L
172 69.024 L
172.383 68.581 L
172.666 68.779 L
172.667 68.779 L
172.708 68.791 L
173.333 68.512 L
173.334 68.512 L
173.335 68.512 L
174 68.165 L
174.001 68.208 L
174.253 68.06 L
174.632 68.35 L
174.667 68.31 L
174.668 68.31 L
174.765 68.371 L
174.951 68.076 L
175.333 68.167 L
175.334 68.178 L
175.34 68.209 L
175.97 67.942 L
175.999 67.995 L
176 67.995 L
176.452 68.028 L
176.547 67.796 L
176.666 67.817 L
176.667 67.825 L
176.67 67.826 L
176.966 67.635 L
177.333 67.747 L
177.334 67.747 L
177.463 67.676 L
177.797 67.915 L
177.999 67.882 L
178.001 67.881 L
178.005 67.904 L
178.447 67.678 L
178.666 67.729 L
178.667 67.728 L
178.685 67.711 L
179.322 68.101 L
179.333 68.065 L
179.334 68.099 L
179.35 68.174 L
179.916 67.888 L
180 67.934 L
180.001 67.934 L
180.073 67.939 L
180.545 67.655 L
180.666 67.741 L
180.667 67.741 L
180.745 67.682 L
181.331 68.048 L
181.332 68.047 L
181.333 68.047 L
181.547 67.826 L
181.994 68.16 L
181.999 68.148 L
182 68.148 L
182.113 68.341 L
182.493 68.037 L
182.666 68.145 L
182.667 68.145 L
182.951 68.087 L
183.187 68.262 L
183.333 68.164 L
183.334 68.162 L
183.399 68.223 L
183.934 67.785 L
184 67.91 L
184.001 67.91 L
184.023 67.963 L
184.664 67.776 L
184.666 67.777 L
184.667 67.778 L
184.675 67.784 L
185.289 67.382 L
185.333 67.483 L
185.334 67.483 L
185.65 67.34 L
185.832 67.52 L
185.999 67.477 L
186 67.477 L
186.008 67.501 L
186.571 67.152 L
186.666 67.305 L
186.667 67.304 L
186.995 67.272 L
187.286 67.471 L
187.333 67.444 L
187.334 67.444 L
187.36 67.355 L
187.734 67.588 L
187.999 67.521 L
188 67.522 L
188.126 67.563 L
188.661 67.282 L
188.666 67.296 L
188.667 67.296 L
188.701 67.345 L
188.869 67.03 L
189.333 67.078 L
189.334 67.078 L
189.42 67.159 L
189.783 66.889 L
190 66.935 L
190.001 66.935 L
190.143 66.786 L
190.452 67 L
190.667 66.881 L
190.668 66.881 L
190.713 66.868 L
191.115 67.094 L
191.332 67.063 L
191.333 67.063 L
191.336 67.063 L
191.98 66.765 L
191.999 66.784 L
192 66.784 L
192.506 66.377 L
192.666 66.416 L
192.667 66.416 L
192.747 66.544 L
193.311 66.207 L
193.333 66.218 L
193.334 66.223 L
193.357 66.235 L
193.72 65.909 L
193.999 65.953 L
194.001 65.953 L
194.355 65.967 L
194.611 65.709 L
194.666 65.803 L
194.667 65.803 L
194.724 65.99 L
194.84 65.78 L
195.333 65.936 L
195.334 65.936 L
195.737 66.256 L
196 66.076 L
196.001 66.076 L
196.037 66.093 L
196.402 65.939 L
196.666 66.02 L
196.667 66.02 L
196.668 66.02 L
197.196 66.316 L
197.332 66.274 L
197.334 66.274 L
197.348 66.278 L
197.921 65.887 L
197.999 65.919 L
198 65.919 L
198.024 65.922 L
198.584 65.718 L
198.666 65.779 L
198.667 65.779 L
198.903 65.697 L
199.043 65.851 L
199.333 65.841 L
199.334 65.841 L
199.54 65.746 L
199.927 65.954 L
200 65.906 L
200.001 65.909 L
200.145 66.008 L
200.64 65.681 L
200.666 65.775 L
200.668 65.769 L
200.773 65.76 L
201.028 65.89 L
201.333 65.87 L
201.334 65.87 L
201.485 65.996 L
201.971 65.825 L
201.999 65.845 L
202 65.846 L
202.021 65.954 L
202.632 65.741 L
202.666 65.821 L
202.667 65.821 L
202.755 65.745 L
203.329 65.937 L
203.333 65.866 L
203.334 65.865 L
203.554 65.985 L
203.995 65.778 L
203.999 65.806 L
204 65.806 L
204.094 65.864 L
204.478 65.731 L
204.666 65.779 L
204.667 65.779 L
204.674 65.77 L
205.167 66.056 L
205.333 65.985 L
205.334 65.941 L
205.406 65.974 L
205.995 65.477 L
206 65.479 L
206.001 65.478 L
206.269 65.495 L
206.54 65.363 L
206.667 65.388 L
206.668 65.388 L
206.738 65.403 L
207.331 65.062 L
207.332 65.062 L
207.333 65.062 L
207.447 65.142 L
207.696 65.005 L
207.999 65.032 L
208 65.032 L
208.002 65.035 L
208.488 64.514 L
208.666 64.555 L
208.667 64.555 L
208.696 64.574 L
208.918 64.402 L
209.333 64.437 L
209.334 64.437 L
209.421 64.497 L
209.576 64.291 L
210 64.315 L
210.001 64.315 L
210.064 64.277 L
210.338 64.627 L
210.666 64.461 L
210.667 64.461 L
210.701 64.458 L
211.204 64.888 L
211.333 64.726 L
211.334 64.726 L
211.355 64.79 L
211.976 64.232 L
212 64.28 L
212.001 64.281 L
212.1 64.308 L
212.425 64.147 L
212.666 64.18 L
212.667 64.18 L
212.754 64.173 L
212.931 64.527 L
213.332 64.408 L
213.334 64.41 L
213.34 64.375 L
213.962 64.53 L
213.999 64.51 L
214 64.51 L
214.057 64.515 L
214.38 64.29 L
214.666 64.317 L
214.667 64.309 L
214.702 64.332 L
215.105 64.156 L
215.333 64.284 L
215.334 64.284 L
215.521 64.412 L
215.995 64.025 L
216 64.025 L
216.001 64.025 L
216.019 64.073 L
216.519 63.868 L
216.666 64.035 L
216.668 64.031 L
216.83 64.331 L
217.265 63.998 L
217.333 64.045 L
217.334 64.045 L
217.353 64.037 L
217.997 64.449 L
217.999 64.449 L
218 64.45 L
218.225 64.396 L
218.48 64.655 L
218.666 64.621 L
218.667 64.621 L
218.907 64.698 L
219.276 64.52 L
219.333 64.567 L
219.334 64.567 L
219.335 64.567 L
219.906 64.341 L
219.999 64.439 L
220.001 64.439 L
220.371 64.56 L
220.634 64.27 L
220.666 64.275 L
220.667 64.275 L
220.762 64.316 L
221.266 63.895 L
221.333 63.976 L
221.334 63.976 L
221.717 64.022 L
221.906 63.81 L
222 63.829 L
222.001 63.829 L
222.156 63.867 L
222.537 63.627 L
222.667 63.671 L
222.668 63.67 L
222.697 63.601 L
223.332 63.997 L
223.333 63.999 L
223.633 63.914 L
223.8 64.171 L
223.999 64.033 L
224 64.033 L
224.049 63.989 L
224.524 64.502 L
224.666 64.458 L
224.667 64.458 L
224.92 64.584 L
225.129 64.139 L
225.333 64.162 L
225.334 64.162 L
225.783 64.2 L
225.972 64.009 L
226 64.047 L
226.001 64.039 L
226.195 64.015 L
226.541 64.508 L
226.666 64.501 L
226.667 64.5 L
226.943 64.32 L
227.297 64.864 L
227.333 64.759 L
227.334 64.762 L
227.723 64.746 L
227.92 64.862 L
228 64.778 L
228.001 64.778 L
228.21 64.759 L
228.656 65.096 L
228.666 65.087 L
228.667 65.087 L
228.841 65.221 L
229.287 64.941 L
229.333 65.002 L
229.334 65.002 L
229.722 65.016 L
229.751 64.893 L
229.999 65.008 L
230 65.008 L
230.338 64.857 L
230.594 65.083 L
230.666 64.946 L
230.667 64.946 L
230.795 64.874 L
231.135 65.038 L
231.333 64.908 L
231.334 64.908 L
231.47 65.068 L
231.798 64.855 L
232 64.894 L
232.001 64.894 L
232.182 64.994 L
232.56 64.778 L
232.667 64.876 L
232.668 64.876 L
233.038 64.818 L
233.309 65.017 L
233.333 65.01 L
233.334 65.009 L
233.516 64.909 L
233.905 65.144 L
233.999 65.069 L
234 65.069 L
234.215 64.993 L
234.646 65.183 L
234.666 65.155 L
234.667 65.155 L
234.945 65.06 L
235.33 65.36 L
235.333 65.36 L
235.334 65.36 L
235.454 65.391 L
235.791 65.204 L
235.999 65.367 L
236.001 65.366 L
236.224 65.157 L
236.666 65.187 L
236.667 65.187 L
236.828 65.102 L
237.05 65.557 L
237.333 65.361 L
237.334 65.361 L
237.576 65.284 L
237.997 65.515 L
238 65.513 L
238.001 65.513 L
238.091 65.553 L
238.602 65.192 L
238.666 65.22 L
238.667 65.22 L
238.67 65.209 L
238.921 65.42 L
239.332 65.291 L
239.333 65.291 L
239.673 65.444 L
239.993 65.056 L
239.999 65.09 L
240 65.146 L
240.036 65.208 L
240.642 64.965 L
240.666 64.967 L
240.667 64.967 L
240.673 64.955 L
241.212 65.309 L
241.333 65.292 L
241.334 65.293 L
242 65.635 L
242.001 65.634 L
242.122 65.554 L
242.662 65.982 L
242.666 65.945 L
242.667 65.945 L
242.83 65.944 L
243.219 66.236 L
243.333 66.209 L
243.334 66.209 L
243.645 66.405 L
243.998 66.045 L
243.999 66.045 L
244 66.045 L
244.007 66.044 L
244.412 66.593 L
244.666 66.587 L
244.667 66.587 L
245.019 66.73 L
245.267 66.501 L
245.333 66.609 L
245.334 66.609 L
245.615 66.509 L
245.779 66.761 L
245.999 66.688 L
246 66.688 L
246.128 66.466 L
246.372 66.712 L
246.666 66.614 L
246.667 66.614 L
246.761 66.665 L
247.33 66.435 L
247.333 66.435 L
247.334 66.415 L
247.409 66.347 L
247.718 66.625 L
248 66.514 L
248.001 66.515 L
248.16 66.536 L
248.606 66.25 L
248.667 66.282 L
248.668 66.282 L
248.852 66.413 L
249.332 66.15 L
249.333 66.15 L
249.417 66.327 L
249.745 66.08 L
249.999 66.192 L
250 66.192 L
250.433 66.296 L
250.656 66.033 L
250.666 66.055 L
250.667 66.055 L
250.673 66.06 L
251.216 65.706 L
251.333 65.757 L
251.334 65.757 L
251.417 65.903 L
251.999 65.623 L
252.001 65.625 L
252.003 65.621 L
252.565 65.791 L
252.666 65.716 L
252.667 65.712 L
253.038 65.847 L
253.327 65.617 L
253.333 65.617 L
253.334 65.617 L
253.534 65.721 L
253.994 65.42 L
254 65.431 L
254.001 65.431 L
254.072 65.502 L
254.262 65.297 L
254.666 65.403 L
254.667 65.403 L
254.814 65.214 L
255.004 65.662 L
255.332 65.487 L
255.334 65.487 L
255.558 65.514 L
255.873 65.35 L
255.999 65.376 L
256 65.374 L
256.051 65.468 L
256.665 65.072 L
256.666 65.072 L
256.667 65.072 L
256.869 65.109 L
257.282 64.73 L
257.333 64.824 L
257.334 64.824 L
257.686 64.902 L
257.916 64.781 L
258 64.834 L
258.001 64.829 L
258.027 64.952 L
258.562 64.676 L
258.666 64.808 L
258.668 64.808 L
258.826 64.854 L
259.188 64.734 L
259.333 64.776 L
259.334 64.776 L
259.815 64.825 L
259.969 64.632 L
259.999 64.643 L
260 64.642 L
260.125 64.545 L
260.651 64.828 L
260.666 64.792 L
260.667 64.793 L
260.756 64.676 L
260.901 64.863 L
261.333 64.716 L
261.334 64.716 L
261.367 64.695 L
261.72 65.012 L
261.999 64.803 L
262 64.803 L
262.301 64.96 L
262.648 64.723 L
262.666 64.744 L
262.667 64.744 L
263.12 64.671 L
263.325 64.833 L
263.333 64.829 L
263.334 64.828 L
263.685 64.749 L
263.944 64.988 L
264 64.924 L
264.001 64.923 L
264.195 64.745 L
264.434 65.004 L
264.667 64.953 L
264.668 64.952 L
264.879 65.022 L
265.262 64.62 L
265.332 64.63 L
265.333 64.63 L
265.716 64.571 L
265.882 64.731 L
265.999 64.719 L
266 64.719 L
266.184 64.666 L
266.436 64.81 L
266.666 64.713 L
266.667 64.713 L
266.671 64.704 L
267.157 65 L
267.333 64.754 L
267.334 64.72 L
267.347 64.768 L
267.97 64.379 L
268 64.393 L
268.001 64.393 L
268.109 64.455 L
268.611 63.854 L
268.666 63.882 L
268.667 63.882 L
268.712 63.954 L
269.236 63.696 L
269.333 63.729 L
269.334 63.73 L
269.793 63.929 L
269.977 63.676 L
270 63.679 L
270.001 63.68 L
270.318 63.571 L
270.655 63.854 L
270.666 63.783 L
270.667 63.783 L
271.012 63.898 L
271.324 63.645 L
271.332 63.676 L
271.334 63.676 L
271.464 63.542 L
271.54 63.687 L
271.999 63.615 L
272 63.615 L
272.02 63.576 L
272.62 63.764 L
272.666 63.715 L
272.667 63.667 L
273.095 63.725 L
273.272 63.482 L
273.333 63.495 L
273.334 63.494 L
273.446 63.505 L
273.902 63.242 L
274 63.26 L
274.001 63.265 L
274.309 63.135 L
274.667 63.16 L
274.668 63.16 L
274.744 63.205 L
275.154 62.94 L
275.333 63.173 L
275.334 63.173 L
275.469 62.923 L
275.822 63.23 L
275.999 63.109 L
276 63.109 L
276.266 62.943 L
276.646 63.192 L
276.666 63.12 L
276.667 63.12 L
277.049 62.923 L
277.262 63.176 L
277.333 63.161 L
277.334 63.161 L
277.359 63.108 L
277.992 63.396 L
277.999 63.301 L
278.001 63.301 L
278.178 63.444 L
278.49 63.125 L
278.666 63.16 L
278.667 63.16 L
278.716 63.096 L
279.237 63.394 L
279.333 63.381 L
279.334 63.375 L
279.593 63.39 L
279.972 63.243 L
280 63.26 L
280.001 63.26 L
280.017 63.264 L
280.594 62.882 L
280.667 62.987 L
280.668 62.984 L
280.752 63.147 L
281.332 63.099 L
281.333 63.099 L
281.573 63.115 L
281.896 62.859 L
281.999 62.951 L
282 62.95 L
282.018 62.985 L
282.607 62.709 L
282.666 62.734 L
282.667 62.734 L
283.065 62.598 L
283.319 62.786 L
283.333 62.745 L
283.334 62.745 L
283.633 62.558 L
283.772 62.858 L
284 62.722 L
284.001 62.715 L
284.044 62.698 L
284.418 62.874 L
284.666 62.741 L
284.667 62.741 L
284.715 62.712 L
285.31 63.07 L
285.333 63.017 L
285.334 63.015 L
285.338 63.016 L
285.992 62.643 L
286 62.646 L
286.001 62.646 L
286.007 62.646 L
286.538 63.001 L
286.666 62.984 L
286.667 62.984 L
286.772 62.926 L
286.919 63.113 L
287.333 63.053 L
287.334 63 L
287.546 62.982 L
287.985 63.223 L
287.999 63.219 L
288 63.219 L
288.206 62.957 L
288.665 63.541 L
288.666 63.541 L
288.667 63.541 L
288.693 63.535 L
289.234 64.096 L
289.333 64.091 L
289.334 64.091 L
289.538 64.006 L
289.964 64.25 L
290 64.149 L
290.001 64.166 L
290.4 64.312 L
290.665 64.045 L
290.667 64.045 L
290.668 64.045 L
290.785 64.124 L
291.21 63.619 L
291.332 63.672 L
291.333 63.672 L
291.404 63.685 L
291.835 63.493 L
291.999 63.529 L
292 63.529 L
292.05 63.521 L
292.554 63.801 L
292.666 63.787 L
292.667 63.787 L
292.733 63.909 L
293.021 63.662 L
293.333 63.795 L
293.334 63.795 L
293.39 63.847 L
293.921 63.61 L
293.999 63.686 L
294.001 63.689 L
294.251 63.775 L
294.559 63.511 L
294.666 63.617 L
294.667 63.617 L
294.902 63.803 L
295.319 63.529 L
295.333 63.541 L
295.334 63.542 L
295.52 63.551 L
296 63.33 L
296.001 63.332 L
296.326 63.38 L
296.637 63.031 L
296.666 63.082 L
296.667 63.082 L
296.831 63.076 L
297.323 63.46 L
297.332 63.46 L
297.333 63.46 L
297.38 63.475 L
297.721 63.171 L
297.999 63.342 L
298 63.342 L
298.348 63.507 L
298.666 63.298 L
298.667 63.294 L
298.821 63.498 L
299.333 63.409 L
299.334 63.409 L
299.46 63.439 L
299.596 63.271 L
300 63.318 L
300.001 63.318 L
300.611 63.596 L
300.666 63.517 L
300.668 63.517 L
300.789 63.409 L
301.244 63.656 L
301.333 63.5 L
301.334 63.5 L
301.465 63.584 L
301.971 63.358 L
301.999 63.365 L
302 63.369 L
302.414 63.248 L
302.63 63.622 L
302.666 63.499 L
302.667 63.499 L
302.672 63.499 L
303.296 63.804 L
303.333 63.773 L
303.334 63.773 L
303.515 63.607 L
303.718 63.998 L
303.999 63.866 L
304 63.866 L
304.109 64.05 L
304.517 63.716 L
304.666 63.763 L
304.667 63.767 L
304.713 63.855 L
305.211 63.598 L
305.333 63.646 L
305.334 63.646 L
305.766 63.906 L
305.886 63.596 L
306 63.663 L
306.001 63.663 L
306.068 63.605 L
306.522 63.932 L
306.667 63.786 L
306.668 63.787 L
306.68 63.781 L
307.256 64.295 L
307.332 64.246 L
307.333 64.243 L
307.508 64.255 L
307.675 64.102 L
307.999 64.137 L
308 64.138 L
308.284 64.141 L
308.644 63.668 L
308.666 63.694 L
308.667 63.698 L
308.924 63.547 L
309.333 63.853 L
309.334 63.852 L
309.459 63.902 L
309.748 63.655 L
310 63.774 L
310.001 63.774 L
310.144 63.851 L
310.666 63.69 L
310.667 63.698 L
311.116 63.635 L
311.276 63.819 L
311.333 63.758 L
311.334 63.758 L
311.487 63.724 L
311.809 64.017 L
312 63.934 L
312.001 63.934 L
312.011 63.93 L
312.481 64.204 L
312.666 64.156 L
312.667 64.156 L
312.873 64.387 L
313.022 64.125 L
313.332 64.166 L
313.334 64.161 L
313.338 64.204 L
313.998 63.954 L
313.999 63.954 L
314 63.954 L
314.026 63.945 L
314.633 64.325 L
314.666 64.323 L
314.667 64.323 L
314.894 64.383 L
315.327 64.148 L
315.333 64.148 L
315.334 64.148 L
315.465 64.16 L
315.949 63.97 L
316 64.025 L
316.001 64.022 L
316.167 63.934 L
316.65 64.165 L
316.666 64.161 L
316.668 64.161 L
316.765 64.187 L
317.004 63.907 L
317.333 64.013 L
317.334 64.013 L
317.344 64.007 L
317.612 64.132 L
317.999 64.035 L
318 64.036 L
318.339 63.949 L
318.51 64.123 L
318.666 64.062 L
318.667 64.062 L
318.885 64 L
319.332 64.245 L
319.333 64.239 L
319.334 64.236 L
319.526 64.218 L
319.759 64.437 L
319.999 64.396 L
320 64.403 L
320.37 64.474 L
320.652 64.217 L
320.666 64.226 L
320.667 64.226 L
320.854 64.417 L
321.304 64.027 L
321.333 64.031 L
321.334 64.031 L
321.528 63.91 L
321.872 64.065 L
322 63.968 L
322.001 63.968 L
322.075 63.967 L
322.625 64.117 L
322.667 64.038 L
322.668 64.038 L
322.774 63.906 L
323.039 64.288 L
323.332 64.04 L
323.333 64.04 L
323.359 64.049 L
323.854 63.849 L
323.999 63.924 L
324 63.924 L
324.11 63.798 L
324.613 64.062 L
324.666 63.989 L
324.667 63.992 L
324.714 63.937 L
325.009 64.147 L
325.333 63.989 L
325.334 63.989 L
325.377 64.026 L
325.811 63.809 L
326 63.96 L
326.001 63.96 L
326.092 64.008 L
326.551 63.746 L
326.666 63.765 L
326.667 63.764 L
326.924 63.676 L
327.282 63.932 L
327.333 63.891 L
327.334 63.891 L
327.337 63.894 L
327.955 63.711 L
328 63.73 L
328.001 63.705 L
328.005 63.718 L
328.194 63.532 L
328.666 63.583 L
328.667 63.584 L
328.697 63.622 L
329.324 63.272 L
329.332 63.283 L
329.334 63.283 L
329.583 63.185 L
329.984 63.323 L
329.999 63.234 L
330 63.234 L
330.293 63.403 L
330.352 63.195 L
330.666 63.336 L
330.667 63.336 L
330.688 63.345 L
331.327 63.085 L
331.333 63.086 L
331.334 63.086 L
331.506 63.171 L
331.941 62.918 L
332 62.924 L
332.001 62.924 L
332.475 62.998 L
332.642 62.785 L
332.667 62.801 L
332.668 62.802 L
332.671 62.808 L
332.833 62.43 L
333.333 62.716 L
333.334 62.725 L
333.587 62.632 L
333.923 62.955 L
333.999 62.872 L
334 62.871 L
334.41 62.831 L
334.545 63.109 L
334.666 63.06 L
334.667 63.06 L
335.21 63.237 L
335.295 63.034 L
335.333 63.037 L
335.334 63.036 L
335.471 63.075 L
335.938 62.841 L
335.999 62.886 L
336.001 62.886 L
336.651 63.199 L
336.666 63.152 L
336.667 63.149 L
336.723 63.058 L
337.077 63.402 L
337.333 63.244 L
337.334 63.244 L
337.348 63.253 L
337.663 62.891 L
338 62.962 L
338.001 62.959 L
338.013 62.952 L
338.473 63.203 L
338.667 63.111 L
338.668 63.11 L
338.914 63.19 L
339.332 62.947 L
339.333 62.947 L
339.567 62.809 L
339.75 62.967 L
339.999 62.94 L
340 62.94 L
340.002 62.941 L
340.658 62.536 L
340.666 62.537 L
340.667 62.537 L
340.699 62.54 L
341.138 62.394 L
341.333 62.454 L
341.334 62.454 L
341.702 62.296 L
341.808 62.512 L
342 62.426 L
342.001 62.373 L
342.085 62.513 L
342.624 62.215 L
342.666 62.282 L
342.667 62.281 L
343.014 62.622 L
343.333 62.482 L
343.334 62.482 L
343.752 62.758 L
344 62.59 L
344.001 62.586 L
344.218 62.662 L
344.516 62.567 L
344.666 62.593 L
344.667 62.593 L
344.71 62.614 L
345.242 62.413 L
345.333 62.5 L
345.334 62.499 L
345.557 62.439 L
345.861 62.614 L
345.999 62.535 L
346 62.535 L
346.334 62.746 L
346.661 62.472 L
346.666 62.473 L
346.667 62.471 L
346.805 62.476 L
347.215 62.084 L
347.333 62.229 L
347.334 62.229 L
347.786 62.486 L
348 62.457 L
348.001 62.457 L
348.063 62.295 L
348.667 62.559 L
348.668 62.556 L
348.741 62.471 L
349.22 62.675 L
349.332 62.633 L
349.333 62.633 L
349.568 62.58 L
349.953 62.804 L
349.999 62.795 L
350 62.795 L
350.018 62.792 L
350.239 63.011 L
350.666 62.803 L
350.667 62.803 L
350.675 62.814 L
350.949 62.664 L
351.333 62.761 L
351.334 62.761 L
351.478 62.885 L
351.999 62.637 L
352.001 62.637 L
352.081 62.656 L
352.163 62.388 L
352.666 62.433 L
352.667 62.433 L
352.686 62.433 L
353.241 62.703 L
353.333 62.599 L
353.334 62.599 L
353.405 62.56 L
353.798 62.691 L
354 62.599 L
354.001 62.599 L
354.01 62.599 L
354.662 62.924 L
354.666 62.92 L
354.667 62.92 L
354.711 62.951 L
354.906 62.62 L
355.332 62.738 L
355.333 62.738 L
355.438 62.839 L
355.994 62.567 L
355.999 62.641 L
356 62.639 L
356.107 62.596 L
356.568 62.865 L
356.666 62.843 L
356.667 62.844 L
356.985 62.716 L
357.046 62.88 L
357.333 62.763 L
357.334 62.762 L
357.512 62.986 L
357.961 62.654 L
358 62.664 L
358.001 62.664 L
358.219 62.717 L
358.429 62.563 L
358.666 62.592 L
358.668 62.592 L
358.689 62.592 L
359.033 62.759 L
359.333 62.666 L
359.334 62.666 L
359.976 63.045 L
359.999 63.037 L
360 63.037 L
360.035 63.03 L
360.615 63.209 L
360.666 63.187 L
360.667 63.186 L
360.72 63.104 L
361.292 63.406 L
361.333 63.382 L
361.334 63.382 L
361.337 63.374 L
361.854 63.778 L
361.999 63.497 L
362 63.497 L
362.012 63.488 L
362.461 63.935 L
362.666 63.875 L
362.667 63.874 L
362.735 63.924 L
363.298 63.694 L
363.333 63.733 L
363.334 63.733 L
363.369 63.801 L
363.911 63.431 L
364 63.524 L
364.001 63.496 L
364.2 63.421 L
364.566 63.693 L
364.667 63.673 L
364.668 63.677 L
364.955 63.653 L
365.079 63.901 L
365.332 63.851 L
365.333 63.85 L
365.555 63.711 L
365.974 63.942 L
365.999 63.934 L
366 63.933 L
366.182 63.849 L
366.663 64.179 L
366.666 64.146 L
366.667 64.146 L
366.698 64.138 L
367.073 64.51 L
367.333 64.321 L
367.334 64.321 L
367.345 64.32 L
367.958 64.787 L
368 64.669 L
368.001 64.668 L
368.047 64.725 L
368.281 64.48 L
368.666 64.628 L
368.667 64.628 L
369.011 64.559 L
369.281 64.764 L
369.333 64.697 L
369.334 64.697 L
369.404 64.602 L
369.761 64.799 L
370 64.603 L
370.001 64.602 L
370.516 64.767 L
370.666 64.729 L
370.667 64.729 L
370.805 64.695 L
371.091 64.849 L
371.332 64.745 L
371.334 64.745 L
371.336 64.784 L
371.591 64.505 L
371.999 64.609 L
372 64.609 L
372.001 64.609 L
372.297 64.241 L
372.666 64.36 L
372.667 64.355 L
372.806 64.244 L
373.217 64.429 L
373.333 64.384 L
373.334 64.384 L
373.436 64.283 L
373.991 64.822 L
374 64.788 L
374.001 64.788 L
374.237 64.925 L
374.595 64.56 L
374.666 64.732 L
374.668 64.733 L
374.785 64.798 L
375.231 64.62 L
375.333 64.741 L
375.334 64.741 L
375.532 64.661 L
375.737 64.905 L
375.999 64.821 L
376 64.821 L
376.002 64.827 L
376.656 64.679 L
376.666 64.706 L
376.667 64.706 L
376.671 64.666 L
377.316 64.836 L
377.333 64.834 L
377.334 64.837 L
377.345 64.838 L
377.74 64.603 L
377.999 64.816 L
378 64.816 L
378.079 64.849 L
378.358 64.631 L
378.666 64.758 L
378.667 64.758 L
378.836 64.624 L
379.224 64.93 L
379.333 64.861 L
379.334 64.862 L
379.372 64.844 L
379.999 65.161 L
380 65.16 L
380.001 65.165 L
380.078 65.124 L
380.622 65.312 L
380.667 65.263 L
380.668 65.263 L
380.714 65.278 L
381.14 65.04 L
381.332 65.177 L
381.333 65.177 L
381.483 65.143 L
381.894 65.299 L
381.999 65.27 L
382 65.27 L
382.374 65.245 L
382.602 65.491 L
382.666 65.404 L
382.667 65.404 L
382.781 65.456 L
383.234 65.162 L
383.333 65.193 L
383.334 65.193 L
383.891 65.292 L
383.962 65.113 L
384 65.243 L
384.001 65.234 L
384.13 65.309 L
384.619 64.891 L
384.666 64.956 L
384.667 64.956 L
384.67 64.956 L
385.299 64.615 L
385.333 64.637 L
385.334 64.637 L
385.5 64.646 L
385.987 64.437 L
386 64.48 L
386.001 64.47 L
386.012 64.542 L
386.525 63.952 L
386.666 64.013 L
386.667 64.013 L
386.877 64.183 L
387.085 63.959 L
387.332 64.106 L
387.334 64.11 L
387.657 64.016 L
387.923 64.234 L
387.999 64.136 L
388 64.134 L
388.338 64.249 L
388.654 64.011 L
388.666 64.013 L
388.667 64.013 L
388.787 63.999 L
389.225 64.517 L
389.333 64.449 L
389.334 64.449 L
389.475 64.419 L
389.786 64.72 L
390 64.564 L
390.001 64.564 L
390.393 64.441 L
390.65 64.653 L
390.667 64.647 L
390.668 64.647 L
391.066 64.693 L
391.242 64.55 L
391.333 64.601 L
391.334 64.601 L
391.384 64.617 L
391.978 64.23 L
391.999 64.259 L
392 64.267 L
392.148 64.356 L
392.297 64.199 L
392.666 64.24 L
392.667 64.24 L
393.001 64.459 L
393.329 64.186 L
393.333 64.29 L
393.334 64.298 L
393.687 64.33 L
393.98 64.065 L
393.999 64.076 L
394.001 64.076 L
394.179 64.131 L
394.658 63.942 L
394.666 63.955 L
394.667 63.955 L
394.819 63.969 L
395.265 63.66 L
395.333 63.667 L
395.334 63.667 L
395.438 63.687 L
395.729 63.388 L
396 63.473 L
396.001 63.473 L
396.003 63.473 L
396.578 63.011 L
396.667 63.079 L
396.668 63.079 L
396.865 63.209 L
397.326 62.944 L
397.332 62.978 L
397.333 62.978 L
397.64 62.883 L
397.931 63.233 L
397.999 63.217 L
398 63.217 L
398.038 63.1 L
398.452 63.36 L
398.666 63.302 L
398.667 63.3 L
398.815 63.413 L
399.121 63.272 L
399.333 63.361 L
399.334 63.361 L
399.384 63.339 L
399.653 63.575 L
400 63.554 L
400.001 63.554 L
400.017 63.503 L
400.425 63.737 L
400.666 63.594 L
400.667 63.595 L
401.027 63.642 L
401.09 63.505 L
401.333 63.638 L
401.334 63.638 L
401.355 63.657 L
401.867 63.406 L
402 63.546 L
402.001 63.542 L
402.058 63.564 L
402.489 63.32 L
402.666 63.47 L
402.667 63.47 L
402.674 63.469 L
403.103 63.749 L
403.333 63.537 L
403.334 63.537 L
403.403 63.617 L
403.657 63.223 L
403.999 63.503 L
404 63.503 L
404.124 63.636 L
404.417 63.423 L
404.666 63.485 L
404.667 63.485 L
405.047 63.367 L
405.164 63.519 L
405.333 63.428 L
405.334 63.428 L
405.709 63.236 L
406 63.354 L
406.001 63.354 L
406.296 63.594 L
406.498 63.251 L
406.667 63.329 L
406.668 63.329 L
406.683 63.325 L
407.332 63.739 L
407.333 63.74 L
407.448 63.627 L
407.977 63.849 L
407.999 63.844 L
408 63.843 L
408.01 63.854 L
408.579 63.505 L
408.666 63.605 L
408.667 63.605 L
408.757 63.703 L
409.108 63.546 L
409.333 63.586 L
409.334 63.586 L
409.348 63.591 L
409.98 63.256 L
409.999 63.274 L
410.001 63.274 L
410.247 63.337 L
410.609 62.894 L
410.666 62.918 L
410.667 62.918 L
410.751 62.879 L
411.054 63.197 L
411.333 63.08 L
411.334 63.079 L
411.359 63.097 L
411.947 62.776 L
412 62.952 L
412.001 62.95 L
412.302 62.803 L
412.571 63.077 L
412.666 62.996 L
412.667 62.996 L
412.792 62.879 L
413.312 63.025 L
413.332 63.023 L
413.333 63.023 L
413.538 62.911 L
413.928 63.169 L
413.999 63.122 L
414 63.12 L
414.005 63.117 L
414.427 63.445 L
414.666 63.314 L
414.667 63.314 L
414.705 63.268 L
415.199 63.515 L
415.333 63.493 L
415.334 63.494 L
415.365 63.522 L
415.894 63.087 L
416 63.223 L
416.001 63.223 L
416.025 63.256 L
416.398 62.985 L
416.666 62.992 L
416.668 62.991 L
416.702 63.018 L
417.322 62.584 L
417.333 62.584 L
417.334 62.584 L
417.384 62.531 L
417.807 62.833 L
417.999 62.737 L
418 62.736 L
418.482 62.866 L
418.652 62.639 L
418.666 62.667 L
418.667 62.667 L
418.678 62.671 L
419.331 62.487 L
419.333 62.487 L
419.334 62.487 L
419.633 62.447 L
419.831 62.589 L
419.999 62.587 L
420 62.587 L
420.044 62.685 L
420.666 62.201 L
420.667 62.201 L
420.774 62.351 L
421.258 62.045 L
421.333 62.138 L
421.334 62.138 L
421.374 62.088 L
421.923 62.539 L
422 62.515 L
422.001 62.517 L
422.12 62.596 L
422.465 62.436 L
422.667 62.55 L
422.668 62.55 L
422.671 62.55 L
423.099 62.73 L
423.332 62.629 L
423.333 62.628 L
423.491 62.589 L
423.897 62.872 L
423.999 62.73 L
424 62.73 L
424.091 62.678 L
424.664 63.151 L
424.666 63.151 L
424.667 63.151 L
424.67 63.143 L
425.333 63.808 L
425.334 63.807 L
425.853 63.761 L
425.91 63.939 L
426 63.936 L
426.001 63.936 L
426.006 63.935 L
426.282 64.145 L
426.666 64.078 L
426.667 64.073 L
426.668 64.074 L
427.19 63.856 L
427.333 63.89 L
427.334 63.889 L
427.364 63.851 L
427.985 64.196 L
428 64.15 L
428.001 64.15 L
428.103 64.231 L
428.635 63.989 L
428.666 64.001 L
428.667 64.001 L
428.919 64.313 L
429.332 64.276 L
429.334 64.276 L
429.378 64.205 L
429.558 64.458 L
429.999 64.249 L
430 64.249 L
430.277 64.331 L
430.569 64.057 L
430.666 64.106 L
430.667 64.106 L
430.838 64.01 L
431.332 64.184 L
431.333 64.184 L
431.334 64.185 L
431.367 64.203 L
431.987 63.99 L
432 64.056 L
432.001 64.056 L
432.002 64.056 L
432.664 64.343 L
432.666 64.342 L
432.668 64.342 L
432.678 64.46 L
433.099 64.211 L
433.333 64.307 L
433.334 64.307 L
433.443 64.244 L
433.983 64.596 L
433.999 64.588 L
434 64.588 L
434.155 64.657 L
434.59 64.321 L
434.666 64.388 L
434.667 64.388 L
434.984 64.46 L
435.297 64.233 L
435.333 64.266 L
435.334 64.265 L
435.998 64.718 L
435.999 64.717 L
436 64.717 L
436.146 64.795 L
436.651 64.595 L
436.666 64.595 L
436.667 64.595 L
437.046 64.63 L
437.159 64.36 L
437.333 64.501 L
437.334 64.501 L
437.484 64.502 L
437.672 64.287 L
438 64.429 L
438.001 64.43 L
438.014 64.432 L
438.373 64.238 L
438.667 64.273 L
438.668 64.273 L
438.878 64.175 L
439.021 64.343 L
439.332 64.329 L
439.333 64.327 L
439.341 64.342 L
439.968 63.958 L
439.999 64.024 L
440 64.023 L
440.015 63.934 L
440.595 64.157 L
440.666 64.099 L
440.667 64.099 L
440.718 64.08 L
441.318 64.481 L
441.333 64.476 L
441.334 64.476 L
441.724 64.625 L
442 64.385 L
442.001 64.385 L
442.029 64.411 L
442.664 63.958 L
442.666 63.966 L
442.667 63.965 L
442.724 63.999 L
443.092 63.625 L
443.333 63.657 L
443.334 63.657 L
443.379 63.526 L
443.964 63.738 L
444 63.673 L
444.001 63.673 L
444.123 63.611 L
444.522 63.76 L
444.666 63.635 L
444.667 63.635 L
445.149 63.548 L
445.329 63.724 L
445.332 63.716 L
445.334 63.716 L
445.35 63.721 L
445.987 63.448 L
445.999 63.454 L
446 63.454 L
446.3 63.359 L
446.622 63.72 L
446.666 63.672 L
446.667 63.672 L
446.742 63.608 L
447.327 63.876 L
447.333 63.875 L
447.334 63.875 L
447.468 64.002 L
447.886 63.852 L
448 63.901 L
448.001 63.903 L
448.385 64.104 L
448.667 64.032 L
448.668 64.032 L
448.733 63.965 L
449.036 64.355 L
449.333 64.236 L
449.334 64.237 L
449.341 64.237 L
449.992 64.847 L
449.999 64.847 L
450 64.846 L
450.065 64.875 L
450.23 64.719 L
450.666 64.792 L
450.667 64.792 L
451.117 64.706 L
451.333 64.872 L
451.334 64.88 L
451.555 64.96 L
451.99 64.769 L
451.999 64.799 L
452.001 64.799 L
452.17 64.848 L
452.391 64.618 L
452.666 64.634 L
452.667 64.633 L
452.68 64.6 L
453.329 64.946 L
453.333 64.946 L
453.334 64.946 L
453.435 64.744 L
454 65.171 L
454.001 65.171 L
454.031 65.237 L
454.454 64.796 L
454.667 65.032 L
454.668 65.033 L
454.758 64.982 L
455.029 65.267 L
455.332 65.042 L
455.333 65.043 L
455.338 65.132 L
455.999 64.777 L
456 64.736 L
456.148 64.913 L
456.324 64.715 L
456.666 64.853 L
456.667 64.854 L
456.788 64.709 L
457.103 65.088 L
457.333 64.99 L
457.334 64.991 L
457.374 64.918 L
457.995 65.193 L
458 65.193 L
458.001 65.193 L
458.186 65.23 L
458.604 64.936 L
458.666 64.996 L
458.667 64.996 L
458.673 64.933 L
459.215 65.247 L
459.333 65.174 L
459.334 65.174 L
459.359 65.135 L
459.97 65.404 L
460 65.391 L
460.001 65.391 L
460.003 65.399 L
460.265 65.167 L
460.666 65.304 L
460.667 65.304 L
460.686 65.309 L
461.016 64.987 L
461.333 65.064 L
461.334 65.067 L
461.489 65.242 L
461.995 64.952 L
461.999 64.953 L
462 64.953 L
462.038 64.97 L
462.4 64.604 L
462.666 64.667 L
462.667 64.665 L
462.859 64.583 L
463.324 64.915 L
463.333 64.908 L
463.334 64.909 L
463.463 64.849 L
463.974 65.099 L
464 65.09 L
464.001 65.09 L
464.017 65.086 L
464.655 65.495 L
464.667 65.491 L
464.668 65.491 L
464.935 65.576 L
465.172 65.386 L
465.332 65.481 L
465.333 65.481 L
465.344 65.494 L
465.943 65.211 L
465.999 65.211 L
466 65.211 L
466.015 65.214 L
466.452 64.901 L
466.666 65.078 L
466.667 65.078 L
466.702 65.073 L
467.234 65.303 L
467.333 65.231 L
467.334 65.231 L
467.427 65.158 L
467.951 65.316 L
467.999 65.219 L
468.001 65.219 L
468.235 65.342 L
468.58 65.006 L
468.666 65.008 L
468.667 65.008 L
468.679 65.006 L
469.206 65.192 L
469.333 65.117 L
469.334 65.117 L
469.587 65.177 L
469.749 65.011 L
470 65.077 L
470.001 65.077 L
470.037 65.077 L
470.658 64.879 L
470.666 64.889 L
470.667 64.89 L
470.804 64.899 L
471.044 64.684 L
471.332 64.836 L
471.333 64.836 L
471.557 64.692 L
471.875 64.872 L
471.999 64.844 L
472 64.844 L
472.177 64.824 L
472.359 65.061 L
472.666 64.93 L
472.667 64.93 L
472.845 64.844 L
473.247 65.082 L
473.333 64.984 L
473.334 64.984 L
473.986 64.46 L
474 64.461 L
474.001 64.46 L
474.018 64.501 L
474.612 64.253 L
474.666 64.28 L
474.668 64.285 L
474.694 64.226 L
474.91 64.462 L
475.333 64.292 L
475.334 64.296 L
475.441 64.314 L
475.719 64.129 L
475.999 64.169 L
476 64.169 L
476.128 64.258 L
476.596 63.913 L
476.666 63.937 L
476.667 63.937 L
476.965 63.896 L
477.11 64.128 L
477.333 64.041 L
477.334 64.04 L
477.385 64.119 L
477.947 63.807 L
477.999 63.873 L
478 63.873 L
478.133 63.904 L
478.46 63.615 L
478.666 63.787 L
478.667 63.787 L
478.729 63.809 L
479.333 63.167 L
479.334 63.167 L
479.337 63.164 L
479.724 63.45 L
480 63.406 L
480.001 63.406 L
480.239 63.545 L
480.658 63.242 L
480.667 63.244 L
480.668 63.244 L
480.692 63.245 L
481.253 62.947 L
481.332 63.088 L
481.333 63.088 L
481.623 63.028 L
481.761 63.162 L
481.999 63.052 L
482 63.053 L
482.19 63.085 L
482.281 62.874 L
482.666 62.989 L
482.667 62.998 L
482.695 62.988 L
483.209 63.172 L
483.333 63.137 L
483.334 63.137 L
483.867 63.066 L
483.995 63.392 L
484 63.392 L
484.001 63.392 L
484.01 63.393 L
484.316 63.144 L
484.666 63.228 L
484.667 63.228 L
484.788 63.117 L
485.328 63.335 L
485.333 63.333 L
485.334 63.334 L
485.46 63.259 L
485.643 63.463 L
486 63.405 L
486.001 63.405 L
486.015 63.451 L
486.314 63.13 L
486.666 63.275 L
486.667 63.275 L
486.766 63.386 L
487.326 63.208 L
487.332 63.21 L
487.334 63.212 L
487.857 63.459 L
487.982 63.211 L
487.999 63.291 L
488 63.291 L
488.286 63.31 L
488.522 63.059 L
488.666 63.225 L
488.667 63.224 L
489.218 63.37 L
489.285 63.142 L
489.333 63.309 L
489.334 63.309 L
489.632 63.192 L
489.999 63.435 L
490 63.435 L
490.001 63.435 L
490.345 63.103 L
490.666 63.145 L
490.668 63.145 L
490.804 63.153 L
491.32 62.678 L
491.333 62.719 L
491.334 62.72 L
491.579 62.813 L
491.963 62.548 L
491.999 62.558 L
492 62.559 L
492.083 62.509 L
492.525 62.732 L
492.666 62.545 L
492.667 62.541 L
492.765 62.45 L
493.265 62.78 L
493.333 62.553 L
493.334 62.553 L
493.338 62.553 L
493.814 62.361 L
493.999 62.396 L
494 62.396 L
494.03 62.33 L
494.605 62.499 L
494.666 62.366 L
494.667 62.366 L
494.676 62.363 L
495.281 62.783 L
495.333 62.688 L
495.334 62.688 L
495.477 62.746 L
495.787 62.365 L
496 62.528 L
496.001 62.528 L
496.049 62.549 L
496.649 62.108 L
496.667 62.141 L
496.668 62.141 L
497.075 62.051 L
497.265 62.196 L
497.332 62.176 L
497.333 62.176 L
497.765 62.043 L
497.996 62.27 L
497.999 62.24 L
498 62.244 L
498.01 62.238 L
498.533 62.535 L
498.666 62.471 L
498.667 62.545 L
498.885 62.649 L
499.058 62.481 L
499.333 62.531 L
499.334 62.531 L
499.552 62.626 L
499.998 62.345 L
500 62.345 L
500.001 62.345 L
500.002 62.345 L
500.655 62.524 L
500.666 62.484 L
500.667 62.484 L
500.765 62.427 L
501.242 62.602 L
501.333 62.587 L
501.334 62.587 L
501.372 62.616 L
501.45 62.405 L
502 62.486 L
502.001 62.496 L
502.038 62.582 L
502.498 62.249 L
502.666 62.404 L
502.667 62.404 L
502.804 62.274 L
503.307 62.526 L
503.332 62.479 L
503.334 62.481 L
503.348 62.484 L
503.662 62.1 L
503.999 62.165 L
504 62.163 L
504.009 62.18 L
504.487 61.759 L
504.666 61.859 L
504.667 61.859 L
504.738 61.9 L
505.224 61.32 L
505.333 61.412 L
505.334 61.412 L
505.427 61.389 L
505.867 61.608 L
506 61.519 L
506.001 61.519 L
506.144 61.566 L
506.584 61.359 L
506.667 61.401 L
506.668 61.401 L
506.9 61.434 L
507.299 61.237 L
507.333 61.247 L
507.334 61.247 L
507.392 61.195 L
507.714 61.65 L
507.999 61.428 L
508 61.428 L
508.047 61.478 L
508.537 61.312 L
508.666 61.323 L
508.667 61.321 L
508.872 61.232 L
509.153 61.486 L
509.333 61.284 L
509.334 61.284 L
509.402 61.39 L
509.633 61.207 L
509.999 61.285 L
510.001 61.285 L
510.115 61.199 L
510.596 61.451 L
510.666 61.405 L
510.667 61.405 L
510.971 61.462 L
511.241 61.214 L
511.333 61.22 L
511.334 61.22 L
511.709 61.079 L
511.948 61.25 L
512 61.157 L
512.001 61.157 L
512.342 61.187 L
512.604 60.915 L
512.667 61.006 L
512.668 61.007 L
512.708 61.018 L
513.318 60.646 L
513.332 60.651 L
513.333 60.651 L
513.56 60.794 L
513.973 60.561 L
513.999 60.714 L
514 60.714 L
514.07 60.68 L
514.666 60.963 L
514.667 60.963 L
514.735 60.977 L
515.104 60.707 L
515.333 60.809 L
515.334 60.809 L
515.384 60.838 L
515.735 60.632 L
516 60.745 L
516.001 60.745 L
516.402 60.834 L
516.545 60.595 L
516.666 60.622 L
516.667 60.622 L
516.687 60.63 L
517.226 60.319 L
517.333 60.424 L
517.334 60.424 L
517.478 60.407 L
517.986 60.807 L
518 60.806 L
518.001 60.806 L
518.404 60.956 L
518.643 60.763 L
518.666 60.776 L
518.667 60.774 L
518.974 60.565 L
519.333 60.657 L
519.334 60.657 L
519.419 60.526 L
519.729 60.881 L
519.999 60.833 L
520 60.833 L
520.001 60.832 L
520.651 61.209 L
520.666 61.206 L
520.667 61.206 L
520.68 61.208 L
521.331 60.881 L
521.333 60.881 L
521.334 60.881 L
521.548 61.033 L
521.914 60.742 L
522 60.751 L
522.001 60.751 L
522.038 60.729 L
522.612 60.912 L
522.667 60.858 L
522.668 60.858 L
522.669 60.858 L
523.017 61.103 L
523.332 61.067 L
523.333 61.067 L
523.986 61.373 L
523.999 61.346 L
524 61.346 L
524.058 61.343 L
524.3 61.534 L
524.666 61.406 L
524.667 61.406 L
524.909 61.339 L
525.239 61.579 L
525.333 61.559 L
525.334 61.564 L
525.433 61.639 L
525.657 61.315 L
525.999 61.453 L
526.001 61.439 L
526.13 61.564 L
526.434 61.106 L
526.666 61.152 L
526.667 61.152 L
526.687 61.152 L
526.996 61.431 L
527.333 61.397 L
527.334 61.4 L
527.549 61.402 L
527.792 61.187 L
528 61.288 L
528.001 61.288 L
528.209 61.342 L
528.332 61.178 L
528.666 61.279 L
528.667 61.275 L
528.673 61.258 L
529.131 61.489 L
529.332 61.358 L
529.333 61.352 L
529.392 61.412 L
529.887 61.203 L
529.999 61.239 L
530 61.239 L
530.333 61.038 L
530.479 61.252 L
530.666 61.125 L
530.667 61.125 L
530.728 61.186 L
531.106 60.907 L
531.333 60.976 L
531.334 60.976 L
531.336 60.976 L
532 61.152 L
532.001 61.15 L
532.227 60.943 L
532.437 61.159 L
532.666 61.087 L
532.668 61.087 L
532.951 61.163 L
533.318 61.004 L
533.333 61.005 L
533.334 61.004 L
533.369 60.979 L
533.999 61.329 L
534 61.328 L
534.179 61.246 L
534.649 61.56 L
534.666 61.557 L
534.667 61.557 L
534.805 61.504 L
534.98 61.707 L
535.333 61.566 L
535.334 61.562 L
535.377 61.571 L
535.655 61.289 L
535.999 61.405 L
536 61.405 L
536.052 61.31 L
536.451 61.676 L
536.666 61.451 L
536.667 61.45 L
536.677 61.453 L
537.181 61.275 L
537.333 61.412 L
537.334 61.412 L
537.395 61.535 L
537.586 61.297 L
538 61.4 L
538.001 61.4 L
538.115 61.433 L
538.399 61.177 L
538.667 61.365 L
538.668 61.365 L
538.686 61.385 L
539.291 61.185 L
539.332 61.199 L
539.333 61.199 L
539.364 61.2 L
539.859 60.991 L
539.999 61.009 L
540 61.009 L
540.326 61.178 L
540.628 60.919 L
540.666 60.97 L
540.667 60.97 L
541.118 60.961 L
541.226 61.136 L
541.333 61.042 L
541.334 61.042 L
541.564 60.906 L
541.938 61.197 L
542 61.089 L
542.001 61.089 L
542.094 61.016 L
542.649 61.331 L
542.666 61.253 L
542.667 61.252 L
543.171 60.847 L
543.333 60.925 L
543.334 60.925 L
543.36 60.922 L
543.526 61.215 L
544 61.068 L
544.001 61.068 L
544.126 61.051 L
544.5 61.281 L
544.666 61.23 L
544.667 61.228 L
544.905 61.143 L
545.33 61.379 L
545.332 61.368 L
545.334 61.366 L
545.516 61.419 L
545.95 61.214 L
545.999 61.23 L
546 61.229 L
546.005 61.253 L
546.206 61.071 L
546.666 61.146 L
546.667 61.146 L
546.676 61.146 L
547.26 61.448 L
547.333 61.334 L
547.334 61.334 L
547.642 61.199 L
547.956 61.463 L
548 61.361 L
548.001 61.362 L
548.147 61.303 L
548.186 61.459 L
548.666 61.305 L
548.668 61.306 L
549.11 61.278 L
549.2 61.424 L
549.333 61.404 L
549.334 61.404 L
549.365 61.392 L
549.967 61.576 L
549.999 61.552 L
550 61.552 L
550.032 61.559 L
550.653 61.358 L
550.666 61.366 L
550.667 61.366 L
550.69 61.345 L
551.33 61.619 L
551.333 61.55 L
551.334 61.55 L
551.516 61.458 L
551.653 61.682 L
551.999 61.644 L
552 61.644 L
552.034 61.626 L
552.599 61.978 L
552.666 61.898 L
552.667 61.899 L
552.688 61.89 L
553.255 62.123 L
553.333 62.033 L
553.334 62.033 L
553.775 61.99 L
553.814 62.169 L
554 62.008 L
554.001 62.008 L
554.063 61.987 L
554.545 62.175 L
554.667 62.108 L
554.668 62.108 L
554.782 62.097 L
555.231 62.423 L
555.332 62.279 L
555.333 62.278 L
555.466 62.225 L
555.518 62.409 L
555.999 62.301 L
556 62.302 L
556.026 62.271 L
556.529 62.468 L
556.666 62.33 L
556.667 62.402 L
556.739 62.503 L
557.025 62.245 L
557.333 62.276 L
557.334 62.279 L
557.369 62.337 L
557.882 61.992 L
558 62.159 L
558.001 62.16 L
558.002 62.162 L
558.318 61.861 L
558.666 62.01 L
558.667 62.01 L
558.762 62.008 L
559.089 62.229 L
559.333 62.116 L
559.334 62.116 L
559.396 62.075 L
559.922 62.286 L
560 62.246 L
560.001 62.246 L
560.018 62.252 L
560.64 62.058 L
560.666 62.073 L
560.667 62.078 L
560.672 62.077 L
561.321 62.482 L
561.332 62.476 L
561.334 62.476 L
561.847 62.691 L
561.999 62.559 L
562 62.56 L
562.001 62.561 L
562.66 62.389 L
562.666 62.39 L
562.667 62.39 L
562.884 62.352 L
563.071 62.545 L
563.333 62.481 L
563.334 62.478 L
563.44 62.409 L
563.8 62.608 L
564 62.535 L
564.001 62.537 L
564.664 61.962 L
564.667 61.962 L
564.668 61.962 L
564.84 61.894 L
565.144 62.16 L
565.333 61.952 L
565.334 61.953 L
565.627 61.765 L
565.772 61.994 L
565.999 61.844 L
566 61.844 L
566.425 61.793 L
566.541 61.957 L
566.666 61.897 L
566.667 61.897 L
566.68 61.836 L
566.976 62.037 L
567.333 61.944 L
567.334 61.944 L
567.43 62.024 L
567.529 61.784 L
567.999 61.929 L
568.001 61.929 L
568.087 62.005 L
568.426 61.824 L
568.666 61.922 L
568.667 61.922 L
569.108 62.017 L
569.295 61.884 L
569.333 61.897 L
569.334 61.896 L
569.666 61.811 L
569.949 62.057 L
570 61.984 L
570.001 61.984 L
570.09 61.981 L
570.18 62.098 L
570.667 61.997 L
570.668 61.999 L
570.732 62.05 L
571.317 61.842 L
571.332 61.857 L
571.333 61.869 L
571.355 61.866 L
571.837 62.141 L
571.999 62.062 L
572 62.062 L
572.011 62.056 L
572.514 62.28 L
572.666 62.08 L
572.667 62.079 L
572.678 62.089 L
573.285 61.8 L
573.333 61.809 L
573.334 61.809 L
573.384 61.803 L
573.994 62.127 L
574 62.126 L
574.001 62.126 L
574.007 62.128 L
574.623 61.783 L
574.666 61.916 L
574.667 61.917 L
574.772 61.902 L
575.061 62.126 L
575.333 61.985 L
575.334 61.985 L
575.369 61.927 L
575.68 62.142 L
576 62.066 L
576.001 62.066 L
576.167 62.104 L
576.581 61.65 L
576.666 61.685 L
576.667 61.684 L
576.811 61.713 L
577.095 61.515 L
577.333 61.623 L
577.334 61.623 L
577.455 61.579 L
577.68 61.981 L
577.999 61.902 L
578 61.902 L
578.017 61.865 L
578.318 62.124 L
578.666 62.047 L
578.667 62.047 L
578.871 61.877 L
579.293 62.27 L
579.333 62.264 L
579.334 62.264 L
579.704 62.114 L
579.79 62.276 L
580 62.129 L
580.001 62.129 L
580.023 62.079 L
580.623 62.157 L
580.667 62.143 L
580.668 62.138 L
581.005 62.008 L
581.318 62.37 L
581.332 62.36 L
581.333 62.36 L
581.369 62.381 L
581.719 62.2 L
581.999 62.312 L
582 62.312 L
582.066 62.173 L
582.666 62.44 L
582.667 62.439 L
582.679 62.391 L
583.039 62.677 L
583.333 62.459 L
583.334 62.462 L
583.357 62.45 L
583.867 62.791 L
583.999 62.576 L
584.001 62.576 L
584.23 62.542 L
584.587 62.843 L
584.666 62.821 L
584.667 62.821 L
584.723 62.755 L
585.016 63.158 L
585.333 62.984 L
585.334 62.984 L
585.382 63.048 L
585.974 62.774 L
586 62.809 L
586.001 62.815 L
586.322 62.628 L
586.656 63.014 L
586.666 62.99 L
586.667 62.99 L
586.869 62.87 L
587.318 63.101 L
587.332 63.098 L
587.333 63.098 L
587.34 63.079 L
587.613 63.246 L
587.999 63.16 L
588 63.163 L
588.06 63.177 L
588.536 62.902 L
588.666 63.107 L
588.667 63.107 L
588.73 63.028 L
589.104 63.241 L
589.333 63.205 L
589.334 63.204 L
589.337 63.202 L
589.732 63.393 L
590 63.28 L
590.001 63.28 L
590.196 63.347 L
590.645 63.202 L
590.666 63.213 L
590.668 63.213 L
590.809 63.204 L
591.257 63.429 L
591.333 63.32 L
591.334 63.32 L
591.372 63.388 L
591.801 63.155 L
591.999 63.334 L
592 63.334 L
592.135 63.243 L
592.368 63.418 L
592.666 63.354 L
592.667 63.354 L
592.696 63.359 L
592.859 63.191 L
593.333 63.271 L
593.334 63.271 L
593.702 63.197 L
593.985 63.563 L
593.999 63.563 L
594 63.562 L
594.12 63.684 L
594.622 63.303 L
594.666 63.32 L
594.667 63.32 L
594.945 63.374 L
595.333 63.111 L
595.334 63.111 L
595.551 63.153 L
595.966 62.831 L
596 62.837 L
596.001 62.837 L
596.103 62.731 L
596.583 63.025 L
596.667 62.839 L
596.668 62.84 L
597.223 62.99 L
597.332 62.92 L
597.333 62.91 L
597.718 62.806 L
597.987 63.006 L
597.999 63.005 L
598 63.004 L
598.014 63.009 L
598.221 62.624 L
598.666 62.739 L
598.667 62.739 L
598.77 62.754 L
599.302 62.311 L
599.333 62.334 L
599.334 62.334 L
599.757 62.456 L
599.961 62.264 L
600 62.306 L
600.001 62.306 L
600.604 62.594 L
600.666 62.565 L
600.667 62.565 L
600.87 62.528 L
601.101 62.786 L
601.333 62.699 L
601.334 62.699 L
601.619 62.622 L
601.814 62.807 L
602 62.713 L
602.001 62.713 L
602.543 62.757 L
602.644 62.607 L
602.666 62.62 L
602.667 62.62 L
602.723 62.714 L
603.075 62.456 L
603.332 62.491 L
603.334 62.491 L
603.335 62.491 L
603.793 62.259 L
603.999 62.31 L
604 62.374 L
604.325 61.897 L
604.666 62.002 L
604.667 62.002 L
604.746 62.045 L
604.934 61.78 L
605.333 61.818 L
605.334 61.801 L
605.522 61.843 L
606 61.613 L
606.001 61.617 L
606.005 61.694 L
606.476 61.443 L
606.666 61.473 L
606.668 61.47 L
606.838 61.442 L
607.156 61.723 L
607.333 61.535 L
607.334 61.535 L
607.436 61.639 L
607.743 61.326 L
607.999 61.413 L
608 61.413 L
608.001 61.406 L
608.113 61.576 L
608.666 61.547 L
608.667 61.547 L
609.017 61.493 L
609.304 61.653 L
609.333 61.633 L
609.334 61.633 L
609.346 61.63 L
609.865 62.014 L
609.999 61.888 L
610 61.889 L
610.141 61.742 L
610.578 62.01 L
610.666 61.937 L
610.667 61.938 L
610.878 61.885 L
611.329 62.197 L
611.333 62.173 L
611.334 62.171 L
611.436 62.243 L
611.658 61.817 L
612 61.978 L
612.001 61.979 L
612.045 61.97 L
612.649 62.31 L
612.667 62.277 L
612.668 62.274 L
612.669 62.27 L
613.241 62.564 L
613.332 62.482 L
613.333 62.482 L
613.352 62.486 L
613.964 62.122 L
613.999 62.132 L
614 62.132 L
614.485 61.971 L
614.647 62.253 L
614.666 62.252 L
614.667 62.251 L
614.881 62.089 L
615.319 62.387 L
615.333 62.379 L
615.334 62.379 L
615.4 62.274 L
615.689 62.538 L
616 62.467 L
616.001 62.471 L
616.104 62.538 L
616.637 62.223 L
616.666 62.286 L
616.667 62.286 L
616.851 62.167 L
617.067 62.495 L
617.333 62.291 L
617.334 62.291 L
617.539 62.154 L
617.941 62.422 L
618 62.373 L
618.001 62.372 L
618.225 62.542 L
618.354 62.298 L
618.666 62.363 L
618.667 62.362 L
618.796 62.399 L
619.24 62.032 L
619.332 62.111 L
619.334 62.109 L
619.336 62.11 L
619.71 61.879 L
619.999 62.017 L
620 62.018 L
620.095 62.043 L
620.652 61.66 L
620.666 61.668 L
620.667 61.668 L
620.763 61.683 L
620.941 61.456 L
621.333 61.569 L
621.334 61.57 L
621.639 61.713 L
621.832 61.534 L
622 61.669 L
622.001 61.669 L
622.013 61.714 L
622.442 61.338 L
622.667 61.425 L
622.668 61.425 L
623.035 61.355 L
623.333 61.678 L
623.334 61.678 L
623.342 61.679 L
623.996 61.35 L
623.999 61.351 L
624 61.351 L
624.011 61.348 L
624.208 61.699 L
624.666 61.641 L
624.667 61.638 L
624.742 61.817 L
625.156 61.572 L
625.333 61.725 L
625.334 61.725 L
625.362 61.675 L
625.814 61.924 L
625.999 61.749 L
626.001 61.744 L
626.006 61.745 L
626.206 61.522 L
626.666 61.682 L
626.667 61.682 L
626.85 61.776 L
627.133 61.604 L
627.333 61.652 L
627.334 61.652 L
627.514 61.692 L
627.659 61.474 L
628 61.507 L
628.001 61.507 L
628.166 61.541 L
628.284 61.358 L
628.667 61.395 L
628.668 61.395 L
628.858 61.391 L
629.179 61.518 L
629.332 61.399 L
629.333 61.399 L
629.718 61.235 L
629.968 61.407 L
629.999 61.317 L
630 61.315 L
630.233 61.241 L
630.659 61.436 L
630.666 61.432 L
630.667 61.432 L
630.888 61.276 L
631.238 61.545 L
631.333 61.387 L
631.334 61.395 L
631.54 61.326 L
631.997 61.501 L
632 61.468 L
632.001 61.468 L
632.234 61.385 L
632.594 61.701 L
632.666 61.627 L
632.667 61.63 L
632.975 61.485 L
633.188 61.694 L
633.333 61.632 L
633.334 61.632 L
633.732 61.474 L
633.871 61.782 L
634 61.684 L
S
GR
%%Trailer
%%Pages: 1
%%EOF
