%!PS-Adobe-3.0 EPSF-3.0
%%Creator: (MATLAB, The Mathworks, Inc. Version 9.3.0.713579 \(R2017b\). Operating System: Windows 7)
%%Title: fig/RBFN_2_5_1000_Q.eps
%%CreationDate: 2018-05-06T11:34:53
%%Pages: (atend)
%%BoundingBox:    35     3   479   384
%%LanguageLevel: 3
%%EndComments
%%BeginProlog
%%BeginResource: procset (Apache XML Graphics Std ProcSet) 1.2 0
%%Version: 1.2 0
%%Copyright: (Copyright 2001-2003,2010 The Apache Software Foundation. License terms: http://www.apache.org/licenses/LICENSE-2.0)
/bd{bind def}bind def
/ld{load def}bd
/GR/grestore ld
/GS/gsave ld
/RM/rmoveto ld
/C/curveto ld
/t/show ld
/L/lineto ld
/ML/setmiterlimit ld
/CT/concat ld
/f/fill ld
/N/newpath ld
/S/stroke ld
/CC/setcmykcolor ld
/A/ashow ld
/cp/closepath ld
/RC/setrgbcolor ld
/LJ/setlinejoin ld
/GC/setgray ld
/LW/setlinewidth ld
/M/moveto ld
/re {4 2 roll M
1 index 0 rlineto
0 exch rlineto
neg 0 rlineto
cp } bd
/_ctm matrix def
/_tm matrix def
/BT { _ctm currentmatrix pop matrix _tm copy pop 0 0 moveto } bd
/ET { _ctm setmatrix } bd
/iTm { _ctm setmatrix _tm concat } bd
/Tm { _tm astore pop iTm 0 0 moveto } bd
/ux 0.0 def
/uy 0.0 def
/F {
  /Tp exch def
  /Tf exch def
  Tf findfont Tp scalefont setfont
  /cf Tf def  /cs Tp def
} bd
/ULS {currentpoint /uy exch def /ux exch def} bd
/ULE {
  /Tcx currentpoint pop def
  gsave
  newpath
  cf findfont cs scalefont dup
  /FontMatrix get 0 get /Ts exch def /FontInfo get dup
  /UnderlinePosition get Ts mul /To exch def
  /UnderlineThickness get Ts mul /Tt exch def
  ux uy To add moveto  Tcx uy To add lineto
  Tt setlinewidth stroke
  grestore
} bd
/OLE {
  /Tcx currentpoint pop def
  gsave
  newpath
  cf findfont cs scalefont dup
  /FontMatrix get 0 get /Ts exch def /FontInfo get dup
  /UnderlinePosition get Ts mul /To exch def
  /UnderlineThickness get Ts mul /Tt exch def
  ux uy To add cs add moveto Tcx uy To add cs add lineto
  Tt setlinewidth stroke
  grestore
} bd
/SOE {
  /Tcx currentpoint pop def
  gsave
  newpath
  cf findfont cs scalefont dup
  /FontMatrix get 0 get /Ts exch def /FontInfo get dup
  /UnderlinePosition get Ts mul /To exch def
  /UnderlineThickness get Ts mul /Tt exch def
  ux uy To add cs 10 mul 26 idiv add moveto Tcx uy To add cs 10 mul 26 idiv add lineto
  Tt setlinewidth stroke
  grestore
} bd
/QT {
/Y22 exch store
/X22 exch store
/Y21 exch store
/X21 exch store
currentpoint
/Y21 load 2 mul add 3 div exch
/X21 load 2 mul add 3 div exch
/X21 load 2 mul /X22 load add 3 div
/Y21 load 2 mul /Y22 load add 3 div
/X22 load /Y22 load curveto
} bd
/SSPD {
dup length /d exch dict def
{
/v exch def
/k exch def
currentpagedevice k known {
/cpdv currentpagedevice k get def
v cpdv ne {
/upd false def
/nullv v type /nulltype eq def
/nullcpdv cpdv type /nulltype eq def
nullv nullcpdv or
{
/upd true def
} {
/sametype v type cpdv type eq def
sametype {
v type /arraytype eq {
/vlen v length def
/cpdvlen cpdv length def
vlen cpdvlen eq {
0 1 vlen 1 sub {
/i exch def
/obj v i get def
/cpdobj cpdv i get def
obj cpdobj ne {
/upd true def
exit
} if
} for
} {
/upd true def
} ifelse
} {
v type /dicttype eq {
v {
/dv exch def
/dk exch def
/cpddv cpdv dk get def
dv cpddv ne {
/upd true def
exit
} if
} forall
} {
/upd true def
} ifelse
} ifelse
} if
} ifelse
upd true eq {
d k v put
} if
} if
} if
} forall
d length 0 gt {
d setpagedevice
} if
} bd
/RE { % /NewFontName [NewEncodingArray] /FontName RE -
  findfont dup length dict begin
  {
    1 index /FID ne
    {def} {pop pop} ifelse
  } forall
  /Encoding exch def
  /FontName 1 index def
  currentdict definefont pop
  end
} bind def
%%EndResource
%%BeginResource: procset (Apache XML Graphics EPS ProcSet) 1.0 0
%%Version: 1.0 0
%%Copyright: (Copyright 2002-2003 The Apache Software Foundation. License terms: http://www.apache.org/licenses/LICENSE-2.0)
/BeginEPSF { %def
/b4_Inc_state save def         % Save state for cleanup
/dict_count countdictstack def % Count objects on dict stack
/op_count count 1 sub def      % Count objects on operand stack
userdict begin                 % Push userdict on dict stack
/showpage { } def              % Redefine showpage, { } = null proc
0 setgray 0 setlinecap         % Prepare graphics state
1 setlinewidth 0 setlinejoin
10 setmiterlimit [ ] 0 setdash newpath
/languagelevel where           % If level not equal to 1 then
{pop languagelevel             % set strokeadjust and
1 ne                           % overprint to their defaults.
{false setstrokeadjust false setoverprint
} if
} if
} bd
/EndEPSF { %def
count op_count sub {pop} repeat            % Clean up stacks
countdictstack dict_count sub {end} repeat
b4_Inc_state restore
} bd
%%EndResource
%FOPBeginFontDict
%%IncludeResource: font Courier-Oblique
%%IncludeResource: font Courier-BoldOblique
%%IncludeResource: font Courier-Bold
%%IncludeResource: font ZapfDingbats
%%IncludeResource: font Symbol
%%IncludeResource: font Helvetica
%%IncludeResource: font Helvetica-Oblique
%%IncludeResource: font Helvetica-Bold
%%IncludeResource: font Helvetica-BoldOblique
%%IncludeResource: font Times-Roman
%%IncludeResource: font Times-Italic
%%IncludeResource: font Times-Bold
%%IncludeResource: font Times-BoldItalic
%%IncludeResource: font Courier
%FOPEndFontDict
%%BeginResource: encoding WinAnsiEncoding
/WinAnsiEncoding [
/.notdef /.notdef /.notdef /.notdef /.notdef
/.notdef /.notdef /.notdef /.notdef /.notdef
/.notdef /.notdef /.notdef /.notdef /.notdef
/.notdef /.notdef /.notdef /.notdef /.notdef
/.notdef /.notdef /.notdef /.notdef /.notdef
/.notdef /.notdef /.notdef /.notdef /.notdef
/.notdef /.notdef /space /exclam /quotedbl
/numbersign /dollar /percent /ampersand /quotesingle
/parenleft /parenright /asterisk /plus /comma
/hyphen /period /slash /zero /one
/two /three /four /five /six
/seven /eight /nine /colon /semicolon
/less /equal /greater /question /at
/A /B /C /D /E
/F /G /H /I /J
/K /L /M /N /O
/P /Q /R /S /T
/U /V /W /X /Y
/Z /bracketleft /backslash /bracketright /asciicircum
/underscore /quoteleft /a /b /c
/d /e /f /g /h
/i /j /k /l /m
/n /o /p /q /r
/s /t /u /v /w
/x /y /z /braceleft /bar
/braceright /asciitilde /bullet /Euro /bullet
/quotesinglbase /florin /quotedblbase /ellipsis /dagger
/daggerdbl /circumflex /perthousand /Scaron /guilsinglleft
/OE /bullet /Zcaron /bullet /bullet
/quoteleft /quoteright /quotedblleft /quotedblright /bullet
/endash /emdash /asciitilde /trademark /scaron
/guilsinglright /oe /bullet /zcaron /Ydieresis
/space /exclamdown /cent /sterling /currency
/yen /brokenbar /section /dieresis /copyright
/ordfeminine /guillemotleft /logicalnot /sfthyphen /registered
/macron /degree /plusminus /twosuperior /threesuperior
/acute /mu /paragraph /middot /cedilla
/onesuperior /ordmasculine /guillemotright /onequarter /onehalf
/threequarters /questiondown /Agrave /Aacute /Acircumflex
/Atilde /Adieresis /Aring /AE /Ccedilla
/Egrave /Eacute /Ecircumflex /Edieresis /Igrave
/Iacute /Icircumflex /Idieresis /Eth /Ntilde
/Ograve /Oacute /Ocircumflex /Otilde /Odieresis
/multiply /Oslash /Ugrave /Uacute /Ucircumflex
/Udieresis /Yacute /Thorn /germandbls /agrave
/aacute /acircumflex /atilde /adieresis /aring
/ae /ccedilla /egrave /eacute /ecircumflex
/edieresis /igrave /iacute /icircumflex /idieresis
/eth /ntilde /ograve /oacute /ocircumflex
/otilde /odieresis /divide /oslash /ugrave
/uacute /ucircumflex /udieresis /yacute /thorn
/ydieresis
] def
%%EndResource
%FOPBeginFontReencode
/Courier-Oblique findfont
dup length dict begin
  {1 index /FID ne {def} {pop pop} ifelse} forall
  /Encoding WinAnsiEncoding def
  currentdict
end
/Courier-Oblique exch definefont pop
/Courier-BoldOblique findfont
dup length dict begin
  {1 index /FID ne {def} {pop pop} ifelse} forall
  /Encoding WinAnsiEncoding def
  currentdict
end
/Courier-BoldOblique exch definefont pop
/Courier-Bold findfont
dup length dict begin
  {1 index /FID ne {def} {pop pop} ifelse} forall
  /Encoding WinAnsiEncoding def
  currentdict
end
/Courier-Bold exch definefont pop
/Helvetica findfont
dup length dict begin
  {1 index /FID ne {def} {pop pop} ifelse} forall
  /Encoding WinAnsiEncoding def
  currentdict
end
/Helvetica exch definefont pop
/Helvetica-Oblique findfont
dup length dict begin
  {1 index /FID ne {def} {pop pop} ifelse} forall
  /Encoding WinAnsiEncoding def
  currentdict
end
/Helvetica-Oblique exch definefont pop
/Helvetica-Bold findfont
dup length dict begin
  {1 index /FID ne {def} {pop pop} ifelse} forall
  /Encoding WinAnsiEncoding def
  currentdict
end
/Helvetica-Bold exch definefont pop
/Helvetica-BoldOblique findfont
dup length dict begin
  {1 index /FID ne {def} {pop pop} ifelse} forall
  /Encoding WinAnsiEncoding def
  currentdict
end
/Helvetica-BoldOblique exch definefont pop
/Times-Roman findfont
dup length dict begin
  {1 index /FID ne {def} {pop pop} ifelse} forall
  /Encoding WinAnsiEncoding def
  currentdict
end
/Times-Roman exch definefont pop
/Times-Italic findfont
dup length dict begin
  {1 index /FID ne {def} {pop pop} ifelse} forall
  /Encoding WinAnsiEncoding def
  currentdict
end
/Times-Italic exch definefont pop
/Times-Bold findfont
dup length dict begin
  {1 index /FID ne {def} {pop pop} ifelse} forall
  /Encoding WinAnsiEncoding def
  currentdict
end
/Times-Bold exch definefont pop
/Times-BoldItalic findfont
dup length dict begin
  {1 index /FID ne {def} {pop pop} ifelse} forall
  /Encoding WinAnsiEncoding def
  currentdict
end
/Times-BoldItalic exch definefont pop
/Courier findfont
dup length dict begin
  {1 index /FID ne {def} {pop pop} ifelse} forall
  /Encoding WinAnsiEncoding def
  currentdict
end
/Courier exch definefont pop
%FOPEndFontReencode
%%EndProlog
%%Page: 1 1
%%PageBoundingBox: 0 0 525 394
%%BeginPageSetup
[1 0 0 -1 0 394] CT
%%EndPageSetup
GS
[0.75 0 0 0.74971 0 0.39999] CT
N
0 0 M
700 0 L
700 525 L
0 525 L
0 0 L
cp
clip
1 GC
N
0 0 700 525 re
f
GR
GS
[0.75 0 0 0.74971 0 0.39999] CT
1 GC
N
0 0 700 525 re
f
GR
GS
[0.75 0 0 0.74971 0 0.39999] CT
1 GC
N
91 463 M
634 463 L
634 39 L
91 39 L
cp
f
GR
GS
[0.75 0 0 0.74971 271.87525 26.54629] CT
/Helvetica-Bold 22 F
GS
[1 0 0 1 0 0] CT
-56 -5 moveto 
1 -1 scale
(Q-function) t 
GR
GR
GS
[0.75 0 0 0.74971 0 0.39999] CT
0.149 GC
1 LJ
0.667 LW
N
91 463 M
634 463 L
S
GR
GS
[0.75 0 0 0.74971 0 0.39999] CT
0.902 0.945 0.973 RC
1 LJ
0.667 LW
N
90.935 463 M
91 463 L
92.086 463 L
93.172 463 L
94.258 463 L
95.344 463 L
96.43 463 L
97.516 463 L
98.602 463 L
99.688 463 L
100.774 463 L
101.86 463 L
102.946 463 L
104.032 463 L
105.118 463 L
106.204 463 L
107.29 463 L
108.376 463 L
109.462 463 L
110.548 463 L
111.634 463 L
112.72 463 L
113.806 463 L
114.892 463 L
115.978 463 L
117.064 463 L
118.15 463 L
119.236 463 L
120.322 463 L
121.408 463 L
122.494 463 L
123.58 463 L
124.666 463 L
125.752 463 L
126.838 463 L
127.924 463 L
129.01 463 L
130.096 463 L
131.182 463 L
132.268 463 L
133.354 463 L
134.44 463 L
135.526 463 L
136.612 463 L
137.698 463 L
138.784 463 L
139.87 463 L
140.956 463 L
142.042 463 L
143.128 463 L
144.214 463 L
145.3 463 L
146.386 463 L
147.472 463 L
148.558 463 L
149.644 463 L
150.73 463 L
151.816 463 L
152.902 463 L
153.988 463 L
155.074 463 L
156.16 463 L
157.246 463 L
158.332 463 L
159.418 463 L
160.504 463 L
161.59 463 L
162.676 463 L
163.762 463 L
164.848 463 L
165.934 463 L
167.02 463 L
168.106 463 L
169.192 463 L
170.278 463 L
171.364 463 L
172.45 463 L
173.536 463 L
174.622 463 L
175.708 463 L
176.794 463 L
177.88 463 L
178.966 463 L
180.052 463 L
181.138 463 L
182.224 463 L
183.31 463 L
184.396 463 L
185.482 463 L
186.568 463 L
187.654 463 L
188.74 463 L
189.826 463 L
190.912 463 L
191.998 463 L
193.084 463 L
194.17 463 L
195.256 463 L
196.342 463 L
197.428 463 L
198.514 463 L
199.6 463 L
200.686 463 L
201.772 463 L
202.858 463 L
203.944 463 L
205.03 463 L
206.116 463 L
207.202 463 L
208.288 463 L
209.374 463 L
210.46 463 L
211.546 463 L
212.632 463 L
213.718 463 L
214.804 463 L
215.89 463 L
216.976 463 L
218.062 463 L
219.148 463 L
220.234 463 L
221.32 463 L
222.406 463 L
223.492 463 L
224.578 463 L
225.664 463 L
226.75 463 L
227.836 463 L
228.922 463 L
230.008 463 L
231.094 463 L
232.18 463 L
233.266 463 L
234.352 463 L
235.438 463 L
236.524 463 L
237.61 463 L
238.696 463 L
239.782 463 L
240.868 463 L
241.954 463 L
243.04 463 L
244.126 463 L
245.212 463 L
246.298 463 L
247.384 463 L
248.47 463 L
249.556 463 L
250.642 463 L
251.728 463 L
252.814 463 L
253.9 463 L
254.986 463 L
256.072 463 L
257.158 463 L
258.244 463 L
259.33 463 L
260.416 463 L
261.502 463 L
262.588 463 L
263.674 463 L
264.76 463 L
265.846 463 L
266.932 463 L
268.018 463 L
269.104 463 L
270.19 463 L
271.276 463 L
272.362 463 L
273.448 463 L
274.534 463 L
275.62 463 L
276.706 463 L
277.792 463 L
278.878 463 L
279.964 463 L
281.05 463 L
282.136 463 L
283.222 463 L
284.308 463 L
285.394 463 L
286.48 463 L
287.566 463 L
288.652 463 L
289.738 463 L
290.824 463 L
291.91 463 L
292.996 463 L
294.082 463 L
295.168 463 L
296.254 463 L
297.34 463 L
298.426 463 L
299.512 463 L
300.598 463 L
301.684 463 L
302.77 463 L
303.856 463 L
304.942 463 L
306.028 463 L
307.114 463 L
308.2 463 L
309.286 463 L
310.372 463 L
311.458 463 L
312.544 463 L
313.63 463 L
314.716 463 L
315.802 463 L
316.888 463 L
317.974 463 L
319.06 463 L
320.146 463 L
321.232 463 L
322.318 463 L
323.404 463 L
324.49 463 L
325.576 463 L
326.662 463 L
327.748 463 L
328.834 463 L
329.92 463 L
331.006 463 L
332.092 463 L
333.178 463 L
334.264 463 L
335.35 463 L
336.436 463 L
337.522 463 L
338.608 463 L
339.694 463 L
340.78 463 L
341.866 463 L
342.952 463 L
344.038 463 L
345.124 463 L
346.21 463 L
347.296 463 L
348.382 463 L
349.468 463 L
350.554 463 L
351.64 463 L
352.726 463 L
353.812 463 L
354.898 463 L
355.984 463 L
357.07 463 L
358.156 463 L
359.242 463 L
360.328 463 L
361.414 463 L
362.5 463 L
363.586 463 L
364.672 463 L
365.758 463 L
366.844 463 L
367.93 463 L
369.016 463 L
370.102 463 L
371.188 463 L
372.274 463 L
373.36 463 L
374.446 463 L
375.532 463 L
376.618 463 L
377.704 463 L
378.79 463 L
379.876 463 L
380.962 463 L
382.048 463 L
383.134 463 L
384.22 463 L
385.306 463 L
386.392 463 L
387.478 463 L
388.564 463 L
389.65 463 L
390.736 463 L
391.822 463 L
392.908 463 L
393.994 463 L
395.08 463 L
396.166 463 L
397.252 463 L
398.338 463 L
399.424 463 L
400.51 463 L
401.596 463 L
402.682 463 L
403.768 463 L
404.854 463 L
405.94 463 L
407.026 463 L
408.112 463 L
409.198 463 L
410.284 463 L
411.37 463 L
412.456 463 L
413.542 463 L
414.628 463 L
415.714 463 L
416.8 463 L
417.886 463 L
418.972 463 L
420.058 463 L
421.144 463 L
422.23 463 L
423.316 463 L
424.402 463 L
425.488 463 L
426.574 463 L
427.66 463 L
428.746 463 L
429.832 463 L
430.918 463 L
432.004 463 L
433.09 463 L
434.176 463 L
435.262 463 L
436.348 463 L
437.434 463 L
438.52 463 L
439.606 463 L
440.692 463 L
441.778 463 L
442.864 463 L
443.95 463 L
445.036 463 L
446.122 463 L
447.208 463 L
448.294 463 L
449.38 463 L
450.466 463 L
451.552 463 L
452.638 463 L
453.724 463 L
454.81 463 L
455.896 463 L
456.982 463 L
458.068 463 L
459.154 463 L
460.24 463 L
461.326 463 L
462.412 463 L
463.498 463 L
464.584 463 L
465.67 463 L
466.756 463 L
467.842 463 L
468.928 463 L
470.014 463 L
471.1 463 L
472.186 463 L
473.272 463 L
474.358 463 L
475.444 463 L
476.53 463 L
477.616 463 L
478.702 463 L
479.788 463 L
480.874 463 L
481.96 463 L
483.046 463 L
484.132 463 L
485.218 463 L
486.304 463 L
487.39 463 L
488.476 463 L
489.562 463 L
490.648 463 L
491.734 463 L
492.82 463 L
493.906 463 L
494.992 463 L
496.078 463 L
497.164 463 L
498.25 463 L
499.336 463 L
500.422 463 L
501.508 463 L
502.594 463 L
503.68 463 L
504.766 463 L
505.852 463 L
506.938 463 L
508.024 463 L
509.11 463 L
510.196 463 L
511.282 463 L
512.368 463 L
513.454 463 L
514.54 463 L
515.626 463 L
516.712 463 L
517.798 463 L
518.884 463 L
519.97 463 L
521.056 463 L
522.142 463 L
523.228 463 L
524.314 463 L
525.4 463 L
526.486 463 L
527.572 463 L
528.658 463 L
529.744 463 L
530.83 463 L
531.916 463 L
533.002 463 L
534.088 463 L
535.174 463 L
536.26 463 L
537.346 463 L
538.432 463 L
539.518 463 L
540.604 463 L
541.69 463 L
542.776 463 L
543.862 463 L
544.948 463 L
546.034 463 L
547.12 463 L
548.206 463 L
549.292 463 L
550.378 463 L
551.464 463 L
552.55 463 L
553.636 463 L
554.722 463 L
555.808 463 L
556.894 463 L
557.98 463 L
559.066 463 L
560.152 463 L
561.238 463 L
562.324 463 L
563.41 463 L
564.496 463 L
565.582 463 L
566.668 463 L
567.754 463 L
568.84 463 L
569.926 463 L
571.012 463 L
572.098 463 L
573.184 463 L
574.27 463 L
575.356 463 L
576.442 463 L
577.528 463 L
578.614 463 L
579.7 463 L
580.786 463 L
581.872 463 L
582.958 463 L
584.044 463 L
585.13 463 L
586.216 463 L
587.302 463 L
588.388 463 L
589.474 463 L
590.56 463 L
591.646 463 L
592.732 463 L
593.818 463 L
594.904 463 L
595.99 463 L
597.076 463 L
598.162 463 L
599.248 463 L
600.334 463 L
601.42 463 L
602.506 463 L
603.592 463 L
604.678 463 L
605.764 463 L
606.85 463 L
607.936 463 L
609.022 463 L
610.108 463 L
611.194 463 L
612.28 463 L
613.366 463 L
614.452 463 L
615.538 463 L
616.624 463 L
617.71 463 L
618.796 463 L
619.882 463 L
620.968 463 L
622.054 463 L
623.14 463 L
624.226 463 L
625.312 463 L
626.398 463 L
627.484 463 L
628.57 463 L
629.656 463 L
630.742 463 L
631.828 463 L
632.914 463 L
634 463 L
634.065 463 L
S
GR
GS
[0.75 0 0 0.74971 0 0.39999] CT
0.902 0.945 0.973 RC
1 LJ
0.667 LW
N
634.065 463 M
634 463 L
632.914 463 L
631.828 463 L
630.742 463 L
629.656 463 L
628.57 463 L
627.484 463 L
626.398 463 L
625.312 463 L
624.226 463 L
623.14 463 L
622.054 463 L
620.968 463 L
619.882 463 L
618.796 463 L
617.71 463 L
616.624 463 L
615.538 463 L
614.452 463 L
613.366 463 L
612.28 463 L
611.194 463 L
610.108 463 L
609.022 463 L
607.936 463 L
606.85 463 L
605.764 463 L
604.678 463 L
603.592 463 L
602.506 463 L
601.42 463 L
600.334 463 L
599.248 463 L
598.162 463 L
597.076 463 L
595.99 463 L
594.904 463 L
593.818 463 L
592.732 463 L
591.646 463 L
590.56 463 L
589.474 463 L
588.388 463 L
587.302 463 L
586.216 463 L
585.13 463 L
584.044 463 L
582.958 463 L
581.872 463 L
580.786 463 L
579.7 463 L
578.614 463 L
577.528 463 L
576.442 463 L
575.356 463 L
574.27 463 L
573.184 463 L
572.098 463 L
571.012 463 L
569.926 463 L
568.84 463 L
567.754 463 L
566.668 463 L
565.582 463 L
564.496 463 L
563.41 463 L
562.324 463 L
561.238 463 L
560.152 463 L
559.066 463 L
557.98 463 L
556.894 463 L
555.808 463 L
554.722 463 L
553.636 463 L
552.55 463 L
551.464 463 L
550.378 463 L
549.292 463 L
548.206 463 L
547.12 463 L
546.034 463 L
544.948 463 L
543.862 463 L
542.776 463 L
541.69 463 L
540.604 463 L
539.518 463 L
538.432 463 L
537.346 463 L
536.26 463 L
535.174 463 L
534.088 463 L
533.002 463 L
531.916 463 L
530.83 463 L
529.744 463 L
528.658 463 L
527.572 463 L
526.486 463 L
525.4 463 L
524.314 463 L
523.228 463 L
522.142 463 L
521.056 463 L
519.97 463 L
518.884 463 L
517.798 463 L
516.712 463 L
515.626 463 L
514.54 463 L
513.454 463 L
512.368 463 L
511.282 463 L
510.196 463 L
509.11 463 L
508.024 463 L
506.938 463 L
505.852 463 L
504.766 463 L
503.68 463 L
502.594 463 L
501.508 463 L
500.422 463 L
499.336 463 L
498.25 463 L
497.164 463 L
496.078 463 L
494.992 463 L
493.906 463 L
492.82 463 L
491.734 463 L
490.648 463 L
489.562 463 L
488.476 463 L
487.39 463 L
486.304 463 L
485.218 463 L
484.132 463 L
483.046 463 L
481.96 463 L
480.874 463 L
479.788 463 L
478.702 463 L
477.616 463 L
476.53 463 L
475.444 463 L
474.358 463 L
473.272 463 L
472.186 463 L
471.1 463 L
470.014 463 L
468.928 463 L
467.842 463 L
466.756 463 L
465.67 463 L
464.584 463 L
463.498 463 L
462.412 463 L
461.326 463 L
460.24 463 L
459.154 463 L
458.068 463 L
456.982 463 L
455.896 463 L
454.81 463 L
453.724 463 L
452.638 463 L
451.552 463 L
450.466 463 L
449.38 463 L
448.294 463 L
447.208 463 L
446.122 463 L
445.036 463 L
443.95 463 L
442.864 463 L
441.778 463 L
440.692 463 L
439.606 463 L
438.52 463 L
437.434 463 L
436.348 463 L
435.262 463 L
434.176 463 L
433.09 463 L
432.004 463 L
430.918 463 L
429.832 463 L
428.746 463 L
427.66 463 L
426.574 463 L
425.488 463 L
424.402 463 L
423.316 463 L
422.23 463 L
421.144 463 L
420.058 463 L
418.972 463 L
417.886 463 L
416.8 463 L
415.714 463 L
414.628 463 L
413.542 463 L
412.456 463 L
411.37 463 L
410.284 463 L
409.198 463 L
408.112 463 L
407.026 463 L
405.94 463 L
404.854 463 L
403.768 463 L
402.682 463 L
401.596 463 L
400.51 463 L
399.424 463 L
398.338 463 L
397.252 463 L
396.166 463 L
395.08 463 L
393.994 463 L
392.908 463 L
391.822 463 L
390.736 463 L
389.65 463 L
388.564 463 L
387.478 463 L
386.392 463 L
385.306 463 L
384.22 463 L
383.134 463 L
382.048 463 L
380.962 463 L
379.876 463 L
378.79 463 L
377.704 463 L
376.618 463 L
375.532 463 L
374.446 463 L
373.36 463 L
372.274 463 L
371.188 463 L
370.102 463 L
369.016 463 L
367.93 463 L
366.844 463 L
365.758 463 L
364.672 463 L
363.586 463 L
362.5 463 L
361.414 463 L
360.328 463 L
359.242 463 L
358.156 463 L
357.07 463 L
355.984 463 L
354.898 463 L
353.812 463 L
352.726 463 L
351.64 463 L
350.554 463 L
349.468 463 L
348.382 463 L
347.296 463 L
346.21 463 L
345.124 463 L
344.038 463 L
342.952 463 L
341.866 463 L
340.78 463 L
339.694 463 L
338.608 463 L
337.522 463 L
336.436 463 L
335.35 463 L
334.264 463 L
333.178 463 L
332.092 463 L
331.006 463 L
329.92 463 L
328.834 463 L
327.748 463 L
326.662 463 L
325.576 463 L
324.49 463 L
323.404 463 L
322.318 463 L
321.232 463 L
320.146 463 L
319.06 463 L
317.974 463 L
316.888 463 L
315.802 463 L
314.716 463 L
313.63 463 L
312.544 463 L
311.458 463 L
310.372 463 L
309.286 463 L
308.2 463 L
307.114 463 L
306.028 463 L
304.942 463 L
303.856 463 L
302.77 463 L
301.684 463 L
300.598 463 L
299.512 463 L
298.426 463 L
297.34 463 L
296.254 463 L
295.168 463 L
294.082 463 L
292.996 463 L
291.91 463 L
290.824 463 L
289.738 463 L
288.652 463 L
287.566 463 L
286.48 463 L
285.394 463 L
284.308 463 L
283.222 463 L
282.136 463 L
281.05 463 L
279.964 463 L
278.878 463 L
277.792 463 L
276.706 463 L
275.62 463 L
274.534 463 L
273.448 463 L
272.362 463 L
271.276 463 L
270.19 463 L
269.104 463 L
268.018 463 L
266.932 463 L
265.846 463 L
264.76 463 L
263.674 463 L
262.588 463 L
261.502 463 L
260.416 463 L
259.33 463 L
258.244 463 L
257.158 463 L
256.072 463 L
254.986 463 L
253.9 463 L
252.814 463 L
251.728 463 L
250.642 463 L
249.556 463 L
248.47 463 L
247.384 463 L
246.298 463 L
245.212 463 L
244.126 463 L
243.04 463 L
241.954 463 L
240.868 463 L
239.782 463 L
238.696 463 L
237.61 463 L
236.524 463 L
235.438 463 L
234.352 463 L
233.266 463 L
232.18 463 L
231.094 463 L
230.008 463 L
228.922 463 L
227.836 463 L
226.75 463 L
225.664 463 L
224.578 463 L
223.492 463 L
222.406 463 L
221.32 463 L
220.234 463 L
219.148 463 L
218.062 463 L
216.976 463 L
215.89 463 L
214.804 463 L
213.718 463 L
212.632 463 L
211.546 463 L
210.46 463 L
209.374 463 L
208.288 463 L
207.202 463 L
206.116 463 L
205.03 463 L
203.944 463 L
202.858 463 L
201.772 463 L
200.686 463 L
199.6 463 L
198.514 463 L
197.428 463 L
196.342 463 L
195.256 463 L
194.17 463 L
193.084 463 L
191.998 463 L
190.912 463 L
189.826 463 L
188.74 463 L
187.654 463 L
186.568 463 L
185.482 463 L
184.396 463 L
183.31 463 L
182.224 463 L
181.138 463 L
180.052 463 L
178.966 463 L
177.88 463 L
176.794 463 L
175.708 463 L
174.622 463 L
173.536 463 L
172.45 463 L
171.364 463 L
170.278 463 L
169.192 463 L
168.106 463 L
167.02 463 L
165.934 463 L
164.848 463 L
163.762 463 L
162.676 463 L
161.59 463 L
160.504 463 L
159.418 463 L
158.332 463 L
157.246 463 L
156.16 463 L
155.074 463 L
153.988 463 L
152.902 463 L
151.816 463 L
150.73 463 L
149.644 463 L
148.558 463 L
147.472 463 L
146.386 463 L
145.3 463 L
144.214 463 L
143.128 463 L
142.042 463 L
140.956 463 L
139.87 463 L
138.784 463 L
137.698 463 L
136.612 463 L
135.526 463 L
134.44 463 L
133.354 463 L
132.268 463 L
131.182 463 L
130.096 463 L
129.01 463 L
127.924 463 L
126.838 463 L
125.752 463 L
124.666 463 L
123.58 463 L
122.494 463 L
121.408 463 L
120.322 463 L
119.236 463 L
118.15 463 L
117.064 463 L
115.978 463 L
114.892 463 L
113.806 463 L
112.72 463 L
111.634 463 L
110.548 463 L
109.462 463 L
108.376 463 L
107.29 463 L
106.204 463 L
105.118 463 L
104.032 463 L
102.946 463 L
101.86 463 L
100.774 463 L
99.688 463 L
98.602 463 L
97.516 463 L
96.43 463 L
95.344 463 L
94.258 463 L
93.172 463 L
92.086 463 L
91 463 L
90.935 463 L
S
GR
GS
[0.75 0 0 0.74971 0 0.39999] CT
0.984 0.933 0.91 RC
N
90.935 437.725 M
90.935 463 L
91 463 L
92.086 463 L
93.172 463 L
94.258 463 L
95.344 463 L
96.43 463 L
97.516 463 L
98.602 463 L
99.688 463 L
100.774 463 L
101.86 463 L
102.946 463 L
104.032 463 L
105.118 463 L
106.204 463 L
107.29 463 L
108.376 463 L
109.462 463 L
110.548 463 L
111.634 463 L
112.72 463 L
113.806 463 L
114.892 463 L
115.978 463 L
117.064 463 L
118.15 463 L
119.236 463 L
120.322 463 L
121.408 463 L
122.494 463 L
123.58 463 L
124.666 463 L
125.752 463 L
126.838 463 L
127.924 463 L
129.01 463 L
130.096 463 L
131.182 463 L
132.268 463 L
133.354 463 L
134.44 463 L
135.526 463 L
136.612 463 L
137.698 463 L
138.784 463 L
139.87 463 L
140.956 463 L
142.042 463 L
143.128 463 L
144.214 463 L
145.3 463 L
146.386 463 L
147.472 463 L
148.558 463 L
149.644 463 L
150.73 463 L
151.816 463 L
152.902 463 L
153.988 463 L
155.074 463 L
156.16 463 L
157.246 463 L
158.332 463 L
159.418 463 L
160.504 463 L
161.59 463 L
162.676 463 L
163.762 463 L
164.848 463 L
165.934 463 L
167.02 463 L
168.106 463 L
169.192 463 L
170.278 463 L
171.364 463 L
172.45 463 L
173.536 463 L
174.622 463 L
175.708 463 L
176.794 463 L
177.88 463 L
178.966 463 L
180.052 463 L
181.138 463 L
182.224 463 L
183.31 463 L
184.396 463 L
185.482 463 L
186.568 463 L
187.654 463 L
188.74 463 L
189.826 463 L
190.912 463 L
191.998 463 L
193.084 463 L
194.17 463 L
195.256 463 L
196.342 463 L
197.428 463 L
198.514 463 L
199.6 463 L
200.686 463 L
201.772 463 L
202.858 463 L
203.944 463 L
205.03 463 L
206.116 463 L
207.202 463 L
208.288 463 L
209.374 463 L
210.46 463 L
211.546 463 L
212.632 463 L
213.718 463 L
214.804 463 L
215.89 463 L
216.976 463 L
218.062 463 L
219.148 463 L
220.234 463 L
221.32 463 L
222.406 463 L
223.492 463 L
224.578 463 L
225.664 463 L
226.75 463 L
227.836 463 L
228.922 463 L
230.008 463 L
231.094 463 L
232.18 463 L
233.266 463 L
234.352 463 L
235.438 463 L
236.524 463 L
237.61 463 L
238.696 463 L
239.782 463 L
240.868 463 L
241.954 463 L
243.04 463 L
244.126 463 L
245.212 463 L
246.298 463 L
247.384 463 L
248.47 463 L
249.556 463 L
250.642 463 L
251.728 463 L
252.814 463 L
253.9 463 L
254.986 463 L
256.072 463 L
257.158 463 L
258.244 463 L
259.33 463 L
260.416 463 L
261.502 463 L
262.588 463 L
263.674 463 L
264.76 463 L
265.846 463 L
266.932 463 L
268.018 463 L
269.104 463 L
270.19 463 L
271.276 463 L
272.362 463 L
273.448 463 L
274.534 463 L
275.62 463 L
276.706 463 L
277.792 463 L
278.878 463 L
279.964 463 L
281.05 463 L
282.136 463 L
283.222 463 L
284.308 463 L
285.394 463 L
286.48 463 L
287.566 463 L
288.652 463 L
289.738 463 L
290.824 463 L
291.91 463 L
292.996 463 L
294.082 463 L
295.168 463 L
296.254 463 L
297.34 463 L
298.426 463 L
299.512 463 L
300.598 463 L
301.684 463 L
302.77 463 L
303.856 463 L
304.942 463 L
306.028 463 L
307.114 463 L
308.2 463 L
309.286 463 L
310.372 463 L
311.458 463 L
312.544 463 L
313.63 463 L
314.716 463 L
315.802 463 L
316.888 463 L
317.974 463 L
319.06 463 L
320.146 463 L
321.232 463 L
322.318 463 L
323.404 463 L
324.49 463 L
325.576 463 L
326.662 463 L
327.748 463 L
328.834 463 L
329.92 463 L
331.006 463 L
332.092 463 L
333.178 463 L
334.264 463 L
335.35 463 L
336.436 463 L
337.522 463 L
338.608 463 L
339.694 463 L
340.78 463 L
341.866 463 L
342.952 463 L
344.038 463 L
345.124 463 L
346.21 463 L
347.296 463 L
348.382 463 L
349.468 463 L
350.554 463 L
351.64 463 L
352.726 463 L
353.812 463 L
354.898 463 L
355.984 463 L
357.07 463 L
358.156 463 L
359.242 463 L
360.328 463 L
361.414 463 L
362.5 463 L
363.586 463 L
364.672 463 L
365.758 463 L
366.844 463 L
367.93 463 L
369.016 463 L
370.102 463 L
371.188 463 L
372.274 463 L
373.36 463 L
374.446 463 L
375.532 463 L
376.618 463 L
377.704 463 L
378.79 463 L
379.876 463 L
380.962 463 L
382.048 463 L
383.134 463 L
384.22 463 L
385.306 463 L
386.392 463 L
387.478 463 L
388.564 463 L
389.65 463 L
390.736 463 L
391.822 463 L
392.908 463 L
393.994 463 L
395.08 463 L
396.166 463 L
397.252 463 L
398.338 463 L
399.424 463 L
400.51 463 L
401.596 463 L
402.682 463 L
403.768 463 L
404.854 463 L
405.94 463 L
407.026 463 L
408.112 463 L
409.198 463 L
410.284 463 L
411.37 463 L
412.456 463 L
413.542 463 L
414.628 463 L
415.714 463 L
416.8 463 L
417.886 463 L
418.972 463 L
420.058 463 L
421.144 463 L
422.23 463 L
423.316 463 L
424.402 463 L
425.488 463 L
426.574 463 L
427.66 463 L
428.746 463 L
429.832 463 L
430.918 463 L
432.004 463 L
433.09 463 L
434.176 463 L
435.262 463 L
436.348 463 L
437.434 463 L
438.52 463 L
439.606 463 L
440.692 463 L
441.778 463 L
442.864 463 L
443.95 463 L
445.036 463 L
446.122 463 L
447.208 463 L
448.294 463 L
449.38 463 L
450.466 463 L
451.552 463 L
452.638 463 L
453.724 463 L
454.81 463 L
455.896 463 L
456.982 463 L
458.068 463 L
459.154 463 L
460.24 463 L
461.326 463 L
462.412 463 L
463.498 463 L
464.584 463 L
465.67 463 L
466.756 463 L
467.842 463 L
468.928 463 L
470.014 463 L
471.1 463 L
472.186 463 L
473.272 463 L
474.358 463 L
475.444 463 L
476.53 463 L
477.616 463 L
478.702 463 L
479.788 463 L
480.874 463 L
481.96 463 L
483.046 463 L
484.132 463 L
485.218 463 L
486.304 463 L
487.39 463 L
488.476 463 L
489.562 463 L
490.648 463 L
491.734 463 L
492.82 463 L
493.906 463 L
494.992 463 L
496.078 463 L
497.164 463 L
498.25 463 L
499.336 463 L
500.422 463 L
501.508 463 L
502.594 463 L
503.68 463 L
504.766 463 L
505.852 463 L
506.938 463 L
508.024 463 L
509.11 463 L
510.196 463 L
511.282 463 L
512.368 463 L
513.454 463 L
514.54 463 L
515.626 463 L
516.712 463 L
517.798 463 L
518.884 463 L
519.97 463 L
521.056 463 L
522.142 463 L
523.228 463 L
524.314 463 L
525.4 463 L
526.486 463 L
527.572 463 L
528.658 463 L
529.744 463 L
530.83 463 L
531.916 463 L
533.002 463 L
534.088 463 L
535.174 463 L
536.26 463 L
537.346 463 L
538.432 463 L
539.518 463 L
540.604 463 L
541.69 463 L
542.776 463 L
543.862 463 L
544.948 463 L
546.034 463 L
547.12 463 L
548.206 463 L
549.292 463 L
550.378 463 L
551.464 463 L
552.55 463 L
553.636 463 L
554.722 463 L
555.808 463 L
556.894 463 L
557.98 463 L
559.066 463 L
560.152 463 L
561.238 463 L
562.324 463 L
563.41 463 L
564.496 463 L
565.582 463 L
566.668 463 L
567.754 463 L
568.84 463 L
569.926 463 L
571.012 463 L
572.098 463 L
573.184 463 L
574.27 463 L
575.356 463 L
576.442 463 L
577.528 463 L
578.614 463 L
579.7 463 L
580.786 463 L
581.872 463 L
582.958 463 L
584.044 463 L
585.13 463 L
586.216 463 L
587.302 463 L
588.388 463 L
589.474 463 L
590.56 463 L
591.646 463 L
592.732 463 L
593.818 463 L
594.904 463 L
595.99 463 L
597.076 463 L
598.162 463 L
599.248 463 L
600.334 463 L
601.42 463 L
602.506 463 L
603.592 463 L
604.678 463 L
605.764 463 L
606.85 463 L
607.936 463 L
609.022 463 L
610.108 463 L
611.194 463 L
612.28 463 L
613.366 463 L
614.452 463 L
615.538 463 L
616.624 463 L
617.71 463 L
618.796 463 L
619.882 463 L
620.968 463 L
622.054 463 L
623.14 463 L
624.226 463 L
625.312 463 L
626.398 463 L
627.484 463 L
628.57 463 L
629.656 463 L
630.742 463 L
631.828 463 L
632.914 463 L
634 463 L
634.065 463 L
634.065 64.27 L
634.065 39 L
634 39 L
632.914 39 L
631.828 39 L
630.742 39 L
629.656 39 L
628.57 39 L
627.484 39 L
626.398 39 L
625.312 39 L
624.226 39 L
623.14 39 L
622.054 39 L
620.968 39 L
619.882 39 L
618.796 39 L
617.71 39 L
616.624 39 L
615.538 39 L
614.452 39 L
613.366 39 L
612.28 39 L
611.194 39 L
610.108 39 L
609.022 39 L
607.936 39 L
606.85 39 L
605.764 39 L
604.678 39 L
603.592 39 L
602.506 39 L
601.42 39 L
600.334 39 L
599.248 39 L
598.162 39 L
597.076 39 L
595.99 39 L
594.904 39 L
593.818 39 L
592.732 39 L
591.646 39 L
590.56 39 L
589.474 39 L
588.388 39 L
587.302 39 L
586.216 39 L
585.13 39 L
584.044 39 L
582.958 39 L
581.872 39 L
580.786 39 L
579.7 39 L
578.614 39 L
577.528 39 L
576.442 39 L
575.356 39 L
574.27 39 L
573.184 39 L
572.098 39 L
571.012 39 L
569.926 39 L
568.84 39 L
567.754 39 L
566.668 39 L
565.582 39 L
564.496 39 L
563.41 39 L
562.324 39 L
561.238 39 L
560.152 39 L
559.066 39 L
557.98 39 L
556.894 39 L
555.808 39 L
554.722 39 L
553.636 39 L
552.55 39 L
551.464 39 L
550.378 39 L
549.292 39 L
548.206 39 L
547.12 39 L
546.034 39 L
544.948 39 L
543.862 39 L
542.776 39 L
541.69 39 L
540.604 39 L
539.518 39 L
538.432 39 L
537.346 39 L
536.26 39 L
535.174 39 L
534.088 39 L
533.002 39 L
531.916 39 L
530.83 39 L
529.744 39 L
528.658 39 L
527.572 39 L
526.486 39 L
525.4 39 L
524.314 39 L
523.228 39 L
522.142 39 L
521.056 39 L
519.97 39 L
518.884 39 L
517.798 39 L
516.712 39 L
515.626 39 L
514.54 39 L
513.454 39 L
512.368 39 L
511.282 39 L
510.196 39 L
509.11 39 L
508.024 39 L
506.938 39 L
505.852 39 L
504.766 39 L
503.68 39 L
502.594 39 L
501.508 39 L
500.422 39 L
499.336 39 L
498.25 39 L
497.164 39 L
496.078 39 L
494.992 39 L
493.906 39 L
492.82 39 L
491.734 39 L
490.648 39 L
489.562 39 L
488.476 39 L
487.39 39 L
486.304 39 L
485.218 39 L
484.132 39 L
483.046 39 L
481.96 39 L
480.874 39 L
479.788 39 L
478.702 39 L
477.616 39 L
476.53 39 L
475.444 39 L
474.358 39 L
473.272 39 L
472.186 39 L
471.1 39 L
470.014 39 L
468.928 39 L
467.842 39 L
466.756 39 L
465.67 39 L
464.584 39 L
463.498 39 L
462.412 39 L
461.326 39 L
460.24 39 L
459.154 39 L
458.068 39 L
456.982 39 L
455.896 39 L
454.81 39 L
453.724 39 L
452.638 39 L
451.552 39 L
450.466 39 L
449.38 39 L
448.294 39 L
447.208 39 L
446.122 39 L
445.036 39 L
443.95 39 L
442.864 39 L
441.778 39 L
440.692 39 L
439.606 39 L
438.52 39 L
437.434 39 L
436.348 39 L
435.262 39 L
434.176 39 L
433.09 39 L
432.004 39 L
430.918 39 L
429.832 39 L
428.746 39 L
427.66 39 L
426.574 39 L
425.488 39 L
424.402 39 L
423.316 39 L
422.23 39 L
421.144 39 L
420.058 39 L
418.972 39 L
417.886 39 L
416.8 39 L
415.714 39 L
414.628 39 L
413.542 39 L
412.456 39 L
411.37 39 L
410.284 39 L
409.198 39 L
408.112 39 L
407.026 39 L
405.94 39 L
404.854 39 L
403.768 39 L
402.682 39 L
401.596 39 L
400.51 39 L
399.424 39 L
398.338 39 L
397.252 39 L
396.166 39 L
395.08 39 L
393.994 39 L
392.908 39 L
391.822 39 L
390.736 39 L
389.65 39 L
388.564 39 L
387.478 39 L
386.392 39 L
385.306 39 L
384.22 39 L
383.134 39 L
382.048 39 L
380.962 39 L
379.876 39 L
378.79 39 L
377.704 39 L
376.618 39 L
375.532 39 L
374.446 39 L
373.36 39 L
372.274 39 L
371.188 39 L
370.102 39 L
369.016 39 L
367.93 39 L
366.844 39 L
365.758 39 L
364.672 39 L
363.586 39 L
362.5 39 L
361.414 39 L
360.328 39 L
359.242 39 L
358.156 39 L
357.07 39 L
355.984 39 L
354.898 39 L
353.812 39 L
352.726 39 L
351.64 39 L
350.554 39 L
349.468 39 L
348.382 39 L
347.296 39 L
346.21 39 L
345.124 39 L
344.038 39 L
342.952 39 L
341.866 39 L
340.78 39 L
339.694 39 L
338.608 39 L
337.522 39 L
336.436 39 L
335.35 39 L
334.264 39 L
333.178 39 L
332.092 39 L
331.006 39 L
329.92 39 L
328.834 39 L
327.748 39 L
326.662 39 L
325.576 39 L
324.49 39 L
323.404 39 L
322.318 39 L
321.232 39 L
320.146 39 L
319.06 39 L
317.974 39 L
316.888 39 L
315.802 39 L
314.716 39 L
313.63 39 L
312.544 39 L
311.458 39 L
310.372 39 L
309.286 39 L
308.2 39 L
307.114 39 L
306.028 39 L
304.942 39 L
303.856 39 L
302.77 39 L
301.684 39 L
300.598 39 L
299.512 39 L
298.426 39 L
297.34 39 L
296.254 39 L
295.168 39 L
294.082 39 L
292.996 39 L
291.91 39 L
290.824 39 L
289.738 39 L
288.652 39 L
287.566 39 L
286.48 39 L
285.394 39 L
284.308 39 L
283.222 39 L
282.136 39 L
281.05 39 L
279.964 39 L
278.878 39 L
277.792 39 L
276.706 39 L
275.62 39 L
274.534 39 L
273.448 39 L
272.362 39 L
271.276 39 L
270.19 39 L
269.104 39 L
268.018 39 L
266.932 39 L
265.846 39 L
264.76 39 L
263.674 39 L
262.588 39 L
261.502 39 L
260.416 39 L
259.33 39 L
258.244 39 L
257.158 39 L
256.072 39 L
254.986 39 L
253.9 39 L
252.814 39 L
251.728 39 L
250.642 39 L
249.556 39 L
248.47 39 L
247.384 39 L
246.298 39 L
245.212 39 L
244.126 39 L
243.04 39 L
241.954 39 L
240.868 39 L
239.782 39 L
238.696 39 L
237.61 39 L
236.524 39 L
235.438 39 L
234.352 39 L
233.266 39 L
232.18 39 L
231.094 39 L
230.008 39 L
228.922 39 L
227.836 39 L
226.75 39 L
225.664 39 L
224.578 39 L
223.492 39 L
222.406 39 L
221.32 39 L
220.234 39 L
219.148 39 L
218.062 39 L
216.976 39 L
215.89 39 L
214.804 39 L
213.718 39 L
212.632 39 L
211.546 39 L
210.46 39 L
209.374 39 L
208.288 39 L
207.202 39 L
206.116 39 L
205.03 39 L
203.944 39 L
202.858 39 L
201.772 39 L
200.686 39 L
199.6 39 L
198.514 39 L
197.428 39 L
196.342 39 L
195.256 39 L
194.17 39 L
193.084 39 L
191.998 39 L
190.912 39 L
189.826 39 L
188.74 39 L
187.654 39 L
186.568 39 L
185.482 39 L
184.396 39 L
183.31 39 L
182.224 39 L
181.138 39 L
180.052 39 L
178.966 39 L
177.88 39 L
176.794 39 L
175.708 39 L
174.622 39 L
173.536 39 L
172.45 39 L
171.364 39 L
170.278 39 L
169.192 39 L
168.106 39 L
167.02 39 L
165.934 39 L
164.848 39 L
163.762 39 L
162.676 39 L
161.59 39 L
160.504 39 L
159.418 39 L
158.332 39 L
157.246 39 L
156.16 39 L
155.074 39 L
153.988 39 L
152.902 39 L
151.816 39 L
150.73 39 L
149.644 39 L
148.558 39 L
147.472 39 L
146.386 39 L
145.3 39 L
144.214 39 L
143.128 39 L
142.042 39 L
140.956 39 L
139.87 39 L
138.784 39 L
137.698 39 L
136.612 39 L
135.526 39 L
134.44 39 L
133.354 39 L
132.268 39 L
131.182 39 L
130.096 39 L
129.01 39 L
127.924 39 L
126.838 39 L
125.752 39 L
124.666 39 L
123.58 39 L
122.494 39 L
121.408 39 L
120.322 39 L
119.236 39 L
118.15 39 L
117.064 39 L
115.978 39 L
114.892 39 L
113.806 39 L
112.72 39 L
111.634 39 L
110.548 39 L
109.462 39 L
108.376 39 L
107.29 39 L
106.204 39 L
105.118 39 L
104.032 39 L
102.946 39 L
101.86 39 L
100.774 39 L
99.688 39 L
98.602 39 L
97.516 39 L
96.43 39 L
95.344 39 L
94.258 39 L
93.172 39 L
92.086 39 L
91 39 L
90.935 39 L
cp
f
GR
GS
[0.75 0 0 0.74971 0 0.39999] CT
0.984 0.933 0.91 RC
1 LJ
0.667 LW
N
90.935 463 M
91 463 L
92.086 463 L
93.172 463 L
94.258 463 L
95.344 463 L
96.43 463 L
97.516 463 L
98.602 463 L
99.688 463 L
100.774 463 L
101.86 463 L
102.946 463 L
104.032 463 L
105.118 463 L
106.204 463 L
107.29 463 L
108.376 463 L
109.462 463 L
110.548 463 L
111.634 463 L
112.72 463 L
113.806 463 L
114.892 463 L
115.978 463 L
117.064 463 L
118.15 463 L
119.236 463 L
120.322 463 L
121.408 463 L
122.494 463 L
123.58 463 L
124.666 463 L
125.752 463 L
126.838 463 L
127.924 463 L
129.01 463 L
130.096 463 L
131.182 463 L
132.268 463 L
133.354 463 L
134.44 463 L
135.526 463 L
136.612 463 L
137.698 463 L
138.784 463 L
139.87 463 L
140.956 463 L
142.042 463 L
143.128 463 L
144.214 463 L
145.3 463 L
146.386 463 L
147.472 463 L
148.558 463 L
149.644 463 L
150.73 463 L
151.816 463 L
152.902 463 L
153.988 463 L
155.074 463 L
156.16 463 L
157.246 463 L
158.332 463 L
159.418 463 L
160.504 463 L
161.59 463 L
162.676 463 L
163.762 463 L
164.848 463 L
165.934 463 L
167.02 463 L
168.106 463 L
169.192 463 L
170.278 463 L
171.364 463 L
172.45 463 L
173.536 463 L
174.622 463 L
175.708 463 L
176.794 463 L
177.88 463 L
178.966 463 L
180.052 463 L
181.138 463 L
182.224 463 L
183.31 463 L
184.396 463 L
185.482 463 L
186.568 463 L
187.654 463 L
188.74 463 L
189.826 463 L
190.912 463 L
191.998 463 L
193.084 463 L
194.17 463 L
195.256 463 L
196.342 463 L
197.428 463 L
198.514 463 L
199.6 463 L
200.686 463 L
201.772 463 L
202.858 463 L
203.944 463 L
205.03 463 L
206.116 463 L
207.202 463 L
208.288 463 L
209.374 463 L
210.46 463 L
211.546 463 L
212.632 463 L
213.718 463 L
214.804 463 L
215.89 463 L
216.976 463 L
218.062 463 L
219.148 463 L
220.234 463 L
221.32 463 L
222.406 463 L
223.492 463 L
224.578 463 L
225.664 463 L
226.75 463 L
227.836 463 L
228.922 463 L
230.008 463 L
231.094 463 L
232.18 463 L
233.266 463 L
234.352 463 L
235.438 463 L
236.524 463 L
237.61 463 L
238.696 463 L
239.782 463 L
240.868 463 L
241.954 463 L
243.04 463 L
244.126 463 L
245.212 463 L
246.298 463 L
247.384 463 L
248.47 463 L
249.556 463 L
250.642 463 L
251.728 463 L
252.814 463 L
253.9 463 L
254.986 463 L
256.072 463 L
257.158 463 L
258.244 463 L
259.33 463 L
260.416 463 L
261.502 463 L
262.588 463 L
263.674 463 L
264.76 463 L
265.846 463 L
266.932 463 L
268.018 463 L
269.104 463 L
270.19 463 L
271.276 463 L
272.362 463 L
273.448 463 L
274.534 463 L
275.62 463 L
276.706 463 L
277.792 463 L
278.878 463 L
279.964 463 L
281.05 463 L
282.136 463 L
283.222 463 L
284.308 463 L
285.394 463 L
286.48 463 L
287.566 463 L
288.652 463 L
289.738 463 L
290.824 463 L
291.91 463 L
292.996 463 L
294.082 463 L
295.168 463 L
296.254 463 L
297.34 463 L
298.426 463 L
299.512 463 L
300.598 463 L
301.684 463 L
302.77 463 L
303.856 463 L
304.942 463 L
306.028 463 L
307.114 463 L
308.2 463 L
309.286 463 L
310.372 463 L
311.458 463 L
312.544 463 L
313.63 463 L
314.716 463 L
315.802 463 L
316.888 463 L
317.974 463 L
319.06 463 L
320.146 463 L
321.232 463 L
322.318 463 L
323.404 463 L
324.49 463 L
325.576 463 L
326.662 463 L
327.748 463 L
328.834 463 L
329.92 463 L
331.006 463 L
332.092 463 L
333.178 463 L
334.264 463 L
335.35 463 L
336.436 463 L
337.522 463 L
338.608 463 L
339.694 463 L
340.78 463 L
341.866 463 L
342.952 463 L
344.038 463 L
345.124 463 L
346.21 463 L
347.296 463 L
348.382 463 L
349.468 463 L
350.554 463 L
351.64 463 L
352.726 463 L
353.812 463 L
354.898 463 L
355.984 463 L
357.07 463 L
358.156 463 L
359.242 463 L
360.328 463 L
361.414 463 L
362.5 463 L
363.586 463 L
364.672 463 L
365.758 463 L
366.844 463 L
367.93 463 L
369.016 463 L
370.102 463 L
371.188 463 L
372.274 463 L
373.36 463 L
374.446 463 L
375.532 463 L
376.618 463 L
377.704 463 L
378.79 463 L
379.876 463 L
380.962 463 L
382.048 463 L
383.134 463 L
384.22 463 L
385.306 463 L
386.392 463 L
387.478 463 L
388.564 463 L
389.65 463 L
390.736 463 L
391.822 463 L
392.908 463 L
393.994 463 L
395.08 463 L
396.166 463 L
397.252 463 L
398.338 463 L
399.424 463 L
400.51 463 L
401.596 463 L
402.682 463 L
403.768 463 L
404.854 463 L
405.94 463 L
407.026 463 L
408.112 463 L
409.198 463 L
410.284 463 L
411.37 463 L
412.456 463 L
413.542 463 L
414.628 463 L
415.714 463 L
416.8 463 L
417.886 463 L
418.972 463 L
420.058 463 L
421.144 463 L
422.23 463 L
423.316 463 L
424.402 463 L
425.488 463 L
426.574 463 L
427.66 463 L
428.746 463 L
429.832 463 L
430.918 463 L
432.004 463 L
433.09 463 L
434.176 463 L
435.262 463 L
436.348 463 L
437.434 463 L
438.52 463 L
439.606 463 L
440.692 463 L
441.778 463 L
442.864 463 L
443.95 463 L
445.036 463 L
446.122 463 L
447.208 463 L
448.294 463 L
449.38 463 L
450.466 463 L
451.552 463 L
452.638 463 L
453.724 463 L
454.81 463 L
455.896 463 L
456.982 463 L
458.068 463 L
459.154 463 L
460.24 463 L
461.326 463 L
462.412 463 L
463.498 463 L
464.584 463 L
465.67 463 L
466.756 463 L
467.842 463 L
468.928 463 L
470.014 463 L
471.1 463 L
472.186 463 L
473.272 463 L
474.358 463 L
475.444 463 L
476.53 463 L
477.616 463 L
478.702 463 L
479.788 463 L
480.874 463 L
481.96 463 L
483.046 463 L
484.132 463 L
485.218 463 L
486.304 463 L
487.39 463 L
488.476 463 L
489.562 463 L
490.648 463 L
491.734 463 L
492.82 463 L
493.906 463 L
494.992 463 L
496.078 463 L
497.164 463 L
498.25 463 L
499.336 463 L
500.422 463 L
501.508 463 L
502.594 463 L
503.68 463 L
504.766 463 L
505.852 463 L
506.938 463 L
508.024 463 L
509.11 463 L
510.196 463 L
511.282 463 L
512.368 463 L
513.454 463 L
514.54 463 L
515.626 463 L
516.712 463 L
517.798 463 L
518.884 463 L
519.97 463 L
521.056 463 L
522.142 463 L
523.228 463 L
524.314 463 L
525.4 463 L
526.486 463 L
527.572 463 L
528.658 463 L
529.744 463 L
530.83 463 L
531.916 463 L
533.002 463 L
534.088 463 L
535.174 463 L
536.26 463 L
537.346 463 L
538.432 463 L
539.518 463 L
540.604 463 L
541.69 463 L
542.776 463 L
543.862 463 L
544.948 463 L
546.034 463 L
547.12 463 L
548.206 463 L
549.292 463 L
550.378 463 L
551.464 463 L
552.55 463 L
553.636 463 L
554.722 463 L
555.808 463 L
556.894 463 L
557.98 463 L
559.066 463 L
560.152 463 L
561.238 463 L
562.324 463 L
563.41 463 L
564.496 463 L
565.582 463 L
566.668 463 L
567.754 463 L
568.84 463 L
569.926 463 L
571.012 463 L
572.098 463 L
573.184 463 L
574.27 463 L
575.356 463 L
576.442 463 L
577.528 463 L
578.614 463 L
579.7 463 L
580.786 463 L
581.872 463 L
582.958 463 L
584.044 463 L
585.13 463 L
586.216 463 L
587.302 463 L
588.388 463 L
589.474 463 L
590.56 463 L
591.646 463 L
592.732 463 L
593.818 463 L
594.904 463 L
595.99 463 L
597.076 463 L
598.162 463 L
599.248 463 L
600.334 463 L
601.42 463 L
602.506 463 L
603.592 463 L
604.678 463 L
605.764 463 L
606.85 463 L
607.936 463 L
609.022 463 L
610.108 463 L
611.194 463 L
612.28 463 L
613.366 463 L
614.452 463 L
615.538 463 L
616.624 463 L
617.71 463 L
618.796 463 L
619.882 463 L
620.968 463 L
622.054 463 L
623.14 463 L
624.226 463 L
625.312 463 L
626.398 463 L
627.484 463 L
628.57 463 L
629.656 463 L
630.742 463 L
631.828 463 L
632.914 463 L
634 463 L
634.065 463 L
S
GR
GS
[0.75 0 0 0.74971 0 0.39999] CT
0.984 0.933 0.91 RC
1 LJ
0.667 LW
N
634.065 39 M
634 39 L
632.914 39 L
631.828 39 L
630.742 39 L
629.656 39 L
628.57 39 L
627.484 39 L
626.398 39 L
625.312 39 L
624.226 39 L
623.14 39 L
622.054 39 L
620.968 39 L
619.882 39 L
618.796 39 L
617.71 39 L
616.624 39 L
615.538 39 L
614.452 39 L
613.366 39 L
612.28 39 L
611.194 39 L
610.108 39 L
609.022 39 L
607.936 39 L
606.85 39 L
605.764 39 L
604.678 39 L
603.592 39 L
602.506 39 L
601.42 39 L
600.334 39 L
599.248 39 L
598.162 39 L
597.076 39 L
595.99 39 L
594.904 39 L
593.818 39 L
592.732 39 L
591.646 39 L
590.56 39 L
589.474 39 L
588.388 39 L
587.302 39 L
586.216 39 L
585.13 39 L
584.044 39 L
582.958 39 L
581.872 39 L
580.786 39 L
579.7 39 L
578.614 39 L
577.528 39 L
576.442 39 L
575.356 39 L
574.27 39 L
573.184 39 L
572.098 39 L
571.012 39 L
569.926 39 L
568.84 39 L
567.754 39 L
566.668 39 L
565.582 39 L
564.496 39 L
563.41 39 L
562.324 39 L
561.238 39 L
560.152 39 L
559.066 39 L
557.98 39 L
556.894 39 L
555.808 39 L
554.722 39 L
553.636 39 L
552.55 39 L
551.464 39 L
550.378 39 L
549.292 39 L
548.206 39 L
547.12 39 L
546.034 39 L
544.948 39 L
543.862 39 L
542.776 39 L
541.69 39 L
540.604 39 L
539.518 39 L
538.432 39 L
537.346 39 L
536.26 39 L
535.174 39 L
534.088 39 L
533.002 39 L
531.916 39 L
530.83 39 L
529.744 39 L
528.658 39 L
527.572 39 L
526.486 39 L
525.4 39 L
524.314 39 L
523.228 39 L
522.142 39 L
521.056 39 L
519.97 39 L
518.884 39 L
517.798 39 L
516.712 39 L
515.626 39 L
514.54 39 L
513.454 39 L
512.368 39 L
511.282 39 L
510.196 39 L
509.11 39 L
508.024 39 L
506.938 39 L
505.852 39 L
504.766 39 L
503.68 39 L
502.594 39 L
501.508 39 L
500.422 39 L
499.336 39 L
498.25 39 L
497.164 39 L
496.078 39 L
494.992 39 L
493.906 39 L
492.82 39 L
491.734 39 L
490.648 39 L
489.562 39 L
488.476 39 L
487.39 39 L
486.304 39 L
485.218 39 L
484.132 39 L
483.046 39 L
481.96 39 L
480.874 39 L
479.788 39 L
478.702 39 L
477.616 39 L
476.53 39 L
475.444 39 L
474.358 39 L
473.272 39 L
472.186 39 L
471.1 39 L
470.014 39 L
468.928 39 L
467.842 39 L
466.756 39 L
465.67 39 L
464.584 39 L
463.498 39 L
462.412 39 L
461.326 39 L
460.24 39 L
459.154 39 L
458.068 39 L
456.982 39 L
455.896 39 L
454.81 39 L
453.724 39 L
452.638 39 L
451.552 39 L
450.466 39 L
449.38 39 L
448.294 39 L
447.208 39 L
446.122 39 L
445.036 39 L
443.95 39 L
442.864 39 L
441.778 39 L
440.692 39 L
439.606 39 L
438.52 39 L
437.434 39 L
436.348 39 L
435.262 39 L
434.176 39 L
433.09 39 L
432.004 39 L
430.918 39 L
429.832 39 L
428.746 39 L
427.66 39 L
426.574 39 L
425.488 39 L
424.402 39 L
423.316 39 L
422.23 39 L
421.144 39 L
420.058 39 L
418.972 39 L
417.886 39 L
416.8 39 L
415.714 39 L
414.628 39 L
413.542 39 L
412.456 39 L
411.37 39 L
410.284 39 L
409.198 39 L
408.112 39 L
407.026 39 L
405.94 39 L
404.854 39 L
403.768 39 L
402.682 39 L
401.596 39 L
400.51 39 L
399.424 39 L
398.338 39 L
397.252 39 L
396.166 39 L
395.08 39 L
393.994 39 L
392.908 39 L
391.822 39 L
390.736 39 L
389.65 39 L
388.564 39 L
387.478 39 L
386.392 39 L
385.306 39 L
384.22 39 L
383.134 39 L
382.048 39 L
380.962 39 L
379.876 39 L
378.79 39 L
377.704 39 L
376.618 39 L
375.532 39 L
374.446 39 L
373.36 39 L
372.274 39 L
371.188 39 L
370.102 39 L
369.016 39 L
367.93 39 L
366.844 39 L
365.758 39 L
364.672 39 L
363.586 39 L
362.5 39 L
361.414 39 L
360.328 39 L
359.242 39 L
358.156 39 L
357.07 39 L
355.984 39 L
354.898 39 L
353.812 39 L
352.726 39 L
351.64 39 L
350.554 39 L
349.468 39 L
348.382 39 L
347.296 39 L
346.21 39 L
345.124 39 L
344.038 39 L
342.952 39 L
341.866 39 L
340.78 39 L
339.694 39 L
338.608 39 L
337.522 39 L
336.436 39 L
335.35 39 L
334.264 39 L
333.178 39 L
332.092 39 L
331.006 39 L
329.92 39 L
328.834 39 L
327.748 39 L
326.662 39 L
325.576 39 L
324.49 39 L
323.404 39 L
322.318 39 L
321.232 39 L
320.146 39 L
319.06 39 L
317.974 39 L
316.888 39 L
315.802 39 L
314.716 39 L
313.63 39 L
312.544 39 L
311.458 39 L
310.372 39 L
309.286 39 L
308.2 39 L
307.114 39 L
306.028 39 L
304.942 39 L
303.856 39 L
302.77 39 L
301.684 39 L
300.598 39 L
299.512 39 L
298.426 39 L
297.34 39 L
296.254 39 L
295.168 39 L
294.082 39 L
292.996 39 L
291.91 39 L
290.824 39 L
289.738 39 L
288.652 39 L
287.566 39 L
286.48 39 L
285.394 39 L
284.308 39 L
283.222 39 L
282.136 39 L
281.05 39 L
279.964 39 L
278.878 39 L
277.792 39 L
276.706 39 L
275.62 39 L
274.534 39 L
273.448 39 L
272.362 39 L
271.276 39 L
270.19 39 L
269.104 39 L
268.018 39 L
266.932 39 L
265.846 39 L
264.76 39 L
263.674 39 L
262.588 39 L
261.502 39 L
260.416 39 L
259.33 39 L
258.244 39 L
257.158 39 L
256.072 39 L
254.986 39 L
253.9 39 L
252.814 39 L
251.728 39 L
250.642 39 L
249.556 39 L
248.47 39 L
247.384 39 L
246.298 39 L
245.212 39 L
244.126 39 L
243.04 39 L
241.954 39 L
240.868 39 L
239.782 39 L
238.696 39 L
237.61 39 L
236.524 39 L
235.438 39 L
234.352 39 L
233.266 39 L
232.18 39 L
231.094 39 L
230.008 39 L
228.922 39 L
227.836 39 L
226.75 39 L
225.664 39 L
224.578 39 L
223.492 39 L
222.406 39 L
221.32 39 L
220.234 39 L
219.148 39 L
218.062 39 L
216.976 39 L
215.89 39 L
214.804 39 L
213.718 39 L
212.632 39 L
211.546 39 L
210.46 39 L
209.374 39 L
208.288 39 L
207.202 39 L
206.116 39 L
205.03 39 L
203.944 39 L
202.858 39 L
201.772 39 L
200.686 39 L
199.6 39 L
198.514 39 L
197.428 39 L
196.342 39 L
195.256 39 L
194.17 39 L
193.084 39 L
191.998 39 L
190.912 39 L
189.826 39 L
188.74 39 L
187.654 39 L
186.568 39 L
185.482 39 L
184.396 39 L
183.31 39 L
182.224 39 L
181.138 39 L
180.052 39 L
178.966 39 L
177.88 39 L
176.794 39 L
175.708 39 L
174.622 39 L
173.536 39 L
172.45 39 L
171.364 39 L
170.278 39 L
169.192 39 L
168.106 39 L
167.02 39 L
165.934 39 L
164.848 39 L
163.762 39 L
162.676 39 L
161.59 39 L
160.504 39 L
159.418 39 L
158.332 39 L
157.246 39 L
156.16 39 L
155.074 39 L
153.988 39 L
152.902 39 L
151.816 39 L
150.73 39 L
149.644 39 L
148.558 39 L
147.472 39 L
146.386 39 L
145.3 39 L
144.214 39 L
143.128 39 L
142.042 39 L
140.956 39 L
139.87 39 L
138.784 39 L
137.698 39 L
136.612 39 L
135.526 39 L
134.44 39 L
133.354 39 L
132.268 39 L
131.182 39 L
130.096 39 L
129.01 39 L
127.924 39 L
126.838 39 L
125.752 39 L
124.666 39 L
123.58 39 L
122.494 39 L
121.408 39 L
120.322 39 L
119.236 39 L
118.15 39 L
117.064 39 L
115.978 39 L
114.892 39 L
113.806 39 L
112.72 39 L
111.634 39 L
110.548 39 L
109.462 39 L
108.376 39 L
107.29 39 L
106.204 39 L
105.118 39 L
104.032 39 L
102.946 39 L
101.86 39 L
100.774 39 L
99.688 39 L
98.602 39 L
97.516 39 L
96.43 39 L
95.344 39 L
94.258 39 L
93.172 39 L
92.086 39 L
91 39 L
90.935 39 L
S
GR
GS
[0.75 0 0 0.74971 0 0.39999] CT
0 0.447 0.741 RC
1 LJ
2.667 LW
N
90.935 373.934 M
91 373.934 L
92.086 373.934 L
93.172 373.934 L
94.258 373.934 L
95.344 373.934 L
96.43 373.934 L
97.516 373.934 L
98.602 373.934 L
99.688 373.934 L
100.774 373.935 L
101.86 373.935 L
102.946 373.935 L
104.032 373.935 L
105.118 373.935 L
106.204 373.935 L
107.29 373.935 L
108.376 373.935 L
109.462 373.935 L
110.548 373.935 L
111.634 373.935 L
112.72 373.935 L
113.806 373.935 L
114.892 373.936 L
115.978 373.936 L
117.064 373.936 L
118.15 373.936 L
119.236 373.936 L
120.322 373.936 L
121.408 373.936 L
122.494 373.936 L
123.58 373.936 L
124.666 373.936 L
125.752 373.936 L
126.838 373.936 L
127.924 373.936 L
129.01 373.937 L
130.096 373.937 L
131.182 373.937 L
132.268 373.937 L
133.354 373.937 L
134.44 373.937 L
135.526 373.937 L
136.612 373.937 L
137.698 373.937 L
138.784 373.937 L
139.87 373.937 L
140.956 373.937 L
142.042 373.937 L
143.128 373.938 L
144.214 373.938 L
145.3 373.938 L
146.386 373.938 L
147.472 373.938 L
148.558 373.938 L
149.644 373.938 L
150.73 373.938 L
151.816 373.938 L
152.902 373.938 L
153.988 373.938 L
155.074 373.938 L
156.16 373.938 L
157.246 373.939 L
158.332 373.939 L
159.418 373.939 L
160.504 373.939 L
161.59 373.939 L
162.676 373.939 L
163.762 373.939 L
164.848 373.939 L
165.934 373.939 L
167.02 373.939 L
168.106 373.939 L
169.192 373.939 L
170.278 373.939 L
171.364 373.939 L
172.45 373.94 L
173.536 373.94 L
174.622 373.94 L
175.708 373.94 L
176.794 373.94 L
177.88 373.94 L
178.966 373.94 L
180.052 373.94 L
181.138 373.94 L
182.224 373.94 L
183.31 373.94 L
184.396 373.94 L
185.482 373.94 L
186.568 373.941 L
187.654 373.941 L
188.74 373.941 L
189.826 373.941 L
190.912 373.941 L
191.998 373.941 L
193.084 373.941 L
194.17 373.941 L
195.256 373.941 L
196.342 373.941 L
197.428 373.941 L
198.514 373.941 L
199.6 373.941 L
200.686 373.942 L
201.772 373.942 L
202.858 373.942 L
203.944 373.942 L
205.03 373.942 L
206.116 373.942 L
207.202 373.942 L
208.288 373.942 L
209.374 373.942 L
210.46 373.942 L
211.546 373.942 L
212.632 373.942 L
213.718 373.942 L
214.804 373.943 L
215.89 373.943 L
216.976 373.943 L
218.062 373.943 L
219.148 373.943 L
220.234 373.943 L
221.32 373.943 L
222.406 373.943 L
223.492 373.943 L
224.578 373.943 L
225.664 373.943 L
226.75 373.943 L
227.836 373.943 L
228.922 373.944 L
230.008 373.944 L
231.094 373.944 L
232.18 373.944 L
233.266 373.944 L
234.352 373.944 L
235.438 373.944 L
236.524 373.944 L
237.61 373.944 L
238.696 373.944 L
239.782 373.944 L
240.868 373.944 L
241.954 373.944 L
243.04 373.944 L
244.126 373.945 L
245.212 373.945 L
246.298 373.945 L
247.384 373.945 L
248.47 373.945 L
249.556 373.945 L
250.642 373.945 L
251.728 373.945 L
252.814 373.945 L
253.9 373.945 L
254.986 373.945 L
256.072 373.945 L
257.158 373.945 L
258.244 373.946 L
259.33 373.946 L
260.416 373.946 L
261.502 373.946 L
262.588 373.946 L
263.674 373.946 L
264.76 373.946 L
265.846 373.946 L
266.932 373.946 L
268.018 373.946 L
269.104 373.946 L
270.19 373.946 L
271.276 373.946 L
272.362 373.947 L
273.448 373.947 L
274.534 373.947 L
275.62 373.947 L
276.706 373.947 L
277.792 373.947 L
278.878 373.947 L
279.964 373.947 L
281.05 373.947 L
282.136 373.947 L
283.222 373.947 L
284.308 373.947 L
285.394 373.947 L
286.48 373.948 L
287.566 373.948 L
288.652 373.948 L
289.738 373.948 L
290.824 373.948 L
291.91 373.948 L
292.996 373.948 L
294.082 373.948 L
295.168 373.948 L
296.254 373.948 L
297.34 373.948 L
298.426 373.948 L
299.512 373.948 L
300.598 373.949 L
301.684 373.949 L
302.77 373.949 L
303.856 373.949 L
304.942 373.949 L
306.028 373.949 L
307.114 373.949 L
308.2 373.949 L
309.286 373.949 L
310.372 373.949 L
311.458 373.949 L
312.544 373.949 L
313.63 373.949 L
314.716 373.949 L
315.802 373.95 L
316.888 373.95 L
317.974 373.95 L
319.06 373.95 L
320.146 373.95 L
321.232 373.95 L
322.318 373.95 L
323.404 373.95 L
324.49 373.95 L
325.576 373.95 L
326.662 373.95 L
327.748 373.95 L
328.834 373.95 L
329.92 373.951 L
331.006 373.951 L
332.092 373.951 L
333.178 373.951 L
334.264 373.951 L
335.35 373.951 L
336.436 373.951 L
337.522 373.951 L
338.608 373.951 L
339.694 373.951 L
340.78 373.951 L
341.866 373.951 L
342.952 373.951 L
344.038 373.952 L
345.124 373.952 L
346.21 373.952 L
347.296 373.952 L
348.382 373.952 L
349.468 373.952 L
350.554 373.952 L
351.64 373.952 L
352.726 373.952 L
353.812 373.952 L
354.898 373.952 L
355.984 373.952 L
357.07 373.952 L
358.156 373.953 L
359.242 373.953 L
360.328 373.953 L
361.414 373.953 L
362.5 373.953 L
363.586 373.953 L
364.672 373.953 L
365.758 373.953 L
366.844 373.953 L
367.93 373.953 L
369.016 373.953 L
370.102 373.953 L
371.188 373.953 L
372.274 373.954 L
373.36 373.954 L
374.446 373.954 L
375.532 373.954 L
376.618 373.954 L
377.704 373.954 L
378.79 373.954 L
379.876 373.954 L
380.962 373.954 L
382.048 373.954 L
383.134 373.954 L
384.22 373.954 L
385.306 373.954 L
386.392 373.954 L
387.478 373.955 L
388.564 373.955 L
389.65 373.955 L
390.736 373.955 L
391.822 373.955 L
392.908 373.955 L
393.994 373.955 L
395.08 373.955 L
396.166 373.955 L
397.252 373.955 L
398.338 373.955 L
399.424 373.955 L
400.51 373.955 L
401.596 373.956 L
402.682 373.956 L
403.768 373.956 L
404.854 373.956 L
405.94 373.956 L
407.026 373.956 L
408.112 373.956 L
409.198 373.956 L
410.284 373.956 L
411.37 373.956 L
412.456 373.956 L
413.542 373.956 L
414.628 373.956 L
415.714 373.957 L
416.8 373.957 L
417.886 373.957 L
418.972 373.957 L
420.058 373.957 L
421.144 373.957 L
422.23 373.957 L
423.316 373.957 L
424.402 373.957 L
425.488 373.957 L
426.574 373.957 L
427.66 373.957 L
428.746 373.957 L
429.832 373.958 L
430.918 373.958 L
432.004 373.958 L
433.09 373.958 L
434.176 373.958 L
435.262 373.958 L
436.348 373.958 L
437.434 373.958 L
438.52 373.958 L
439.606 373.958 L
440.692 373.958 L
441.778 373.958 L
442.864 373.958 L
443.95 373.959 L
445.036 373.959 L
446.122 373.959 L
447.208 373.959 L
448.294 373.959 L
449.38 373.959 L
450.466 373.959 L
451.552 373.959 L
452.638 373.959 L
453.724 373.959 L
454.81 373.959 L
455.896 373.959 L
456.982 373.959 L
458.068 373.96 L
459.154 373.96 L
460.24 373.96 L
461.326 373.96 L
462.412 373.96 L
463.498 373.96 L
464.584 373.96 L
465.67 373.96 L
466.756 373.96 L
467.842 373.96 L
468.928 373.96 L
470.014 373.96 L
471.1 373.96 L
472.186 373.96 L
473.272 373.961 L
474.358 373.961 L
475.444 373.961 L
476.53 373.961 L
477.616 373.961 L
478.702 373.961 L
479.788 373.961 L
480.874 373.961 L
481.96 373.961 L
483.046 373.961 L
484.132 373.961 L
485.218 373.961 L
486.304 373.961 L
487.39 373.962 L
488.476 373.962 L
489.562 373.962 L
490.648 373.962 L
491.734 373.962 L
492.82 373.962 L
493.906 373.962 L
494.992 373.962 L
496.078 373.962 L
497.164 373.962 L
498.25 373.962 L
499.336 373.962 L
500.422 373.962 L
501.508 373.963 L
502.594 373.963 L
503.68 373.963 L
504.766 373.963 L
505.852 373.963 L
506.938 373.963 L
508.024 373.963 L
509.11 373.963 L
510.196 373.963 L
511.282 373.963 L
512.368 373.963 L
513.454 373.963 L
514.54 373.963 L
515.626 373.964 L
516.712 373.964 L
517.798 373.964 L
518.884 373.964 L
519.97 373.964 L
521.056 373.964 L
522.142 373.964 L
523.228 373.964 L
524.314 373.964 L
525.4 373.964 L
526.486 373.964 L
527.572 373.964 L
528.658 373.964 L
529.744 373.965 L
530.83 373.965 L
531.916 373.965 L
533.002 373.965 L
534.088 373.965 L
535.174 373.965 L
536.26 373.965 L
537.346 373.965 L
538.432 373.965 L
539.518 373.965 L
540.604 373.965 L
541.69 373.965 L
542.776 373.965 L
543.862 373.965 L
544.948 373.966 L
546.034 373.966 L
547.12 373.966 L
548.206 373.966 L
549.292 373.966 L
550.378 373.966 L
551.464 373.966 L
552.55 373.966 L
553.636 373.966 L
554.722 373.966 L
555.808 373.966 L
556.894 373.966 L
557.98 373.966 L
559.066 373.967 L
560.152 373.967 L
561.238 373.967 L
562.324 373.967 L
563.41 373.967 L
564.496 373.967 L
565.582 373.967 L
566.668 373.967 L
567.754 373.967 L
568.84 373.967 L
569.926 373.967 L
571.012 373.967 L
572.098 373.967 L
573.184 373.968 L
574.27 373.968 L
575.356 373.968 L
576.442 373.968 L
577.528 373.968 L
578.614 373.968 L
579.7 373.968 L
580.786 373.968 L
581.872 373.968 L
582.958 373.968 L
584.044 373.968 L
585.13 373.968 L
586.216 373.968 L
587.302 373.969 L
588.388 373.969 L
589.474 373.969 L
590.56 373.969 L
591.646 373.969 L
592.732 373.969 L
593.818 373.969 L
594.904 373.969 L
595.99 373.969 L
597.076 373.969 L
598.162 373.969 L
599.248 373.969 L
600.334 373.969 L
601.42 373.97 L
602.506 373.97 L
603.592 373.97 L
604.678 373.97 L
605.764 373.97 L
606.85 373.97 L
607.936 373.97 L
609.022 373.97 L
610.108 373.97 L
611.194 373.97 L
612.28 373.97 L
613.366 373.97 L
614.452 373.97 L
615.538 373.971 L
616.624 373.971 L
617.71 373.971 L
618.796 373.971 L
619.882 373.971 L
620.968 373.971 L
622.054 373.971 L
623.14 373.971 L
624.226 373.971 L
625.312 373.971 L
626.398 373.971 L
627.484 373.971 L
628.57 373.971 L
629.656 373.971 L
630.742 373.972 L
631.828 373.972 L
632.914 373.972 L
634 373.972 L
634.065 373.972 L
S
GR
GS
[0.75 0 0 0.74971 0 0.39999] CT
0.851 0.325 0.098 RC
1 LJ
2.667 LW
N
90.935 279.192 M
91 279.192 L
92.086 279.191 L
93.172 279.191 L
94.258 279.191 L
95.344 279.19 L
96.43 279.19 L
97.516 279.189 L
98.602 279.189 L
99.688 279.189 L
100.774 279.188 L
101.86 279.188 L
102.946 279.187 L
104.032 279.187 L
105.118 279.187 L
106.204 279.186 L
107.29 279.186 L
108.376 279.185 L
109.462 279.185 L
110.548 279.185 L
111.634 279.184 L
112.72 279.184 L
113.806 279.183 L
114.892 279.183 L
115.978 279.183 L
117.064 279.182 L
118.15 279.182 L
119.236 279.181 L
120.322 279.181 L
121.408 279.181 L
122.494 279.18 L
123.58 279.18 L
124.666 279.179 L
125.752 279.179 L
126.838 279.179 L
127.924 279.178 L
129.01 279.178 L
130.096 279.177 L
131.182 279.177 L
132.268 279.177 L
133.354 279.176 L
134.44 279.176 L
135.526 279.175 L
136.612 279.175 L
137.698 279.175 L
138.784 279.174 L
139.87 279.174 L
140.956 279.173 L
142.042 279.173 L
143.128 279.173 L
144.214 279.172 L
145.3 279.172 L
146.386 279.172 L
147.472 279.171 L
148.558 279.171 L
149.644 279.17 L
150.73 279.17 L
151.816 279.169 L
152.902 279.169 L
153.988 279.169 L
155.074 279.168 L
156.16 279.168 L
157.246 279.168 L
158.332 279.167 L
159.418 279.167 L
160.504 279.166 L
161.59 279.166 L
162.676 279.166 L
163.762 279.165 L
164.848 279.165 L
165.934 279.164 L
167.02 279.164 L
168.106 279.164 L
169.192 279.163 L
170.278 279.163 L
171.364 279.162 L
172.45 279.162 L
173.536 279.162 L
174.622 279.161 L
175.708 279.161 L
176.794 279.16 L
177.88 279.16 L
178.966 279.16 L
180.052 279.159 L
181.138 279.159 L
182.224 279.158 L
183.31 279.158 L
184.396 279.158 L
185.482 279.157 L
186.568 279.157 L
187.654 279.156 L
188.74 279.156 L
189.826 279.156 L
190.912 279.155 L
191.998 279.155 L
193.084 279.154 L
194.17 279.154 L
195.256 279.154 L
196.342 279.153 L
197.428 279.153 L
198.514 279.152 L
199.6 279.152 L
200.686 279.152 L
201.772 279.151 L
202.858 279.151 L
203.944 279.15 L
205.03 279.15 L
206.116 279.15 L
207.202 279.149 L
208.288 279.149 L
209.374 279.148 L
210.46 279.148 L
211.546 279.148 L
212.632 279.147 L
213.718 279.147 L
214.804 279.146 L
215.89 279.146 L
216.976 279.146 L
218.062 279.145 L
219.148 279.145 L
220.234 279.144 L
221.32 279.144 L
222.406 279.144 L
223.492 279.143 L
224.578 279.143 L
225.664 279.142 L
226.75 279.142 L
227.836 279.142 L
228.922 279.141 L
230.008 279.141 L
231.094 279.14 L
232.18 279.14 L
233.266 279.14 L
234.352 279.139 L
235.438 279.139 L
236.524 279.138 L
237.61 279.138 L
238.696 279.138 L
239.782 279.137 L
240.868 279.137 L
241.954 279.136 L
243.04 279.136 L
244.126 279.136 L
245.212 279.135 L
246.298 279.135 L
247.384 279.134 L
248.47 279.134 L
249.556 279.134 L
250.642 279.133 L
251.728 279.133 L
252.814 279.133 L
253.9 279.132 L
254.986 279.132 L
256.072 279.131 L
257.158 279.131 L
258.244 279.131 L
259.33 279.13 L
260.416 279.13 L
261.502 279.129 L
262.588 279.129 L
263.674 279.129 L
264.76 279.128 L
265.846 279.128 L
266.932 279.127 L
268.018 279.127 L
269.104 279.127 L
270.19 279.126 L
271.276 279.126 L
272.362 279.125 L
273.448 279.125 L
274.534 279.125 L
275.62 279.124 L
276.706 279.124 L
277.792 279.123 L
278.878 279.123 L
279.964 279.123 L
281.05 279.122 L
282.136 279.122 L
283.222 279.121 L
284.308 279.121 L
285.394 279.121 L
286.48 279.12 L
287.566 279.12 L
288.652 279.119 L
289.738 279.119 L
290.824 279.119 L
291.91 279.118 L
292.996 279.118 L
294.082 279.117 L
295.168 279.117 L
296.254 279.117 L
297.34 279.116 L
298.426 279.116 L
299.512 279.115 L
300.598 279.115 L
301.684 279.115 L
302.77 279.114 L
303.856 279.114 L
304.942 279.113 L
306.028 279.113 L
307.114 279.113 L
308.2 279.112 L
309.286 279.112 L
310.372 279.111 L
311.458 279.111 L
312.544 279.111 L
313.63 279.11 L
314.716 279.11 L
315.802 279.109 L
316.888 279.109 L
317.974 279.109 L
319.06 279.108 L
320.146 279.108 L
321.232 279.107 L
322.318 279.107 L
323.404 279.107 L
324.49 279.106 L
325.576 279.106 L
326.662 279.105 L
327.748 279.105 L
328.834 279.105 L
329.92 279.104 L
331.006 279.104 L
332.092 279.103 L
333.178 279.103 L
334.264 279.103 L
335.35 279.102 L
336.436 279.102 L
337.522 279.102 L
338.608 279.101 L
339.694 279.101 L
340.78 279.1 L
341.866 279.1 L
342.952 279.1 L
344.038 279.099 L
345.124 279.099 L
346.21 279.098 L
347.296 279.098 L
348.382 279.098 L
349.468 279.097 L
350.554 279.097 L
351.64 279.096 L
352.726 279.096 L
353.812 279.096 L
354.898 279.095 L
355.984 279.095 L
357.07 279.094 L
358.156 279.094 L
359.242 279.094 L
360.328 279.093 L
361.414 279.093 L
362.5 279.092 L
363.586 279.092 L
364.672 279.092 L
365.758 279.091 L
366.844 279.091 L
367.93 279.09 L
369.016 279.09 L
370.102 279.09 L
371.188 279.089 L
372.274 279.089 L
373.36 279.088 L
374.446 279.088 L
375.532 279.088 L
376.618 279.087 L
377.704 279.087 L
378.79 279.086 L
379.876 279.086 L
380.962 279.086 L
382.048 279.085 L
383.134 279.085 L
384.22 279.084 L
385.306 279.084 L
386.392 279.084 L
387.478 279.083 L
388.564 279.083 L
389.65 279.082 L
390.736 279.082 L
391.822 279.082 L
392.908 279.081 L
393.994 279.081 L
395.08 279.08 L
396.166 279.08 L
397.252 279.08 L
398.338 279.079 L
399.424 279.079 L
400.51 279.078 L
401.596 279.078 L
402.682 279.078 L
403.768 279.077 L
404.854 279.077 L
405.94 279.076 L
407.026 279.076 L
408.112 279.076 L
409.198 279.075 L
410.284 279.075 L
411.37 279.074 L
412.456 279.074 L
413.542 279.074 L
414.628 279.073 L
415.714 279.073 L
416.8 279.072 L
417.886 279.072 L
418.972 279.072 L
420.058 279.071 L
421.144 279.071 L
422.23 279.07 L
423.316 279.07 L
424.402 279.07 L
425.488 279.069 L
426.574 279.069 L
427.66 279.068 L
428.746 279.068 L
429.832 279.068 L
430.918 279.067 L
432.004 279.067 L
433.09 279.066 L
434.176 279.066 L
435.262 279.066 L
436.348 279.065 L
437.434 279.065 L
438.52 279.064 L
439.606 279.064 L
440.692 279.064 L
441.778 279.063 L
442.864 279.063 L
443.95 279.063 L
445.036 279.062 L
446.122 279.062 L
447.208 279.061 L
448.294 279.061 L
449.38 279.061 L
450.466 279.06 L
451.552 279.06 L
452.638 279.059 L
453.724 279.059 L
454.81 279.059 L
455.896 279.058 L
456.982 279.058 L
458.068 279.057 L
459.154 279.057 L
460.24 279.057 L
461.326 279.056 L
462.412 279.056 L
463.498 279.055 L
464.584 279.055 L
465.67 279.055 L
466.756 279.054 L
467.842 279.054 L
468.928 279.053 L
470.014 279.053 L
471.1 279.053 L
472.186 279.052 L
473.272 279.052 L
474.358 279.051 L
475.444 279.051 L
476.53 279.051 L
477.616 279.05 L
478.702 279.05 L
479.788 279.049 L
480.874 279.049 L
481.96 279.049 L
483.046 279.048 L
484.132 279.048 L
485.218 279.047 L
486.304 279.047 L
487.39 279.047 L
488.476 279.046 L
489.562 279.046 L
490.648 279.045 L
491.734 279.045 L
492.82 279.045 L
493.906 279.044 L
494.992 279.044 L
496.078 279.043 L
497.164 279.043 L
498.25 279.043 L
499.336 279.042 L
500.422 279.042 L
501.508 279.041 L
502.594 279.041 L
503.68 279.041 L
504.766 279.04 L
505.852 279.04 L
506.938 279.039 L
508.024 279.039 L
509.11 279.039 L
510.196 279.038 L
511.282 279.038 L
512.368 279.037 L
513.454 279.037 L
514.54 279.037 L
515.626 279.036 L
516.712 279.036 L
517.798 279.035 L
518.884 279.035 L
519.97 279.035 L
521.056 279.034 L
522.142 279.034 L
523.228 279.033 L
524.314 279.033 L
525.4 279.033 L
526.486 279.032 L
527.572 279.032 L
528.658 279.031 L
529.744 279.031 L
530.83 279.031 L
531.916 279.03 L
533.002 279.03 L
534.088 279.03 L
535.174 279.029 L
536.26 279.029 L
537.346 279.028 L
538.432 279.028 L
539.518 279.028 L
540.604 279.027 L
541.69 279.027 L
542.776 279.026 L
543.862 279.026 L
544.948 279.026 L
546.034 279.025 L
547.12 279.025 L
548.206 279.024 L
549.292 279.024 L
550.378 279.024 L
551.464 279.023 L
552.55 279.023 L
553.636 279.022 L
554.722 279.022 L
555.808 279.022 L
556.894 279.021 L
557.98 279.021 L
559.066 279.02 L
560.152 279.02 L
561.238 279.02 L
562.324 279.019 L
563.41 279.019 L
564.496 279.018 L
565.582 279.018 L
566.668 279.018 L
567.754 279.017 L
568.84 279.017 L
569.926 279.016 L
571.012 279.016 L
572.098 279.016 L
573.184 279.015 L
574.27 279.015 L
575.356 279.014 L
576.442 279.014 L
577.528 279.014 L
578.614 279.013 L
579.7 279.013 L
580.786 279.012 L
581.872 279.012 L
582.958 279.012 L
584.044 279.011 L
585.13 279.011 L
586.216 279.01 L
587.302 279.01 L
588.388 279.01 L
589.474 279.009 L
590.56 279.009 L
591.646 279.008 L
592.732 279.008 L
593.818 279.008 L
594.904 279.007 L
595.99 279.007 L
597.076 279.006 L
598.162 279.006 L
599.248 279.006 L
600.334 279.005 L
601.42 279.005 L
602.506 279.004 L
603.592 279.004 L
604.678 279.004 L
605.764 279.003 L
606.85 279.003 L
607.936 279.002 L
609.022 279.002 L
610.108 279.002 L
611.194 279.001 L
612.28 279.001 L
613.366 279 L
614.452 279 L
615.538 279 L
616.624 278.999 L
617.71 278.999 L
618.796 278.998 L
619.882 278.998 L
620.968 278.998 L
622.054 278.997 L
623.14 278.997 L
624.226 278.996 L
625.312 278.996 L
626.398 278.996 L
627.484 278.995 L
628.57 278.995 L
629.656 278.995 L
630.742 278.994 L
631.828 278.994 L
632.914 278.993 L
634 278.993 L
634.065 278.993 L
S
GR
GS
[0.75 0 0 0.74971 0 0.39999] CT
0.775 GC
[1 3] 0 setdash
2 LJ
0.667 LW
N
112.72 463 M
112.72 39 L
S
GR
GS
[0.75 0 0 0.74971 0 0.39999] CT
0.775 GC
[1 3] 0 setdash
2 LJ
0.667 LW
N
134.44 463 M
134.44 39 L
S
GR
GS
[0.75 0 0 0.74971 0 0.39999] CT
0.775 GC
[1 3] 0 setdash
2 LJ
0.667 LW
N
156.16 463 M
156.16 39 L
S
GR
GS
[0.75 0 0 0.74971 0 0.39999] CT
0.775 GC
[1 3] 0 setdash
2 LJ
0.667 LW
N
177.88 463 M
177.88 39 L
S
GR
GS
[0.75 0 0 0.74971 0 0.39999] CT
0.775 GC
[1 3] 0 setdash
2 LJ
0.667 LW
N
221.32 463 M
221.32 39 L
S
GR
GS
[0.75 0 0 0.74971 0 0.39999] CT
0.775 GC
[1 3] 0 setdash
2 LJ
0.667 LW
N
243.04 463 M
243.04 39 L
S
GR
GS
[0.75 0 0 0.74971 0 0.39999] CT
0.775 GC
[1 3] 0 setdash
2 LJ
0.667 LW
N
264.76 463 M
264.76 39 L
S
GR
GS
[0.75 0 0 0.74971 0 0.39999] CT
0.775 GC
[1 3] 0 setdash
2 LJ
0.667 LW
N
286.48 463 M
286.48 39 L
S
GR
GS
[0.75 0 0 0.74971 0 0.39999] CT
0.775 GC
[1 3] 0 setdash
2 LJ
0.667 LW
N
329.92 463 M
329.92 39 L
S
GR
GS
[0.75 0 0 0.74971 0 0.39999] CT
0.775 GC
[1 3] 0 setdash
2 LJ
0.667 LW
N
351.64 463 M
351.64 39 L
S
GR
GS
[0.75 0 0 0.74971 0 0.39999] CT
0.775 GC
[1 3] 0 setdash
2 LJ
0.667 LW
N
373.36 463 M
373.36 39 L
S
GR
GS
[0.75 0 0 0.74971 0 0.39999] CT
0.775 GC
[1 3] 0 setdash
2 LJ
0.667 LW
N
395.08 463 M
395.08 39 L
S
GR
GS
[0.75 0 0 0.74971 0 0.39999] CT
0.775 GC
[1 3] 0 setdash
2 LJ
0.667 LW
N
438.52 463 M
438.52 39 L
S
GR
GS
[0.75 0 0 0.74971 0 0.39999] CT
0.775 GC
[1 3] 0 setdash
2 LJ
0.667 LW
N
460.24 463 M
460.24 39 L
S
GR
GS
[0.75 0 0 0.74971 0 0.39999] CT
0.775 GC
[1 3] 0 setdash
2 LJ
0.667 LW
N
481.96 463 M
481.96 39 L
S
GR
GS
[0.75 0 0 0.74971 0 0.39999] CT
0.775 GC
[1 3] 0 setdash
2 LJ
0.667 LW
N
503.68 463 M
503.68 39 L
S
GR
GS
[0.75 0 0 0.74971 0 0.39999] CT
0.775 GC
[1 3] 0 setdash
2 LJ
0.667 LW
N
547.12 463 M
547.12 39 L
S
GR
GS
[0.75 0 0 0.74971 0 0.39999] CT
0.775 GC
[1 3] 0 setdash
2 LJ
0.667 LW
N
568.84 463 M
568.84 39 L
S
GR
GS
[0.75 0 0 0.74971 0 0.39999] CT
0.775 GC
[1 3] 0 setdash
2 LJ
0.667 LW
N
590.56 463 M
590.56 39 L
S
GR
GS
[0.75 0 0 0.74971 0 0.39999] CT
0.775 GC
[1 3] 0 setdash
2 LJ
0.667 LW
N
612.28 463 M
612.28 39 L
S
GR
GS
[0.75 0 0 0.74971 0 0.39999] CT
0.873 GC
[1 3] 0 setdash
2 LJ
0.667 LW
N
91 463 M
91 39 L
S
GR
GS
[0.75 0 0 0.74971 0 0.39999] CT
0.873 GC
[1 3] 0 setdash
2 LJ
0.667 LW
N
199.6 463 M
199.6 39 L
S
GR
GS
[0.75 0 0 0.74971 0 0.39999] CT
0.873 GC
[1 3] 0 setdash
2 LJ
0.667 LW
N
308.2 463 M
308.2 39 L
S
GR
GS
[0.75 0 0 0.74971 0 0.39999] CT
0.873 GC
[1 3] 0 setdash
2 LJ
0.667 LW
N
416.8 463 M
416.8 39 L
S
GR
GS
[0.75 0 0 0.74971 0 0.39999] CT
0.873 GC
[1 3] 0 setdash
2 LJ
0.667 LW
N
525.4 463 M
525.4 39 L
S
GR
GS
[0.75 0 0 0.74971 0 0.39999] CT
0.873 GC
[1 3] 0 setdash
2 LJ
0.667 LW
N
634 463 M
634 39 L
S
GR
GS
[0.75 0 0 0.74971 0 0.39999] CT
0.775 GC
[1 3] 0 setdash
2 LJ
0.667 LW
N
634 448.867 M
91 448.867 L
S
GR
GS
[0.75 0 0 0.74971 0 0.39999] CT
0.775 GC
[1 3] 0 setdash
2 LJ
0.667 LW
N
634 434.733 M
91 434.733 L
S
GR
GS
[0.75 0 0 0.74971 0 0.39999] CT
0.775 GC
[1 3] 0 setdash
2 LJ
0.667 LW
N
634 420.6 M
91 420.6 L
S
GR
GS
[0.75 0 0 0.74971 0 0.39999] CT
0.775 GC
[1 3] 0 setdash
2 LJ
0.667 LW
N
634 406.467 M
91 406.467 L
S
GR
GS
[0.75 0 0 0.74971 0 0.39999] CT
0.775 GC
[1 3] 0 setdash
2 LJ
0.667 LW
N
634 378.2 M
91 378.2 L
S
GR
GS
[0.75 0 0 0.74971 0 0.39999] CT
0.775 GC
[1 3] 0 setdash
2 LJ
0.667 LW
N
634 364.067 M
91 364.067 L
S
GR
GS
[0.75 0 0 0.74971 0 0.39999] CT
0.775 GC
[1 3] 0 setdash
2 LJ
0.667 LW
N
634 349.933 M
91 349.933 L
S
GR
GS
[0.75 0 0 0.74971 0 0.39999] CT
0.775 GC
[1 3] 0 setdash
2 LJ
0.667 LW
N
634 335.8 M
91 335.8 L
S
GR
GS
[0.75 0 0 0.74971 0 0.39999] CT
0.775 GC
[1 3] 0 setdash
2 LJ
0.667 LW
N
634 307.533 M
91 307.533 L
S
GR
GS
[0.75 0 0 0.74971 0 0.39999] CT
0.775 GC
[1 3] 0 setdash
2 LJ
0.667 LW
N
634 293.4 M
91 293.4 L
S
GR
GS
[0.75 0 0 0.74971 0 0.39999] CT
0.775 GC
[1 3] 0 setdash
2 LJ
0.667 LW
N
634 279.267 M
91 279.267 L
S
GR
GS
[0.75 0 0 0.74971 0 0.39999] CT
0.775 GC
[1 3] 0 setdash
2 LJ
0.667 LW
N
634 265.133 M
91 265.133 L
S
GR
GS
[0.75 0 0 0.74971 0 0.39999] CT
0.775 GC
[1 3] 0 setdash
2 LJ
0.667 LW
N
634 236.867 M
91 236.867 L
S
GR
GS
[0.75 0 0 0.74971 0 0.39999] CT
0.775 GC
[1 3] 0 setdash
2 LJ
0.667 LW
N
634 222.733 M
91 222.733 L
S
GR
GS
[0.75 0 0 0.74971 0 0.39999] CT
0.775 GC
[1 3] 0 setdash
2 LJ
0.667 LW
N
634 208.6 M
91 208.6 L
S
GR
GS
[0.75 0 0 0.74971 0 0.39999] CT
0.775 GC
[1 3] 0 setdash
2 LJ
0.667 LW
N
634 194.467 M
91 194.467 L
S
GR
GS
[0.75 0 0 0.74971 0 0.39999] CT
0.775 GC
[1 3] 0 setdash
2 LJ
0.667 LW
N
634 166.2 M
91 166.2 L
S
GR
GS
[0.75 0 0 0.74971 0 0.39999] CT
0.775 GC
[1 3] 0 setdash
2 LJ
0.667 LW
N
634 152.067 M
91 152.067 L
S
GR
GS
[0.75 0 0 0.74971 0 0.39999] CT
0.775 GC
[1 3] 0 setdash
2 LJ
0.667 LW
N
634 137.933 M
91 137.933 L
S
GR
GS
[0.75 0 0 0.74971 0 0.39999] CT
0.775 GC
[1 3] 0 setdash
2 LJ
0.667 LW
N
634 123.8 M
91 123.8 L
S
GR
GS
[0.75 0 0 0.74971 0 0.39999] CT
0.775 GC
[1 3] 0 setdash
2 LJ
0.667 LW
N
634 95.533 M
91 95.533 L
S
GR
GS
[0.75 0 0 0.74971 0 0.39999] CT
0.775 GC
[1 3] 0 setdash
2 LJ
0.667 LW
N
634 81.4 M
91 81.4 L
S
GR
GS
[0.75 0 0 0.74971 0 0.39999] CT
0.775 GC
[1 3] 0 setdash
2 LJ
0.667 LW
N
634 67.267 M
91 67.267 L
S
GR
GS
[0.75 0 0 0.74971 0 0.39999] CT
0.775 GC
[1 3] 0 setdash
2 LJ
0.667 LW
N
634 53.133 M
91 53.133 L
S
GR
GS
[0.75 0 0 0.74971 0 0.39999] CT
0.873 GC
[1 3] 0 setdash
2 LJ
0.667 LW
N
634 463 M
91 463 L
S
GR
GS
[0.75 0 0 0.74971 0 0.39999] CT
0.873 GC
[1 3] 0 setdash
2 LJ
0.667 LW
N
634 392.333 M
91 392.333 L
S
GR
GS
[0.75 0 0 0.74971 0 0.39999] CT
0.873 GC
[1 3] 0 setdash
2 LJ
0.667 LW
N
634 321.667 M
91 321.667 L
S
GR
GS
[0.75 0 0 0.74971 0 0.39999] CT
0.873 GC
[1 3] 0 setdash
2 LJ
0.667 LW
N
634 251 M
91 251 L
S
GR
GS
[0.75 0 0 0.74971 0 0.39999] CT
0.873 GC
[1 3] 0 setdash
2 LJ
0.667 LW
N
634 180.333 M
91 180.333 L
S
GR
GS
[0.75 0 0 0.74971 0 0.39999] CT
0.873 GC
[1 3] 0 setdash
2 LJ
0.667 LW
N
634 109.667 M
91 109.667 L
S
GR
GS
[0.75 0 0 0.74971 0 0.39999] CT
0.873 GC
[1 3] 0 setdash
2 LJ
0.667 LW
N
634 39 M
91 39 L
S
GR
GS
[0.75 0 0 0.74971 0 0.39999] CT
0.149 GC
2 setlinecap
1 LJ
0.667 LW
N
91 463 M
634 463 L
S
GR
GS
[0.75 0 0 0.74971 0 0.39999] CT
0.149 GC
2 setlinecap
1 LJ
0.667 LW
N
91 463 M
91 457.57 L
S
GR
GS
[0.75 0 0 0.74971 0 0.39999] CT
0.149 GC
2 setlinecap
1 LJ
0.667 LW
N
199.6 463 M
199.6 457.57 L
S
GR
GS
[0.75 0 0 0.74971 0 0.39999] CT
0.149 GC
2 setlinecap
1 LJ
0.667 LW
N
308.2 463 M
308.2 457.57 L
S
GR
GS
[0.75 0 0 0.74971 0 0.39999] CT
0.149 GC
2 setlinecap
1 LJ
0.667 LW
N
416.8 463 M
416.8 457.57 L
S
GR
GS
[0.75 0 0 0.74971 0 0.39999] CT
0.149 GC
2 setlinecap
1 LJ
0.667 LW
N
525.4 463 M
525.4 457.57 L
S
GR
GS
[0.75 0 0 0.74971 0 0.39999] CT
0.149 GC
2 setlinecap
1 LJ
0.667 LW
N
634 463 M
634 457.57 L
S
GR
GS
[0.75 0 0 0.74971 68.25 352.5158] CT
0.149 GC
/Helvetica 20 F
GS
[1 0 0 1 0 0] CT
-6 21 moveto 
1 -1 scale
(1) t 
GR
GR
GS
[0.75 0 0 0.74971 149.7 352.5158] CT
0.149 GC
/Helvetica 20 F
GS
[1 0 0 1 0 0] CT
-6 21 moveto 
1 -1 scale
(2) t 
GR
GR
GS
[0.75 0 0 0.74971 231.15001 352.5158] CT
0.149 GC
/Helvetica 20 F
GS
[1 0 0 1 0 0] CT
-6 21 moveto 
1 -1 scale
(3) t 
GR
GR
GS
[0.75 0 0 0.74971 312.59999 352.5158] CT
0.149 GC
/Helvetica 20 F
GS
[1 0 0 1 0 0] CT
-6 21 moveto 
1 -1 scale
(4) t 
GR
GR
GS
[0.75 0 0 0.74971 394.05002 352.5158] CT
0.149 GC
/Helvetica 20 F
GS
[1 0 0 1 0 0] CT
-6 21 moveto 
1 -1 scale
(5) t 
GR
GR
GS
[0.75 0 0 0.74971 475.5 352.5158] CT
0.149 GC
/Helvetica 20 F
GS
[1 0 0 1 0 0] CT
-6 21 moveto 
1 -1 scale
(6) t 
GR
GR
GS
[0.75 0 0 0.74971 271.87518 373.008] CT
0.149 GC
/Helvetica 22 F
GS
[1 0 0 1 0 0] CT
-24 23 moveto 
1 -1 scale
(state) t 
GR
GR
GS
[0.75 0 0 0.74971 0 0.39999] CT
0.149 GC
2 setlinecap
1 LJ
0.667 LW
N
91 463 M
91 39 L
S
GR
GS
[0.75 0 0 0.74971 0 0.39999] CT
0.149 GC
2 setlinecap
1 LJ
0.667 LW
N
91 463 M
96.43 463 L
S
GR
GS
[0.75 0 0 0.74971 0 0.39999] CT
0.149 GC
2 setlinecap
1 LJ
0.667 LW
N
91 392.333 M
96.43 392.333 L
S
GR
GS
[0.75 0 0 0.74971 0 0.39999] CT
0.149 GC
2 setlinecap
1 LJ
0.667 LW
N
91 321.667 M
96.43 321.667 L
S
GR
GS
[0.75 0 0 0.74971 0 0.39999] CT
0.149 GC
2 setlinecap
1 LJ
0.667 LW
N
91 251 M
96.43 251 L
S
GR
GS
[0.75 0 0 0.74971 0 0.39999] CT
0.149 GC
2 setlinecap
1 LJ
0.667 LW
N
91 180.333 M
96.43 180.333 L
S
GR
GS
[0.75 0 0 0.74971 0 0.39999] CT
0.149 GC
2 setlinecap
1 LJ
0.667 LW
N
91 109.667 M
96.43 109.667 L
S
GR
GS
[0.75 0 0 0.74971 0 0.39999] CT
0.149 GC
2 setlinecap
1 LJ
0.667 LW
N
91 39 M
96.43 39 L
S
GR
GS
[0.75 0 0 0.74971 63.25 347.51771] CT
0.149 GC
/Helvetica 20 F
GS
[1 0 0 1 0 0] CT
-12 8 moveto 
1 -1 scale
(0) t 
GR
GR
GS
[0.75 0 0 0.74971 63.25 294.53791] CT
0.149 GC
/Helvetica 20 F
GS
[1 0 0 1 0 0] CT
-12 8 moveto 
1 -1 scale
(1) t 
GR
GR
GS
[0.75 0 0 0.74971 63.25 241.55809] CT
0.149 GC
/Helvetica 20 F
GS
[1 0 0 1 0 0] CT
-12 8 moveto 
1 -1 scale
(2) t 
GR
GR
GS
[0.75 0 0 0.74971 63.25 188.57828] CT
0.149 GC
/Helvetica 20 F
GS
[1 0 0 1 0 0] CT
-12 8 moveto 
1 -1 scale
(3) t 
GR
GR
GS
[0.75 0 0 0.74971 63.25 135.59847] CT
0.149 GC
/Helvetica 20 F
GS
[1 0 0 1 0 0] CT
-12 8 moveto 
1 -1 scale
(4) t 
GR
GR
GS
[0.75 0 0 0.74971 63.25 82.61866] CT
0.149 GC
/Helvetica 20 F
GS
[1 0 0 1 0 0] CT
-12 8 moveto 
1 -1 scale
(5) t 
GR
GR
GS
[0.75 0 0 0.74971 63.25 29.63885] CT
0.149 GC
/Helvetica 20 F
GS
[1 0 0 1 0 0] CT
-12 8 moveto 
1 -1 scale
(6) t 
GR
GR
GS
[0 -0.74971 0.75 0 51.25 188.57813] CT
0.149 GC
/Helvetica 22 F
GS
[1 0 0 1 0 0] CT
-9 -5 moveto 
1 -1 scale
(Q) t 
GR
GR
GS
[0.75 0 0 0.74971 0 0.39999] CT
1 GC
N
191 103 M
191 52 L
104 52 L
104 103 L
cp
f
GR
GS
[0.75 0 0 0.74971 113.25 49.60649] CT
/Helvetica 18 F
GS
[1 0 0 1 0 0] CT
0 7.5 moveto 
1 -1 scale
(left) t 
GR
GR
GS
[0.75 0 0 0.74971 0 0.39999] CT
0 0.447 0.741 RC
1 LJ
2.667 LW
N
108 65.634 M
148 65.634 L
S
GR
GS
[0.75 0 0 0.74971 113.25 67.39921] CT
/Helvetica 18 F
GS
[1 0 0 1 0 0] CT
0 7.5 moveto 
1 -1 scale
(right) t 
GR
GR
GS
[0.75 0 0 0.74971 0 0.39999] CT
0.851 0.325 0.098 RC
1 LJ
2.667 LW
N
108 89.366 M
148 89.366 L
S
GR
GS
[0.75 0 0 0.74971 0 0.39999] CT
0.149 GC
10.0 ML
0.667 LW
N
104 103 M
104 52 L
191 52 L
191 103 L
cp
S
GR
%%Trailer
%%Pages: 1
%%EOF
