%!PS-Adobe-3.0 EPSF-3.0
%%Creator: (MATLAB, The Mathworks, Inc. Version 9.3.0.713579 \(R2017b\). Operating System: Windows 7)
%%Title: fig/RBFN_1000_0,02_100000_convergence.eps
%%CreationDate: 2018-05-06T11:45:42
%%Pages: (atend)
%%BoundingBox:    18     3   483   384
%%LanguageLevel: 3
%%EndComments
%%BeginProlog
%%BeginResource: procset (Apache XML Graphics Std ProcSet) 1.2 0
%%Version: 1.2 0
%%Copyright: (Copyright 2001-2003,2010 The Apache Software Foundation. License terms: http://www.apache.org/licenses/LICENSE-2.0)
/bd{bind def}bind def
/ld{load def}bd
/GR/grestore ld
/GS/gsave ld
/RM/rmoveto ld
/C/curveto ld
/t/show ld
/L/lineto ld
/ML/setmiterlimit ld
/CT/concat ld
/f/fill ld
/N/newpath ld
/S/stroke ld
/CC/setcmykcolor ld
/A/ashow ld
/cp/closepath ld
/RC/setrgbcolor ld
/LJ/setlinejoin ld
/GC/setgray ld
/LW/setlinewidth ld
/M/moveto ld
/re {4 2 roll M
1 index 0 rlineto
0 exch rlineto
neg 0 rlineto
cp } bd
/_ctm matrix def
/_tm matrix def
/BT { _ctm currentmatrix pop matrix _tm copy pop 0 0 moveto } bd
/ET { _ctm setmatrix } bd
/iTm { _ctm setmatrix _tm concat } bd
/Tm { _tm astore pop iTm 0 0 moveto } bd
/ux 0.0 def
/uy 0.0 def
/F {
  /Tp exch def
  /Tf exch def
  Tf findfont Tp scalefont setfont
  /cf Tf def  /cs Tp def
} bd
/ULS {currentpoint /uy exch def /ux exch def} bd
/ULE {
  /Tcx currentpoint pop def
  gsave
  newpath
  cf findfont cs scalefont dup
  /FontMatrix get 0 get /Ts exch def /FontInfo get dup
  /UnderlinePosition get Ts mul /To exch def
  /UnderlineThickness get Ts mul /Tt exch def
  ux uy To add moveto  Tcx uy To add lineto
  Tt setlinewidth stroke
  grestore
} bd
/OLE {
  /Tcx currentpoint pop def
  gsave
  newpath
  cf findfont cs scalefont dup
  /FontMatrix get 0 get /Ts exch def /FontInfo get dup
  /UnderlinePosition get Ts mul /To exch def
  /UnderlineThickness get Ts mul /Tt exch def
  ux uy To add cs add moveto Tcx uy To add cs add lineto
  Tt setlinewidth stroke
  grestore
} bd
/SOE {
  /Tcx currentpoint pop def
  gsave
  newpath
  cf findfont cs scalefont dup
  /FontMatrix get 0 get /Ts exch def /FontInfo get dup
  /UnderlinePosition get Ts mul /To exch def
  /UnderlineThickness get Ts mul /Tt exch def
  ux uy To add cs 10 mul 26 idiv add moveto Tcx uy To add cs 10 mul 26 idiv add lineto
  Tt setlinewidth stroke
  grestore
} bd
/QT {
/Y22 exch store
/X22 exch store
/Y21 exch store
/X21 exch store
currentpoint
/Y21 load 2 mul add 3 div exch
/X21 load 2 mul add 3 div exch
/X21 load 2 mul /X22 load add 3 div
/Y21 load 2 mul /Y22 load add 3 div
/X22 load /Y22 load curveto
} bd
/SSPD {
dup length /d exch dict def
{
/v exch def
/k exch def
currentpagedevice k known {
/cpdv currentpagedevice k get def
v cpdv ne {
/upd false def
/nullv v type /nulltype eq def
/nullcpdv cpdv type /nulltype eq def
nullv nullcpdv or
{
/upd true def
} {
/sametype v type cpdv type eq def
sametype {
v type /arraytype eq {
/vlen v length def
/cpdvlen cpdv length def
vlen cpdvlen eq {
0 1 vlen 1 sub {
/i exch def
/obj v i get def
/cpdobj cpdv i get def
obj cpdobj ne {
/upd true def
exit
} if
} for
} {
/upd true def
} ifelse
} {
v type /dicttype eq {
v {
/dv exch def
/dk exch def
/cpddv cpdv dk get def
dv cpddv ne {
/upd true def
exit
} if
} forall
} {
/upd true def
} ifelse
} ifelse
} if
} ifelse
upd true eq {
d k v put
} if
} if
} if
} forall
d length 0 gt {
d setpagedevice
} if
} bd
/RE { % /NewFontName [NewEncodingArray] /FontName RE -
  findfont dup length dict begin
  {
    1 index /FID ne
    {def} {pop pop} ifelse
  } forall
  /Encoding exch def
  /FontName 1 index def
  currentdict definefont pop
  end
} bind def
%%EndResource
%%BeginResource: procset (Apache XML Graphics EPS ProcSet) 1.0 0
%%Version: 1.0 0
%%Copyright: (Copyright 2002-2003 The Apache Software Foundation. License terms: http://www.apache.org/licenses/LICENSE-2.0)
/BeginEPSF { %def
/b4_Inc_state save def         % Save state for cleanup
/dict_count countdictstack def % Count objects on dict stack
/op_count count 1 sub def      % Count objects on operand stack
userdict begin                 % Push userdict on dict stack
/showpage { } def              % Redefine showpage, { } = null proc
0 setgray 0 setlinecap         % Prepare graphics state
1 setlinewidth 0 setlinejoin
10 setmiterlimit [ ] 0 setdash newpath
/languagelevel where           % If level not equal to 1 then
{pop languagelevel             % set strokeadjust and
1 ne                           % overprint to their defaults.
{false setstrokeadjust false setoverprint
} if
} if
} bd
/EndEPSF { %def
count op_count sub {pop} repeat            % Clean up stacks
countdictstack dict_count sub {end} repeat
b4_Inc_state restore
} bd
%%EndResource
%FOPBeginFontDict
%%IncludeResource: font Courier-Oblique
%%IncludeResource: font Courier-BoldOblique
%%IncludeResource: font Courier-Bold
%%IncludeResource: font ZapfDingbats
%%IncludeResource: font Symbol
%%IncludeResource: font Helvetica
%%IncludeResource: font Helvetica-Oblique
%%IncludeResource: font Helvetica-Bold
%%IncludeResource: font Helvetica-BoldOblique
%%IncludeResource: font Times-Roman
%%IncludeResource: font Times-Italic
%%IncludeResource: font Times-Bold
%%IncludeResource: font Times-BoldItalic
%%IncludeResource: font Courier
%FOPEndFontDict
%%BeginResource: encoding WinAnsiEncoding
/WinAnsiEncoding [
/.notdef /.notdef /.notdef /.notdef /.notdef
/.notdef /.notdef /.notdef /.notdef /.notdef
/.notdef /.notdef /.notdef /.notdef /.notdef
/.notdef /.notdef /.notdef /.notdef /.notdef
/.notdef /.notdef /.notdef /.notdef /.notdef
/.notdef /.notdef /.notdef /.notdef /.notdef
/.notdef /.notdef /space /exclam /quotedbl
/numbersign /dollar /percent /ampersand /quotesingle
/parenleft /parenright /asterisk /plus /comma
/hyphen /period /slash /zero /one
/two /three /four /five /six
/seven /eight /nine /colon /semicolon
/less /equal /greater /question /at
/A /B /C /D /E
/F /G /H /I /J
/K /L /M /N /O
/P /Q /R /S /T
/U /V /W /X /Y
/Z /bracketleft /backslash /bracketright /asciicircum
/underscore /quoteleft /a /b /c
/d /e /f /g /h
/i /j /k /l /m
/n /o /p /q /r
/s /t /u /v /w
/x /y /z /braceleft /bar
/braceright /asciitilde /bullet /Euro /bullet
/quotesinglbase /florin /quotedblbase /ellipsis /dagger
/daggerdbl /circumflex /perthousand /Scaron /guilsinglleft
/OE /bullet /Zcaron /bullet /bullet
/quoteleft /quoteright /quotedblleft /quotedblright /bullet
/endash /emdash /asciitilde /trademark /scaron
/guilsinglright /oe /bullet /zcaron /Ydieresis
/space /exclamdown /cent /sterling /currency
/yen /brokenbar /section /dieresis /copyright
/ordfeminine /guillemotleft /logicalnot /sfthyphen /registered
/macron /degree /plusminus /twosuperior /threesuperior
/acute /mu /paragraph /middot /cedilla
/onesuperior /ordmasculine /guillemotright /onequarter /onehalf
/threequarters /questiondown /Agrave /Aacute /Acircumflex
/Atilde /Adieresis /Aring /AE /Ccedilla
/Egrave /Eacute /Ecircumflex /Edieresis /Igrave
/Iacute /Icircumflex /Idieresis /Eth /Ntilde
/Ograve /Oacute /Ocircumflex /Otilde /Odieresis
/multiply /Oslash /Ugrave /Uacute /Ucircumflex
/Udieresis /Yacute /Thorn /germandbls /agrave
/aacute /acircumflex /atilde /adieresis /aring
/ae /ccedilla /egrave /eacute /ecircumflex
/edieresis /igrave /iacute /icircumflex /idieresis
/eth /ntilde /ograve /oacute /ocircumflex
/otilde /odieresis /divide /oslash /ugrave
/uacute /ucircumflex /udieresis /yacute /thorn
/ydieresis
] def
%%EndResource
%FOPBeginFontReencode
/Courier-Oblique findfont
dup length dict begin
  {1 index /FID ne {def} {pop pop} ifelse} forall
  /Encoding WinAnsiEncoding def
  currentdict
end
/Courier-Oblique exch definefont pop
/Courier-BoldOblique findfont
dup length dict begin
  {1 index /FID ne {def} {pop pop} ifelse} forall
  /Encoding WinAnsiEncoding def
  currentdict
end
/Courier-BoldOblique exch definefont pop
/Courier-Bold findfont
dup length dict begin
  {1 index /FID ne {def} {pop pop} ifelse} forall
  /Encoding WinAnsiEncoding def
  currentdict
end
/Courier-Bold exch definefont pop
/Helvetica findfont
dup length dict begin
  {1 index /FID ne {def} {pop pop} ifelse} forall
  /Encoding WinAnsiEncoding def
  currentdict
end
/Helvetica exch definefont pop
/Helvetica-Oblique findfont
dup length dict begin
  {1 index /FID ne {def} {pop pop} ifelse} forall
  /Encoding WinAnsiEncoding def
  currentdict
end
/Helvetica-Oblique exch definefont pop
/Helvetica-Bold findfont
dup length dict begin
  {1 index /FID ne {def} {pop pop} ifelse} forall
  /Encoding WinAnsiEncoding def
  currentdict
end
/Helvetica-Bold exch definefont pop
/Helvetica-BoldOblique findfont
dup length dict begin
  {1 index /FID ne {def} {pop pop} ifelse} forall
  /Encoding WinAnsiEncoding def
  currentdict
end
/Helvetica-BoldOblique exch definefont pop
/Times-Roman findfont
dup length dict begin
  {1 index /FID ne {def} {pop pop} ifelse} forall
  /Encoding WinAnsiEncoding def
  currentdict
end
/Times-Roman exch definefont pop
/Times-Italic findfont
dup length dict begin
  {1 index /FID ne {def} {pop pop} ifelse} forall
  /Encoding WinAnsiEncoding def
  currentdict
end
/Times-Italic exch definefont pop
/Times-Bold findfont
dup length dict begin
  {1 index /FID ne {def} {pop pop} ifelse} forall
  /Encoding WinAnsiEncoding def
  currentdict
end
/Times-Bold exch definefont pop
/Times-BoldItalic findfont
dup length dict begin
  {1 index /FID ne {def} {pop pop} ifelse} forall
  /Encoding WinAnsiEncoding def
  currentdict
end
/Times-BoldItalic exch definefont pop
/Courier findfont
dup length dict begin
  {1 index /FID ne {def} {pop pop} ifelse} forall
  /Encoding WinAnsiEncoding def
  currentdict
end
/Courier exch definefont pop
%FOPEndFontReencode
%%EndProlog
%%Page: 1 1
%%PageBoundingBox: 0 0 525 394
%%BeginPageSetup
[1 0 0 -1 0 394] CT
%%EndPageSetup
GS
[0.75 0 0 0.74971 0 0.39999] CT
N
0 0 M
700 0 L
700 525 L
0 525 L
0 0 L
cp
clip
1 GC
N
0 0 700 525 re
f
GR
GS
[0.75 0 0 0.74971 0 0.39999] CT
1 GC
N
0 0 700 525 re
f
GR
GS
[0.75 0 0 0.74971 0 0.39999] CT
1 GC
N
91 459 M
634 459 L
634 39 L
91 39 L
cp
f
GR
GS
[0.75 0 0 0.74971 0 0.39999] CT
0.873 GC
1 LJ
0.667 LW
N
91 459 M
91 39 L
S
GR
GS
[0.75 0 0 0.74971 0 0.39999] CT
0.873 GC
1 LJ
0.667 LW
N
199.6 459 M
199.6 39 L
S
GR
GS
[0.75 0 0 0.74971 0 0.39999] CT
0.873 GC
1 LJ
0.667 LW
N
308.2 459 M
308.2 39 L
S
GR
GS
[0.75 0 0 0.74971 0 0.39999] CT
0.873 GC
1 LJ
0.667 LW
N
416.8 459 M
416.8 39 L
S
GR
GS
[0.75 0 0 0.74971 0 0.39999] CT
0.873 GC
1 LJ
0.667 LW
N
525.4 459 M
525.4 39 L
S
GR
GS
[0.75 0 0 0.74971 0 0.39999] CT
0.873 GC
1 LJ
0.667 LW
N
634 459 M
634 39 L
S
GR
GS
[0.75 0 0 0.74971 0 0.39999] CT
0.873 GC
1 LJ
0.667 LW
N
634 459 M
91 459 L
S
GR
GS
[0.75 0 0 0.74971 0 0.39999] CT
0.873 GC
1 LJ
0.667 LW
N
634 389 M
91 389 L
S
GR
GS
[0.75 0 0 0.74971 0 0.39999] CT
0.873 GC
1 LJ
0.667 LW
N
634 319 M
91 319 L
S
GR
GS
[0.75 0 0 0.74971 0 0.39999] CT
0.873 GC
1 LJ
0.667 LW
N
634 249 M
91 249 L
S
GR
GS
[0.75 0 0 0.74971 0 0.39999] CT
0.873 GC
1 LJ
0.667 LW
N
634 179 M
91 179 L
S
GR
GS
[0.75 0 0 0.74971 0 0.39999] CT
0.873 GC
1 LJ
0.667 LW
N
634 109 M
91 109 L
S
GR
GS
[0.75 0 0 0.74971 0 0.39999] CT
0.873 GC
1 LJ
0.667 LW
N
634 39 M
91 39 L
S
GR
GS
[0.75 0 0 0.74971 0 0.39999] CT
0.149 GC
2 setlinecap
1 LJ
0.667 LW
N
91 459 M
634 459 L
S
GR
GS
[0.75 0 0 0.74971 0 0.39999] CT
0.149 GC
2 setlinecap
1 LJ
0.667 LW
N
91 39 M
634 39 L
S
GR
GS
[0.75 0 0 0.74971 0 0.39999] CT
0.149 GC
2 setlinecap
1 LJ
0.667 LW
N
91 459 M
91 453.57 L
S
GR
GS
[0.75 0 0 0.74971 0 0.39999] CT
0.149 GC
2 setlinecap
1 LJ
0.667 LW
N
199.6 459 M
199.6 453.57 L
S
GR
GS
[0.75 0 0 0.74971 0 0.39999] CT
0.149 GC
2 setlinecap
1 LJ
0.667 LW
N
308.2 459 M
308.2 453.57 L
S
GR
GS
[0.75 0 0 0.74971 0 0.39999] CT
0.149 GC
2 setlinecap
1 LJ
0.667 LW
N
416.8 459 M
416.8 453.57 L
S
GR
GS
[0.75 0 0 0.74971 0 0.39999] CT
0.149 GC
2 setlinecap
1 LJ
0.667 LW
N
525.4 459 M
525.4 453.57 L
S
GR
GS
[0.75 0 0 0.74971 0 0.39999] CT
0.149 GC
2 setlinecap
1 LJ
0.667 LW
N
634 459 M
634 453.57 L
S
GR
GS
[0.75 0 0 0.74971 0 0.39999] CT
0.149 GC
2 setlinecap
1 LJ
0.667 LW
N
91 39 M
91 44.43 L
S
GR
GS
[0.75 0 0 0.74971 0 0.39999] CT
0.149 GC
2 setlinecap
1 LJ
0.667 LW
N
199.6 39 M
199.6 44.43 L
S
GR
GS
[0.75 0 0 0.74971 0 0.39999] CT
0.149 GC
2 setlinecap
1 LJ
0.667 LW
N
308.2 39 M
308.2 44.43 L
S
GR
GS
[0.75 0 0 0.74971 0 0.39999] CT
0.149 GC
2 setlinecap
1 LJ
0.667 LW
N
416.8 39 M
416.8 44.43 L
S
GR
GS
[0.75 0 0 0.74971 0 0.39999] CT
0.149 GC
2 setlinecap
1 LJ
0.667 LW
N
525.4 39 M
525.4 44.43 L
S
GR
GS
[0.75 0 0 0.74971 0 0.39999] CT
0.149 GC
2 setlinecap
1 LJ
0.667 LW
N
634 39 M
634 44.43 L
S
GR
GS
[0.75 0 0 0.74971 68.25 349.51694] CT
0.149 GC
/Helvetica 20 F
GS
[1 0 0 1 0 0] CT
-6 21 moveto 
1 -1 scale
(0) t 
GR
GR
GS
[0.75 0 0 0.74971 149.7 349.51694] CT
0.149 GC
/Helvetica 20 F
GS
[1 0 0 1 0 0] CT
-6 21 moveto 
1 -1 scale
(2) t 
GR
GR
GS
[0.75 0 0 0.74971 231.15001 349.51694] CT
0.149 GC
/Helvetica 20 F
GS
[1 0 0 1 0 0] CT
-6 21 moveto 
1 -1 scale
(4) t 
GR
GR
GS
[0.75 0 0 0.74971 312.59999 349.51694] CT
0.149 GC
/Helvetica 20 F
GS
[1 0 0 1 0 0] CT
-6 21 moveto 
1 -1 scale
(6) t 
GR
GR
GS
[0.75 0 0 0.74971 394.05002 349.51694] CT
0.149 GC
/Helvetica 20 F
GS
[1 0 0 1 0 0] CT
-6 21 moveto 
1 -1 scale
(8) t 
GR
GR
GS
[0.75 0 0 0.74971 475.5 349.51694] CT
0.149 GC
/Helvetica 20 F
GS
[1 0 0 1 0 0] CT
-11.5 21 moveto 
1 -1 scale
(10) t 
GR
GR
GS
[0.75 0 0 0.74971 271.87518 370.00914] CT
0.149 GC
/Helvetica 22 F
GS
[1 0 0 1 0 0] CT
-48.5 23 moveto 
1 -1 scale
(Itterations) t 
GR
GR
GS
[0.75 0 0 0.74971 439.5 390.25143] CT
0.149 GC
N
2.938 -0.578 M
2.938 -0.734 3.031 -0.859 QT
7.203 -5 L
3.031 -9.156 L
2.938 -9.266 2.938 -9.422 QT
2.938 -9.578 3.055 -9.703 QT
3.172 -9.828 3.344 -9.828 QT
3.484 -9.828 3.641 -9.703 QT
7.781 -5.563 L
11.906 -9.703 L
12.078 -9.828 12.203 -9.828 QT
12.359 -9.828 12.477 -9.711 QT
12.594 -9.594 12.594 -9.422 QT
12.594 -9.266 12.5 -9.156 QT
8.344 -5 L
12.5 -0.859 L
12.594 -0.734 12.594 -0.578 QT
12.594 -0.406 12.477 -0.289 QT
12.359 -0.172 12.203 -0.172 QT
12.047 -0.172 11.906 -0.328 QT
7.781 -4.438 L
3.641 -0.328 L
3.5 -0.172 3.344 -0.172 QT
3.172 -0.172 3.055 -0.305 QT
2.938 -0.438 2.938 -0.578 QT
cp
f
GR
GS
[0.75 0 0 0.74971 451.5 390.25143] CT
0.149 GC
/Helvetica 20 F
GS
[1 0 0 1 0 0] CT
0 0 moveto 
1 -1 scale
(10) t 
GR
GR
GS
[0.75 0 0 0.74971 468.75 382.75429] CT
0.149 GC
/Helvetica 16 F
GS
[1 0 0 1 0 0] CT
0 0 moveto 
1 -1 scale
(4) t 
GR
GR
GS
[0.75 0 0 0.74971 0 0.39999] CT
0.149 GC
2 setlinecap
1 LJ
0.667 LW
N
91 459 M
91 39 L
S
GR
GS
[0.75 0 0 0.74971 0 0.39999] CT
0.149 GC
2 setlinecap
1 LJ
0.667 LW
N
634 459 M
634 39 L
S
GR
GS
[0.75 0 0 0.74971 0 0.39999] CT
0.149 GC
2 setlinecap
1 LJ
0.667 LW
N
91 459 M
96.43 459 L
S
GR
GS
[0.75 0 0 0.74971 0 0.39999] CT
0.149 GC
2 setlinecap
1 LJ
0.667 LW
N
91 389 M
96.43 389 L
S
GR
GS
[0.75 0 0 0.74971 0 0.39999] CT
0.149 GC
2 setlinecap
1 LJ
0.667 LW
N
91 319 M
96.43 319 L
S
GR
GS
[0.75 0 0 0.74971 0 0.39999] CT
0.149 GC
2 setlinecap
1 LJ
0.667 LW
N
91 249 M
96.43 249 L
S
GR
GS
[0.75 0 0 0.74971 0 0.39999] CT
0.149 GC
2 setlinecap
1 LJ
0.667 LW
N
91 179 M
96.43 179 L
S
GR
GS
[0.75 0 0 0.74971 0 0.39999] CT
0.149 GC
2 setlinecap
1 LJ
0.667 LW
N
91 109 M
96.43 109 L
S
GR
GS
[0.75 0 0 0.74971 0 0.39999] CT
0.149 GC
2 setlinecap
1 LJ
0.667 LW
N
91 39 M
96.43 39 L
S
GR
GS
[0.75 0 0 0.74971 0 0.39999] CT
0.149 GC
2 setlinecap
1 LJ
0.667 LW
N
634 459 M
628.57 459 L
S
GR
GS
[0.75 0 0 0.74971 0 0.39999] CT
0.149 GC
2 setlinecap
1 LJ
0.667 LW
N
634 389 M
628.57 389 L
S
GR
GS
[0.75 0 0 0.74971 0 0.39999] CT
0.149 GC
2 setlinecap
1 LJ
0.667 LW
N
634 319 M
628.57 319 L
S
GR
GS
[0.75 0 0 0.74971 0 0.39999] CT
0.149 GC
2 setlinecap
1 LJ
0.667 LW
N
634 249 M
628.57 249 L
S
GR
GS
[0.75 0 0 0.74971 0 0.39999] CT
0.149 GC
2 setlinecap
1 LJ
0.667 LW
N
634 179 M
628.57 179 L
S
GR
GS
[0.75 0 0 0.74971 0 0.39999] CT
0.149 GC
2 setlinecap
1 LJ
0.667 LW
N
634 109 M
628.57 109 L
S
GR
GS
[0.75 0 0 0.74971 0 0.39999] CT
0.149 GC
2 setlinecap
1 LJ
0.667 LW
N
634 39 M
628.57 39 L
S
GR
GS
[0.75 0 0 0.74971 63.25 344.51886] CT
0.149 GC
/Helvetica 20 F
GS
[1 0 0 1 0 0] CT
-12 8 moveto 
1 -1 scale
(0) t 
GR
GR
GS
[0.75 0 0 0.74971 63.25 292.03886] CT
0.149 GC
/Helvetica 20 F
GS
[1 0 0 1 0 0] CT
-23 8 moveto 
1 -1 scale
(20) t 
GR
GR
GS
[0.75 0 0 0.74971 63.25 239.55885] CT
0.149 GC
/Helvetica 20 F
GS
[1 0 0 1 0 0] CT
-23 8 moveto 
1 -1 scale
(40) t 
GR
GR
GS
[0.75 0 0 0.74971 63.25 187.07885] CT
0.149 GC
/Helvetica 20 F
GS
[1 0 0 1 0 0] CT
-23 8 moveto 
1 -1 scale
(60) t 
GR
GR
GS
[0.75 0 0 0.74971 63.25 134.59885] CT
0.149 GC
/Helvetica 20 F
GS
[1 0 0 1 0 0] CT
-23 8 moveto 
1 -1 scale
(80) t 
GR
GR
GS
[0.75 0 0 0.74971 63.25 82.11885] CT
0.149 GC
/Helvetica 20 F
GS
[1 0 0 1 0 0] CT
-34 8 moveto 
1 -1 scale
(100) t 
GR
GR
GS
[0.75 0 0 0.74971 63.25 29.63885] CT
0.149 GC
/Helvetica 20 F
GS
[1 0 0 1 0 0] CT
-34 8 moveto 
1 -1 scale
(120) t 
GR
GR
GS
[0 -0.74971 0.75 0 34.75 187.07871] CT
0.149 GC
/Helvetica 22 F
GS
[1 0 0 1 0 0] CT
-50.5 -5 moveto 
1 -1 scale
(Difference) t 
GR
GR
GS
[0.75 0 0 0.74971 162.75 22.89142] CT
/Helvetica-Bold 22 F
GS
[1 0 0 1 0 0] CT
0 0 moveto 
1 -1 scale
(Norm 2 distance from ) t 
GR
GR
GS
[0.75 0 0 0.74971 337.5 22.89142] CT
N
3.547 0.25 M
2.547 0.25 1.945 -0.484 QT
1.344 -1.219 1.109 -2.25 QT
0.875 -3.281 0.875 -4.281 QT
0.875 -4.313 L
0.875 -5.406 1.086 -6.586 QT
1.297 -7.766 1.695 -8.945 QT
2.094 -10.125 2.563 -11.047 QT
2.875 -11.688 3.391 -12.484 QT
3.906 -13.281 4.531 -13.969 QT
5.156 -14.656 5.883 -15.086 QT
6.609 -15.516 7.344 -15.516 QT
7.375 -15.516 L
9.172 -15.516 9.703 -15.07 QT
10.234 -14.625 10.523 -13.938 QT
10.813 -13.25 10.938 -12.469 QT
11.063 -11.688 11.063 -10.984 QT
11.063 -9.313 10.609 -7.578 QT
10.156 -5.844 9.359 -4.219 QT
9.063 -3.609 8.531 -2.781 QT
8 -1.953 7.398 -1.297 QT
6.797 -0.641 6.055 -0.195 QT
5.313 0.25 3.563 0.25 QT
3.547 0.25 L
cp
3.594 -0.328 M
4.313 -0.328 4.984 -1.109 QT
5.656 -1.891 6.164 -3 QT
6.672 -4.109 7.055 -5.281 QT
7.438 -6.453 7.609 -7.266 QT
4.125 -7.266 L
3.781 -5.875 3.586 -4.875 QT
3.391 -3.875 3.391 -2.906 QT
3.391 -0.328 3.594 -0.328 QT
cp
4.297 -8.031 M
7.813 -8.031 L
8.047 -9 8.188 -9.648 QT
8.328 -10.297 8.422 -11.016 QT
8.516 -11.734 8.516 -12.359 QT
8.516 -14.938 7.344 -14.938 QT
6.953 -14.938 5.938 -12.688 QT
4.922 -10.438 4.297 -8.031 QT
cp
f
GR
GS
[0.75 0 0 0.74971 346.5 22.89142] CT
/Helvetica-Bold 22 F
GS
[1 0 0 1 0 0] CT
0 0 moveto 
1 -1 scale
( to 0) t 
GR
GR
GS
[0.75 0 0 0.74971 0 0.39999] CT
0 0.447 0.741 RC
1 LJ
2.667 LW
N
91.005 457.25 M
91.331 453.32 L
91.337 453.32 L
91.967 449.529 L
91.999 449.529 L
92.005 449.529 L
92.645 446.587 L
92.662 446.587 L
92.667 446.587 L
93.27 443.999 L
93.329 443.999 L
93.335 443.973 L
93.948 441.821 L
93.997 441.821 L
94.003 441.821 L
94.654 440.479 L
94.665 440.479 L
94.671 440.479 L
95.322 438.285 L
95.333 438.285 L
95.339 438.285 L
95.996 436.299 L
96.001 436.299 L
96.663 433.617 L
96.669 433.631 L
97.331 431.895 L
97.337 431.895 L
97.983 429.705 L
97.999 429.705 L
98.005 429.693 L
98.662 428.778 L
98.667 428.778 L
99.319 427.236 L
99.33 427.236 L
99.335 427.225 L
99.998 425.449 L
100.003 425.449 L
100.665 424.102 L
100.671 424.102 L
101.295 422.614 L
101.333 422.614 L
101.339 422.614 L
101.996 421.489 L
102.001 421.489 L
102.658 419.979 L
102.664 419.979 L
102.669 419.97 L
103.332 417.666 L
103.337 417.666 L
103.342 417.666 L
103.999 415.905 L
104.005 415.793 L
104.662 414.338 L
104.667 414.182 L
104.678 414.182 L
105.33 413.295 L
105.335 413.262 L
105.998 411.887 L
106.003 411.887 L
106.666 410.476 L
106.671 410.332 L
107.328 408.72 L
107.333 408.582 L
107.99 407.567 L
107.996 407.567 L
108.001 407.566 L
108.664 405.644 L
108.669 405.644 L
109.326 404.279 L
109.332 404.279 L
109.337 404.279 L
109.375 404.28 L
110 403.685 L
110.005 403.669 L
110.01 403.669 L
110.662 402.292 L
110.667 402.292 L
111.33 400.601 L
111.335 400.601 L
111.998 398.909 L
112.003 398.909 L
112.666 397.637 L
112.671 397.637 L
113.328 396.538 L
113.334 396.539 L
113.996 394.912 L
114.001 394.862 L
114.664 393.895 L
114.669 393.895 L
115.332 392.426 L
115.337 392.426 L
116 390.901 L
116.005 390.899 L
116.662 389.788 L
116.668 389.788 L
117.33 388.138 L
117.336 388.138 L
117.993 387.246 L
117.998 387.246 L
118.003 387.246 L
118.666 385.837 L
118.671 385.837 L
119.328 383.859 L
119.334 383.835 L
119.35 383.835 L
119.996 382.82 L
120.002 382.82 L
120.023 382.82 L
120.659 382.067 L
120.664 382.067 L
120.67 382.067 L
121.321 380.67 L
121.332 380.674 L
121.337 380.674 L
122 379.349 L
122.005 379.348 L
122.662 378.218 L
122.668 378.218 L
123.33 376.713 L
123.336 376.713 L
123.998 375.628 L
124.004 375.529 L
124.666 374.216 L
124.671 374.216 L
124.688 374.217 L
125.328 373.366 L
125.334 373.355 L
125.996 371.993 L
126.002 371.992 L
126.007 371.992 L
126.664 371.266 L
126.67 371.251 L
127.332 369.448 L
127.338 369.448 L
127.995 368.068 L
128 368.072 L
128.662 366.527 L
128.668 366.527 L
128.673 366.527 L
129.33 365.109 L
129.336 365.109 L
129.341 365.109 L
129.998 363.899 L
130.004 363.899 L
130.666 363.059 L
130.672 363.057 L
130.693 363.064 L
131.329 361.976 L
131.334 361.976 L
131.339 361.977 L
131.997 360.918 L
132.002 360.901 L
132.024 360.901 L
132.659 359.7 L
132.664 359.7 L
132.67 359.699 L
133.332 358.188 L
133.338 358.169 L
133.995 357.361 L
134 357.362 L
134.625 356.659 L
134.663 356.661 L
134.668 356.661 L
135.32 355.335 L
135.331 355.335 L
135.336 355.335 L
135.998 354.033 L
136.004 354.033 L
136.666 353.13 L
136.672 353.13 L
137.329 352.237 L
137.334 352.237 L
137.986 351.037 L
137.997 351.037 L
138.002 351.037 L
138.665 349.953 L
138.67 349.865 L
139.332 348.897 L
139.338 348.885 L
139.995 347.878 L
140 347.862 L
140.663 346.718 L
140.668 346.718 L
141.331 345.444 L
141.336 345.444 L
141.999 344.353 L
142.004 344.353 L
142.666 343.395 L
142.672 343.395 L
143.329 342.584 L
143.334 342.502 L
143.351 342.502 L
143.997 341.523 L
144.002 341.523 L
144.665 340.547 L
144.67 340.547 L
144.686 340.549 L
145.333 339.783 L
145.338 339.784 L
145.995 338.341 L
146 338.325 L
146.663 337.314 L
146.668 337.313 L
147.331 336.197 L
147.336 336.196 L
147.999 335.758 L
148.004 335.758 L
148.01 335.758 L
148.667 334.988 L
148.672 334.996 L
149.329 334.233 L
149.334 334.16 L
149.367 334.203 L
149.997 332.999 L
150.002 332.923 L
150.665 331.715 L
150.67 331.701 L
151.333 330.912 L
151.338 330.911 L
151.995 329.666 L
152.001 329.666 L
152.663 328.63 L
152.669 328.629 L
153.331 327.518 L
153.336 327.518 L
153.999 326.907 L
154.004 326.907 L
154.661 325.751 L
154.667 325.751 L
155.329 325.097 L
155.335 325.097 L
155.997 324.301 L
156.003 324.301 L
156.665 323.406 L
156.67 323.403 L
157.333 322.513 L
157.338 322.513 L
157.995 321.664 L
158.001 321.65 L
158.658 320.68 L
158.663 320.68 L
158.669 320.68 L
159.331 319.632 L
159.337 319.632 L
159.999 318.557 L
160.004 318.557 L
160.661 318.102 L
160.667 318.101 L
160.689 318.155 L
161.329 317.559 L
161.335 317.559 L
161.997 316.407 L
162.003 316.407 L
162.643 315.647 L
162.665 315.652 L
162.671 315.639 L
163.333 314.351 L
163.338 314.35 L
163.995 313.171 L
164.001 313.171 L
164.663 312.505 L
164.669 312.505 L
165.331 311.474 L
165.337 311.412 L
165.999 310.358 L
166.005 310.358 L
166.662 309.497 L
166.667 309.497 L
167.324 308.699 L
167.33 308.699 L
167.335 308.699 L
167.997 307.938 L
168.003 307.938 L
168.008 307.938 L
168.665 307.174 L
168.671 307.11 L
169.333 305.846 L
169.339 305.792 L
169.996 304.844 L
170.001 304.844 L
170.007 304.845 L
170.664 303.674 L
170.669 303.674 L
171.331 303.176 L
171.337 303.176 L
171.999 302.279 L
172.005 302.279 L
172.662 301.507 L
172.667 301.507 L
173.33 300.194 L
173.335 300.182 L
173.998 299.178 L
174.003 299.179 L
174.665 298.265 L
174.671 298.265 L
175.295 297.419 L
175.333 297.421 L
175.339 297.365 L
175.996 296.347 L
176.001 296.347 L
176.664 295.813 L
176.669 295.813 L
177.332 295.053 L
177.337 295.053 L
177.999 293.892 L
178.005 293.89 L
178.662 292.943 L
178.667 292.884 L
179.33 291.737 L
179.335 291.727 L
179.998 291.025 L
180.003 291.014 L
180.666 290 L
180.671 290 L
181.323 289.221 L
181.328 289.228 L
181.333 289.171 L
181.996 288.421 L
182.001 288.41 L
182.664 287.632 L
182.669 287.631 L
183.332 286.9 L
183.337 286.9 L
184 286.142 L
184.005 286.132 L
184.662 285.338 L
184.667 285.338 L
184.744 285.354 L
185.33 284.831 L
185.335 284.82 L
185.998 283.928 L
186.003 283.927 L
186.666 283.142 L
186.671 283.142 L
187.323 282.325 L
187.328 282.325 L
187.334 282.322 L
187.996 281.444 L
188.002 281.444 L
188.664 280.867 L
188.669 280.866 L
189.332 280.219 L
189.337 280.219 L
190 279.462 L
190.005 279.462 L
190.662 278.638 L
190.668 278.638 L
191.33 277.956 L
191.336 277.956 L
191.998 277.161 L
192.003 277.153 L
192.666 276.602 L
192.671 276.602 L
193.328 275.992 L
193.334 275.986 L
193.996 275.186 L
194.002 275.18 L
194.664 274.177 L
194.67 274.125 L
195.332 273.336 L
195.337 273.335 L
195.994 272.241 L
196 272.241 L
196.005 272.24 L
196.662 271.416 L
196.668 271.406 L
197.33 270.791 L
197.336 270.783 L
197.998 270.218 L
198.004 270.218 L
198.666 269.309 L
198.671 269.308 L
198.693 269.311 L
199.329 268.706 L
199.334 268.705 L
199.345 268.706 L
199.958 267.81 L
199.996 267.811 L
200.002 267.811 L
200.664 267.176 L
200.67 267.176 L
201.332 266.601 L
201.338 266.601 L
201.995 265.93 L
202 265.93 L
202.663 265.584 L
202.668 265.584 L
203.33 264.867 L
203.336 264.867 L
203.998 264.073 L
204.004 264.073 L
204.666 263.592 L
204.672 263.553 L
205.323 262.825 L
205.329 262.825 L
205.334 262.824 L
205.405 262.849 L
205.997 262.156 L
206.002 262.112 L
206.664 261.465 L
206.67 261.464 L
207.332 260.398 L
207.338 260.392 L
207.995 259.883 L
208 259.882 L
208.663 259.224 L
208.668 259.224 L
209.331 258.492 L
209.336 258.488 L
209.998 257.744 L
210.004 257.744 L
210.666 256.82 L
210.672 256.818 L
211.329 255.904 L
211.334 255.904 L
211.997 255.426 L
212.002 255.426 L
212.665 254.718 L
212.67 254.718 L
213.332 254.168 L
213.338 254.168 L
213.995 253.149 L
214 253.147 L
214.663 252.449 L
214.668 252.449 L
215.331 251.598 L
215.336 251.597 L
215.999 251.108 L
216.004 251.108 L
216.666 250.361 L
216.672 250.357 L
217.329 249.792 L
217.334 249.792 L
217.991 249.315 L
217.997 249.325 L
218.002 249.319 L
218.665 248.672 L
218.67 248.672 L
219.333 247.986 L
219.338 247.985 L
219.995 247.282 L
220.001 247.281 L
220.663 246.616 L
220.668 246.616 L
221.331 245.995 L
221.336 245.955 L
221.999 245.43 L
222.004 245.423 L
222.667 244.76 L
222.672 244.76 L
223.329 243.976 L
223.335 243.975 L
223.997 243.26 L
224.002 243.26 L
224.665 242.616 L
224.67 242.616 L
224.697 242.661 L
225.333 242.2 L
225.338 242.2 L
225.995 241.388 L
226.001 241.388 L
226.663 240.809 L
226.669 240.809 L
227.331 240.189 L
227.336 240.189 L
227.999 239.633 L
228.004 239.632 L
228.021 239.633 L
228.661 239.197 L
228.667 239.197 L
229.329 238.525 L
229.335 238.525 L
229.997 237.783 L
230.003 237.782 L
230.665 237.109 L
230.67 237.111 L
231.333 236.627 L
231.338 236.621 L
231.995 236.035 L
232.001 235.993 L
232.006 235.993 L
232.658 235.488 L
232.663 235.488 L
232.669 235.487 L
233.331 235.078 L
233.337 235.074 L
233.999 234.621 L
234.004 234.614 L
234.662 234.141 L
234.667 234.145 L
235.329 233.374 L
235.335 233.374 L
235.997 232.726 L
236.003 232.718 L
236.665 232.217 L
236.671 232.216 L
237.333 231.542 L
237.339 231.542 L
237.99 230.87 L
237.996 230.87 L
238.001 230.87 L
238.658 230.37 L
238.663 230.37 L
238.669 230.364 L
239.331 229.886 L
239.337 229.88 L
239.999 229.187 L
240.005 229.186 L
240.662 228.591 L
240.667 228.591 L
241.33 228.054 L
241.335 228.052 L
241.997 227.276 L
242.003 227.275 L
242.665 226.684 L
242.671 226.683 L
243.328 226.309 L
243.333 226.309 L
243.339 226.31 L
243.996 225.771 L
244.001 225.771 L
244.664 225.014 L
244.669 225.011 L
245.331 224.352 L
245.337 224.352 L
245.999 223.904 L
246.005 223.897 L
246.662 223.337 L
246.667 223.336 L
247.33 222.805 L
247.335 222.804 L
247.981 222.401 L
247.998 222.401 L
248.003 222.401 L
248.665 221.916 L
248.671 221.916 L
249.328 221.195 L
249.333 221.194 L
249.996 220.659 L
250.001 220.652 L
250.664 220.161 L
250.669 220.125 L
251.332 219.557 L
251.337 219.557 L
251.999 218.991 L
252.005 218.985 L
252.662 218.404 L
252.667 218.395 L
253.33 217.879 L
253.335 217.878 L
253.998 217.342 L
254.003 217.341 L
254.666 216.894 L
254.671 216.894 L
254.682 216.9 L
255.328 216.383 L
255.334 216.383 L
255.996 215.76 L
256.001 215.76 L
256.664 215.217 L
256.669 215.216 L
257.332 214.622 L
257.337 214.621 L
258 213.954 L
258.005 213.954 L
258.657 213.319 L
258.662 213.319 L
258.668 213.315 L
259.33 212.912 L
259.335 212.912 L
259.998 212.189 L
260.003 212.181 L
260.666 211.546 L
260.671 211.541 L
261.323 211.047 L
261.328 211.047 L
261.334 211.047 L
261.996 210.516 L
262.002 210.515 L
262.659 209.926 L
262.664 209.926 L
262.669 209.925 L
263.316 209.528 L
263.332 209.529 L
263.337 209.529 L
264 209.215 L
264.005 209.211 L
264.662 208.648 L
264.668 208.648 L
265.33 207.933 L
265.336 207.915 L
265.998 207.542 L
266.003 207.542 L
266.666 206.89 L
266.671 206.89 L
267.328 206.458 L
267.334 206.457 L
267.996 205.999 L
268.002 205.998 L
268.007 205.998 L
268.664 205.667 L
268.67 205.644 L
268.691 205.647 L
269.332 205.003 L
269.337 204.986 L
270 204.541 L
270.005 204.54 L
270.662 204.026 L
270.668 204.025 L
271.33 203.552 L
271.336 203.531 L
271.998 203.18 L
272.004 203.18 L
272.009 203.18 L
272.666 202.656 L
272.672 202.654 L
273.329 202.06 L
273.334 202.06 L
273.991 201.744 L
273.996 201.745 L
274.002 201.738 L
274.664 201.258 L
274.67 201.258 L
275.332 200.799 L
275.338 200.798 L
275.995 200.21 L
276 200.21 L
276.206 200.214 L
276.663 199.864 L
276.668 199.863 L
276.684 199.863 L
277.33 199.48 L
277.336 199.476 L
277.998 199.11 L
278.004 199.078 L
278.666 198.643 L
278.672 198.643 L
279.329 198.108 L
279.334 198.101 L
279.997 197.83 L
280.002 197.828 L
280.664 197.292 L
280.67 197.287 L
281.332 196.76 L
281.338 196.755 L
281.995 196.185 L
282 196.181 L
282.663 195.678 L
282.668 195.677 L
283.331 195.175 L
283.336 195.175 L
283.993 194.716 L
283.999 194.716 L
284.004 194.716 L
284.666 194.234 L
284.672 194.234 L
285.329 193.775 L
285.334 193.774 L
285.997 193.232 L
286.002 193.233 L
286.665 192.806 L
286.67 192.796 L
287.333 192.431 L
287.338 192.428 L
287.995 192.043 L
288 192.043 L
288.006 192.045 L
288.663 191.754 L
288.668 191.751 L
289.32 191.342 L
289.331 191.348 L
289.336 191.342 L
289.999 190.899 L
290.004 190.899 L
290.667 190.401 L
290.672 190.402 L
291.329 190.06 L
291.334 190.074 L
291.997 189.703 L
292.002 189.703 L
292.013 189.707 L
292.665 189.251 L
292.67 189.248 L
293.333 188.798 L
293.338 188.798 L
293.995 188.392 L
294.001 188.391 L
294.663 187.979 L
294.668 187.977 L
295.325 187.433 L
295.331 187.433 L
295.336 187.433 L
295.363 187.469 L
295.999 187.025 L
296.004 187.023 L
296.661 186.582 L
296.667 186.579 L
297.329 186.265 L
297.335 186.265 L
297.997 185.871 L
298.002 185.87 L
298.665 185.461 L
298.67 185.46 L
299.327 185.016 L
299.333 185.029 L
299.338 185.011 L
299.979 184.663 L
299.995 184.665 L
300.001 184.665 L
300.663 184.244 L
300.669 184.242 L
301.331 183.612 L
301.336 183.612 L
301.342 183.615 L
301.999 183.211 L
302.004 183.206 L
302.661 182.739 L
302.667 182.735 L
302.699 182.758 L
303.324 182.299 L
303.329 182.299 L
303.335 182.299 L
303.992 182.04 L
303.997 182.041 L
304.003 182.041 L
304.654 181.46 L
304.665 181.461 L
304.671 181.461 L
305.322 181.085 L
305.333 181.085 L
305.338 181.085 L
305.947 180.765 L
305.995 180.777 L
306.001 180.754 L
306.663 180.433 L
306.669 180.433 L
307.331 179.881 L
307.337 179.878 L
307.348 179.878 L
307.994 179.531 L
307.999 179.538 L
308.005 179.521 L
308.01 179.542 L
308.662 179.251 L
308.667 179.251 L
309.329 178.936 L
309.335 178.936 L
309.997 178.556 L
310.003 178.553 L
310.008 178.553 L
310.665 178.16 L
310.671 178.159 L
311.333 177.841 L
311.339 177.841 L
311.996 177.478 L
312.001 177.477 L
312.658 177.158 L
312.663 177.161 L
312.669 177.159 L
313.315 176.645 L
313.331 176.649 L
313.337 176.644 L
313.978 176.281 L
313.999 176.283 L
314.005 176.279 L
314.662 175.98 L
314.667 175.979 L
315.33 175.538 L
315.335 175.538 L
315.997 175.262 L
316.003 175.262 L
316.665 174.856 L
316.671 174.855 L
316.693 174.863 L
317.333 174.507 L
317.339 174.503 L
317.355 174.51 L
317.996 174.173 L
318.001 174.166 L
318.664 173.84 L
318.669 173.838 L
319.31 173.366 L
319.332 173.367 L
319.337 173.335 L
319.999 173.032 L
320.005 173.032 L
320.662 172.714 L
320.667 172.708 L
321.33 172.469 L
321.335 172.438 L
321.998 171.983 L
322.003 171.983 L
322.666 171.683 L
322.671 171.682 L
323.328 171.355 L
323.333 171.354 L
323.339 171.356 L
323.996 171.024 L
324.001 171.024 L
324.664 170.623 L
324.669 170.622 L
325.321 170.304 L
325.332 170.304 L
325.337 170.304 L
325.342 170.309 L
326 170.069 L
326.005 170.066 L
326.662 169.743 L
326.667 169.743 L
327.33 169.401 L
327.335 169.4 L
327.341 169.4 L
327.998 169.036 L
328.003 169.035 L
328.666 168.766 L
328.671 168.765 L
328.677 168.772 L
329.328 168.448 L
329.334 168.432 L
329.996 168.11 L
330.001 168.109 L
330.664 167.843 L
330.669 167.843 L
331.326 167.53 L
331.332 167.53 L
331.337 167.524 L
332 167.17 L
332.005 167.169 L
332.657 166.786 L
332.662 166.786 L
332.668 166.785 L
332.678 166.787 L
333.33 166.54 L
333.335 166.538 L
333.992 166.19 L
333.998 166.19 L
334.003 166.175 L
334.031 166.179 L
334.666 165.978 L
334.671 165.977 L
335.328 165.689 L
335.334 165.688 L
335.996 165.306 L
336.002 165.306 L
336.664 164.976 L
336.669 164.975 L
337.332 164.607 L
337.337 164.607 L
337.354 164.608 L
338 164.299 L
338.005 164.299 L
338.662 163.971 L
338.668 163.971 L
339.33 163.621 L
339.336 163.615 L
339.998 163.281 L
340.004 163.28 L
340.666 162.933 L
340.671 162.932 L
341.312 162.647 L
341.328 162.65 L
341.334 162.65 L
341.996 162.226 L
342.002 162.225 L
342.664 162.023 L
342.67 162.022 L
343.332 161.634 L
343.338 161.633 L
343.995 161.143 L
344 161.143 L
344.005 161.143 L
344.662 160.873 L
344.668 160.872 L
345.33 160.609 L
345.336 160.607 L
345.987 160.348 L
345.998 160.349 L
346.004 160.348 L
346.666 160.057 L
346.672 160.048 L
347.323 159.737 L
347.329 159.737 L
347.334 159.731 L
347.996 159.437 L
348.002 159.436 L
348.045 159.454 L
348.664 159.198 L
348.67 159.198 L
348.675 159.2 L
349.332 158.911 L
349.338 158.908 L
349.995 158.525 L
350 158.511 L
350.663 158.233 L
350.668 158.232 L
351.33 157.816 L
351.336 157.809 L
351.998 157.503 L
352.004 157.503 L
352.666 157.249 L
352.672 157.248 L
353.329 156.949 L
353.334 156.944 L
353.997 156.595 L
354.002 156.595 L
354.665 156.336 L
354.67 156.333 L
355.332 156.092 L
355.338 156.082 L
355.995 155.871 L
356 155.87 L
356.663 155.528 L
356.668 155.524 L
357.331 155.215 L
357.336 155.215 L
357.999 154.933 L
358.004 154.933 L
358.666 154.684 L
358.672 154.653 L
359.296 154.462 L
359.329 154.478 L
359.334 154.478 L
359.997 154.03 L
360.002 154.032 L
360.008 154.032 L
360.665 153.698 L
360.67 153.697 L
361.333 153.532 L
361.338 153.53 L
361.995 153.332 L
362 153.332 L
362.663 153.051 L
362.668 153.051 L
363.331 152.751 L
363.336 152.752 L
363.993 152.541 L
363.999 152.542 L
364.004 152.541 L
364.667 152.221 L
364.672 152.216 L
365.329 151.999 L
365.334 151.999 L
365.991 151.712 L
365.997 151.712 L
366.002 151.712 L
366.665 151.401 L
366.67 151.398 L
367.333 151.189 L
367.338 151.188 L
367.376 151.189 L
367.995 150.862 L
368.001 150.861 L
368.663 150.546 L
368.668 150.543 L
369.331 150.224 L
369.336 150.224 L
369.999 149.898 L
370.004 149.892 L
370.661 149.676 L
370.667 149.675 L
371.329 149.348 L
371.335 149.342 L
371.997 149.111 L
372.003 149.111 L
372.665 148.788 L
372.67 148.787 L
373.333 148.539 L
373.338 148.538 L
373.995 148.301 L
374.001 148.301 L
374.658 148.065 L
374.663 148.076 L
374.669 148.072 L
375.331 147.685 L
375.337 147.683 L
375.999 147.443 L
376.004 147.442 L
376.661 147.15 L
376.667 147.148 L
377.329 146.934 L
377.335 146.933 L
377.997 146.714 L
378.003 146.713 L
378.665 146.484 L
378.671 146.48 L
379.333 146.248 L
379.338 146.247 L
379.947 145.981 L
379.995 145.986 L
380.001 145.986 L
380.658 145.775 L
380.663 145.775 L
380.669 145.774 L
381.32 145.563 L
381.331 145.571 L
381.337 145.57 L
381.999 145.369 L
382.005 145.37 L
382.645 145.043 L
382.662 145.067 L
382.667 145.061 L
383.329 144.738 L
383.335 144.737 L
383.346 144.742 L
383.997 144.531 L
384.003 144.531 L
384.665 144.334 L
384.671 144.332 L
384.725 144.332 L
385.333 144.103 L
385.339 144.091 L
385.979 143.834 L
385.996 143.838 L
386.001 143.838 L
386.664 143.621 L
386.669 143.62 L
387.331 143.325 L
387.337 143.325 L
387.407 143.34 L
387.999 143.132 L
388.005 143.127 L
388.043 143.132 L
388.662 142.938 L
388.667 142.937 L
389.33 142.697 L
389.335 142.696 L
389.998 142.426 L
390.003 142.422 L
390.665 142.229 L
390.671 142.228 L
391.333 142.05 L
391.339 142.049 L
391.996 141.804 L
392.001 141.803 L
392.62 141.556 L
392.664 141.58 L
392.669 141.579 L
393.326 141.326 L
393.332 141.326 L
393.337 141.325 L
393.999 141.112 L
394.005 141.108 L
394.662 140.87 L
394.667 140.869 L
395.33 140.612 L
395.335 140.612 L
395.998 140.364 L
396.003 140.363 L
396.655 140.147 L
396.666 140.15 L
396.671 140.141 L
397.328 139.883 L
397.333 139.881 L
397.35 139.889 L
397.996 139.681 L
398.001 139.679 L
398.664 139.436 L
398.669 139.433 L
399.321 139.201 L
399.332 139.205 L
399.337 139.204 L
400 139.01 L
400.005 139.008 L
400.662 138.758 L
400.667 138.758 L
401.33 138.544 L
401.335 138.543 L
401.341 138.547 L
401.998 138.361 L
402.003 138.353 L
402.666 138.061 L
402.671 138.061 L
402.677 138.062 L
403.328 137.757 L
403.334 137.753 L
403.996 137.566 L
404.001 137.568 L
404.664 137.263 L
404.669 137.256 L
405.332 137.076 L
405.337 137.076 L
406 136.892 L
406.005 136.891 L
406.662 136.609 L
406.668 136.601 L
407.33 136.395 L
407.336 136.394 L
407.998 136.117 L
408.003 136.114 L
408.666 135.899 L
408.671 135.898 L
409.328 135.637 L
409.334 135.636 L
409.996 135.472 L
410.002 135.464 L
410.664 135.26 L
410.67 135.257 L
411.332 135.041 L
411.337 135.04 L
411.343 135.041 L
412 134.841 L
412.005 134.825 L
412.662 134.629 L
412.668 134.634 L
413.33 134.419 L
413.336 134.402 L
413.797 134.245 L
413.998 134.256 L
414.004 134.248 L
414.666 133.993 L
414.671 133.992 L
415.328 133.795 L
415.334 133.795 L
415.986 133.658 L
415.996 133.667 L
416.002 133.667 L
416.023 133.675 L
416.664 133.389 L
416.67 133.389 L
417.332 133.17 L
417.338 133.17 L
417.995 132.941 L
418 132.941 L
418.662 132.736 L
418.668 132.736 L
419.33 132.6 L
419.336 132.599 L
419.982 132.442 L
419.998 132.456 L
420.004 132.456 L
420.666 132.275 L
420.672 132.266 L
421.329 132.142 L
421.334 132.142 L
421.931 131.956 L
421.997 131.962 L
422.002 131.964 L
422.664 131.672 L
422.67 131.669 L
423.289 131.488 L
423.332 131.511 L
423.338 131.51 L
423.881 131.344 L
423.995 131.38 L
424 131.38 L
424.663 131.21 L
424.668 131.207 L
425.331 130.989 L
425.336 130.989 L
425.998 130.859 L
426.004 130.859 L
426.666 130.658 L
426.672 130.657 L
427.302 130.456 L
427.329 130.46 L
427.334 130.46 L
427.361 130.509 L
427.997 130.33 L
428.002 130.329 L
428.665 130.141 L
428.67 130.141 L
429.332 129.851 L
429.338 129.851 L
429.968 129.669 L
429.995 129.682 L
430 129.678 L
430.663 129.498 L
430.668 129.497 L
431.331 129.287 L
431.336 129.285 L
431.999 129.132 L
432.004 129.132 L
432.661 128.899 L
432.666 128.899 L
432.672 128.894 L
433.329 128.745 L
433.334 128.744 L
433.997 128.537 L
434.002 128.536 L
434.024 128.557 L
434.665 128.388 L
434.67 128.387 L
435.333 128.191 L
435.338 128.19 L
435.979 128.045 L
435.995 128.047 L
436 128.046 L
436.663 127.861 L
436.668 127.861 L
437.331 127.737 L
437.336 127.736 L
437.776 127.589 L
437.999 127.589 L
438.004 127.589 L
438.08 127.63 L
438.639 127.476 L
438.667 127.476 L
438.672 127.473 L
439.324 127.292 L
439.329 127.292 L
439.335 127.292 L
439.997 127.061 L
440.002 127.061 L
440.665 126.965 L
440.67 126.964 L
441.333 126.759 L
441.338 126.759 L
441.979 126.589 L
441.995 126.592 L
442.001 126.591 L
442.017 126.592 L
442.663 126.463 L
442.669 126.461 L
443.331 126.311 L
443.336 126.308 L
443.999 126.156 L
444.004 126.154 L
444.65 125.946 L
444.661 125.948 L
444.667 125.942 L
445.307 125.74 L
445.329 125.757 L
445.335 125.749 L
445.997 125.508 L
446.003 125.508 L
446.665 125.38 L
446.67 125.38 L
447.295 125.14 L
447.333 125.143 L
447.338 125.142 L
447.36 125.155 L
447.995 124.973 L
448.001 124.973 L
448.017 124.973 L
448.663 124.735 L
448.669 124.735 L
449.293 124.524 L
449.331 124.527 L
449.337 124.527 L
449.429 124.532 L
449.999 124.38 L
450.004 124.376 L
450.651 124.132 L
450.661 124.133 L
450.667 124.132 L
451.259 124.048 L
451.329 124.057 L
451.335 124.051 L
451.965 123.905 L
451.997 123.938 L
452.003 123.935 L
452.665 123.667 L
452.671 123.666 L
453.333 123.529 L
453.338 123.527 L
453.996 123.42 L
454.001 123.419 L
454.555 123.234 L
454.663 123.234 L
454.669 123.232 L
455.331 122.999 L
455.337 122.995 L
455.999 122.836 L
456.005 122.836 L
456.662 122.72 L
456.667 122.719 L
456.694 122.72 L
457.33 122.562 L
457.335 122.57 L
457.911 122.408 L
457.997 122.417 L
458.003 122.419 L
458.019 122.455 L
458.665 122.27 L
458.671 122.269 L
458.682 122.27 L
459.273 122.104 L
459.333 122.114 L
459.339 122.104 L
459.996 121.982 L
460.001 121.975 L
460.045 121.979 L
460.664 121.801 L
460.669 121.8 L
461.179 121.649 L
461.331 121.66 L
461.337 121.655 L
461.999 121.453 L
462.005 121.453 L
462.607 121.269 L
462.662 121.272 L
462.667 121.271 L
462.673 121.277 L
463.33 121.13 L
463.335 121.129 L
463.938 120.969 L
463.998 120.974 L
464.003 120.974 L
464.019 120.979 L
464.66 120.811 L
464.665 120.811 L
464.671 120.811 L
464.676 120.822 L
465.328 120.672 L
465.333 120.676 L
465.442 120.683 L
465.996 120.479 L
466.001 120.474 L
466.647 120.325 L
466.664 120.327 L
466.669 120.328 L
467.332 120.184 L
467.337 120.181 L
467.999 119.975 L
468.005 119.971 L
468.662 119.73 L
468.667 119.73 L
469.33 119.627 L
469.335 119.627 L
469.998 119.442 L
470.003 119.435 L
470.019 119.446 L
470.666 119.212 L
470.671 119.211 L
470.698 119.218 L
471.306 119.084 L
471.328 119.088 L
471.333 119.085 L
471.931 118.959 L
471.996 119.007 L
472.001 119.007 L
472.007 119.007 L
472.664 118.839 L
472.669 118.838 L
472.691 118.839 L
473.332 118.653 L
473.337 118.653 L
474 118.489 L
474.005 118.489 L
474.521 118.428 L
474.662 118.445 L
474.668 118.45 L
475.325 118.307 L
475.33 118.307 L
475.335 118.306 L
475.998 118.13 L
476.003 118.129 L
476.036 118.138 L
476.264 118.093 L
476.666 118.102 L
476.671 118.101 L
477.328 117.997 L
477.334 117.996 L
477.355 117.999 L
477.996 117.878 L
478.002 117.877 L
478.664 117.715 L
478.669 117.716 L
479.316 117.641 L
479.332 117.642 L
479.337 117.642 L
480 117.538 L
480.005 117.538 L
480.662 117.394 L
480.668 117.394 L
481.33 117.23 L
481.336 117.229 L
481.982 117.088 L
481.998 117.091 L
482.003 117.095 L
482.058 117.128 L
482.666 116.988 L
482.671 116.988 L
482.921 117.013 L
483.328 116.889 L
483.334 116.887 L
483.98 116.76 L
483.996 116.761 L
484.002 116.76 L
484.023 116.762 L
484.664 116.625 L
484.67 116.625 L
484.784 116.629 L
485.332 116.489 L
485.337 116.489 L
485.875 116.31 L
486 116.311 L
486.005 116.309 L
486.016 116.327 L
486.662 116.139 L
486.668 116.138 L
487.33 115.973 L
487.336 115.973 L
487.504 115.987 L
487.998 115.881 L
488.004 115.881 L
488.047 115.884 L
488.666 115.758 L
488.671 115.758 L
488.693 115.758 L
489.329 115.57 L
489.334 115.57 L
489.996 115.441 L
490.002 115.441 L
490.664 115.388 L
490.67 115.383 L
490.686 115.397 L
491.327 115.211 L
491.332 115.212 L
491.338 115.213 L
491.381 115.259 L
491.995 115.057 L
492 115.057 L
492.663 114.907 L
492.668 114.906 L
492.755 114.932 L
493.33 114.77 L
493.336 114.77 L
493.987 114.665 L
493.998 114.666 L
494.004 114.666 L
494.666 114.514 L
494.672 114.511 L
495.296 114.374 L
495.329 114.378 L
495.334 114.378 L
495.997 114.212 L
496.002 114.214 L
496.339 114.224 L
496.664 114.144 L
496.67 114.144 L
497.332 114.014 L
497.338 114.014 L
497.37 114.018 L
497.973 113.896 L
497.995 113.897 L
498 113.896 L
498.663 113.725 L
498.668 113.724 L
499.331 113.61 L
499.336 113.61 L
499.998 113.492 L
500.004 113.491 L
500.009 113.492 L
500.666 113.33 L
500.672 113.33 L
501.226 113.165 L
501.329 113.166 L
501.334 113.163 L
501.997 113.012 L
502.002 113.012 L
502.665 112.855 L
502.67 112.855 L
503.028 112.771 L
503.332 112.772 L
503.338 112.77 L
503.447 112.789 L
503.984 112.642 L
503.995 112.642 L
504 112.642 L
504.663 112.56 L
504.668 112.558 L
504.728 112.564 L
505.331 112.401 L
505.336 112.4 L
505.988 112.229 L
505.999 112.229 L
506.004 112.23 L
506.623 112.126 L
506.667 112.129 L
506.672 112.129 L
507.123 112.013 L
507.329 112.029 L
507.334 112.029 L
507.367 112.031 L
507.997 111.918 L
508.002 111.918 L
508.029 111.931 L
508.665 111.843 L
508.67 111.849 L
509.153 111.713 L
509.333 111.735 L
509.338 111.735 L
509.751 111.6 L
509.995 111.609 L
510.001 111.609 L
510.647 111.52 L
510.663 111.52 L
510.668 111.519 L
511 111.523 L
511.331 111.458 L
511.336 111.458 L
511.999 111.39 L
512.004 111.388 L
512.015 111.388 L
512.65 111.262 L
512.667 111.268 L
512.672 111.268 L
512.677 111.27 L
513.329 111.151 L
513.335 111.189 L
513.378 111.215 L
513.997 111.046 L
514.002 111.045 L
514.665 110.93 L
514.67 110.929 L
515.327 110.807 L
515.333 110.807 L
515.338 110.802 L
515.995 110.708 L
516.001 110.708 L
516.663 110.549 L
516.669 110.547 L
516.701 110.555 L
517.32 110.397 L
517.331 110.397 L
517.336 110.397 L
517.999 110.319 L
518.004 110.319 L
518.661 110.187 L
518.667 110.186 L
519.183 110.056 L
519.329 110.072 L
519.335 110.068 L
519.965 109.915 L
519.997 109.92 L
520.003 109.92 L
520.632 109.805 L
520.665 109.81 L
520.67 109.81 L
521.333 109.684 L
521.338 109.684 L
521.995 109.586 L
522.001 109.585 L
522.663 109.426 L
522.669 109.43 L
522.674 109.436 L
523.288 109.306 L
523.331 109.309 L
523.337 109.308 L
523.994 109.197 L
523.999 109.197 L
524.005 109.197 L
524.661 109.108 L
524.667 109.108 L
524.911 109.115 L
525.302 109.021 L
525.329 109.058 L
525.335 109.058 L
525.997 108.876 L
526.003 108.874 L
526.665 108.736 L
526.671 108.736 L
526.92 108.738 L
527.333 108.614 L
527.339 108.613 L
527.778 108.54 L
527.996 108.573 L
528.001 108.573 L
528.663 108.438 L
528.669 108.433 L
528.691 108.435 L
529.31 108.367 L
529.331 108.368 L
529.337 108.368 L
529.646 108.408 L
529.999 108.3 L
530.005 108.298 L
530.662 108.195 L
530.667 108.194 L
531.27 108.089 L
531.33 108.091 L
531.335 108.098 L
531.346 108.103 L
531.954 107.981 L
531.997 107.983 L
532.003 107.983 L
532.622 107.902 L
532.665 107.919 L
532.671 107.919 L
533.333 107.748 L
533.339 107.748 L
533.371 107.752 L
533.963 107.654 L
533.996 107.681 L
534.001 107.681 L
534.017 107.681 L
534.664 107.566 L
534.669 107.563 L
535.331 107.412 L
535.337 107.411 L
535.983 107.292 L
535.999 107.293 L
536.005 107.288 L
536.13 107.294 L
536.597 107.241 L
536.662 107.251 L
536.667 107.253 L
537.33 107.149 L
537.335 107.148 L
537.998 106.996 L
538.003 106.997 L
538.665 106.917 L
538.671 106.917 L
538.747 106.924 L
539.328 106.817 L
539.333 106.816 L
539.665 106.774 L
539.73 106.859 L
539.996 106.796 L
540.001 106.796 L
540.495 106.735 L
540.664 106.739 L
540.669 106.738 L
540.924 106.756 L
541.332 106.684 L
541.337 106.68 L
541.364 106.682 L
541.983 106.527 L
542 106.534 L
542.005 106.533 L
542.662 106.482 L
542.667 106.479 L
542.678 106.48 L
543.33 106.411 L
543.335 106.41 L
543.346 106.41 L
543.998 106.27 L
544.003 106.27 L
544.66 106.116 L
544.666 106.116 L
544.671 106.115 L
545.328 105.951 L
545.334 105.951 L
545.996 105.845 L
546.001 105.844 L
546.664 105.68 L
546.669 105.68 L
546.713 105.692 L
547.332 105.542 L
547.337 105.542 L
547.381 105.584 L
547.989 105.475 L
548 105.508 L
548.005 105.507 L
548.635 105.418 L
548.662 105.419 L
548.668 105.416 L
548.874 105.425 L
549.33 105.317 L
549.335 105.317 L
549.341 105.319 L
549.987 105.188 L
549.998 105.189 L
550.003 105.193 L
550.02 105.2 L
550.666 105.115 L
550.671 105.112 L
551.035 105.076 L
551.04 105.129 L
551.328 105.106 L
551.334 105.106 L
551.98 105.042 L
551.996 105.043 L
552.002 105.04 L
552.664 104.927 L
552.669 104.926 L
553.332 104.801 L
553.337 104.797 L
553.343 104.799 L
553.994 104.735 L
554 104.737 L
554.005 104.735 L
554.065 104.748 L
554.657 104.655 L
554.662 104.655 L
554.668 104.655 L
555.254 104.56 L
555.33 104.573 L
555.336 104.572 L
555.998 104.445 L
556.003 104.442 L
556.628 104.273 L
556.666 104.304 L
556.671 104.304 L
557.301 104.198 L
557.328 104.201 L
557.334 104.199 L
557.654 104.226 L
557.996 104.165 L
558.002 104.164 L
558.018 104.165 L
558.653 104.092 L
558.664 104.092 L
558.67 104.092 L
559.332 103.954 L
559.338 103.953 L
559.978 103.842 L
560 103.85 L
560.005 103.85 L
560.049 103.851 L
560.662 103.739 L
560.668 103.738 L
560.69 103.777 L
561.33 103.733 L
561.336 103.732 L
561.39 103.721 L
561.553 103.767 L
561.998 103.735 L
562.004 103.735 L
562.666 103.648 L
562.672 103.648 L
563.301 103.573 L
563.329 103.574 L
563.334 103.575 L
563.996 103.42 L
564.002 103.42 L
564.643 103.337 L
564.664 103.338 L
564.67 103.337 L
564.729 103.383 L
565.327 103.234 L
565.332 103.265 L
565.338 103.272 L
565.94 103.183 L
565.995 103.189 L
566 103.195 L
566.63 103.096 L
566.663 103.1 L
566.668 103.099 L
567.249 102.986 L
567.33 102.997 L
567.336 102.993 L
567.998 102.879 L
568.004 102.879 L
568.639 102.79 L
568.666 102.797 L
568.672 102.796 L
569.285 102.704 L
569.329 102.714 L
569.334 102.712 L
569.997 102.578 L
570.002 102.574 L
570.007 102.575 L
570.664 102.454 L
570.67 102.454 L
571.153 102.384 L
571.332 102.409 L
571.338 102.409 L
571.468 102.429 L
571.995 102.359 L
572 102.359 L
572.663 102.219 L
572.668 102.218 L
572.75 102.253 L
573.331 102.161 L
573.336 102.159 L
573.341 102.169 L
573.998 102.086 L
574.004 102.086 L
574.107 102.113 L
574.666 102.065 L
574.672 102.065 L
575.237 102.004 L
575.329 102.01 L
575.334 102.01 L
575.899 101.96 L
575.997 101.993 L
576.002 101.993 L
576.632 101.893 L
576.665 101.899 L
576.67 101.898 L
577.333 101.774 L
577.338 101.774 L
577.838 101.741 L
577.995 101.752 L
578 101.752 L
578.049 101.755 L
578.657 101.657 L
578.663 101.657 L
578.668 101.656 L
578.685 101.662 L
579.271 101.545 L
579.331 101.563 L
579.336 101.563 L
579.401 101.576 L
579.999 101.47 L
580.004 101.47 L
580.645 101.415 L
580.667 101.416 L
580.672 101.416 L
581.324 101.327 L
581.329 101.327 L
581.334 101.331 L
581.601 101.356 L
581.829 101.312 L
581.997 101.335 L
582.002 101.334 L
582.665 101.152 L
582.67 101.151 L
582.719 101.157 L
583.333 101.087 L
583.338 101.087 L
583.409 101.091 L
583.995 101.02 L
584.001 101.02 L
584.006 101.021 L
584.663 100.943 L
584.668 100.942 L
585.331 100.831 L
585.336 100.831 L
585.559 100.818 L
585.689 100.878 L
585.999 100.855 L
586.004 100.858 L
586.178 100.867 L
586.542 100.767 L
586.661 100.796 L
586.667 100.796 L
586.797 100.798 L
587.329 100.668 L
587.335 100.667 L
587.362 100.668 L
587.986 100.567 L
587.997 100.568 L
588.002 100.568 L
588.209 100.587 L
588.665 100.538 L
588.67 100.538 L
588.708 100.54 L
589.246 100.471 L
589.333 100.473 L
589.338 100.473 L
589.984 100.365 L
589.995 100.365 L
590.001 100.365 L
590.663 100.27 L
590.669 100.27 L
590.674 100.27 L
591.309 100.134 L
591.331 100.135 L
591.336 100.135 L
591.988 100.078 L
591.999 100.078 L
592.004 100.078 L
592.01 100.078 L
592.661 99.962 L
592.667 99.958 L
592.694 99.985 L
593.329 99.852 L
593.335 99.852 L
593.384 99.857 L
593.997 99.788 L
594.003 99.787 L
594.008 99.791 L
594.508 99.693 L
594.665 99.717 L
594.671 99.717 L
595.333 99.623 L
595.338 99.622 L
595.36 99.623 L
595.909 99.552 L
595.995 99.558 L
596.001 99.557 L
596.261 99.527 L
596.272 99.575 L
596.663 99.554 L
596.669 99.553 L
596.68 99.555 L
596.946 99.488 L
597.331 99.496 L
597.337 99.496 L
597.434 99.532 L
597.934 99.471 L
597.999 99.475 L
598.005 99.474 L
598.45 99.429 L
598.51 99.499 L
598.662 99.465 L
598.667 99.464 L
599.123 99.369 L
599.329 99.394 L
599.335 99.395 L
599.34 99.395 L
599.965 99.288 L
599.997 99.294 L
600.003 99.293 L
600.665 99.235 L
600.671 99.235 L
600.937 99.259 L
601.333 99.134 L
601.339 99.134 L
601.355 99.134 L
601.903 99.029 L
601.996 99.035 L
602.001 99.035 L
602.229 99.039 L
602.631 98.952 L
602.663 98.954 L
602.669 98.954 L
602.696 98.954 L
603.326 98.86 L
603.331 98.861 L
603.337 98.863 L
603.413 98.865 L
603.891 98.785 L
603.999 98.833 L
604.005 98.833 L
604.021 98.837 L
604.662 98.775 L
604.667 98.775 L
605.292 98.698 L
605.33 98.716 L
605.335 98.713 L
605.417 98.756 L
605.987 98.664 L
605.997 98.665 L
606.003 98.667 L
606.638 98.573 L
606.665 98.596 L
606.671 98.595 L
606.98 98.527 L
607.333 98.539 L
607.339 98.538 L
607.697 98.507 L
607.746 98.565 L
607.996 98.554 L
608.001 98.553 L
608.083 98.564 L
608.642 98.48 L
608.664 98.484 L
608.669 98.484 L
608.756 98.489 L
609.321 98.428 L
609.331 98.428 L
609.337 98.428 L
609.891 98.341 L
609.999 98.363 L
610.005 98.366 L
610.651 98.314 L
610.662 98.314 L
610.667 98.314 L
611.259 98.284 L
611.33 98.302 L
611.335 98.302 L
611.976 98.183 L
611.998 98.206 L
612.003 98.205 L
612.481 98.178 L
612.53 98.22 L
612.666 98.202 L
612.671 98.202 L
612.894 98.212 L
613.171 98.168 L
613.328 98.186 L
613.333 98.186 L
613.35 98.195 L
613.996 98.151 L
614.001 98.15 L
614.593 98.07 L
614.664 98.072 L
614.669 98.072 L
614.696 98.072 L
615.332 97.976 L
615.337 97.976 L
615.37 97.977 L
615.728 97.929 L
616 97.938 L
616.005 97.938 L
616.662 97.853 L
616.667 97.853 L
617.33 97.717 L
617.335 97.717 L
617.954 97.607 L
617.998 97.621 L
618.003 97.62 L
618.014 97.626 L
618.617 97.542 L
618.666 97.547 L
618.671 97.547 L
619.328 97.458 L
619.334 97.458 L
619.974 97.284 L
619.996 97.286 L
620.001 97.283 L
620.262 97.33 L
620.664 97.207 L
620.669 97.206 L
620.691 97.205 L
620.979 97.261 L
621.332 97.222 L
621.337 97.222 L
621.392 97.236 L
621.875 97.138 L
622 97.139 L
622.005 97.139 L
622.499 97.055 L
622.662 97.057 L
622.668 97.054 L
622.798 97.056 L
623.33 96.959 L
623.336 96.954 L
623.341 96.954 L
623.992 96.888 L
623.998 96.888 L
624.003 96.888 L
624.02 96.892 L
624.221 96.826 L
624.666 96.836 L
624.671 96.834 L
625.328 96.749 L
625.334 96.748 L
625.491 96.727 L
625.497 96.76 L
625.996 96.732 L
626.002 96.732 L
626.664 96.647 L
626.669 96.647 L
626.718 96.651 L
627.256 96.546 L
627.332 96.552 L
627.337 96.562 L
627.984 96.42 L
628 96.424 L
628.005 96.424 L
628.527 96.35 L
628.662 96.353 L
628.668 96.353 L
629.265 96.242 L
629.33 96.251 L
629.336 96.25 L
629.368 96.253 L
629.868 96.175 L
629.998 96.18 L
630.004 96.18 L
630.628 96.1 L
630.666 96.102 L
630.671 96.102 L
630.878 96.105 L
631.307 96.061 L
631.328 96.092 L
631.334 96.092 L
631.909 96.036 L
631.996 96.037 L
632.002 96.037 L
632.056 96.059 L
632.637 95.956 L
632.664 95.962 L
632.67 95.961 L
632.675 95.963 L
633.332 95.862 L
633.338 95.862 L
633.718 95.81 L
633.995 95.82 L
634 95.819 L
S
GR
%%Trailer
%%Pages: 1
%%EOF
