%!PS-Adobe-3.0 EPSF-3.0
%%Creator: (MATLAB, The Mathworks, Inc. Version 9.3.0.713579 \(R2017b\). Operating System: Windows 7)
%%Title: fig/RBFN_3_0,1_100000_RBF.eps
%%CreationDate: 2018-05-06T11:39:47
%%Pages: (atend)
%%BoundingBox:    91     3   954   384
%%LanguageLevel: 3
%%EndComments
%%BeginProlog
%%BeginResource: procset (Apache XML Graphics Std ProcSet) 1.2 0
%%Version: 1.2 0
%%Copyright: (Copyright 2001-2003,2010 The Apache Software Foundation. License terms: http://www.apache.org/licenses/LICENSE-2.0)
/bd{bind def}bind def
/ld{load def}bd
/GR/grestore ld
/GS/gsave ld
/RM/rmoveto ld
/C/curveto ld
/t/show ld
/L/lineto ld
/ML/setmiterlimit ld
/CT/concat ld
/f/fill ld
/N/newpath ld
/S/stroke ld
/CC/setcmykcolor ld
/A/ashow ld
/cp/closepath ld
/RC/setrgbcolor ld
/LJ/setlinejoin ld
/GC/setgray ld
/LW/setlinewidth ld
/M/moveto ld
/re {4 2 roll M
1 index 0 rlineto
0 exch rlineto
neg 0 rlineto
cp } bd
/_ctm matrix def
/_tm matrix def
/BT { _ctm currentmatrix pop matrix _tm copy pop 0 0 moveto } bd
/ET { _ctm setmatrix } bd
/iTm { _ctm setmatrix _tm concat } bd
/Tm { _tm astore pop iTm 0 0 moveto } bd
/ux 0.0 def
/uy 0.0 def
/F {
  /Tp exch def
  /Tf exch def
  Tf findfont Tp scalefont setfont
  /cf Tf def  /cs Tp def
} bd
/ULS {currentpoint /uy exch def /ux exch def} bd
/ULE {
  /Tcx currentpoint pop def
  gsave
  newpath
  cf findfont cs scalefont dup
  /FontMatrix get 0 get /Ts exch def /FontInfo get dup
  /UnderlinePosition get Ts mul /To exch def
  /UnderlineThickness get Ts mul /Tt exch def
  ux uy To add moveto  Tcx uy To add lineto
  Tt setlinewidth stroke
  grestore
} bd
/OLE {
  /Tcx currentpoint pop def
  gsave
  newpath
  cf findfont cs scalefont dup
  /FontMatrix get 0 get /Ts exch def /FontInfo get dup
  /UnderlinePosition get Ts mul /To exch def
  /UnderlineThickness get Ts mul /Tt exch def
  ux uy To add cs add moveto Tcx uy To add cs add lineto
  Tt setlinewidth stroke
  grestore
} bd
/SOE {
  /Tcx currentpoint pop def
  gsave
  newpath
  cf findfont cs scalefont dup
  /FontMatrix get 0 get /Ts exch def /FontInfo get dup
  /UnderlinePosition get Ts mul /To exch def
  /UnderlineThickness get Ts mul /Tt exch def
  ux uy To add cs 10 mul 26 idiv add moveto Tcx uy To add cs 10 mul 26 idiv add lineto
  Tt setlinewidth stroke
  grestore
} bd
/QT {
/Y22 exch store
/X22 exch store
/Y21 exch store
/X21 exch store
currentpoint
/Y21 load 2 mul add 3 div exch
/X21 load 2 mul add 3 div exch
/X21 load 2 mul /X22 load add 3 div
/Y21 load 2 mul /Y22 load add 3 div
/X22 load /Y22 load curveto
} bd
/SSPD {
dup length /d exch dict def
{
/v exch def
/k exch def
currentpagedevice k known {
/cpdv currentpagedevice k get def
v cpdv ne {
/upd false def
/nullv v type /nulltype eq def
/nullcpdv cpdv type /nulltype eq def
nullv nullcpdv or
{
/upd true def
} {
/sametype v type cpdv type eq def
sametype {
v type /arraytype eq {
/vlen v length def
/cpdvlen cpdv length def
vlen cpdvlen eq {
0 1 vlen 1 sub {
/i exch def
/obj v i get def
/cpdobj cpdv i get def
obj cpdobj ne {
/upd true def
exit
} if
} for
} {
/upd true def
} ifelse
} {
v type /dicttype eq {
v {
/dv exch def
/dk exch def
/cpddv cpdv dk get def
dv cpddv ne {
/upd true def
exit
} if
} forall
} {
/upd true def
} ifelse
} ifelse
} if
} ifelse
upd true eq {
d k v put
} if
} if
} if
} forall
d length 0 gt {
d setpagedevice
} if
} bd
/RE { % /NewFontName [NewEncodingArray] /FontName RE -
  findfont dup length dict begin
  {
    1 index /FID ne
    {def} {pop pop} ifelse
  } forall
  /Encoding exch def
  /FontName 1 index def
  currentdict definefont pop
  end
} bind def
%%EndResource
%%BeginResource: procset (Apache XML Graphics EPS ProcSet) 1.0 0
%%Version: 1.0 0
%%Copyright: (Copyright 2002-2003 The Apache Software Foundation. License terms: http://www.apache.org/licenses/LICENSE-2.0)
/BeginEPSF { %def
/b4_Inc_state save def         % Save state for cleanup
/dict_count countdictstack def % Count objects on dict stack
/op_count count 1 sub def      % Count objects on operand stack
userdict begin                 % Push userdict on dict stack
/showpage { } def              % Redefine showpage, { } = null proc
0 setgray 0 setlinecap         % Prepare graphics state
1 setlinewidth 0 setlinejoin
10 setmiterlimit [ ] 0 setdash newpath
/languagelevel where           % If level not equal to 1 then
{pop languagelevel             % set strokeadjust and
1 ne                           % overprint to their defaults.
{false setstrokeadjust false setoverprint
} if
} if
} bd
/EndEPSF { %def
count op_count sub {pop} repeat            % Clean up stacks
countdictstack dict_count sub {end} repeat
b4_Inc_state restore
} bd
%%EndResource
%FOPBeginFontDict
%%IncludeResource: font Courier-Oblique
%%IncludeResource: font Courier-BoldOblique
%%IncludeResource: font Courier-Bold
%%IncludeResource: font ZapfDingbats
%%IncludeResource: font Symbol
%%IncludeResource: font Helvetica
%%IncludeResource: font Helvetica-Oblique
%%IncludeResource: font Helvetica-Bold
%%IncludeResource: font Helvetica-BoldOblique
%%IncludeResource: font Times-Roman
%%IncludeResource: font Times-Italic
%%IncludeResource: font Times-Bold
%%IncludeResource: font Times-BoldItalic
%%IncludeResource: font Courier
%FOPEndFontDict
%%BeginResource: encoding WinAnsiEncoding
/WinAnsiEncoding [
/.notdef /.notdef /.notdef /.notdef /.notdef
/.notdef /.notdef /.notdef /.notdef /.notdef
/.notdef /.notdef /.notdef /.notdef /.notdef
/.notdef /.notdef /.notdef /.notdef /.notdef
/.notdef /.notdef /.notdef /.notdef /.notdef
/.notdef /.notdef /.notdef /.notdef /.notdef
/.notdef /.notdef /space /exclam /quotedbl
/numbersign /dollar /percent /ampersand /quotesingle
/parenleft /parenright /asterisk /plus /comma
/hyphen /period /slash /zero /one
/two /three /four /five /six
/seven /eight /nine /colon /semicolon
/less /equal /greater /question /at
/A /B /C /D /E
/F /G /H /I /J
/K /L /M /N /O
/P /Q /R /S /T
/U /V /W /X /Y
/Z /bracketleft /backslash /bracketright /asciicircum
/underscore /quoteleft /a /b /c
/d /e /f /g /h
/i /j /k /l /m
/n /o /p /q /r
/s /t /u /v /w
/x /y /z /braceleft /bar
/braceright /asciitilde /bullet /Euro /bullet
/quotesinglbase /florin /quotedblbase /ellipsis /dagger
/daggerdbl /circumflex /perthousand /Scaron /guilsinglleft
/OE /bullet /Zcaron /bullet /bullet
/quoteleft /quoteright /quotedblleft /quotedblright /bullet
/endash /emdash /asciitilde /trademark /scaron
/guilsinglright /oe /bullet /zcaron /Ydieresis
/space /exclamdown /cent /sterling /currency
/yen /brokenbar /section /dieresis /copyright
/ordfeminine /guillemotleft /logicalnot /sfthyphen /registered
/macron /degree /plusminus /twosuperior /threesuperior
/acute /mu /paragraph /middot /cedilla
/onesuperior /ordmasculine /guillemotright /onequarter /onehalf
/threequarters /questiondown /Agrave /Aacute /Acircumflex
/Atilde /Adieresis /Aring /AE /Ccedilla
/Egrave /Eacute /Ecircumflex /Edieresis /Igrave
/Iacute /Icircumflex /Idieresis /Eth /Ntilde
/Ograve /Oacute /Ocircumflex /Otilde /Odieresis
/multiply /Oslash /Ugrave /Uacute /Ucircumflex
/Udieresis /Yacute /Thorn /germandbls /agrave
/aacute /acircumflex /atilde /adieresis /aring
/ae /ccedilla /egrave /eacute /ecircumflex
/edieresis /igrave /iacute /icircumflex /idieresis
/eth /ntilde /ograve /oacute /ocircumflex
/otilde /odieresis /divide /oslash /ugrave
/uacute /ucircumflex /udieresis /yacute /thorn
/ydieresis
] def
%%EndResource
%FOPBeginFontReencode
/Courier-Oblique findfont
dup length dict begin
  {1 index /FID ne {def} {pop pop} ifelse} forall
  /Encoding WinAnsiEncoding def
  currentdict
end
/Courier-Oblique exch definefont pop
/Courier-BoldOblique findfont
dup length dict begin
  {1 index /FID ne {def} {pop pop} ifelse} forall
  /Encoding WinAnsiEncoding def
  currentdict
end
/Courier-BoldOblique exch definefont pop
/Courier-Bold findfont
dup length dict begin
  {1 index /FID ne {def} {pop pop} ifelse} forall
  /Encoding WinAnsiEncoding def
  currentdict
end
/Courier-Bold exch definefont pop
/Helvetica findfont
dup length dict begin
  {1 index /FID ne {def} {pop pop} ifelse} forall
  /Encoding WinAnsiEncoding def
  currentdict
end
/Helvetica exch definefont pop
/Helvetica-Oblique findfont
dup length dict begin
  {1 index /FID ne {def} {pop pop} ifelse} forall
  /Encoding WinAnsiEncoding def
  currentdict
end
/Helvetica-Oblique exch definefont pop
/Helvetica-Bold findfont
dup length dict begin
  {1 index /FID ne {def} {pop pop} ifelse} forall
  /Encoding WinAnsiEncoding def
  currentdict
end
/Helvetica-Bold exch definefont pop
/Helvetica-BoldOblique findfont
dup length dict begin
  {1 index /FID ne {def} {pop pop} ifelse} forall
  /Encoding WinAnsiEncoding def
  currentdict
end
/Helvetica-BoldOblique exch definefont pop
/Times-Roman findfont
dup length dict begin
  {1 index /FID ne {def} {pop pop} ifelse} forall
  /Encoding WinAnsiEncoding def
  currentdict
end
/Times-Roman exch definefont pop
/Times-Italic findfont
dup length dict begin
  {1 index /FID ne {def} {pop pop} ifelse} forall
  /Encoding WinAnsiEncoding def
  currentdict
end
/Times-Italic exch definefont pop
/Times-Bold findfont
dup length dict begin
  {1 index /FID ne {def} {pop pop} ifelse} forall
  /Encoding WinAnsiEncoding def
  currentdict
end
/Times-Bold exch definefont pop
/Times-BoldItalic findfont
dup length dict begin
  {1 index /FID ne {def} {pop pop} ifelse} forall
  /Encoding WinAnsiEncoding def
  currentdict
end
/Times-BoldItalic exch definefont pop
/Courier findfont
dup length dict begin
  {1 index /FID ne {def} {pop pop} ifelse} forall
  /Encoding WinAnsiEncoding def
  currentdict
end
/Courier exch definefont pop
%FOPEndFontReencode
%%EndProlog
%%Page: 1 1
%%PageBoundingBox: 0 0 1050 394
%%BeginPageSetup
[1 0 0 -1 0 394] CT
%%EndPageSetup
GS
[0.75 0 0 0.74971 0 0.39999] CT
N
0 0 M
1400 0 L
1400 525 L
0 525 L
0 0 L
cp
clip
1 GC
N
0 0 1400 525 re
f
GR
GS
[0.75 0 0 0.74971 0 0.39999] CT
1 GC
N
0 0 1400 525 re
f
GR
GS
[0.75 0 0 0.74971 0 0.39999] CT
1 GC
N
182 463 M
1267 463 L
1267 39 L
182 39 L
cp
f
GR
GS
[0.75 0 0 0.74971 0 0.39999] CT
0.873 GC
1 LJ
0.667 LW
N
182 463 M
182 39 L
S
GR
GS
[0.75 0 0 0.74971 0 0.39999] CT
0.873 GC
1 LJ
0.667 LW
N
337 463 M
337 39 L
S
GR
GS
[0.75 0 0 0.74971 0 0.39999] CT
0.873 GC
1 LJ
0.667 LW
N
492 463 M
492 39 L
S
GR
GS
[0.75 0 0 0.74971 0 0.39999] CT
0.873 GC
1 LJ
0.667 LW
N
647 463 M
647 39 L
S
GR
GS
[0.75 0 0 0.74971 0 0.39999] CT
0.873 GC
1 LJ
0.667 LW
N
802 463 M
802 39 L
S
GR
GS
[0.75 0 0 0.74971 0 0.39999] CT
0.873 GC
1 LJ
0.667 LW
N
957 463 M
957 39 L
S
GR
GS
[0.75 0 0 0.74971 0 0.39999] CT
0.873 GC
1 LJ
0.667 LW
N
1112 463 M
1112 39 L
S
GR
GS
[0.75 0 0 0.74971 0 0.39999] CT
0.873 GC
1 LJ
0.667 LW
N
1267 463 M
1267 39 L
S
GR
GS
[0.75 0 0 0.74971 0 0.39999] CT
0.873 GC
1 LJ
0.667 LW
N
1267 463 M
182 463 L
S
GR
GS
[0.75 0 0 0.74971 0 0.39999] CT
0.873 GC
1 LJ
0.667 LW
N
1267 378.2 M
182 378.2 L
S
GR
GS
[0.75 0 0 0.74971 0 0.39999] CT
0.873 GC
1 LJ
0.667 LW
N
1267 293.4 M
182 293.4 L
S
GR
GS
[0.75 0 0 0.74971 0 0.39999] CT
0.873 GC
1 LJ
0.667 LW
N
1267 208.6 M
182 208.6 L
S
GR
GS
[0.75 0 0 0.74971 0 0.39999] CT
0.873 GC
1 LJ
0.667 LW
N
1267 123.8 M
182 123.8 L
S
GR
GS
[0.75 0 0 0.74971 0 0.39999] CT
0.873 GC
1 LJ
0.667 LW
N
1267 39 M
182 39 L
S
GR
GS
[0.75 0 0 0.74971 0 0.39999] CT
0.149 GC
2 setlinecap
1 LJ
0.667 LW
N
182 463 M
1267 463 L
S
GR
GS
[0.75 0 0 0.74971 0 0.39999] CT
0.149 GC
2 setlinecap
1 LJ
0.667 LW
N
182 39 M
1267 39 L
S
GR
GS
[0.75 0 0 0.74971 0 0.39999] CT
0.149 GC
2 setlinecap
1 LJ
0.667 LW
N
182 463 M
182 452.15 L
S
GR
GS
[0.75 0 0 0.74971 0 0.39999] CT
0.149 GC
2 setlinecap
1 LJ
0.667 LW
N
337 463 M
337 452.15 L
S
GR
GS
[0.75 0 0 0.74971 0 0.39999] CT
0.149 GC
2 setlinecap
1 LJ
0.667 LW
N
492 463 M
492 452.15 L
S
GR
GS
[0.75 0 0 0.74971 0 0.39999] CT
0.149 GC
2 setlinecap
1 LJ
0.667 LW
N
647 463 M
647 452.15 L
S
GR
GS
[0.75 0 0 0.74971 0 0.39999] CT
0.149 GC
2 setlinecap
1 LJ
0.667 LW
N
802 463 M
802 452.15 L
S
GR
GS
[0.75 0 0 0.74971 0 0.39999] CT
0.149 GC
2 setlinecap
1 LJ
0.667 LW
N
957 463 M
957 452.15 L
S
GR
GS
[0.75 0 0 0.74971 0 0.39999] CT
0.149 GC
2 setlinecap
1 LJ
0.667 LW
N
1112 463 M
1112 452.15 L
S
GR
GS
[0.75 0 0 0.74971 0 0.39999] CT
0.149 GC
2 setlinecap
1 LJ
0.667 LW
N
1267 463 M
1267 452.15 L
S
GR
GS
[0.75 0 0 0.74971 0 0.39999] CT
0.149 GC
2 setlinecap
1 LJ
0.667 LW
N
182 39 M
182 49.85 L
S
GR
GS
[0.75 0 0 0.74971 0 0.39999] CT
0.149 GC
2 setlinecap
1 LJ
0.667 LW
N
337 39 M
337 49.85 L
S
GR
GS
[0.75 0 0 0.74971 0 0.39999] CT
0.149 GC
2 setlinecap
1 LJ
0.667 LW
N
492 39 M
492 49.85 L
S
GR
GS
[0.75 0 0 0.74971 0 0.39999] CT
0.149 GC
2 setlinecap
1 LJ
0.667 LW
N
647 39 M
647 49.85 L
S
GR
GS
[0.75 0 0 0.74971 0 0.39999] CT
0.149 GC
2 setlinecap
1 LJ
0.667 LW
N
802 39 M
802 49.85 L
S
GR
GS
[0.75 0 0 0.74971 0 0.39999] CT
0.149 GC
2 setlinecap
1 LJ
0.667 LW
N
957 39 M
957 49.85 L
S
GR
GS
[0.75 0 0 0.74971 0 0.39999] CT
0.149 GC
2 setlinecap
1 LJ
0.667 LW
N
1112 39 M
1112 49.85 L
S
GR
GS
[0.75 0 0 0.74971 0 0.39999] CT
0.149 GC
2 setlinecap
1 LJ
0.667 LW
N
1267 39 M
1267 49.85 L
S
GR
GS
[0.75 0 0 0.74971 136.5 352.5158] CT
0.149 GC
/Helvetica 20 F
GS
[1 0 0 1 0 0] CT
-6 21 moveto 
1 -1 scale
(0) t 
GR
GR
GS
[0.75 0 0 0.74971 252.75 352.5158] CT
0.149 GC
/Helvetica 20 F
GS
[1 0 0 1 0 0] CT
-6 21 moveto 
1 -1 scale
(1) t 
GR
GR
GS
[0.75 0 0 0.74971 369 352.5158] CT
0.149 GC
/Helvetica 20 F
GS
[1 0 0 1 0 0] CT
-6 21 moveto 
1 -1 scale
(2) t 
GR
GR
GS
[0.75 0 0 0.74971 485.25 352.5158] CT
0.149 GC
/Helvetica 20 F
GS
[1 0 0 1 0 0] CT
-6 21 moveto 
1 -1 scale
(3) t 
GR
GR
GS
[0.75 0 0 0.74971 601.5 352.5158] CT
0.149 GC
/Helvetica 20 F
GS
[1 0 0 1 0 0] CT
-6 21 moveto 
1 -1 scale
(4) t 
GR
GR
GS
[0.75 0 0 0.74971 717.75 352.5158] CT
0.149 GC
/Helvetica 20 F
GS
[1 0 0 1 0 0] CT
-6 21 moveto 
1 -1 scale
(5) t 
GR
GR
GS
[0.75 0 0 0.74971 834 352.5158] CT
0.149 GC
/Helvetica 20 F
GS
[1 0 0 1 0 0] CT
-6 21 moveto 
1 -1 scale
(6) t 
GR
GR
GS
[0.75 0 0 0.74971 950.25 352.5158] CT
0.149 GC
/Helvetica 20 F
GS
[1 0 0 1 0 0] CT
-6 21 moveto 
1 -1 scale
(7) t 
GR
GR
GS
[0.75 0 0 0.74971 543.37537 373.008] CT
0.149 GC
/Helvetica 22 F
GS
[1 0 0 1 0 0] CT
-24 23 moveto 
1 -1 scale
(state) t 
GR
GR
GS
[0.75 0 0 0.74971 0 0.39999] CT
0.149 GC
2 setlinecap
1 LJ
0.667 LW
N
182 463 M
182 39 L
S
GR
GS
[0.75 0 0 0.74971 0 0.39999] CT
0.149 GC
2 setlinecap
1 LJ
0.667 LW
N
1267 463 M
1267 39 L
S
GR
GS
[0.75 0 0 0.74971 0 0.39999] CT
0.149 GC
2 setlinecap
1 LJ
0.667 LW
N
182 463 M
192.85 463 L
S
GR
GS
[0.75 0 0 0.74971 0 0.39999] CT
0.149 GC
2 setlinecap
1 LJ
0.667 LW
N
182 378.2 M
192.85 378.2 L
S
GR
GS
[0.75 0 0 0.74971 0 0.39999] CT
0.149 GC
2 setlinecap
1 LJ
0.667 LW
N
182 293.4 M
192.85 293.4 L
S
GR
GS
[0.75 0 0 0.74971 0 0.39999] CT
0.149 GC
2 setlinecap
1 LJ
0.667 LW
N
182 208.6 M
192.85 208.6 L
S
GR
GS
[0.75 0 0 0.74971 0 0.39999] CT
0.149 GC
2 setlinecap
1 LJ
0.667 LW
N
182 123.8 M
192.85 123.8 L
S
GR
GS
[0.75 0 0 0.74971 0 0.39999] CT
0.149 GC
2 setlinecap
1 LJ
0.667 LW
N
182 39 M
192.85 39 L
S
GR
GS
[0.75 0 0 0.74971 0 0.39999] CT
0.149 GC
2 setlinecap
1 LJ
0.667 LW
N
1267 463 M
1256.15 463 L
S
GR
GS
[0.75 0 0 0.74971 0 0.39999] CT
0.149 GC
2 setlinecap
1 LJ
0.667 LW
N
1267 378.2 M
1256.15 378.2 L
S
GR
GS
[0.75 0 0 0.74971 0 0.39999] CT
0.149 GC
2 setlinecap
1 LJ
0.667 LW
N
1267 293.4 M
1256.15 293.4 L
S
GR
GS
[0.75 0 0 0.74971 0 0.39999] CT
0.149 GC
2 setlinecap
1 LJ
0.667 LW
N
1267 208.6 M
1256.15 208.6 L
S
GR
GS
[0.75 0 0 0.74971 0 0.39999] CT
0.149 GC
2 setlinecap
1 LJ
0.667 LW
N
1267 123.8 M
1256.15 123.8 L
S
GR
GS
[0.75 0 0 0.74971 0 0.39999] CT
0.149 GC
2 setlinecap
1 LJ
0.667 LW
N
1267 39 M
1256.15 39 L
S
GR
GS
[0.75 0 0 0.74971 131.5 347.51771] CT
0.149 GC
/Helvetica 20 F
GS
[1 0 0 1 0 0] CT
-12 8 moveto 
1 -1 scale
(0) t 
GR
GR
GS
[0.75 0 0 0.74971 131.5 283.94195] CT
0.149 GC
/Helvetica 20 F
GS
[1 0 0 1 0 0] CT
-28 8 moveto 
1 -1 scale
(0.2) t 
GR
GR
GS
[0.75 0 0 0.74971 131.5 220.36616] CT
0.149 GC
/Helvetica 20 F
GS
[1 0 0 1 0 0] CT
-28 8 moveto 
1 -1 scale
(0.4) t 
GR
GR
GS
[0.75 0 0 0.74971 131.5 156.79039] CT
0.149 GC
/Helvetica 20 F
GS
[1 0 0 1 0 0] CT
-28 8 moveto 
1 -1 scale
(0.6) t 
GR
GR
GS
[0.75 0 0 0.74971 131.5 93.21462] CT
0.149 GC
/Helvetica 20 F
GS
[1 0 0 1 0 0] CT
-28 8 moveto 
1 -1 scale
(0.8) t 
GR
GR
GS
[0.75 0 0 0.74971 131.5 29.63885] CT
0.149 GC
/Helvetica 20 F
GS
[1 0 0 1 0 0] CT
-12 8 moveto 
1 -1 scale
(1) t 
GR
GR
GS
[0 -0.74971 0.75 0 107.5 188.57813] CT
0.149 GC
/Helvetica 22 F
GS
[1 0 0 1 0 0] CT
-46.5 -5 moveto 
1 -1 scale
(activation) t 
GR
GR
GS
[0.75 0 0 0.74971 543.37555 26.54627] CT
/Helvetica-Bold 22 F
GS
[1 0 0 1 0 0] CT
-121.5 -5 moveto 
1 -1 scale
(Radial Basis Functions) t 
GR
GR
GS
[0.75 0 0 0.74971 0 0.39999] CT
0 0.447 0.741 RC
1 LJ
2.667 LW
N
182 39 M
183.55 39 L
185.1 39 L
186.65 39 L
188.2 39 L
189.75 39 L
191.3 39 L
192.85 39 L
194.4 39 L
195.95 39 L
197.5 39 L
199.05 39 L
200.6 39 L
202.15 39 L
203.7 39 L
205.25 39 L
206.8 39 L
208.35 39 L
209.9 39 L
211.45 39 L
213 39 L
214.55 39 L
216.1 39 L
217.65 39 L
219.2 39 L
220.75 39 L
222.3 39 L
223.85 39 L
225.4 39 L
226.95 39 L
228.5 39 L
230.05 39 L
231.6 39 L
233.15 39 L
234.7 39 L
236.25 39 L
237.8 39 L
239.35 39 L
240.9 39 L
242.45 39 L
244 39 L
245.55 39 L
247.1 39 L
248.65 39 L
250.2 39 L
251.75 39 L
253.3 39 L
254.85 39 L
256.4 39 L
257.95 39 L
259.5 39 L
261.05 39 L
262.6 39 L
264.15 39 L
265.7 39 L
267.25 39 L
268.8 39 L
270.35 39 L
271.9 39 L
273.45 39 L
275 39 L
276.55 39 L
278.1 39 L
279.65 39 L
281.2 39 L
282.75 39 L
284.3 39 L
285.85 39 L
287.4 39 L
288.95 39 L
290.5 39 L
292.05 39 L
293.6 39 L
295.15 39 L
296.7 39 L
298.25 39 L
299.8 39 L
301.35 39 L
302.9 39 L
304.45 39 L
306 39 L
307.55 39 L
309.1 39 L
310.65 39 L
312.2 39 L
313.75 39 L
315.3 39 L
316.85 39 L
318.4 39 L
319.95 39 L
321.5 39 L
323.05 39 L
324.6 39 L
326.15 39 L
327.7 39 L
329.25 39 L
330.8 39 L
332.35 39 L
333.9 39 L
335.45 39 L
337 39 L
338.55 39 L
340.1 39 L
341.65 39 L
343.2 39 L
344.75 39 L
346.3 39 L
347.85 39 L
349.4 39 L
350.95 39 L
352.5 39 L
354.05 39 L
355.6 39 L
357.15 39 L
358.7 39 L
360.25 39 L
361.8 39 L
363.35 39 L
364.9 39 L
366.45 39 L
368 39 L
369.55 39 L
371.1 39 L
372.65 39 L
374.2 39 L
375.75 39 L
377.3 39 L
378.85 39 L
380.4 39 L
381.95 39 L
383.5 39 L
385.05 39 L
386.6 39 L
388.15 39 L
389.7 39 L
391.25 39 L
392.8 39 L
394.35 39 L
395.9 39 L
397.45 39 L
399 39 L
400.55 39 L
402.1 39 L
403.65 39 L
405.2 39 L
406.75 39 L
408.3 39 L
409.85 39 L
411.4 39 L
412.95 39 L
414.5 39 L
416.05 39 L
417.6 39 L
419.15 39 L
420.7 39 L
422.25 39 L
423.8 39 L
425.35 39 L
426.9 39 L
428.45 39 L
430 39 L
431.55 39 L
433.1 39 L
434.65 39 L
436.2 39 L
437.75 39 L
439.3 39 L
440.85 39 L
442.4 39 L
443.95 39 L
445.5 39 L
447.05 39 L
448.6 39 L
450.15 39 L
451.7 39 L
453.25 39 L
454.8 39 L
456.35 39 L
457.9 39 L
459.45 39 L
461 39 L
462.55 39 L
464.1 39 L
465.65 39 L
467.2 39 L
468.75 39 L
470.3 39 L
471.85 39 L
473.4 39 L
474.95 39 L
476.5 39 L
478.05 39.001 L
479.6 39.001 L
481.15 39.001 L
482.7 39.002 L
484.25 39.003 L
485.8 39.004 L
487.35 39.006 L
488.9 39.009 L
490.45 39.013 L
492 39.019 L
493.55 39.029 L
495.1 39.043 L
496.65 39.064 L
498.2 39.095 L
499.75 39.142 L
501.3 39.212 L
502.85 39.316 L
504.4 39.472 L
505.95 39.703 L
507.5 40.048 L
509.05 40.562 L
510.6 41.326 L
512.15 42.461 L
513.7 44.142 L
515.25 46.626 L
516.8 50.277 L
518.35 55.606 L
519.9 63.305 L
521.45 74.265 L
523 89.542 L
524.55 110.224 L
526.1 137.145 L
527.65 170.451 L
529.2 209.156 L
530.75 251 L
532.3 292.844 L
533.85 331.549 L
535.4 364.854 L
536.95 391.776 L
538.5 412.458 L
540.05 427.735 L
541.6 438.695 L
543.15 446.394 L
544.7 451.723 L
546.25 455.374 L
547.8 457.858 L
549.35 459.539 L
550.9 460.674 L
552.45 461.438 L
554 461.952 L
555.55 462.297 L
557.1 462.528 L
558.65 462.684 L
560.2 462.788 L
561.75 462.858 L
563.3 462.905 L
564.85 462.936 L
566.4 462.957 L
567.95 462.971 L
569.5 462.981 L
571.05 462.987 L
572.6 462.991 L
574.15 462.994 L
575.7 462.996 L
577.25 462.997 L
578.8 462.998 L
580.35 462.999 L
581.9 462.999 L
583.45 462.999 L
585 463 L
586.55 463 L
588.1 463 L
589.65 463 L
591.2 463 L
592.75 463 L
594.3 463 L
595.85 463 L
597.4 463 L
598.95 463 L
600.5 463 L
602.05 463 L
603.6 463 L
605.15 463 L
606.7 463 L
608.25 463 L
609.8 463 L
611.35 463 L
612.9 463 L
614.45 463 L
616 463 L
617.55 463 L
619.1 463 L
620.65 463 L
622.2 463 L
623.75 463 L
625.3 463 L
626.85 463 L
628.4 463 L
629.95 463 L
631.5 463 L
633.05 463 L
634.6 463 L
636.15 463 L
637.7 463 L
639.25 463 L
640.8 463 L
642.35 463 L
643.9 463 L
645.45 463 L
647 463 L
648.55 463 L
650.1 463 L
651.65 463 L
653.2 463 L
654.75 463 L
656.3 463 L
657.85 463 L
659.4 463 L
660.95 463 L
662.5 463 L
664.05 463 L
665.6 463 L
667.15 463 L
668.7 463 L
670.25 463 L
671.8 463 L
673.35 463 L
674.9 463 L
676.45 463 L
678 463 L
679.55 463 L
681.1 463 L
682.65 463 L
684.2 463 L
685.75 463 L
687.3 463 L
688.85 463 L
690.4 463 L
691.95 463 L
693.5 463 L
695.05 463 L
696.6 463 L
698.15 463 L
699.7 463 L
701.25 463 L
702.8 463 L
704.35 463 L
705.9 463 L
707.45 463 L
709 463 L
710.55 463 L
712.1 463 L
713.65 463 L
715.2 463 L
716.75 463 L
718.3 463 L
719.85 463 L
721.4 463 L
722.95 463 L
724.5 463 L
726.05 463 L
727.6 463 L
729.15 463 L
730.7 463 L
732.25 463 L
733.8 463 L
735.35 463 L
736.9 463 L
738.45 463 L
740 463 L
741.55 463 L
743.1 463 L
744.65 463 L
746.2 463 L
747.75 463 L
749.3 463 L
750.85 463 L
752.4 463 L
753.95 463 L
755.5 463 L
757.05 463 L
758.6 463 L
760.15 463 L
761.7 463 L
763.25 463 L
764.8 463 L
766.35 463 L
767.9 463 L
769.45 463 L
771 463 L
772.55 463 L
774.1 463 L
775.65 463 L
777.2 463 L
778.75 463 L
780.3 463 L
781.85 463 L
783.4 463 L
784.95 463 L
786.5 463 L
788.05 463 L
789.6 463 L
791.15 463 L
792.7 463 L
794.25 463 L
795.8 463 L
797.35 463 L
798.9 463 L
800.45 463 L
802 463 L
803.55 463 L
805.1 463 L
806.65 463 L
808.2 463 L
809.75 463 L
811.3 463 L
812.85 463 L
814.4 463 L
815.95 463 L
817.5 463 L
819.05 463 L
820.6 463 L
822.15 463 L
823.7 463 L
825.25 463 L
826.8 463 L
828.35 463 L
829.9 463 L
831.45 463 L
833 463 L
834.55 463 L
836.1 463 L
837.65 463 L
839.2 463 L
840.75 463 L
842.3 463 L
843.85 463 L
845.4 463 L
846.95 463 L
848.5 463 L
850.05 463 L
851.6 463 L
853.15 463 L
854.7 463 L
856.25 463 L
857.8 463 L
859.35 463 L
860.9 463 L
862.45 463 L
864 463 L
865.55 463 L
867.1 463 L
868.65 463 L
870.2 463 L
871.75 463 L
873.3 463 L
874.85 463 L
876.4 463 L
877.95 463 L
879.5 463 L
881.05 463 L
882.6 463 L
884.15 463 L
885.7 463 L
887.25 463 L
888.8 463 L
890.35 463 L
891.9 463 L
893.45 463 L
895 463 L
896.55 463 L
898.1 463 L
899.65 463 L
901.2 463 L
902.75 463 L
904.3 463 L
905.85 463 L
907.4 463 L
908.95 463 L
910.5 463 L
912.05 463 L
913.6 463 L
915.15 463 L
916.7 463 L
918.25 463 L
919.8 463 L
921.35 463 L
922.9 463 L
924.45 463 L
926 463 L
927.55 463 L
929.1 463 L
930.65 463 L
932.2 463 L
933.75 463 L
935.3 463 L
936.85 463 L
938.4 463 L
939.95 463 L
941.5 463 L
943.05 463 L
944.6 463 L
946.15 463 L
947.7 463 L
949.25 463 L
950.8 463 L
952.35 463 L
953.9 463 L
955.45 463 L
957 463 L
958.55 463 L
960.1 463 L
961.65 463 L
963.2 463 L
964.75 463 L
966.3 463 L
967.85 463 L
969.4 463 L
970.95 463 L
972.5 463 L
974.05 463 L
975.6 463 L
977.15 463 L
978.7 463 L
980.25 463 L
981.8 463 L
983.35 463 L
984.9 463 L
986.45 463 L
988 463 L
989.55 463 L
991.1 463 L
992.65 463 L
994.2 463 L
995.75 463 L
997.3 463 L
998.85 463 L
1000.4 463 L
1001.95 463 L
1003.5 463 L
1005.05 463 L
1006.6 463 L
1008.15 463 L
1009.7 463 L
1011.25 463 L
1012.8 463 L
1014.35 463 L
1015.9 463 L
1017.45 463 L
1019 463 L
1020.55 463 L
1022.1 463 L
1023.65 463 L
1025.2 463 L
1026.75 463 L
1028.3 463 L
1029.85 463 L
1031.4 463 L
1032.95 463 L
1034.5 463 L
1036.05 463 L
1037.6 463 L
1039.15 463 L
1040.7 463 L
1042.25 463 L
1043.8 463 L
1045.35 463 L
1046.9 463 L
1048.45 463 L
1050 463 L
1051.55 463 L
1053.1 463 L
1054.65 463 L
1056.2 463 L
1057.75 463 L
1059.3 463 L
1060.85 463 L
1062.4 463 L
1063.95 463 L
1065.5 463 L
1067.05 463 L
1068.6 463 L
1070.15 463 L
1071.7 463 L
1073.25 463 L
1074.8 463 L
1076.35 463 L
1077.9 463 L
1079.45 463 L
1081 463 L
1082.55 463 L
1084.1 463 L
1085.65 463 L
1087.2 463 L
1088.75 463 L
1090.3 463 L
1091.85 463 L
1093.4 463 L
1094.95 463 L
1096.5 463 L
1098.05 463 L
1099.6 463 L
1101.15 463 L
1102.7 463 L
1104.25 463 L
1105.8 463 L
1107.35 463 L
1108.9 463 L
1110.45 463 L
1112 463 L
1113.55 463 L
1115.1 463 L
1116.65 463 L
1118.2 463 L
1119.75 463 L
1121.3 463 L
1122.85 463 L
1124.4 463 L
1125.95 463 L
1127.5 463 L
1129.05 463 L
1130.6 463 L
1132.15 463 L
1133.7 463 L
1135.25 463 L
1136.8 463 L
1138.35 463 L
1139.9 463 L
1141.45 463 L
1143 463 L
1144.55 463 L
1146.1 463 L
1147.65 463 L
1149.2 463 L
1150.75 463 L
1152.3 463 L
1153.85 463 L
1155.4 463 L
1156.95 463 L
1158.5 463 L
1160.05 463 L
1161.6 463 L
1163.15 463 L
1164.7 463 L
1166.25 463 L
1167.8 463 L
1169.35 463 L
1170.9 463 L
1172.45 463 L
1174 463 L
1175.55 463 L
1177.1 463 L
1178.65 463 L
1180.2 463 L
1181.75 463 L
1183.3 463 L
1184.85 463 L
1186.4 463 L
1187.95 463 L
1189.5 463 L
1191.05 463 L
1192.6 463 L
1194.15 463 L
1195.7 463 L
1197.25 463 L
1198.8 463 L
1200.35 463 L
1201.9 463 L
1203.45 463 L
1205 463 L
1206.55 463 L
1208.1 463 L
1209.65 463 L
1211.2 463 L
1212.75 463 L
1214.3 463 L
1215.85 463 L
1217.4 463 L
1218.95 463 L
1220.5 463 L
1222.05 463 L
1223.6 463 L
1225.15 463 L
1226.7 463 L
1228.25 463 L
1229.8 463 L
1231.35 463 L
1232.9 463 L
1234.45 463 L
1236 463 L
1237.55 463 L
1239.1 463 L
1240.65 463 L
1242.2 463 L
1243.75 463 L
1245.3 463 L
1246.85 463 L
1248.4 463 L
1249.95 463 L
1251.5 463 L
1253.05 463 L
1254.6 463 L
1256.15 463 L
1257.7 463 L
1259.25 463 L
1260.8 463 L
1262.35 463 L
1263.9 463 L
1265.45 463 L
1267 463 L
S
GR
GS
[0.75 0 0 0.74971 0 0.39999] CT
0.851 0.325 0.098 RC
1 LJ
2.667 LW
N
182 463 M
183.55 463 L
185.1 463 L
186.65 463 L
188.2 463 L
189.75 463 L
191.3 463 L
192.85 463 L
194.4 463 L
195.95 463 L
197.5 463 L
199.05 463 L
200.6 463 L
202.15 463 L
203.7 463 L
205.25 463 L
206.8 463 L
208.35 463 L
209.9 463 L
211.45 463 L
213 463 L
214.55 463 L
216.1 463 L
217.65 463 L
219.2 463 L
220.75 463 L
222.3 463 L
223.85 463 L
225.4 463 L
226.95 463 L
228.5 463 L
230.05 463 L
231.6 463 L
233.15 463 L
234.7 463 L
236.25 463 L
237.8 463 L
239.35 463 L
240.9 463 L
242.45 463 L
244 463 L
245.55 463 L
247.1 463 L
248.65 463 L
250.2 463 L
251.75 463 L
253.3 463 L
254.85 463 L
256.4 463 L
257.95 463 L
259.5 463 L
261.05 463 L
262.6 463 L
264.15 463 L
265.7 463 L
267.25 463 L
268.8 463 L
270.35 463 L
271.9 463 L
273.45 463 L
275 463 L
276.55 463 L
278.1 463 L
279.65 463 L
281.2 463 L
282.75 463 L
284.3 463 L
285.85 463 L
287.4 463 L
288.95 463 L
290.5 463 L
292.05 463 L
293.6 463 L
295.15 463 L
296.7 463 L
298.25 463 L
299.8 463 L
301.35 463 L
302.9 463 L
304.45 463 L
306 463 L
307.55 463 L
309.1 463 L
310.65 463 L
312.2 463 L
313.75 463 L
315.3 463 L
316.85 463 L
318.4 463 L
319.95 463 L
321.5 463 L
323.05 463 L
324.6 463 L
326.15 463 L
327.7 463 L
329.25 463 L
330.8 463 L
332.35 463 L
333.9 463 L
335.45 463 L
337 463 L
338.55 463 L
340.1 463 L
341.65 463 L
343.2 463 L
344.75 463 L
346.3 463 L
347.85 463 L
349.4 463 L
350.95 463 L
352.5 463 L
354.05 463 L
355.6 463 L
357.15 463 L
358.7 463 L
360.25 463 L
361.8 463 L
363.35 463 L
364.9 463 L
366.45 463 L
368 463 L
369.55 463 L
371.1 463 L
372.65 463 L
374.2 463 L
375.75 463 L
377.3 463 L
378.85 463 L
380.4 463 L
381.95 463 L
383.5 463 L
385.05 463 L
386.6 463 L
388.15 463 L
389.7 463 L
391.25 463 L
392.8 463 L
394.35 463 L
395.9 463 L
397.45 463 L
399 463 L
400.55 463 L
402.1 463 L
403.65 463 L
405.2 463 L
406.75 463 L
408.3 463 L
409.85 463 L
411.4 463 L
412.95 463 L
414.5 463 L
416.05 463 L
417.6 463 L
419.15 463 L
420.7 463 L
422.25 463 L
423.8 463 L
425.35 463 L
426.9 463 L
428.45 463 L
430 463 L
431.55 463 L
433.1 463 L
434.65 463 L
436.2 463 L
437.75 463 L
439.3 463 L
440.85 463 L
442.4 463 L
443.95 463 L
445.5 463 L
447.05 463 L
448.6 463 L
450.15 463 L
451.7 463 L
453.25 463 L
454.8 463 L
456.35 463 L
457.9 463 L
459.45 463 L
461 463 L
462.55 463 L
464.1 463 L
465.65 463 L
467.2 463 L
468.75 463 L
470.3 463 L
471.85 463 L
473.4 463 L
474.95 463 L
476.5 463 L
478.05 462.999 L
479.6 462.999 L
481.15 462.999 L
482.7 462.998 L
484.25 462.997 L
485.8 462.996 L
487.35 462.994 L
488.9 462.991 L
490.45 462.987 L
492 462.981 L
493.55 462.971 L
495.1 462.957 L
496.65 462.936 L
498.2 462.905 L
499.75 462.858 L
501.3 462.788 L
502.85 462.684 L
504.4 462.528 L
505.95 462.297 L
507.5 461.952 L
509.05 461.438 L
510.6 460.674 L
512.15 459.539 L
513.7 457.858 L
515.25 455.374 L
516.8 451.723 L
518.35 446.394 L
519.9 438.695 L
521.45 427.735 L
523 412.458 L
524.55 391.776 L
526.1 364.854 L
527.65 331.549 L
529.2 292.844 L
530.75 251 L
532.3 209.156 L
533.85 170.451 L
535.4 137.145 L
536.95 110.224 L
538.5 89.542 L
540.05 74.265 L
541.6 63.305 L
543.15 55.606 L
544.7 50.277 L
546.25 46.626 L
547.8 44.142 L
549.35 42.461 L
550.9 41.326 L
552.45 40.562 L
554 40.048 L
555.55 39.703 L
557.1 39.472 L
558.65 39.316 L
560.2 39.212 L
561.75 39.142 L
563.3 39.095 L
564.85 39.064 L
566.4 39.043 L
567.95 39.029 L
569.5 39.019 L
571.05 39.013 L
572.6 39.009 L
574.15 39.006 L
575.7 39.004 L
577.25 39.003 L
578.8 39.002 L
580.35 39.001 L
581.9 39.001 L
583.45 39.001 L
585 39 L
586.55 39 L
588.1 39 L
589.65 39 L
591.2 39 L
592.75 39 L
594.3 39 L
595.85 39 L
597.4 39 L
598.95 39 L
600.5 39 L
602.05 39 L
603.6 39 L
605.15 39 L
606.7 39 L
608.25 39 L
609.8 39 L
611.35 39 L
612.9 39 L
614.45 39 L
616 39 L
617.55 39 L
619.1 39 L
620.65 39 L
622.2 39 L
623.75 39 L
625.3 39 L
626.85 39 L
628.4 39 L
629.95 39 L
631.5 39 L
633.05 39 L
634.6 39 L
636.15 39 L
637.7 39 L
639.25 39 L
640.8 39 L
642.35 39 L
643.9 39 L
645.45 39 L
647 39 L
648.55 39 L
650.1 39 L
651.65 39 L
653.2 39 L
654.75 39 L
656.3 39 L
657.85 39 L
659.4 39 L
660.95 39 L
662.5 39 L
664.05 39 L
665.6 39 L
667.15 39 L
668.7 39 L
670.25 39 L
671.8 39 L
673.35 39 L
674.9 39 L
676.45 39 L
678 39 L
679.55 39 L
681.1 39 L
682.65 39 L
684.2 39 L
685.75 39 L
687.3 39 L
688.85 39 L
690.4 39 L
691.95 39 L
693.5 39 L
695.05 39 L
696.6 39 L
698.15 39 L
699.7 39 L
701.25 39 L
702.8 39 L
704.35 39 L
705.9 39 L
707.45 39 L
709 39 L
710.55 39 L
712.1 39 L
713.65 39 L
715.2 39 L
716.75 39 L
718.3 39 L
719.85 39 L
721.4 39 L
722.95 39 L
724.5 39 L
726.05 39 L
727.6 39 L
729.15 39 L
730.7 39 L
732.25 39 L
733.8 39 L
735.35 39 L
736.9 39 L
738.45 39 L
740 39 L
741.55 39 L
743.1 39 L
744.65 39 L
746.2 39 L
747.75 39 L
749.3 39 L
750.85 39 L
752.4 39 L
753.95 39 L
755.5 39 L
757.05 39 L
758.6 39 L
760.15 39 L
761.7 39 L
763.25 39 L
764.8 39 L
766.35 39 L
767.9 39 L
769.45 39 L
771 39 L
772.55 39 L
774.1 39 L
775.65 39 L
777.2 39 L
778.75 39 L
780.3 39 L
781.85 39 L
783.4 39 L
784.95 39 L
786.5 39 L
788.05 39 L
789.6 39 L
791.15 39 L
792.7 39 L
794.25 39 L
795.8 39 L
797.35 39 L
798.9 39 L
800.45 39 L
802 39 L
803.55 39 L
805.1 39 L
806.65 39 L
808.2 39 L
809.75 39 L
811.3 39 L
812.85 39 L
814.4 39 L
815.95 39 L
817.5 39 L
819.05 39 L
820.6 39 L
822.15 39 L
823.7 39 L
825.25 39 L
826.8 39 L
828.35 39 L
829.9 39 L
831.45 39 L
833 39 L
834.55 39 L
836.1 39 L
837.65 39 L
839.2 39 L
840.75 39 L
842.3 39 L
843.85 39 L
845.4 39 L
846.95 39 L
848.5 39 L
850.05 39 L
851.6 39 L
853.15 39 L
854.7 39 L
856.25 39 L
857.8 39 L
859.35 39 L
860.9 39 L
862.45 39 L
864 39 L
865.55 39.001 L
867.1 39.001 L
868.65 39.001 L
870.2 39.002 L
871.75 39.003 L
873.3 39.004 L
874.85 39.006 L
876.4 39.009 L
877.95 39.013 L
879.5 39.019 L
881.05 39.029 L
882.6 39.043 L
884.15 39.064 L
885.7 39.095 L
887.25 39.142 L
888.8 39.212 L
890.35 39.316 L
891.9 39.472 L
893.45 39.703 L
895 40.048 L
896.55 40.562 L
898.1 41.326 L
899.65 42.461 L
901.2 44.142 L
902.75 46.626 L
904.3 50.277 L
905.85 55.606 L
907.4 63.305 L
908.95 74.265 L
910.5 89.542 L
912.05 110.224 L
913.6 137.145 L
915.15 170.451 L
916.7 209.156 L
918.25 251 L
919.8 292.844 L
921.35 331.549 L
922.9 364.854 L
924.45 391.776 L
926 412.458 L
927.55 427.735 L
929.1 438.695 L
930.65 446.394 L
932.2 451.723 L
933.75 455.374 L
935.3 457.858 L
936.85 459.539 L
938.4 460.674 L
939.95 461.438 L
941.5 461.952 L
943.05 462.297 L
944.6 462.528 L
946.15 462.684 L
947.7 462.788 L
949.25 462.858 L
950.8 462.905 L
952.35 462.936 L
953.9 462.957 L
955.45 462.971 L
957 462.981 L
958.55 462.987 L
960.1 462.991 L
961.65 462.994 L
963.2 462.996 L
964.75 462.997 L
966.3 462.998 L
967.85 462.999 L
969.4 462.999 L
970.95 462.999 L
972.5 463 L
974.05 463 L
975.6 463 L
977.15 463 L
978.7 463 L
980.25 463 L
981.8 463 L
983.35 463 L
984.9 463 L
986.45 463 L
988 463 L
989.55 463 L
991.1 463 L
992.65 463 L
994.2 463 L
995.75 463 L
997.3 463 L
998.85 463 L
1000.4 463 L
1001.95 463 L
1003.5 463 L
1005.05 463 L
1006.6 463 L
1008.15 463 L
1009.7 463 L
1011.25 463 L
1012.8 463 L
1014.35 463 L
1015.9 463 L
1017.45 463 L
1019 463 L
1020.55 463 L
1022.1 463 L
1023.65 463 L
1025.2 463 L
1026.75 463 L
1028.3 463 L
1029.85 463 L
1031.4 463 L
1032.95 463 L
1034.5 463 L
1036.05 463 L
1037.6 463 L
1039.15 463 L
1040.7 463 L
1042.25 463 L
1043.8 463 L
1045.35 463 L
1046.9 463 L
1048.45 463 L
1050 463 L
1051.55 463 L
1053.1 463 L
1054.65 463 L
1056.2 463 L
1057.75 463 L
1059.3 463 L
1060.85 463 L
1062.4 463 L
1063.95 463 L
1065.5 463 L
1067.05 463 L
1068.6 463 L
1070.15 463 L
1071.7 463 L
1073.25 463 L
1074.8 463 L
1076.35 463 L
1077.9 463 L
1079.45 463 L
1081 463 L
1082.55 463 L
1084.1 463 L
1085.65 463 L
1087.2 463 L
1088.75 463 L
1090.3 463 L
1091.85 463 L
1093.4 463 L
1094.95 463 L
1096.5 463 L
1098.05 463 L
1099.6 463 L
1101.15 463 L
1102.7 463 L
1104.25 463 L
1105.8 463 L
1107.35 463 L
1108.9 463 L
1110.45 463 L
1112 463 L
1113.55 463 L
1115.1 463 L
1116.65 463 L
1118.2 463 L
1119.75 463 L
1121.3 463 L
1122.85 463 L
1124.4 463 L
1125.95 463 L
1127.5 463 L
1129.05 463 L
1130.6 463 L
1132.15 463 L
1133.7 463 L
1135.25 463 L
1136.8 463 L
1138.35 463 L
1139.9 463 L
1141.45 463 L
1143 463 L
1144.55 463 L
1146.1 463 L
1147.65 463 L
1149.2 463 L
1150.75 463 L
1152.3 463 L
1153.85 463 L
1155.4 463 L
1156.95 463 L
1158.5 463 L
1160.05 463 L
1161.6 463 L
1163.15 463 L
1164.7 463 L
1166.25 463 L
1167.8 463 L
1169.35 463 L
1170.9 463 L
1172.45 463 L
1174 463 L
1175.55 463 L
1177.1 463 L
1178.65 463 L
1180.2 463 L
1181.75 463 L
1183.3 463 L
1184.85 463 L
1186.4 463 L
1187.95 463 L
1189.5 463 L
1191.05 463 L
1192.6 463 L
1194.15 463 L
1195.7 463 L
1197.25 463 L
1198.8 463 L
1200.35 463 L
1201.9 463 L
1203.45 463 L
1205 463 L
1206.55 463 L
1208.1 463 L
1209.65 463 L
1211.2 463 L
1212.75 463 L
1214.3 463 L
1215.85 463 L
1217.4 463 L
1218.95 463 L
1220.5 463 L
1222.05 463 L
1223.6 463 L
1225.15 463 L
1226.7 463 L
1228.25 463 L
1229.8 463 L
1231.35 463 L
1232.9 463 L
1234.45 463 L
1236 463 L
1237.55 463 L
1239.1 463 L
1240.65 463 L
1242.2 463 L
1243.75 463 L
1245.3 463 L
1246.85 463 L
1248.4 463 L
1249.95 463 L
1251.5 463 L
1253.05 463 L
1254.6 463 L
1256.15 463 L
1257.7 463 L
1259.25 463 L
1260.8 463 L
1262.35 463 L
1263.9 463 L
1265.45 463 L
1267 463 L
S
GR
GS
[0.75 0 0 0.74971 0 0.39999] CT
0.929 0.694 0.125 RC
1 LJ
2.667 LW
N
182 463 M
183.55 463 L
185.1 463 L
186.65 463 L
188.2 463 L
189.75 463 L
191.3 463 L
192.85 463 L
194.4 463 L
195.95 463 L
197.5 463 L
199.05 463 L
200.6 463 L
202.15 463 L
203.7 463 L
205.25 463 L
206.8 463 L
208.35 463 L
209.9 463 L
211.45 463 L
213 463 L
214.55 463 L
216.1 463 L
217.65 463 L
219.2 463 L
220.75 463 L
222.3 463 L
223.85 463 L
225.4 463 L
226.95 463 L
228.5 463 L
230.05 463 L
231.6 463 L
233.15 463 L
234.7 463 L
236.25 463 L
237.8 463 L
239.35 463 L
240.9 463 L
242.45 463 L
244 463 L
245.55 463 L
247.1 463 L
248.65 463 L
250.2 463 L
251.75 463 L
253.3 463 L
254.85 463 L
256.4 463 L
257.95 463 L
259.5 463 L
261.05 463 L
262.6 463 L
264.15 463 L
265.7 463 L
267.25 463 L
268.8 463 L
270.35 463 L
271.9 463 L
273.45 463 L
275 463 L
276.55 463 L
278.1 463 L
279.65 463 L
281.2 463 L
282.75 463 L
284.3 463 L
285.85 463 L
287.4 463 L
288.95 463 L
290.5 463 L
292.05 463 L
293.6 463 L
295.15 463 L
296.7 463 L
298.25 463 L
299.8 463 L
301.35 463 L
302.9 463 L
304.45 463 L
306 463 L
307.55 463 L
309.1 463 L
310.65 463 L
312.2 463 L
313.75 463 L
315.3 463 L
316.85 463 L
318.4 463 L
319.95 463 L
321.5 463 L
323.05 463 L
324.6 463 L
326.15 463 L
327.7 463 L
329.25 463 L
330.8 463 L
332.35 463 L
333.9 463 L
335.45 463 L
337 463 L
338.55 463 L
340.1 463 L
341.65 463 L
343.2 463 L
344.75 463 L
346.3 463 L
347.85 463 L
349.4 463 L
350.95 463 L
352.5 463 L
354.05 463 L
355.6 463 L
357.15 463 L
358.7 463 L
360.25 463 L
361.8 463 L
363.35 463 L
364.9 463 L
366.45 463 L
368 463 L
369.55 463 L
371.1 463 L
372.65 463 L
374.2 463 L
375.75 463 L
377.3 463 L
378.85 463 L
380.4 463 L
381.95 463 L
383.5 463 L
385.05 463 L
386.6 463 L
388.15 463 L
389.7 463 L
391.25 463 L
392.8 463 L
394.35 463 L
395.9 463 L
397.45 463 L
399 463 L
400.55 463 L
402.1 463 L
403.65 463 L
405.2 463 L
406.75 463 L
408.3 463 L
409.85 463 L
411.4 463 L
412.95 463 L
414.5 463 L
416.05 463 L
417.6 463 L
419.15 463 L
420.7 463 L
422.25 463 L
423.8 463 L
425.35 463 L
426.9 463 L
428.45 463 L
430 463 L
431.55 463 L
433.1 463 L
434.65 463 L
436.2 463 L
437.75 463 L
439.3 463 L
440.85 463 L
442.4 463 L
443.95 463 L
445.5 463 L
447.05 463 L
448.6 463 L
450.15 463 L
451.7 463 L
453.25 463 L
454.8 463 L
456.35 463 L
457.9 463 L
459.45 463 L
461 463 L
462.55 463 L
464.1 463 L
465.65 463 L
467.2 463 L
468.75 463 L
470.3 463 L
471.85 463 L
473.4 463 L
474.95 463 L
476.5 463 L
478.05 463 L
479.6 463 L
481.15 463 L
482.7 463 L
484.25 463 L
485.8 463 L
487.35 463 L
488.9 463 L
490.45 463 L
492 463 L
493.55 463 L
495.1 463 L
496.65 463 L
498.2 463 L
499.75 463 L
501.3 463 L
502.85 463 L
504.4 463 L
505.95 463 L
507.5 463 L
509.05 463 L
510.6 463 L
512.15 463 L
513.7 463 L
515.25 463 L
516.8 463 L
518.35 463 L
519.9 463 L
521.45 463 L
523 463 L
524.55 463 L
526.1 463 L
527.65 463 L
529.2 463 L
530.75 463 L
532.3 463 L
533.85 463 L
535.4 463 L
536.95 463 L
538.5 463 L
540.05 463 L
541.6 463 L
543.15 463 L
544.7 463 L
546.25 463 L
547.8 463 L
549.35 463 L
550.9 463 L
552.45 463 L
554 463 L
555.55 463 L
557.1 463 L
558.65 463 L
560.2 463 L
561.75 463 L
563.3 463 L
564.85 463 L
566.4 463 L
567.95 463 L
569.5 463 L
571.05 463 L
572.6 463 L
574.15 463 L
575.7 463 L
577.25 463 L
578.8 463 L
580.35 463 L
581.9 463 L
583.45 463 L
585 463 L
586.55 463 L
588.1 463 L
589.65 463 L
591.2 463 L
592.75 463 L
594.3 463 L
595.85 463 L
597.4 463 L
598.95 463 L
600.5 463 L
602.05 463 L
603.6 463 L
605.15 463 L
606.7 463 L
608.25 463 L
609.8 463 L
611.35 463 L
612.9 463 L
614.45 463 L
616 463 L
617.55 463 L
619.1 463 L
620.65 463 L
622.2 463 L
623.75 463 L
625.3 463 L
626.85 463 L
628.4 463 L
629.95 463 L
631.5 463 L
633.05 463 L
634.6 463 L
636.15 463 L
637.7 463 L
639.25 463 L
640.8 463 L
642.35 463 L
643.9 463 L
645.45 463 L
647 463 L
648.55 463 L
650.1 463 L
651.65 463 L
653.2 463 L
654.75 463 L
656.3 463 L
657.85 463 L
659.4 463 L
660.95 463 L
662.5 463 L
664.05 463 L
665.6 463 L
667.15 463 L
668.7 463 L
670.25 463 L
671.8 463 L
673.35 463 L
674.9 463 L
676.45 463 L
678 463 L
679.55 463 L
681.1 463 L
682.65 463 L
684.2 463 L
685.75 463 L
687.3 463 L
688.85 463 L
690.4 463 L
691.95 463 L
693.5 463 L
695.05 463 L
696.6 463 L
698.15 463 L
699.7 463 L
701.25 463 L
702.8 463 L
704.35 463 L
705.9 463 L
707.45 463 L
709 463 L
710.55 463 L
712.1 463 L
713.65 463 L
715.2 463 L
716.75 463 L
718.3 463 L
719.85 463 L
721.4 463 L
722.95 463 L
724.5 463 L
726.05 463 L
727.6 463 L
729.15 463 L
730.7 463 L
732.25 463 L
733.8 463 L
735.35 463 L
736.9 463 L
738.45 463 L
740 463 L
741.55 463 L
743.1 463 L
744.65 463 L
746.2 463 L
747.75 463 L
749.3 463 L
750.85 463 L
752.4 463 L
753.95 463 L
755.5 463 L
757.05 463 L
758.6 463 L
760.15 463 L
761.7 463 L
763.25 463 L
764.8 463 L
766.35 463 L
767.9 463 L
769.45 463 L
771 463 L
772.55 463 L
774.1 463 L
775.65 463 L
777.2 463 L
778.75 463 L
780.3 463 L
781.85 463 L
783.4 463 L
784.95 463 L
786.5 463 L
788.05 463 L
789.6 463 L
791.15 463 L
792.7 463 L
794.25 463 L
795.8 463 L
797.35 463 L
798.9 463 L
800.45 463 L
802 463 L
803.55 463 L
805.1 463 L
806.65 463 L
808.2 463 L
809.75 463 L
811.3 463 L
812.85 463 L
814.4 463 L
815.95 463 L
817.5 463 L
819.05 463 L
820.6 463 L
822.15 463 L
823.7 463 L
825.25 463 L
826.8 463 L
828.35 463 L
829.9 463 L
831.45 463 L
833 463 L
834.55 463 L
836.1 463 L
837.65 463 L
839.2 463 L
840.75 463 L
842.3 463 L
843.85 463 L
845.4 463 L
846.95 463 L
848.5 463 L
850.05 463 L
851.6 463 L
853.15 463 L
854.7 463 L
856.25 463 L
857.8 463 L
859.35 463 L
860.9 463 L
862.45 463 L
864 463 L
865.55 462.999 L
867.1 462.999 L
868.65 462.999 L
870.2 462.998 L
871.75 462.997 L
873.3 462.996 L
874.85 462.994 L
876.4 462.991 L
877.95 462.987 L
879.5 462.981 L
881.05 462.971 L
882.6 462.957 L
884.15 462.936 L
885.7 462.905 L
887.25 462.858 L
888.8 462.788 L
890.35 462.684 L
891.9 462.528 L
893.45 462.297 L
895 461.952 L
896.55 461.438 L
898.1 460.674 L
899.65 459.539 L
901.2 457.858 L
902.75 455.374 L
904.3 451.723 L
905.85 446.394 L
907.4 438.695 L
908.95 427.735 L
910.5 412.458 L
912.05 391.776 L
913.6 364.854 L
915.15 331.549 L
916.7 292.844 L
918.25 251 L
919.8 209.156 L
921.35 170.451 L
922.9 137.145 L
924.45 110.224 L
926 89.542 L
927.55 74.265 L
929.1 63.305 L
930.65 55.606 L
932.2 50.277 L
933.75 46.626 L
935.3 44.142 L
936.85 42.461 L
938.4 41.326 L
939.95 40.562 L
941.5 40.048 L
943.05 39.703 L
944.6 39.472 L
946.15 39.316 L
947.7 39.212 L
949.25 39.142 L
950.8 39.095 L
952.35 39.064 L
953.9 39.043 L
955.45 39.029 L
957 39.019 L
958.55 39.013 L
960.1 39.009 L
961.65 39.006 L
963.2 39.004 L
964.75 39.003 L
966.3 39.002 L
967.85 39.001 L
969.4 39.001 L
970.95 39.001 L
972.5 39 L
974.05 39 L
975.6 39 L
977.15 39 L
978.7 39 L
980.25 39 L
981.8 39 L
983.35 39 L
984.9 39 L
986.45 39 L
988 39 L
989.55 39 L
991.1 39 L
992.65 39 L
994.2 39 L
995.75 39 L
997.3 39 L
998.85 39 L
1000.4 39 L
1001.95 39 L
1003.5 39 L
1005.05 39 L
1006.6 39 L
1008.15 39 L
1009.7 39 L
1011.25 39 L
1012.8 39 L
1014.35 39 L
1015.9 39 L
1017.45 39 L
1019 39 L
1020.55 39 L
1022.1 39 L
1023.65 39 L
1025.2 39 L
1026.75 39 L
1028.3 39 L
1029.85 39 L
1031.4 39 L
1032.95 39 L
1034.5 39 L
1036.05 39 L
1037.6 39 L
1039.15 39 L
1040.7 39 L
1042.25 39 L
1043.8 39 L
1045.35 39 L
1046.9 39 L
1048.45 39 L
1050 39 L
1051.55 39 L
1053.1 39 L
1054.65 39 L
1056.2 39 L
1057.75 39 L
1059.3 39 L
1060.85 39 L
1062.4 39 L
1063.95 39 L
1065.5 39 L
1067.05 39 L
1068.6 39 L
1070.15 39 L
1071.7 39 L
1073.25 39 L
1074.8 39 L
1076.35 39 L
1077.9 39 L
1079.45 39 L
1081 39 L
1082.55 39 L
1084.1 39 L
1085.65 39 L
1087.2 39 L
1088.75 39 L
1090.3 39 L
1091.85 39 L
1093.4 39 L
1094.95 39 L
1096.5 39 L
1098.05 39 L
1099.6 39 L
1101.15 39 L
1102.7 39 L
1104.25 39 L
1105.8 39 L
1107.35 39 L
1108.9 39 L
1110.45 39 L
1112 39 L
1113.55 39 L
1115.1 39 L
1116.65 39 L
1118.2 39 L
1119.75 39 L
1121.3 39 L
1122.85 39 L
1124.4 39 L
1125.95 39 L
1127.5 39 L
1129.05 39 L
1130.6 39 L
1132.15 39 L
1133.7 39 L
1135.25 39 L
1136.8 39 L
1138.35 39 L
1139.9 39 L
1141.45 39 L
1143 39 L
1144.55 39 L
1146.1 39 L
1147.65 39 L
1149.2 39 L
1150.75 39 L
1152.3 39 L
1153.85 39 L
1155.4 39 L
1156.95 39 L
1158.5 39 L
1160.05 39 L
1161.6 39 L
1163.15 39 L
1164.7 39 L
1166.25 39 L
1167.8 39 L
1169.35 39 L
1170.9 39 L
1172.45 39 L
1174 39 L
1175.55 39 L
1177.1 39 L
1178.65 39 L
1180.2 39 L
1181.75 39 L
1183.3 39 L
1184.85 39 L
1186.4 39 L
1187.95 39 L
1189.5 39 L
1191.05 39 L
1192.6 39 L
1194.15 39 L
1195.7 39 L
1197.25 39 L
1198.8 39 L
1200.35 39 L
1201.9 39 L
1203.45 39 L
1205 39 L
1206.55 39 L
1208.1 39 L
1209.65 39 L
1211.2 39 L
1212.75 39 L
1214.3 39 L
1215.85 39 L
1217.4 39 L
1218.95 39 L
1220.5 39 L
1222.05 39 L
1223.6 39 L
1225.15 39 L
1226.7 39 L
1228.25 39 L
1229.8 39 L
1231.35 39 L
1232.9 39 L
1234.45 39 L
1236 39 L
1237.55 39 L
1239.1 39 L
1240.65 39 L
1242.2 39 L
1243.75 39 L
1245.3 39 L
1246.85 39 L
1248.4 39 L
1249.95 39 L
1251.5 39 L
1253.05 39 L
1254.6 39 L
1256.15 39 L
1257.7 39 L
1259.25 39 L
1260.8 39 L
1262.35 39 L
1263.9 39 L
1265.45 39 L
1267 39 L
S
GR
%%Trailer
%%Pages: 1
%%EOF
