%!PS-Adobe-3.0 EPSF-3.0
%%Creator: (MATLAB, The Mathworks, Inc. Version 9.3.0.713579 \(R2017b\). Operating System: Windows 7)
%%Title: fig/RBFN_600_0,1_100000_convergence.eps
%%CreationDate: 2018-05-06T11:43:48
%%Pages: (atend)
%%BoundingBox:    27     3   483   384
%%LanguageLevel: 3
%%EndComments
%%BeginProlog
%%BeginResource: procset (Apache XML Graphics Std ProcSet) 1.2 0
%%Version: 1.2 0
%%Copyright: (Copyright 2001-2003,2010 The Apache Software Foundation. License terms: http://www.apache.org/licenses/LICENSE-2.0)
/bd{bind def}bind def
/ld{load def}bd
/GR/grestore ld
/GS/gsave ld
/RM/rmoveto ld
/C/curveto ld
/t/show ld
/L/lineto ld
/ML/setmiterlimit ld
/CT/concat ld
/f/fill ld
/N/newpath ld
/S/stroke ld
/CC/setcmykcolor ld
/A/ashow ld
/cp/closepath ld
/RC/setrgbcolor ld
/LJ/setlinejoin ld
/GC/setgray ld
/LW/setlinewidth ld
/M/moveto ld
/re {4 2 roll M
1 index 0 rlineto
0 exch rlineto
neg 0 rlineto
cp } bd
/_ctm matrix def
/_tm matrix def
/BT { _ctm currentmatrix pop matrix _tm copy pop 0 0 moveto } bd
/ET { _ctm setmatrix } bd
/iTm { _ctm setmatrix _tm concat } bd
/Tm { _tm astore pop iTm 0 0 moveto } bd
/ux 0.0 def
/uy 0.0 def
/F {
  /Tp exch def
  /Tf exch def
  Tf findfont Tp scalefont setfont
  /cf Tf def  /cs Tp def
} bd
/ULS {currentpoint /uy exch def /ux exch def} bd
/ULE {
  /Tcx currentpoint pop def
  gsave
  newpath
  cf findfont cs scalefont dup
  /FontMatrix get 0 get /Ts exch def /FontInfo get dup
  /UnderlinePosition get Ts mul /To exch def
  /UnderlineThickness get Ts mul /Tt exch def
  ux uy To add moveto  Tcx uy To add lineto
  Tt setlinewidth stroke
  grestore
} bd
/OLE {
  /Tcx currentpoint pop def
  gsave
  newpath
  cf findfont cs scalefont dup
  /FontMatrix get 0 get /Ts exch def /FontInfo get dup
  /UnderlinePosition get Ts mul /To exch def
  /UnderlineThickness get Ts mul /Tt exch def
  ux uy To add cs add moveto Tcx uy To add cs add lineto
  Tt setlinewidth stroke
  grestore
} bd
/SOE {
  /Tcx currentpoint pop def
  gsave
  newpath
  cf findfont cs scalefont dup
  /FontMatrix get 0 get /Ts exch def /FontInfo get dup
  /UnderlinePosition get Ts mul /To exch def
  /UnderlineThickness get Ts mul /Tt exch def
  ux uy To add cs 10 mul 26 idiv add moveto Tcx uy To add cs 10 mul 26 idiv add lineto
  Tt setlinewidth stroke
  grestore
} bd
/QT {
/Y22 exch store
/X22 exch store
/Y21 exch store
/X21 exch store
currentpoint
/Y21 load 2 mul add 3 div exch
/X21 load 2 mul add 3 div exch
/X21 load 2 mul /X22 load add 3 div
/Y21 load 2 mul /Y22 load add 3 div
/X22 load /Y22 load curveto
} bd
/SSPD {
dup length /d exch dict def
{
/v exch def
/k exch def
currentpagedevice k known {
/cpdv currentpagedevice k get def
v cpdv ne {
/upd false def
/nullv v type /nulltype eq def
/nullcpdv cpdv type /nulltype eq def
nullv nullcpdv or
{
/upd true def
} {
/sametype v type cpdv type eq def
sametype {
v type /arraytype eq {
/vlen v length def
/cpdvlen cpdv length def
vlen cpdvlen eq {
0 1 vlen 1 sub {
/i exch def
/obj v i get def
/cpdobj cpdv i get def
obj cpdobj ne {
/upd true def
exit
} if
} for
} {
/upd true def
} ifelse
} {
v type /dicttype eq {
v {
/dv exch def
/dk exch def
/cpddv cpdv dk get def
dv cpddv ne {
/upd true def
exit
} if
} forall
} {
/upd true def
} ifelse
} ifelse
} if
} ifelse
upd true eq {
d k v put
} if
} if
} if
} forall
d length 0 gt {
d setpagedevice
} if
} bd
/RE { % /NewFontName [NewEncodingArray] /FontName RE -
  findfont dup length dict begin
  {
    1 index /FID ne
    {def} {pop pop} ifelse
  } forall
  /Encoding exch def
  /FontName 1 index def
  currentdict definefont pop
  end
} bind def
%%EndResource
%%BeginResource: procset (Apache XML Graphics EPS ProcSet) 1.0 0
%%Version: 1.0 0
%%Copyright: (Copyright 2002-2003 The Apache Software Foundation. License terms: http://www.apache.org/licenses/LICENSE-2.0)
/BeginEPSF { %def
/b4_Inc_state save def         % Save state for cleanup
/dict_count countdictstack def % Count objects on dict stack
/op_count count 1 sub def      % Count objects on operand stack
userdict begin                 % Push userdict on dict stack
/showpage { } def              % Redefine showpage, { } = null proc
0 setgray 0 setlinecap         % Prepare graphics state
1 setlinewidth 0 setlinejoin
10 setmiterlimit [ ] 0 setdash newpath
/languagelevel where           % If level not equal to 1 then
{pop languagelevel             % set strokeadjust and
1 ne                           % overprint to their defaults.
{false setstrokeadjust false setoverprint
} if
} if
} bd
/EndEPSF { %def
count op_count sub {pop} repeat            % Clean up stacks
countdictstack dict_count sub {end} repeat
b4_Inc_state restore
} bd
%%EndResource
%FOPBeginFontDict
%%IncludeResource: font Courier-Oblique
%%IncludeResource: font Courier-BoldOblique
%%IncludeResource: font Courier-Bold
%%IncludeResource: font ZapfDingbats
%%IncludeResource: font Symbol
%%IncludeResource: font Helvetica
%%IncludeResource: font Helvetica-Oblique
%%IncludeResource: font Helvetica-Bold
%%IncludeResource: font Helvetica-BoldOblique
%%IncludeResource: font Times-Roman
%%IncludeResource: font Times-Italic
%%IncludeResource: font Times-Bold
%%IncludeResource: font Times-BoldItalic
%%IncludeResource: font Courier
%FOPEndFontDict
%%BeginResource: encoding WinAnsiEncoding
/WinAnsiEncoding [
/.notdef /.notdef /.notdef /.notdef /.notdef
/.notdef /.notdef /.notdef /.notdef /.notdef
/.notdef /.notdef /.notdef /.notdef /.notdef
/.notdef /.notdef /.notdef /.notdef /.notdef
/.notdef /.notdef /.notdef /.notdef /.notdef
/.notdef /.notdef /.notdef /.notdef /.notdef
/.notdef /.notdef /space /exclam /quotedbl
/numbersign /dollar /percent /ampersand /quotesingle
/parenleft /parenright /asterisk /plus /comma
/hyphen /period /slash /zero /one
/two /three /four /five /six
/seven /eight /nine /colon /semicolon
/less /equal /greater /question /at
/A /B /C /D /E
/F /G /H /I /J
/K /L /M /N /O
/P /Q /R /S /T
/U /V /W /X /Y
/Z /bracketleft /backslash /bracketright /asciicircum
/underscore /quoteleft /a /b /c
/d /e /f /g /h
/i /j /k /l /m
/n /o /p /q /r
/s /t /u /v /w
/x /y /z /braceleft /bar
/braceright /asciitilde /bullet /Euro /bullet
/quotesinglbase /florin /quotedblbase /ellipsis /dagger
/daggerdbl /circumflex /perthousand /Scaron /guilsinglleft
/OE /bullet /Zcaron /bullet /bullet
/quoteleft /quoteright /quotedblleft /quotedblright /bullet
/endash /emdash /asciitilde /trademark /scaron
/guilsinglright /oe /bullet /zcaron /Ydieresis
/space /exclamdown /cent /sterling /currency
/yen /brokenbar /section /dieresis /copyright
/ordfeminine /guillemotleft /logicalnot /sfthyphen /registered
/macron /degree /plusminus /twosuperior /threesuperior
/acute /mu /paragraph /middot /cedilla
/onesuperior /ordmasculine /guillemotright /onequarter /onehalf
/threequarters /questiondown /Agrave /Aacute /Acircumflex
/Atilde /Adieresis /Aring /AE /Ccedilla
/Egrave /Eacute /Ecircumflex /Edieresis /Igrave
/Iacute /Icircumflex /Idieresis /Eth /Ntilde
/Ograve /Oacute /Ocircumflex /Otilde /Odieresis
/multiply /Oslash /Ugrave /Uacute /Ucircumflex
/Udieresis /Yacute /Thorn /germandbls /agrave
/aacute /acircumflex /atilde /adieresis /aring
/ae /ccedilla /egrave /eacute /ecircumflex
/edieresis /igrave /iacute /icircumflex /idieresis
/eth /ntilde /ograve /oacute /ocircumflex
/otilde /odieresis /divide /oslash /ugrave
/uacute /ucircumflex /udieresis /yacute /thorn
/ydieresis
] def
%%EndResource
%FOPBeginFontReencode
/Courier-Oblique findfont
dup length dict begin
  {1 index /FID ne {def} {pop pop} ifelse} forall
  /Encoding WinAnsiEncoding def
  currentdict
end
/Courier-Oblique exch definefont pop
/Courier-BoldOblique findfont
dup length dict begin
  {1 index /FID ne {def} {pop pop} ifelse} forall
  /Encoding WinAnsiEncoding def
  currentdict
end
/Courier-BoldOblique exch definefont pop
/Courier-Bold findfont
dup length dict begin
  {1 index /FID ne {def} {pop pop} ifelse} forall
  /Encoding WinAnsiEncoding def
  currentdict
end
/Courier-Bold exch definefont pop
/Helvetica findfont
dup length dict begin
  {1 index /FID ne {def} {pop pop} ifelse} forall
  /Encoding WinAnsiEncoding def
  currentdict
end
/Helvetica exch definefont pop
/Helvetica-Oblique findfont
dup length dict begin
  {1 index /FID ne {def} {pop pop} ifelse} forall
  /Encoding WinAnsiEncoding def
  currentdict
end
/Helvetica-Oblique exch definefont pop
/Helvetica-Bold findfont
dup length dict begin
  {1 index /FID ne {def} {pop pop} ifelse} forall
  /Encoding WinAnsiEncoding def
  currentdict
end
/Helvetica-Bold exch definefont pop
/Helvetica-BoldOblique findfont
dup length dict begin
  {1 index /FID ne {def} {pop pop} ifelse} forall
  /Encoding WinAnsiEncoding def
  currentdict
end
/Helvetica-BoldOblique exch definefont pop
/Times-Roman findfont
dup length dict begin
  {1 index /FID ne {def} {pop pop} ifelse} forall
  /Encoding WinAnsiEncoding def
  currentdict
end
/Times-Roman exch definefont pop
/Times-Italic findfont
dup length dict begin
  {1 index /FID ne {def} {pop pop} ifelse} forall
  /Encoding WinAnsiEncoding def
  currentdict
end
/Times-Italic exch definefont pop
/Times-Bold findfont
dup length dict begin
  {1 index /FID ne {def} {pop pop} ifelse} forall
  /Encoding WinAnsiEncoding def
  currentdict
end
/Times-Bold exch definefont pop
/Times-BoldItalic findfont
dup length dict begin
  {1 index /FID ne {def} {pop pop} ifelse} forall
  /Encoding WinAnsiEncoding def
  currentdict
end
/Times-BoldItalic exch definefont pop
/Courier findfont
dup length dict begin
  {1 index /FID ne {def} {pop pop} ifelse} forall
  /Encoding WinAnsiEncoding def
  currentdict
end
/Courier exch definefont pop
%FOPEndFontReencode
%%EndProlog
%%Page: 1 1
%%PageBoundingBox: 0 0 525 394
%%BeginPageSetup
[1 0 0 -1 0 394] CT
%%EndPageSetup
GS
[0.75 0 0 0.74971 0 0.39999] CT
N
0 0 M
700 0 L
700 525 L
0 525 L
0 0 L
cp
clip
1 GC
N
0 0 700 525 re
f
GR
GS
[0.75 0 0 0.74971 0 0.39999] CT
1 GC
N
0 0 700 525 re
f
GR
GS
[0.75 0 0 0.74971 0 0.39999] CT
1 GC
N
91 459 M
634 459 L
634 39 L
91 39 L
cp
f
GR
GS
[0.75 0 0 0.74971 0 0.39999] CT
0.873 GC
1 LJ
0.667 LW
N
91 459 M
91 39 L
S
GR
GS
[0.75 0 0 0.74971 0 0.39999] CT
0.873 GC
1 LJ
0.667 LW
N
199.6 459 M
199.6 39 L
S
GR
GS
[0.75 0 0 0.74971 0 0.39999] CT
0.873 GC
1 LJ
0.667 LW
N
308.2 459 M
308.2 39 L
S
GR
GS
[0.75 0 0 0.74971 0 0.39999] CT
0.873 GC
1 LJ
0.667 LW
N
416.8 459 M
416.8 39 L
S
GR
GS
[0.75 0 0 0.74971 0 0.39999] CT
0.873 GC
1 LJ
0.667 LW
N
525.4 459 M
525.4 39 L
S
GR
GS
[0.75 0 0 0.74971 0 0.39999] CT
0.873 GC
1 LJ
0.667 LW
N
634 459 M
634 39 L
S
GR
GS
[0.75 0 0 0.74971 0 0.39999] CT
0.873 GC
1 LJ
0.667 LW
N
634 459 M
91 459 L
S
GR
GS
[0.75 0 0 0.74971 0 0.39999] CT
0.873 GC
1 LJ
0.667 LW
N
634 412.333 M
91 412.333 L
S
GR
GS
[0.75 0 0 0.74971 0 0.39999] CT
0.873 GC
1 LJ
0.667 LW
N
634 365.667 M
91 365.667 L
S
GR
GS
[0.75 0 0 0.74971 0 0.39999] CT
0.873 GC
1 LJ
0.667 LW
N
634 319 M
91 319 L
S
GR
GS
[0.75 0 0 0.74971 0 0.39999] CT
0.873 GC
1 LJ
0.667 LW
N
634 272.333 M
91 272.333 L
S
GR
GS
[0.75 0 0 0.74971 0 0.39999] CT
0.873 GC
1 LJ
0.667 LW
N
634 225.667 M
91 225.667 L
S
GR
GS
[0.75 0 0 0.74971 0 0.39999] CT
0.873 GC
1 LJ
0.667 LW
N
634 179 M
91 179 L
S
GR
GS
[0.75 0 0 0.74971 0 0.39999] CT
0.873 GC
1 LJ
0.667 LW
N
634 132.333 M
91 132.333 L
S
GR
GS
[0.75 0 0 0.74971 0 0.39999] CT
0.873 GC
1 LJ
0.667 LW
N
634 85.667 M
91 85.667 L
S
GR
GS
[0.75 0 0 0.74971 0 0.39999] CT
0.873 GC
1 LJ
0.667 LW
N
634 39 M
91 39 L
S
GR
GS
[0.75 0 0 0.74971 0 0.39999] CT
0.149 GC
2 setlinecap
1 LJ
0.667 LW
N
91 459 M
634 459 L
S
GR
GS
[0.75 0 0 0.74971 0 0.39999] CT
0.149 GC
2 setlinecap
1 LJ
0.667 LW
N
91 39 M
634 39 L
S
GR
GS
[0.75 0 0 0.74971 0 0.39999] CT
0.149 GC
2 setlinecap
1 LJ
0.667 LW
N
91 459 M
91 453.57 L
S
GR
GS
[0.75 0 0 0.74971 0 0.39999] CT
0.149 GC
2 setlinecap
1 LJ
0.667 LW
N
199.6 459 M
199.6 453.57 L
S
GR
GS
[0.75 0 0 0.74971 0 0.39999] CT
0.149 GC
2 setlinecap
1 LJ
0.667 LW
N
308.2 459 M
308.2 453.57 L
S
GR
GS
[0.75 0 0 0.74971 0 0.39999] CT
0.149 GC
2 setlinecap
1 LJ
0.667 LW
N
416.8 459 M
416.8 453.57 L
S
GR
GS
[0.75 0 0 0.74971 0 0.39999] CT
0.149 GC
2 setlinecap
1 LJ
0.667 LW
N
525.4 459 M
525.4 453.57 L
S
GR
GS
[0.75 0 0 0.74971 0 0.39999] CT
0.149 GC
2 setlinecap
1 LJ
0.667 LW
N
634 459 M
634 453.57 L
S
GR
GS
[0.75 0 0 0.74971 0 0.39999] CT
0.149 GC
2 setlinecap
1 LJ
0.667 LW
N
91 39 M
91 44.43 L
S
GR
GS
[0.75 0 0 0.74971 0 0.39999] CT
0.149 GC
2 setlinecap
1 LJ
0.667 LW
N
199.6 39 M
199.6 44.43 L
S
GR
GS
[0.75 0 0 0.74971 0 0.39999] CT
0.149 GC
2 setlinecap
1 LJ
0.667 LW
N
308.2 39 M
308.2 44.43 L
S
GR
GS
[0.75 0 0 0.74971 0 0.39999] CT
0.149 GC
2 setlinecap
1 LJ
0.667 LW
N
416.8 39 M
416.8 44.43 L
S
GR
GS
[0.75 0 0 0.74971 0 0.39999] CT
0.149 GC
2 setlinecap
1 LJ
0.667 LW
N
525.4 39 M
525.4 44.43 L
S
GR
GS
[0.75 0 0 0.74971 0 0.39999] CT
0.149 GC
2 setlinecap
1 LJ
0.667 LW
N
634 39 M
634 44.43 L
S
GR
GS
[0.75 0 0 0.74971 68.25 349.51694] CT
0.149 GC
/Helvetica 20 F
GS
[1 0 0 1 0 0] CT
-6 21 moveto 
1 -1 scale
(0) t 
GR
GR
GS
[0.75 0 0 0.74971 149.7 349.51694] CT
0.149 GC
/Helvetica 20 F
GS
[1 0 0 1 0 0] CT
-6 21 moveto 
1 -1 scale
(2) t 
GR
GR
GS
[0.75 0 0 0.74971 231.15001 349.51694] CT
0.149 GC
/Helvetica 20 F
GS
[1 0 0 1 0 0] CT
-6 21 moveto 
1 -1 scale
(4) t 
GR
GR
GS
[0.75 0 0 0.74971 312.59999 349.51694] CT
0.149 GC
/Helvetica 20 F
GS
[1 0 0 1 0 0] CT
-6 21 moveto 
1 -1 scale
(6) t 
GR
GR
GS
[0.75 0 0 0.74971 394.05002 349.51694] CT
0.149 GC
/Helvetica 20 F
GS
[1 0 0 1 0 0] CT
-6 21 moveto 
1 -1 scale
(8) t 
GR
GR
GS
[0.75 0 0 0.74971 475.5 349.51694] CT
0.149 GC
/Helvetica 20 F
GS
[1 0 0 1 0 0] CT
-11.5 21 moveto 
1 -1 scale
(10) t 
GR
GR
GS
[0.75 0 0 0.74971 271.87518 370.00914] CT
0.149 GC
/Helvetica 22 F
GS
[1 0 0 1 0 0] CT
-48.5 23 moveto 
1 -1 scale
(Itterations) t 
GR
GR
GS
[0.75 0 0 0.74971 439.5 390.25143] CT
0.149 GC
N
2.938 -0.578 M
2.938 -0.734 3.031 -0.859 QT
7.203 -5 L
3.031 -9.156 L
2.938 -9.266 2.938 -9.422 QT
2.938 -9.578 3.055 -9.703 QT
3.172 -9.828 3.344 -9.828 QT
3.484 -9.828 3.641 -9.703 QT
7.781 -5.563 L
11.906 -9.703 L
12.078 -9.828 12.203 -9.828 QT
12.359 -9.828 12.477 -9.711 QT
12.594 -9.594 12.594 -9.422 QT
12.594 -9.266 12.5 -9.156 QT
8.344 -5 L
12.5 -0.859 L
12.594 -0.734 12.594 -0.578 QT
12.594 -0.406 12.477 -0.289 QT
12.359 -0.172 12.203 -0.172 QT
12.047 -0.172 11.906 -0.328 QT
7.781 -4.438 L
3.641 -0.328 L
3.5 -0.172 3.344 -0.172 QT
3.172 -0.172 3.055 -0.305 QT
2.938 -0.438 2.938 -0.578 QT
cp
f
GR
GS
[0.75 0 0 0.74971 451.5 390.25143] CT
0.149 GC
/Helvetica 20 F
GS
[1 0 0 1 0 0] CT
0 0 moveto 
1 -1 scale
(10) t 
GR
GR
GS
[0.75 0 0 0.74971 468.75 382.75429] CT
0.149 GC
/Helvetica 16 F
GS
[1 0 0 1 0 0] CT
0 0 moveto 
1 -1 scale
(4) t 
GR
GR
GS
[0.75 0 0 0.74971 0 0.39999] CT
0.149 GC
2 setlinecap
1 LJ
0.667 LW
N
91 459 M
91 39 L
S
GR
GS
[0.75 0 0 0.74971 0 0.39999] CT
0.149 GC
2 setlinecap
1 LJ
0.667 LW
N
634 459 M
634 39 L
S
GR
GS
[0.75 0 0 0.74971 0 0.39999] CT
0.149 GC
2 setlinecap
1 LJ
0.667 LW
N
91 459 M
96.43 459 L
S
GR
GS
[0.75 0 0 0.74971 0 0.39999] CT
0.149 GC
2 setlinecap
1 LJ
0.667 LW
N
91 412.333 M
96.43 412.333 L
S
GR
GS
[0.75 0 0 0.74971 0 0.39999] CT
0.149 GC
2 setlinecap
1 LJ
0.667 LW
N
91 365.667 M
96.43 365.667 L
S
GR
GS
[0.75 0 0 0.74971 0 0.39999] CT
0.149 GC
2 setlinecap
1 LJ
0.667 LW
N
91 319 M
96.43 319 L
S
GR
GS
[0.75 0 0 0.74971 0 0.39999] CT
0.149 GC
2 setlinecap
1 LJ
0.667 LW
N
91 272.333 M
96.43 272.333 L
S
GR
GS
[0.75 0 0 0.74971 0 0.39999] CT
0.149 GC
2 setlinecap
1 LJ
0.667 LW
N
91 225.667 M
96.43 225.667 L
S
GR
GS
[0.75 0 0 0.74971 0 0.39999] CT
0.149 GC
2 setlinecap
1 LJ
0.667 LW
N
91 179 M
96.43 179 L
S
GR
GS
[0.75 0 0 0.74971 0 0.39999] CT
0.149 GC
2 setlinecap
1 LJ
0.667 LW
N
91 132.333 M
96.43 132.333 L
S
GR
GS
[0.75 0 0 0.74971 0 0.39999] CT
0.149 GC
2 setlinecap
1 LJ
0.667 LW
N
91 85.667 M
96.43 85.667 L
S
GR
GS
[0.75 0 0 0.74971 0 0.39999] CT
0.149 GC
2 setlinecap
1 LJ
0.667 LW
N
91 39 M
96.43 39 L
S
GR
GS
[0.75 0 0 0.74971 0 0.39999] CT
0.149 GC
2 setlinecap
1 LJ
0.667 LW
N
634 459 M
628.57 459 L
S
GR
GS
[0.75 0 0 0.74971 0 0.39999] CT
0.149 GC
2 setlinecap
1 LJ
0.667 LW
N
634 412.333 M
628.57 412.333 L
S
GR
GS
[0.75 0 0 0.74971 0 0.39999] CT
0.149 GC
2 setlinecap
1 LJ
0.667 LW
N
634 365.667 M
628.57 365.667 L
S
GR
GS
[0.75 0 0 0.74971 0 0.39999] CT
0.149 GC
2 setlinecap
1 LJ
0.667 LW
N
634 319 M
628.57 319 L
S
GR
GS
[0.75 0 0 0.74971 0 0.39999] CT
0.149 GC
2 setlinecap
1 LJ
0.667 LW
N
634 272.333 M
628.57 272.333 L
S
GR
GS
[0.75 0 0 0.74971 0 0.39999] CT
0.149 GC
2 setlinecap
1 LJ
0.667 LW
N
634 225.667 M
628.57 225.667 L
S
GR
GS
[0.75 0 0 0.74971 0 0.39999] CT
0.149 GC
2 setlinecap
1 LJ
0.667 LW
N
634 179 M
628.57 179 L
S
GR
GS
[0.75 0 0 0.74971 0 0.39999] CT
0.149 GC
2 setlinecap
1 LJ
0.667 LW
N
634 132.333 M
628.57 132.333 L
S
GR
GS
[0.75 0 0 0.74971 0 0.39999] CT
0.149 GC
2 setlinecap
1 LJ
0.667 LW
N
634 85.667 M
628.57 85.667 L
S
GR
GS
[0.75 0 0 0.74971 0 0.39999] CT
0.149 GC
2 setlinecap
1 LJ
0.667 LW
N
634 39 M
628.57 39 L
S
GR
GS
[0.75 0 0 0.74971 63.25 344.51886] CT
0.149 GC
/Helvetica 20 F
GS
[1 0 0 1 0 0] CT
-12 8 moveto 
1 -1 scale
(0) t 
GR
GR
GS
[0.75 0 0 0.74971 63.25 309.5322] CT
0.149 GC
/Helvetica 20 F
GS
[1 0 0 1 0 0] CT
-23 8 moveto 
1 -1 scale
(10) t 
GR
GR
GS
[0.75 0 0 0.74971 63.25 274.54551] CT
0.149 GC
/Helvetica 20 F
GS
[1 0 0 1 0 0] CT
-23 8 moveto 
1 -1 scale
(20) t 
GR
GR
GS
[0.75 0 0 0.74971 63.25 239.55885] CT
0.149 GC
/Helvetica 20 F
GS
[1 0 0 1 0 0] CT
-23 8 moveto 
1 -1 scale
(30) t 
GR
GR
GS
[0.75 0 0 0.74971 63.25 204.5722] CT
0.149 GC
/Helvetica 20 F
GS
[1 0 0 1 0 0] CT
-23 8 moveto 
1 -1 scale
(40) t 
GR
GR
GS
[0.75 0 0 0.74971 63.25 169.58552] CT
0.149 GC
/Helvetica 20 F
GS
[1 0 0 1 0 0] CT
-23 8 moveto 
1 -1 scale
(50) t 
GR
GR
GS
[0.75 0 0 0.74971 63.25 134.59885] CT
0.149 GC
/Helvetica 20 F
GS
[1 0 0 1 0 0] CT
-23 8 moveto 
1 -1 scale
(60) t 
GR
GR
GS
[0.75 0 0 0.74971 63.25 99.61218] CT
0.149 GC
/Helvetica 20 F
GS
[1 0 0 1 0 0] CT
-23 8 moveto 
1 -1 scale
(70) t 
GR
GR
GS
[0.75 0 0 0.74971 63.25 64.62552] CT
0.149 GC
/Helvetica 20 F
GS
[1 0 0 1 0 0] CT
-23 8 moveto 
1 -1 scale
(80) t 
GR
GR
GS
[0.75 0 0 0.74971 63.25 29.63885] CT
0.149 GC
/Helvetica 20 F
GS
[1 0 0 1 0 0] CT
-23 8 moveto 
1 -1 scale
(90) t 
GR
GR
GS
[0 -0.74971 0.75 0 43 187.07871] CT
0.149 GC
/Helvetica 22 F
GS
[1 0 0 1 0 0] CT
-50.5 -5 moveto 
1 -1 scale
(Difference) t 
GR
GR
GS
[0.75 0 0 0.74971 162.75 22.89142] CT
/Helvetica-Bold 22 F
GS
[1 0 0 1 0 0] CT
0 0 moveto 
1 -1 scale
(Norm 2 distance from ) t 
GR
GR
GS
[0.75 0 0 0.74971 337.5 22.89142] CT
N
3.547 0.25 M
2.547 0.25 1.945 -0.484 QT
1.344 -1.219 1.109 -2.25 QT
0.875 -3.281 0.875 -4.281 QT
0.875 -4.313 L
0.875 -5.406 1.086 -6.586 QT
1.297 -7.766 1.695 -8.945 QT
2.094 -10.125 2.563 -11.047 QT
2.875 -11.688 3.391 -12.484 QT
3.906 -13.281 4.531 -13.969 QT
5.156 -14.656 5.883 -15.086 QT
6.609 -15.516 7.344 -15.516 QT
7.375 -15.516 L
9.172 -15.516 9.703 -15.07 QT
10.234 -14.625 10.523 -13.938 QT
10.813 -13.25 10.938 -12.469 QT
11.063 -11.688 11.063 -10.984 QT
11.063 -9.313 10.609 -7.578 QT
10.156 -5.844 9.359 -4.219 QT
9.063 -3.609 8.531 -2.781 QT
8 -1.953 7.398 -1.297 QT
6.797 -0.641 6.055 -0.195 QT
5.313 0.25 3.563 0.25 QT
3.547 0.25 L
cp
3.594 -0.328 M
4.313 -0.328 4.984 -1.109 QT
5.656 -1.891 6.164 -3 QT
6.672 -4.109 7.055 -5.281 QT
7.438 -6.453 7.609 -7.266 QT
4.125 -7.266 L
3.781 -5.875 3.586 -4.875 QT
3.391 -3.875 3.391 -2.906 QT
3.391 -0.328 3.594 -0.328 QT
cp
4.297 -8.031 M
7.813 -8.031 L
8.047 -9 8.188 -9.648 QT
8.328 -10.297 8.422 -11.016 QT
8.516 -11.734 8.516 -12.359 QT
8.516 -14.938 7.344 -14.938 QT
6.953 -14.938 5.938 -12.688 QT
4.922 -10.438 4.297 -8.031 QT
cp
f
GR
GS
[0.75 0 0 0.74971 346.5 22.89142] CT
/Helvetica-Bold 22 F
GS
[1 0 0 1 0 0] CT
0 0 moveto 
1 -1 scale
( to 0) t 
GR
GR
GS
[0.75 0 0 0.74971 0 0.39999] CT
0 0.447 0.741 RC
1 LJ
2.667 LW
N
91.005 458.533 M
91.233 453.735 L
91.331 453.735 L
91.337 453.735 L
91.999 448.14 L
92.005 448.087 L
92.662 442.618 L
92.667 442.618 L
93.324 439.477 L
93.329 439.477 L
93.335 439.477 L
93.987 436.353 L
93.997 436.353 L
94.003 436.353 L
94.665 432.638 L
94.671 432.185 L
95.317 429.216 L
95.333 429.216 L
95.339 429.215 L
95.974 426.421 L
95.996 426.421 L
96.001 426.421 L
96.023 426.421 L
96.663 423.977 L
96.669 423.977 L
96.68 423.977 L
97.331 420.687 L
97.337 420.687 L
97.994 417.639 L
97.999 417.639 L
98.005 417.639 L
98.662 415.404 L
98.667 415.404 L
99.33 413.392 L
99.335 413.392 L
99.981 411.391 L
99.998 411.391 L
100.003 411.391 L
100.665 408.178 L
100.671 407.934 L
101.333 406.663 L
101.339 406.659 L
101.35 406.659 L
101.996 403.881 L
102.001 403.879 L
102.664 402.493 L
102.669 402.492 L
103.332 400.801 L
103.337 400.801 L
103.999 397.861 L
104.005 397.859 L
104.651 395.692 L
104.662 395.692 L
104.667 395.692 L
105.33 393.626 L
105.335 393.626 L
105.998 392.096 L
106.003 392.061 L
106.666 389.771 L
106.671 389.771 L
107.328 387.589 L
107.333 387.589 L
107.985 384.872 L
107.996 384.872 L
108.001 384.871 L
108.664 382.874 L
108.669 382.874 L
109.332 381.058 L
109.337 381.058 L
109.994 378.875 L
110 378.877 L
110.005 378.877 L
110.662 376.296 L
110.667 376.296 L
110.673 376.296 L
111.33 374.004 L
111.335 374.004 L
111.998 372.594 L
112.003 372.596 L
112.025 372.596 L
112.666 370.925 L
112.671 370.92 L
113.328 368.771 L
113.334 368.771 L
113.985 366.587 L
113.996 366.591 L
114.001 366.59 L
114.664 364.67 L
114.669 364.67 L
115.332 363.381 L
115.337 363.381 L
116 361.407 L
116.005 361.407 L
116.021 361.432 L
116.662 360.153 L
116.668 360.146 L
117.33 358.48 L
117.336 358.475 L
117.998 356.434 L
118.003 356.433 L
118.014 356.434 L
118.666 354.359 L
118.671 354.337 L
119.307 351.485 L
119.328 351.542 L
119.334 351.541 L
119.996 349.723 L
120.002 349.723 L
120.664 348.221 L
120.67 348.22 L
121.332 346.581 L
121.337 346.436 L
122 344.715 L
122.005 344.568 L
122.662 342.341 L
122.668 342.341 L
123.33 340.262 L
123.336 340.262 L
123.998 338.666 L
124.004 338.666 L
124.666 337.06 L
124.671 337.059 L
125.328 335.874 L
125.334 335.754 L
125.996 334.266 L
126.002 334.266 L
126.664 331.582 L
126.67 331.582 L
127.332 330.261 L
127.338 330.261 L
127.995 329.122 L
128 329.121 L
128.662 326.824 L
128.668 326.824 L
128.684 326.825 L
129.325 324.485 L
129.33 324.485 L
129.336 324.478 L
129.998 323.525 L
130.004 323.524 L
130.661 321.877 L
130.666 321.877 L
130.672 321.757 L
131.329 319.485 L
131.334 319.485 L
131.997 317.611 L
132.002 317.588 L
132.664 316.181 L
132.67 316.18 L
133.332 314.456 L
133.338 314.456 L
133.995 312.726 L
134 312.726 L
134.663 311.119 L
134.668 311.118 L
135.331 309.115 L
135.336 309.114 L
135.998 307.02 L
136.004 306.998 L
136.666 305.122 L
136.672 305.122 L
137.329 303.589 L
137.334 303.589 L
137.997 301.882 L
138.002 301.863 L
138.665 300.419 L
138.67 300.419 L
139.327 298.837 L
139.332 298.837 L
139.338 298.837 L
139.343 298.837 L
139.995 296.59 L
140 296.487 L
140.663 295.385 L
140.668 295.385 L
141.331 293.575 L
141.336 293.554 L
141.999 292.065 L
142.004 292.047 L
142.666 290.368 L
142.672 290.288 L
143.329 289.105 L
143.334 289.098 L
143.997 288.081 L
144.002 288.081 L
144.665 286.58 L
144.67 286.58 L
145.333 285 L
145.338 284.99 L
145.995 283.4 L
146 283.303 L
146.663 281.487 L
146.668 281.485 L
147.331 280.36 L
147.336 280.363 L
147.999 278.879 L
148.004 278.879 L
148.667 277.772 L
148.672 277.768 L
149.329 276.727 L
149.334 276.727 L
149.997 275.002 L
150.002 275.002 L
150.665 273.58 L
150.67 273.578 L
151.333 272.264 L
151.338 272.264 L
151.995 270.819 L
152.001 270.819 L
152.663 269.883 L
152.669 269.883 L
153.331 268.416 L
153.336 268.416 L
153.999 266.195 L
154.004 266.193 L
154.661 265.196 L
154.667 265.18 L
155.329 263.773 L
155.335 263.773 L
155.965 262.137 L
155.997 262.139 L
156.003 262.122 L
156.665 261.102 L
156.67 261.095 L
157.333 260 L
157.338 259.997 L
157.995 258.422 L
158.001 258.422 L
158.663 257.192 L
158.669 257.192 L
159.331 255.965 L
159.337 255.974 L
159.999 254.666 L
160.004 254.666 L
160.661 253.455 L
160.667 253.458 L
161.329 251.917 L
161.335 251.917 L
161.997 250.716 L
162.003 250.716 L
162.014 250.718 L
162.665 249.79 L
162.671 249.786 L
163.333 248.231 L
163.338 248.231 L
163.995 246.829 L
164.001 246.773 L
164.663 245.529 L
164.669 245.529 L
164.674 245.529 L
165.326 244.268 L
165.331 244.268 L
165.337 244.268 L
165.994 243.15 L
165.999 243.15 L
166.005 243.135 L
166.662 241.832 L
166.667 241.819 L
167.33 240.395 L
167.335 240.386 L
167.997 239.481 L
168.003 239.481 L
168.008 239.481 L
168.665 238.196 L
168.671 238.186 L
169.333 237.356 L
169.339 237.356 L
169.344 237.356 L
169.996 236.182 L
170.001 236.182 L
170.664 234.936 L
170.669 234.936 L
171.331 233.932 L
171.337 233.931 L
171.999 233.11 L
172.005 233.108 L
172.662 232.41 L
172.667 232.334 L
173.33 231.502 L
173.335 231.444 L
173.346 231.445 L
173.998 230.567 L
174.003 230.559 L
174.665 229.589 L
174.671 229.589 L
174.682 229.635 L
175.333 228.678 L
175.339 228.638 L
175.996 227.174 L
176.001 227.173 L
176.664 225.808 L
176.669 225.808 L
177.332 224.631 L
177.337 224.629 L
177.342 224.631 L
177.999 223.886 L
178.005 223.885 L
178.662 223.122 L
178.667 223.114 L
179.314 221.789 L
179.33 221.792 L
179.335 221.786 L
179.998 220.519 L
180.003 220.519 L
180.009 220.523 L
180.666 219.955 L
180.671 219.953 L
181.328 218.772 L
181.333 218.772 L
181.339 218.772 L
181.996 217.528 L
182.001 217.461 L
182.007 217.502 L
182.664 216.623 L
182.669 216.621 L
183.332 215.687 L
183.337 215.686 L
184 214.585 L
184.005 214.529 L
184.662 214.054 L
184.667 214.054 L
185.33 213.455 L
185.335 213.451 L
185.998 212.703 L
186.003 212.703 L
186.66 211.723 L
186.666 211.723 L
186.671 211.659 L
186.687 211.659 L
187.317 210.768 L
187.328 210.779 L
187.334 210.767 L
187.996 209.881 L
188.002 209.88 L
188.659 209.14 L
188.664 209.14 L
188.669 209.081 L
189.332 208.285 L
189.337 208.222 L
189.994 207.389 L
190 207.399 L
190.005 207.34 L
190.662 206.523 L
190.668 206.515 L
191.33 205.497 L
191.336 205.495 L
191.998 204.526 L
192.003 204.525 L
192.666 203.433 L
192.671 203.429 L
193.328 202.558 L
193.334 202.562 L
193.996 201.536 L
194.002 201.535 L
194.664 200.72 L
194.67 200.71 L
195.332 199.916 L
195.337 199.911 L
196 199.058 L
196.005 199.003 L
196.662 198.12 L
196.668 198.119 L
197.33 197.16 L
197.336 197.159 L
197.352 197.159 L
197.998 196.162 L
198.004 196.161 L
198.666 195.522 L
198.671 195.52 L
199.329 194.734 L
199.334 194.733 L
199.996 194.002 L
200.002 194.002 L
200.664 193.295 L
200.67 193.294 L
201.332 192.245 L
201.338 192.236 L
201.995 191.544 L
202 191.49 L
202.663 190.782 L
202.668 190.782 L
203.32 190.233 L
203.33 190.235 L
203.336 190.231 L
203.998 189.259 L
204.004 189.259 L
204.666 188.488 L
204.672 188.488 L
205.329 187.856 L
205.334 187.856 L
205.997 187.043 L
206.002 187.042 L
206.664 186.264 L
206.67 186.263 L
206.675 186.263 L
207.332 185.667 L
207.338 185.666 L
207.995 184.788 L
208 184.787 L
208.663 184.016 L
208.668 184.016 L
209.331 183.491 L
209.336 183.485 L
209.988 182.722 L
209.998 182.727 L
210.004 182.726 L
210.666 182.102 L
210.672 182.099 L
210.737 182.107 L
211.329 181.454 L
211.334 181.45 L
211.997 180.741 L
212.002 180.733 L
212.665 179.906 L
212.67 179.901 L
212.697 179.903 L
213.332 179.301 L
213.338 179.295 L
213.995 178.541 L
214 178.541 L
214.663 177.695 L
214.668 177.683 L
215.309 176.957 L
215.331 176.98 L
215.336 176.98 L
215.999 175.957 L
216.004 175.957 L
216.037 175.975 L
216.666 175.562 L
216.672 175.561 L
217.329 174.879 L
217.334 174.878 L
217.997 174.212 L
218.002 174.21 L
218.654 173.517 L
218.665 173.529 L
218.67 173.529 L
218.752 173.581 L
219.333 172.776 L
219.338 172.769 L
219.99 172.002 L
219.995 172.003 L
220.001 171.997 L
220.636 171.435 L
220.663 171.458 L
220.668 171.458 L
221.331 171.016 L
221.336 171.009 L
221.999 170.299 L
222.004 170.297 L
222.667 169.836 L
222.672 169.835 L
223.329 169.267 L
223.335 169.263 L
223.34 169.263 L
223.997 168.703 L
224.002 168.662 L
224.654 168.038 L
224.665 168.11 L
224.67 168.064 L
225.327 167.653 L
225.333 167.665 L
225.338 167.655 L
225.995 166.671 L
226.001 166.663 L
226.663 166.072 L
226.669 166.015 L
227.195 165.567 L
227.331 165.569 L
227.336 165.568 L
227.999 165.032 L
228.004 165.031 L
228.656 164.544 L
228.661 164.544 L
228.667 164.54 L
229.318 163.93 L
229.329 163.93 L
229.335 163.928 L
229.997 163.376 L
230.003 163.376 L
230.665 162.745 L
230.67 162.735 L
231.333 162.089 L
231.338 162.088 L
231.995 161.496 L
232.001 161.49 L
232.663 160.767 L
232.669 160.783 L
233.331 160.157 L
233.337 160.148 L
233.999 159.533 L
234.004 159.532 L
234.662 158.599 L
234.667 158.594 L
235.329 158.089 L
235.335 158.088 L
235.997 157.512 L
236.003 157.511 L
236.654 157.009 L
236.665 157.009 L
236.671 157.003 L
236.676 157.011 L
237.333 156.595 L
237.339 156.593 L
237.996 156.045 L
238.001 156.041 L
238.663 155.424 L
238.669 155.385 L
239.331 154.752 L
239.337 154.75 L
239.386 154.75 L
239.977 154.359 L
239.999 154.389 L
240.005 154.336 L
240.662 153.878 L
240.667 153.878 L
241.297 153.224 L
241.33 153.224 L
241.335 153.207 L
241.997 152.727 L
242.003 152.726 L
242.665 152.104 L
242.671 152.097 L
243.333 151.462 L
243.339 151.405 L
243.366 151.413 L
243.996 150.888 L
244.001 150.882 L
244.664 150.573 L
244.669 150.572 L
245.331 150.026 L
245.337 150.017 L
245.999 149.569 L
246.005 149.568 L
246.662 149.053 L
246.667 149.053 L
246.689 149.056 L
247.303 148.462 L
247.33 148.503 L
247.335 148.498 L
247.998 148.007 L
248.003 148 L
248.665 147.394 L
248.671 147.391 L
249.328 146.935 L
249.333 146.931 L
249.996 146.39 L
250.001 146.388 L
250.664 145.751 L
250.669 145.747 L
251.332 145.143 L
251.337 145.135 L
251.999 144.55 L
252.005 144.542 L
252.64 144.134 L
252.662 144.151 L
252.667 144.15 L
253.33 143.48 L
253.335 143.478 L
253.992 142.993 L
253.998 142.996 L
254.003 142.993 L
254.666 142.387 L
254.671 142.387 L
255.328 141.901 L
255.334 141.898 L
255.996 141.432 L
256.001 141.432 L
256.664 140.867 L
256.669 140.867 L
257.326 140.39 L
257.332 140.391 L
257.337 140.389 L
258 139.932 L
258.005 139.926 L
258.662 139.586 L
258.668 139.581 L
259.33 139.172 L
259.335 139.166 L
259.922 138.835 L
259.998 138.836 L
260.003 138.832 L
260.085 138.842 L
260.611 138.471 L
260.666 138.481 L
260.671 138.472 L
260.72 138.526 L
261.328 138.197 L
261.334 138.196 L
261.991 137.833 L
261.996 137.834 L
262.002 137.85 L
262.664 137.328 L
262.669 137.327 L
263.332 136.944 L
263.337 136.944 L
264 136.422 L
264.005 136.415 L
264.662 135.987 L
264.668 135.985 L
265.33 135.554 L
265.336 135.554 L
265.998 135.141 L
266.003 135.14 L
266.666 134.821 L
266.671 134.821 L
267.328 134.426 L
267.334 134.425 L
267.991 133.975 L
267.996 133.977 L
268.002 133.977 L
268.659 133.481 L
268.664 133.481 L
268.67 133.48 L
269.332 133.019 L
269.337 133.011 L
269.995 132.459 L
270 132.459 L
270.005 132.458 L
270.157 132.485 L
270.662 132.118 L
270.668 132.115 L
271.33 131.547 L
271.336 131.54 L
271.363 131.543 L
271.998 131.175 L
272.004 131.159 L
272.661 130.705 L
272.666 130.705 L
272.672 130.705 L
272.699 130.71 L
273.329 130.205 L
273.334 130.184 L
273.996 129.695 L
274.002 129.694 L
274.007 129.702 L
274.659 129.21 L
274.664 129.211 L
274.67 129.202 L
275.332 128.735 L
275.338 128.734 L
275.995 128.36 L
276 128.343 L
276.663 127.854 L
276.668 127.819 L
277.33 127.399 L
277.336 127.396 L
277.998 127.038 L
278.004 127.031 L
278.661 126.75 L
278.666 126.75 L
278.672 126.748 L
279.307 126.305 L
279.329 126.308 L
279.334 126.307 L
279.997 126.034 L
280.002 126.027 L
280.664 125.655 L
280.67 125.654 L
281.316 125.25 L
281.332 125.254 L
281.338 125.247 L
281.995 124.995 L
282 124.994 L
282.663 124.627 L
282.668 124.625 L
282.777 124.661 L
283.331 124.404 L
283.336 124.402 L
283.999 124.089 L
284.004 124.087 L
284.656 123.639 L
284.666 123.646 L
284.672 123.624 L
285.329 123.326 L
285.334 123.29 L
285.997 122.933 L
286.002 122.93 L
286.056 122.95 L
286.665 122.655 L
286.67 122.654 L
287.305 122.314 L
287.333 122.32 L
287.338 122.32 L
287.995 121.868 L
288 121.867 L
288.663 121.382 L
288.668 121.377 L
289.331 120.913 L
289.336 120.913 L
289.999 120.599 L
290.004 120.594 L
290.661 120.25 L
290.667 120.253 L
290.672 120.25 L
290.759 120.27 L
291.329 119.919 L
291.334 119.919 L
291.356 119.994 L
291.997 119.642 L
292.002 119.64 L
292.659 119.3 L
292.665 119.303 L
292.67 119.296 L
292.697 119.33 L
293.333 118.791 L
293.338 118.786 L
293.382 118.795 L
293.995 118.507 L
294.001 118.506 L
294.663 118.187 L
294.668 118.186 L
295.331 117.875 L
295.336 117.869 L
295.999 117.554 L
296.004 117.553 L
296.232 117.6 L
296.656 117.356 L
296.661 117.361 L
296.667 117.357 L
297.329 117.064 L
297.335 117.064 L
297.345 117.065 L
297.997 116.677 L
298.002 116.675 L
298.632 116.391 L
298.665 116.396 L
298.67 116.38 L
298.676 116.381 L
299.23 116.112 L
299.333 116.14 L
299.338 116.14 L
299.995 115.838 L
300.001 115.838 L
300.663 115.509 L
300.669 115.508 L
301.331 115.082 L
301.336 115.082 L
301.999 114.69 L
302.004 114.684 L
302.021 114.686 L
302.661 114.385 L
302.667 114.384 L
302.705 114.42 L
303.329 114.066 L
303.335 114.063 L
303.997 113.745 L
304.003 113.742 L
304.008 113.742 L
304.665 113.418 L
304.671 113.41 L
305.333 113.049 L
305.338 113.049 L
305.995 112.814 L
306.001 112.814 L
306.006 112.816 L
306.663 112.461 L
306.669 112.46 L
307.331 112.304 L
307.337 112.306 L
307.396 112.313 L
307.999 111.981 L
308.005 111.98 L
308.662 111.739 L
308.667 111.738 L
309.329 111.44 L
309.335 111.44 L
309.997 111.054 L
310.003 111.03 L
310.03 111.109 L
310.643 110.707 L
310.665 110.716 L
310.671 110.716 L
311.333 110.302 L
311.339 110.302 L
311.996 109.883 L
312.001 109.882 L
312.663 109.637 L
312.669 109.626 L
312.799 109.67 L
313.331 109.431 L
313.337 109.43 L
313.348 109.432 L
313.999 109.041 L
314.005 109.041 L
314.662 108.81 L
314.667 108.81 L
314.673 108.81 L
315.292 108.508 L
315.33 108.511 L
315.335 108.511 L
315.997 108.264 L
316.003 108.265 L
316.008 108.269 L
316.665 107.889 L
316.671 107.889 L
317.333 107.552 L
317.339 107.55 L
317.996 107.375 L
318.001 107.375 L
318.642 107.123 L
318.664 107.129 L
318.669 107.127 L
319.266 106.905 L
319.332 106.908 L
319.337 106.907 L
319.999 106.636 L
320.005 106.631 L
320.662 106.339 L
320.667 106.339 L
320.716 106.345 L
321.33 106.132 L
321.335 106.129 L
321.341 106.131 L
321.998 105.829 L
322.003 105.827 L
322.161 105.886 L
322.666 105.689 L
322.671 105.688 L
323.219 105.472 L
323.328 105.488 L
323.333 105.487 L
323.996 105.355 L
324.001 105.355 L
324.664 105.135 L
324.669 105.129 L
324.675 105.13 L
325.332 104.879 L
325.337 104.875 L
326 104.641 L
326.005 104.648 L
326.32 104.55 L
326.662 104.582 L
326.667 104.581 L
326.673 104.581 L
327.33 104.383 L
327.335 104.377 L
327.987 104.062 L
327.998 104.062 L
328.003 104.061 L
328.009 104.062 L
328.666 103.884 L
328.671 103.883 L
329.328 103.685 L
329.334 103.686 L
329.393 103.725 L
329.969 103.476 L
329.996 103.498 L
330.001 103.498 L
330.658 103.274 L
330.664 103.28 L
330.669 103.276 L
331.332 103.044 L
331.337 103.044 L
332 102.903 L
332.005 102.902 L
332.613 102.597 L
332.662 102.598 L
332.668 102.591 L
333.33 102.412 L
333.335 102.408 L
333.373 102.412 L
333.982 102.181 L
333.998 102.182 L
334.003 102.182 L
334.65 101.969 L
334.666 101.975 L
334.671 101.974 L
334.916 101.857 L
335.328 101.865 L
335.334 101.862 L
335.66 101.663 L
335.996 101.698 L
336.002 101.71 L
336.664 101.531 L
336.669 101.532 L
337.332 101.343 L
337.337 101.34 L
337.354 101.341 L
338 101.065 L
338.005 101.064 L
338.662 100.831 L
338.668 100.83 L
339.276 100.561 L
339.33 100.568 L
339.336 100.568 L
339.976 100.524 L
339.998 100.524 L
340.004 100.514 L
340.65 100.263 L
340.666 100.266 L
340.671 100.266 L
341.328 100.063 L
341.334 100.063 L
341.996 99.893 L
342.002 99.888 L
342.664 99.729 L
342.67 99.728 L
342.773 99.73 L
343.332 99.467 L
343.338 99.467 L
344 99.21 L
344.005 99.21 L
344.011 99.213 L
344.662 99.001 L
344.668 99.001 L
345.276 98.797 L
345.33 98.832 L
345.336 98.831 L
345.672 98.773 L
345.868 98.859 L
345.998 98.796 L
346.004 98.796 L
346.226 98.852 L
346.547 98.665 L
346.666 98.688 L
346.672 98.688 L
346.758 98.692 L
347.329 98.473 L
347.334 98.468 L
347.986 98.355 L
347.996 98.355 L
348.002 98.355 L
348.659 98.123 L
348.664 98.123 L
348.67 98.119 L
348.773 98.196 L
349.332 98.028 L
349.338 98.028 L
349.522 98.032 L
349.962 97.876 L
349.995 97.94 L
350 97.941 L
350.038 97.944 L
350.663 97.711 L
350.668 97.711 L
350.679 97.715 L
351.33 97.413 L
351.336 97.41 L
351.998 97.278 L
352.004 97.275 L
352.666 97.091 L
352.672 97.091 L
352.683 97.095 L
353.296 96.864 L
353.329 96.872 L
353.334 96.871 L
353.774 96.889 L
353.997 96.798 L
354.002 96.797 L
354.007 96.804 L
354.637 96.543 L
354.665 96.555 L
354.67 96.555 L
354.681 96.562 L
355.332 96.389 L
355.338 96.388 L
355.343 96.389 L
355.995 96.238 L
356 96.237 L
356.603 96.115 L
356.663 96.14 L
356.668 96.139 L
356.69 96.229 L
357.331 95.967 L
357.336 95.967 L
357.999 95.786 L
358.004 95.786 L
358.341 95.724 L
358.536 95.847 L
358.666 95.766 L
358.672 95.765 L
358.677 95.767 L
359.285 95.675 L
359.329 95.698 L
359.334 95.699 L
359.997 95.488 L
360.002 95.482 L
360.659 95.211 L
360.665 95.212 L
360.67 95.21 L
361.333 94.985 L
361.338 94.986 L
361.36 94.992 L
361.99 94.679 L
361.995 94.679 L
362 94.679 L
362.315 94.637 L
362.565 94.742 L
362.663 94.733 L
362.668 94.732 L
363.304 94.581 L
363.331 94.682 L
363.336 94.676 L
363.624 94.562 L
363.999 94.57 L
364.004 94.569 L
364.02 94.572 L
364.667 94.335 L
364.672 94.335 L
365.329 94.201 L
365.334 94.2 L
365.915 94.039 L
365.997 94.099 L
366.002 94.099 L
366.551 93.949 L
366.665 93.981 L
366.67 93.981 L
366.676 93.981 L
367.333 93.755 L
367.338 93.755 L
367.354 93.76 L
367.995 93.635 L
368.001 93.634 L
368.06 93.643 L
368.663 93.471 L
368.668 93.47 L
369.331 93.116 L
369.336 93.116 L
369.983 92.942 L
369.999 92.948 L
370.004 92.948 L
370.661 92.806 L
370.667 92.803 L
371.318 92.553 L
371.329 92.553 L
371.335 92.552 L
371.427 92.556 L
371.997 92.37 L
372.003 92.369 L
372.66 92.09 L
372.665 92.09 L
372.67 92.09 L
372.741 92.101 L
373.333 91.928 L
373.338 91.927 L
373.349 91.927 L
373.99 91.688 L
373.995 91.688 L
374.001 91.688 L
374.305 91.612 L
374.381 91.72 L
374.663 91.658 L
374.669 91.667 L
375.304 91.531 L
375.331 91.536 L
375.337 91.537 L
375.347 91.537 L
375.988 91.345 L
375.999 91.346 L
376.004 91.343 L
376.048 91.343 L
376.493 91.248 L
376.661 91.281 L
376.667 91.28 L
376.705 91.29 L
377.329 91.154 L
377.335 91.152 L
377.378 91.18 L
377.97 90.931 L
377.997 90.956 L
378.003 90.961 L
378.133 91.025 L
378.665 90.926 L
378.671 90.926 L
379.333 90.691 L
379.338 90.692 L
379.995 90.489 L
380.001 90.518 L
380.262 90.52 L
380.663 90.319 L
380.669 90.319 L
380.701 90.324 L
381.195 90.234 L
381.331 90.264 L
381.337 90.263 L
381.972 90.132 L
381.999 90.139 L
382.005 90.167 L
382.021 90.18 L
382.607 90.025 L
382.662 90.026 L
382.667 90.026 L
382.689 90.051 L
383.324 89.934 L
383.329 89.935 L
383.335 89.929 L
383.997 89.775 L
384.003 89.775 L
384.041 89.775 L
384.665 89.674 L
384.671 89.674 L
384.682 89.674 L
385.328 89.557 L
385.333 89.558 L
385.339 89.556 L
385.996 89.275 L
386.001 89.274 L
386.468 89.172 L
386.664 89.181 L
386.669 89.181 L
387.326 89.088 L
387.331 89.089 L
387.337 89.088 L
387.429 89.1 L
387.999 88.979 L
388.005 88.979 L
388.021 88.983 L
388.662 88.864 L
388.667 88.862 L
388.716 88.853 L
389.324 89.07 L
389.33 89.065 L
389.335 89.064 L
389.362 89.071 L
389.998 88.937 L
390.003 88.937 L
390.057 88.941 L
390.665 88.787 L
390.671 88.786 L
391.04 88.814 L
391.333 88.653 L
391.339 88.651 L
391.648 88.67 L
391.996 88.571 L
392.001 88.572 L
392.072 88.595 L
392.446 88.537 L
392.664 88.551 L
392.669 88.55 L
392.843 88.557 L
393.332 88.431 L
393.337 88.431 L
393.348 88.434 L
393.815 88.293 L
393.999 88.317 L
394.005 88.317 L
394.255 88.33 L
394.613 88.16 L
394.662 88.185 L
394.667 88.185 L
394.727 88.176 L
394.809 88.282 L
395.33 88.244 L
395.335 88.244 L
395.422 88.249 L
395.965 88.127 L
395.998 88.129 L
396.003 88.129 L
396.666 87.906 L
396.671 87.906 L
396.676 87.906 L
397.328 87.743 L
397.333 87.743 L
397.355 87.743 L
397.996 87.551 L
398.001 87.546 L
398.664 87.402 L
398.669 87.402 L
399.332 87.247 L
399.337 87.247 L
399.364 87.248 L
399.489 87.195 L
400 87.21 L
400.005 87.209 L
400.081 87.219 L
400.526 87.136 L
400.662 87.138 L
400.667 87.139 L
401.33 86.898 L
401.335 86.89 L
401.417 86.896 L
401.998 86.83 L
402.003 86.829 L
402.666 86.643 L
402.671 86.643 L
402.959 86.652 L
403.306 86.448 L
403.328 86.448 L
403.334 86.446 L
403.649 86.558 L
403.996 86.431 L
404.001 86.431 L
404.202 86.336 L
404.664 86.356 L
404.669 86.353 L
405.158 86.288 L
405.332 86.303 L
405.337 86.3 L
406 86.174 L
406.005 86.174 L
406.657 85.991 L
406.662 86 L
406.668 86.009 L
406.673 86.009 L
407.33 85.947 L
407.336 85.947 L
407.569 85.971 L
407.998 85.803 L
408.003 85.803 L
408.644 85.707 L
408.666 85.712 L
408.671 85.712 L
408.992 85.54 L
409.328 85.558 L
409.334 85.557 L
409.6 85.499 L
409.974 85.668 L
409.996 85.664 L
410.002 85.664 L
410.219 85.704 L
410.653 85.58 L
410.664 85.583 L
410.67 85.582 L
411.012 85.55 L
411.316 85.731 L
411.332 85.727 L
411.337 85.729 L
411.571 85.703 L
411.739 85.833 L
412 85.773 L
412.005 85.773 L
412.076 85.775 L
412.548 85.702 L
412.662 85.709 L
412.668 85.709 L
412.977 85.689 L
413.216 85.809 L
413.33 85.728 L
413.336 85.728 L
413.357 85.731 L
413.83 85.608 L
413.998 85.646 L
414.004 85.643 L
414.194 85.546 L
414.427 85.655 L
414.666 85.604 L
414.671 85.604 L
415.22 85.52 L
415.328 85.541 L
415.334 85.497 L
415.627 85.502 L
415.98 85.398 L
415.996 85.401 L
416.002 85.401 L
416.664 85.295 L
416.67 85.295 L
416.773 85.299 L
417.332 85.209 L
417.338 85.208 L
417.408 85.217 L
417.989 85.076 L
417.995 85.076 L
418 85.08 L
418.304 85.103 L
418.662 85.015 L
418.668 85.017 L
418.722 85.028 L
419.33 84.881 L
419.336 84.88 L
419.803 84.823 L
419.911 84.982 L
419.998 84.913 L
420.004 84.912 L
420.118 85.003 L
420.666 84.838 L
420.672 84.838 L
421.187 84.788 L
421.329 84.827 L
421.334 84.825 L
421.997 84.689 L
422.002 84.688 L
422.387 84.555 L
422.664 84.59 L
422.67 84.585 L
423.332 84.382 L
423.338 84.382 L
423.647 84.341 L
423.745 84.431 L
423.995 84.361 L
424 84.358 L
424.103 84.284 L
424.147 84.427 L
424.663 84.375 L
424.668 84.375 L
425.331 84.173 L
425.336 84.169 L
425.998 84.033 L
426.004 84.033 L
426.275 83.961 L
426.493 84.071 L
426.666 84 L
426.672 83.999 L
426.677 84.003 L
427.318 83.775 L
427.329 83.775 L
427.334 83.775 L
427.964 83.669 L
427.997 83.675 L
428.002 83.674 L
428.127 83.685 L
428.648 83.602 L
428.665 83.606 L
428.67 83.604 L
428.681 83.607 L
429.322 83.471 L
429.332 83.492 L
429.338 83.492 L
429.995 83.327 L
430 83.326 L
430.256 83.232 L
430.663 83.277 L
430.668 83.277 L
430.679 83.279 L
431.157 83.12 L
431.331 83.136 L
431.336 83.135 L
431.999 83.009 L
432.004 83.009 L
432.02 83.009 L
432.656 82.873 L
432.666 82.875 L
432.672 82.871 L
432.764 82.886 L
433.313 82.778 L
433.329 82.786 L
433.334 82.785 L
433.758 82.656 L
433.997 82.662 L
434.002 82.663 L
434.111 82.63 L
434.529 82.693 L
434.665 82.662 L
434.67 82.665 L
435.235 82.557 L
435.333 82.67 L
435.338 82.67 L
435.908 82.558 L
435.995 82.57 L
436 82.568 L
436.663 82.527 L
436.668 82.527 L
437.266 82.453 L
437.331 82.459 L
437.336 82.461 L
437.429 82.465 L
437.999 82.37 L
438.004 82.37 L
438.194 82.334 L
438.406 82.467 L
438.667 82.454 L
438.672 82.454 L
438.922 82.411 L
438.927 82.503 L
439.329 82.454 L
439.335 82.451 L
439.986 82.316 L
439.997 82.352 L
440.002 82.351 L
440.122 82.314 L
440.187 82.41 L
440.665 82.394 L
440.67 82.394 L
441.333 82.257 L
441.338 82.257 L
441.995 82.074 L
442.001 82.074 L
442.511 82.008 L
442.663 82.022 L
442.669 82.022 L
442.685 82.042 L
443.271 81.898 L
443.331 81.964 L
443.336 81.964 L
443.358 81.965 L
443.999 81.846 L
444.004 81.845 L
444.037 81.841 L
444.042 81.902 L
444.661 81.881 L
444.667 81.875 L
445.329 81.75 L
445.335 81.749 L
445.943 81.624 L
445.997 81.624 L
446.003 81.623 L
446.182 81.625 L
446.632 81.412 L
446.665 81.433 L
446.67 81.433 L
446.719 81.449 L
447.23 81.277 L
447.333 81.303 L
447.338 81.303 L
447.995 81.173 L
448.001 81.172 L
448.522 81.143 L
448.663 81.167 L
448.669 81.166 L
448.728 81.153 L
448.821 81.24 L
449.331 81.225 L
449.337 81.225 L
449.896 81.184 L
449.972 81.286 L
449.999 81.28 L
450.004 81.28 L
450.645 81.238 L
450.661 81.256 L
450.667 81.254 L
450.868 81.276 L
451.329 81.136 L
451.335 81.136 L
451.351 81.136 L
451.997 81.07 L
452.003 81.07 L
452.519 80.967 L
452.665 81.023 L
452.671 81.017 L
452.785 81.04 L
453.333 80.88 L
453.338 80.883 L
453.349 80.884 L
453.963 80.743 L
453.996 80.751 L
454.001 80.751 L
454.663 80.667 L
454.669 80.667 L
454.701 80.668 L
455.179 80.506 L
455.331 80.513 L
455.337 80.513 L
455.375 80.51 L
455.614 80.621 L
455.999 80.562 L
456.005 80.562 L
456.358 80.469 L
456.396 80.566 L
456.662 80.525 L
456.667 80.525 L
456.672 80.554 L
457.221 80.405 L
457.33 80.431 L
457.335 80.43 L
457.373 80.438 L
457.737 80.336 L
457.997 80.349 L
458.003 80.348 L
458.014 80.351 L
458.551 80.054 L
458.665 80.075 L
458.671 80.075 L
458.703 80.109 L
459.333 79.991 L
459.339 79.991 L
459.355 79.993 L
459.99 79.834 L
459.996 79.834 L
460.001 79.834 L
460.017 79.837 L
460.664 79.726 L
460.669 79.768 L
460.685 79.835 L
461.185 79.604 L
461.331 79.685 L
461.337 79.686 L
461.576 79.66 L
461.744 79.74 L
461.999 79.728 L
462.005 79.727 L
462.559 79.611 L
462.662 79.617 L
462.667 79.611 L
462.912 79.63 L
463.264 79.518 L
463.33 79.522 L
463.335 79.523 L
463.558 79.556 L
463.998 79.505 L
464.003 79.498 L
464.008 79.498 L
464.448 79.588 L
464.665 79.555 L
464.671 79.555 L
464.763 79.572 L
465.328 79.488 L
465.333 79.487 L
465.719 79.495 L
465.969 79.378 L
465.996 79.38 L
466.001 79.38 L
466.365 79.366 L
466.658 79.451 L
466.664 79.449 L
466.669 79.449 L
466.957 79.459 L
467.332 79.399 L
467.337 79.4 L
467.353 79.411 L
467.994 79.348 L
467.999 79.348 L
468.005 79.351 L
468.13 79.374 L
468.651 79.285 L
468.662 79.285 L
468.667 79.284 L
468.841 79.3 L
469.248 79.208 L
469.33 79.21 L
469.335 79.21 L
469.998 79.138 L
470.003 79.137 L
470.144 79.235 L
470.486 79.112 L
470.666 79.125 L
470.671 79.118 L
470.964 79.034 L
471.328 79.041 L
471.333 79.041 L
471.551 79.054 L
471.996 78.95 L
472.001 78.95 L
472.371 78.883 L
472.664 78.904 L
472.669 78.902 L
473.332 78.82 L
473.337 78.82 L
473.37 78.818 L
473.804 78.909 L
474 78.889 L
474.005 78.886 L
474.662 78.704 L
474.668 78.704 L
475.042 78.647 L
475.048 78.718 L
475.33 78.662 L
475.335 78.662 L
475.379 78.668 L
475.873 78.579 L
475.998 78.589 L
476.003 78.589 L
476.117 78.645 L
476.666 78.506 L
476.671 78.505 L
477.111 78.518 L
477.323 78.323 L
477.328 78.323 L
477.334 78.322 L
477.518 78.296 L
477.822 78.337 L
477.996 78.308 L
478.002 78.309 L
478.056 78.324 L
478.55 78.21 L
478.664 78.229 L
478.669 78.229 L
478.762 78.244 L
479.332 78.177 L
479.337 78.175 L
479.354 78.174 L
479.707 78.283 L
480 78.221 L
480.005 78.221 L
480.011 78.221 L
480.32 78.143 L
480.662 78.194 L
480.668 78.194 L
480.673 78.194 L
481.26 78.1 L
481.33 78.104 L
481.336 78.103 L
481.873 78.211 L
481.998 78.207 L
482.003 78.207 L
482.052 78.212 L
482.666 78.126 L
482.671 78.126 L
482.872 78.095 L
482.975 78.198 L
483.328 78.175 L
483.334 78.175 L
483.339 78.175 L
483.991 77.988 L
483.996 77.988 L
484.002 77.988 L
484.175 77.942 L
484.485 78.019 L
484.664 78.008 L
484.67 78.008 L
484.892 77.987 L
485.234 78.07 L
485.332 78.061 L
485.337 78.061 L
486 77.922 L
486.005 77.919 L
486.407 77.856 L
486.51 77.941 L
486.662 77.914 L
486.668 77.913 L
486.717 77.919 L
487.26 77.8 L
487.33 77.804 L
487.336 77.803 L
487.624 77.842 L
487.911 77.777 L
487.998 77.787 L
488.004 77.786 L
488.4 77.806 L
488.612 77.76 L
488.666 77.776 L
488.671 77.776 L
488.677 77.775 L
489.176 77.857 L
489.329 77.847 L
489.334 77.847 L
489.345 77.87 L
489.986 77.654 L
489.996 77.657 L
490.002 77.656 L
490.262 77.633 L
490.333 77.71 L
490.664 77.698 L
490.67 77.697 L
490.974 77.788 L
491.251 77.629 L
491.332 77.686 L
491.338 77.686 L
491.555 77.724 L
491.962 77.577 L
491.995 77.582 L
492 77.587 L
492.663 77.493 L
492.668 77.489 L
492.82 77.446 L
492.912 77.52 L
493.33 77.513 L
493.336 77.543 L
493.368 77.564 L
493.998 77.386 L
494.004 77.386 L
494.666 77.189 L
494.672 77.189 L
494.688 77.189 L
495.296 77.22 L
495.329 77.218 L
495.334 77.218 L
495.991 77.126 L
495.997 77.126 L
496.002 77.126 L
496.605 77.107 L
496.621 77.179 L
496.664 77.178 L
496.67 77.232 L
497.093 77.031 L
497.332 77.089 L
497.338 77.089 L
497.919 77.003 L
497.995 77.02 L
498 77.02 L
498.255 76.998 L
498.277 77.056 L
498.663 77.041 L
498.668 77.04 L
499.162 76.962 L
499.331 76.969 L
499.336 76.969 L
499.998 76.809 L
500.004 76.799 L
500.129 76.8 L
500.596 76.649 L
500.666 76.655 L
500.672 76.654 L
500.677 76.657 L
501.291 76.52 L
501.329 76.531 L
501.334 76.531 L
501.34 76.531 L
501.731 76.457 L
501.997 76.457 L
502.002 76.457 L
502.067 76.447 L
502.567 76.557 L
502.665 76.503 L
502.67 76.503 L
502.806 76.519 L
503.142 76.385 L
503.332 76.509 L
503.338 76.509 L
503.539 76.522 L
503.908 76.434 L
503.995 76.49 L
504 76.485 L
504.017 76.481 L
504.636 76.629 L
504.663 76.623 L
504.668 76.623 L
504.826 76.632 L
505.32 76.556 L
505.331 76.556 L
505.336 76.556 L
505.412 76.553 L
505.689 76.658 L
505.999 76.59 L
506.004 76.59 L
506.069 76.596 L
506.661 76.398 L
506.667 76.398 L
506.672 76.396 L
506.683 76.396 L
507.318 76.319 L
507.329 76.319 L
507.334 76.319 L
507.552 76.306 L
507.796 76.494 L
507.997 76.474 L
508.002 76.478 L
508.306 76.449 L
508.529 76.59 L
508.665 76.586 L
508.67 76.586 L
508.909 76.643 L
509.007 76.577 L
509.333 76.617 L
509.338 76.616 L
509.61 76.641 L
509.718 76.558 L
509.995 76.604 L
510.001 76.603 L
510.136 76.622 L
510.614 76.594 L
510.663 76.609 L
510.668 76.632 L
510.82 76.662 L
511.331 76.512 L
511.336 76.512 L
511.521 76.48 L
511.977 76.515 L
511.999 76.5 L
512.004 76.5 L
512.064 76.506 L
512.325 76.438 L
512.667 76.457 L
512.672 76.458 L
512.813 76.468 L
513.123 76.389 L
513.329 76.428 L
513.335 76.454 L
513.394 76.455 L
513.981 76.389 L
513.997 76.406 L
514.002 76.406 L
514.431 76.467 L
514.643 76.306 L
514.665 76.308 L
514.67 76.308 L
514.784 76.325 L
515.251 76.205 L
515.333 76.205 L
515.338 76.205 L
515.479 76.191 L
515.979 76.276 L
515.995 76.276 L
516.001 76.276 L
516.006 76.276 L
516.663 76.224 L
516.669 76.224 L
516.929 76.208 L
517.304 76.292 L
517.331 76.292 L
517.336 76.324 L
517.548 76.299 L
517.651 76.403 L
517.999 76.349 L
518.004 76.349 L
518.618 76.302 L
518.661 76.303 L
518.667 76.302 L
518.971 76.229 L
519.232 76.365 L
519.329 76.35 L
519.335 76.35 L
519.78 76.368 L
519.997 76.311 L
520.003 76.312 L
520.274 76.297 L
520.426 76.362 L
520.665 76.325 L
520.67 76.325 L
520.985 76.274 L
521.311 76.342 L
521.333 76.283 L
521.338 76.239 L
521.458 76.196 L
521.995 76.483 L
522.001 76.486 L
522.316 76.434 L
522.424 76.547 L
522.663 76.526 L
522.669 76.526 L
522.766 76.551 L
522.946 76.487 L
523.331 76.532 L
523.337 76.532 L
523.353 76.533 L
523.994 76.371 L
523.999 76.371 L
524.005 76.372 L
524.205 76.332 L
524.634 76.418 L
524.661 76.379 L
524.667 76.416 L
524.672 76.384 L
524.819 76.491 L
525.329 76.438 L
525.335 76.438 L
525.525 76.444 L
525.927 76.285 L
525.997 76.287 L
526.003 76.287 L
526.144 76.294 L
526.291 76.234 L
526.665 76.274 L
526.671 76.274 L
526.882 76.256 L
526.964 76.355 L
527.333 76.288 L
527.339 76.288 L
527.594 76.332 L
527.996 76.205 L
528.001 76.205 L
528.099 76.204 L
528.577 76.358 L
528.663 76.343 L
528.669 76.343 L
528.913 76.312 L
529.179 76.463 L
529.331 76.454 L
529.337 76.454 L
529.424 76.449 L
529.972 76.558 L
529.999 76.555 L
530.005 76.554 L
530.26 76.567 L
530.656 76.467 L
530.662 76.467 L
530.667 76.467 L
530.928 76.403 L
531.199 76.481 L
531.33 76.472 L
531.335 76.471 L
531.346 76.471 L
531.997 76.346 L
532.003 76.352 L
532.535 76.401 L
532.665 76.375 L
532.671 76.375 L
532.758 76.35 L
533.235 76.462 L
533.333 76.461 L
533.339 76.46 L
533.854 76.383 L
533.871 76.48 L
533.996 76.435 L
534.001 76.435 L
534.093 76.447 L
534.604 76.266 L
534.664 76.306 L
534.669 76.306 L
535.163 76.319 L
535.331 76.24 L
535.337 76.24 L
535.375 76.264 L
535.989 76.11 L
535.999 76.11 L
536.005 76.11 L
536.016 76.102 L
536.119 76.197 L
536.662 76.122 L
536.667 76.122 L
536.732 76.17 L
537.27 76.085 L
537.33 76.089 L
537.335 76.089 L
537.346 76.089 L
537.992 75.983 L
537.998 75.983 L
538.003 75.983 L
538.03 75.973 L
538.188 76.075 L
538.665 76.034 L
538.671 76.034 L
538.953 76.021 L
539.241 76.115 L
539.328 76.11 L
539.333 76.108 L
539.871 76.001 L
539.996 76.005 L
540.001 76.005 L
540.512 75.869 L
540.664 75.878 L
540.669 75.884 L
540.859 75.893 L
541.332 75.82 L
541.337 75.797 L
541.462 75.753 L
542 75.78 L
542.005 75.78 L
542.065 75.785 L
542.662 75.646 L
542.667 75.649 L
543.194 75.599 L
543.33 75.683 L
543.335 75.68 L
543.346 75.752 L
543.998 75.638 L
544.003 75.639 L
544.465 75.776 L
544.666 75.732 L
544.671 75.732 L
544.861 75.721 L
545.279 75.839 L
545.328 75.838 L
545.334 75.839 L
545.502 75.859 L
545.795 75.813 L
545.996 75.852 L
546.001 75.852 L
546.094 75.855 L
546.474 75.692 L
546.664 75.778 L
546.669 75.778 L
546.93 75.68 L
547.332 75.721 L
547.337 75.721 L
547.457 75.73 L
547.858 75.574 L
548 75.583 L
548.005 75.583 L
548.461 75.56 L
548.657 75.643 L
548.662 75.638 L
548.668 75.602 L
548.836 75.607 L
549.33 75.578 L
549.335 75.577 L
549.368 75.588 L
549.998 75.504 L
550.003 75.504 L
550.443 75.578 L
550.66 75.465 L
550.666 75.465 L
550.671 75.465 L
551.312 75.418 L
551.328 75.419 L
551.334 75.421 L
551.567 75.465 L
551.773 75.412 L
551.996 75.433 L
552.002 75.433 L
552.306 75.422 L
552.463 75.5 L
552.664 75.482 L
552.669 75.482 L
552.789 75.497 L
553.229 75.426 L
553.332 75.439 L
553.337 75.44 L
553.359 75.462 L
554 75.4 L
554.005 75.4 L
554.288 75.432 L
554.63 75.353 L
554.662 75.355 L
554.668 75.354 L
555.26 75.119 L
555.33 75.141 L
555.336 75.14 L
555.493 75.133 L
555.83 75.197 L
555.998 75.166 L
556.003 75.175 L
556.525 75.106 L
556.628 75.2 L
556.666 75.198 L
556.671 75.197 L
556.699 75.198 L
557.328 75.13 L
557.334 75.13 L
557.909 75.112 L
557.926 75.193 L
557.996 75.141 L
558.002 75.171 L
558.013 75.198 L
558.17 75.09 L
558.664 75.13 L
558.67 75.128 L
559.028 75.142 L
559.294 75.068 L
559.332 75.091 L
559.338 75.091 L
559.441 75.112 L
559.973 75.039 L
560 75.049 L
560.005 75.049 L
560.136 75.055 L
560.662 74.888 L
560.668 74.888 L
560.804 74.885 L
561.108 74.956 L
561.33 74.917 L
561.336 74.917 L
561.64 74.894 L
561.998 75.027 L
562.004 75.027 L
562.243 75.106 L
562.666 75.01 L
562.672 75.009 L
562.992 74.954 L
563.301 75.1 L
563.329 75.091 L
563.334 75.089 L
563.339 75.089 L
563.996 74.924 L
564.002 74.924 L
564.159 74.93 L
564.643 74.809 L
564.664 74.838 L
564.67 74.836 L
564.854 74.826 L
565.191 74.992 L
565.332 74.945 L
565.338 74.945 L
565.381 74.946 L
565.854 74.853 L
565.995 74.869 L
566 74.869 L
566.12 74.811 L
566.646 75.016 L
566.663 75.015 L
566.668 75.016 L
566.831 75.075 L
567.309 75.007 L
567.33 75.019 L
567.336 75.019 L
567.417 75.014 L
567.553 75.136 L
567.998 75.126 L
568.004 75.126 L
568.112 75.12 L
568.612 75.204 L
568.666 75.194 L
568.672 75.194 L
568.802 75.202 L
569.193 75.081 L
569.329 75.11 L
569.334 75.117 L
569.34 75.121 L
569.758 75.025 L
569.997 75.041 L
570.002 75.04 L
570.035 75.044 L
570.36 74.938 L
570.664 74.981 L
570.67 74.981 L
571.224 75.01 L
571.322 74.964 L
571.332 74.965 L
571.338 74.965 L
571.463 74.929 L
571.995 75.023 L
572 75.024 L
572.065 75.022 L
572.554 75.168 L
572.663 75.139 L
572.668 75.122 L
572.739 75.183 L
573.331 75.174 L
573.336 75.174 L
573.673 75.238 L
573.998 75.206 L
574.004 75.206 L
574.189 75.201 L
574.569 75.3 L
574.666 75.296 L
574.672 75.296 L
574.829 75.376 L
575.247 75.253 L
575.329 75.268 L
575.334 75.268 L
575.437 75.258 L
575.731 75.335 L
575.997 75.298 L
576.002 75.297 L
576.523 75.161 L
576.665 75.175 L
576.67 75.176 L
577.028 75.19 L
577.333 75.068 L
577.338 75.068 L
577.349 75.068 L
577.517 75.143 L
577.995 75.117 L
578 75.116 L
578.543 74.983 L
578.663 75.028 L
578.668 75.028 L
578.962 74.997 L
579.228 75.058 L
579.331 75.056 L
579.336 75.056 L
579.369 75.057 L
579.999 74.935 L
580.004 74.936 L
580.563 74.919 L
580.596 75.003 L
580.667 74.98 L
580.672 74.98 L
580.71 74.988 L
581.329 74.899 L
581.334 74.899 L
581.481 74.901 L
581.796 74.845 L
581.997 74.872 L
582.002 74.872 L
582.404 74.849 L
582.415 74.895 L
582.665 74.854 L
582.67 74.856 L
583.061 74.949 L
583.322 74.825 L
583.333 74.825 L
583.338 74.825 L
583.572 74.863 L
583.973 74.794 L
583.995 74.801 L
584.001 74.821 L
584.397 74.843 L
584.658 74.819 L
584.663 74.819 L
584.668 74.819 L
584.82 74.804 L
585.315 74.925 L
585.331 74.919 L
585.336 74.917 L
585.602 74.907 L
585.993 74.971 L
585.999 74.971 L
586.004 74.971 L
586.623 74.929 L
586.661 74.931 L
586.667 74.931 L
586.726 74.963 L
587.047 74.915 L
587.329 74.932 L
587.335 74.932 L
587.514 74.916 L
587.845 74.995 L
587.997 74.956 L
588.002 74.956 L
588.051 74.928 L
588.665 75.105 L
588.67 75.119 L
589.295 75.057 L
589.333 75.058 L
589.338 75.058 L
589.74 75.045 L
589.908 75.122 L
589.995 75.097 L
590.001 75.097 L
590.343 75.088 L
590.571 75.122 L
590.663 75.119 L
590.669 75.119 L
590.734 75.118 L
591.114 75.215 L
591.331 75.201 L
591.336 75.203 L
591.391 75.206 L
591.994 75.17 L
591.999 75.17 L
592.004 75.17 L
592.01 75.169 L
592.303 75.22 L
592.661 75.182 L
592.667 75.182 L
592.716 75.184 L
593.275 75.124 L
593.329 75.125 L
593.335 75.125 L
593.378 75.123 L
593.574 75.261 L
593.997 75.158 L
594.003 75.159 L
594.1 75.171 L
594.437 75.138 L
594.665 75.152 L
594.671 75.15 L
594.703 75.158 L
595.224 75.023 L
595.333 75.036 L
595.338 75.036 L
595.349 75.036 L
595.545 75.089 L
595.995 75.044 L
596.001 75.045 L
596.533 74.905 L
596.663 74.914 L
596.669 74.915 L
596.967 74.927 L
597.331 74.876 L
597.337 74.875 L
597.462 74.88 L
597.988 74.817 L
597.999 74.818 L
598.005 74.818 L
598.482 74.759 L
598.662 74.786 L
598.667 74.786 L
598.803 74.781 L
599.091 74.838 L
599.329 74.814 L
599.335 74.814 L
599.4 74.812 L
599.905 74.874 L
599.997 74.871 L
600.003 74.871 L
600.209 74.843 L
600.502 74.927 L
600.665 74.923 L
600.671 74.923 L
600.861 74.942 L
601.311 74.915 L
601.333 74.92 L
601.339 74.92 L
601.36 74.919 L
601.914 75.057 L
601.996 75.034 L
602.001 75.034 L
602.381 74.991 L
602.446 75.079 L
602.663 75.053 L
602.669 75.053 L
602.854 75.084 L
603.282 74.912 L
603.331 74.987 L
603.337 74.987 L
603.473 74.955 L
603.983 75 L
603.999 75 L
604.005 74.998 L
604.168 75.058 L
604.341 74.995 L
604.662 75.008 L
604.667 75.008 L
605.015 75.059 L
605.178 74.973 L
605.33 75.032 L
605.335 75.032 L
605.775 75.111 L
605.997 75.026 L
606.003 75.026 L
606.079 75.047 L
606.416 74.949 L
606.665 74.968 L
606.671 74.968 L
606.861 74.976 L
607.23 74.906 L
607.333 74.925 L
607.339 74.925 L
607.92 74.828 L
607.996 74.832 L
608.001 74.832 L
608.121 74.83 L
608.479 74.9 L
608.664 74.891 L
608.669 74.894 L
608.984 74.762 L
609.331 74.764 L
609.337 74.764 L
609.342 74.767 L
609.451 74.612 L
609.999 74.722 L
610.005 74.723 L
610.016 74.724 L
610.662 74.557 L
610.667 74.557 L
610.678 74.558 L
611.178 74.514 L
611.33 74.524 L
611.335 74.526 L
611.846 74.578 L
611.998 74.574 L
612.003 74.558 L
612.052 74.563 L
612.28 74.5 L
612.666 74.54 L
612.671 74.519 L
613.328 74.373 L
613.333 74.373 L
613.453 74.397 L
613.996 74.221 L
614.001 74.187 L
614.436 74.165 L
614.555 74.267 L
614.664 74.218 L
614.669 74.218 L
614.767 74.247 L
615.266 74.187 L
615.332 74.196 L
615.337 74.196 L
615.815 74.184 L
615.891 74.201 L
616 74.191 L
616.005 74.191 L
616.282 74.207 L
616.657 74.093 L
616.662 74.093 L
616.667 74.1 L
616.89 74.072 L
616.939 74.159 L
617.33 74.086 L
617.335 74.09 L
617.384 74.088 L
617.824 74.278 L
617.998 74.244 L
618.003 74.242 L
618.242 74.257 L
618.66 74.216 L
618.666 74.221 L
618.671 74.178 L
619.04 74.192 L
619.279 74.15 L
619.328 74.161 L
619.334 74.161 L
619.35 74.16 L
619.773 74.205 L
619.996 74.173 L
620.001 74.173 L
620.42 74.248 L
620.496 74.107 L
620.664 74.148 L
620.669 74.147 L
620.941 74.085 L
621.299 74.2 L
621.332 74.197 L
621.337 74.197 L
621.962 74.182 L
621.978 74.257 L
622 74.218 L
622.005 74.217 L
622.184 74.185 L
622.662 74.273 L
622.668 74.273 L
622.711 74.3 L
623.097 74.161 L
623.33 74.218 L
623.336 74.218 L
623.341 74.219 L
623.629 74.096 L
623.998 74.119 L
624.003 74.119 L
624.329 74.098 L
624.378 74.172 L
624.666 74.165 L
624.671 74.166 L
625.16 74.104 L
625.198 74.244 L
625.328 74.187 L
625.334 74.188 L
625.431 74.182 L
625.996 74.299 L
626.002 74.299 L
626.17 74.309 L
626.664 74.088 L
626.669 74.087 L
626.898 74.06 L
627.267 74.176 L
627.332 74.172 L
627.337 74.181 L
627.696 74.195 L
628 74.155 L
628.005 74.155 L
628.027 74.157 L
628.575 74.019 L
628.662 74.071 L
628.668 74.071 L
628.684 74.079 L
629.287 73.99 L
629.33 73.991 L
629.336 73.99 L
629.613 73.993 L
629.879 73.933 L
629.998 73.943 L
630.004 73.943 L
630.063 73.945 L
630.655 73.87 L
630.666 73.919 L
630.671 73.918 L
631.084 73.904 L
631.198 73.932 L
631.328 73.931 L
631.334 73.931 L
631.557 73.96 L
631.985 73.91 L
631.996 73.911 L
632.002 73.911 L
632.577 73.985 L
632.659 73.905 L
632.664 73.905 L
632.67 73.932 L
633.316 73.86 L
633.332 73.862 L
633.338 73.862 L
633.424 73.896 L
633.772 73.774 L
633.995 73.826 L
634 73.826 L
S
GR
%%Trailer
%%Pages: 1
%%EOF
