%!PS-Adobe-3.0 EPSF-3.0
%%Creator: (MATLAB, The Mathworks, Inc. Version 9.3.0.713579 \(R2017b\). Operating System: Windows 7)
%%Title: fig/RBFN_1000_50_100000_Q.eps
%%CreationDate: 2018-05-06T13:30:56
%%Pages: (atend)
%%BoundingBox:    35     3   479   384
%%LanguageLevel: 3
%%EndComments
%%BeginProlog
%%BeginResource: procset (Apache XML Graphics Std ProcSet) 1.2 0
%%Version: 1.2 0
%%Copyright: (Copyright 2001-2003,2010 The Apache Software Foundation. License terms: http://www.apache.org/licenses/LICENSE-2.0)
/bd{bind def}bind def
/ld{load def}bd
/GR/grestore ld
/GS/gsave ld
/RM/rmoveto ld
/C/curveto ld
/t/show ld
/L/lineto ld
/ML/setmiterlimit ld
/CT/concat ld
/f/fill ld
/N/newpath ld
/S/stroke ld
/CC/setcmykcolor ld
/A/ashow ld
/cp/closepath ld
/RC/setrgbcolor ld
/LJ/setlinejoin ld
/GC/setgray ld
/LW/setlinewidth ld
/M/moveto ld
/re {4 2 roll M
1 index 0 rlineto
0 exch rlineto
neg 0 rlineto
cp } bd
/_ctm matrix def
/_tm matrix def
/BT { _ctm currentmatrix pop matrix _tm copy pop 0 0 moveto } bd
/ET { _ctm setmatrix } bd
/iTm { _ctm setmatrix _tm concat } bd
/Tm { _tm astore pop iTm 0 0 moveto } bd
/ux 0.0 def
/uy 0.0 def
/F {
  /Tp exch def
  /Tf exch def
  Tf findfont Tp scalefont setfont
  /cf Tf def  /cs Tp def
} bd
/ULS {currentpoint /uy exch def /ux exch def} bd
/ULE {
  /Tcx currentpoint pop def
  gsave
  newpath
  cf findfont cs scalefont dup
  /FontMatrix get 0 get /Ts exch def /FontInfo get dup
  /UnderlinePosition get Ts mul /To exch def
  /UnderlineThickness get Ts mul /Tt exch def
  ux uy To add moveto  Tcx uy To add lineto
  Tt setlinewidth stroke
  grestore
} bd
/OLE {
  /Tcx currentpoint pop def
  gsave
  newpath
  cf findfont cs scalefont dup
  /FontMatrix get 0 get /Ts exch def /FontInfo get dup
  /UnderlinePosition get Ts mul /To exch def
  /UnderlineThickness get Ts mul /Tt exch def
  ux uy To add cs add moveto Tcx uy To add cs add lineto
  Tt setlinewidth stroke
  grestore
} bd
/SOE {
  /Tcx currentpoint pop def
  gsave
  newpath
  cf findfont cs scalefont dup
  /FontMatrix get 0 get /Ts exch def /FontInfo get dup
  /UnderlinePosition get Ts mul /To exch def
  /UnderlineThickness get Ts mul /Tt exch def
  ux uy To add cs 10 mul 26 idiv add moveto Tcx uy To add cs 10 mul 26 idiv add lineto
  Tt setlinewidth stroke
  grestore
} bd
/QT {
/Y22 exch store
/X22 exch store
/Y21 exch store
/X21 exch store
currentpoint
/Y21 load 2 mul add 3 div exch
/X21 load 2 mul add 3 div exch
/X21 load 2 mul /X22 load add 3 div
/Y21 load 2 mul /Y22 load add 3 div
/X22 load /Y22 load curveto
} bd
/SSPD {
dup length /d exch dict def
{
/v exch def
/k exch def
currentpagedevice k known {
/cpdv currentpagedevice k get def
v cpdv ne {
/upd false def
/nullv v type /nulltype eq def
/nullcpdv cpdv type /nulltype eq def
nullv nullcpdv or
{
/upd true def
} {
/sametype v type cpdv type eq def
sametype {
v type /arraytype eq {
/vlen v length def
/cpdvlen cpdv length def
vlen cpdvlen eq {
0 1 vlen 1 sub {
/i exch def
/obj v i get def
/cpdobj cpdv i get def
obj cpdobj ne {
/upd true def
exit
} if
} for
} {
/upd true def
} ifelse
} {
v type /dicttype eq {
v {
/dv exch def
/dk exch def
/cpddv cpdv dk get def
dv cpddv ne {
/upd true def
exit
} if
} forall
} {
/upd true def
} ifelse
} ifelse
} if
} ifelse
upd true eq {
d k v put
} if
} if
} if
} forall
d length 0 gt {
d setpagedevice
} if
} bd
/RE { % /NewFontName [NewEncodingArray] /FontName RE -
  findfont dup length dict begin
  {
    1 index /FID ne
    {def} {pop pop} ifelse
  } forall
  /Encoding exch def
  /FontName 1 index def
  currentdict definefont pop
  end
} bind def
%%EndResource
%%BeginResource: procset (Apache XML Graphics EPS ProcSet) 1.0 0
%%Version: 1.0 0
%%Copyright: (Copyright 2002-2003 The Apache Software Foundation. License terms: http://www.apache.org/licenses/LICENSE-2.0)
/BeginEPSF { %def
/b4_Inc_state save def         % Save state for cleanup
/dict_count countdictstack def % Count objects on dict stack
/op_count count 1 sub def      % Count objects on operand stack
userdict begin                 % Push userdict on dict stack
/showpage { } def              % Redefine showpage, { } = null proc
0 setgray 0 setlinecap         % Prepare graphics state
1 setlinewidth 0 setlinejoin
10 setmiterlimit [ ] 0 setdash newpath
/languagelevel where           % If level not equal to 1 then
{pop languagelevel             % set strokeadjust and
1 ne                           % overprint to their defaults.
{false setstrokeadjust false setoverprint
} if
} if
} bd
/EndEPSF { %def
count op_count sub {pop} repeat            % Clean up stacks
countdictstack dict_count sub {end} repeat
b4_Inc_state restore
} bd
%%EndResource
%FOPBeginFontDict
%%IncludeResource: font Courier-Oblique
%%IncludeResource: font Courier-BoldOblique
%%IncludeResource: font Courier-Bold
%%IncludeResource: font ZapfDingbats
%%IncludeResource: font Symbol
%%IncludeResource: font Helvetica
%%IncludeResource: font Helvetica-Oblique
%%IncludeResource: font Helvetica-Bold
%%IncludeResource: font Helvetica-BoldOblique
%%IncludeResource: font Times-Roman
%%IncludeResource: font Times-Italic
%%IncludeResource: font Times-Bold
%%IncludeResource: font Times-BoldItalic
%%IncludeResource: font Courier
%FOPEndFontDict
%%BeginResource: encoding WinAnsiEncoding
/WinAnsiEncoding [
/.notdef /.notdef /.notdef /.notdef /.notdef
/.notdef /.notdef /.notdef /.notdef /.notdef
/.notdef /.notdef /.notdef /.notdef /.notdef
/.notdef /.notdef /.notdef /.notdef /.notdef
/.notdef /.notdef /.notdef /.notdef /.notdef
/.notdef /.notdef /.notdef /.notdef /.notdef
/.notdef /.notdef /space /exclam /quotedbl
/numbersign /dollar /percent /ampersand /quotesingle
/parenleft /parenright /asterisk /plus /comma
/hyphen /period /slash /zero /one
/two /three /four /five /six
/seven /eight /nine /colon /semicolon
/less /equal /greater /question /at
/A /B /C /D /E
/F /G /H /I /J
/K /L /M /N /O
/P /Q /R /S /T
/U /V /W /X /Y
/Z /bracketleft /backslash /bracketright /asciicircum
/underscore /quoteleft /a /b /c
/d /e /f /g /h
/i /j /k /l /m
/n /o /p /q /r
/s /t /u /v /w
/x /y /z /braceleft /bar
/braceright /asciitilde /bullet /Euro /bullet
/quotesinglbase /florin /quotedblbase /ellipsis /dagger
/daggerdbl /circumflex /perthousand /Scaron /guilsinglleft
/OE /bullet /Zcaron /bullet /bullet
/quoteleft /quoteright /quotedblleft /quotedblright /bullet
/endash /emdash /asciitilde /trademark /scaron
/guilsinglright /oe /bullet /zcaron /Ydieresis
/space /exclamdown /cent /sterling /currency
/yen /brokenbar /section /dieresis /copyright
/ordfeminine /guillemotleft /logicalnot /sfthyphen /registered
/macron /degree /plusminus /twosuperior /threesuperior
/acute /mu /paragraph /middot /cedilla
/onesuperior /ordmasculine /guillemotright /onequarter /onehalf
/threequarters /questiondown /Agrave /Aacute /Acircumflex
/Atilde /Adieresis /Aring /AE /Ccedilla
/Egrave /Eacute /Ecircumflex /Edieresis /Igrave
/Iacute /Icircumflex /Idieresis /Eth /Ntilde
/Ograve /Oacute /Ocircumflex /Otilde /Odieresis
/multiply /Oslash /Ugrave /Uacute /Ucircumflex
/Udieresis /Yacute /Thorn /germandbls /agrave
/aacute /acircumflex /atilde /adieresis /aring
/ae /ccedilla /egrave /eacute /ecircumflex
/edieresis /igrave /iacute /icircumflex /idieresis
/eth /ntilde /ograve /oacute /ocircumflex
/otilde /odieresis /divide /oslash /ugrave
/uacute /ucircumflex /udieresis /yacute /thorn
/ydieresis
] def
%%EndResource
%FOPBeginFontReencode
/Courier-Oblique findfont
dup length dict begin
  {1 index /FID ne {def} {pop pop} ifelse} forall
  /Encoding WinAnsiEncoding def
  currentdict
end
/Courier-Oblique exch definefont pop
/Courier-BoldOblique findfont
dup length dict begin
  {1 index /FID ne {def} {pop pop} ifelse} forall
  /Encoding WinAnsiEncoding def
  currentdict
end
/Courier-BoldOblique exch definefont pop
/Courier-Bold findfont
dup length dict begin
  {1 index /FID ne {def} {pop pop} ifelse} forall
  /Encoding WinAnsiEncoding def
  currentdict
end
/Courier-Bold exch definefont pop
/Helvetica findfont
dup length dict begin
  {1 index /FID ne {def} {pop pop} ifelse} forall
  /Encoding WinAnsiEncoding def
  currentdict
end
/Helvetica exch definefont pop
/Helvetica-Oblique findfont
dup length dict begin
  {1 index /FID ne {def} {pop pop} ifelse} forall
  /Encoding WinAnsiEncoding def
  currentdict
end
/Helvetica-Oblique exch definefont pop
/Helvetica-Bold findfont
dup length dict begin
  {1 index /FID ne {def} {pop pop} ifelse} forall
  /Encoding WinAnsiEncoding def
  currentdict
end
/Helvetica-Bold exch definefont pop
/Helvetica-BoldOblique findfont
dup length dict begin
  {1 index /FID ne {def} {pop pop} ifelse} forall
  /Encoding WinAnsiEncoding def
  currentdict
end
/Helvetica-BoldOblique exch definefont pop
/Times-Roman findfont
dup length dict begin
  {1 index /FID ne {def} {pop pop} ifelse} forall
  /Encoding WinAnsiEncoding def
  currentdict
end
/Times-Roman exch definefont pop
/Times-Italic findfont
dup length dict begin
  {1 index /FID ne {def} {pop pop} ifelse} forall
  /Encoding WinAnsiEncoding def
  currentdict
end
/Times-Italic exch definefont pop
/Times-Bold findfont
dup length dict begin
  {1 index /FID ne {def} {pop pop} ifelse} forall
  /Encoding WinAnsiEncoding def
  currentdict
end
/Times-Bold exch definefont pop
/Times-BoldItalic findfont
dup length dict begin
  {1 index /FID ne {def} {pop pop} ifelse} forall
  /Encoding WinAnsiEncoding def
  currentdict
end
/Times-BoldItalic exch definefont pop
/Courier findfont
dup length dict begin
  {1 index /FID ne {def} {pop pop} ifelse} forall
  /Encoding WinAnsiEncoding def
  currentdict
end
/Courier exch definefont pop
%FOPEndFontReencode
%%EndProlog
%%Page: 1 1
%%PageBoundingBox: 0 0 525 394
%%BeginPageSetup
[1 0 0 -1 0 394] CT
%%EndPageSetup
GS
[0.75 0 0 0.74971 0 0.39999] CT
N
0 0 M
700 0 L
700 525 L
0 525 L
0 0 L
cp
clip
1 GC
N
0 0 700 525 re
f
GR
GS
[0.75 0 0 0.74971 0 0.39999] CT
1 GC
N
0 0 700 525 re
f
GR
GS
[0.75 0 0 0.74971 0 0.39999] CT
1 GC
N
91 463 M
634 463 L
634 39 L
91 39 L
cp
f
GR
GS
[0.75 0 0 0.74971 271.87525 26.54629] CT
/Helvetica-Bold 22 F
GS
[1 0 0 1 0 0] CT
-56 -5 moveto 
1 -1 scale
(Q-function) t 
GR
GR
GS
[0.75 0 0 0.74971 0 0.39999] CT
0.149 GC
1 LJ
0.667 LW
N
91 463 M
634 463 L
S
GR
GS
[0.75 0 0 0.74971 0 0.39999] CT
0.902 0.945 0.973 RC
N
90.935 437.725 M
90.935 463 L
91 463 L
92.086 463 L
93.172 463 L
94.258 463 L
95.344 463 L
96.43 463 L
97.516 463 L
98.602 463 L
99.688 463 L
100.774 463 L
101.86 463 L
102.946 463 L
104.032 463 L
105.118 463 L
106.204 463 L
107.29 463 L
108.376 463 L
109.462 463 L
110.548 463 L
111.634 463 L
112.72 463 L
113.806 463 L
114.892 463 L
115.978 463 L
117.064 463 L
118.15 463 L
119.236 463 L
120.322 463 L
121.408 463 L
122.494 463 L
123.58 463 L
124.666 463 L
125.752 463 L
126.838 463 L
127.924 463 L
129.01 463 L
130.096 463 L
131.182 463 L
132.268 463 L
133.354 463 L
134.44 463 L
135.526 463 L
136.612 463 L
137.698 463 L
138.784 463 L
139.87 463 L
140.956 463 L
142.042 463 L
143.128 463 L
144.214 463 L
145.3 463 L
146.386 463 L
147.472 463 L
148.558 463 L
149.644 463 L
150.73 463 L
151.816 463 L
152.902 463 L
153.988 463 L
155.074 463 L
156.16 463 L
157.246 463 L
158.332 463 L
159.418 463 L
160.504 463 L
161.59 463 L
162.676 463 L
163.762 463 L
164.848 463 L
165.934 463 L
167.02 463 L
168.106 463 L
169.192 463 L
170.278 463 L
171.364 463 L
172.45 463 L
173.536 463 L
174.622 463 L
175.708 463 L
176.794 463 L
177.88 463 L
178.966 463 L
180.052 463 L
181.138 463 L
182.224 463 L
183.31 463 L
184.396 463 L
185.482 463 L
186.568 463 L
187.654 463 L
188.74 463 L
189.826 463 L
190.912 463 L
191.998 463 L
193.084 463 L
194.17 463 L
195.256 463 L
196.342 463 L
197.428 463 L
198.514 463 L
199.6 463 L
200.686 463 L
201.772 463 L
202.858 463 L
203.944 463 L
205.03 463 L
206.116 463 L
207.202 463 L
208.288 463 L
209.374 463 L
210.46 463 L
211.546 463 L
212.632 463 L
213.718 463 L
214.804 463 L
215.89 463 L
216.976 463 L
218.062 463 L
219.148 463 L
220.234 463 L
221.32 463 L
222.406 463 L
223.492 463 L
224.578 463 L
225.664 463 L
226.75 463 L
227.836 463 L
228.922 463 L
230.008 463 L
231.094 463 L
232.18 463 L
233.266 463 L
234.352 463 L
235.438 463 L
236.524 463 L
237.61 463 L
238.696 463 L
239.782 463 L
240.868 463 L
241.954 463 L
243.04 463 L
244.126 463 L
245.212 463 L
246.298 463 L
247.384 463 L
248.47 463 L
247.384 39 L
246.298 39 L
245.212 39 L
244.126 39 L
243.04 39 L
241.954 39 L
240.868 39 L
239.782 39 L
238.696 39 L
237.61 39 L
236.524 39 L
235.438 39 L
234.352 39 L
233.266 39 L
232.18 39 L
231.094 39 L
230.008 39 L
228.922 39 L
227.836 39 L
226.75 39 L
225.664 39 L
224.578 39 L
223.492 39 L
222.406 39 L
221.32 39 L
220.234 39 L
219.148 39 L
218.062 39 L
216.976 39 L
215.89 39 L
214.804 39 L
213.718 39 L
212.632 39 L
211.546 39 L
210.46 39 L
209.374 39 L
208.288 39 L
207.202 39 L
206.116 39 L
205.03 39 L
203.944 39 L
202.858 39 L
201.772 39 L
200.686 39 L
199.6 39 L
198.514 39 L
197.428 39 L
196.342 39 L
195.256 39 L
194.17 39 L
193.084 39 L
191.998 39 L
190.912 39 L
189.826 39 L
188.74 39 L
187.654 39 L
186.568 39 L
185.482 39 L
184.396 39 L
183.31 39 L
182.224 39 L
181.138 39 L
180.052 39 L
178.966 39 L
177.88 39 L
176.794 39 L
175.708 39 L
174.622 39 L
173.536 39 L
172.45 39 L
171.364 39 L
170.278 39 L
169.192 39 L
168.106 39 L
167.02 39 L
165.934 39 L
164.848 39 L
163.762 39 L
162.676 39 L
161.59 39 L
160.504 39 L
159.418 39 L
158.332 39 L
157.246 39 L
156.16 39 L
155.074 39 L
153.988 39 L
152.902 39 L
151.816 39 L
150.73 39 L
149.644 39 L
148.558 39 L
147.472 39 L
146.386 39 L
145.3 39 L
144.214 39 L
143.128 39 L
142.042 39 L
140.956 39 L
139.87 39 L
138.784 39 L
137.698 39 L
136.612 39 L
135.526 39 L
134.44 39 L
133.354 39 L
132.268 39 L
131.182 39 L
130.096 39 L
129.01 39 L
127.924 39 L
126.838 39 L
125.752 39 L
124.666 39 L
123.58 39 L
122.494 39 L
121.408 39 L
120.322 39 L
119.236 39 L
118.15 39 L
117.064 39 L
115.978 39 L
114.892 39 L
113.806 39 L
112.72 39 L
111.634 39 L
110.548 39 L
109.462 39 L
108.376 39 L
107.29 39 L
106.204 39 L
105.118 39 L
104.032 39 L
102.946 39 L
101.86 39 L
100.774 39 L
99.688 39 L
98.602 39 L
97.516 39 L
96.43 39 L
95.344 39 L
94.258 39 L
93.172 39 L
92.086 39 L
91 39 L
90.935 39 L
cp
f
GR
GS
[0.75 0 0 0.74971 0 0.39999] CT
0.902 0.945 0.973 RC
1 LJ
0.667 LW
N
90.935 463 M
91 463 L
92.086 463 L
93.172 463 L
94.258 463 L
95.344 463 L
96.43 463 L
97.516 463 L
98.602 463 L
99.688 463 L
100.774 463 L
101.86 463 L
102.946 463 L
104.032 463 L
105.118 463 L
106.204 463 L
107.29 463 L
108.376 463 L
109.462 463 L
110.548 463 L
111.634 463 L
112.72 463 L
113.806 463 L
114.892 463 L
115.978 463 L
117.064 463 L
118.15 463 L
119.236 463 L
120.322 463 L
121.408 463 L
122.494 463 L
123.58 463 L
124.666 463 L
125.752 463 L
126.838 463 L
127.924 463 L
129.01 463 L
130.096 463 L
131.182 463 L
132.268 463 L
133.354 463 L
134.44 463 L
135.526 463 L
136.612 463 L
137.698 463 L
138.784 463 L
139.87 463 L
140.956 463 L
142.042 463 L
143.128 463 L
144.214 463 L
145.3 463 L
146.386 463 L
147.472 463 L
148.558 463 L
149.644 463 L
150.73 463 L
151.816 463 L
152.902 463 L
153.988 463 L
155.074 463 L
156.16 463 L
157.246 463 L
158.332 463 L
159.418 463 L
160.504 463 L
161.59 463 L
162.676 463 L
163.762 463 L
164.848 463 L
165.934 463 L
167.02 463 L
168.106 463 L
169.192 463 L
170.278 463 L
171.364 463 L
172.45 463 L
173.536 463 L
174.622 463 L
175.708 463 L
176.794 463 L
177.88 463 L
178.966 463 L
180.052 463 L
181.138 463 L
182.224 463 L
183.31 463 L
184.396 463 L
185.482 463 L
186.568 463 L
187.654 463 L
188.74 463 L
189.826 463 L
190.912 463 L
191.998 463 L
193.084 463 L
194.17 463 L
195.256 463 L
196.342 463 L
197.428 463 L
198.514 463 L
199.6 463 L
200.686 463 L
201.772 463 L
202.858 463 L
203.944 463 L
205.03 463 L
206.116 463 L
207.202 463 L
208.288 463 L
209.374 463 L
210.46 463 L
211.546 463 L
212.632 463 L
213.718 463 L
214.804 463 L
215.89 463 L
216.976 463 L
218.062 463 L
219.148 463 L
220.234 463 L
221.32 463 L
222.406 463 L
223.492 463 L
224.578 463 L
225.664 463 L
226.75 463 L
227.836 463 L
228.922 463 L
230.008 463 L
231.094 463 L
232.18 463 L
233.266 463 L
234.352 463 L
235.438 463 L
236.524 463 L
237.61 463 L
238.696 463 L
239.782 463 L
240.868 463 L
241.954 463 L
243.04 463 L
244.126 463 L
245.212 463 L
246.298 463 L
247.384 463 L
248.47 463 L
249.556 463 L
250.642 463 L
251.728 463 L
252.814 463 L
253.9 463 L
254.986 463 L
256.072 463 L
257.158 463 L
258.244 463 L
259.33 463 L
260.416 463 L
261.502 463 L
262.588 463 L
263.674 463 L
264.76 463 L
265.846 463 L
266.932 463 L
268.018 463 L
269.104 463 L
270.19 463 L
271.276 463 L
272.362 463 L
273.448 463 L
274.534 463 L
275.62 463 L
276.706 463 L
277.792 463 L
278.878 463 L
279.964 463 L
281.05 463 L
282.136 463 L
283.222 463 L
284.308 463 L
285.394 463 L
286.48 463 L
287.566 463 L
288.652 463 L
289.738 463 L
290.824 463 L
291.91 463 L
292.996 463 L
294.082 463 L
295.168 463 L
296.254 463 L
297.34 463 L
298.426 463 L
299.512 463 L
300.598 463 L
301.684 463 L
302.77 463 L
303.856 463 L
304.942 463 L
306.028 463 L
307.114 463 L
308.2 463 L
309.286 463 L
310.372 463 L
311.458 463 L
312.544 463 L
313.63 463 L
314.716 463 L
315.802 463 L
316.888 463 L
317.974 463 L
319.06 463 L
320.146 463 L
321.232 463 L
322.318 463 L
323.404 463 L
324.49 463 L
325.576 463 L
326.662 463 L
327.748 463 L
328.834 463 L
329.92 463 L
331.006 463 L
332.092 463 L
333.178 463 L
334.264 463 L
335.35 463 L
336.436 463 L
337.522 463 L
338.608 463 L
339.694 463 L
340.78 463 L
341.866 463 L
342.952 463 L
344.038 463 L
345.124 463 L
346.21 463 L
347.296 463 L
348.382 463 L
349.468 463 L
350.554 463 L
351.64 463 L
352.726 463 L
353.812 463 L
354.898 463 L
355.984 463 L
357.07 463 L
358.156 463 L
359.242 463 L
360.328 463 L
361.414 463 L
362.5 463 L
363.586 463 L
364.672 463 L
365.758 463 L
366.844 463 L
367.93 463 L
369.016 463 L
370.102 463 L
371.188 463 L
372.274 463 L
373.36 463 L
374.446 463 L
375.532 463 L
376.618 463 L
377.704 463 L
378.79 463 L
379.876 463 L
380.962 463 L
382.048 463 L
383.134 463 L
384.22 463 L
385.306 463 L
386.392 463 L
387.478 463 L
388.564 463 L
389.65 463 L
390.736 463 L
391.822 463 L
392.908 463 L
393.994 463 L
395.08 463 L
396.166 463 L
397.252 463 L
398.338 463 L
399.424 463 L
400.51 463 L
401.596 463 L
402.682 463 L
403.768 463 L
404.854 463 L
405.94 463 L
407.026 463 L
408.112 463 L
409.198 463 L
410.284 463 L
411.37 463 L
412.456 463 L
413.542 463 L
414.628 463 L
415.714 463 L
416.8 463 L
417.886 463 L
418.972 463 L
420.058 463 L
421.144 463 L
422.23 463 L
423.316 463 L
424.402 463 L
425.488 463 L
426.574 463 L
427.66 463 L
428.746 463 L
429.832 463 L
430.918 463 L
432.004 463 L
433.09 463 L
434.176 463 L
435.262 463 L
436.348 463 L
437.434 463 L
438.52 463 L
439.606 463 L
440.692 463 L
441.778 463 L
442.864 463 L
443.95 463 L
445.036 463 L
446.122 463 L
447.208 463 L
448.294 463 L
449.38 463 L
450.466 463 L
451.552 463 L
452.638 463 L
453.724 463 L
454.81 463 L
455.896 463 L
456.982 463 L
458.068 463 L
459.154 463 L
460.24 463 L
461.326 463 L
462.412 463 L
463.498 463 L
464.584 463 L
465.67 463 L
466.756 463 L
467.842 463 L
468.928 463 L
470.014 463 L
471.1 463 L
472.186 463 L
473.272 463 L
474.358 463 L
475.444 463 L
476.53 463 L
477.616 463 L
478.702 463 L
479.788 463 L
480.874 463 L
481.96 463 L
483.046 463 L
484.132 463 L
485.218 463 L
486.304 463 L
487.39 463 L
488.476 463 L
489.562 463 L
490.648 463 L
491.734 463 L
492.82 463 L
493.906 463 L
494.992 463 L
496.078 463 L
497.164 463 L
498.25 463 L
499.336 463 L
500.422 463 L
501.508 463 L
502.594 463 L
503.68 463 L
504.766 463 L
505.852 463 L
506.938 463 L
508.024 463 L
509.11 463 L
510.196 463 L
511.282 463 L
512.368 463 L
513.454 463 L
514.54 463 L
515.626 463 L
516.712 463 L
517.798 463 L
518.884 463 L
519.97 463 L
521.056 463 L
522.142 463 L
523.228 463 L
524.314 463 L
525.4 463 L
526.486 463 L
527.572 463 L
528.658 463 L
529.744 463 L
530.83 463 L
531.916 463 L
533.002 463 L
534.088 463 L
535.174 463 L
536.26 463 L
537.346 463 L
538.432 463 L
539.518 463 L
540.604 463 L
541.69 463 L
542.776 463 L
543.862 463 L
544.948 463 L
546.034 463 L
547.12 463 L
548.206 463 L
549.292 463 L
550.378 463 L
551.464 463 L
552.55 463 L
553.636 463 L
554.722 463 L
555.808 463 L
556.894 463 L
557.98 463 L
559.066 463 L
560.152 463 L
561.238 463 L
562.324 463 L
563.41 463 L
564.496 463 L
565.582 463 L
566.668 463 L
567.754 463 L
568.84 463 L
569.926 463 L
571.012 463 L
572.098 463 L
573.184 463 L
574.27 463 L
575.356 463 L
576.442 463 L
577.528 463 L
578.614 463 L
579.7 463 L
580.786 463 L
581.872 463 L
582.958 463 L
584.044 463 L
585.13 463 L
586.216 463 L
587.302 463 L
588.388 463 L
589.474 463 L
590.56 463 L
591.646 463 L
592.732 463 L
593.818 463 L
594.904 463 L
595.99 463 L
597.076 463 L
598.162 463 L
599.248 463 L
600.334 463 L
601.42 463 L
602.506 463 L
603.592 463 L
604.678 463 L
605.764 463 L
606.85 463 L
607.936 463 L
609.022 463 L
610.108 463 L
611.194 463 L
612.28 463 L
613.366 463 L
614.452 463 L
615.538 463 L
616.624 463 L
617.71 463 L
618.796 463 L
619.882 463 L
620.968 463 L
622.054 463 L
623.14 463 L
624.226 463 L
625.312 463 L
626.398 463 L
627.484 463 L
628.57 463 L
629.656 463 L
630.742 463 L
631.828 463 L
632.914 463 L
634 463 L
634.065 463 L
S
GR
GS
[0.75 0 0 0.74971 0 0.39999] CT
0.902 0.945 0.973 RC
1 LJ
0.667 LW
N
634.065 463 M
634 463 L
632.914 463 L
631.828 463 L
630.742 463 L
629.656 463 L
628.57 463 L
627.484 463 L
626.398 463 L
625.312 463 L
624.226 463 L
623.14 463 L
622.054 463 L
620.968 463 L
619.882 463 L
618.796 463 L
617.71 463 L
616.624 463 L
615.538 463 L
614.452 463 L
613.366 463 L
612.28 463 L
611.194 463 L
610.108 463 L
609.022 463 L
607.936 463 L
606.85 463 L
605.764 463 L
604.678 463 L
603.592 463 L
602.506 463 L
601.42 463 L
600.334 463 L
599.248 463 L
598.162 463 L
597.076 463 L
595.99 463 L
594.904 463 L
593.818 463 L
592.732 463 L
591.646 463 L
590.56 463 L
589.474 463 L
588.388 463 L
587.302 463 L
586.216 463 L
585.13 463 L
584.044 463 L
582.958 463 L
581.872 463 L
580.786 463 L
579.7 463 L
578.614 463 L
577.528 463 L
576.442 463 L
575.356 463 L
574.27 463 L
573.184 463 L
572.098 463 L
571.012 463 L
569.926 463 L
568.84 463 L
567.754 463 L
566.668 463 L
565.582 463 L
564.496 463 L
563.41 463 L
562.324 463 L
561.238 463 L
560.152 463 L
559.066 463 L
557.98 463 L
556.894 463 L
555.808 463 L
554.722 463 L
553.636 463 L
552.55 463 L
551.464 463 L
550.378 463 L
549.292 463 L
548.206 463 L
547.12 463 L
546.034 463 L
544.948 463 L
543.862 463 L
542.776 463 L
541.69 463 L
540.604 463 L
539.518 463 L
538.432 463 L
537.346 463 L
536.26 463 L
535.174 463 L
534.088 463 L
533.002 463 L
531.916 463 L
530.83 463 L
529.744 463 L
528.658 463 L
527.572 463 L
526.486 463 L
525.4 463 L
524.314 463 L
523.228 463 L
522.142 463 L
521.056 463 L
519.97 463 L
518.884 463 L
517.798 463 L
516.712 463 L
515.626 463 L
514.54 463 L
513.454 463 L
512.368 463 L
511.282 463 L
510.196 463 L
509.11 463 L
508.024 463 L
506.938 463 L
505.852 463 L
504.766 463 L
503.68 463 L
502.594 463 L
501.508 463 L
500.422 463 L
499.336 463 L
498.25 463 L
497.164 463 L
496.078 463 L
494.992 463 L
493.906 463 L
492.82 463 L
491.734 463 L
490.648 463 L
489.562 463 L
488.476 463 L
487.39 463 L
486.304 463 L
485.218 463 L
484.132 463 L
483.046 463 L
481.96 463 L
480.874 463 L
479.788 463 L
478.702 463 L
477.616 463 L
476.53 463 L
475.444 463 L
474.358 463 L
473.272 463 L
472.186 463 L
471.1 463 L
470.014 463 L
468.928 463 L
467.842 463 L
466.756 463 L
465.67 463 L
464.584 463 L
463.498 463 L
462.412 463 L
461.326 463 L
460.24 463 L
459.154 463 L
458.068 463 L
456.982 463 L
455.896 463 L
454.81 463 L
453.724 463 L
452.638 463 L
451.552 463 L
450.466 463 L
449.38 463 L
448.294 463 L
447.208 463 L
446.122 463 L
445.036 463 L
443.95 463 L
442.864 463 L
441.778 463 L
440.692 463 L
439.606 463 L
438.52 463 L
437.434 463 L
436.348 463 L
435.262 463 L
434.176 463 L
433.09 463 L
432.004 463 L
430.918 463 L
429.832 463 L
428.746 463 L
427.66 463 L
426.574 463 L
425.488 463 L
424.402 463 L
423.316 463 L
422.23 463 L
421.144 463 L
420.058 463 L
418.972 463 L
417.886 463 L
416.8 463 L
415.714 463 L
414.628 463 L
413.542 463 L
412.456 463 L
411.37 463 L
410.284 463 L
409.198 463 L
408.112 463 L
407.026 463 L
405.94 463 L
404.854 463 L
403.768 463 L
402.682 463 L
401.596 463 L
400.51 463 L
399.424 463 L
398.338 463 L
397.252 463 L
396.166 463 L
395.08 463 L
393.994 463 L
392.908 463 L
391.822 463 L
390.736 463 L
389.65 463 L
388.564 463 L
387.478 463 L
386.392 463 L
385.306 463 L
384.22 463 L
383.134 463 L
382.048 463 L
380.962 463 L
379.876 463 L
378.79 463 L
377.704 463 L
376.618 463 L
375.532 463 L
374.446 463 L
373.36 463 L
372.274 463 L
371.188 463 L
370.102 463 L
369.016 463 L
367.93 463 L
366.844 463 L
365.758 463 L
364.672 463 L
363.586 463 L
362.5 463 L
361.414 463 L
360.328 463 L
359.242 463 L
358.156 463 L
357.07 463 L
355.984 463 L
354.898 463 L
353.812 463 L
352.726 463 L
351.64 463 L
350.554 463 L
349.468 463 L
348.382 463 L
347.296 463 L
346.21 463 L
345.124 463 L
344.038 463 L
342.952 463 L
341.866 463 L
340.78 463 L
339.694 463 L
338.608 463 L
337.522 463 L
336.436 463 L
335.35 463 L
334.264 463 L
333.178 463 L
332.092 463 L
331.006 463 L
329.92 463 L
328.834 463 L
327.748 463 L
326.662 463 L
325.576 463 L
324.49 463 L
323.404 463 L
322.318 463 L
321.232 463 L
320.146 463 L
319.06 463 L
317.974 463 L
316.888 463 L
315.802 463 L
314.716 463 L
313.63 463 L
312.544 463 L
311.458 463 L
310.372 463 L
309.286 463 L
308.2 463 L
307.114 463 L
306.028 463 L
304.942 463 L
303.856 463 L
302.77 463 L
301.684 463 L
300.598 463 L
299.512 463 L
298.426 463 L
297.34 463 L
296.254 463 L
295.168 463 L
294.082 463 L
292.996 463 L
291.91 463 L
290.824 463 L
289.738 463 L
288.652 463 L
287.566 463 L
286.48 463 L
285.394 463 L
284.308 463 L
283.222 463 L
282.136 463 L
281.05 463 L
279.964 463 L
278.878 463 L
277.792 463 L
276.706 463 L
275.62 463 L
274.534 463 L
273.448 463 L
272.362 463 L
271.276 463 L
270.19 463 L
269.104 463 L
268.018 463 L
266.932 463 L
265.846 463 L
264.76 463 L
263.674 463 L
262.588 463 L
261.502 463 L
260.416 463 L
259.33 463 L
258.244 463 L
257.158 463 L
256.072 463 L
254.986 463 L
253.9 463 L
252.814 463 L
251.728 463 L
250.642 463 L
249.556 463 L
248.47 463 L
247.384 39 L
246.298 39 L
245.212 39 L
244.126 39 L
243.04 39 L
241.954 39 L
240.868 39 L
239.782 39 L
238.696 39 L
237.61 39 L
236.524 39 L
235.438 39 L
234.352 39 L
233.266 39 L
232.18 39 L
231.094 39 L
230.008 39 L
228.922 39 L
227.836 39 L
226.75 39 L
225.664 39 L
224.578 39 L
223.492 39 L
222.406 39 L
221.32 39 L
220.234 39 L
219.148 39 L
218.062 39 L
216.976 39 L
215.89 39 L
214.804 39 L
213.718 39 L
212.632 39 L
211.546 39 L
210.46 39 L
209.374 39 L
208.288 39 L
207.202 39 L
206.116 39 L
205.03 39 L
203.944 39 L
202.858 39 L
201.772 39 L
200.686 39 L
199.6 39 L
198.514 39 L
197.428 39 L
196.342 39 L
195.256 39 L
194.17 39 L
193.084 39 L
191.998 39 L
190.912 39 L
189.826 39 L
188.74 39 L
187.654 39 L
186.568 39 L
185.482 39 L
184.396 39 L
183.31 39 L
182.224 39 L
181.138 39 L
180.052 39 L
178.966 39 L
177.88 39 L
176.794 39 L
175.708 39 L
174.622 39 L
173.536 39 L
172.45 39 L
171.364 39 L
170.278 39 L
169.192 39 L
168.106 39 L
167.02 39 L
165.934 39 L
164.848 39 L
163.762 39 L
162.676 39 L
161.59 39 L
160.504 39 L
159.418 39 L
158.332 39 L
157.246 39 L
156.16 39 L
155.074 39 L
153.988 39 L
152.902 39 L
151.816 39 L
150.73 39 L
149.644 39 L
148.558 39 L
147.472 39 L
146.386 39 L
145.3 39 L
144.214 39 L
143.128 39 L
142.042 39 L
140.956 39 L
139.87 39 L
138.784 39 L
137.698 39 L
136.612 39 L
135.526 39 L
134.44 39 L
133.354 39 L
132.268 39 L
131.182 39 L
130.096 39 L
129.01 39 L
127.924 39 L
126.838 39 L
125.752 39 L
124.666 39 L
123.58 39 L
122.494 39 L
121.408 39 L
120.322 39 L
119.236 39 L
118.15 39 L
117.064 39 L
115.978 39 L
114.892 39 L
113.806 39 L
112.72 39 L
111.634 39 L
110.548 39 L
109.462 39 L
108.376 39 L
107.29 39 L
106.204 39 L
105.118 39 L
104.032 39 L
102.946 39 L
101.86 39 L
100.774 39 L
99.688 39 L
98.602 39 L
97.516 39 L
96.43 39 L
95.344 39 L
94.258 39 L
93.172 39 L
92.086 39 L
91 39 L
90.935 39 L
S
GR
GS
[0.75 0 0 0.74971 0 0.39999] CT
0.984 0.933 0.91 RC
N
247.384 463 M
248.47 463 L
249.556 463 L
250.642 463 L
251.728 463 L
252.814 463 L
253.9 463 L
254.986 463 L
256.072 463 L
257.158 463 L
258.244 463 L
259.33 463 L
260.416 463 L
261.502 463 L
262.588 463 L
263.674 463 L
264.76 463 L
265.846 463 L
266.932 463 L
268.018 463 L
269.104 463 L
270.19 463 L
271.276 463 L
272.362 463 L
273.448 463 L
274.534 463 L
275.62 463 L
276.706 463 L
277.792 463 L
278.878 463 L
279.964 463 L
281.05 463 L
282.136 463 L
283.222 463 L
284.308 463 L
285.394 463 L
286.48 463 L
287.566 463 L
288.652 463 L
289.738 463 L
290.824 463 L
291.91 463 L
292.996 463 L
294.082 463 L
295.168 463 L
296.254 463 L
297.34 463 L
298.426 463 L
299.512 463 L
300.598 463 L
301.684 463 L
302.77 463 L
303.856 463 L
304.942 463 L
306.028 463 L
307.114 463 L
308.2 463 L
309.286 463 L
310.372 463 L
311.458 463 L
312.544 463 L
313.63 463 L
314.716 463 L
315.802 463 L
316.888 463 L
317.974 463 L
319.06 463 L
320.146 463 L
321.232 463 L
322.318 463 L
323.404 463 L
324.49 463 L
325.576 463 L
326.662 463 L
327.748 463 L
328.834 463 L
329.92 463 L
331.006 463 L
332.092 463 L
333.178 463 L
334.264 463 L
335.35 463 L
336.436 463 L
337.522 463 L
338.608 463 L
339.694 463 L
340.78 463 L
341.866 463 L
342.952 463 L
344.038 463 L
345.124 463 L
346.21 463 L
347.296 463 L
348.382 463 L
349.468 463 L
350.554 463 L
351.64 463 L
352.726 463 L
353.812 463 L
354.898 463 L
355.984 463 L
357.07 463 L
358.156 463 L
359.242 463 L
360.328 463 L
361.414 463 L
362.5 463 L
363.586 463 L
364.672 463 L
365.758 463 L
366.844 463 L
367.93 463 L
369.016 463 L
370.102 463 L
371.188 463 L
372.274 463 L
373.36 463 L
374.446 463 L
375.532 463 L
376.618 463 L
377.704 463 L
378.79 463 L
379.876 463 L
380.962 463 L
382.048 463 L
383.134 463 L
384.22 463 L
385.306 463 L
386.392 463 L
387.478 463 L
388.564 463 L
389.65 463 L
390.736 463 L
391.822 463 L
392.908 463 L
393.994 463 L
395.08 463 L
396.166 463 L
397.252 463 L
398.338 463 L
399.424 463 L
400.51 463 L
401.596 463 L
402.682 463 L
403.768 463 L
404.854 463 L
405.94 463 L
407.026 463 L
408.112 463 L
409.198 463 L
410.284 463 L
411.37 463 L
412.456 463 L
413.542 463 L
414.628 463 L
415.714 463 L
416.8 463 L
417.886 463 L
418.972 463 L
420.058 463 L
421.144 463 L
422.23 463 L
423.316 463 L
424.402 463 L
425.488 463 L
426.574 463 L
427.66 463 L
428.746 463 L
429.832 463 L
430.918 463 L
432.004 463 L
433.09 463 L
434.176 463 L
435.262 463 L
436.348 463 L
437.434 463 L
438.52 463 L
439.606 463 L
440.692 463 L
441.778 463 L
442.864 463 L
443.95 463 L
445.036 463 L
446.122 463 L
447.208 463 L
448.294 463 L
449.38 463 L
450.466 463 L
451.552 463 L
452.638 463 L
453.724 463 L
454.81 463 L
455.896 463 L
456.982 463 L
458.068 463 L
459.154 463 L
460.24 463 L
461.326 463 L
462.412 463 L
463.498 463 L
464.584 463 L
465.67 463 L
466.756 463 L
467.842 463 L
468.928 463 L
470.014 463 L
471.1 463 L
472.186 463 L
473.272 463 L
474.358 463 L
475.444 463 L
476.53 463 L
477.616 463 L
478.702 463 L
479.788 463 L
480.874 463 L
481.96 463 L
483.046 463 L
484.132 463 L
485.218 463 L
486.304 463 L
487.39 463 L
488.476 463 L
489.562 463 L
490.648 463 L
491.734 463 L
492.82 463 L
493.906 463 L
494.992 463 L
496.078 463 L
497.164 463 L
498.25 463 L
499.336 463 L
500.422 463 L
501.508 463 L
502.594 463 L
503.68 463 L
504.766 463 L
505.852 463 L
506.938 463 L
508.024 463 L
509.11 463 L
510.196 463 L
511.282 463 L
512.368 463 L
513.454 463 L
514.54 463 L
515.626 463 L
516.712 463 L
517.798 463 L
518.884 463 L
519.97 463 L
521.056 463 L
522.142 463 L
523.228 463 L
524.314 463 L
525.4 463 L
526.486 463 L
527.572 463 L
528.658 463 L
529.744 463 L
530.83 463 L
531.916 463 L
533.002 463 L
534.088 463 L
535.174 463 L
536.26 463 L
537.346 463 L
538.432 463 L
539.518 463 L
540.604 463 L
541.69 463 L
542.776 463 L
543.862 463 L
544.948 463 L
546.034 463 L
547.12 463 L
548.206 463 L
549.292 463 L
550.378 463 L
551.464 463 L
552.55 463 L
553.636 463 L
554.722 463 L
555.808 463 L
556.894 463 L
557.98 463 L
559.066 463 L
560.152 463 L
561.238 463 L
562.324 463 L
563.41 463 L
564.496 463 L
565.582 463 L
566.668 463 L
567.754 463 L
568.84 463 L
569.926 463 L
571.012 463 L
572.098 463 L
573.184 463 L
574.27 463 L
575.356 463 L
576.442 463 L
577.528 463 L
578.614 463 L
579.7 463 L
580.786 463 L
581.872 463 L
582.958 463 L
584.044 463 L
585.13 463 L
586.216 463 L
587.302 463 L
588.388 463 L
589.474 463 L
590.56 463 L
591.646 463 L
592.732 463 L
593.818 463 L
594.904 463 L
595.99 463 L
597.076 463 L
598.162 463 L
599.248 463 L
600.334 463 L
601.42 463 L
602.506 463 L
603.592 463 L
604.678 463 L
605.764 463 L
606.85 463 L
607.936 463 L
609.022 463 L
610.108 463 L
611.194 463 L
612.28 463 L
613.366 463 L
614.452 463 L
615.538 463 L
616.624 463 L
617.71 463 L
618.796 463 L
619.882 463 L
620.968 463 L
622.054 463 L
623.14 463 L
624.226 463 L
625.312 463 L
626.398 463 L
627.484 463 L
628.57 463 L
629.656 463 L
630.742 463 L
631.828 463 L
632.914 463 L
634 463 L
634.065 463 L
634.065 64.27 L
634.065 39 L
634 39 L
632.914 39 L
631.828 39 L
630.742 39 L
629.656 39 L
628.57 39 L
627.484 39 L
626.398 39 L
625.312 39 L
624.226 39 L
623.14 39 L
622.054 39 L
620.968 39 L
619.882 39 L
618.796 39 L
617.71 39 L
616.624 39 L
615.538 39 L
614.452 39 L
613.366 39 L
612.28 39 L
611.194 39 L
610.108 39 L
609.022 39 L
607.936 39 L
606.85 39 L
605.764 39 L
604.678 39 L
603.592 39 L
602.506 39 L
601.42 39 L
600.334 39 L
599.248 39 L
598.162 39 L
597.076 39 L
595.99 39 L
594.904 39 L
593.818 39 L
592.732 39 L
591.646 39 L
590.56 39 L
589.474 39 L
588.388 39 L
587.302 39 L
586.216 39 L
585.13 39 L
584.044 39 L
582.958 39 L
581.872 39 L
580.786 39 L
579.7 39 L
578.614 39 L
577.528 39 L
576.442 39 L
575.356 39 L
574.27 39 L
573.184 39 L
572.098 39 L
571.012 39 L
569.926 39 L
568.84 39 L
567.754 39 L
566.668 39 L
565.582 39 L
564.496 39 L
563.41 39 L
562.324 39 L
561.238 39 L
560.152 39 L
559.066 39 L
557.98 39 L
556.894 39 L
555.808 39 L
554.722 39 L
553.636 39 L
552.55 39 L
551.464 39 L
550.378 39 L
549.292 39 L
548.206 39 L
547.12 39 L
546.034 39 L
544.948 39 L
543.862 39 L
542.776 39 L
541.69 39 L
540.604 39 L
539.518 39 L
538.432 39 L
537.346 39 L
536.26 39 L
535.174 39 L
534.088 39 L
533.002 39 L
531.916 39 L
530.83 39 L
529.744 39 L
528.658 39 L
527.572 39 L
526.486 39 L
525.4 39 L
524.314 39 L
523.228 39 L
522.142 39 L
521.056 39 L
519.97 39 L
518.884 39 L
517.798 39 L
516.712 39 L
515.626 39 L
514.54 39 L
513.454 39 L
512.368 39 L
511.282 39 L
510.196 39 L
509.11 39 L
508.024 39 L
506.938 39 L
505.852 39 L
504.766 39 L
503.68 39 L
502.594 39 L
501.508 39 L
500.422 39 L
499.336 39 L
498.25 39 L
497.164 39 L
496.078 39 L
494.992 39 L
493.906 39 L
492.82 39 L
491.734 39 L
490.648 39 L
489.562 39 L
488.476 39 L
487.39 39 L
486.304 39 L
485.218 39 L
484.132 39 L
483.046 39 L
481.96 39 L
480.874 39 L
479.788 39 L
478.702 39 L
477.616 39 L
476.53 39 L
475.444 39 L
474.358 39 L
473.272 39 L
472.186 39 L
471.1 39 L
470.014 39 L
468.928 39 L
467.842 39 L
466.756 39 L
465.67 39 L
464.584 39 L
463.498 39 L
462.412 39 L
461.326 39 L
460.24 39 L
459.154 39 L
458.068 39 L
456.982 39 L
455.896 39 L
454.81 39 L
453.724 39 L
452.638 39 L
451.552 39 L
450.466 39 L
449.38 39 L
448.294 39 L
447.208 39 L
446.122 39 L
445.036 39 L
443.95 39 L
442.864 39 L
441.778 39 L
440.692 39 L
439.606 39 L
438.52 39 L
437.434 39 L
436.348 39 L
435.262 39 L
434.176 39 L
433.09 39 L
432.004 39 L
430.918 39 L
429.832 39 L
428.746 39 L
427.66 39 L
426.574 39 L
425.488 39 L
424.402 39 L
423.316 39 L
422.23 39 L
421.144 39 L
420.058 39 L
418.972 39 L
417.886 39 L
416.8 39 L
415.714 39 L
414.628 39 L
413.542 39 L
412.456 39 L
411.37 39 L
410.284 39 L
409.198 39 L
408.112 39 L
407.026 39 L
405.94 39 L
404.854 39 L
403.768 39 L
402.682 39 L
401.596 39 L
400.51 39 L
399.424 39 L
398.338 39 L
397.252 39 L
396.166 39 L
395.08 39 L
393.994 39 L
392.908 39 L
391.822 39 L
390.736 39 L
389.65 39 L
388.564 39 L
387.478 39 L
386.392 39 L
385.306 39 L
384.22 39 L
383.134 39 L
382.048 39 L
380.962 39 L
379.876 39 L
378.79 39 L
377.704 39 L
376.618 39 L
375.532 39 L
374.446 39 L
373.36 39 L
372.274 39 L
371.188 39 L
370.102 39 L
369.016 39 L
367.93 39 L
366.844 39 L
365.758 39 L
364.672 39 L
363.586 39 L
362.5 39 L
361.414 39 L
360.328 39 L
359.242 39 L
358.156 39 L
357.07 39 L
355.984 39 L
354.898 39 L
353.812 39 L
352.726 39 L
351.64 39 L
350.554 39 L
349.468 39 L
348.382 39 L
347.296 39 L
346.21 39 L
345.124 39 L
344.038 39 L
342.952 39 L
341.866 39 L
340.78 39 L
339.694 39 L
338.608 39 L
337.522 39 L
336.436 39 L
335.35 39 L
334.264 39 L
333.178 39 L
332.092 39 L
331.006 39 L
329.92 39 L
328.834 39 L
327.748 39 L
326.662 39 L
325.576 39 L
324.49 39 L
323.404 39 L
322.318 39 L
321.232 39 L
320.146 39 L
319.06 39 L
317.974 39 L
316.888 39 L
315.802 39 L
314.716 39 L
313.63 39 L
312.544 39 L
311.458 39 L
310.372 39 L
309.286 39 L
308.2 39 L
307.114 39 L
306.028 39 L
304.942 39 L
303.856 39 L
302.77 39 L
301.684 39 L
300.598 39 L
299.512 39 L
298.426 39 L
297.34 39 L
296.254 39 L
295.168 39 L
294.082 39 L
292.996 39 L
291.91 39 L
290.824 39 L
289.738 39 L
288.652 39 L
287.566 39 L
286.48 39 L
285.394 39 L
284.308 39 L
283.222 39 L
282.136 39 L
281.05 39 L
279.964 39 L
278.878 39 L
277.792 39 L
276.706 39 L
275.62 39 L
274.534 39 L
273.448 39 L
272.362 39 L
271.276 39 L
270.19 39 L
269.104 39 L
268.018 39 L
266.932 39 L
265.846 39 L
264.76 39 L
263.674 39 L
262.588 39 L
261.502 39 L
260.416 39 L
259.33 39 L
258.244 39 L
257.158 39 L
256.072 39 L
254.986 39 L
253.9 39 L
252.814 39 L
251.728 39 L
250.642 39 L
249.556 39 L
248.47 39 L
cp
f
GR
GS
[0.75 0 0 0.74971 0 0.39999] CT
0.984 0.933 0.91 RC
1 LJ
0.667 LW
N
90.935 463 M
91 463 L
92.086 463 L
93.172 463 L
94.258 463 L
95.344 463 L
96.43 463 L
97.516 463 L
98.602 463 L
99.688 463 L
100.774 463 L
101.86 463 L
102.946 463 L
104.032 463 L
105.118 463 L
106.204 463 L
107.29 463 L
108.376 463 L
109.462 463 L
110.548 463 L
111.634 463 L
112.72 463 L
113.806 463 L
114.892 463 L
115.978 463 L
117.064 463 L
118.15 463 L
119.236 463 L
120.322 463 L
121.408 463 L
122.494 463 L
123.58 463 L
124.666 463 L
125.752 463 L
126.838 463 L
127.924 463 L
129.01 463 L
130.096 463 L
131.182 463 L
132.268 463 L
133.354 463 L
134.44 463 L
135.526 463 L
136.612 463 L
137.698 463 L
138.784 463 L
139.87 463 L
140.956 463 L
142.042 463 L
143.128 463 L
144.214 463 L
145.3 463 L
146.386 463 L
147.472 463 L
148.558 463 L
149.644 463 L
150.73 463 L
151.816 463 L
152.902 463 L
153.988 463 L
155.074 463 L
156.16 463 L
157.246 463 L
158.332 463 L
159.418 463 L
160.504 463 L
161.59 463 L
162.676 463 L
163.762 463 L
164.848 463 L
165.934 463 L
167.02 463 L
168.106 463 L
169.192 463 L
170.278 463 L
171.364 463 L
172.45 463 L
173.536 463 L
174.622 463 L
175.708 463 L
176.794 463 L
177.88 463 L
178.966 463 L
180.052 463 L
181.138 463 L
182.224 463 L
183.31 463 L
184.396 463 L
185.482 463 L
186.568 463 L
187.654 463 L
188.74 463 L
189.826 463 L
190.912 463 L
191.998 463 L
193.084 463 L
194.17 463 L
195.256 463 L
196.342 463 L
197.428 463 L
198.514 463 L
199.6 463 L
200.686 463 L
201.772 463 L
202.858 463 L
203.944 463 L
205.03 463 L
206.116 463 L
207.202 463 L
208.288 463 L
209.374 463 L
210.46 463 L
211.546 463 L
212.632 463 L
213.718 463 L
214.804 463 L
215.89 463 L
216.976 463 L
218.062 463 L
219.148 463 L
220.234 463 L
221.32 463 L
222.406 463 L
223.492 463 L
224.578 463 L
225.664 463 L
226.75 463 L
227.836 463 L
228.922 463 L
230.008 463 L
231.094 463 L
232.18 463 L
233.266 463 L
234.352 463 L
235.438 463 L
236.524 463 L
237.61 463 L
238.696 463 L
239.782 463 L
240.868 463 L
241.954 463 L
243.04 463 L
244.126 463 L
245.212 463 L
246.298 463 L
247.384 463 L
248.47 463 L
249.556 463 L
250.642 463 L
251.728 463 L
252.814 463 L
253.9 463 L
254.986 463 L
256.072 463 L
257.158 463 L
258.244 463 L
259.33 463 L
260.416 463 L
261.502 463 L
262.588 463 L
263.674 463 L
264.76 463 L
265.846 463 L
266.932 463 L
268.018 463 L
269.104 463 L
270.19 463 L
271.276 463 L
272.362 463 L
273.448 463 L
274.534 463 L
275.62 463 L
276.706 463 L
277.792 463 L
278.878 463 L
279.964 463 L
281.05 463 L
282.136 463 L
283.222 463 L
284.308 463 L
285.394 463 L
286.48 463 L
287.566 463 L
288.652 463 L
289.738 463 L
290.824 463 L
291.91 463 L
292.996 463 L
294.082 463 L
295.168 463 L
296.254 463 L
297.34 463 L
298.426 463 L
299.512 463 L
300.598 463 L
301.684 463 L
302.77 463 L
303.856 463 L
304.942 463 L
306.028 463 L
307.114 463 L
308.2 463 L
309.286 463 L
310.372 463 L
311.458 463 L
312.544 463 L
313.63 463 L
314.716 463 L
315.802 463 L
316.888 463 L
317.974 463 L
319.06 463 L
320.146 463 L
321.232 463 L
322.318 463 L
323.404 463 L
324.49 463 L
325.576 463 L
326.662 463 L
327.748 463 L
328.834 463 L
329.92 463 L
331.006 463 L
332.092 463 L
333.178 463 L
334.264 463 L
335.35 463 L
336.436 463 L
337.522 463 L
338.608 463 L
339.694 463 L
340.78 463 L
341.866 463 L
342.952 463 L
344.038 463 L
345.124 463 L
346.21 463 L
347.296 463 L
348.382 463 L
349.468 463 L
350.554 463 L
351.64 463 L
352.726 463 L
353.812 463 L
354.898 463 L
355.984 463 L
357.07 463 L
358.156 463 L
359.242 463 L
360.328 463 L
361.414 463 L
362.5 463 L
363.586 463 L
364.672 463 L
365.758 463 L
366.844 463 L
367.93 463 L
369.016 463 L
370.102 463 L
371.188 463 L
372.274 463 L
373.36 463 L
374.446 463 L
375.532 463 L
376.618 463 L
377.704 463 L
378.79 463 L
379.876 463 L
380.962 463 L
382.048 463 L
383.134 463 L
384.22 463 L
385.306 463 L
386.392 463 L
387.478 463 L
388.564 463 L
389.65 463 L
390.736 463 L
391.822 463 L
392.908 463 L
393.994 463 L
395.08 463 L
396.166 463 L
397.252 463 L
398.338 463 L
399.424 463 L
400.51 463 L
401.596 463 L
402.682 463 L
403.768 463 L
404.854 463 L
405.94 463 L
407.026 463 L
408.112 463 L
409.198 463 L
410.284 463 L
411.37 463 L
412.456 463 L
413.542 463 L
414.628 463 L
415.714 463 L
416.8 463 L
417.886 463 L
418.972 463 L
420.058 463 L
421.144 463 L
422.23 463 L
423.316 463 L
424.402 463 L
425.488 463 L
426.574 463 L
427.66 463 L
428.746 463 L
429.832 463 L
430.918 463 L
432.004 463 L
433.09 463 L
434.176 463 L
435.262 463 L
436.348 463 L
437.434 463 L
438.52 463 L
439.606 463 L
440.692 463 L
441.778 463 L
442.864 463 L
443.95 463 L
445.036 463 L
446.122 463 L
447.208 463 L
448.294 463 L
449.38 463 L
450.466 463 L
451.552 463 L
452.638 463 L
453.724 463 L
454.81 463 L
455.896 463 L
456.982 463 L
458.068 463 L
459.154 463 L
460.24 463 L
461.326 463 L
462.412 463 L
463.498 463 L
464.584 463 L
465.67 463 L
466.756 463 L
467.842 463 L
468.928 463 L
470.014 463 L
471.1 463 L
472.186 463 L
473.272 463 L
474.358 463 L
475.444 463 L
476.53 463 L
477.616 463 L
478.702 463 L
479.788 463 L
480.874 463 L
481.96 463 L
483.046 463 L
484.132 463 L
485.218 463 L
486.304 463 L
487.39 463 L
488.476 463 L
489.562 463 L
490.648 463 L
491.734 463 L
492.82 463 L
493.906 463 L
494.992 463 L
496.078 463 L
497.164 463 L
498.25 463 L
499.336 463 L
500.422 463 L
501.508 463 L
502.594 463 L
503.68 463 L
504.766 463 L
505.852 463 L
506.938 463 L
508.024 463 L
509.11 463 L
510.196 463 L
511.282 463 L
512.368 463 L
513.454 463 L
514.54 463 L
515.626 463 L
516.712 463 L
517.798 463 L
518.884 463 L
519.97 463 L
521.056 463 L
522.142 463 L
523.228 463 L
524.314 463 L
525.4 463 L
526.486 463 L
527.572 463 L
528.658 463 L
529.744 463 L
530.83 463 L
531.916 463 L
533.002 463 L
534.088 463 L
535.174 463 L
536.26 463 L
537.346 463 L
538.432 463 L
539.518 463 L
540.604 463 L
541.69 463 L
542.776 463 L
543.862 463 L
544.948 463 L
546.034 463 L
547.12 463 L
548.206 463 L
549.292 463 L
550.378 463 L
551.464 463 L
552.55 463 L
553.636 463 L
554.722 463 L
555.808 463 L
556.894 463 L
557.98 463 L
559.066 463 L
560.152 463 L
561.238 463 L
562.324 463 L
563.41 463 L
564.496 463 L
565.582 463 L
566.668 463 L
567.754 463 L
568.84 463 L
569.926 463 L
571.012 463 L
572.098 463 L
573.184 463 L
574.27 463 L
575.356 463 L
576.442 463 L
577.528 463 L
578.614 463 L
579.7 463 L
580.786 463 L
581.872 463 L
582.958 463 L
584.044 463 L
585.13 463 L
586.216 463 L
587.302 463 L
588.388 463 L
589.474 463 L
590.56 463 L
591.646 463 L
592.732 463 L
593.818 463 L
594.904 463 L
595.99 463 L
597.076 463 L
598.162 463 L
599.248 463 L
600.334 463 L
601.42 463 L
602.506 463 L
603.592 463 L
604.678 463 L
605.764 463 L
606.85 463 L
607.936 463 L
609.022 463 L
610.108 463 L
611.194 463 L
612.28 463 L
613.366 463 L
614.452 463 L
615.538 463 L
616.624 463 L
617.71 463 L
618.796 463 L
619.882 463 L
620.968 463 L
622.054 463 L
623.14 463 L
624.226 463 L
625.312 463 L
626.398 463 L
627.484 463 L
628.57 463 L
629.656 463 L
630.742 463 L
631.828 463 L
632.914 463 L
634 463 L
634.065 463 L
S
GR
GS
[0.75 0 0 0.74971 0 0.39999] CT
0.984 0.933 0.91 RC
1 LJ
0.667 LW
N
634.065 39 M
634 39 L
632.914 39 L
631.828 39 L
630.742 39 L
629.656 39 L
628.57 39 L
627.484 39 L
626.398 39 L
625.312 39 L
624.226 39 L
623.14 39 L
622.054 39 L
620.968 39 L
619.882 39 L
618.796 39 L
617.71 39 L
616.624 39 L
615.538 39 L
614.452 39 L
613.366 39 L
612.28 39 L
611.194 39 L
610.108 39 L
609.022 39 L
607.936 39 L
606.85 39 L
605.764 39 L
604.678 39 L
603.592 39 L
602.506 39 L
601.42 39 L
600.334 39 L
599.248 39 L
598.162 39 L
597.076 39 L
595.99 39 L
594.904 39 L
593.818 39 L
592.732 39 L
591.646 39 L
590.56 39 L
589.474 39 L
588.388 39 L
587.302 39 L
586.216 39 L
585.13 39 L
584.044 39 L
582.958 39 L
581.872 39 L
580.786 39 L
579.7 39 L
578.614 39 L
577.528 39 L
576.442 39 L
575.356 39 L
574.27 39 L
573.184 39 L
572.098 39 L
571.012 39 L
569.926 39 L
568.84 39 L
567.754 39 L
566.668 39 L
565.582 39 L
564.496 39 L
563.41 39 L
562.324 39 L
561.238 39 L
560.152 39 L
559.066 39 L
557.98 39 L
556.894 39 L
555.808 39 L
554.722 39 L
553.636 39 L
552.55 39 L
551.464 39 L
550.378 39 L
549.292 39 L
548.206 39 L
547.12 39 L
546.034 39 L
544.948 39 L
543.862 39 L
542.776 39 L
541.69 39 L
540.604 39 L
539.518 39 L
538.432 39 L
537.346 39 L
536.26 39 L
535.174 39 L
534.088 39 L
533.002 39 L
531.916 39 L
530.83 39 L
529.744 39 L
528.658 39 L
527.572 39 L
526.486 39 L
525.4 39 L
524.314 39 L
523.228 39 L
522.142 39 L
521.056 39 L
519.97 39 L
518.884 39 L
517.798 39 L
516.712 39 L
515.626 39 L
514.54 39 L
513.454 39 L
512.368 39 L
511.282 39 L
510.196 39 L
509.11 39 L
508.024 39 L
506.938 39 L
505.852 39 L
504.766 39 L
503.68 39 L
502.594 39 L
501.508 39 L
500.422 39 L
499.336 39 L
498.25 39 L
497.164 39 L
496.078 39 L
494.992 39 L
493.906 39 L
492.82 39 L
491.734 39 L
490.648 39 L
489.562 39 L
488.476 39 L
487.39 39 L
486.304 39 L
485.218 39 L
484.132 39 L
483.046 39 L
481.96 39 L
480.874 39 L
479.788 39 L
478.702 39 L
477.616 39 L
476.53 39 L
475.444 39 L
474.358 39 L
473.272 39 L
472.186 39 L
471.1 39 L
470.014 39 L
468.928 39 L
467.842 39 L
466.756 39 L
465.67 39 L
464.584 39 L
463.498 39 L
462.412 39 L
461.326 39 L
460.24 39 L
459.154 39 L
458.068 39 L
456.982 39 L
455.896 39 L
454.81 39 L
453.724 39 L
452.638 39 L
451.552 39 L
450.466 39 L
449.38 39 L
448.294 39 L
447.208 39 L
446.122 39 L
445.036 39 L
443.95 39 L
442.864 39 L
441.778 39 L
440.692 39 L
439.606 39 L
438.52 39 L
437.434 39 L
436.348 39 L
435.262 39 L
434.176 39 L
433.09 39 L
432.004 39 L
430.918 39 L
429.832 39 L
428.746 39 L
427.66 39 L
426.574 39 L
425.488 39 L
424.402 39 L
423.316 39 L
422.23 39 L
421.144 39 L
420.058 39 L
418.972 39 L
417.886 39 L
416.8 39 L
415.714 39 L
414.628 39 L
413.542 39 L
412.456 39 L
411.37 39 L
410.284 39 L
409.198 39 L
408.112 39 L
407.026 39 L
405.94 39 L
404.854 39 L
403.768 39 L
402.682 39 L
401.596 39 L
400.51 39 L
399.424 39 L
398.338 39 L
397.252 39 L
396.166 39 L
395.08 39 L
393.994 39 L
392.908 39 L
391.822 39 L
390.736 39 L
389.65 39 L
388.564 39 L
387.478 39 L
386.392 39 L
385.306 39 L
384.22 39 L
383.134 39 L
382.048 39 L
380.962 39 L
379.876 39 L
378.79 39 L
377.704 39 L
376.618 39 L
375.532 39 L
374.446 39 L
373.36 39 L
372.274 39 L
371.188 39 L
370.102 39 L
369.016 39 L
367.93 39 L
366.844 39 L
365.758 39 L
364.672 39 L
363.586 39 L
362.5 39 L
361.414 39 L
360.328 39 L
359.242 39 L
358.156 39 L
357.07 39 L
355.984 39 L
354.898 39 L
353.812 39 L
352.726 39 L
351.64 39 L
350.554 39 L
349.468 39 L
348.382 39 L
347.296 39 L
346.21 39 L
345.124 39 L
344.038 39 L
342.952 39 L
341.866 39 L
340.78 39 L
339.694 39 L
338.608 39 L
337.522 39 L
336.436 39 L
335.35 39 L
334.264 39 L
333.178 39 L
332.092 39 L
331.006 39 L
329.92 39 L
328.834 39 L
327.748 39 L
326.662 39 L
325.576 39 L
324.49 39 L
323.404 39 L
322.318 39 L
321.232 39 L
320.146 39 L
319.06 39 L
317.974 39 L
316.888 39 L
315.802 39 L
314.716 39 L
313.63 39 L
312.544 39 L
311.458 39 L
310.372 39 L
309.286 39 L
308.2 39 L
307.114 39 L
306.028 39 L
304.942 39 L
303.856 39 L
302.77 39 L
301.684 39 L
300.598 39 L
299.512 39 L
298.426 39 L
297.34 39 L
296.254 39 L
295.168 39 L
294.082 39 L
292.996 39 L
291.91 39 L
290.824 39 L
289.738 39 L
288.652 39 L
287.566 39 L
286.48 39 L
285.394 39 L
284.308 39 L
283.222 39 L
282.136 39 L
281.05 39 L
279.964 39 L
278.878 39 L
277.792 39 L
276.706 39 L
275.62 39 L
274.534 39 L
273.448 39 L
272.362 39 L
271.276 39 L
270.19 39 L
269.104 39 L
268.018 39 L
266.932 39 L
265.846 39 L
264.76 39 L
263.674 39 L
262.588 39 L
261.502 39 L
260.416 39 L
259.33 39 L
258.244 39 L
257.158 39 L
256.072 39 L
254.986 39 L
253.9 39 L
252.814 39 L
251.728 39 L
250.642 39 L
249.556 39 L
248.47 39 L
247.384 463 L
246.298 463 L
245.212 463 L
244.126 463 L
243.04 463 L
241.954 463 L
240.868 463 L
239.782 463 L
238.696 463 L
237.61 463 L
236.524 463 L
235.438 463 L
234.352 463 L
233.266 463 L
232.18 463 L
231.094 463 L
230.008 463 L
228.922 463 L
227.836 463 L
226.75 463 L
225.664 463 L
224.578 463 L
223.492 463 L
222.406 463 L
221.32 463 L
220.234 463 L
219.148 463 L
218.062 463 L
216.976 463 L
215.89 463 L
214.804 463 L
213.718 463 L
212.632 463 L
211.546 463 L
210.46 463 L
209.374 463 L
208.288 463 L
207.202 463 L
206.116 463 L
205.03 463 L
203.944 463 L
202.858 463 L
201.772 463 L
200.686 463 L
199.6 463 L
198.514 463 L
197.428 463 L
196.342 463 L
195.256 463 L
194.17 463 L
193.084 463 L
191.998 463 L
190.912 463 L
189.826 463 L
188.74 463 L
187.654 463 L
186.568 463 L
185.482 463 L
184.396 463 L
183.31 463 L
182.224 463 L
181.138 463 L
180.052 463 L
178.966 463 L
177.88 463 L
176.794 463 L
175.708 463 L
174.622 463 L
173.536 463 L
172.45 463 L
171.364 463 L
170.278 463 L
169.192 463 L
168.106 463 L
167.02 463 L
165.934 463 L
164.848 463 L
163.762 463 L
162.676 463 L
161.59 463 L
160.504 463 L
159.418 463 L
158.332 463 L
157.246 463 L
156.16 463 L
155.074 463 L
153.988 463 L
152.902 463 L
151.816 463 L
150.73 463 L
149.644 463 L
148.558 463 L
147.472 463 L
146.386 463 L
145.3 463 L
144.214 463 L
143.128 463 L
142.042 463 L
140.956 463 L
139.87 463 L
138.784 463 L
137.698 463 L
136.612 463 L
135.526 463 L
134.44 463 L
133.354 463 L
132.268 463 L
131.182 463 L
130.096 463 L
129.01 463 L
127.924 463 L
126.838 463 L
125.752 463 L
124.666 463 L
123.58 463 L
122.494 463 L
121.408 463 L
120.322 463 L
119.236 463 L
118.15 463 L
117.064 463 L
115.978 463 L
114.892 463 L
113.806 463 L
112.72 463 L
111.634 463 L
110.548 463 L
109.462 463 L
108.376 463 L
107.29 463 L
106.204 463 L
105.118 463 L
104.032 463 L
102.946 463 L
101.86 463 L
100.774 463 L
99.688 463 L
98.602 463 L
97.516 463 L
96.43 463 L
95.344 463 L
94.258 463 L
93.172 463 L
92.086 463 L
91 463 L
90.935 463 L
S
GR
GS
[0.75 0 0 0.74971 0 0.39999] CT
0 0.447 0.741 RC
1 LJ
2.667 LW
N
90.935 453.158 M
91 453.136 L
92.086 452.747 L
93.172 452.345 L
94.258 451.93 L
95.344 451.502 L
96.43 451.06 L
97.516 450.604 L
98.602 450.134 L
99.688 449.649 L
100.774 449.15 L
101.86 448.635 L
102.946 448.105 L
104.032 447.559 L
105.118 446.997 L
106.204 446.419 L
107.29 445.825 L
108.376 445.214 L
109.462 444.586 L
110.548 443.942 L
111.634 443.28 L
112.72 442.602 L
113.806 441.906 L
114.892 441.193 L
115.978 440.463 L
117.064 439.716 L
118.15 438.951 L
119.236 438.17 L
120.322 437.372 L
121.408 436.557 L
122.494 435.726 L
123.58 434.879 L
124.666 434.016 L
125.752 433.137 L
126.838 432.244 L
127.924 431.336 L
129.01 430.415 L
130.096 429.48 L
131.182 428.532 L
132.268 427.572 L
133.354 426.601 L
134.44 425.619 L
135.526 424.627 L
136.612 423.626 L
137.698 422.617 L
138.784 421.601 L
139.87 420.578 L
140.956 419.551 L
142.042 418.518 L
143.128 417.483 L
144.214 416.445 L
145.3 415.406 L
146.386 414.367 L
147.472 413.329 L
148.558 412.293 L
149.644 411.26 L
150.73 410.232 L
151.816 409.209 L
152.902 408.192 L
153.988 407.182 L
155.074 406.182 L
156.16 405.191 L
157.246 404.21 L
158.332 403.241 L
159.418 402.285 L
160.504 401.342 L
161.59 400.414 L
162.676 399.501 L
163.762 398.604 L
164.848 397.724 L
165.934 396.862 L
167.02 396.019 L
168.106 395.195 L
169.192 394.39 L
170.278 393.606 L
171.364 392.844 L
172.45 392.103 L
173.536 391.384 L
174.622 390.688 L
175.708 390.015 L
176.794 389.365 L
177.88 388.74 L
178.966 388.138 L
180.052 387.562 L
181.138 387.01 L
182.224 386.484 L
183.31 385.983 L
184.396 385.507 L
185.482 385.058 L
186.568 384.635 L
187.654 384.238 L
188.74 383.867 L
189.826 383.523 L
190.912 383.205 L
191.998 382.915 L
193.084 382.651 L
194.17 382.414 L
195.256 382.204 L
196.342 382.021 L
197.428 381.865 L
198.514 381.736 L
199.6 381.634 L
200.686 381.56 L
201.772 381.512 L
202.858 381.492 L
203.944 381.499 L
205.03 381.533 L
206.116 381.593 L
207.202 381.681 L
208.288 381.796 L
209.374 381.937 L
210.46 382.105 L
211.546 382.299 L
212.632 382.52 L
213.718 382.767 L
214.804 383.04 L
215.89 383.338 L
216.976 383.663 L
218.062 384.012 L
219.148 384.386 L
220.234 384.785 L
221.32 385.208 L
222.406 385.655 L
223.492 386.125 L
224.578 386.618 L
225.664 387.133 L
226.75 387.671 L
227.836 388.229 L
228.922 388.809 L
230.008 389.408 L
231.094 390.026 L
232.18 390.664 L
233.266 391.319 L
234.352 391.991 L
235.438 392.679 L
236.524 393.382 L
237.61 394.1 L
238.696 394.832 L
239.782 395.576 L
240.868 396.331 L
241.954 397.097 L
243.04 397.872 L
244.126 398.655 L
245.212 399.446 L
246.298 400.243 L
247.384 401.044 L
248.47 401.85 L
249.556 402.658 L
250.642 403.467 L
251.728 404.277 L
252.814 405.086 L
253.9 405.893 L
254.986 406.697 L
256.072 407.496 L
257.158 408.29 L
258.244 409.077 L
259.33 409.856 L
260.416 410.627 L
261.502 411.388 L
262.588 412.138 L
263.674 412.876 L
264.76 413.601 L
265.846 414.312 L
266.932 415.009 L
268.018 415.691 L
269.104 416.356 L
270.19 417.005 L
271.276 417.636 L
272.362 418.249 L
273.448 418.843 L
274.534 419.418 L
275.62 419.973 L
276.706 420.509 L
277.792 421.024 L
278.878 421.518 L
279.964 421.992 L
281.05 422.445 L
282.136 422.877 L
283.222 423.288 L
284.308 423.679 L
285.394 424.048 L
286.48 424.397 L
287.566 424.725 L
288.652 425.034 L
289.738 425.322 L
290.824 425.592 L
291.91 425.842 L
292.996 426.074 L
294.082 426.288 L
295.168 426.485 L
296.254 426.664 L
297.34 426.828 L
298.426 426.976 L
299.512 427.11 L
300.598 427.229 L
301.684 427.335 L
302.77 427.429 L
303.856 427.511 L
304.942 427.581 L
306.028 427.642 L
307.114 427.693 L
308.2 427.736 L
309.286 427.77 L
310.372 427.798 L
311.458 427.819 L
312.544 427.835 L
313.63 427.846 L
314.716 427.854 L
315.802 427.857 L
316.888 427.859 L
317.974 427.858 L
319.06 427.856 L
320.146 427.854 L
321.232 427.851 L
322.318 427.849 L
323.404 427.847 L
324.49 427.848 L
325.576 427.85 L
326.662 427.854 L
327.748 427.861 L
328.834 427.872 L
329.92 427.885 L
331.006 427.902 L
332.092 427.923 L
333.178 427.948 L
334.264 427.976 L
335.35 428.009 L
336.436 428.046 L
337.522 428.088 L
338.608 428.133 L
339.694 428.183 L
340.78 428.237 L
341.866 428.294 L
342.952 428.356 L
344.038 428.421 L
345.124 428.489 L
346.21 428.56 L
347.296 428.635 L
348.382 428.711 L
349.468 428.79 L
350.554 428.871 L
351.64 428.953 L
352.726 429.036 L
353.812 429.12 L
354.898 429.204 L
355.984 429.288 L
357.07 429.371 L
358.156 429.454 L
359.242 429.534 L
360.328 429.613 L
361.414 429.689 L
362.5 429.762 L
363.586 429.832 L
364.672 429.898 L
365.758 429.96 L
366.844 430.017 L
367.93 430.068 L
369.016 430.114 L
370.102 430.154 L
371.188 430.187 L
372.274 430.213 L
373.36 430.231 L
374.446 430.242 L
375.532 430.245 L
376.618 430.239 L
377.704 430.224 L
378.79 430.2 L
379.876 430.167 L
380.962 430.124 L
382.048 430.07 L
383.134 430.007 L
384.22 429.932 L
385.306 429.847 L
386.392 429.751 L
387.478 429.644 L
388.564 429.526 L
389.65 429.396 L
390.736 429.255 L
391.822 429.102 L
392.908 428.937 L
393.994 428.761 L
395.08 428.573 L
396.166 428.374 L
397.252 428.162 L
398.338 427.939 L
399.424 427.705 L
400.51 427.459 L
401.596 427.202 L
402.682 426.933 L
403.768 426.654 L
404.854 426.363 L
405.94 426.062 L
407.026 425.75 L
408.112 425.428 L
409.198 425.096 L
410.284 424.754 L
411.37 424.402 L
412.456 424.041 L
413.542 423.671 L
414.628 423.292 L
415.714 422.905 L
416.8 422.51 L
417.886 422.106 L
418.972 421.696 L
420.058 421.278 L
421.144 420.853 L
422.23 420.422 L
423.316 419.985 L
424.402 419.542 L
425.488 419.094 L
426.574 418.641 L
427.66 418.184 L
428.746 417.722 L
429.832 417.256 L
430.918 416.787 L
432.004 416.315 L
433.09 415.84 L
434.176 415.362 L
435.262 414.883 L
436.348 414.402 L
437.434 413.919 L
438.52 413.436 L
439.606 412.951 L
440.692 412.467 L
441.778 411.982 L
442.864 411.497 L
443.95 411.013 L
445.036 410.53 L
446.122 410.047 L
447.208 409.566 L
448.294 409.086 L
449.38 408.608 L
450.466 408.131 L
451.552 407.657 L
452.638 407.185 L
453.724 406.714 L
454.81 406.246 L
455.896 405.781 L
456.982 405.318 L
458.068 404.858 L
459.154 404.4 L
460.24 403.944 L
461.326 403.492 L
462.412 403.042 L
463.498 402.594 L
464.584 402.149 L
465.67 401.706 L
466.756 401.265 L
467.842 400.827 L
468.928 400.39 L
470.014 399.955 L
471.1 399.522 L
472.186 399.091 L
473.272 398.66 L
474.358 398.231 L
475.444 397.802 L
476.53 397.374 L
477.616 396.947 L
478.702 396.519 L
479.788 396.092 L
480.874 395.663 L
481.96 395.235 L
483.046 394.805 L
484.132 394.374 L
485.218 393.941 L
486.304 393.507 L
487.39 393.07 L
488.476 392.632 L
489.562 392.191 L
490.648 391.747 L
491.734 391.3 L
492.82 390.85 L
493.906 390.396 L
494.992 389.94 L
496.078 389.479 L
497.164 389.015 L
498.25 388.547 L
499.336 388.075 L
500.422 387.599 L
501.508 387.12 L
502.594 386.636 L
503.68 386.149 L
504.766 385.658 L
505.852 385.163 L
506.938 384.665 L
508.024 384.164 L
509.11 383.66 L
510.196 383.154 L
511.282 382.645 L
512.368 382.135 L
513.454 381.623 L
514.54 381.11 L
515.626 380.597 L
516.712 380.084 L
517.798 379.572 L
518.884 379.062 L
519.97 378.554 L
521.056 378.049 L
522.142 377.547 L
523.228 377.05 L
524.314 376.559 L
525.4 376.074 L
526.486 375.596 L
527.572 375.127 L
528.658 374.667 L
529.744 374.217 L
530.83 373.778 L
531.916 373.352 L
533.002 372.94 L
534.088 372.541 L
535.174 372.159 L
536.26 371.793 L
537.346 371.446 L
538.432 371.117 L
539.518 370.808 L
540.604 370.521 L
541.69 370.256 L
542.776 370.014 L
543.862 369.797 L
544.948 369.605 L
546.034 369.439 L
547.12 369.301 L
548.206 369.191 L
549.292 369.11 L
550.378 369.059 L
551.464 369.038 L
552.55 369.049 L
553.636 369.091 L
554.722 369.166 L
555.808 369.274 L
556.894 369.415 L
557.98 369.59 L
559.066 369.798 L
560.152 370.041 L
561.238 370.318 L
562.324 370.629 L
563.41 370.974 L
564.496 371.352 L
565.582 371.765 L
566.668 372.21 L
567.754 372.689 L
568.84 373.199 L
569.926 373.741 L
571.012 374.315 L
572.098 374.918 L
573.184 375.551 L
574.27 376.212 L
575.356 376.901 L
576.442 377.616 L
577.528 378.357 L
578.614 379.121 L
579.7 379.909 L
580.786 380.718 L
581.872 381.548 L
582.958 382.396 L
584.044 383.262 L
585.13 384.145 L
586.216 385.042 L
587.302 385.953 L
588.388 386.875 L
589.474 387.808 L
590.56 388.751 L
591.646 389.701 L
592.732 390.657 L
593.818 391.619 L
594.904 392.584 L
595.99 393.551 L
597.076 394.52 L
598.162 395.488 L
599.248 396.455 L
600.334 397.42 L
601.42 398.381 L
602.506 399.337 L
603.592 400.288 L
604.678 401.232 L
605.764 402.169 L
606.85 403.097 L
607.936 404.017 L
609.022 404.927 L
610.108 405.826 L
611.194 406.714 L
612.28 407.59 L
613.366 408.455 L
614.452 409.307 L
615.538 410.145 L
616.624 410.971 L
617.71 411.782 L
618.796 412.58 L
619.882 413.364 L
620.968 414.133 L
622.054 414.888 L
623.14 415.628 L
624.226 416.354 L
625.312 417.064 L
626.398 417.76 L
627.484 418.442 L
628.57 419.108 L
629.656 419.76 L
630.742 420.398 L
631.828 421.021 L
632.914 421.63 L
634 422.225 L
634.065 422.26 L
S
GR
GS
[0.75 0 0 0.74971 0 0.39999] CT
0.851 0.325 0.098 RC
1 LJ
2.667 LW
N
90.935 454.778 M
91 454.77 L
92.086 454.628 L
93.172 454.482 L
94.258 454.332 L
95.344 454.177 L
96.43 454.019 L
97.516 453.856 L
98.602 453.689 L
99.688 453.517 L
100.774 453.34 L
101.86 453.159 L
102.946 452.973 L
104.032 452.783 L
105.118 452.587 L
106.204 452.387 L
107.29 452.182 L
108.376 451.972 L
109.462 451.757 L
110.548 451.536 L
111.634 451.311 L
112.72 451.081 L
113.806 450.845 L
114.892 450.605 L
115.978 450.359 L
117.064 450.108 L
118.15 449.853 L
119.236 449.592 L
120.322 449.326 L
121.408 449.056 L
122.494 448.781 L
123.58 448.5 L
124.666 448.216 L
125.752 447.927 L
126.838 447.633 L
127.924 447.335 L
129.01 447.033 L
130.096 446.727 L
131.182 446.416 L
132.268 446.103 L
133.354 445.785 L
134.44 445.464 L
135.526 445.14 L
136.612 444.813 L
137.698 444.483 L
138.784 444.151 L
139.87 443.815 L
140.956 443.478 L
142.042 443.139 L
143.128 442.797 L
144.214 442.454 L
145.3 442.11 L
146.386 441.764 L
147.472 441.417 L
148.558 441.069 L
149.644 440.72 L
150.73 440.371 L
151.816 440.021 L
152.902 439.671 L
153.988 439.321 L
155.074 438.97 L
156.16 438.62 L
157.246 438.27 L
158.332 437.92 L
159.418 437.57 L
160.504 437.221 L
161.59 436.872 L
162.676 436.523 L
163.762 436.175 L
164.848 435.827 L
165.934 435.479 L
167.02 435.132 L
168.106 434.785 L
169.192 434.438 L
170.278 434.091 L
171.364 433.744 L
172.45 433.397 L
173.536 433.05 L
174.622 432.702 L
175.708 432.354 L
176.794 432.004 L
177.88 431.654 L
178.966 431.303 L
180.052 430.951 L
181.138 430.597 L
182.224 430.241 L
183.31 429.883 L
184.396 429.523 L
185.482 429.161 L
186.568 428.796 L
187.654 428.429 L
188.74 428.058 L
189.826 427.684 L
190.912 427.307 L
191.998 426.926 L
193.084 426.541 L
194.17 426.152 L
195.256 425.759 L
196.342 425.362 L
197.428 424.96 L
198.514 424.553 L
199.6 424.141 L
200.686 423.724 L
201.772 423.302 L
202.858 422.875 L
203.944 422.443 L
205.03 422.005 L
206.116 421.561 L
207.202 421.112 L
208.288 420.658 L
209.374 420.198 L
210.46 419.732 L
211.546 419.261 L
212.632 418.785 L
213.718 418.303 L
214.804 417.816 L
215.89 417.323 L
216.976 416.826 L
218.062 416.324 L
219.148 415.817 L
220.234 415.305 L
221.32 414.789 L
222.406 414.269 L
223.492 413.746 L
224.578 413.218 L
225.664 412.688 L
226.75 412.154 L
227.836 411.617 L
228.922 411.078 L
230.008 410.537 L
231.094 409.994 L
232.18 409.45 L
233.266 408.905 L
234.352 408.359 L
235.438 407.813 L
236.524 407.267 L
237.61 406.721 L
238.696 406.176 L
239.782 405.633 L
240.868 405.091 L
241.954 404.551 L
243.04 404.014 L
244.126 403.479 L
245.212 402.948 L
246.298 402.42 L
247.384 401.896 L
248.47 401.376 L
249.556 400.861 L
250.642 400.351 L
251.728 399.846 L
252.814 399.346 L
253.9 398.852 L
254.986 398.363 L
256.072 397.881 L
257.158 397.405 L
258.244 396.936 L
259.33 396.473 L
260.416 396.017 L
261.502 395.568 L
262.588 395.125 L
263.674 394.69 L
264.76 394.26 L
265.846 393.838 L
266.932 393.422 L
268.018 393.013 L
269.104 392.61 L
270.19 392.213 L
271.276 391.821 L
272.362 391.436 L
273.448 391.055 L
274.534 390.679 L
275.62 390.308 L
276.706 389.94 L
277.792 389.576 L
278.878 389.214 L
279.964 388.855 L
281.05 388.498 L
282.136 388.142 L
283.222 387.786 L
284.308 387.429 L
285.394 387.072 L
286.48 386.713 L
287.566 386.351 L
288.652 385.986 L
289.738 385.616 L
290.824 385.241 L
291.91 384.86 L
292.996 384.472 L
294.082 384.076 L
295.168 383.671 L
296.254 383.256 L
297.34 382.83 L
298.426 382.392 L
299.512 381.941 L
300.598 381.476 L
301.684 380.997 L
302.77 380.501 L
303.856 379.989 L
304.942 379.459 L
306.028 378.91 L
307.114 378.341 L
308.2 377.752 L
309.286 377.142 L
310.372 376.509 L
311.458 375.853 L
312.544 375.173 L
313.63 374.469 L
314.716 373.739 L
315.802 372.983 L
316.888 372.201 L
317.974 371.392 L
319.06 370.555 L
320.146 369.69 L
321.232 368.797 L
322.318 367.875 L
323.404 366.924 L
324.49 365.945 L
325.576 364.936 L
326.662 363.898 L
327.748 362.831 L
328.834 361.735 L
329.92 360.611 L
331.006 359.458 L
332.092 358.278 L
333.178 357.07 L
334.264 355.836 L
335.35 354.575 L
336.436 353.289 L
337.522 351.979 L
338.608 350.645 L
339.694 349.288 L
340.78 347.911 L
341.866 346.513 L
342.952 345.096 L
344.038 343.661 L
345.124 342.211 L
346.21 340.746 L
347.296 339.268 L
348.382 337.778 L
349.468 336.28 L
350.554 334.773 L
351.64 333.26 L
352.726 331.744 L
353.812 330.225 L
354.898 328.707 L
355.984 327.19 L
357.07 325.678 L
358.156 324.172 L
359.242 322.674 L
360.328 321.186 L
361.414 319.712 L
362.5 318.252 L
363.586 316.808 L
364.672 315.384 L
365.758 313.981 L
366.844 312.601 L
367.93 311.247 L
369.016 309.919 L
370.102 308.621 L
371.188 307.353 L
372.274 306.118 L
373.36 304.917 L
374.446 303.753 L
375.532 302.625 L
376.618 301.536 L
377.704 300.488 L
378.79 299.48 L
379.876 298.515 L
380.962 297.592 L
382.048 296.713 L
383.134 295.878 L
384.22 295.087 L
385.306 294.342 L
386.392 293.641 L
387.478 292.984 L
388.564 292.372 L
389.65 291.803 L
390.736 291.277 L
391.822 290.794 L
392.908 290.351 L
393.994 289.947 L
395.08 289.581 L
396.166 289.252 L
397.252 288.957 L
398.338 288.694 L
399.424 288.461 L
400.51 288.254 L
401.596 288.073 L
402.682 287.913 L
403.768 287.771 L
404.854 287.645 L
405.94 287.531 L
407.026 287.425 L
408.112 287.323 L
409.198 287.222 L
410.284 287.118 L
411.37 287.006 L
412.456 286.883 L
413.542 286.744 L
414.628 286.584 L
415.714 286.4 L
416.8 286.187 L
417.886 285.94 L
418.972 285.656 L
420.058 285.328 L
421.144 284.954 L
422.23 284.528 L
423.316 284.047 L
424.402 283.505 L
425.488 282.899 L
426.574 282.225 L
427.66 281.478 L
428.746 280.656 L
429.832 279.753 L
430.918 278.767 L
432.004 277.695 L
433.09 276.533 L
434.176 275.278 L
435.262 273.928 L
436.348 272.481 L
437.434 270.934 L
438.52 269.285 L
439.606 267.534 L
440.692 265.678 L
441.778 263.716 L
442.864 261.649 L
443.95 259.476 L
445.036 257.196 L
446.122 254.81 L
447.208 252.318 L
448.294 249.722 L
449.38 247.023 L
450.466 244.222 L
451.552 241.321 L
452.638 238.322 L
453.724 235.229 L
454.81 232.043 L
455.896 228.768 L
456.982 225.408 L
458.068 221.965 L
459.154 218.445 L
460.24 214.851 L
461.326 211.187 L
462.412 207.458 L
463.498 203.67 L
464.584 199.826 L
465.67 195.933 L
466.756 191.996 L
467.842 188.02 L
468.928 184.011 L
470.014 179.975 L
471.1 175.918 L
472.186 171.845 L
473.272 167.762 L
474.358 163.676 L
475.444 159.592 L
476.53 155.517 L
477.616 151.457 L
478.702 147.416 L
479.788 143.402 L
480.874 139.421 L
481.96 135.477 L
483.046 131.576 L
484.132 127.725 L
485.218 123.927 L
486.304 120.19 L
487.39 116.517 L
488.476 112.914 L
489.562 109.385 L
490.648 105.935 L
491.734 102.569 L
492.82 99.29 L
493.906 96.103 L
494.992 93.011 L
496.078 90.019 L
497.164 87.129 L
498.25 84.344 L
499.336 81.669 L
500.422 79.104 L
501.508 76.655 L
502.594 74.321 L
503.68 72.107 L
504.766 70.014 L
505.852 68.043 L
506.938 66.198 L
508.024 64.478 L
509.11 62.886 L
510.196 61.423 L
511.282 60.089 L
512.368 58.887 L
513.454 57.816 L
514.54 56.878 L
515.626 56.072 L
516.712 55.401 L
517.798 54.863 L
518.884 54.46 L
519.97 54.191 L
521.056 54.057 L
522.142 54.058 L
523.228 54.193 L
524.314 54.464 L
525.4 54.869 L
526.486 55.409 L
527.572 56.083 L
528.658 56.891 L
529.744 57.833 L
530.83 58.909 L
531.916 60.118 L
533.002 61.46 L
534.088 62.934 L
535.174 64.539 L
536.26 66.276 L
537.346 68.143 L
538.432 70.141 L
539.518 72.267 L
540.604 74.521 L
541.69 76.902 L
542.776 79.409 L
543.862 82.042 L
544.948 84.798 L
546.034 87.676 L
547.12 90.676 L
548.206 93.794 L
549.292 97.031 L
550.378 100.383 L
551.464 103.848 L
552.55 107.426 L
553.636 111.112 L
554.722 114.905 L
555.808 118.802 L
556.894 122.8 L
557.98 126.896 L
559.066 131.087 L
560.152 135.369 L
561.238 139.739 L
562.324 144.194 L
563.41 148.729 L
564.496 153.339 L
565.582 158.022 L
566.668 162.773 L
567.754 167.586 L
568.84 172.457 L
569.926 177.382 L
571.012 182.355 L
572.098 187.371 L
573.184 192.426 L
574.27 197.513 L
575.356 202.628 L
576.442 207.766 L
577.528 212.92 L
578.614 218.086 L
579.7 223.258 L
580.786 228.431 L
581.872 233.599 L
582.958 238.757 L
584.044 243.901 L
585.13 249.025 L
586.216 254.123 L
587.302 259.192 L
588.388 264.226 L
589.474 269.222 L
590.56 274.174 L
591.646 279.079 L
592.732 283.932 L
593.818 288.73 L
594.904 293.469 L
595.99 298.146 L
597.076 302.758 L
598.162 307.301 L
599.248 311.774 L
600.334 316.174 L
601.42 320.499 L
602.506 324.746 L
603.592 328.914 L
604.678 333.001 L
605.764 337.007 L
606.85 340.93 L
607.936 344.769 L
609.022 348.524 L
610.108 352.195 L
611.194 355.78 L
612.28 359.28 L
613.366 362.695 L
614.452 366.025 L
615.538 369.271 L
616.624 372.433 L
617.71 375.511 L
618.796 378.508 L
619.882 381.423 L
620.968 384.257 L
622.054 387.012 L
623.14 389.689 L
624.226 392.289 L
625.312 394.813 L
626.398 397.263 L
627.484 399.641 L
628.57 401.947 L
629.656 404.183 L
630.742 406.351 L
631.828 408.452 L
632.914 410.488 L
634 412.461 L
634.065 412.575 L
S
GR
GS
[0.75 0 0 0.74971 0 0.39999] CT
0.775 GC
[1 3] 0 setdash
2 LJ
0.667 LW
N
112.72 463 M
112.72 39 L
S
GR
GS
[0.75 0 0 0.74971 0 0.39999] CT
0.775 GC
[1 3] 0 setdash
2 LJ
0.667 LW
N
134.44 463 M
134.44 39 L
S
GR
GS
[0.75 0 0 0.74971 0 0.39999] CT
0.775 GC
[1 3] 0 setdash
2 LJ
0.667 LW
N
156.16 463 M
156.16 39 L
S
GR
GS
[0.75 0 0 0.74971 0 0.39999] CT
0.775 GC
[1 3] 0 setdash
2 LJ
0.667 LW
N
177.88 463 M
177.88 39 L
S
GR
GS
[0.75 0 0 0.74971 0 0.39999] CT
0.775 GC
[1 3] 0 setdash
2 LJ
0.667 LW
N
221.32 463 M
221.32 39 L
S
GR
GS
[0.75 0 0 0.74971 0 0.39999] CT
0.775 GC
[1 3] 0 setdash
2 LJ
0.667 LW
N
243.04 463 M
243.04 39 L
S
GR
GS
[0.75 0 0 0.74971 0 0.39999] CT
0.775 GC
[1 3] 0 setdash
2 LJ
0.667 LW
N
264.76 463 M
264.76 39 L
S
GR
GS
[0.75 0 0 0.74971 0 0.39999] CT
0.775 GC
[1 3] 0 setdash
2 LJ
0.667 LW
N
286.48 463 M
286.48 39 L
S
GR
GS
[0.75 0 0 0.74971 0 0.39999] CT
0.775 GC
[1 3] 0 setdash
2 LJ
0.667 LW
N
329.92 463 M
329.92 39 L
S
GR
GS
[0.75 0 0 0.74971 0 0.39999] CT
0.775 GC
[1 3] 0 setdash
2 LJ
0.667 LW
N
351.64 463 M
351.64 39 L
S
GR
GS
[0.75 0 0 0.74971 0 0.39999] CT
0.775 GC
[1 3] 0 setdash
2 LJ
0.667 LW
N
373.36 463 M
373.36 39 L
S
GR
GS
[0.75 0 0 0.74971 0 0.39999] CT
0.775 GC
[1 3] 0 setdash
2 LJ
0.667 LW
N
395.08 463 M
395.08 39 L
S
GR
GS
[0.75 0 0 0.74971 0 0.39999] CT
0.775 GC
[1 3] 0 setdash
2 LJ
0.667 LW
N
438.52 463 M
438.52 39 L
S
GR
GS
[0.75 0 0 0.74971 0 0.39999] CT
0.775 GC
[1 3] 0 setdash
2 LJ
0.667 LW
N
460.24 463 M
460.24 39 L
S
GR
GS
[0.75 0 0 0.74971 0 0.39999] CT
0.775 GC
[1 3] 0 setdash
2 LJ
0.667 LW
N
481.96 463 M
481.96 39 L
S
GR
GS
[0.75 0 0 0.74971 0 0.39999] CT
0.775 GC
[1 3] 0 setdash
2 LJ
0.667 LW
N
503.68 463 M
503.68 39 L
S
GR
GS
[0.75 0 0 0.74971 0 0.39999] CT
0.775 GC
[1 3] 0 setdash
2 LJ
0.667 LW
N
547.12 463 M
547.12 39 L
S
GR
GS
[0.75 0 0 0.74971 0 0.39999] CT
0.775 GC
[1 3] 0 setdash
2 LJ
0.667 LW
N
568.84 463 M
568.84 39 L
S
GR
GS
[0.75 0 0 0.74971 0 0.39999] CT
0.775 GC
[1 3] 0 setdash
2 LJ
0.667 LW
N
590.56 463 M
590.56 39 L
S
GR
GS
[0.75 0 0 0.74971 0 0.39999] CT
0.775 GC
[1 3] 0 setdash
2 LJ
0.667 LW
N
612.28 463 M
612.28 39 L
S
GR
GS
[0.75 0 0 0.74971 0 0.39999] CT
0.873 GC
[1 3] 0 setdash
2 LJ
0.667 LW
N
91 463 M
91 39 L
S
GR
GS
[0.75 0 0 0.74971 0 0.39999] CT
0.873 GC
[1 3] 0 setdash
2 LJ
0.667 LW
N
199.6 463 M
199.6 39 L
S
GR
GS
[0.75 0 0 0.74971 0 0.39999] CT
0.873 GC
[1 3] 0 setdash
2 LJ
0.667 LW
N
308.2 463 M
308.2 39 L
S
GR
GS
[0.75 0 0 0.74971 0 0.39999] CT
0.873 GC
[1 3] 0 setdash
2 LJ
0.667 LW
N
416.8 463 M
416.8 39 L
S
GR
GS
[0.75 0 0 0.74971 0 0.39999] CT
0.873 GC
[1 3] 0 setdash
2 LJ
0.667 LW
N
525.4 463 M
525.4 39 L
S
GR
GS
[0.75 0 0 0.74971 0 0.39999] CT
0.873 GC
[1 3] 0 setdash
2 LJ
0.667 LW
N
634 463 M
634 39 L
S
GR
GS
[0.75 0 0 0.74971 0 0.39999] CT
0.775 GC
[1 3] 0 setdash
2 LJ
0.667 LW
N
634 448.867 M
91 448.867 L
S
GR
GS
[0.75 0 0 0.74971 0 0.39999] CT
0.775 GC
[1 3] 0 setdash
2 LJ
0.667 LW
N
634 434.733 M
91 434.733 L
S
GR
GS
[0.75 0 0 0.74971 0 0.39999] CT
0.775 GC
[1 3] 0 setdash
2 LJ
0.667 LW
N
634 420.6 M
91 420.6 L
S
GR
GS
[0.75 0 0 0.74971 0 0.39999] CT
0.775 GC
[1 3] 0 setdash
2 LJ
0.667 LW
N
634 406.467 M
91 406.467 L
S
GR
GS
[0.75 0 0 0.74971 0 0.39999] CT
0.775 GC
[1 3] 0 setdash
2 LJ
0.667 LW
N
634 378.2 M
91 378.2 L
S
GR
GS
[0.75 0 0 0.74971 0 0.39999] CT
0.775 GC
[1 3] 0 setdash
2 LJ
0.667 LW
N
634 364.067 M
91 364.067 L
S
GR
GS
[0.75 0 0 0.74971 0 0.39999] CT
0.775 GC
[1 3] 0 setdash
2 LJ
0.667 LW
N
634 349.933 M
91 349.933 L
S
GR
GS
[0.75 0 0 0.74971 0 0.39999] CT
0.775 GC
[1 3] 0 setdash
2 LJ
0.667 LW
N
634 335.8 M
91 335.8 L
S
GR
GS
[0.75 0 0 0.74971 0 0.39999] CT
0.775 GC
[1 3] 0 setdash
2 LJ
0.667 LW
N
634 307.533 M
91 307.533 L
S
GR
GS
[0.75 0 0 0.74971 0 0.39999] CT
0.775 GC
[1 3] 0 setdash
2 LJ
0.667 LW
N
634 293.4 M
91 293.4 L
S
GR
GS
[0.75 0 0 0.74971 0 0.39999] CT
0.775 GC
[1 3] 0 setdash
2 LJ
0.667 LW
N
634 279.267 M
91 279.267 L
S
GR
GS
[0.75 0 0 0.74971 0 0.39999] CT
0.775 GC
[1 3] 0 setdash
2 LJ
0.667 LW
N
634 265.133 M
91 265.133 L
S
GR
GS
[0.75 0 0 0.74971 0 0.39999] CT
0.775 GC
[1 3] 0 setdash
2 LJ
0.667 LW
N
634 236.867 M
91 236.867 L
S
GR
GS
[0.75 0 0 0.74971 0 0.39999] CT
0.775 GC
[1 3] 0 setdash
2 LJ
0.667 LW
N
634 222.733 M
91 222.733 L
S
GR
GS
[0.75 0 0 0.74971 0 0.39999] CT
0.775 GC
[1 3] 0 setdash
2 LJ
0.667 LW
N
634 208.6 M
91 208.6 L
S
GR
GS
[0.75 0 0 0.74971 0 0.39999] CT
0.775 GC
[1 3] 0 setdash
2 LJ
0.667 LW
N
634 194.467 M
91 194.467 L
S
GR
GS
[0.75 0 0 0.74971 0 0.39999] CT
0.775 GC
[1 3] 0 setdash
2 LJ
0.667 LW
N
634 166.2 M
91 166.2 L
S
GR
GS
[0.75 0 0 0.74971 0 0.39999] CT
0.775 GC
[1 3] 0 setdash
2 LJ
0.667 LW
N
634 152.067 M
91 152.067 L
S
GR
GS
[0.75 0 0 0.74971 0 0.39999] CT
0.775 GC
[1 3] 0 setdash
2 LJ
0.667 LW
N
634 137.933 M
91 137.933 L
S
GR
GS
[0.75 0 0 0.74971 0 0.39999] CT
0.775 GC
[1 3] 0 setdash
2 LJ
0.667 LW
N
634 123.8 M
91 123.8 L
S
GR
GS
[0.75 0 0 0.74971 0 0.39999] CT
0.775 GC
[1 3] 0 setdash
2 LJ
0.667 LW
N
634 95.533 M
91 95.533 L
S
GR
GS
[0.75 0 0 0.74971 0 0.39999] CT
0.775 GC
[1 3] 0 setdash
2 LJ
0.667 LW
N
634 81.4 M
91 81.4 L
S
GR
GS
[0.75 0 0 0.74971 0 0.39999] CT
0.775 GC
[1 3] 0 setdash
2 LJ
0.667 LW
N
634 67.267 M
91 67.267 L
S
GR
GS
[0.75 0 0 0.74971 0 0.39999] CT
0.775 GC
[1 3] 0 setdash
2 LJ
0.667 LW
N
634 53.133 M
91 53.133 L
S
GR
GS
[0.75 0 0 0.74971 0 0.39999] CT
0.873 GC
[1 3] 0 setdash
2 LJ
0.667 LW
N
634 463 M
91 463 L
S
GR
GS
[0.75 0 0 0.74971 0 0.39999] CT
0.873 GC
[1 3] 0 setdash
2 LJ
0.667 LW
N
634 392.333 M
91 392.333 L
S
GR
GS
[0.75 0 0 0.74971 0 0.39999] CT
0.873 GC
[1 3] 0 setdash
2 LJ
0.667 LW
N
634 321.667 M
91 321.667 L
S
GR
GS
[0.75 0 0 0.74971 0 0.39999] CT
0.873 GC
[1 3] 0 setdash
2 LJ
0.667 LW
N
634 251 M
91 251 L
S
GR
GS
[0.75 0 0 0.74971 0 0.39999] CT
0.873 GC
[1 3] 0 setdash
2 LJ
0.667 LW
N
634 180.333 M
91 180.333 L
S
GR
GS
[0.75 0 0 0.74971 0 0.39999] CT
0.873 GC
[1 3] 0 setdash
2 LJ
0.667 LW
N
634 109.667 M
91 109.667 L
S
GR
GS
[0.75 0 0 0.74971 0 0.39999] CT
0.873 GC
[1 3] 0 setdash
2 LJ
0.667 LW
N
634 39 M
91 39 L
S
GR
GS
[0.75 0 0 0.74971 0 0.39999] CT
0.149 GC
2 setlinecap
1 LJ
0.667 LW
N
91 463 M
634 463 L
S
GR
GS
[0.75 0 0 0.74971 0 0.39999] CT
0.149 GC
2 setlinecap
1 LJ
0.667 LW
N
91 463 M
91 457.57 L
S
GR
GS
[0.75 0 0 0.74971 0 0.39999] CT
0.149 GC
2 setlinecap
1 LJ
0.667 LW
N
199.6 463 M
199.6 457.57 L
S
GR
GS
[0.75 0 0 0.74971 0 0.39999] CT
0.149 GC
2 setlinecap
1 LJ
0.667 LW
N
308.2 463 M
308.2 457.57 L
S
GR
GS
[0.75 0 0 0.74971 0 0.39999] CT
0.149 GC
2 setlinecap
1 LJ
0.667 LW
N
416.8 463 M
416.8 457.57 L
S
GR
GS
[0.75 0 0 0.74971 0 0.39999] CT
0.149 GC
2 setlinecap
1 LJ
0.667 LW
N
525.4 463 M
525.4 457.57 L
S
GR
GS
[0.75 0 0 0.74971 0 0.39999] CT
0.149 GC
2 setlinecap
1 LJ
0.667 LW
N
634 463 M
634 457.57 L
S
GR
GS
[0.75 0 0 0.74971 68.25 352.5158] CT
0.149 GC
/Helvetica 20 F
GS
[1 0 0 1 0 0] CT
-6 21 moveto 
1 -1 scale
(1) t 
GR
GR
GS
[0.75 0 0 0.74971 149.7 352.5158] CT
0.149 GC
/Helvetica 20 F
GS
[1 0 0 1 0 0] CT
-6 21 moveto 
1 -1 scale
(2) t 
GR
GR
GS
[0.75 0 0 0.74971 231.15001 352.5158] CT
0.149 GC
/Helvetica 20 F
GS
[1 0 0 1 0 0] CT
-6 21 moveto 
1 -1 scale
(3) t 
GR
GR
GS
[0.75 0 0 0.74971 312.59999 352.5158] CT
0.149 GC
/Helvetica 20 F
GS
[1 0 0 1 0 0] CT
-6 21 moveto 
1 -1 scale
(4) t 
GR
GR
GS
[0.75 0 0 0.74971 394.05002 352.5158] CT
0.149 GC
/Helvetica 20 F
GS
[1 0 0 1 0 0] CT
-6 21 moveto 
1 -1 scale
(5) t 
GR
GR
GS
[0.75 0 0 0.74971 475.5 352.5158] CT
0.149 GC
/Helvetica 20 F
GS
[1 0 0 1 0 0] CT
-6 21 moveto 
1 -1 scale
(6) t 
GR
GR
GS
[0.75 0 0 0.74971 271.87518 373.008] CT
0.149 GC
/Helvetica 22 F
GS
[1 0 0 1 0 0] CT
-24 23 moveto 
1 -1 scale
(state) t 
GR
GR
GS
[0.75 0 0 0.74971 0 0.39999] CT
0.149 GC
2 setlinecap
1 LJ
0.667 LW
N
91 463 M
91 39 L
S
GR
GS
[0.75 0 0 0.74971 0 0.39999] CT
0.149 GC
2 setlinecap
1 LJ
0.667 LW
N
91 463 M
96.43 463 L
S
GR
GS
[0.75 0 0 0.74971 0 0.39999] CT
0.149 GC
2 setlinecap
1 LJ
0.667 LW
N
91 392.333 M
96.43 392.333 L
S
GR
GS
[0.75 0 0 0.74971 0 0.39999] CT
0.149 GC
2 setlinecap
1 LJ
0.667 LW
N
91 321.667 M
96.43 321.667 L
S
GR
GS
[0.75 0 0 0.74971 0 0.39999] CT
0.149 GC
2 setlinecap
1 LJ
0.667 LW
N
91 251 M
96.43 251 L
S
GR
GS
[0.75 0 0 0.74971 0 0.39999] CT
0.149 GC
2 setlinecap
1 LJ
0.667 LW
N
91 180.333 M
96.43 180.333 L
S
GR
GS
[0.75 0 0 0.74971 0 0.39999] CT
0.149 GC
2 setlinecap
1 LJ
0.667 LW
N
91 109.667 M
96.43 109.667 L
S
GR
GS
[0.75 0 0 0.74971 0 0.39999] CT
0.149 GC
2 setlinecap
1 LJ
0.667 LW
N
91 39 M
96.43 39 L
S
GR
GS
[0.75 0 0 0.74971 63.25 347.51771] CT
0.149 GC
/Helvetica 20 F
GS
[1 0 0 1 0 0] CT
-12 8 moveto 
1 -1 scale
(0) t 
GR
GR
GS
[0.75 0 0 0.74971 63.25 294.53791] CT
0.149 GC
/Helvetica 20 F
GS
[1 0 0 1 0 0] CT
-12 8 moveto 
1 -1 scale
(1) t 
GR
GR
GS
[0.75 0 0 0.74971 63.25 241.55809] CT
0.149 GC
/Helvetica 20 F
GS
[1 0 0 1 0 0] CT
-12 8 moveto 
1 -1 scale
(2) t 
GR
GR
GS
[0.75 0 0 0.74971 63.25 188.57828] CT
0.149 GC
/Helvetica 20 F
GS
[1 0 0 1 0 0] CT
-12 8 moveto 
1 -1 scale
(3) t 
GR
GR
GS
[0.75 0 0 0.74971 63.25 135.59847] CT
0.149 GC
/Helvetica 20 F
GS
[1 0 0 1 0 0] CT
-12 8 moveto 
1 -1 scale
(4) t 
GR
GR
GS
[0.75 0 0 0.74971 63.25 82.61866] CT
0.149 GC
/Helvetica 20 F
GS
[1 0 0 1 0 0] CT
-12 8 moveto 
1 -1 scale
(5) t 
GR
GR
GS
[0.75 0 0 0.74971 63.25 29.63885] CT
0.149 GC
/Helvetica 20 F
GS
[1 0 0 1 0 0] CT
-12 8 moveto 
1 -1 scale
(6) t 
GR
GR
GS
[0 -0.74971 0.75 0 51.25 188.57813] CT
0.149 GC
/Helvetica 22 F
GS
[1 0 0 1 0 0] CT
-9 -5 moveto 
1 -1 scale
(Q) t 
GR
GR
GS
[0.75 0 0 0.74971 0 0.39999] CT
1 GC
N
191 103 M
191 52 L
104 52 L
104 103 L
cp
f
GR
GS
[0.75 0 0 0.74971 113.25 49.60649] CT
/Helvetica 18 F
GS
[1 0 0 1 0 0] CT
0 7.5 moveto 
1 -1 scale
(left) t 
GR
GR
GS
[0.75 0 0 0.74971 0 0.39999] CT
0 0.447 0.741 RC
1 LJ
2.667 LW
N
108 65.634 M
148 65.634 L
S
GR
GS
[0.75 0 0 0.74971 113.25 67.39921] CT
/Helvetica 18 F
GS
[1 0 0 1 0 0] CT
0 7.5 moveto 
1 -1 scale
(right) t 
GR
GR
GS
[0.75 0 0 0.74971 0 0.39999] CT
0.851 0.325 0.098 RC
1 LJ
2.667 LW
N
108 89.366 M
148 89.366 L
S
GR
GS
[0.75 0 0 0.74971 0 0.39999] CT
0.149 GC
10.0 ML
0.667 LW
N
104 103 M
104 52 L
191 52 L
191 103 L
cp
S
GR
%%Trailer
%%Pages: 1
%%EOF
