%!PS-Adobe-3.0 EPSF-3.0
%%Creator: (MATLAB, The Mathworks, Inc. Version 9.3.0.713579 \(R2017b\). Operating System: Windows 7)
%%Title: fig/RBFN_Q_600_2.eps
%%CreationDate: 2018-05-06T11:05:27
%%Pages: (atend)
%%BoundingBox:    40    13   384   297
%%LanguageLevel: 3
%%EndComments
%%BeginProlog
%%BeginResource: procset (Apache XML Graphics Std ProcSet) 1.2 0
%%Version: 1.2 0
%%Copyright: (Copyright 2001-2003,2010 The Apache Software Foundation. License terms: http://www.apache.org/licenses/LICENSE-2.0)
/bd{bind def}bind def
/ld{load def}bd
/GR/grestore ld
/GS/gsave ld
/RM/rmoveto ld
/C/curveto ld
/t/show ld
/L/lineto ld
/ML/setmiterlimit ld
/CT/concat ld
/f/fill ld
/N/newpath ld
/S/stroke ld
/CC/setcmykcolor ld
/A/ashow ld
/cp/closepath ld
/RC/setrgbcolor ld
/LJ/setlinejoin ld
/GC/setgray ld
/LW/setlinewidth ld
/M/moveto ld
/re {4 2 roll M
1 index 0 rlineto
0 exch rlineto
neg 0 rlineto
cp } bd
/_ctm matrix def
/_tm matrix def
/BT { _ctm currentmatrix pop matrix _tm copy pop 0 0 moveto } bd
/ET { _ctm setmatrix } bd
/iTm { _ctm setmatrix _tm concat } bd
/Tm { _tm astore pop iTm 0 0 moveto } bd
/ux 0.0 def
/uy 0.0 def
/F {
  /Tp exch def
  /Tf exch def
  Tf findfont Tp scalefont setfont
  /cf Tf def  /cs Tp def
} bd
/ULS {currentpoint /uy exch def /ux exch def} bd
/ULE {
  /Tcx currentpoint pop def
  gsave
  newpath
  cf findfont cs scalefont dup
  /FontMatrix get 0 get /Ts exch def /FontInfo get dup
  /UnderlinePosition get Ts mul /To exch def
  /UnderlineThickness get Ts mul /Tt exch def
  ux uy To add moveto  Tcx uy To add lineto
  Tt setlinewidth stroke
  grestore
} bd
/OLE {
  /Tcx currentpoint pop def
  gsave
  newpath
  cf findfont cs scalefont dup
  /FontMatrix get 0 get /Ts exch def /FontInfo get dup
  /UnderlinePosition get Ts mul /To exch def
  /UnderlineThickness get Ts mul /Tt exch def
  ux uy To add cs add moveto Tcx uy To add cs add lineto
  Tt setlinewidth stroke
  grestore
} bd
/SOE {
  /Tcx currentpoint pop def
  gsave
  newpath
  cf findfont cs scalefont dup
  /FontMatrix get 0 get /Ts exch def /FontInfo get dup
  /UnderlinePosition get Ts mul /To exch def
  /UnderlineThickness get Ts mul /Tt exch def
  ux uy To add cs 10 mul 26 idiv add moveto Tcx uy To add cs 10 mul 26 idiv add lineto
  Tt setlinewidth stroke
  grestore
} bd
/QT {
/Y22 exch store
/X22 exch store
/Y21 exch store
/X21 exch store
currentpoint
/Y21 load 2 mul add 3 div exch
/X21 load 2 mul add 3 div exch
/X21 load 2 mul /X22 load add 3 div
/Y21 load 2 mul /Y22 load add 3 div
/X22 load /Y22 load curveto
} bd
/SSPD {
dup length /d exch dict def
{
/v exch def
/k exch def
currentpagedevice k known {
/cpdv currentpagedevice k get def
v cpdv ne {
/upd false def
/nullv v type /nulltype eq def
/nullcpdv cpdv type /nulltype eq def
nullv nullcpdv or
{
/upd true def
} {
/sametype v type cpdv type eq def
sametype {
v type /arraytype eq {
/vlen v length def
/cpdvlen cpdv length def
vlen cpdvlen eq {
0 1 vlen 1 sub {
/i exch def
/obj v i get def
/cpdobj cpdv i get def
obj cpdobj ne {
/upd true def
exit
} if
} for
} {
/upd true def
} ifelse
} {
v type /dicttype eq {
v {
/dv exch def
/dk exch def
/cpddv cpdv dk get def
dv cpddv ne {
/upd true def
exit
} if
} forall
} {
/upd true def
} ifelse
} ifelse
} if
} ifelse
upd true eq {
d k v put
} if
} if
} if
} forall
d length 0 gt {
d setpagedevice
} if
} bd
/RE { % /NewFontName [NewEncodingArray] /FontName RE -
  findfont dup length dict begin
  {
    1 index /FID ne
    {def} {pop pop} ifelse
  } forall
  /Encoding exch def
  /FontName 1 index def
  currentdict definefont pop
  end
} bind def
%%EndResource
%%BeginResource: procset (Apache XML Graphics EPS ProcSet) 1.0 0
%%Version: 1.0 0
%%Copyright: (Copyright 2002-2003 The Apache Software Foundation. License terms: http://www.apache.org/licenses/LICENSE-2.0)
/BeginEPSF { %def
/b4_Inc_state save def         % Save state for cleanup
/dict_count countdictstack def % Count objects on dict stack
/op_count count 1 sub def      % Count objects on operand stack
userdict begin                 % Push userdict on dict stack
/showpage { } def              % Redefine showpage, { } = null proc
0 setgray 0 setlinecap         % Prepare graphics state
1 setlinewidth 0 setlinejoin
10 setmiterlimit [ ] 0 setdash newpath
/languagelevel where           % If level not equal to 1 then
{pop languagelevel             % set strokeadjust and
1 ne                           % overprint to their defaults.
{false setstrokeadjust false setoverprint
} if
} if
} bd
/EndEPSF { %def
count op_count sub {pop} repeat            % Clean up stacks
countdictstack dict_count sub {end} repeat
b4_Inc_state restore
} bd
%%EndResource
%FOPBeginFontDict
%%IncludeResource: font Courier-Oblique
%%IncludeResource: font Courier-BoldOblique
%%IncludeResource: font Courier-Bold
%%IncludeResource: font ZapfDingbats
%%IncludeResource: font Symbol
%%IncludeResource: font Helvetica
%%IncludeResource: font Helvetica-Oblique
%%IncludeResource: font Helvetica-Bold
%%IncludeResource: font Helvetica-BoldOblique
%%IncludeResource: font Times-Roman
%%IncludeResource: font Times-Italic
%%IncludeResource: font Times-Bold
%%IncludeResource: font Times-BoldItalic
%%IncludeResource: font Courier
%FOPEndFontDict
%%BeginResource: encoding WinAnsiEncoding
/WinAnsiEncoding [
/.notdef /.notdef /.notdef /.notdef /.notdef
/.notdef /.notdef /.notdef /.notdef /.notdef
/.notdef /.notdef /.notdef /.notdef /.notdef
/.notdef /.notdef /.notdef /.notdef /.notdef
/.notdef /.notdef /.notdef /.notdef /.notdef
/.notdef /.notdef /.notdef /.notdef /.notdef
/.notdef /.notdef /space /exclam /quotedbl
/numbersign /dollar /percent /ampersand /quotesingle
/parenleft /parenright /asterisk /plus /comma
/hyphen /period /slash /zero /one
/two /three /four /five /six
/seven /eight /nine /colon /semicolon
/less /equal /greater /question /at
/A /B /C /D /E
/F /G /H /I /J
/K /L /M /N /O
/P /Q /R /S /T
/U /V /W /X /Y
/Z /bracketleft /backslash /bracketright /asciicircum
/underscore /quoteleft /a /b /c
/d /e /f /g /h
/i /j /k /l /m
/n /o /p /q /r
/s /t /u /v /w
/x /y /z /braceleft /bar
/braceright /asciitilde /bullet /Euro /bullet
/quotesinglbase /florin /quotedblbase /ellipsis /dagger
/daggerdbl /circumflex /perthousand /Scaron /guilsinglleft
/OE /bullet /Zcaron /bullet /bullet
/quoteleft /quoteright /quotedblleft /quotedblright /bullet
/endash /emdash /asciitilde /trademark /scaron
/guilsinglright /oe /bullet /zcaron /Ydieresis
/space /exclamdown /cent /sterling /currency
/yen /brokenbar /section /dieresis /copyright
/ordfeminine /guillemotleft /logicalnot /sfthyphen /registered
/macron /degree /plusminus /twosuperior /threesuperior
/acute /mu /paragraph /middot /cedilla
/onesuperior /ordmasculine /guillemotright /onequarter /onehalf
/threequarters /questiondown /Agrave /Aacute /Acircumflex
/Atilde /Adieresis /Aring /AE /Ccedilla
/Egrave /Eacute /Ecircumflex /Edieresis /Igrave
/Iacute /Icircumflex /Idieresis /Eth /Ntilde
/Ograve /Oacute /Ocircumflex /Otilde /Odieresis
/multiply /Oslash /Ugrave /Uacute /Ucircumflex
/Udieresis /Yacute /Thorn /germandbls /agrave
/aacute /acircumflex /atilde /adieresis /aring
/ae /ccedilla /egrave /eacute /ecircumflex
/edieresis /igrave /iacute /icircumflex /idieresis
/eth /ntilde /ograve /oacute /ocircumflex
/otilde /odieresis /divide /oslash /ugrave
/uacute /ucircumflex /udieresis /yacute /thorn
/ydieresis
] def
%%EndResource
%FOPBeginFontReencode
/Courier-Oblique findfont
dup length dict begin
  {1 index /FID ne {def} {pop pop} ifelse} forall
  /Encoding WinAnsiEncoding def
  currentdict
end
/Courier-Oblique exch definefont pop
/Courier-BoldOblique findfont
dup length dict begin
  {1 index /FID ne {def} {pop pop} ifelse} forall
  /Encoding WinAnsiEncoding def
  currentdict
end
/Courier-BoldOblique exch definefont pop
/Courier-Bold findfont
dup length dict begin
  {1 index /FID ne {def} {pop pop} ifelse} forall
  /Encoding WinAnsiEncoding def
  currentdict
end
/Courier-Bold exch definefont pop
/Helvetica findfont
dup length dict begin
  {1 index /FID ne {def} {pop pop} ifelse} forall
  /Encoding WinAnsiEncoding def
  currentdict
end
/Helvetica exch definefont pop
/Helvetica-Oblique findfont
dup length dict begin
  {1 index /FID ne {def} {pop pop} ifelse} forall
  /Encoding WinAnsiEncoding def
  currentdict
end
/Helvetica-Oblique exch definefont pop
/Helvetica-Bold findfont
dup length dict begin
  {1 index /FID ne {def} {pop pop} ifelse} forall
  /Encoding WinAnsiEncoding def
  currentdict
end
/Helvetica-Bold exch definefont pop
/Helvetica-BoldOblique findfont
dup length dict begin
  {1 index /FID ne {def} {pop pop} ifelse} forall
  /Encoding WinAnsiEncoding def
  currentdict
end
/Helvetica-BoldOblique exch definefont pop
/Times-Roman findfont
dup length dict begin
  {1 index /FID ne {def} {pop pop} ifelse} forall
  /Encoding WinAnsiEncoding def
  currentdict
end
/Times-Roman exch definefont pop
/Times-Italic findfont
dup length dict begin
  {1 index /FID ne {def} {pop pop} ifelse} forall
  /Encoding WinAnsiEncoding def
  currentdict
end
/Times-Italic exch definefont pop
/Times-Bold findfont
dup length dict begin
  {1 index /FID ne {def} {pop pop} ifelse} forall
  /Encoding WinAnsiEncoding def
  currentdict
end
/Times-Bold exch definefont pop
/Times-BoldItalic findfont
dup length dict begin
  {1 index /FID ne {def} {pop pop} ifelse} forall
  /Encoding WinAnsiEncoding def
  currentdict
end
/Times-BoldItalic exch definefont pop
/Courier findfont
dup length dict begin
  {1 index /FID ne {def} {pop pop} ifelse} forall
  /Encoding WinAnsiEncoding def
  currentdict
end
/Courier exch definefont pop
%FOPEndFontReencode
%%EndProlog
%%Page: 1 1
%%PageBoundingBox: 0 0 420 315
%%BeginPageSetup
[1 0 0 -1 0 315] CT
%%EndPageSetup
GS
[0.75 0 0 0.75 0 0] CT
1 GC
N
0 0 560 420 re
f
GR
GS
[0.75 0 0 0.75 0 0] CT
1 GC
N
0 0 560 420 re
f
GR
GS
[0.75 0 0 0.75 0 0] CT
1 GC
N
73 374 M
507 374 L
507 31 L
73 31 L
cp
f
GR
GS
[0.75 0 0 0.75 0 0] CT
0.149 GC
1 LJ
0.667 LW
N
73 374 M
507 374 L
S
GR
GS
[0.75 0 0 0.75 0 0] CT
0.902 0.945 0.973 RC
N
72.948 353.556 M
72.948 374 L
73 374 L
73.868 374 L
74.736 374 L
75.604 374 L
76.472 374 L
77.34 374 L
76.472 31 L
75.604 31 L
74.736 31 L
73.868 31 L
73 31 L
72.948 31 L
cp
81.68 374 M
82.548 374 L
83.416 374 L
84.284 374 L
85.152 374 L
86.02 374 L
86.888 374 L
87.756 374 L
86.888 31 L
86.02 31 L
85.152 31 L
84.284 31 L
83.416 31 L
82.548 31 L
cp
92.964 374 M
93.832 374 L
94.7 374 L
95.568 374 L
96.436 374 L
97.304 374 L
98.172 374 L
97.304 31 L
96.436 31 L
95.568 31 L
94.7 31 L
93.832 31 L
cp
102.512 374 M
103.38 374 L
104.248 374 L
105.116 374 L
105.984 374 L
106.852 374 L
107.72 374 L
108.588 374 L
107.72 31 L
106.852 31 L
105.984 31 L
105.116 31 L
104.248 31 L
103.38 31 L
cp
112.06 374 M
112.928 374 L
113.796 374 L
114.664 374 L
115.532 374 L
116.4 374 L
117.268 374 L
118.136 374 L
119.004 374 L
119.872 374 L
120.74 374 L
121.608 374 L
122.476 374 L
123.344 374 L
124.212 374 L
125.08 374 L
125.948 374 L
126.816 374 L
127.684 374 L
128.552 374 L
129.42 374 L
130.288 374 L
131.156 374 L
132.024 374 L
132.892 374 L
133.76 374 L
134.628 374 L
135.496 374 L
136.364 374 L
137.232 374 L
138.1 374 L
138.968 374 L
139.836 374 L
140.704 374 L
141.572 374 L
142.44 374 L
143.308 374 L
144.176 374 L
145.044 374 L
145.912 374 L
146.78 374 L
147.648 374 L
148.516 374 L
149.384 374 L
150.252 374 L
151.12 374 L
151.988 374 L
152.856 374 L
153.724 374 L
154.592 374 L
155.46 374 L
156.328 374 L
157.196 374 L
158.064 374 L
158.932 374 L
159.8 374 L
160.668 374 L
161.536 374 L
162.404 374 L
163.272 374 L
164.14 374 L
165.008 374 L
165.876 374 L
166.744 374 L
167.612 374 L
168.48 374 L
169.348 374 L
170.216 374 L
171.084 374 L
171.952 374 L
172.82 374 L
173.688 374 L
174.556 374 L
175.424 374 L
176.292 374 L
177.16 374 L
178.028 374 L
178.896 374 L
179.764 374 L
180.632 374 L
181.5 374 L
182.368 374 L
183.236 374 L
184.104 374 L
184.972 374 L
185.84 374 L
186.708 374 L
187.576 374 L
188.444 374 L
189.312 374 L
190.18 374 L
191.048 374 L
191.916 374 L
192.784 374 L
193.652 374 L
194.52 374 L
195.388 374 L
196.256 374 L
197.124 374 L
197.992 374 L
198.86 374 L
199.728 374 L
200.596 374 L
201.464 374 L
202.332 374 L
201.464 31 L
200.596 31 L
199.728 31 L
198.86 31 L
197.992 31 L
197.124 31 L
196.256 31 L
195.388 31 L
194.52 31 L
193.652 31 L
192.784 31 L
191.916 31 L
191.048 31 L
190.18 31 L
189.312 31 L
188.444 31 L
187.576 31 L
186.708 31 L
185.84 31 L
184.972 31 L
184.104 31 L
183.236 31 L
182.368 31 L
181.5 31 L
180.632 31 L
179.764 31 L
178.896 31 L
178.028 31 L
177.16 31 L
176.292 31 L
175.424 31 L
174.556 31 L
173.688 31 L
172.82 31 L
171.952 31 L
171.084 31 L
170.216 31 L
169.348 31 L
168.48 31 L
167.612 31 L
166.744 31 L
165.876 31 L
165.008 31 L
164.14 31 L
163.272 31 L
162.404 31 L
161.536 31 L
160.668 31 L
159.8 31 L
158.932 31 L
158.064 31 L
157.196 31 L
156.328 31 L
155.46 31 L
154.592 31 L
153.724 31 L
152.856 31 L
151.988 31 L
151.12 31 L
150.252 31 L
149.384 31 L
148.516 31 L
147.648 31 L
146.78 31 L
145.912 31 L
145.044 31 L
144.176 31 L
143.308 31 L
142.44 31 L
141.572 31 L
140.704 31 L
139.836 31 L
138.968 31 L
138.1 31 L
137.232 31 L
136.364 31 L
135.496 31 L
134.628 31 L
133.76 31 L
132.892 31 L
132.024 31 L
131.156 31 L
130.288 31 L
129.42 31 L
128.552 31 L
127.684 31 L
126.816 31 L
125.948 31 L
125.08 31 L
124.212 31 L
123.344 31 L
122.476 31 L
121.608 31 L
120.74 31 L
119.872 31 L
119.004 31 L
118.136 31 L
117.268 31 L
116.4 31 L
115.532 31 L
114.664 31 L
113.796 31 L
112.928 31 L
cp
467.072 374 M
467.94 374 L
468.808 374 L
469.676 374 L
470.544 374 L
471.412 374 L
472.28 374 L
471.412 31 L
470.544 31 L
469.676 31 L
468.808 31 L
467.94 31 L
cp
476.62 374 M
477.488 374 L
478.356 374 L
479.224 374 L
480.092 374 L
480.96 374 L
481.828 374 L
480.96 31 L
480.092 31 L
479.224 31 L
478.356 31 L
477.488 31 L
cp
487.036 374 M
487.904 374 L
488.772 374 L
489.64 374 L
490.508 374 L
491.376 374 L
492.244 374 L
493.112 374 L
493.98 374 L
493.112 31 L
492.244 31 L
491.376 31 L
490.508 31 L
489.64 31 L
488.772 31 L
487.904 31 L
cp
498.32 374 M
499.188 374 L
500.056 374 L
500.924 374 L
501.792 374 L
502.66 374 L
503.528 374 L
504.396 374 L
505.264 374 L
504.396 31 L
503.528 31 L
502.66 31 L
501.792 31 L
500.924 31 L
500.056 31 L
499.188 31 L
cp
f
GR
GS
[0.75 0 0 0.75 0 0] CT
0.902 0.945 0.973 RC
1 LJ
0.667 LW
N
72.948 374 M
73 374 L
73.868 374 L
74.736 374 L
75.604 374 L
76.472 374 L
77.34 374 L
78.208 374 L
79.076 374 L
79.944 374 L
80.812 374 L
81.68 374 L
82.548 374 L
83.416 374 L
84.284 374 L
85.152 374 L
86.02 374 L
86.888 374 L
87.756 374 L
88.624 374 L
89.492 374 L
90.36 374 L
91.228 374 L
92.096 374 L
92.964 374 L
93.832 374 L
94.7 374 L
95.568 374 L
96.436 374 L
97.304 374 L
98.172 374 L
99.04 374 L
99.908 374 L
100.776 374 L
101.644 374 L
102.512 374 L
103.38 374 L
104.248 374 L
105.116 374 L
105.984 374 L
106.852 374 L
107.72 374 L
108.588 374 L
109.456 374 L
110.324 374 L
111.192 374 L
112.06 374 L
112.928 374 L
113.796 374 L
114.664 374 L
115.532 374 L
116.4 374 L
117.268 374 L
118.136 374 L
119.004 374 L
119.872 374 L
120.74 374 L
121.608 374 L
122.476 374 L
123.344 374 L
124.212 374 L
125.08 374 L
125.948 374 L
126.816 374 L
127.684 374 L
128.552 374 L
129.42 374 L
130.288 374 L
131.156 374 L
132.024 374 L
132.892 374 L
133.76 374 L
134.628 374 L
135.496 374 L
136.364 374 L
137.232 374 L
138.1 374 L
138.968 374 L
139.836 374 L
140.704 374 L
141.572 374 L
142.44 374 L
143.308 374 L
144.176 374 L
145.044 374 L
145.912 374 L
146.78 374 L
147.648 374 L
148.516 374 L
149.384 374 L
150.252 374 L
151.12 374 L
151.988 374 L
152.856 374 L
153.724 374 L
154.592 374 L
155.46 374 L
156.328 374 L
157.196 374 L
158.064 374 L
158.932 374 L
159.8 374 L
160.668 374 L
161.536 374 L
162.404 374 L
163.272 374 L
164.14 374 L
165.008 374 L
165.876 374 L
166.744 374 L
167.612 374 L
168.48 374 L
169.348 374 L
170.216 374 L
171.084 374 L
171.952 374 L
172.82 374 L
173.688 374 L
174.556 374 L
175.424 374 L
176.292 374 L
177.16 374 L
178.028 374 L
178.896 374 L
179.764 374 L
180.632 374 L
181.5 374 L
182.368 374 L
183.236 374 L
184.104 374 L
184.972 374 L
185.84 374 L
186.708 374 L
187.576 374 L
188.444 374 L
189.312 374 L
190.18 374 L
191.048 374 L
191.916 374 L
192.784 374 L
193.652 374 L
194.52 374 L
195.388 374 L
196.256 374 L
197.124 374 L
197.992 374 L
198.86 374 L
199.728 374 L
200.596 374 L
201.464 374 L
202.332 374 L
203.2 374 L
204.068 374 L
204.936 374 L
205.804 374 L
206.672 374 L
207.54 374 L
208.408 374 L
209.276 374 L
210.144 374 L
211.012 374 L
211.88 374 L
212.748 374 L
213.616 374 L
214.484 374 L
215.352 374 L
216.22 374 L
217.088 374 L
217.956 374 L
218.824 374 L
219.692 374 L
220.56 374 L
221.428 374 L
222.296 374 L
223.164 374 L
224.032 374 L
224.9 374 L
225.768 374 L
226.636 374 L
227.504 374 L
228.372 374 L
229.24 374 L
230.108 374 L
230.976 374 L
231.844 374 L
232.712 374 L
233.58 374 L
234.448 374 L
235.316 374 L
236.184 374 L
237.052 374 L
237.92 374 L
238.788 374 L
239.656 374 L
240.524 374 L
241.392 374 L
242.26 374 L
243.128 374 L
243.996 374 L
244.864 374 L
245.732 374 L
246.6 374 L
247.468 374 L
248.336 374 L
249.204 374 L
250.072 374 L
250.94 374 L
251.808 374 L
252.676 374 L
253.544 374 L
254.412 374 L
255.28 374 L
256.148 374 L
257.016 374 L
257.884 374 L
258.752 374 L
259.62 374 L
260.488 374 L
261.356 374 L
262.224 374 L
263.092 374 L
263.96 374 L
264.828 374 L
265.696 374 L
266.564 374 L
267.432 374 L
268.3 374 L
269.168 374 L
270.036 374 L
270.904 374 L
271.772 374 L
272.64 374 L
273.508 374 L
274.376 374 L
275.244 374 L
276.112 374 L
276.98 374 L
277.848 374 L
278.716 374 L
279.584 374 L
280.452 374 L
281.32 374 L
282.188 374 L
283.056 374 L
283.924 374 L
284.792 374 L
285.66 374 L
286.528 374 L
287.396 374 L
288.264 374 L
289.132 374 L
290 374 L
290.868 374 L
291.736 374 L
292.604 374 L
293.472 374 L
294.34 374 L
295.208 374 L
296.076 374 L
296.944 374 L
297.812 374 L
298.68 374 L
299.548 374 L
300.416 374 L
301.284 374 L
302.152 374 L
303.02 374 L
303.888 374 L
304.756 374 L
305.624 374 L
306.492 374 L
307.36 374 L
308.228 374 L
309.096 374 L
309.964 374 L
310.832 374 L
311.7 374 L
312.568 374 L
313.436 374 L
314.304 374 L
315.172 374 L
316.04 374 L
316.908 374 L
317.776 374 L
318.644 374 L
319.512 374 L
320.38 374 L
321.248 374 L
322.116 374 L
322.984 374 L
323.852 374 L
324.72 374 L
325.588 374 L
326.456 374 L
327.324 374 L
328.192 374 L
329.06 374 L
329.928 374 L
330.796 374 L
331.664 374 L
332.532 374 L
333.4 374 L
334.268 374 L
335.136 374 L
336.004 374 L
336.872 374 L
337.74 374 L
338.608 374 L
339.476 374 L
340.344 374 L
341.212 374 L
342.08 374 L
342.948 374 L
343.816 374 L
344.684 374 L
345.552 374 L
346.42 374 L
347.288 374 L
348.156 374 L
349.024 374 L
349.892 374 L
350.76 374 L
351.628 374 L
352.496 374 L
353.364 374 L
354.232 374 L
355.1 374 L
355.968 374 L
356.836 374 L
357.704 374 L
358.572 374 L
359.44 374 L
360.308 374 L
361.176 374 L
362.044 374 L
362.912 374 L
363.78 374 L
364.648 374 L
365.516 374 L
366.384 374 L
367.252 374 L
368.12 374 L
368.988 374 L
369.856 374 L
370.724 374 L
371.592 374 L
372.46 374 L
373.328 374 L
374.196 374 L
375.064 374 L
375.932 374 L
376.8 374 L
377.668 374 L
378.536 374 L
379.404 374 L
380.272 374 L
381.14 374 L
382.008 374 L
382.876 374 L
383.744 374 L
384.612 374 L
385.48 374 L
386.348 374 L
387.216 374 L
388.084 374 L
388.952 374 L
389.82 374 L
390.688 374 L
391.556 374 L
392.424 374 L
393.292 374 L
394.16 374 L
395.028 374 L
395.896 374 L
396.764 374 L
397.632 374 L
398.5 374 L
399.368 374 L
400.236 374 L
401.104 374 L
401.972 374 L
402.84 374 L
403.708 374 L
404.576 374 L
405.444 374 L
406.312 374 L
407.18 374 L
408.048 374 L
408.916 374 L
409.784 374 L
410.652 374 L
411.52 374 L
412.388 374 L
413.256 374 L
414.124 374 L
414.992 374 L
415.86 374 L
416.728 374 L
417.596 374 L
418.464 374 L
419.332 374 L
420.2 374 L
421.068 374 L
421.936 374 L
422.804 374 L
423.672 374 L
424.54 374 L
425.408 374 L
426.276 374 L
427.144 374 L
428.012 374 L
428.88 374 L
429.748 374 L
430.616 374 L
431.484 374 L
432.352 374 L
433.22 374 L
434.088 374 L
434.956 374 L
435.824 374 L
436.692 374 L
437.56 374 L
438.428 374 L
439.296 374 L
440.164 374 L
441.032 374 L
441.9 374 L
442.768 374 L
443.636 374 L
444.504 374 L
445.372 374 L
446.24 374 L
447.108 374 L
447.976 374 L
448.844 374 L
449.712 374 L
450.58 374 L
451.448 374 L
452.316 374 L
453.184 374 L
454.052 374 L
454.92 374 L
455.788 374 L
456.656 374 L
457.524 374 L
458.392 374 L
459.26 374 L
460.128 374 L
460.996 374 L
461.864 374 L
462.732 374 L
463.6 374 L
464.468 374 L
465.336 374 L
466.204 374 L
467.072 374 L
467.94 374 L
468.808 374 L
469.676 374 L
470.544 374 L
471.412 374 L
472.28 374 L
473.148 374 L
474.016 374 L
474.884 374 L
475.752 374 L
476.62 374 L
477.488 374 L
478.356 374 L
479.224 374 L
480.092 374 L
480.96 374 L
481.828 374 L
482.696 374 L
483.564 374 L
484.432 374 L
485.3 374 L
486.168 374 L
487.036 374 L
487.904 374 L
488.772 374 L
489.64 374 L
490.508 374 L
491.376 374 L
492.244 374 L
493.112 374 L
493.98 374 L
494.848 374 L
495.716 374 L
496.584 374 L
497.452 374 L
498.32 374 L
499.188 374 L
500.056 374 L
500.924 374 L
501.792 374 L
502.66 374 L
503.528 374 L
504.396 374 L
505.264 374 L
506.132 374 L
507 374 L
507.052 374 L
S
GR
GS
[0.75 0 0 0.75 0 0] CT
0.902 0.945 0.973 RC
1 LJ
0.667 LW
N
507.052 374 M
507 374 L
506.132 374 L
505.264 374 L
504.396 31 L
503.528 31 L
502.66 31 L
501.792 31 L
500.924 31 L
500.056 31 L
499.188 31 L
498.32 374 L
497.452 374 L
496.584 374 L
495.716 374 L
494.848 374 L
493.98 374 L
493.112 31 L
492.244 31 L
491.376 31 L
490.508 31 L
489.64 31 L
488.772 31 L
487.904 31 L
487.036 374 L
486.168 374 L
485.3 374 L
484.432 374 L
483.564 374 L
482.696 374 L
481.828 374 L
480.96 31 L
480.092 31 L
479.224 31 L
478.356 31 L
477.488 31 L
476.62 374 L
475.752 374 L
474.884 374 L
474.016 374 L
473.148 374 L
472.28 374 L
471.412 31 L
470.544 31 L
469.676 31 L
468.808 31 L
467.94 31 L
467.072 374 L
466.204 374 L
465.336 374 L
464.468 374 L
463.6 374 L
462.732 374 L
461.864 374 L
460.996 374 L
460.128 374 L
459.26 374 L
458.392 374 L
457.524 374 L
456.656 374 L
455.788 374 L
454.92 374 L
454.052 374 L
453.184 374 L
452.316 374 L
451.448 374 L
450.58 374 L
449.712 374 L
448.844 374 L
447.976 374 L
447.108 374 L
446.24 374 L
445.372 374 L
444.504 374 L
443.636 374 L
442.768 374 L
441.9 374 L
441.032 374 L
440.164 374 L
439.296 374 L
438.428 374 L
437.56 374 L
436.692 374 L
435.824 374 L
434.956 374 L
434.088 374 L
433.22 374 L
432.352 374 L
431.484 374 L
430.616 374 L
429.748 374 L
428.88 374 L
428.012 374 L
427.144 374 L
426.276 374 L
425.408 374 L
424.54 374 L
423.672 374 L
422.804 374 L
421.936 374 L
421.068 374 L
420.2 374 L
419.332 374 L
418.464 374 L
417.596 374 L
416.728 374 L
415.86 374 L
414.992 374 L
414.124 374 L
413.256 374 L
412.388 374 L
411.52 374 L
410.652 374 L
409.784 374 L
408.916 374 L
408.048 374 L
407.18 374 L
406.312 374 L
405.444 374 L
404.576 374 L
403.708 374 L
402.84 374 L
401.972 374 L
401.104 374 L
400.236 374 L
399.368 374 L
398.5 374 L
397.632 374 L
396.764 374 L
395.896 374 L
395.028 374 L
394.16 374 L
393.292 374 L
392.424 374 L
391.556 374 L
390.688 374 L
389.82 374 L
388.952 374 L
388.084 374 L
387.216 374 L
386.348 374 L
385.48 374 L
384.612 374 L
383.744 374 L
382.876 374 L
382.008 374 L
381.14 374 L
380.272 374 L
379.404 374 L
378.536 374 L
377.668 374 L
376.8 374 L
375.932 374 L
375.064 374 L
374.196 374 L
373.328 374 L
372.46 374 L
371.592 374 L
370.724 374 L
369.856 374 L
368.988 374 L
368.12 374 L
367.252 374 L
366.384 374 L
365.516 374 L
364.648 374 L
363.78 374 L
362.912 374 L
362.044 374 L
361.176 374 L
360.308 374 L
359.44 374 L
358.572 374 L
357.704 374 L
356.836 374 L
355.968 374 L
355.1 374 L
354.232 374 L
353.364 374 L
352.496 374 L
351.628 374 L
350.76 374 L
349.892 374 L
349.024 374 L
348.156 374 L
347.288 374 L
346.42 374 L
345.552 374 L
344.684 374 L
343.816 374 L
342.948 374 L
342.08 374 L
341.212 374 L
340.344 374 L
339.476 374 L
338.608 374 L
337.74 374 L
336.872 374 L
336.004 374 L
335.136 374 L
334.268 374 L
333.4 374 L
332.532 374 L
331.664 374 L
330.796 374 L
329.928 374 L
329.06 374 L
328.192 374 L
327.324 374 L
326.456 374 L
325.588 374 L
324.72 374 L
323.852 374 L
322.984 374 L
322.116 374 L
321.248 374 L
320.38 374 L
319.512 374 L
318.644 374 L
317.776 374 L
316.908 374 L
316.04 374 L
315.172 374 L
314.304 374 L
313.436 374 L
312.568 374 L
311.7 374 L
310.832 374 L
309.964 374 L
309.096 374 L
308.228 374 L
307.36 374 L
306.492 374 L
305.624 374 L
304.756 374 L
303.888 374 L
303.02 374 L
302.152 374 L
301.284 374 L
300.416 374 L
299.548 374 L
298.68 374 L
297.812 374 L
296.944 374 L
296.076 374 L
295.208 374 L
294.34 374 L
293.472 374 L
292.604 374 L
291.736 374 L
290.868 374 L
290 374 L
289.132 374 L
288.264 374 L
287.396 374 L
286.528 374 L
285.66 374 L
284.792 374 L
283.924 374 L
283.056 374 L
282.188 374 L
281.32 374 L
280.452 374 L
279.584 374 L
278.716 374 L
277.848 374 L
276.98 374 L
276.112 374 L
275.244 374 L
274.376 374 L
273.508 374 L
272.64 374 L
271.772 374 L
270.904 374 L
270.036 374 L
269.168 374 L
268.3 374 L
267.432 374 L
266.564 374 L
265.696 374 L
264.828 374 L
263.96 374 L
263.092 374 L
262.224 374 L
261.356 374 L
260.488 374 L
259.62 374 L
258.752 374 L
257.884 374 L
257.016 374 L
256.148 374 L
255.28 374 L
254.412 374 L
253.544 374 L
252.676 374 L
251.808 374 L
250.94 374 L
250.072 374 L
249.204 374 L
248.336 374 L
247.468 374 L
246.6 374 L
245.732 374 L
244.864 374 L
243.996 374 L
243.128 374 L
242.26 374 L
241.392 374 L
240.524 374 L
239.656 374 L
238.788 374 L
237.92 374 L
237.052 374 L
236.184 374 L
235.316 374 L
234.448 374 L
233.58 374 L
232.712 374 L
231.844 374 L
230.976 374 L
230.108 374 L
229.24 374 L
228.372 374 L
227.504 374 L
226.636 374 L
225.768 374 L
224.9 374 L
224.032 374 L
223.164 374 L
222.296 374 L
221.428 374 L
220.56 374 L
219.692 374 L
218.824 374 L
217.956 374 L
217.088 374 L
216.22 374 L
215.352 374 L
214.484 374 L
213.616 374 L
212.748 374 L
211.88 374 L
211.012 374 L
210.144 374 L
209.276 374 L
208.408 374 L
207.54 374 L
206.672 374 L
205.804 374 L
204.936 374 L
204.068 374 L
203.2 374 L
202.332 374 L
201.464 31 L
200.596 31 L
199.728 31 L
198.86 31 L
197.992 31 L
197.124 31 L
196.256 31 L
195.388 31 L
194.52 31 L
193.652 31 L
192.784 31 L
191.916 31 L
191.048 31 L
190.18 31 L
189.312 31 L
188.444 31 L
187.576 31 L
186.708 31 L
185.84 31 L
184.972 31 L
184.104 31 L
183.236 31 L
182.368 31 L
181.5 31 L
180.632 31 L
179.764 31 L
178.896 31 L
178.028 31 L
177.16 31 L
176.292 31 L
175.424 31 L
174.556 31 L
173.688 31 L
172.82 31 L
171.952 31 L
171.084 31 L
170.216 31 L
169.348 31 L
168.48 31 L
167.612 31 L
166.744 31 L
165.876 31 L
165.008 31 L
164.14 31 L
163.272 31 L
162.404 31 L
161.536 31 L
160.668 31 L
159.8 31 L
158.932 31 L
158.064 31 L
157.196 31 L
156.328 31 L
155.46 31 L
154.592 31 L
153.724 31 L
152.856 31 L
151.988 31 L
151.12 31 L
150.252 31 L
149.384 31 L
148.516 31 L
147.648 31 L
146.78 31 L
145.912 31 L
145.044 31 L
144.176 31 L
143.308 31 L
142.44 31 L
141.572 31 L
140.704 31 L
139.836 31 L
138.968 31 L
138.1 31 L
137.232 31 L
136.364 31 L
135.496 31 L
134.628 31 L
133.76 31 L
132.892 31 L
132.024 31 L
131.156 31 L
130.288 31 L
129.42 31 L
128.552 31 L
127.684 31 L
126.816 31 L
125.948 31 L
125.08 31 L
124.212 31 L
123.344 31 L
122.476 31 L
121.608 31 L
120.74 31 L
119.872 31 L
119.004 31 L
118.136 31 L
117.268 31 L
116.4 31 L
115.532 31 L
114.664 31 L
113.796 31 L
112.928 31 L
112.06 374 L
111.192 374 L
110.324 374 L
109.456 374 L
108.588 374 L
107.72 31 L
106.852 31 L
105.984 31 L
105.116 31 L
104.248 31 L
103.38 31 L
102.512 374 L
101.644 374 L
100.776 374 L
99.908 374 L
99.04 374 L
98.172 374 L
97.304 31 L
96.436 31 L
95.568 31 L
94.7 31 L
93.832 31 L
92.964 374 L
92.096 374 L
91.228 374 L
90.36 374 L
89.492 374 L
88.624 374 L
87.756 374 L
86.888 31 L
86.02 31 L
85.152 31 L
84.284 31 L
83.416 31 L
82.548 31 L
81.68 374 L
80.812 374 L
79.944 374 L
79.076 374 L
78.208 374 L
77.34 374 L
76.472 31 L
75.604 31 L
74.736 31 L
73.868 31 L
73 31 L
72.948 31 L
S
GR
GS
[0.75 0 0 0.75 0 0] CT
0.984 0.933 0.91 RC
N
76.472 374 M
77.34 374 L
78.208 374 L
79.076 374 L
79.944 374 L
80.812 374 L
81.68 374 L
82.548 374 L
81.68 31 L
80.812 31 L
79.944 31 L
79.076 31 L
78.208 31 L
77.34 31 L
cp
86.888 374 M
87.756 374 L
88.624 374 L
89.492 374 L
90.36 374 L
91.228 374 L
92.096 374 L
92.964 374 L
93.832 374 L
92.964 31 L
92.096 31 L
91.228 31 L
90.36 31 L
89.492 31 L
88.624 31 L
87.756 31 L
cp
97.304 374 M
98.172 374 L
99.04 374 L
99.908 374 L
100.776 374 L
101.644 374 L
102.512 374 L
103.38 374 L
102.512 31 L
101.644 31 L
100.776 31 L
99.908 31 L
99.04 31 L
98.172 31 L
cp
107.72 374 M
108.588 374 L
109.456 374 L
110.324 374 L
111.192 374 L
112.06 374 L
112.928 374 L
112.06 31 L
111.192 31 L
110.324 31 L
109.456 31 L
108.588 31 L
cp
201.464 374 M
202.332 374 L
203.2 374 L
204.068 374 L
204.936 374 L
205.804 374 L
206.672 374 L
207.54 374 L
208.408 374 L
209.276 374 L
210.144 374 L
211.012 374 L
211.88 374 L
212.748 374 L
213.616 374 L
214.484 374 L
215.352 374 L
216.22 374 L
217.088 374 L
217.956 374 L
218.824 374 L
219.692 374 L
220.56 374 L
221.428 374 L
222.296 374 L
223.164 374 L
224.032 374 L
224.9 374 L
225.768 374 L
226.636 374 L
227.504 374 L
228.372 374 L
229.24 374 L
230.108 374 L
230.976 374 L
231.844 374 L
232.712 374 L
233.58 374 L
234.448 374 L
235.316 374 L
236.184 374 L
237.052 374 L
237.92 374 L
238.788 374 L
239.656 374 L
240.524 374 L
241.392 374 L
242.26 374 L
243.128 374 L
243.996 374 L
244.864 374 L
245.732 374 L
246.6 374 L
247.468 374 L
248.336 374 L
249.204 374 L
250.072 374 L
250.94 374 L
251.808 374 L
252.676 374 L
253.544 374 L
254.412 374 L
255.28 374 L
256.148 374 L
257.016 374 L
257.884 374 L
258.752 374 L
259.62 374 L
260.488 374 L
261.356 374 L
262.224 374 L
263.092 374 L
263.96 374 L
264.828 374 L
265.696 374 L
266.564 374 L
267.432 374 L
268.3 374 L
269.168 374 L
270.036 374 L
270.904 374 L
271.772 374 L
272.64 374 L
273.508 374 L
274.376 374 L
275.244 374 L
276.112 374 L
276.98 374 L
277.848 374 L
278.716 374 L
279.584 374 L
280.452 374 L
281.32 374 L
282.188 374 L
283.056 374 L
283.924 374 L
284.792 374 L
285.66 374 L
286.528 374 L
287.396 374 L
288.264 374 L
289.132 374 L
290 374 L
290.868 374 L
291.736 374 L
292.604 374 L
293.472 374 L
294.34 374 L
295.208 374 L
296.076 374 L
296.944 374 L
297.812 374 L
298.68 374 L
299.548 374 L
300.416 374 L
301.284 374 L
302.152 374 L
303.02 374 L
303.888 374 L
304.756 374 L
305.624 374 L
306.492 374 L
307.36 374 L
308.228 374 L
309.096 374 L
309.964 374 L
310.832 374 L
311.7 374 L
312.568 374 L
313.436 374 L
314.304 374 L
315.172 374 L
316.04 374 L
316.908 374 L
317.776 374 L
318.644 374 L
319.512 374 L
320.38 374 L
321.248 374 L
322.116 374 L
322.984 374 L
323.852 374 L
324.72 374 L
325.588 374 L
326.456 374 L
327.324 374 L
328.192 374 L
329.06 374 L
329.928 374 L
330.796 374 L
331.664 374 L
332.532 374 L
333.4 374 L
334.268 374 L
335.136 374 L
336.004 374 L
336.872 374 L
337.74 374 L
338.608 374 L
339.476 374 L
340.344 374 L
341.212 374 L
342.08 374 L
342.948 374 L
343.816 374 L
344.684 374 L
345.552 374 L
346.42 374 L
347.288 374 L
348.156 374 L
349.024 374 L
349.892 374 L
350.76 374 L
351.628 374 L
352.496 374 L
353.364 374 L
354.232 374 L
355.1 374 L
355.968 374 L
356.836 374 L
357.704 374 L
358.572 374 L
359.44 374 L
360.308 374 L
361.176 374 L
362.044 374 L
362.912 374 L
363.78 374 L
364.648 374 L
365.516 374 L
366.384 374 L
367.252 374 L
368.12 374 L
368.988 374 L
369.856 374 L
370.724 374 L
371.592 374 L
372.46 374 L
373.328 374 L
374.196 374 L
375.064 374 L
375.932 374 L
376.8 374 L
377.668 374 L
378.536 374 L
379.404 374 L
380.272 374 L
381.14 374 L
382.008 374 L
382.876 374 L
383.744 374 L
384.612 374 L
385.48 374 L
386.348 374 L
387.216 374 L
388.084 374 L
388.952 374 L
389.82 374 L
390.688 374 L
391.556 374 L
392.424 374 L
393.292 374 L
394.16 374 L
395.028 374 L
395.896 374 L
396.764 374 L
397.632 374 L
398.5 374 L
399.368 374 L
400.236 374 L
401.104 374 L
401.972 374 L
402.84 374 L
403.708 374 L
404.576 374 L
405.444 374 L
406.312 374 L
407.18 374 L
408.048 374 L
408.916 374 L
409.784 374 L
410.652 374 L
411.52 374 L
412.388 374 L
413.256 374 L
414.124 374 L
414.992 374 L
415.86 374 L
416.728 374 L
417.596 374 L
418.464 374 L
419.332 374 L
420.2 374 L
421.068 374 L
421.936 374 L
422.804 374 L
423.672 374 L
424.54 374 L
425.408 374 L
426.276 374 L
427.144 374 L
428.012 374 L
428.88 374 L
429.748 374 L
430.616 374 L
431.484 374 L
432.352 374 L
433.22 374 L
434.088 374 L
434.956 374 L
435.824 374 L
436.692 374 L
437.56 374 L
438.428 374 L
439.296 374 L
440.164 374 L
441.032 374 L
441.9 374 L
442.768 374 L
443.636 374 L
444.504 374 L
445.372 374 L
446.24 374 L
447.108 374 L
447.976 374 L
448.844 374 L
449.712 374 L
450.58 374 L
451.448 374 L
452.316 374 L
453.184 374 L
454.052 374 L
454.92 374 L
455.788 374 L
456.656 374 L
457.524 374 L
458.392 374 L
459.26 374 L
460.128 374 L
460.996 374 L
461.864 374 L
462.732 374 L
463.6 374 L
464.468 374 L
465.336 374 L
466.204 374 L
467.072 374 L
467.94 374 L
467.072 31 L
466.204 31 L
465.336 31 L
464.468 31 L
463.6 31 L
462.732 31 L
461.864 31 L
460.996 31 L
460.128 31 L
459.26 31 L
458.392 31 L
457.524 31 L
456.656 31 L
455.788 31 L
454.92 31 L
454.052 31 L
453.184 31 L
452.316 31 L
451.448 31 L
450.58 31 L
449.712 31 L
448.844 31 L
447.976 31 L
447.108 31 L
446.24 31 L
445.372 31 L
444.504 31 L
443.636 31 L
442.768 31 L
441.9 31 L
441.032 31 L
440.164 31 L
439.296 31 L
438.428 31 L
437.56 31 L
436.692 31 L
435.824 31 L
434.956 31 L
434.088 31 L
433.22 31 L
432.352 31 L
431.484 31 L
430.616 31 L
429.748 31 L
428.88 31 L
428.012 31 L
427.144 31 L
426.276 31 L
425.408 31 L
424.54 31 L
423.672 31 L
422.804 31 L
421.936 31 L
421.068 31 L
420.2 31 L
419.332 31 L
418.464 31 L
417.596 31 L
416.728 31 L
415.86 31 L
414.992 31 L
414.124 31 L
413.256 31 L
412.388 31 L
411.52 31 L
410.652 31 L
409.784 31 L
408.916 31 L
408.048 31 L
407.18 31 L
406.312 31 L
405.444 31 L
404.576 31 L
403.708 31 L
402.84 31 L
401.972 31 L
401.104 31 L
400.236 31 L
399.368 31 L
398.5 31 L
397.632 31 L
396.764 31 L
395.896 31 L
395.028 31 L
394.16 31 L
393.292 31 L
392.424 31 L
391.556 31 L
390.688 31 L
389.82 31 L
388.952 31 L
388.084 31 L
387.216 31 L
386.348 31 L
385.48 31 L
384.612 31 L
383.744 31 L
382.876 31 L
382.008 31 L
381.14 31 L
380.272 31 L
379.404 31 L
378.536 31 L
377.668 31 L
376.8 31 L
375.932 31 L
375.064 31 L
374.196 31 L
373.328 31 L
372.46 31 L
371.592 31 L
370.724 31 L
369.856 31 L
368.988 31 L
368.12 31 L
367.252 31 L
366.384 31 L
365.516 31 L
364.648 31 L
363.78 31 L
362.912 31 L
362.044 31 L
361.176 31 L
360.308 31 L
359.44 31 L
358.572 31 L
357.704 31 L
356.836 31 L
355.968 31 L
355.1 31 L
354.232 31 L
353.364 31 L
352.496 31 L
351.628 31 L
350.76 31 L
349.892 31 L
349.024 31 L
348.156 31 L
347.288 31 L
346.42 31 L
345.552 31 L
344.684 31 L
343.816 31 L
342.948 31 L
342.08 31 L
341.212 31 L
340.344 31 L
339.476 31 L
338.608 31 L
337.74 31 L
336.872 31 L
336.004 31 L
335.136 31 L
334.268 31 L
333.4 31 L
332.532 31 L
331.664 31 L
330.796 31 L
329.928 31 L
329.06 31 L
328.192 31 L
327.324 31 L
326.456 31 L
325.588 31 L
324.72 31 L
323.852 31 L
322.984 31 L
322.116 31 L
321.248 31 L
320.38 31 L
319.512 31 L
318.644 31 L
317.776 31 L
316.908 31 L
316.04 31 L
315.172 31 L
314.304 31 L
313.436 31 L
312.568 31 L
311.7 31 L
310.832 31 L
309.964 31 L
309.096 31 L
308.228 31 L
307.36 31 L
306.492 31 L
305.624 31 L
304.756 31 L
303.888 31 L
303.02 31 L
302.152 31 L
301.284 31 L
300.416 31 L
299.548 31 L
298.68 31 L
297.812 31 L
296.944 31 L
296.076 31 L
295.208 31 L
294.34 31 L
293.472 31 L
292.604 31 L
291.736 31 L
290.868 31 L
290 31 L
289.132 31 L
288.264 31 L
287.396 31 L
286.528 31 L
285.66 31 L
284.792 31 L
283.924 31 L
283.056 31 L
282.188 31 L
281.32 31 L
280.452 31 L
279.584 31 L
278.716 31 L
277.848 31 L
276.98 31 L
276.112 31 L
275.244 31 L
274.376 31 L
273.508 31 L
272.64 31 L
271.772 31 L
270.904 31 L
270.036 31 L
269.168 31 L
268.3 31 L
267.432 31 L
266.564 31 L
265.696 31 L
264.828 31 L
263.96 31 L
263.092 31 L
262.224 31 L
261.356 31 L
260.488 31 L
259.62 31 L
258.752 31 L
257.884 31 L
257.016 31 L
256.148 31 L
255.28 31 L
254.412 31 L
253.544 31 L
252.676 31 L
251.808 31 L
250.94 31 L
250.072 31 L
249.204 31 L
248.336 31 L
247.468 31 L
246.6 31 L
245.732 31 L
244.864 31 L
243.996 31 L
243.128 31 L
242.26 31 L
241.392 31 L
240.524 31 L
239.656 31 L
238.788 31 L
237.92 31 L
237.052 31 L
236.184 31 L
235.316 31 L
234.448 31 L
233.58 31 L
232.712 31 L
231.844 31 L
230.976 31 L
230.108 31 L
229.24 31 L
228.372 31 L
227.504 31 L
226.636 31 L
225.768 31 L
224.9 31 L
224.032 31 L
223.164 31 L
222.296 31 L
221.428 31 L
220.56 31 L
219.692 31 L
218.824 31 L
217.956 31 L
217.088 31 L
216.22 31 L
215.352 31 L
214.484 31 L
213.616 31 L
212.748 31 L
211.88 31 L
211.012 31 L
210.144 31 L
209.276 31 L
208.408 31 L
207.54 31 L
206.672 31 L
205.804 31 L
204.936 31 L
204.068 31 L
203.2 31 L
202.332 31 L
cp
471.412 374 M
472.28 374 L
473.148 374 L
474.016 374 L
474.884 374 L
475.752 374 L
476.62 374 L
477.488 374 L
476.62 31 L
475.752 31 L
474.884 31 L
474.016 31 L
473.148 31 L
472.28 31 L
cp
480.96 374 M
481.828 374 L
482.696 374 L
483.564 374 L
484.432 374 L
485.3 374 L
486.168 374 L
487.036 374 L
487.904 374 L
487.036 31 L
486.168 31 L
485.3 31 L
484.432 31 L
483.564 31 L
482.696 31 L
481.828 31 L
cp
493.112 374 M
493.98 374 L
494.848 374 L
495.716 374 L
496.584 374 L
497.452 374 L
498.32 374 L
499.188 374 L
498.32 31 L
497.452 31 L
496.584 31 L
495.716 31 L
494.848 31 L
493.98 31 L
cp
504.396 374 M
505.264 374 L
506.132 374 L
507 374 L
507.052 374 L
507.052 51.446 L
507.052 31 L
507 31 L
506.132 31 L
505.264 31 L
cp
f
GR
GS
[0.75 0 0 0.75 0 0] CT
0.984 0.933 0.91 RC
1 LJ
0.667 LW
N
72.948 374 M
73 374 L
73.868 374 L
74.736 374 L
75.604 374 L
76.472 374 L
77.34 374 L
78.208 374 L
79.076 374 L
79.944 374 L
80.812 374 L
81.68 374 L
82.548 374 L
83.416 374 L
84.284 374 L
85.152 374 L
86.02 374 L
86.888 374 L
87.756 374 L
88.624 374 L
89.492 374 L
90.36 374 L
91.228 374 L
92.096 374 L
92.964 374 L
93.832 374 L
94.7 374 L
95.568 374 L
96.436 374 L
97.304 374 L
98.172 374 L
99.04 374 L
99.908 374 L
100.776 374 L
101.644 374 L
102.512 374 L
103.38 374 L
104.248 374 L
105.116 374 L
105.984 374 L
106.852 374 L
107.72 374 L
108.588 374 L
109.456 374 L
110.324 374 L
111.192 374 L
112.06 374 L
112.928 374 L
113.796 374 L
114.664 374 L
115.532 374 L
116.4 374 L
117.268 374 L
118.136 374 L
119.004 374 L
119.872 374 L
120.74 374 L
121.608 374 L
122.476 374 L
123.344 374 L
124.212 374 L
125.08 374 L
125.948 374 L
126.816 374 L
127.684 374 L
128.552 374 L
129.42 374 L
130.288 374 L
131.156 374 L
132.024 374 L
132.892 374 L
133.76 374 L
134.628 374 L
135.496 374 L
136.364 374 L
137.232 374 L
138.1 374 L
138.968 374 L
139.836 374 L
140.704 374 L
141.572 374 L
142.44 374 L
143.308 374 L
144.176 374 L
145.044 374 L
145.912 374 L
146.78 374 L
147.648 374 L
148.516 374 L
149.384 374 L
150.252 374 L
151.12 374 L
151.988 374 L
152.856 374 L
153.724 374 L
154.592 374 L
155.46 374 L
156.328 374 L
157.196 374 L
158.064 374 L
158.932 374 L
159.8 374 L
160.668 374 L
161.536 374 L
162.404 374 L
163.272 374 L
164.14 374 L
165.008 374 L
165.876 374 L
166.744 374 L
167.612 374 L
168.48 374 L
169.348 374 L
170.216 374 L
171.084 374 L
171.952 374 L
172.82 374 L
173.688 374 L
174.556 374 L
175.424 374 L
176.292 374 L
177.16 374 L
178.028 374 L
178.896 374 L
179.764 374 L
180.632 374 L
181.5 374 L
182.368 374 L
183.236 374 L
184.104 374 L
184.972 374 L
185.84 374 L
186.708 374 L
187.576 374 L
188.444 374 L
189.312 374 L
190.18 374 L
191.048 374 L
191.916 374 L
192.784 374 L
193.652 374 L
194.52 374 L
195.388 374 L
196.256 374 L
197.124 374 L
197.992 374 L
198.86 374 L
199.728 374 L
200.596 374 L
201.464 374 L
202.332 374 L
203.2 374 L
204.068 374 L
204.936 374 L
205.804 374 L
206.672 374 L
207.54 374 L
208.408 374 L
209.276 374 L
210.144 374 L
211.012 374 L
211.88 374 L
212.748 374 L
213.616 374 L
214.484 374 L
215.352 374 L
216.22 374 L
217.088 374 L
217.956 374 L
218.824 374 L
219.692 374 L
220.56 374 L
221.428 374 L
222.296 374 L
223.164 374 L
224.032 374 L
224.9 374 L
225.768 374 L
226.636 374 L
227.504 374 L
228.372 374 L
229.24 374 L
230.108 374 L
230.976 374 L
231.844 374 L
232.712 374 L
233.58 374 L
234.448 374 L
235.316 374 L
236.184 374 L
237.052 374 L
237.92 374 L
238.788 374 L
239.656 374 L
240.524 374 L
241.392 374 L
242.26 374 L
243.128 374 L
243.996 374 L
244.864 374 L
245.732 374 L
246.6 374 L
247.468 374 L
248.336 374 L
249.204 374 L
250.072 374 L
250.94 374 L
251.808 374 L
252.676 374 L
253.544 374 L
254.412 374 L
255.28 374 L
256.148 374 L
257.016 374 L
257.884 374 L
258.752 374 L
259.62 374 L
260.488 374 L
261.356 374 L
262.224 374 L
263.092 374 L
263.96 374 L
264.828 374 L
265.696 374 L
266.564 374 L
267.432 374 L
268.3 374 L
269.168 374 L
270.036 374 L
270.904 374 L
271.772 374 L
272.64 374 L
273.508 374 L
274.376 374 L
275.244 374 L
276.112 374 L
276.98 374 L
277.848 374 L
278.716 374 L
279.584 374 L
280.452 374 L
281.32 374 L
282.188 374 L
283.056 374 L
283.924 374 L
284.792 374 L
285.66 374 L
286.528 374 L
287.396 374 L
288.264 374 L
289.132 374 L
290 374 L
290.868 374 L
291.736 374 L
292.604 374 L
293.472 374 L
294.34 374 L
295.208 374 L
296.076 374 L
296.944 374 L
297.812 374 L
298.68 374 L
299.548 374 L
300.416 374 L
301.284 374 L
302.152 374 L
303.02 374 L
303.888 374 L
304.756 374 L
305.624 374 L
306.492 374 L
307.36 374 L
308.228 374 L
309.096 374 L
309.964 374 L
310.832 374 L
311.7 374 L
312.568 374 L
313.436 374 L
314.304 374 L
315.172 374 L
316.04 374 L
316.908 374 L
317.776 374 L
318.644 374 L
319.512 374 L
320.38 374 L
321.248 374 L
322.116 374 L
322.984 374 L
323.852 374 L
324.72 374 L
325.588 374 L
326.456 374 L
327.324 374 L
328.192 374 L
329.06 374 L
329.928 374 L
330.796 374 L
331.664 374 L
332.532 374 L
333.4 374 L
334.268 374 L
335.136 374 L
336.004 374 L
336.872 374 L
337.74 374 L
338.608 374 L
339.476 374 L
340.344 374 L
341.212 374 L
342.08 374 L
342.948 374 L
343.816 374 L
344.684 374 L
345.552 374 L
346.42 374 L
347.288 374 L
348.156 374 L
349.024 374 L
349.892 374 L
350.76 374 L
351.628 374 L
352.496 374 L
353.364 374 L
354.232 374 L
355.1 374 L
355.968 374 L
356.836 374 L
357.704 374 L
358.572 374 L
359.44 374 L
360.308 374 L
361.176 374 L
362.044 374 L
362.912 374 L
363.78 374 L
364.648 374 L
365.516 374 L
366.384 374 L
367.252 374 L
368.12 374 L
368.988 374 L
369.856 374 L
370.724 374 L
371.592 374 L
372.46 374 L
373.328 374 L
374.196 374 L
375.064 374 L
375.932 374 L
376.8 374 L
377.668 374 L
378.536 374 L
379.404 374 L
380.272 374 L
381.14 374 L
382.008 374 L
382.876 374 L
383.744 374 L
384.612 374 L
385.48 374 L
386.348 374 L
387.216 374 L
388.084 374 L
388.952 374 L
389.82 374 L
390.688 374 L
391.556 374 L
392.424 374 L
393.292 374 L
394.16 374 L
395.028 374 L
395.896 374 L
396.764 374 L
397.632 374 L
398.5 374 L
399.368 374 L
400.236 374 L
401.104 374 L
401.972 374 L
402.84 374 L
403.708 374 L
404.576 374 L
405.444 374 L
406.312 374 L
407.18 374 L
408.048 374 L
408.916 374 L
409.784 374 L
410.652 374 L
411.52 374 L
412.388 374 L
413.256 374 L
414.124 374 L
414.992 374 L
415.86 374 L
416.728 374 L
417.596 374 L
418.464 374 L
419.332 374 L
420.2 374 L
421.068 374 L
421.936 374 L
422.804 374 L
423.672 374 L
424.54 374 L
425.408 374 L
426.276 374 L
427.144 374 L
428.012 374 L
428.88 374 L
429.748 374 L
430.616 374 L
431.484 374 L
432.352 374 L
433.22 374 L
434.088 374 L
434.956 374 L
435.824 374 L
436.692 374 L
437.56 374 L
438.428 374 L
439.296 374 L
440.164 374 L
441.032 374 L
441.9 374 L
442.768 374 L
443.636 374 L
444.504 374 L
445.372 374 L
446.24 374 L
447.108 374 L
447.976 374 L
448.844 374 L
449.712 374 L
450.58 374 L
451.448 374 L
452.316 374 L
453.184 374 L
454.052 374 L
454.92 374 L
455.788 374 L
456.656 374 L
457.524 374 L
458.392 374 L
459.26 374 L
460.128 374 L
460.996 374 L
461.864 374 L
462.732 374 L
463.6 374 L
464.468 374 L
465.336 374 L
466.204 374 L
467.072 374 L
467.94 374 L
468.808 374 L
469.676 374 L
470.544 374 L
471.412 374 L
472.28 374 L
473.148 374 L
474.016 374 L
474.884 374 L
475.752 374 L
476.62 374 L
477.488 374 L
478.356 374 L
479.224 374 L
480.092 374 L
480.96 374 L
481.828 374 L
482.696 374 L
483.564 374 L
484.432 374 L
485.3 374 L
486.168 374 L
487.036 374 L
487.904 374 L
488.772 374 L
489.64 374 L
490.508 374 L
491.376 374 L
492.244 374 L
493.112 374 L
493.98 374 L
494.848 374 L
495.716 374 L
496.584 374 L
497.452 374 L
498.32 374 L
499.188 374 L
500.056 374 L
500.924 374 L
501.792 374 L
502.66 374 L
503.528 374 L
504.396 374 L
505.264 374 L
506.132 374 L
507 374 L
507.052 374 L
S
GR
GS
[0.75 0 0 0.75 0 0] CT
0.984 0.933 0.91 RC
1 LJ
0.667 LW
N
507.052 31 M
507 31 L
506.132 31 L
505.264 31 L
504.396 374 L
503.528 374 L
502.66 374 L
501.792 374 L
500.924 374 L
500.056 374 L
499.188 374 L
498.32 31 L
497.452 31 L
496.584 31 L
495.716 31 L
494.848 31 L
493.98 31 L
493.112 374 L
492.244 374 L
491.376 374 L
490.508 374 L
489.64 374 L
488.772 374 L
487.904 374 L
487.036 31 L
486.168 31 L
485.3 31 L
484.432 31 L
483.564 31 L
482.696 31 L
481.828 31 L
480.96 374 L
480.092 374 L
479.224 374 L
478.356 374 L
477.488 374 L
476.62 31 L
475.752 31 L
474.884 31 L
474.016 31 L
473.148 31 L
472.28 31 L
471.412 374 L
470.544 374 L
469.676 374 L
468.808 374 L
467.94 374 L
467.072 31 L
466.204 31 L
465.336 31 L
464.468 31 L
463.6 31 L
462.732 31 L
461.864 31 L
460.996 31 L
460.128 31 L
459.26 31 L
458.392 31 L
457.524 31 L
456.656 31 L
455.788 31 L
454.92 31 L
454.052 31 L
453.184 31 L
452.316 31 L
451.448 31 L
450.58 31 L
449.712 31 L
448.844 31 L
447.976 31 L
447.108 31 L
446.24 31 L
445.372 31 L
444.504 31 L
443.636 31 L
442.768 31 L
441.9 31 L
441.032 31 L
440.164 31 L
439.296 31 L
438.428 31 L
437.56 31 L
436.692 31 L
435.824 31 L
434.956 31 L
434.088 31 L
433.22 31 L
432.352 31 L
431.484 31 L
430.616 31 L
429.748 31 L
428.88 31 L
428.012 31 L
427.144 31 L
426.276 31 L
425.408 31 L
424.54 31 L
423.672 31 L
422.804 31 L
421.936 31 L
421.068 31 L
420.2 31 L
419.332 31 L
418.464 31 L
417.596 31 L
416.728 31 L
415.86 31 L
414.992 31 L
414.124 31 L
413.256 31 L
412.388 31 L
411.52 31 L
410.652 31 L
409.784 31 L
408.916 31 L
408.048 31 L
407.18 31 L
406.312 31 L
405.444 31 L
404.576 31 L
403.708 31 L
402.84 31 L
401.972 31 L
401.104 31 L
400.236 31 L
399.368 31 L
398.5 31 L
397.632 31 L
396.764 31 L
395.896 31 L
395.028 31 L
394.16 31 L
393.292 31 L
392.424 31 L
391.556 31 L
390.688 31 L
389.82 31 L
388.952 31 L
388.084 31 L
387.216 31 L
386.348 31 L
385.48 31 L
384.612 31 L
383.744 31 L
382.876 31 L
382.008 31 L
381.14 31 L
380.272 31 L
379.404 31 L
378.536 31 L
377.668 31 L
376.8 31 L
375.932 31 L
375.064 31 L
374.196 31 L
373.328 31 L
372.46 31 L
371.592 31 L
370.724 31 L
369.856 31 L
368.988 31 L
368.12 31 L
367.252 31 L
366.384 31 L
365.516 31 L
364.648 31 L
363.78 31 L
362.912 31 L
362.044 31 L
361.176 31 L
360.308 31 L
359.44 31 L
358.572 31 L
357.704 31 L
356.836 31 L
355.968 31 L
355.1 31 L
354.232 31 L
353.364 31 L
352.496 31 L
351.628 31 L
350.76 31 L
349.892 31 L
349.024 31 L
348.156 31 L
347.288 31 L
346.42 31 L
345.552 31 L
344.684 31 L
343.816 31 L
342.948 31 L
342.08 31 L
341.212 31 L
340.344 31 L
339.476 31 L
338.608 31 L
337.74 31 L
336.872 31 L
336.004 31 L
335.136 31 L
334.268 31 L
333.4 31 L
332.532 31 L
331.664 31 L
330.796 31 L
329.928 31 L
329.06 31 L
328.192 31 L
327.324 31 L
326.456 31 L
325.588 31 L
324.72 31 L
323.852 31 L
322.984 31 L
322.116 31 L
321.248 31 L
320.38 31 L
319.512 31 L
318.644 31 L
317.776 31 L
316.908 31 L
316.04 31 L
315.172 31 L
314.304 31 L
313.436 31 L
312.568 31 L
311.7 31 L
310.832 31 L
309.964 31 L
309.096 31 L
308.228 31 L
307.36 31 L
306.492 31 L
305.624 31 L
304.756 31 L
303.888 31 L
303.02 31 L
302.152 31 L
301.284 31 L
300.416 31 L
299.548 31 L
298.68 31 L
297.812 31 L
296.944 31 L
296.076 31 L
295.208 31 L
294.34 31 L
293.472 31 L
292.604 31 L
291.736 31 L
290.868 31 L
290 31 L
289.132 31 L
288.264 31 L
287.396 31 L
286.528 31 L
285.66 31 L
284.792 31 L
283.924 31 L
283.056 31 L
282.188 31 L
281.32 31 L
280.452 31 L
279.584 31 L
278.716 31 L
277.848 31 L
276.98 31 L
276.112 31 L
275.244 31 L
274.376 31 L
273.508 31 L
272.64 31 L
271.772 31 L
270.904 31 L
270.036 31 L
269.168 31 L
268.3 31 L
267.432 31 L
266.564 31 L
265.696 31 L
264.828 31 L
263.96 31 L
263.092 31 L
262.224 31 L
261.356 31 L
260.488 31 L
259.62 31 L
258.752 31 L
257.884 31 L
257.016 31 L
256.148 31 L
255.28 31 L
254.412 31 L
253.544 31 L
252.676 31 L
251.808 31 L
250.94 31 L
250.072 31 L
249.204 31 L
248.336 31 L
247.468 31 L
246.6 31 L
245.732 31 L
244.864 31 L
243.996 31 L
243.128 31 L
242.26 31 L
241.392 31 L
240.524 31 L
239.656 31 L
238.788 31 L
237.92 31 L
237.052 31 L
236.184 31 L
235.316 31 L
234.448 31 L
233.58 31 L
232.712 31 L
231.844 31 L
230.976 31 L
230.108 31 L
229.24 31 L
228.372 31 L
227.504 31 L
226.636 31 L
225.768 31 L
224.9 31 L
224.032 31 L
223.164 31 L
222.296 31 L
221.428 31 L
220.56 31 L
219.692 31 L
218.824 31 L
217.956 31 L
217.088 31 L
216.22 31 L
215.352 31 L
214.484 31 L
213.616 31 L
212.748 31 L
211.88 31 L
211.012 31 L
210.144 31 L
209.276 31 L
208.408 31 L
207.54 31 L
206.672 31 L
205.804 31 L
204.936 31 L
204.068 31 L
203.2 31 L
202.332 31 L
201.464 374 L
200.596 374 L
199.728 374 L
198.86 374 L
197.992 374 L
197.124 374 L
196.256 374 L
195.388 374 L
194.52 374 L
193.652 374 L
192.784 374 L
191.916 374 L
191.048 374 L
190.18 374 L
189.312 374 L
188.444 374 L
187.576 374 L
186.708 374 L
185.84 374 L
184.972 374 L
184.104 374 L
183.236 374 L
182.368 374 L
181.5 374 L
180.632 374 L
179.764 374 L
178.896 374 L
178.028 374 L
177.16 374 L
176.292 374 L
175.424 374 L
174.556 374 L
173.688 374 L
172.82 374 L
171.952 374 L
171.084 374 L
170.216 374 L
169.348 374 L
168.48 374 L
167.612 374 L
166.744 374 L
165.876 374 L
165.008 374 L
164.14 374 L
163.272 374 L
162.404 374 L
161.536 374 L
160.668 374 L
159.8 374 L
158.932 374 L
158.064 374 L
157.196 374 L
156.328 374 L
155.46 374 L
154.592 374 L
153.724 374 L
152.856 374 L
151.988 374 L
151.12 374 L
150.252 374 L
149.384 374 L
148.516 374 L
147.648 374 L
146.78 374 L
145.912 374 L
145.044 374 L
144.176 374 L
143.308 374 L
142.44 374 L
141.572 374 L
140.704 374 L
139.836 374 L
138.968 374 L
138.1 374 L
137.232 374 L
136.364 374 L
135.496 374 L
134.628 374 L
133.76 374 L
132.892 374 L
132.024 374 L
131.156 374 L
130.288 374 L
129.42 374 L
128.552 374 L
127.684 374 L
126.816 374 L
125.948 374 L
125.08 374 L
124.212 374 L
123.344 374 L
122.476 374 L
121.608 374 L
120.74 374 L
119.872 374 L
119.004 374 L
118.136 374 L
117.268 374 L
116.4 374 L
115.532 374 L
114.664 374 L
113.796 374 L
112.928 374 L
112.06 31 L
111.192 31 L
110.324 31 L
109.456 31 L
108.588 31 L
107.72 374 L
106.852 374 L
105.984 374 L
105.116 374 L
104.248 374 L
103.38 374 L
102.512 31 L
101.644 31 L
100.776 31 L
99.908 31 L
99.04 31 L
98.172 31 L
97.304 374 L
96.436 374 L
95.568 374 L
94.7 374 L
93.832 374 L
92.964 31 L
92.096 31 L
91.228 31 L
90.36 31 L
89.492 31 L
88.624 31 L
87.756 31 L
86.888 374 L
86.02 374 L
85.152 374 L
84.284 374 L
83.416 374 L
82.548 374 L
81.68 31 L
80.812 31 L
79.944 31 L
79.076 31 L
78.208 31 L
77.34 31 L
76.472 374 L
75.604 374 L
74.736 374 L
73.868 374 L
73 374 L
72.948 374 L
S
GR
GS
[0.75 0 0 0.75 0 0] CT
0 0.447 0.741 RC
1 LJ
2.667 LW
N
72.948 374 M
73 374 L
73.868 374 L
74.736 374 L
75.604 374 L
76.472 374 L
77.34 374 L
78.208 374 L
79.076 374 L
79.944 374 L
80.812 374 L
81.68 374 L
82.548 374 L
83.416 374 L
84.284 374 L
85.152 374 L
86.02 374 L
86.888 374 L
87.756 374 L
88.624 374 L
89.492 374 L
90.36 374 L
91.228 374 L
92.096 374 L
92.964 374 L
93.832 374 L
94.7 374 L
95.568 374 L
96.436 374 L
97.304 374 L
98.172 374 L
99.04 374 L
99.908 374 L
100.776 374 L
101.644 374 L
102.512 374 L
103.38 374 L
104.248 373.999 L
105.116 373.998 L
105.984 373.996 L
106.852 373.994 L
107.72 373.999 L
108.588 374.024 L
108.824 374.041 L
S
GR
GS
[0.75 0 0 0.75 0 0] CT
0 0.447 0.741 RC
1 LJ
2.667 LW
N
111.482 374.041 M
112.06 373.738 L
112.928 372.037 L
113.796 367.999 L
114.664 360.741 L
115.532 350.398 L
116.4 338.562 L
117.268 327.771 L
118.136 320.195 L
119.004 316.536 L
119.872 315.956 L
120.74 316.903 L
121.608 318.046 L
122.476 318.731 L
123.344 318.893 L
124.212 318.732 L
125.08 318.444 L
125.948 318.137 L
126.816 317.866 L
127.684 317.664 L
128.552 317.535 L
129.42 317.474 L
130.288 317.5 L
131.156 317.635 L
132.024 317.822 L
132.892 317.918 L
133.76 317.841 L
134.628 317.676 L
135.496 317.603 L
136.364 317.717 L
137.232 317.966 L
138.1 318.23 L
138.968 318.414 L
139.836 318.451 L
140.704 318.302 L
141.572 317.991 L
142.44 317.622 L
143.308 317.335 L
144.176 317.236 L
145.044 317.362 L
145.912 317.671 L
146.78 318.036 L
147.648 318.277 L
148.516 318.267 L
149.384 318.044 L
150.252 317.809 L
151.12 317.757 L
151.988 317.896 L
152.856 318.054 L
153.724 318.054 L
154.592 317.885 L
155.46 317.671 L
156.328 317.517 L
157.196 317.422 L
158.064 317.376 L
158.932 317.447 L
159.8 317.712 L
160.668 318.096 L
161.536 318.365 L
162.404 318.341 L
163.272 318.092 L
164.14 317.872 L
165.008 317.872 L
165.876 318.044 L
166.744 318.171 L
167.612 318.094 L
168.48 317.845 L
169.348 317.607 L
170.216 317.535 L
171.084 317.62 L
171.952 317.729 L
172.82 317.754 L
173.688 317.712 L
174.556 317.703 L
175.424 317.784 L
176.292 317.915 L
177.16 318.009 L
178.028 318.011 L
178.896 317.94 L
179.764 317.879 L
180.632 317.902 L
181.5 318.028 L
182.368 318.214 L
183.236 318.406 L
184.104 318.588 L
184.972 318.793 L
185.84 319.063 L
186.708 319.398 L
187.576 319.707 L
188.444 319.85 L
189.312 319.786 L
190.18 319.675 L
191.048 319.772 L
191.916 320.173 L
192.784 320.703 L
193.652 321.097 L
194.52 321.279 L
195.388 321.441 L
196.256 321.88 L
197.124 322.799 L
197.992 324.213 L
198.86 325.94 L
199.728 327.659 L
200.596 329.058 L
201.464 330.021 L
202.332 330.72 L
203.2 331.481 L
204.068 332.525 L
204.936 333.812 L
205.804 335.106 L
206.672 336.175 L
207.54 336.969 L
208.408 337.666 L
209.276 338.545 L
210.144 339.749 L
211.012 341.137 L
211.88 342.384 L
212.748 343.249 L
213.616 343.739 L
214.484 344.033 L
215.352 344.289 L
216.22 344.563 L
217.088 344.857 L
217.956 345.194 L
218.824 345.606 L
219.692 346.088 L
220.56 346.555 L
221.428 346.875 L
222.296 346.965 L
223.164 346.873 L
224.032 346.743 L
224.9 346.696 L
225.768 346.746 L
226.636 346.817 L
227.504 346.835 L
228.372 346.783 L
229.24 346.695 L
230.108 346.612 L
230.976 346.568 L
231.844 346.582 L
232.712 346.648 L
233.58 346.724 L
234.448 346.749 L
235.316 346.694 L
236.184 346.595 L
237.052 346.537 L
237.92 346.588 L
238.788 346.741 L
239.656 346.911 L
240.524 346.999 L
241.392 346.961 L
242.26 346.83 L
243.128 346.681 L
243.996 346.593 L
244.864 346.616 L
245.732 346.747 L
246.6 346.925 L
247.468 347.062 L
248.336 347.082 L
249.204 346.968 L
250.072 346.784 L
250.94 346.648 L
251.808 346.649 L
252.676 346.78 L
253.544 346.943 L
254.412 347.033 L
255.28 347.014 L
256.148 346.942 L
257.016 346.899 L
257.884 346.926 L
258.752 347.002 L
259.62 347.068 L
260.488 347.081 L
261.356 347.047 L
262.224 347.018 L
263.092 347.037 L
263.96 347.101 L
264.828 347.177 L
265.696 347.251 L
266.564 347.336 L
267.432 347.439 L
268.3 347.544 L
269.168 347.633 L
270.036 347.709 L
270.904 347.79 L
271.772 347.885 L
272.64 347.997 L
273.508 348.13 L
274.376 348.292 L
275.244 348.487 L
276.112 348.703 L
276.98 348.906 L
277.848 349.063 L
278.716 349.158 L
279.584 349.205 L
280.452 349.247 L
281.32 349.33 L
282.188 349.487 L
283.056 349.715 L
283.924 349.988 L
284.792 350.272 L
285.66 350.537 L
286.528 350.764 L
287.396 350.948 L
288.264 351.104 L
289.132 351.25 L
290 351.391 L
290.868 351.507 L
291.736 351.568 L
292.604 351.548 L
293.472 351.439 L
294.34 351.263 L
295.208 351.07 L
296.076 350.914 L
296.944 350.823 L
297.812 350.792 L
298.68 350.797 L
299.548 350.807 L
300.416 350.781 L
301.284 350.679 L
302.152 350.49 L
303.02 350.239 L
303.888 349.967 L
304.756 349.7 L
305.624 349.436 L
306.492 349.167 L
307.36 348.904 L
308.228 348.671 L
309.096 348.47 L
309.964 348.27 L
310.832 348.04 L
311.7 347.786 L
312.568 347.558 L
313.436 347.405 L
314.304 347.324 L
315.172 347.262 L
316.04 347.16 L
316.908 346.999 L
317.776 346.807 L
318.644 346.629 L
319.512 346.49 L
320.38 346.373 L
321.248 346.239 L
322.116 346.073 L
322.984 345.914 L
323.852 345.837 L
324.72 345.892 L
325.588 346.05 L
326.456 346.216 L
327.324 346.304 L
328.192 346.296 L
329.06 346.231 L
329.928 346.151 L
330.796 346.063 L
331.664 345.973 L
332.532 345.921 L
333.4 345.959 L
334.268 346.084 L
335.136 346.207 L
336.004 346.205 L
336.872 346.02 L
337.74 345.714 L
338.608 345.429 L
339.476 345.292 L
340.344 345.322 L
341.212 345.412 L
342.08 345.417 L
342.948 345.262 L
343.816 345 L
344.684 344.762 L
345.552 344.643 L
346.42 344.636 L
347.288 344.652 L
348.156 344.604 L
349.024 344.467 L
349.892 344.287 L
350.76 344.145 L
351.628 344.09 L
352.496 344.1 L
353.364 344.087 L
354.232 343.972 L
355.1 343.732 L
355.968 343.399 L
356.836 343.001 L
357.704 342.526 L
358.572 341.962 L
359.44 341.365 L
360.308 340.876 L
361.176 340.613 L
362.044 340.547 L
362.912 340.493 L
363.78 340.27 L
364.648 339.85 L
365.516 339.336 L
366.384 338.805 L
367.252 338.21 L
368.12 337.448 L
368.988 336.509 L
369.856 335.541 L
370.724 334.751 L
371.592 334.24 L
372.46 333.924 L
373.328 333.618 L
374.196 333.173 L
375.064 332.542 L
375.932 331.754 L
376.8 330.883 L
377.668 330.021 L
378.536 329.248 L
379.404 328.609 L
380.272 328.122 L
381.14 327.799 L
382.008 327.62 L
382.876 327.503 L
383.744 327.341 L
384.612 327.064 L
385.48 326.627 L
386.348 325.969 L
387.216 325.026 L
388.084 323.843 L
388.952 322.621 L
389.82 321.605 L
390.688 320.9 L
391.556 320.406 L
392.424 319.956 L
393.292 319.487 L
394.16 319.082 L
395.028 318.82 L
395.896 318.661 L
396.764 318.498 L
397.632 318.305 L
398.5 318.142 L
399.368 318.033 L
400.236 317.877 L
401.104 317.529 L
401.972 316.936 L
402.84 316.214 L
403.708 315.605 L
404.576 315.326 L
405.444 315.374 L
406.312 315.469 L
407.18 315.263 L
408.048 314.648 L
408.916 313.876 L
409.784 313.361 L
410.652 313.386 L
411.52 313.936 L
412.388 314.742 L
413.256 315.437 L
414.124 315.734 L
414.992 315.543 L
415.86 314.988 L
416.728 314.338 L
417.596 313.874 L
418.464 313.751 L
419.332 313.908 L
420.2 314.104 L
421.068 314.098 L
421.936 313.853 L
422.804 313.574 L
423.672 313.518 L
424.54 313.753 L
425.408 314.092 L
426.276 314.268 L
427.144 314.187 L
428.012 313.993 L
428.88 313.918 L
429.748 314.078 L
430.616 314.407 L
431.484 314.731 L
432.352 314.876 L
433.22 314.769 L
434.088 314.5 L
434.956 314.252 L
435.824 314.145 L
436.692 314.149 L
437.56 314.154 L
438.428 314.08 L
439.296 313.883 L
440.164 313.502 L
441.032 312.881 L
441.9 312.056 L
442.768 311.172 L
443.636 310.416 L
444.504 309.934 L
445.372 309.78 L
446.24 309.878 L
447.108 310.023 L
447.976 309.936 L
448.844 309.381 L
449.712 308.244 L
450.58 306.571 L
451.448 304.532 L
452.316 302.367 L
453.184 300.342 L
454.052 298.702 L
454.92 297.553 L
455.788 296.741 L
456.656 295.86 L
457.524 294.485 L
458.392 292.444 L
459.26 289.99 L
460.128 287.927 L
460.996 287.744 L
461.864 291.377 L
462.732 300.24 L
463.6 314 L
464.468 330.27 L
465.336 345.744 L
466.204 357.905 L
467.072 365.942 L
467.94 370.476 L
468.808 372.682 L
469.676 373.607 L
470.544 373.932 L
471.412 374.016 L
472.28 374.023 L
473.148 374.013 L
474.016 374.005 L
474.884 374.001 L
475.752 374 L
476.62 373.999 L
477.488 374 L
478.356 374 L
479.224 374 L
480.092 374 L
480.96 374 L
481.828 374 L
482.696 374 L
483.564 374 L
484.432 374 L
485.3 374 L
486.168 374 L
487.036 374 L
487.904 374 L
488.772 374 L
489.64 374 L
490.508 374 L
491.376 374 L
492.244 374 L
493.112 374 L
493.98 374 L
494.848 374 L
495.716 374 L
496.584 374 L
497.452 374 L
498.32 374 L
499.188 374 L
500.056 374 L
500.924 374 L
501.792 374 L
502.66 374 L
503.528 374 L
504.396 374 L
505.264 374 L
506.132 374 L
507 374 L
507.052 374 L
S
GR
GS
[0.75 0 0 0.75 0 0] CT
0.851 0.325 0.098 RC
1 LJ
2.667 LW
N
72.948 374 M
73 374 L
73.868 374 L
74.736 374 L
75.604 374 L
76.472 374 L
77.34 374 L
78.208 374 L
79.076 374 L
79.944 374 L
80.812 374 L
81.68 374 L
82.548 374 L
83.416 374 L
84.284 374 L
85.152 374 L
86.02 374 L
86.888 374 L
87.756 374 L
88.624 374 L
89.492 374 L
90.36 374 L
91.228 374 L
92.096 374 L
92.964 374 L
93.832 374 L
94.7 374 L
95.568 374 L
96.436 374 L
97.304 374 L
98.172 374 L
99.04 374 L
99.908 374 L
100.776 374 L
101.644 374 L
102.512 374 L
103.38 374 L
104.248 374 L
105.116 374 L
105.984 374.001 L
106.852 374.003 L
107.72 374.006 L
108.588 374.005 L
109.456 373.987 L
110.324 373.912 L
111.192 373.7 L
112.06 373.209 L
112.928 372.232 L
113.796 370.546 L
114.664 368.015 L
115.532 364.733 L
116.4 361.092 L
117.268 357.675 L
118.136 355.021 L
119.004 353.397 L
119.872 352.734 L
120.74 352.732 L
121.608 353.026 L
122.476 353.316 L
123.344 353.433 L
124.212 353.335 L
125.08 353.056 L
125.948 352.663 L
126.816 352.241 L
127.684 351.881 L
128.552 351.66 L
129.42 351.591 L
130.288 351.615 L
131.156 351.636 L
132.024 351.583 L
132.892 351.442 L
133.76 351.232 L
134.628 350.971 L
135.496 350.667 L
136.364 350.343 L
137.232 350.036 L
138.1 349.792 L
138.968 349.646 L
139.836 349.623 L
140.704 349.719 L
141.572 349.882 L
142.44 350.02 L
143.308 350.048 L
144.176 349.935 L
145.044 349.709 L
145.912 349.399 L
146.78 349.003 L
147.648 348.528 L
148.516 348.044 L
149.384 347.669 L
150.252 347.489 L
151.12 347.499 L
151.988 347.631 L
152.856 347.814 L
153.724 347.996 L
154.592 348.136 L
155.46 348.195 L
156.328 348.153 L
157.196 348.037 L
158.064 347.914 L
158.932 347.852 L
159.8 347.882 L
160.668 347.993 L
161.536 348.166 L
162.404 348.394 L
163.272 348.651 L
164.14 348.871 L
165.008 348.978 L
165.876 348.938 L
166.744 348.786 L
167.612 348.592 L
168.48 348.402 L
169.348 348.217 L
170.216 348.01 L
171.084 347.768 L
171.952 347.517 L
172.82 347.309 L
173.688 347.192 L
174.556 347.169 L
175.424 347.206 L
176.292 347.254 L
177.16 347.282 L
178.028 347.284 L
178.896 347.256 L
179.764 347.18 L
180.632 347.021 L
181.5 346.731 L
182.368 346.253 L
183.236 345.554 L
184.104 344.67 L
184.972 343.745 L
185.84 342.988 L
186.708 342.562 L
187.576 342.474 L
188.444 342.553 L
189.312 342.538 L
190.18 342.217 L
191.048 341.542 L
191.916 340.643 L
192.784 339.733 L
193.652 338.962 L
194.52 338.345 L
195.388 337.797 L
196.256 337.228 L
197.124 336.579 L
197.992 335.802 L
198.86 334.839 L
199.728 333.667 L
200.596 332.338 L
201.464 330.983 L
202.332 329.787 L
203.2 328.928 L
204.068 328.497 L
204.936 328.422 L
205.804 328.46 L
206.672 328.284 L
207.54 327.657 L
208.408 326.568 L
209.276 325.235 L
210.144 323.936 L
211.012 322.838 L
211.88 321.946 L
212.748 321.158 L
213.616 320.342 L
214.484 319.403 L
215.352 318.375 L
216.22 317.445 L
217.088 316.836 L
217.956 316.612 L
218.824 316.595 L
219.692 316.506 L
220.56 316.177 L
221.428 315.656 L
222.296 315.13 L
223.164 314.751 L
224.032 314.502 L
224.9 314.219 L
225.768 313.756 L
226.636 313.14 L
227.504 312.557 L
228.372 312.187 L
229.24 312.052 L
230.108 312.009 L
230.976 311.862 L
231.844 311.502 L
232.712 310.995 L
233.58 310.547 L
234.448 310.36 L
235.316 310.488 L
236.184 310.779 L
237.052 310.976 L
237.92 310.894 L
238.788 310.536 L
239.656 310.083 L
240.524 309.774 L
241.392 309.757 L
242.26 310.004 L
243.128 310.342 L
243.996 310.571 L
244.864 310.583 L
245.732 310.402 L
246.6 310.135 L
247.468 309.907 L
248.336 309.793 L
249.204 309.804 L
250.072 309.914 L
250.94 310.104 L
251.808 310.372 L
252.676 310.686 L
253.544 310.954 L
254.412 311.061 L
255.28 310.943 L
256.148 310.646 L
257.016 310.29 L
257.884 309.981 L
258.752 309.761 L
259.62 309.615 L
260.488 309.499 L
261.356 309.366 L
262.224 309.195 L
263.092 309.027 L
263.96 308.946 L
264.828 308.971 L
265.696 308.981 L
266.564 308.781 L
267.432 308.269 L
268.3 307.529 L
269.168 306.767 L
270.036 306.142 L
270.904 305.65 L
271.772 305.166 L
272.64 304.568 L
273.508 303.844 L
274.376 303.071 L
275.244 302.323 L
276.112 301.596 L
276.98 300.784 L
277.848 299.719 L
278.716 298.264 L
279.584 296.45 L
280.452 294.516 L
281.32 292.758 L
282.188 291.3 L
283.056 290.021 L
283.924 288.71 L
284.792 287.229 L
285.66 285.525 L
286.528 283.556 L
287.396 281.272 L
288.264 278.656 L
289.132 275.793 L
290 272.909 L
290.868 270.324 L
291.736 268.316 L
292.604 266.959 L
293.472 266.045 L
294.34 265.155 L
295.208 263.883 L
296.076 262.076 L
296.944 259.906 L
297.812 257.716 L
298.68 255.785 L
299.548 254.229 L
300.416 253.019 L
301.284 251.986 L
302.152 250.849 L
303.02 249.374 L
303.888 247.61 L
304.756 245.926 L
305.624 244.73 L
306.492 244.132 L
307.36 243.883 L
308.228 243.593 L
309.096 243.025 L
309.964 242.258 L
310.832 241.622 L
311.7 241.415 L
312.568 241.604 L
313.436 241.782 L
314.304 241.472 L
315.172 240.53 L
316.04 239.295 L
316.908 238.358 L
317.776 238.125 L
318.644 238.516 L
319.512 239.019 L
320.38 239.079 L
321.248 238.513 L
322.116 237.653 L
322.984 237.065 L
323.852 237.077 L
324.72 237.529 L
325.588 237.953 L
326.456 237.99 L
327.324 237.659 L
328.192 237.274 L
329.06 237.13 L
329.928 237.27 L
330.796 237.526 L
331.664 237.721 L
332.532 237.8 L
333.4 237.798 L
334.268 237.755 L
335.136 237.694 L
336.004 237.635 L
336.872 237.617 L
337.74 237.701 L
338.608 237.926 L
339.476 238.216 L
340.344 238.395 L
341.212 238.357 L
342.08 238.216 L
342.948 238.196 L
343.816 238.372 L
344.684 238.57 L
345.552 238.546 L
346.42 238.247 L
347.288 237.852 L
348.156 237.583 L
349.024 237.515 L
349.892 237.565 L
350.76 237.644 L
351.628 237.775 L
352.496 238.065 L
353.364 238.527 L
354.232 238.94 L
355.1 238.936 L
355.968 238.271 L
356.836 237.047 L
357.704 235.63 L
358.572 234.34 L
359.44 233.26 L
360.308 232.355 L
361.176 231.69 L
362.044 231.377 L
362.912 231.251 L
363.78 230.709 L
364.648 229.095 L
365.516 226.325 L
366.384 223.035 L
367.252 219.938 L
368.12 217.02 L
368.988 213.451 L
369.856 208.321 L
370.724 201.422 L
371.592 193.443 L
372.46 185.603 L
373.328 179.048 L
374.196 174.27 L
375.064 170.833 L
375.932 167.676 L
376.8 163.843 L
377.668 159.05 L
378.536 153.612 L
379.404 147.977 L
380.272 142.397 L
381.14 136.92 L
382.008 131.481 L
382.876 126.022 L
383.744 120.646 L
384.612 115.621 L
385.48 111.122 L
386.348 107.058 L
387.216 103.328 L
388.084 100.193 L
388.952 98.225 L
389.82 97.785 L
390.688 98.582 L
391.556 99.771 L
392.424 100.48 L
393.292 100.225 L
394.16 98.914 L
395.028 96.735 L
395.896 94.277 L
396.764 92.502 L
397.632 92.161 L
398.5 93.078 L
399.368 94.209 L
400.236 94.528 L
401.104 93.813 L
401.972 92.662 L
402.84 91.894 L
403.708 91.981 L
404.576 92.864 L
405.444 94.076 L
406.312 94.981 L
407.18 95.088 L
408.048 94.368 L
408.916 93.262 L
409.784 92.259 L
410.652 91.435 L
411.52 90.553 L
412.388 89.643 L
413.256 89.291 L
414.124 90.194 L
414.992 92.403 L
415.86 95.043 L
416.728 96.847 L
417.596 97.07 L
418.464 95.951 L
419.332 94.29 L
420.2 92.663 L
421.068 91.154 L
421.936 89.833 L
422.804 89.182 L
423.672 89.752 L
424.54 91.471 L
425.408 93.575 L
426.276 95.28 L
427.144 96.272 L
428.012 96.472 L
428.88 95.685 L
429.748 93.873 L
430.616 91.731 L
431.484 90.56 L
432.352 91.171 L
433.22 93.01 L
434.088 94.664 L
434.956 95.224 L
435.824 94.901 L
436.692 94.353 L
437.56 93.804 L
438.428 93.072 L
439.296 92.234 L
440.164 91.857 L
441.032 92.398 L
441.9 93.484 L
442.768 94.08 L
443.636 93.53 L
444.504 92.359 L
445.372 91.867 L
446.24 92.908 L
447.108 95.17 L
447.976 97.515 L
448.844 98.802 L
449.712 98.404 L
450.58 96.456 L
451.448 93.963 L
452.316 92.459 L
453.184 92.982 L
454.052 95.182 L
454.92 97.564 L
455.788 98.664 L
456.656 97.901 L
457.524 95.411 L
458.392 91.515 L
459.26 87.042 L
460.128 84.722 L
460.996 90.166 L
461.864 110.289 L
462.732 148.836 L
463.6 202.202 L
464.468 259.785 L
465.336 309.509 L
466.204 344.119 L
467.072 363.394 L
467.94 371.721 L
468.74 374.041 L
S
GR
GS
[0.75 0 0 0.75 0 0] CT
0.851 0.325 0.098 RC
1 LJ
2.667 LW
N
471.831 374.041 M
472.28 373.998 L
473.148 373.98 L
474.016 373.985 L
474.884 373.992 L
475.752 373.997 L
476.62 373.999 L
477.488 374 L
478.356 374 L
479.224 374 L
480.092 374 L
480.96 374 L
481.828 374 L
482.696 374 L
483.564 374 L
484.432 374 L
485.3 374 L
486.168 374 L
487.036 374 L
487.904 374 L
488.772 374 L
489.64 374 L
490.508 374 L
491.376 374 L
492.244 374 L
493.112 374 L
493.98 374 L
494.848 374 L
495.716 374 L
496.584 374 L
497.452 374 L
498.32 374 L
499.188 374 L
500.056 374 L
500.924 374 L
501.792 374 L
502.66 374 L
503.528 374 L
504.396 374 L
505.264 374 L
506.132 374 L
507 374 L
507.052 374 L
S
GR
GS
[0.75 0 0 0.75 0 0] CT
0.775 GC
[1 3] 0 setdash
2 LJ
0.667 LW
N
90.36 374 M
90.36 31 L
S
GR
GS
[0.75 0 0 0.75 0 0] CT
0.775 GC
[1 3] 0 setdash
2 LJ
0.667 LW
N
107.72 374 M
107.72 31 L
S
GR
GS
[0.75 0 0 0.75 0 0] CT
0.775 GC
[1 3] 0 setdash
2 LJ
0.667 LW
N
125.08 374 M
125.08 31 L
S
GR
GS
[0.75 0 0 0.75 0 0] CT
0.775 GC
[1 3] 0 setdash
2 LJ
0.667 LW
N
142.44 374 M
142.44 31 L
S
GR
GS
[0.75 0 0 0.75 0 0] CT
0.775 GC
[1 3] 0 setdash
2 LJ
0.667 LW
N
177.16 374 M
177.16 31 L
S
GR
GS
[0.75 0 0 0.75 0 0] CT
0.775 GC
[1 3] 0 setdash
2 LJ
0.667 LW
N
194.52 374 M
194.52 31 L
S
GR
GS
[0.75 0 0 0.75 0 0] CT
0.775 GC
[1 3] 0 setdash
2 LJ
0.667 LW
N
211.88 374 M
211.88 31 L
S
GR
GS
[0.75 0 0 0.75 0 0] CT
0.775 GC
[1 3] 0 setdash
2 LJ
0.667 LW
N
229.24 374 M
229.24 31 L
S
GR
GS
[0.75 0 0 0.75 0 0] CT
0.775 GC
[1 3] 0 setdash
2 LJ
0.667 LW
N
263.96 374 M
263.96 31 L
S
GR
GS
[0.75 0 0 0.75 0 0] CT
0.775 GC
[1 3] 0 setdash
2 LJ
0.667 LW
N
281.32 374 M
281.32 31 L
S
GR
GS
[0.75 0 0 0.75 0 0] CT
0.775 GC
[1 3] 0 setdash
2 LJ
0.667 LW
N
298.68 374 M
298.68 31 L
S
GR
GS
[0.75 0 0 0.75 0 0] CT
0.775 GC
[1 3] 0 setdash
2 LJ
0.667 LW
N
316.04 374 M
316.04 31 L
S
GR
GS
[0.75 0 0 0.75 0 0] CT
0.775 GC
[1 3] 0 setdash
2 LJ
0.667 LW
N
350.76 374 M
350.76 31 L
S
GR
GS
[0.75 0 0 0.75 0 0] CT
0.775 GC
[1 3] 0 setdash
2 LJ
0.667 LW
N
368.12 374 M
368.12 31 L
S
GR
GS
[0.75 0 0 0.75 0 0] CT
0.775 GC
[1 3] 0 setdash
2 LJ
0.667 LW
N
385.48 374 M
385.48 31 L
S
GR
GS
[0.75 0 0 0.75 0 0] CT
0.775 GC
[1 3] 0 setdash
2 LJ
0.667 LW
N
402.84 374 M
402.84 31 L
S
GR
GS
[0.75 0 0 0.75 0 0] CT
0.775 GC
[1 3] 0 setdash
2 LJ
0.667 LW
N
437.56 374 M
437.56 31 L
S
GR
GS
[0.75 0 0 0.75 0 0] CT
0.775 GC
[1 3] 0 setdash
2 LJ
0.667 LW
N
454.92 374 M
454.92 31 L
S
GR
GS
[0.75 0 0 0.75 0 0] CT
0.775 GC
[1 3] 0 setdash
2 LJ
0.667 LW
N
472.28 374 M
472.28 31 L
S
GR
GS
[0.75 0 0 0.75 0 0] CT
0.775 GC
[1 3] 0 setdash
2 LJ
0.667 LW
N
489.64 374 M
489.64 31 L
S
GR
GS
[0.75 0 0 0.75 0 0] CT
0.873 GC
[1 3] 0 setdash
2 LJ
0.667 LW
N
73 374 M
73 31 L
S
GR
GS
[0.75 0 0 0.75 0 0] CT
0.873 GC
[1 3] 0 setdash
2 LJ
0.667 LW
N
159.8 374 M
159.8 31 L
S
GR
GS
[0.75 0 0 0.75 0 0] CT
0.873 GC
[1 3] 0 setdash
2 LJ
0.667 LW
N
246.6 374 M
246.6 31 L
S
GR
GS
[0.75 0 0 0.75 0 0] CT
0.873 GC
[1 3] 0 setdash
2 LJ
0.667 LW
N
333.4 374 M
333.4 31 L
S
GR
GS
[0.75 0 0 0.75 0 0] CT
0.873 GC
[1 3] 0 setdash
2 LJ
0.667 LW
N
420.2 374 M
420.2 31 L
S
GR
GS
[0.75 0 0 0.75 0 0] CT
0.873 GC
[1 3] 0 setdash
2 LJ
0.667 LW
N
507 374 M
507 31 L
S
GR
GS
[0.75 0 0 0.75 0 0] CT
0.775 GC
[1 3] 0 setdash
2 LJ
0.667 LW
N
507 362.567 M
73 362.567 L
S
GR
GS
[0.75 0 0 0.75 0 0] CT
0.775 GC
[1 3] 0 setdash
2 LJ
0.667 LW
N
507 351.133 M
73 351.133 L
S
GR
GS
[0.75 0 0 0.75 0 0] CT
0.775 GC
[1 3] 0 setdash
2 LJ
0.667 LW
N
507 339.7 M
73 339.7 L
S
GR
GS
[0.75 0 0 0.75 0 0] CT
0.775 GC
[1 3] 0 setdash
2 LJ
0.667 LW
N
507 328.267 M
73 328.267 L
S
GR
GS
[0.75 0 0 0.75 0 0] CT
0.775 GC
[1 3] 0 setdash
2 LJ
0.667 LW
N
507 305.4 M
73 305.4 L
S
GR
GS
[0.75 0 0 0.75 0 0] CT
0.775 GC
[1 3] 0 setdash
2 LJ
0.667 LW
N
507 293.967 M
73 293.967 L
S
GR
GS
[0.75 0 0 0.75 0 0] CT
0.775 GC
[1 3] 0 setdash
2 LJ
0.667 LW
N
507 282.533 M
73 282.533 L
S
GR
GS
[0.75 0 0 0.75 0 0] CT
0.775 GC
[1 3] 0 setdash
2 LJ
0.667 LW
N
507 271.1 M
73 271.1 L
S
GR
GS
[0.75 0 0 0.75 0 0] CT
0.775 GC
[1 3] 0 setdash
2 LJ
0.667 LW
N
507 248.233 M
73 248.233 L
S
GR
GS
[0.75 0 0 0.75 0 0] CT
0.775 GC
[1 3] 0 setdash
2 LJ
0.667 LW
N
507 236.8 M
73 236.8 L
S
GR
GS
[0.75 0 0 0.75 0 0] CT
0.775 GC
[1 3] 0 setdash
2 LJ
0.667 LW
N
507 225.367 M
73 225.367 L
S
GR
GS
[0.75 0 0 0.75 0 0] CT
0.775 GC
[1 3] 0 setdash
2 LJ
0.667 LW
N
507 213.933 M
73 213.933 L
S
GR
GS
[0.75 0 0 0.75 0 0] CT
0.775 GC
[1 3] 0 setdash
2 LJ
0.667 LW
N
507 191.067 M
73 191.067 L
S
GR
GS
[0.75 0 0 0.75 0 0] CT
0.775 GC
[1 3] 0 setdash
2 LJ
0.667 LW
N
507 179.633 M
73 179.633 L
S
GR
GS
[0.75 0 0 0.75 0 0] CT
0.775 GC
[1 3] 0 setdash
2 LJ
0.667 LW
N
507 168.2 M
73 168.2 L
S
GR
GS
[0.75 0 0 0.75 0 0] CT
0.775 GC
[1 3] 0 setdash
2 LJ
0.667 LW
N
507 156.767 M
73 156.767 L
S
GR
GS
[0.75 0 0 0.75 0 0] CT
0.775 GC
[1 3] 0 setdash
2 LJ
0.667 LW
N
507 133.9 M
73 133.9 L
S
GR
GS
[0.75 0 0 0.75 0 0] CT
0.775 GC
[1 3] 0 setdash
2 LJ
0.667 LW
N
507 122.467 M
73 122.467 L
S
GR
GS
[0.75 0 0 0.75 0 0] CT
0.775 GC
[1 3] 0 setdash
2 LJ
0.667 LW
N
507 111.033 M
73 111.033 L
S
GR
GS
[0.75 0 0 0.75 0 0] CT
0.775 GC
[1 3] 0 setdash
2 LJ
0.667 LW
N
507 99.6 M
73 99.6 L
S
GR
GS
[0.75 0 0 0.75 0 0] CT
0.775 GC
[1 3] 0 setdash
2 LJ
0.667 LW
N
507 76.733 M
73 76.733 L
S
GR
GS
[0.75 0 0 0.75 0 0] CT
0.775 GC
[1 3] 0 setdash
2 LJ
0.667 LW
N
507 65.3 M
73 65.3 L
S
GR
GS
[0.75 0 0 0.75 0 0] CT
0.775 GC
[1 3] 0 setdash
2 LJ
0.667 LW
N
507 53.867 M
73 53.867 L
S
GR
GS
[0.75 0 0 0.75 0 0] CT
0.775 GC
[1 3] 0 setdash
2 LJ
0.667 LW
N
507 42.433 M
73 42.433 L
S
GR
GS
[0.75 0 0 0.75 0 0] CT
0.873 GC
[1 3] 0 setdash
2 LJ
0.667 LW
N
507 374 M
73 374 L
S
GR
GS
[0.75 0 0 0.75 0 0] CT
0.873 GC
[1 3] 0 setdash
2 LJ
0.667 LW
N
507 316.833 M
73 316.833 L
S
GR
GS
[0.75 0 0 0.75 0 0] CT
0.873 GC
[1 3] 0 setdash
2 LJ
0.667 LW
N
507 259.667 M
73 259.667 L
S
GR
GS
[0.75 0 0 0.75 0 0] CT
0.873 GC
[1 3] 0 setdash
2 LJ
0.667 LW
N
507 202.5 M
73 202.5 L
S
GR
GS
[0.75 0 0 0.75 0 0] CT
0.873 GC
[1 3] 0 setdash
2 LJ
0.667 LW
N
507 145.333 M
73 145.333 L
S
GR
GS
[0.75 0 0 0.75 0 0] CT
0.873 GC
[1 3] 0 setdash
2 LJ
0.667 LW
N
507 88.167 M
73 88.167 L
S
GR
GS
[0.75 0 0 0.75 0 0] CT
0.873 GC
[1 3] 0 setdash
2 LJ
0.667 LW
N
507 31 M
73 31 L
S
GR
GS
[0.75 0 0 0.75 0 0] CT
0.149 GC
2 setlinecap
1 LJ
0.667 LW
N
73 374 M
507 374 L
S
GR
GS
[0.75 0 0 0.75 0 0] CT
0.149 GC
2 setlinecap
1 LJ
0.667 LW
N
73 374 M
73 369.66 L
S
GR
GS
[0.75 0 0 0.75 0 0] CT
0.149 GC
2 setlinecap
1 LJ
0.667 LW
N
159.8 374 M
159.8 369.66 L
S
GR
GS
[0.75 0 0 0.75 0 0] CT
0.149 GC
2 setlinecap
1 LJ
0.667 LW
N
246.6 374 M
246.6 369.66 L
S
GR
GS
[0.75 0 0 0.75 0 0] CT
0.149 GC
2 setlinecap
1 LJ
0.667 LW
N
333.4 374 M
333.4 369.66 L
S
GR
GS
[0.75 0 0 0.75 0 0] CT
0.149 GC
2 setlinecap
1 LJ
0.667 LW
N
420.2 374 M
420.2 369.66 L
S
GR
GS
[0.75 0 0 0.75 0 0] CT
0.149 GC
2 setlinecap
1 LJ
0.667 LW
N
507 374 M
507 369.66 L
S
GR
GS
[0.75 0 0 0.75 54.75 285.49999] CT
0.149 GC
/Helvetica 20 F
GS
[1 0 0 1 0 0] CT
-6 21 moveto 
1 -1 scale
(1) t 
GR
GR
GS
[0.75 0 0 0.75 119.85 285.49999] CT
0.149 GC
/Helvetica 20 F
GS
[1 0 0 1 0 0] CT
-6 21 moveto 
1 -1 scale
(2) t 
GR
GR
GS
[0.75 0 0 0.75 184.95 285.49999] CT
0.149 GC
/Helvetica 20 F
GS
[1 0 0 1 0 0] CT
-6 21 moveto 
1 -1 scale
(3) t 
GR
GR
GS
[0.75 0 0 0.75 250.05 285.49999] CT
0.149 GC
/Helvetica 20 F
GS
[1 0 0 1 0 0] CT
-6 21 moveto 
1 -1 scale
(4) t 
GR
GR
GS
[0.75 0 0 0.75 315.15001 285.49999] CT
0.149 GC
/Helvetica 20 F
GS
[1 0 0 1 0 0] CT
-6 21 moveto 
1 -1 scale
(5) t 
GR
GR
GS
[0.75 0 0 0.75 380.25 285.49999] CT
0.149 GC
/Helvetica 20 F
GS
[1 0 0 1 0 0] CT
-6 21 moveto 
1 -1 scale
(6) t 
GR
GR
GS
[0.75 0 0 0.75 0 0] CT
0.149 GC
2 setlinecap
1 LJ
0.667 LW
N
73 374 M
73 31 L
S
GR
GS
[0.75 0 0 0.75 0 0] CT
0.149 GC
2 setlinecap
1 LJ
0.667 LW
N
73 374 M
77.34 374 L
S
GR
GS
[0.75 0 0 0.75 0 0] CT
0.149 GC
2 setlinecap
1 LJ
0.667 LW
N
73 316.833 M
77.34 316.833 L
S
GR
GS
[0.75 0 0 0.75 0 0] CT
0.149 GC
2 setlinecap
1 LJ
0.667 LW
N
73 259.667 M
77.34 259.667 L
S
GR
GS
[0.75 0 0 0.75 0 0] CT
0.149 GC
2 setlinecap
1 LJ
0.667 LW
N
73 202.5 M
77.34 202.5 L
S
GR
GS
[0.75 0 0 0.75 0 0] CT
0.149 GC
2 setlinecap
1 LJ
0.667 LW
N
73 145.333 M
77.34 145.333 L
S
GR
GS
[0.75 0 0 0.75 0 0] CT
0.149 GC
2 setlinecap
1 LJ
0.667 LW
N
73 88.167 M
77.34 88.167 L
S
GR
GS
[0.75 0 0 0.75 0 0] CT
0.149 GC
2 setlinecap
1 LJ
0.667 LW
N
73 31 M
77.34 31 L
S
GR
GS
[0.75 0 0 0.75 49.75 280.5] CT
0.149 GC
/Helvetica 20 F
GS
[1 0 0 1 0 0] CT
-12 8 moveto 
1 -1 scale
(0) t 
GR
GR
GS
[0.75 0 0 0.75 49.75 237.62501] CT
0.149 GC
/Helvetica 20 F
GS
[1 0 0 1 0 0] CT
-12 8 moveto 
1 -1 scale
(1) t 
GR
GR
GS
[0.75 0 0 0.75 49.75 194.74999] CT
0.149 GC
/Helvetica 20 F
GS
[1 0 0 1 0 0] CT
-12 8 moveto 
1 -1 scale
(2) t 
GR
GR
GS
[0.75 0 0 0.75 49.75 151.875] CT
0.149 GC
/Helvetica 20 F
GS
[1 0 0 1 0 0] CT
-12 8 moveto 
1 -1 scale
(3) t 
GR
GR
GS
[0.75 0 0 0.75 49.75 109] CT
0.149 GC
/Helvetica 20 F
GS
[1 0 0 1 0 0] CT
-12 8 moveto 
1 -1 scale
(4) t 
GR
GR
GS
[0.75 0 0 0.75 49.75 66.125] CT
0.149 GC
/Helvetica 20 F
GS
[1 0 0 1 0 0] CT
-12 8 moveto 
1 -1 scale
(5) t 
GR
GR
GS
[0.75 0 0 0.75 49.75 23.25] CT
0.149 GC
/Helvetica 20 F
GS
[1 0 0 1 0 0] CT
-12 8 moveto 
1 -1 scale
(6) t 
GR
GR
GS
[0.75 0 0 0.75 0 0] CT
1 GC
N
173 95 M
173 44 L
86 44 L
86 95 L
cp
f
GR
GS
[0.75 0 0 0.75 99.75 43.22525] CT
/Helvetica 18 F
GS
[1 0 0 1 0 0] CT
0 7.5 moveto 
1 -1 scale
(left) t 
GR
GR
GS
[0.75 0 0 0.75 0 0] CT
0 0.447 0.741 RC
1 LJ
2.667 LW
N
90 57.634 M
130 57.634 L
S
GR
GS
[0.75 0 0 0.75 99.75 61.02475] CT
/Helvetica 18 F
GS
[1 0 0 1 0 0] CT
0 7.5 moveto 
1 -1 scale
(right) t 
GR
GR
GS
[0.75 0 0 0.75 0 0] CT
0.851 0.325 0.098 RC
1 LJ
2.667 LW
N
90 81.366 M
130 81.366 L
S
GR
GS
[0.75 0 0 0.75 0 0] CT
0.149 GC
10.0 ML
0.667 LW
N
86 95 M
86 44 L
173 44 L
173 95 L
cp
S
GR
%%Trailer
%%Pages: 1
%%EOF
