%!PS-Adobe-3.0 EPSF-3.0
%%Creator: (MATLAB, The Mathworks, Inc. Version 9.3.0.713579 \(R2017b\). Operating System: Windows 7)
%%Title: fig/RBFN_600_0,02_100000_convergence.eps
%%CreationDate: 2018-05-06T11:44:47
%%Pages: (atend)
%%BoundingBox:    27     3   483   384
%%LanguageLevel: 3
%%EndComments
%%BeginProlog
%%BeginResource: procset (Apache XML Graphics Std ProcSet) 1.2 0
%%Version: 1.2 0
%%Copyright: (Copyright 2001-2003,2010 The Apache Software Foundation. License terms: http://www.apache.org/licenses/LICENSE-2.0)
/bd{bind def}bind def
/ld{load def}bd
/GR/grestore ld
/GS/gsave ld
/RM/rmoveto ld
/C/curveto ld
/t/show ld
/L/lineto ld
/ML/setmiterlimit ld
/CT/concat ld
/f/fill ld
/N/newpath ld
/S/stroke ld
/CC/setcmykcolor ld
/A/ashow ld
/cp/closepath ld
/RC/setrgbcolor ld
/LJ/setlinejoin ld
/GC/setgray ld
/LW/setlinewidth ld
/M/moveto ld
/re {4 2 roll M
1 index 0 rlineto
0 exch rlineto
neg 0 rlineto
cp } bd
/_ctm matrix def
/_tm matrix def
/BT { _ctm currentmatrix pop matrix _tm copy pop 0 0 moveto } bd
/ET { _ctm setmatrix } bd
/iTm { _ctm setmatrix _tm concat } bd
/Tm { _tm astore pop iTm 0 0 moveto } bd
/ux 0.0 def
/uy 0.0 def
/F {
  /Tp exch def
  /Tf exch def
  Tf findfont Tp scalefont setfont
  /cf Tf def  /cs Tp def
} bd
/ULS {currentpoint /uy exch def /ux exch def} bd
/ULE {
  /Tcx currentpoint pop def
  gsave
  newpath
  cf findfont cs scalefont dup
  /FontMatrix get 0 get /Ts exch def /FontInfo get dup
  /UnderlinePosition get Ts mul /To exch def
  /UnderlineThickness get Ts mul /Tt exch def
  ux uy To add moveto  Tcx uy To add lineto
  Tt setlinewidth stroke
  grestore
} bd
/OLE {
  /Tcx currentpoint pop def
  gsave
  newpath
  cf findfont cs scalefont dup
  /FontMatrix get 0 get /Ts exch def /FontInfo get dup
  /UnderlinePosition get Ts mul /To exch def
  /UnderlineThickness get Ts mul /Tt exch def
  ux uy To add cs add moveto Tcx uy To add cs add lineto
  Tt setlinewidth stroke
  grestore
} bd
/SOE {
  /Tcx currentpoint pop def
  gsave
  newpath
  cf findfont cs scalefont dup
  /FontMatrix get 0 get /Ts exch def /FontInfo get dup
  /UnderlinePosition get Ts mul /To exch def
  /UnderlineThickness get Ts mul /Tt exch def
  ux uy To add cs 10 mul 26 idiv add moveto Tcx uy To add cs 10 mul 26 idiv add lineto
  Tt setlinewidth stroke
  grestore
} bd
/QT {
/Y22 exch store
/X22 exch store
/Y21 exch store
/X21 exch store
currentpoint
/Y21 load 2 mul add 3 div exch
/X21 load 2 mul add 3 div exch
/X21 load 2 mul /X22 load add 3 div
/Y21 load 2 mul /Y22 load add 3 div
/X22 load /Y22 load curveto
} bd
/SSPD {
dup length /d exch dict def
{
/v exch def
/k exch def
currentpagedevice k known {
/cpdv currentpagedevice k get def
v cpdv ne {
/upd false def
/nullv v type /nulltype eq def
/nullcpdv cpdv type /nulltype eq def
nullv nullcpdv or
{
/upd true def
} {
/sametype v type cpdv type eq def
sametype {
v type /arraytype eq {
/vlen v length def
/cpdvlen cpdv length def
vlen cpdvlen eq {
0 1 vlen 1 sub {
/i exch def
/obj v i get def
/cpdobj cpdv i get def
obj cpdobj ne {
/upd true def
exit
} if
} for
} {
/upd true def
} ifelse
} {
v type /dicttype eq {
v {
/dv exch def
/dk exch def
/cpddv cpdv dk get def
dv cpddv ne {
/upd true def
exit
} if
} forall
} {
/upd true def
} ifelse
} ifelse
} if
} ifelse
upd true eq {
d k v put
} if
} if
} if
} forall
d length 0 gt {
d setpagedevice
} if
} bd
/RE { % /NewFontName [NewEncodingArray] /FontName RE -
  findfont dup length dict begin
  {
    1 index /FID ne
    {def} {pop pop} ifelse
  } forall
  /Encoding exch def
  /FontName 1 index def
  currentdict definefont pop
  end
} bind def
%%EndResource
%%BeginResource: procset (Apache XML Graphics EPS ProcSet) 1.0 0
%%Version: 1.0 0
%%Copyright: (Copyright 2002-2003 The Apache Software Foundation. License terms: http://www.apache.org/licenses/LICENSE-2.0)
/BeginEPSF { %def
/b4_Inc_state save def         % Save state for cleanup
/dict_count countdictstack def % Count objects on dict stack
/op_count count 1 sub def      % Count objects on operand stack
userdict begin                 % Push userdict on dict stack
/showpage { } def              % Redefine showpage, { } = null proc
0 setgray 0 setlinecap         % Prepare graphics state
1 setlinewidth 0 setlinejoin
10 setmiterlimit [ ] 0 setdash newpath
/languagelevel where           % If level not equal to 1 then
{pop languagelevel             % set strokeadjust and
1 ne                           % overprint to their defaults.
{false setstrokeadjust false setoverprint
} if
} if
} bd
/EndEPSF { %def
count op_count sub {pop} repeat            % Clean up stacks
countdictstack dict_count sub {end} repeat
b4_Inc_state restore
} bd
%%EndResource
%FOPBeginFontDict
%%IncludeResource: font Courier-Oblique
%%IncludeResource: font Courier-BoldOblique
%%IncludeResource: font Courier-Bold
%%IncludeResource: font ZapfDingbats
%%IncludeResource: font Symbol
%%IncludeResource: font Helvetica
%%IncludeResource: font Helvetica-Oblique
%%IncludeResource: font Helvetica-Bold
%%IncludeResource: font Helvetica-BoldOblique
%%IncludeResource: font Times-Roman
%%IncludeResource: font Times-Italic
%%IncludeResource: font Times-Bold
%%IncludeResource: font Times-BoldItalic
%%IncludeResource: font Courier
%FOPEndFontDict
%%BeginResource: encoding WinAnsiEncoding
/WinAnsiEncoding [
/.notdef /.notdef /.notdef /.notdef /.notdef
/.notdef /.notdef /.notdef /.notdef /.notdef
/.notdef /.notdef /.notdef /.notdef /.notdef
/.notdef /.notdef /.notdef /.notdef /.notdef
/.notdef /.notdef /.notdef /.notdef /.notdef
/.notdef /.notdef /.notdef /.notdef /.notdef
/.notdef /.notdef /space /exclam /quotedbl
/numbersign /dollar /percent /ampersand /quotesingle
/parenleft /parenright /asterisk /plus /comma
/hyphen /period /slash /zero /one
/two /three /four /five /six
/seven /eight /nine /colon /semicolon
/less /equal /greater /question /at
/A /B /C /D /E
/F /G /H /I /J
/K /L /M /N /O
/P /Q /R /S /T
/U /V /W /X /Y
/Z /bracketleft /backslash /bracketright /asciicircum
/underscore /quoteleft /a /b /c
/d /e /f /g /h
/i /j /k /l /m
/n /o /p /q /r
/s /t /u /v /w
/x /y /z /braceleft /bar
/braceright /asciitilde /bullet /Euro /bullet
/quotesinglbase /florin /quotedblbase /ellipsis /dagger
/daggerdbl /circumflex /perthousand /Scaron /guilsinglleft
/OE /bullet /Zcaron /bullet /bullet
/quoteleft /quoteright /quotedblleft /quotedblright /bullet
/endash /emdash /asciitilde /trademark /scaron
/guilsinglright /oe /bullet /zcaron /Ydieresis
/space /exclamdown /cent /sterling /currency
/yen /brokenbar /section /dieresis /copyright
/ordfeminine /guillemotleft /logicalnot /sfthyphen /registered
/macron /degree /plusminus /twosuperior /threesuperior
/acute /mu /paragraph /middot /cedilla
/onesuperior /ordmasculine /guillemotright /onequarter /onehalf
/threequarters /questiondown /Agrave /Aacute /Acircumflex
/Atilde /Adieresis /Aring /AE /Ccedilla
/Egrave /Eacute /Ecircumflex /Edieresis /Igrave
/Iacute /Icircumflex /Idieresis /Eth /Ntilde
/Ograve /Oacute /Ocircumflex /Otilde /Odieresis
/multiply /Oslash /Ugrave /Uacute /Ucircumflex
/Udieresis /Yacute /Thorn /germandbls /agrave
/aacute /acircumflex /atilde /adieresis /aring
/ae /ccedilla /egrave /eacute /ecircumflex
/edieresis /igrave /iacute /icircumflex /idieresis
/eth /ntilde /ograve /oacute /ocircumflex
/otilde /odieresis /divide /oslash /ugrave
/uacute /ucircumflex /udieresis /yacute /thorn
/ydieresis
] def
%%EndResource
%FOPBeginFontReencode
/Courier-Oblique findfont
dup length dict begin
  {1 index /FID ne {def} {pop pop} ifelse} forall
  /Encoding WinAnsiEncoding def
  currentdict
end
/Courier-Oblique exch definefont pop
/Courier-BoldOblique findfont
dup length dict begin
  {1 index /FID ne {def} {pop pop} ifelse} forall
  /Encoding WinAnsiEncoding def
  currentdict
end
/Courier-BoldOblique exch definefont pop
/Courier-Bold findfont
dup length dict begin
  {1 index /FID ne {def} {pop pop} ifelse} forall
  /Encoding WinAnsiEncoding def
  currentdict
end
/Courier-Bold exch definefont pop
/Helvetica findfont
dup length dict begin
  {1 index /FID ne {def} {pop pop} ifelse} forall
  /Encoding WinAnsiEncoding def
  currentdict
end
/Helvetica exch definefont pop
/Helvetica-Oblique findfont
dup length dict begin
  {1 index /FID ne {def} {pop pop} ifelse} forall
  /Encoding WinAnsiEncoding def
  currentdict
end
/Helvetica-Oblique exch definefont pop
/Helvetica-Bold findfont
dup length dict begin
  {1 index /FID ne {def} {pop pop} ifelse} forall
  /Encoding WinAnsiEncoding def
  currentdict
end
/Helvetica-Bold exch definefont pop
/Helvetica-BoldOblique findfont
dup length dict begin
  {1 index /FID ne {def} {pop pop} ifelse} forall
  /Encoding WinAnsiEncoding def
  currentdict
end
/Helvetica-BoldOblique exch definefont pop
/Times-Roman findfont
dup length dict begin
  {1 index /FID ne {def} {pop pop} ifelse} forall
  /Encoding WinAnsiEncoding def
  currentdict
end
/Times-Roman exch definefont pop
/Times-Italic findfont
dup length dict begin
  {1 index /FID ne {def} {pop pop} ifelse} forall
  /Encoding WinAnsiEncoding def
  currentdict
end
/Times-Italic exch definefont pop
/Times-Bold findfont
dup length dict begin
  {1 index /FID ne {def} {pop pop} ifelse} forall
  /Encoding WinAnsiEncoding def
  currentdict
end
/Times-Bold exch definefont pop
/Times-BoldItalic findfont
dup length dict begin
  {1 index /FID ne {def} {pop pop} ifelse} forall
  /Encoding WinAnsiEncoding def
  currentdict
end
/Times-BoldItalic exch definefont pop
/Courier findfont
dup length dict begin
  {1 index /FID ne {def} {pop pop} ifelse} forall
  /Encoding WinAnsiEncoding def
  currentdict
end
/Courier exch definefont pop
%FOPEndFontReencode
%%EndProlog
%%Page: 1 1
%%PageBoundingBox: 0 0 525 394
%%BeginPageSetup
[1 0 0 -1 0 394] CT
%%EndPageSetup
GS
[0.75 0 0 0.74971 0 0.39999] CT
N
0 0 M
700 0 L
700 525 L
0 525 L
0 0 L
cp
clip
1 GC
N
0 0 700 525 re
f
GR
GS
[0.75 0 0 0.74971 0 0.39999] CT
1 GC
N
0 0 700 525 re
f
GR
GS
[0.75 0 0 0.74971 0 0.39999] CT
1 GC
N
91 459 M
634 459 L
634 39 L
91 39 L
cp
f
GR
GS
[0.75 0 0 0.74971 0 0.39999] CT
0.873 GC
1 LJ
0.667 LW
N
91 459 M
91 39 L
S
GR
GS
[0.75 0 0 0.74971 0 0.39999] CT
0.873 GC
1 LJ
0.667 LW
N
199.6 459 M
199.6 39 L
S
GR
GS
[0.75 0 0 0.74971 0 0.39999] CT
0.873 GC
1 LJ
0.667 LW
N
308.2 459 M
308.2 39 L
S
GR
GS
[0.75 0 0 0.74971 0 0.39999] CT
0.873 GC
1 LJ
0.667 LW
N
416.8 459 M
416.8 39 L
S
GR
GS
[0.75 0 0 0.74971 0 0.39999] CT
0.873 GC
1 LJ
0.667 LW
N
525.4 459 M
525.4 39 L
S
GR
GS
[0.75 0 0 0.74971 0 0.39999] CT
0.873 GC
1 LJ
0.667 LW
N
634 459 M
634 39 L
S
GR
GS
[0.75 0 0 0.74971 0 0.39999] CT
0.873 GC
1 LJ
0.667 LW
N
634 459 M
91 459 L
S
GR
GS
[0.75 0 0 0.74971 0 0.39999] CT
0.873 GC
1 LJ
0.667 LW
N
634 412.333 M
91 412.333 L
S
GR
GS
[0.75 0 0 0.74971 0 0.39999] CT
0.873 GC
1 LJ
0.667 LW
N
634 365.667 M
91 365.667 L
S
GR
GS
[0.75 0 0 0.74971 0 0.39999] CT
0.873 GC
1 LJ
0.667 LW
N
634 319 M
91 319 L
S
GR
GS
[0.75 0 0 0.74971 0 0.39999] CT
0.873 GC
1 LJ
0.667 LW
N
634 272.333 M
91 272.333 L
S
GR
GS
[0.75 0 0 0.74971 0 0.39999] CT
0.873 GC
1 LJ
0.667 LW
N
634 225.667 M
91 225.667 L
S
GR
GS
[0.75 0 0 0.74971 0 0.39999] CT
0.873 GC
1 LJ
0.667 LW
N
634 179 M
91 179 L
S
GR
GS
[0.75 0 0 0.74971 0 0.39999] CT
0.873 GC
1 LJ
0.667 LW
N
634 132.333 M
91 132.333 L
S
GR
GS
[0.75 0 0 0.74971 0 0.39999] CT
0.873 GC
1 LJ
0.667 LW
N
634 85.667 M
91 85.667 L
S
GR
GS
[0.75 0 0 0.74971 0 0.39999] CT
0.873 GC
1 LJ
0.667 LW
N
634 39 M
91 39 L
S
GR
GS
[0.75 0 0 0.74971 0 0.39999] CT
0.149 GC
2 setlinecap
1 LJ
0.667 LW
N
91 459 M
634 459 L
S
GR
GS
[0.75 0 0 0.74971 0 0.39999] CT
0.149 GC
2 setlinecap
1 LJ
0.667 LW
N
91 39 M
634 39 L
S
GR
GS
[0.75 0 0 0.74971 0 0.39999] CT
0.149 GC
2 setlinecap
1 LJ
0.667 LW
N
91 459 M
91 453.57 L
S
GR
GS
[0.75 0 0 0.74971 0 0.39999] CT
0.149 GC
2 setlinecap
1 LJ
0.667 LW
N
199.6 459 M
199.6 453.57 L
S
GR
GS
[0.75 0 0 0.74971 0 0.39999] CT
0.149 GC
2 setlinecap
1 LJ
0.667 LW
N
308.2 459 M
308.2 453.57 L
S
GR
GS
[0.75 0 0 0.74971 0 0.39999] CT
0.149 GC
2 setlinecap
1 LJ
0.667 LW
N
416.8 459 M
416.8 453.57 L
S
GR
GS
[0.75 0 0 0.74971 0 0.39999] CT
0.149 GC
2 setlinecap
1 LJ
0.667 LW
N
525.4 459 M
525.4 453.57 L
S
GR
GS
[0.75 0 0 0.74971 0 0.39999] CT
0.149 GC
2 setlinecap
1 LJ
0.667 LW
N
634 459 M
634 453.57 L
S
GR
GS
[0.75 0 0 0.74971 0 0.39999] CT
0.149 GC
2 setlinecap
1 LJ
0.667 LW
N
91 39 M
91 44.43 L
S
GR
GS
[0.75 0 0 0.74971 0 0.39999] CT
0.149 GC
2 setlinecap
1 LJ
0.667 LW
N
199.6 39 M
199.6 44.43 L
S
GR
GS
[0.75 0 0 0.74971 0 0.39999] CT
0.149 GC
2 setlinecap
1 LJ
0.667 LW
N
308.2 39 M
308.2 44.43 L
S
GR
GS
[0.75 0 0 0.74971 0 0.39999] CT
0.149 GC
2 setlinecap
1 LJ
0.667 LW
N
416.8 39 M
416.8 44.43 L
S
GR
GS
[0.75 0 0 0.74971 0 0.39999] CT
0.149 GC
2 setlinecap
1 LJ
0.667 LW
N
525.4 39 M
525.4 44.43 L
S
GR
GS
[0.75 0 0 0.74971 0 0.39999] CT
0.149 GC
2 setlinecap
1 LJ
0.667 LW
N
634 39 M
634 44.43 L
S
GR
GS
[0.75 0 0 0.74971 68.25 349.51694] CT
0.149 GC
/Helvetica 20 F
GS
[1 0 0 1 0 0] CT
-6 21 moveto 
1 -1 scale
(0) t 
GR
GR
GS
[0.75 0 0 0.74971 149.7 349.51694] CT
0.149 GC
/Helvetica 20 F
GS
[1 0 0 1 0 0] CT
-6 21 moveto 
1 -1 scale
(2) t 
GR
GR
GS
[0.75 0 0 0.74971 231.15001 349.51694] CT
0.149 GC
/Helvetica 20 F
GS
[1 0 0 1 0 0] CT
-6 21 moveto 
1 -1 scale
(4) t 
GR
GR
GS
[0.75 0 0 0.74971 312.59999 349.51694] CT
0.149 GC
/Helvetica 20 F
GS
[1 0 0 1 0 0] CT
-6 21 moveto 
1 -1 scale
(6) t 
GR
GR
GS
[0.75 0 0 0.74971 394.05002 349.51694] CT
0.149 GC
/Helvetica 20 F
GS
[1 0 0 1 0 0] CT
-6 21 moveto 
1 -1 scale
(8) t 
GR
GR
GS
[0.75 0 0 0.74971 475.5 349.51694] CT
0.149 GC
/Helvetica 20 F
GS
[1 0 0 1 0 0] CT
-11.5 21 moveto 
1 -1 scale
(10) t 
GR
GR
GS
[0.75 0 0 0.74971 271.87518 370.00914] CT
0.149 GC
/Helvetica 22 F
GS
[1 0 0 1 0 0] CT
-48.5 23 moveto 
1 -1 scale
(Itterations) t 
GR
GR
GS
[0.75 0 0 0.74971 439.5 390.25143] CT
0.149 GC
N
2.938 -0.578 M
2.938 -0.734 3.031 -0.859 QT
7.203 -5 L
3.031 -9.156 L
2.938 -9.266 2.938 -9.422 QT
2.938 -9.578 3.055 -9.703 QT
3.172 -9.828 3.344 -9.828 QT
3.484 -9.828 3.641 -9.703 QT
7.781 -5.563 L
11.906 -9.703 L
12.078 -9.828 12.203 -9.828 QT
12.359 -9.828 12.477 -9.711 QT
12.594 -9.594 12.594 -9.422 QT
12.594 -9.266 12.5 -9.156 QT
8.344 -5 L
12.5 -0.859 L
12.594 -0.734 12.594 -0.578 QT
12.594 -0.406 12.477 -0.289 QT
12.359 -0.172 12.203 -0.172 QT
12.047 -0.172 11.906 -0.328 QT
7.781 -4.438 L
3.641 -0.328 L
3.5 -0.172 3.344 -0.172 QT
3.172 -0.172 3.055 -0.305 QT
2.938 -0.438 2.938 -0.578 QT
cp
f
GR
GS
[0.75 0 0 0.74971 451.5 390.25143] CT
0.149 GC
/Helvetica 20 F
GS
[1 0 0 1 0 0] CT
0 0 moveto 
1 -1 scale
(10) t 
GR
GR
GS
[0.75 0 0 0.74971 468.75 382.75429] CT
0.149 GC
/Helvetica 16 F
GS
[1 0 0 1 0 0] CT
0 0 moveto 
1 -1 scale
(4) t 
GR
GR
GS
[0.75 0 0 0.74971 0 0.39999] CT
0.149 GC
2 setlinecap
1 LJ
0.667 LW
N
91 459 M
91 39 L
S
GR
GS
[0.75 0 0 0.74971 0 0.39999] CT
0.149 GC
2 setlinecap
1 LJ
0.667 LW
N
634 459 M
634 39 L
S
GR
GS
[0.75 0 0 0.74971 0 0.39999] CT
0.149 GC
2 setlinecap
1 LJ
0.667 LW
N
91 459 M
96.43 459 L
S
GR
GS
[0.75 0 0 0.74971 0 0.39999] CT
0.149 GC
2 setlinecap
1 LJ
0.667 LW
N
91 412.333 M
96.43 412.333 L
S
GR
GS
[0.75 0 0 0.74971 0 0.39999] CT
0.149 GC
2 setlinecap
1 LJ
0.667 LW
N
91 365.667 M
96.43 365.667 L
S
GR
GS
[0.75 0 0 0.74971 0 0.39999] CT
0.149 GC
2 setlinecap
1 LJ
0.667 LW
N
91 319 M
96.43 319 L
S
GR
GS
[0.75 0 0 0.74971 0 0.39999] CT
0.149 GC
2 setlinecap
1 LJ
0.667 LW
N
91 272.333 M
96.43 272.333 L
S
GR
GS
[0.75 0 0 0.74971 0 0.39999] CT
0.149 GC
2 setlinecap
1 LJ
0.667 LW
N
91 225.667 M
96.43 225.667 L
S
GR
GS
[0.75 0 0 0.74971 0 0.39999] CT
0.149 GC
2 setlinecap
1 LJ
0.667 LW
N
91 179 M
96.43 179 L
S
GR
GS
[0.75 0 0 0.74971 0 0.39999] CT
0.149 GC
2 setlinecap
1 LJ
0.667 LW
N
91 132.333 M
96.43 132.333 L
S
GR
GS
[0.75 0 0 0.74971 0 0.39999] CT
0.149 GC
2 setlinecap
1 LJ
0.667 LW
N
91 85.667 M
96.43 85.667 L
S
GR
GS
[0.75 0 0 0.74971 0 0.39999] CT
0.149 GC
2 setlinecap
1 LJ
0.667 LW
N
91 39 M
96.43 39 L
S
GR
GS
[0.75 0 0 0.74971 0 0.39999] CT
0.149 GC
2 setlinecap
1 LJ
0.667 LW
N
634 459 M
628.57 459 L
S
GR
GS
[0.75 0 0 0.74971 0 0.39999] CT
0.149 GC
2 setlinecap
1 LJ
0.667 LW
N
634 412.333 M
628.57 412.333 L
S
GR
GS
[0.75 0 0 0.74971 0 0.39999] CT
0.149 GC
2 setlinecap
1 LJ
0.667 LW
N
634 365.667 M
628.57 365.667 L
S
GR
GS
[0.75 0 0 0.74971 0 0.39999] CT
0.149 GC
2 setlinecap
1 LJ
0.667 LW
N
634 319 M
628.57 319 L
S
GR
GS
[0.75 0 0 0.74971 0 0.39999] CT
0.149 GC
2 setlinecap
1 LJ
0.667 LW
N
634 272.333 M
628.57 272.333 L
S
GR
GS
[0.75 0 0 0.74971 0 0.39999] CT
0.149 GC
2 setlinecap
1 LJ
0.667 LW
N
634 225.667 M
628.57 225.667 L
S
GR
GS
[0.75 0 0 0.74971 0 0.39999] CT
0.149 GC
2 setlinecap
1 LJ
0.667 LW
N
634 179 M
628.57 179 L
S
GR
GS
[0.75 0 0 0.74971 0 0.39999] CT
0.149 GC
2 setlinecap
1 LJ
0.667 LW
N
634 132.333 M
628.57 132.333 L
S
GR
GS
[0.75 0 0 0.74971 0 0.39999] CT
0.149 GC
2 setlinecap
1 LJ
0.667 LW
N
634 85.667 M
628.57 85.667 L
S
GR
GS
[0.75 0 0 0.74971 0 0.39999] CT
0.149 GC
2 setlinecap
1 LJ
0.667 LW
N
634 39 M
628.57 39 L
S
GR
GS
[0.75 0 0 0.74971 63.25 344.51886] CT
0.149 GC
/Helvetica 20 F
GS
[1 0 0 1 0 0] CT
-12 8 moveto 
1 -1 scale
(0) t 
GR
GR
GS
[0.75 0 0 0.74971 63.25 309.5322] CT
0.149 GC
/Helvetica 20 F
GS
[1 0 0 1 0 0] CT
-23 8 moveto 
1 -1 scale
(10) t 
GR
GR
GS
[0.75 0 0 0.74971 63.25 274.54551] CT
0.149 GC
/Helvetica 20 F
GS
[1 0 0 1 0 0] CT
-23 8 moveto 
1 -1 scale
(20) t 
GR
GR
GS
[0.75 0 0 0.74971 63.25 239.55885] CT
0.149 GC
/Helvetica 20 F
GS
[1 0 0 1 0 0] CT
-23 8 moveto 
1 -1 scale
(30) t 
GR
GR
GS
[0.75 0 0 0.74971 63.25 204.5722] CT
0.149 GC
/Helvetica 20 F
GS
[1 0 0 1 0 0] CT
-23 8 moveto 
1 -1 scale
(40) t 
GR
GR
GS
[0.75 0 0 0.74971 63.25 169.58552] CT
0.149 GC
/Helvetica 20 F
GS
[1 0 0 1 0 0] CT
-23 8 moveto 
1 -1 scale
(50) t 
GR
GR
GS
[0.75 0 0 0.74971 63.25 134.59885] CT
0.149 GC
/Helvetica 20 F
GS
[1 0 0 1 0 0] CT
-23 8 moveto 
1 -1 scale
(60) t 
GR
GR
GS
[0.75 0 0 0.74971 63.25 99.61218] CT
0.149 GC
/Helvetica 20 F
GS
[1 0 0 1 0 0] CT
-23 8 moveto 
1 -1 scale
(70) t 
GR
GR
GS
[0.75 0 0 0.74971 63.25 64.62552] CT
0.149 GC
/Helvetica 20 F
GS
[1 0 0 1 0 0] CT
-23 8 moveto 
1 -1 scale
(80) t 
GR
GR
GS
[0.75 0 0 0.74971 63.25 29.63885] CT
0.149 GC
/Helvetica 20 F
GS
[1 0 0 1 0 0] CT
-23 8 moveto 
1 -1 scale
(90) t 
GR
GR
GS
[0 -0.74971 0.75 0 43 187.07871] CT
0.149 GC
/Helvetica 22 F
GS
[1 0 0 1 0 0] CT
-50.5 -5 moveto 
1 -1 scale
(Difference) t 
GR
GR
GS
[0.75 0 0 0.74971 162.75 22.89142] CT
/Helvetica-Bold 22 F
GS
[1 0 0 1 0 0] CT
0 0 moveto 
1 -1 scale
(Norm 2 distance from ) t 
GR
GR
GS
[0.75 0 0 0.74971 337.5 22.89142] CT
N
3.547 0.25 M
2.547 0.25 1.945 -0.484 QT
1.344 -1.219 1.109 -2.25 QT
0.875 -3.281 0.875 -4.281 QT
0.875 -4.313 L
0.875 -5.406 1.086 -6.586 QT
1.297 -7.766 1.695 -8.945 QT
2.094 -10.125 2.563 -11.047 QT
2.875 -11.688 3.391 -12.484 QT
3.906 -13.281 4.531 -13.969 QT
5.156 -14.656 5.883 -15.086 QT
6.609 -15.516 7.344 -15.516 QT
7.375 -15.516 L
9.172 -15.516 9.703 -15.07 QT
10.234 -14.625 10.523 -13.938 QT
10.813 -13.25 10.938 -12.469 QT
11.063 -11.688 11.063 -10.984 QT
11.063 -9.313 10.609 -7.578 QT
10.156 -5.844 9.359 -4.219 QT
9.063 -3.609 8.531 -2.781 QT
8 -1.953 7.398 -1.297 QT
6.797 -0.641 6.055 -0.195 QT
5.313 0.25 3.563 0.25 QT
3.547 0.25 L
cp
3.594 -0.328 M
4.313 -0.328 4.984 -1.109 QT
5.656 -1.891 6.164 -3 QT
6.672 -4.109 7.055 -5.281 QT
7.438 -6.453 7.609 -7.266 QT
4.125 -7.266 L
3.781 -5.875 3.586 -4.875 QT
3.391 -3.875 3.391 -2.906 QT
3.391 -0.328 3.594 -0.328 QT
cp
4.297 -8.031 M
7.813 -8.031 L
8.047 -9 8.188 -9.648 QT
8.328 -10.297 8.422 -11.016 QT
8.516 -11.734 8.516 -12.359 QT
8.516 -14.938 7.344 -14.938 QT
6.953 -14.938 5.938 -12.688 QT
4.922 -10.438 4.297 -8.031 QT
cp
f
GR
GS
[0.75 0 0 0.74971 346.5 22.89142] CT
/Helvetica-Bold 22 F
GS
[1 0 0 1 0 0] CT
0 0 moveto 
1 -1 scale
( to 0) t 
GR
GR
GS
[0.75 0 0 0.74971 0 0.39999] CT
0 0.447 0.741 RC
1 LJ
2.667 LW
N
91.005 459 M
91.32 452.141 L
91.331 452.141 L
91.337 452.141 L
91.988 445.867 L
91.999 445.867 L
92.005 445.867 L
92.662 443.887 L
92.667 443.887 L
93.324 438.564 L
93.329 438.564 L
93.335 438.564 L
93.997 436.807 L
94.003 436.659 L
94.66 434.212 L
94.665 434.212 L
94.671 434.212 L
95.284 432.549 L
95.333 432.549 L
95.339 432.549 L
95.952 430.264 L
95.996 430.264 L
96.001 430.264 L
96.647 427.28 L
96.663 427.28 L
96.669 427.262 L
97.321 424.862 L
97.331 424.862 L
97.337 424.862 L
97.391 424.862 L
97.999 421.446 L
98.005 421.386 L
98.662 419.661 L
98.667 419.661 L
99.324 417.208 L
99.33 417.208 L
99.335 417.208 L
99.998 413.824 L
100.003 413.824 L
100.644 410.555 L
100.665 410.556 L
100.671 410.556 L
101.328 408.17 L
101.333 408.17 L
101.339 408.17 L
101.996 406.292 L
102.001 406.292 L
102.658 404.311 L
102.664 404.311 L
102.669 404.311 L
103.332 401.457 L
103.337 401.457 L
103.994 399.832 L
103.999 399.832 L
104.005 399.832 L
104.662 396.542 L
104.667 396.542 L
105.33 394.699 L
105.335 394.698 L
105.987 392.454 L
105.998 392.454 L
106.003 392.454 L
106.66 390.919 L
106.666 390.919 L
106.671 390.919 L
107.328 388.947 L
107.333 388.947 L
107.361 388.954 L
107.996 386.308 L
108.001 386.308 L
108.039 386.327 L
108.653 383.869 L
108.664 383.869 L
108.669 383.869 L
109.332 381.717 L
109.337 381.717 L
110 379.035 L
110.005 379.033 L
110.662 377.539 L
110.667 377.539 L
111.33 375.559 L
111.335 375.559 L
111.352 375.559 L
111.992 373.615 L
111.998 373.615 L
112.003 373.615 L
112.66 371.13 L
112.666 371.13 L
112.671 371.129 L
113.328 368.949 L
113.334 368.947 L
113.996 366.804 L
114.001 366.626 L
114.664 365.061 L
114.669 365.054 L
115.332 363.218 L
115.337 363.218 L
115.994 360.453 L
116 360.453 L
116.005 360.453 L
116.662 358.367 L
116.668 358.36 L
116.684 358.36 L
117.33 356.675 L
117.336 356.675 L
117.998 354.103 L
118.003 354.073 L
118.666 351.993 L
118.671 351.993 L
118.693 352.001 L
119.328 349.847 L
119.334 349.84 L
119.996 348.487 L
120.002 348.486 L
120.664 346.505 L
120.67 346.476 L
121.332 344.589 L
121.337 344.481 L
122 343.167 L
122.005 343.141 L
122.662 341.274 L
122.668 341.274 L
122.684 341.276 L
123.33 339.357 L
123.336 339.334 L
123.998 337.585 L
124.004 337.585 L
124.666 335.667 L
124.671 335.667 L
125.328 333.455 L
125.334 333.451 L
125.991 331.629 L
125.996 331.629 L
126.002 331.628 L
126.664 330.353 L
126.67 330.334 L
127.332 328.055 L
127.338 327.923 L
127.967 325.894 L
127.995 325.915 L
128 325.915 L
128.027 325.931 L
128.662 324.295 L
128.668 324.295 L
129.33 322.257 L
129.336 322.257 L
129.998 320.962 L
130.004 320.962 L
130.666 319.264 L
130.672 319.263 L
131.329 318.112 L
131.334 318.111 L
131.997 316.851 L
132.002 316.851 L
132.664 314.791 L
132.67 314.774 L
133.321 312.642 L
133.332 312.647 L
133.338 312.646 L
133.989 311.597 L
133.995 311.598 L
134 311.597 L
134.663 309.719 L
134.668 309.719 L
134.679 309.719 L
135.331 307.985 L
135.336 307.977 L
135.966 305.821 L
135.998 305.872 L
136.004 305.871 L
136.666 303.852 L
136.672 303.852 L
137.329 302.555 L
137.334 302.555 L
137.997 300.58 L
138.002 300.472 L
138.665 298.616 L
138.67 298.616 L
139.332 297.249 L
139.338 297.245 L
139.984 295.74 L
139.995 295.742 L
140 295.74 L
140.663 294.76 L
140.668 294.753 L
141.331 293.364 L
141.336 293.358 L
141.999 291.608 L
142.004 291.608 L
142.666 289.576 L
142.672 289.575 L
143.329 287.668 L
143.334 287.668 L
143.997 286.497 L
144.002 286.497 L
144.659 285.323 L
144.665 285.323 L
144.67 285.323 L
144.676 285.323 L
145.333 283.99 L
145.338 283.99 L
145.995 282.961 L
146 282.96 L
146.663 282.23 L
146.668 282.211 L
147.331 280.826 L
147.336 280.825 L
147.999 279.728 L
148.004 279.728 L
148.015 279.728 L
148.667 278.805 L
148.672 278.786 L
149.318 277.167 L
149.329 277.173 L
149.334 277.173 L
149.997 275.655 L
150.002 275.653 L
150.665 274.416 L
150.67 274.415 L
151.333 273.282 L
151.338 273.281 L
151.968 272.347 L
151.995 272.348 L
152.001 272.346 L
152.658 270.785 L
152.663 270.785 L
152.669 270.777 L
152.679 270.782 L
153.32 269.402 L
153.331 269.402 L
153.336 269.401 L
153.342 269.411 L
153.999 268.005 L
154.004 268.005 L
154.661 266.467 L
154.667 266.466 L
154.672 266.473 L
155.329 265.106 L
155.335 265.108 L
155.997 263.84 L
156.003 263.84 L
156.019 263.844 L
156.665 262.889 L
156.67 262.888 L
157.327 261.707 L
157.333 261.709 L
157.338 261.709 L
157.995 260.502 L
158.001 260.502 L
158.663 258.898 L
158.669 258.898 L
159.331 258.18 L
159.337 258.179 L
159.999 256.675 L
160.004 256.674 L
160.661 255.865 L
160.667 255.852 L
161.329 254.499 L
161.335 254.495 L
161.997 253.555 L
162.003 253.555 L
162.654 251.86 L
162.665 251.867 L
162.671 251.867 L
163.333 250.568 L
163.338 250.486 L
163.995 249.577 L
164.001 249.575 L
164.663 248.477 L
164.669 248.477 L
165.331 247.403 L
165.337 247.396 L
165.375 247.4 L
165.999 246.297 L
166.005 246.225 L
166.662 244.964 L
166.667 244.96 L
167.324 243.711 L
167.33 243.717 L
167.335 243.717 L
167.997 242.514 L
168.003 242.513 L
168.008 242.529 L
168.665 241.58 L
168.671 241.572 L
169.311 240.224 L
169.333 240.225 L
169.339 240.225 L
169.996 239.018 L
170.001 239.017 L
170.642 237.991 L
170.664 237.992 L
170.669 237.992 L
170.68 238.052 L
171.331 236.979 L
171.337 236.977 L
171.999 235.934 L
172.005 235.934 L
172.016 235.936 L
172.662 234.695 L
172.667 234.695 L
173.324 233.564 L
173.33 233.564 L
173.335 233.564 L
173.346 233.566 L
173.998 232.918 L
174.003 232.909 L
174.665 231.408 L
174.671 231.407 L
175.328 230.313 L
175.333 230.318 L
175.339 230.332 L
175.996 229.437 L
176.001 229.429 L
176.664 228.158 L
176.669 228.157 L
177.332 227.183 L
177.337 227.179 L
177.999 225.926 L
178.005 225.921 L
178.662 224.779 L
178.667 224.769 L
179.33 223.987 L
179.335 223.987 L
179.998 223.014 L
180.003 223.013 L
180.666 222.136 L
180.671 222.136 L
181.328 221.243 L
181.333 221.243 L
181.344 221.244 L
181.996 220.223 L
182.001 220.223 L
182.664 219.183 L
182.669 219.175 L
183.332 218.591 L
183.337 218.59 L
184 217.512 L
184.005 217.499 L
184.662 216.787 L
184.667 216.786 L
185.33 215.745 L
185.335 215.745 L
185.998 215.109 L
186.003 215.108 L
186.666 213.973 L
186.671 213.973 L
187.317 212.93 L
187.328 212.933 L
187.334 212.934 L
187.996 212.103 L
188.002 212.098 L
188.664 211.016 L
188.669 211.014 L
189.332 210.13 L
189.337 210.131 L
190 209.438 L
190.005 209.394 L
190.662 208.312 L
190.668 208.308 L
191.33 207.455 L
191.336 207.443 L
191.998 206.581 L
192.003 206.581 L
192.666 205.933 L
192.671 205.926 L
193.328 204.864 L
193.334 204.858 L
193.996 203.836 L
194.002 203.836 L
194.664 203.047 L
194.67 203.047 L
195.327 202.202 L
195.332 202.202 L
195.337 202.202 L
196 201.562 L
196.005 201.557 L
196.652 200.96 L
196.662 200.961 L
196.668 200.96 L
197.33 199.818 L
197.336 199.818 L
197.998 199.297 L
198.004 199.296 L
198.666 198.404 L
198.671 198.402 L
198.72 198.425 L
199.329 197.653 L
199.334 197.604 L
199.996 196.698 L
200.002 196.69 L
200.664 195.989 L
200.67 195.988 L
201.332 195.192 L
201.338 195.191 L
201.995 194.292 L
202 194.281 L
202.663 193.461 L
202.668 193.455 L
203.33 192.57 L
203.336 192.568 L
203.998 191.801 L
204.004 191.799 L
204.025 191.837 L
204.666 191.083 L
204.672 191.082 L
205.329 190.339 L
205.334 190.339 L
205.997 189.45 L
206.002 189.45 L
206.664 188.794 L
206.67 188.788 L
207.305 188.014 L
207.332 188.018 L
207.338 188.014 L
207.995 187.131 L
208 187.129 L
208.663 186.379 L
208.668 186.376 L
209.331 185.761 L
209.336 185.777 L
209.998 184.856 L
210.004 184.851 L
210.666 183.973 L
210.672 183.972 L
211.323 183.216 L
211.329 183.216 L
211.334 183.216 L
211.997 182.613 L
212.002 182.603 L
212.665 181.739 L
212.67 181.739 L
213.332 181.139 L
213.338 181.133 L
213.995 180.402 L
214 180.358 L
214.663 179.661 L
214.668 179.652 L
214.706 179.661 L
215.331 179.086 L
215.336 179.075 L
215.999 178.27 L
216.004 178.268 L
216.015 178.275 L
216.666 177.684 L
216.672 177.682 L
217.329 176.887 L
217.334 176.887 L
217.991 175.956 L
217.997 175.956 L
218.002 175.955 L
218.665 174.999 L
218.67 174.997 L
219.333 174.317 L
219.338 174.278 L
219.995 173.566 L
220.001 173.566 L
220.663 172.885 L
220.668 172.885 L
221.331 172.11 L
221.336 172.122 L
221.999 171.494 L
222.004 171.494 L
222.667 170.843 L
222.672 170.837 L
223.329 170.078 L
223.335 170.077 L
223.997 169.35 L
224.002 169.347 L
224.013 169.347 L
224.665 168.761 L
224.67 168.76 L
225.333 168.022 L
225.338 168.003 L
225.995 167.415 L
226.001 167.415 L
226.663 166.675 L
226.669 166.666 L
227.331 166.193 L
227.336 166.191 L
227.999 165.484 L
228.004 165.478 L
228.661 164.854 L
228.667 164.853 L
229.329 164.288 L
229.335 164.28 L
229.997 163.562 L
230.003 163.553 L
230.665 162.925 L
230.67 162.925 L
230.687 162.925 L
231.327 162.329 L
231.333 162.335 L
231.338 162.282 L
231.995 161.63 L
232.001 161.628 L
232.033 161.633 L
232.663 161.221 L
232.669 161.221 L
233.331 160.707 L
233.337 160.707 L
233.983 160.08 L
233.999 160.08 L
234.004 160.08 L
234.108 160.082 L
234.662 159.544 L
234.667 159.535 L
235.329 158.992 L
235.335 158.985 L
235.997 158.549 L
236.003 158.548 L
236.014 158.554 L
236.665 157.807 L
236.671 157.806 L
237.333 157.413 L
237.339 157.395 L
237.996 156.831 L
238.001 156.827 L
238.663 156.179 L
238.669 156.178 L
239.331 155.654 L
239.337 155.652 L
239.999 155.128 L
240.005 155.128 L
240.662 154.693 L
240.667 154.688 L
241.33 154.119 L
241.335 154.118 L
241.943 153.578 L
241.997 153.585 L
242.003 153.584 L
242.035 153.616 L
242.665 153.124 L
242.671 153.123 L
243.328 152.58 L
243.333 152.601 L
243.339 152.601 L
243.996 152.048 L
244.001 152.047 L
244.658 151.51 L
244.664 151.512 L
244.669 151.507 L
245.293 150.917 L
245.331 150.919 L
245.337 150.923 L
245.961 150.326 L
245.999 150.338 L
246.005 150.336 L
246.656 149.714 L
246.662 149.714 L
246.667 149.709 L
247.33 149.001 L
247.335 149.001 L
247.998 148.325 L
248.003 148.325 L
248.665 147.942 L
248.671 147.941 L
249.328 147.39 L
249.333 147.388 L
249.996 146.957 L
250.001 146.956 L
250.664 146.302 L
250.669 146.294 L
251.326 145.852 L
251.332 145.856 L
251.337 145.854 L
251.999 145.353 L
252.005 145.352 L
252.662 144.775 L
252.667 144.773 L
252.673 144.773 L
253.33 144.47 L
253.335 144.468 L
253.987 143.804 L
253.998 143.804 L
254.003 143.804 L
254.666 143.4 L
254.671 143.399 L
255.328 142.902 L
255.334 142.902 L
255.996 142.448 L
256.001 142.446 L
256.664 141.921 L
256.669 141.919 L
257.326 141.252 L
257.332 141.254 L
257.337 141.238 L
257.994 140.798 L
258 140.8 L
258.005 140.75 L
258.624 140.312 L
258.662 140.319 L
258.668 140.314 L
259.33 139.795 L
259.335 139.74 L
259.998 139.251 L
260.003 139.248 L
260.041 139.251 L
260.655 138.765 L
260.666 138.792 L
260.671 138.792 L
261.323 138.332 L
261.328 138.332 L
261.334 138.331 L
261.991 137.949 L
261.996 137.949 L
262.002 137.946 L
262.604 137.526 L
262.664 137.526 L
262.669 137.526 L
263.332 137.014 L
263.337 137.013 L
263.973 136.585 L
264 136.624 L
264.005 136.614 L
264.662 136.13 L
264.668 136.127 L
264.706 136.127 L
265.33 135.753 L
265.336 135.752 L
265.374 135.773 L
265.998 135.182 L
266.003 135.177 L
266.666 134.835 L
266.671 134.835 L
267.328 134.101 L
267.334 134.094 L
267.996 133.652 L
268.002 133.646 L
268.664 133.199 L
268.67 133.198 L
268.675 133.202 L
269.185 132.834 L
269.332 132.895 L
269.337 132.894 L
269.348 132.909 L
269.989 132.59 L
270 132.59 L
270.005 132.592 L
270.662 132.202 L
270.668 132.201 L
271.33 131.672 L
271.336 131.671 L
271.374 131.691 L
271.993 131.28 L
271.998 131.28 L
272.004 131.279 L
272.666 130.859 L
272.672 130.859 L
273.329 130.468 L
273.334 130.466 L
273.991 129.968 L
273.996 129.976 L
274.002 129.974 L
274.664 129.615 L
274.67 129.595 L
275.332 129.16 L
275.338 129.156 L
275.995 128.886 L
276 128.885 L
276.663 128.527 L
276.668 128.526 L
277.33 128.186 L
277.336 128.182 L
277.982 127.716 L
277.998 127.717 L
278.004 127.718 L
278.009 127.718 L
278.666 127.47 L
278.672 127.47 L
278.677 127.471 L
279.329 126.908 L
279.334 126.901 L
279.997 126.316 L
280.002 126.305 L
280.192 126.362 L
280.664 126.06 L
280.67 126.06 L
280.746 126.105 L
281.332 125.699 L
281.338 125.696 L
281.995 125.22 L
282 125.218 L
282.011 125.224 L
282.652 125.018 L
282.663 125.018 L
282.668 125.018 L
283.325 124.765 L
283.331 124.77 L
283.336 124.783 L
283.993 124.291 L
283.999 124.291 L
284.004 124.295 L
284.645 123.971 L
284.666 123.994 L
284.672 123.981 L
285.329 123.445 L
285.334 123.445 L
285.997 122.883 L
286.002 122.883 L
286.665 122.495 L
286.67 122.495 L
287.229 122.197 L
287.333 122.218 L
287.338 122.224 L
287.995 121.869 L
288 121.868 L
288.017 121.884 L
288.663 121.593 L
288.668 121.593 L
288.793 121.601 L
289.331 121.141 L
289.336 121.141 L
289.999 120.802 L
290.004 120.801 L
290.667 120.373 L
290.672 120.278 L
291.329 119.785 L
291.334 119.785 L
291.997 119.423 L
292.002 119.417 L
292.583 119.055 L
292.665 119.084 L
292.67 119.083 L
293.333 118.716 L
293.338 118.707 L
293.995 118.229 L
294.001 118.227 L
294.663 117.891 L
294.668 117.89 L
294.674 117.89 L
295.331 117.463 L
295.336 117.463 L
295.478 117.494 L
295.999 117.258 L
296.004 117.257 L
296.135 117.263 L
296.661 117.113 L
296.667 117.112 L
297.329 116.735 L
297.335 116.728 L
297.997 116.402 L
298.002 116.401 L
298.008 116.406 L
298.659 116.168 L
298.665 116.169 L
298.67 116.163 L
299.224 115.879 L
299.333 115.893 L
299.338 115.881 L
299.355 115.883 L
299.995 115.577 L
300.001 115.57 L
300.658 115.204 L
300.663 115.209 L
300.669 115.198 L
301.331 114.949 L
301.336 114.949 L
301.977 114.662 L
301.999 114.667 L
302.004 114.658 L
302.613 114.383 L
302.661 114.417 L
302.667 114.417 L
303.324 114.084 L
303.329 114.09 L
303.335 114.088 L
303.997 113.693 L
304.003 113.685 L
304.665 113.327 L
304.671 113.319 L
305.333 113.015 L
305.338 113.014 L
305.349 113.014 L
305.995 112.589 L
306.001 112.598 L
306.023 112.6 L
306.663 112.314 L
306.669 112.312 L
307.331 112.002 L
307.337 111.999 L
307.999 111.743 L
308.005 111.739 L
308.662 111.279 L
308.667 111.274 L
309.329 110.917 L
309.335 110.916 L
309.997 110.536 L
310.003 110.536 L
310.665 110.337 L
310.671 110.335 L
311.328 110.006 L
311.333 110.006 L
311.339 110.006 L
311.355 110.007 L
311.996 109.772 L
312.001 109.77 L
312.343 109.733 L
312.349 109.83 L
312.663 109.753 L
312.669 109.753 L
313.331 109.319 L
313.337 109.318 L
313.999 109.048 L
314.005 109.048 L
314.412 108.89 L
314.662 108.928 L
314.667 108.933 L
315.33 108.555 L
315.335 108.555 L
315.997 108.295 L
316.003 108.291 L
316.665 107.951 L
316.671 107.95 L
316.845 107.959 L
317.29 107.782 L
317.333 107.83 L
317.339 107.824 L
317.996 107.536 L
318.001 107.53 L
318.202 107.539 L
318.664 107.348 L
318.669 107.341 L
319.332 107.134 L
319.337 107.133 L
319.402 107.137 L
319.961 106.938 L
319.999 106.957 L
320.005 106.956 L
320.037 106.993 L
320.662 106.703 L
320.667 106.702 L
321.33 106.445 L
321.335 106.438 L
321.373 106.439 L
321.998 106.135 L
322.003 106.134 L
322.666 105.825 L
322.671 105.825 L
323.328 105.503 L
323.333 105.501 L
323.366 105.512 L
323.99 105.316 L
323.996 105.317 L
324.001 105.316 L
324.007 105.317 L
324.664 105.067 L
324.669 105.067 L
325.326 104.808 L
325.332 104.808 L
325.337 104.808 L
325.342 104.81 L
326 104.566 L
326.005 104.565 L
326.646 104.305 L
326.662 104.308 L
326.667 104.308 L
326.809 104.32 L
327.308 104.18 L
327.33 104.183 L
327.335 104.183 L
327.998 103.972 L
328.003 103.972 L
328.666 103.728 L
328.671 103.731 L
329.296 103.438 L
329.328 103.531 L
329.334 103.533 L
329.996 103.383 L
330.001 103.374 L
330.061 103.376 L
330.615 103.129 L
330.664 103.131 L
330.669 103.126 L
331.332 102.878 L
331.337 102.877 L
331.5 102.919 L
332 102.728 L
332.005 102.727 L
332.662 102.372 L
332.668 102.36 L
332.722 102.457 L
333.33 102.247 L
333.335 102.247 L
333.341 102.25 L
333.965 101.961 L
333.998 101.972 L
334.003 101.972 L
334.378 101.807 L
334.666 101.852 L
334.671 101.852 L
335.328 101.683 L
335.334 101.681 L
335.958 101.459 L
335.996 101.5 L
336.002 101.5 L
336.664 101.191 L
336.669 101.201 L
336.735 101.203 L
337.332 100.911 L
337.337 100.911 L
337.663 100.785 L
338 100.903 L
338.005 100.903 L
338.228 100.904 L
338.662 100.614 L
338.668 100.613 L
338.673 100.614 L
339.33 100.366 L
339.336 100.366 L
339.998 100.048 L
340.004 100.046 L
340.65 99.818 L
340.666 99.834 L
340.671 99.832 L
341.328 99.702 L
341.334 99.702 L
341.996 99.476 L
342.002 99.475 L
342.664 99.243 L
342.67 99.243 L
342.838 99.245 L
343.305 98.967 L
343.332 98.976 L
343.338 98.975 L
343.397 98.998 L
343.957 98.746 L
344 98.779 L
344.005 98.779 L
344.011 98.779 L
344.641 98.639 L
344.662 98.642 L
344.668 98.635 L
344.771 98.646 L
345.319 98.489 L
345.33 98.493 L
345.336 98.49 L
345.352 98.492 L
345.998 98.323 L
346.004 98.322 L
346.009 98.325 L
346.514 98.189 L
346.666 98.274 L
346.672 98.274 L
346.677 98.279 L
347.323 98.077 L
347.329 98.077 L
347.334 98.072 L
347.562 98.106 L
347.942 97.988 L
347.996 98.034 L
348.002 98.034 L
348.664 97.835 L
348.67 97.828 L
349.321 97.56 L
349.332 97.561 L
349.338 97.58 L
349.995 97.333 L
350 97.333 L
350.049 97.35 L
350.657 97.165 L
350.663 97.165 L
350.668 97.161 L
351.33 96.982 L
351.336 96.985 L
351.407 97.019 L
351.917 96.642 L
351.998 96.682 L
352.004 96.682 L
352.666 96.383 L
352.672 96.379 L
352.704 96.381 L
353.323 96.101 L
353.329 96.101 L
353.334 96.101 L
353.997 95.855 L
354.002 95.854 L
354.046 95.904 L
354.654 95.704 L
354.665 95.705 L
354.67 95.705 L
355.083 95.604 L
355.175 95.733 L
355.332 95.694 L
355.338 95.692 L
355.941 95.484 L
355.995 95.485 L
356 95.485 L
356.234 95.488 L
356.663 95.351 L
356.668 95.35 L
356.695 95.366 L
357.331 95.175 L
357.336 95.175 L
357.749 95.055 L
357.999 95.081 L
358.004 95.078 L
358.026 95.082 L
358.666 94.826 L
358.672 94.824 L
359.329 94.581 L
359.334 94.581 L
359.997 94.373 L
360.002 94.369 L
360.491 94.121 L
360.665 94.127 L
360.67 94.126 L
361.077 93.999 L
361.333 94.056 L
361.338 94.063 L
361.99 93.812 L
361.995 93.812 L
362 93.81 L
362.663 93.701 L
362.668 93.7 L
362.804 93.706 L
363.331 93.547 L
363.336 93.546 L
363.412 93.558 L
363.982 93.401 L
363.999 93.417 L
364.004 93.416 L
364.667 93.128 L
364.672 93.127 L
365.324 92.912 L
365.329 92.913 L
365.334 92.911 L
365.997 92.767 L
366.002 92.764 L
366.458 92.651 L
366.665 92.681 L
366.67 92.68 L
366.681 92.681 L
367.333 92.521 L
367.338 92.519 L
367.963 92.384 L
367.995 92.391 L
368.001 92.39 L
368.641 92.199 L
368.663 92.203 L
368.668 92.204 L
368.853 92.143 L
369.173 92.235 L
369.331 92.163 L
369.336 92.159 L
369.396 92.165 L
369.999 91.993 L
370.004 91.992 L
370.287 91.993 L
370.661 91.874 L
370.667 91.971 L
371.329 91.77 L
371.335 91.769 L
371.389 91.782 L
371.981 91.612 L
371.997 91.623 L
372.003 91.623 L
372.366 91.407 L
372.665 91.459 L
372.67 91.453 L
372.676 91.453 L
373.333 91.226 L
373.338 91.224 L
373.36 91.24 L
373.995 91.066 L
374.001 91.06 L
374.012 91.061 L
374.652 90.978 L
374.663 90.978 L
374.669 90.977 L
374.717 90.986 L
375.331 90.72 L
375.337 90.718 L
375.586 90.731 L
375.999 90.602 L
376.004 90.601 L
376.118 90.602 L
376.645 90.366 L
376.661 90.408 L
376.667 90.403 L
377.329 90.236 L
377.335 90.236 L
377.997 90.039 L
378.003 90.045 L
378.019 90.078 L
378.638 89.852 L
378.665 89.853 L
378.671 89.897 L
378.709 89.9 L
379.333 89.715 L
379.338 89.714 L
379.995 89.627 L
380.001 89.63 L
380.207 89.631 L
380.663 89.541 L
380.669 89.541 L
380.81 89.663 L
381.272 89.526 L
381.331 89.554 L
381.337 89.55 L
381.358 89.559 L
381.999 89.375 L
382.005 89.374 L
382.396 89.259 L
382.634 89.401 L
382.662 89.393 L
382.667 89.393 L
382.694 89.403 L
383.329 89.213 L
383.335 89.179 L
383.449 89.2 L
383.997 89.056 L
384.003 89.056 L
384.665 88.789 L
384.671 88.789 L
385.333 88.583 L
385.339 88.583 L
385.996 88.453 L
386.001 88.453 L
386.642 88.349 L
386.664 88.357 L
386.669 88.356 L
386.674 88.357 L
387.331 88.188 L
387.337 88.187 L
387.717 88.118 L
387.999 88.128 L
388.005 88.127 L
388.662 87.878 L
388.667 87.877 L
388.759 87.881 L
389.33 87.756 L
389.335 87.755 L
389.987 87.615 L
389.998 87.615 L
390.003 87.614 L
390.041 87.614 L
390.665 87.499 L
390.671 87.495 L
391.333 87.334 L
391.339 87.334 L
391.996 87.107 L
392.001 87.106 L
392.517 87.001 L
392.664 87.008 L
392.669 87.007 L
393.332 86.745 L
393.337 86.744 L
393.885 86.601 L
393.999 86.612 L
394.005 86.611 L
394.542 86.516 L
394.57 86.673 L
394.662 86.628 L
394.667 86.628 L
394.76 86.639 L
395.281 86.56 L
395.33 86.587 L
395.335 86.587 L
395.4 86.597 L
395.992 86.36 L
395.998 86.36 L
396.003 86.36 L
396.666 86.292 L
396.671 86.292 L
396.736 86.297 L
397.328 86.155 L
397.333 86.151 L
397.393 86.164 L
397.996 86.021 L
398.001 86.021 L
398.105 86.06 L
398.664 85.875 L
398.669 85.874 L
398.68 85.876 L
399.332 85.712 L
399.337 85.711 L
399.549 85.679 L
399.554 85.76 L
400 85.71 L
400.005 85.709 L
400.065 85.681 L
400.081 85.766 L
400.662 85.697 L
400.667 85.687 L
400.754 85.762 L
401.303 85.624 L
401.33 85.627 L
401.335 85.627 L
401.428 85.646 L
401.998 85.349 L
402.003 85.351 L
402.313 85.323 L
402.367 85.44 L
402.666 85.342 L
402.671 85.344 L
402.774 85.345 L
403.328 85.179 L
403.334 85.178 L
403.991 84.961 L
403.996 84.961 L
404.001 84.961 L
404.078 84.991 L
404.55 84.783 L
404.664 84.792 L
404.669 84.792 L
404.887 84.825 L
405.332 84.624 L
405.337 84.624 L
406 84.448 L
406.005 84.448 L
406.467 84.34 L
406.662 84.392 L
406.668 84.392 L
407.042 84.303 L
407.156 84.418 L
407.33 84.406 L
407.336 84.403 L
407.987 84.297 L
407.998 84.299 L
408.003 84.299 L
408.101 84.369 L
408.666 84.206 L
408.671 84.206 L
408.867 84.276 L
409.301 84.135 L
409.328 84.173 L
409.334 84.173 L
409.35 84.212 L
409.752 84.077 L
409.996 84.119 L
410.002 84.119 L
410.013 84.126 L
410.664 83.93 L
410.67 83.93 L
411.267 83.826 L
411.332 83.874 L
411.337 83.869 L
411.419 83.876 L
412 83.772 L
412.005 83.771 L
412.081 83.856 L
412.662 83.741 L
412.668 83.805 L
413.325 83.636 L
413.33 83.636 L
413.336 83.642 L
413.634 83.678 L
413.966 83.549 L
413.998 83.563 L
414.004 83.562 L
414.009 83.562 L
414.666 83.274 L
414.671 83.273 L
414.796 83.312 L
415.328 83.208 L
415.334 83.208 L
415.356 83.206 L
415.513 83.345 L
415.996 83.298 L
416.002 83.297 L
416.067 83.251 L
416.436 83.351 L
416.664 83.287 L
416.67 83.287 L
417.332 83.109 L
417.338 83.109 L
417.549 83.078 L
417.87 83.18 L
417.995 83.166 L
418 83.164 L
418.652 83.018 L
418.662 83.023 L
418.668 83.023 L
418.706 83.056 L
419.173 82.984 L
419.33 83.02 L
419.336 83.02 L
419.439 83.044 L
419.993 82.832 L
419.998 82.836 L
420.004 82.836 L
420.009 82.837 L
420.503 82.702 L
420.666 82.712 L
420.672 82.712 L
421.073 82.555 L
421.329 82.588 L
421.334 82.587 L
421.844 82.648 L
421.997 82.55 L
422.002 82.548 L
422.605 82.482 L
422.664 82.489 L
422.67 82.486 L
422.762 82.487 L
423.273 82.338 L
423.332 82.356 L
423.338 82.356 L
423.349 82.356 L
423.93 82.251 L
423.995 82.285 L
424 82.283 L
424.663 82.12 L
424.668 82.12 L
424.891 82.133 L
425.32 82.075 L
425.331 82.076 L
425.336 82.075 L
425.7 81.933 L
425.998 81.964 L
426.004 81.964 L
426.026 81.972 L
426.666 81.793 L
426.672 81.792 L
426.753 81.857 L
427.329 81.744 L
427.334 81.742 L
427.47 81.78 L
427.98 81.656 L
427.997 81.665 L
428.002 81.664 L
428.16 81.671 L
428.659 81.566 L
428.665 81.566 L
428.67 81.566 L
428.73 81.577 L
429.332 81.413 L
429.338 81.412 L
429.995 81.277 L
430 81.276 L
430.006 81.278 L
430.614 81.158 L
430.663 81.209 L
430.668 81.208 L
431.07 81.283 L
431.331 81.196 L
431.336 81.195 L
431.412 81.183 L
431.586 81.252 L
431.999 81.226 L
432.004 81.229 L
432.026 81.227 L
432.379 81.334 L
432.666 81.286 L
432.672 81.288 L
433.041 81.242 L
433.329 81.249 L
433.334 81.312 L
433.932 81.336 L
433.997 81.284 L
434.002 81.284 L
434.659 81.194 L
434.665 81.194 L
434.67 81.194 L
435.316 81.1 L
435.333 81.166 L
435.338 81.159 L
435.447 81.167 L
435.968 81.037 L
435.995 81.04 L
436 81.043 L
436.229 80.935 L
436.663 81.025 L
436.668 81.025 L
436.696 81.026 L
437.124 80.972 L
437.331 80.982 L
437.336 80.981 L
437.798 80.88 L
437.999 80.889 L
438.004 80.889 L
438.232 80.855 L
438.417 80.924 L
438.667 80.916 L
438.672 80.916 L
438.688 80.915 L
438.694 81.001 L
439.329 80.922 L
439.335 80.922 L
439.378 80.927 L
439.997 80.856 L
440.002 80.855 L
440.024 80.863 L
440.632 80.72 L
440.665 80.728 L
440.67 80.727 L
440.849 80.732 L
441.333 80.611 L
441.338 80.611 L
441.995 80.473 L
442.001 80.473 L
442.663 80.366 L
442.669 80.417 L
443.201 80.32 L
443.331 80.359 L
443.336 80.359 L
443.89 80.274 L
443.999 80.278 L
444.004 80.278 L
444.661 80.227 L
444.667 80.223 L
445.139 80.146 L
445.302 80.272 L
445.329 80.258 L
445.335 80.257 L
445.536 80.271 L
445.867 80.213 L
445.997 80.237 L
446.003 80.237 L
446.627 80.116 L
446.665 80.119 L
446.67 80.118 L
447.056 80.052 L
447.333 80.09 L
447.338 80.09 L
447.365 80.098 L
447.995 79.997 L
448.001 79.997 L
448.033 80.02 L
448.663 79.931 L
448.669 79.932 L
449.266 79.842 L
449.331 79.842 L
449.337 79.842 L
449.852 79.564 L
449.999 79.594 L
450.004 79.592 L
450.385 79.575 L
450.623 79.679 L
450.661 79.675 L
450.667 79.676 L
450.754 79.61 L
451.27 79.722 L
451.329 79.718 L
451.335 79.724 L
451.411 79.72 L
451.997 79.911 L
452.003 79.922 L
452.665 79.817 L
452.671 79.816 L
452.676 79.818 L
453.322 79.724 L
453.333 79.726 L
453.338 79.726 L
453.99 79.57 L
453.996 79.57 L
454.001 79.571 L
454.186 79.628 L
454.663 79.443 L
454.669 79.444 L
454.674 79.448 L
455.331 79.32 L
455.337 79.32 L
455.521 79.362 L
455.858 79.276 L
455.999 79.333 L
456.005 79.332 L
456.01 79.333 L
456.662 79.254 L
456.667 79.254 L
456.922 79.235 L
457.194 79.329 L
457.33 79.28 L
457.335 79.28 L
457.395 79.28 L
457.824 79.182 L
457.997 79.194 L
458.003 79.195 L
458.66 79.145 L
458.665 79.146 L
458.671 79.146 L
459.002 79.113 L
459.154 79.253 L
459.333 79.24 L
459.339 79.24 L
459.594 79.221 L
459.751 79.28 L
459.996 79.245 L
460.001 79.239 L
460.028 79.274 L
460.658 79.196 L
460.664 79.196 L
460.669 79.196 L
460.707 79.203 L
460.772 79.149 L
461.331 79.169 L
461.337 79.169 L
461.88 78.98 L
461.999 78.984 L
462.005 78.983 L
462.151 78.965 L
462.32 79.083 L
462.662 78.966 L
462.667 78.965 L
462.749 78.991 L
463.319 78.906 L
463.33 78.906 L
463.335 78.906 L
463.987 78.842 L
463.998 78.845 L
464.003 78.847 L
464.133 78.825 L
464.139 78.916 L
464.665 78.837 L
464.671 78.839 L
464.904 78.869 L
465.328 78.801 L
465.333 78.798 L
465.616 78.812 L
465.909 78.725 L
465.996 78.743 L
466.001 78.743 L
466.316 78.717 L
466.555 78.748 L
466.664 78.743 L
466.669 78.744 L
467.326 78.567 L
467.332 78.659 L
467.337 78.658 L
467.592 78.617 L
467.885 78.727 L
467.999 78.697 L
468.005 78.696 L
468.39 78.635 L
468.532 78.704 L
468.662 78.699 L
468.667 78.699 L
469.248 78.611 L
469.33 78.611 L
469.335 78.611 L
469.341 78.612 L
469.998 78.491 L
470.003 78.491 L
470.052 78.481 L
470.063 78.543 L
470.666 78.504 L
470.671 78.504 L
470.964 78.519 L
471.301 78.486 L
471.328 78.488 L
471.333 78.487 L
471.355 78.503 L
471.996 78.36 L
472.001 78.36 L
472.039 78.399 L
472.615 78.27 L
472.664 78.328 L
472.669 78.328 L
473.017 78.283 L
473.136 78.437 L
473.332 78.379 L
473.337 78.378 L
473.685 78.383 L
474 78.338 L
474.005 78.338 L
474.662 78.21 L
474.668 78.209 L
474.787 78.166 L
475.249 78.31 L
475.33 78.306 L
475.335 78.306 L
475.998 78.259 L
476.003 78.259 L
476.367 78.287 L
476.497 78.213 L
476.666 78.249 L
476.671 78.25 L
476.677 78.256 L
477.22 78.182 L
477.328 78.188 L
477.334 78.188 L
477.48 78.23 L
477.828 78.151 L
477.996 78.165 L
478.002 78.163 L
478.257 78.142 L
478.604 78.24 L
478.664 78.23 L
478.669 78.224 L
478.99 78.181 L
479.316 78.366 L
479.332 78.314 L
479.337 78.318 L
479.652 78.262 L
479.886 78.419 L
480 78.382 L
480.005 78.382 L
480.293 78.426 L
480.657 78.292 L
480.662 78.292 L
480.668 78.294 L
481.325 78.159 L
481.33 78.166 L
481.336 78.167 L
481.341 78.168 L
481.721 78 L
481.998 78.044 L
482.003 78.051 L
482.014 78.055 L
482.666 77.872 L
482.671 77.872 L
482.682 77.872 L
483.046 77.915 L
483.328 77.904 L
483.334 77.903 L
483.85 77.785 L
483.996 77.842 L
484.002 77.841 L
484.55 77.757 L
484.664 77.772 L
484.67 77.772 L
484.708 77.778 L
485.332 77.731 L
485.337 77.73 L
485.81 77.692 L
486 77.723 L
486.005 77.723 L
486.223 77.749 L
486.641 77.713 L
486.662 77.715 L
486.668 77.715 L
486.972 77.652 L
487.004 77.738 L
487.33 77.678 L
487.336 77.678 L
487.461 77.657 L
487.852 77.691 L
487.998 77.676 L
488.004 77.719 L
488.063 77.715 L
488.232 77.747 L
488.666 77.728 L
488.671 77.728 L
489.329 77.595 L
489.334 77.595 L
489.562 77.527 L
489.996 77.531 L
490.002 77.531 L
490.018 77.534 L
490.436 77.443 L
490.664 77.488 L
490.67 77.488 L
490.681 77.489 L
491.3 77.335 L
491.332 77.335 L
491.338 77.335 L
491.386 77.402 L
491.848 77.129 L
491.995 77.13 L
492 77.126 L
492.005 77.128 L
492.663 77.003 L
492.668 77.003 L
492.874 77.037 L
493.249 76.968 L
493.33 76.978 L
493.336 76.977 L
493.564 76.983 L
493.852 76.938 L
493.998 76.941 L
494.004 76.941 L
494.666 76.864 L
494.672 76.864 L
494.704 76.87 L
495.28 76.755 L
495.329 76.758 L
495.334 76.759 L
495.725 76.794 L
495.997 76.727 L
496.002 76.727 L
496.203 76.736 L
496.664 76.632 L
496.67 76.632 L
497.001 76.57 L
497.289 76.641 L
497.332 76.602 L
497.338 76.602 L
497.75 76.608 L
497.962 76.548 L
497.995 76.548 L
498 76.539 L
498.076 76.528 L
498.272 76.759 L
498.663 76.718 L
498.668 76.718 L
498.782 76.708 L
499.331 76.789 L
499.336 76.79 L
499.988 76.607 L
499.998 76.607 L
500.004 76.607 L
500.172 76.633 L
500.639 76.5 L
500.666 76.523 L
500.672 76.523 L
501.247 76.55 L
501.329 76.43 L
501.334 76.429 L
501.465 76.498 L
501.97 76.355 L
501.997 76.36 L
502.002 76.359 L
502.073 76.361 L
502.437 76.274 L
502.665 76.31 L
502.67 76.31 L
503.332 76.18 L
503.338 76.179 L
503.343 76.183 L
503.93 76.043 L
503.995 76.067 L
504 76.067 L
504.212 76.081 L
504.609 76.003 L
504.663 76.004 L
504.668 76.004 L
505.092 75.96 L
505.206 76.044 L
505.331 76.029 L
505.336 76.025 L
505.445 76.062 L
505.825 76.018 L
505.999 76.052 L
506.004 76.052 L
506.172 76.021 L
506.227 76.099 L
506.667 76.08 L
506.672 76.08 L
506.683 76.08 L
506.911 75.998 L
507.329 76.02 L
507.334 76.019 L
507.394 76.031 L
507.97 75.932 L
507.997 75.932 L
508.002 75.932 L
508.116 75.935 L
508.659 75.876 L
508.665 75.877 L
508.67 75.877 L
508.73 75.883 L
509.327 75.73 L
509.333 75.73 L
509.338 75.729 L
509.49 75.737 L
509.881 75.617 L
509.995 75.719 L
510.001 75.719 L
510.201 75.669 L
510.614 75.832 L
510.663 75.83 L
510.668 75.83 L
510.81 75.82 L
511.092 75.909 L
511.331 75.858 L
511.336 75.857 L
511.429 75.841 L
511.966 75.995 L
511.999 75.994 L
512.004 75.994 L
512.178 75.941 L
512.411 76.045 L
512.667 75.968 L
512.672 75.976 L
512.699 75.983 L
513.329 75.728 L
513.335 75.728 L
513.758 75.654 L
513.997 75.739 L
514.002 75.738 L
514.106 75.743 L
514.654 75.698 L
514.665 75.701 L
514.67 75.701 L
514.773 75.716 L
515.306 75.579 L
515.333 75.627 L
515.338 75.627 L
515.55 75.558 L
515.577 75.639 L
515.995 75.604 L
516.001 75.604 L
516.044 75.622 L
516.381 75.584 L
516.663 75.584 L
516.669 75.584 L
516.994 75.555 L
517.032 75.606 L
517.331 75.59 L
517.336 75.607 L
517.673 75.568 L
517.999 75.655 L
518.004 75.655 L
518.444 75.596 L
518.634 75.67 L
518.661 75.669 L
518.667 75.669 L
518.721 75.668 L
519.183 75.735 L
519.329 75.694 L
519.335 75.695 L
519.503 75.715 L
519.91 75.648 L
519.997 75.654 L
520.003 75.654 L
520.665 75.537 L
520.67 75.537 L
520.942 75.662 L
521.333 75.589 L
521.338 75.589 L
521.659 75.52 L
521.8 75.608 L
521.995 75.588 L
522.001 75.579 L
522.017 75.574 L
522.403 75.671 L
522.663 75.619 L
522.669 75.618 L
522.69 75.609 L
522.842 75.675 L
523.331 75.627 L
523.337 75.627 L
523.88 75.641 L
523.999 75.602 L
524.005 75.601 L
524.042 75.605 L
524.661 75.542 L
524.667 75.542 L
524.83 75.5 L
525.101 75.59 L
525.329 75.533 L
525.335 75.533 L
525.411 75.563 L
525.976 75.498 L
525.997 75.507 L
526.003 75.508 L
526.117 75.565 L
526.638 75.354 L
526.665 75.356 L
526.671 75.356 L
526.812 75.375 L
527.322 75.257 L
527.333 75.257 L
527.339 75.254 L
527.48 75.26 L
527.974 75.216 L
527.996 75.218 L
528.001 75.219 L
528.072 75.216 L
528.082 75.253 L
528.663 75.22 L
528.669 75.22 L
528.794 75.209 L
529.076 75.349 L
529.331 75.328 L
529.337 75.328 L
529.934 75.246 L
529.999 75.26 L
530.005 75.259 L
530.108 75.208 L
530.662 75.221 L
530.667 75.221 L
530.803 75.245 L
531.226 75.015 L
531.33 75.075 L
531.335 75.075 L
531.617 75.012 L
531.9 75.115 L
531.997 75.083 L
532.003 75.082 L
532.274 75.049 L
532.334 75.134 L
532.665 75.119 L
532.671 75.119 L
532.79 75.084 L
533.143 75.217 L
533.333 75.193 L
533.339 75.192 L
533.453 75.198 L
533.996 75.014 L
534.001 75.014 L
534.468 75.089 L
534.664 74.952 L
534.669 74.951 L
534.816 74.914 L
535.109 75.003 L
535.331 74.971 L
535.337 74.963 L
535.646 75.016 L
535.94 74.955 L
535.999 74.955 L
536.005 74.955 L
536.189 74.946 L
536.618 75.039 L
536.662 75.033 L
536.667 75.034 L
537.058 74.996 L
537.091 75.075 L
537.33 75.065 L
537.335 75.065 L
537.656 75.018 L
537.998 75.055 L
538.003 75.054 L
538.399 74.982 L
538.584 75.088 L
538.665 75.04 L
538.671 75.04 L
538.861 75.045 L
539.317 74.926 L
539.328 74.927 L
539.333 74.93 L
539.806 74.854 L
539.99 74.935 L
539.996 74.934 L
540.001 74.937 L
540.24 74.901 L
540.517 75.013 L
540.664 74.99 L
540.669 74.99 L
540.827 75.03 L
541.055 74.951 L
541.332 74.965 L
541.337 74.965 L
541.375 74.964 L
541.668 75.124 L
542 75.089 L
542.005 75.088 L
542.233 75.09 L
542.662 75.058 L
542.667 75.058 L
542.928 75.052 L
543.324 75.094 L
543.33 75.094 L
543.335 75.094 L
543.455 75.133 L
543.916 75.011 L
543.998 75.014 L
544.003 75.014 L
544.166 75.046 L
544.655 74.944 L
544.666 74.945 L
544.671 74.945 L
544.894 74.962 L
545.285 74.889 L
545.328 74.937 L
545.334 74.936 L
545.442 74.954 L
545.871 74.865 L
545.996 74.868 L
546.001 74.869 L
546.034 74.848 L
546.648 75.01 L
546.664 75.01 L
546.669 75.01 L
546.908 75.001 L
547.315 75.023 L
547.332 75.023 L
547.337 75.023 L
547.864 75.081 L
548 74.997 L
548.005 74.997 L
548.57 74.935 L
548.662 74.94 L
548.668 74.939 L
549.308 74.815 L
549.33 74.816 L
549.335 74.816 L
549.911 74.763 L
549.965 74.863 L
549.998 74.847 L
550.003 74.846 L
550.367 74.869 L
550.666 74.793 L
550.671 74.793 L
550.888 74.78 L
551.154 74.933 L
551.328 74.869 L
551.334 74.863 L
551.996 74.998 L
552.002 74.994 L
552.061 74.991 L
552.333 75.089 L
552.664 75.021 L
552.669 75.021 L
553.321 74.862 L
553.332 74.862 L
553.337 74.862 L
553.343 74.862 L
553.734 74.9 L
554 74.872 L
554.005 74.871 L
554.13 74.877 L
554.624 74.771 L
554.662 74.775 L
554.668 74.775 L
555.167 74.733 L
555.33 74.743 L
555.336 74.743 L
555.374 74.744 L
555.944 74.681 L
555.998 74.689 L
556.003 74.689 L
556.09 74.692 L
556.666 74.582 L
556.671 74.582 L
557.328 74.535 L
557.334 74.535 L
557.345 74.537 L
557.866 74.402 L
557.996 74.506 L
558.002 74.505 L
558.594 74.443 L
558.664 74.499 L
558.67 74.504 L
558.919 74.528 L
559.251 74.452 L
559.332 74.512 L
559.338 74.519 L
559.348 74.522 L
559.658 74.449 L
560 74.474 L
560.005 74.474 L
560.326 74.399 L
560.456 74.507 L
560.662 74.494 L
560.668 74.494 L
560.776 74.502 L
561.33 74.403 L
561.336 74.402 L
561.395 74.397 L
561.575 74.466 L
561.998 74.406 L
562.004 74.408 L
562.042 74.411 L
562.639 74.371 L
562.666 74.372 L
562.672 74.372 L
562.997 74.381 L
563.318 74.348 L
563.329 74.349 L
563.334 74.344 L
563.513 74.374 L
563.654 74.299 L
563.996 74.348 L
564.002 74.306 L
564.062 74.276 L
564.148 74.397 L
564.664 74.353 L
564.67 74.353 L
565.055 74.369 L
565.327 74.292 L
565.332 74.292 L
565.338 74.292 L
565.479 74.279 L
565.777 74.392 L
565.995 74.384 L
566 74.384 L
566.255 74.335 L
566.641 74.39 L
566.663 74.39 L
566.668 74.39 L
567.108 74.404 L
567.276 74.37 L
567.33 74.371 L
567.336 74.371 L
567.537 74.436 L
567.89 74.351 L
567.998 74.412 L
568.004 74.412 L
568.053 74.409 L
568.297 74.468 L
568.666 74.425 L
568.672 74.425 L
568.764 74.426 L
569.323 74.379 L
569.329 74.38 L
569.334 74.38 L
569.459 74.39 L
569.921 74.352 L
569.997 74.358 L
570.002 74.358 L
570.1 74.361 L
570.659 74.316 L
570.664 74.316 L
570.67 74.316 L
571.284 74.221 L
571.332 74.242 L
571.338 74.242 L
571.425 74.282 L
571.995 74.179 L
572 74.178 L
572.234 74.215 L
572.657 74.06 L
572.663 74.06 L
572.668 74.06 L
573.092 73.956 L
573.233 74.074 L
573.331 74.073 L
573.336 74.073 L
573.678 74.016 L
573.966 74.195 L
573.998 74.195 L
574.004 74.195 L
574.156 74.177 L
574.319 74.254 L
574.666 74.18 L
574.672 74.18 L
574.726 74.185 L
575.209 74.134 L
575.329 74.137 L
575.334 74.136 L
575.399 74.13 L
575.823 74.189 L
575.997 74.181 L
576.002 74.177 L
576.377 74.051 L
576.665 74.065 L
576.67 74.065 L
577.012 73.991 L
577.311 74.102 L
577.333 74.102 L
577.338 74.102 L
577.365 74.103 L
577.99 74.035 L
577.995 74.04 L
578 74.04 L
578.006 74.039 L
578.239 74.094 L
578.663 74.09 L
578.668 74.09 L
578.82 74.022 L
579.298 74.118 L
579.331 74.118 L
579.336 74.118 L
579.401 74.119 L
579.966 74.004 L
579.999 74.03 L
580.004 74.035 L
580.259 73.995 L
580.265 74.075 L
580.667 74.007 L
580.672 74.004 L
580.884 73.952 L
580.889 74.021 L
581.329 73.976 L
581.334 73.976 L
581.372 73.971 L
581.416 74.032 L
581.997 73.975 L
582.002 73.975 L
582.165 73.948 L
582.41 74.01 L
582.665 73.957 L
582.67 73.953 L
583.061 73.854 L
583.333 73.865 L
583.338 73.865 L
583.859 73.819 L
583.887 73.893 L
583.995 73.885 L
584.001 73.886 L
584.348 73.852 L
584.663 73.937 L
584.668 73.937 L
584.777 74.018 L
584.956 73.873 L
585.331 73.945 L
585.336 73.945 L
585.374 73.944 L
585.809 74.087 L
585.999 74.073 L
586.004 74.073 L
586.151 74.114 L
586.612 74.002 L
586.661 74.012 L
586.667 74.012 L
586.808 74.005 L
587.307 74.057 L
587.329 74.057 L
587.335 74.057 L
587.481 74.039 L
587.992 74.19 L
587.997 74.19 L
588.002 74.189 L
588.095 74.196 L
588.665 74.173 L
588.67 74.173 L
588.931 74.189 L
589.11 74.123 L
589.333 74.123 L
589.338 74.123 L
589.344 74.124 L
589.995 74.01 L
590.001 74.01 L
590.044 74.015 L
590.576 73.947 L
590.663 73.956 L
590.669 73.964 L
590.674 73.964 L
590.723 74.036 L
591.331 74.011 L
591.336 74.005 L
591.369 74.022 L
591.581 73.918 L
591.999 73.998 L
592.004 73.998 L
592.167 73.99 L
592.439 74.101 L
592.661 74.097 L
592.667 74.097 L
592.743 74.099 L
593.302 74.074 L
593.329 74.086 L
593.335 74.087 L
593.541 74.095 L
593.997 73.996 L
594.003 73.996 L
594.035 73.992 L
594.258 74.15 L
594.665 74.121 L
594.671 74.121 L
594.714 74.077 L
594.823 74.156 L
595.333 74.08 L
595.338 74.082 L
595.507 74.008 L
595.719 74.192 L
595.995 74.182 L
596.001 74.181 L
596.115 74.186 L
596.555 74.102 L
596.663 74.161 L
596.669 74.161 L
596.875 74.141 L
597.271 74.284 L
597.331 74.242 L
597.337 74.241 L
597.57 74.237 L
597.576 74.333 L
597.999 74.241 L
598.005 74.24 L
598.151 74.218 L
598.64 74.31 L
598.662 74.309 L
598.667 74.309 L
599.042 74.298 L
599.319 74.36 L
599.329 74.36 L
599.335 74.36 L
599.84 74.393 L
599.927 74.284 L
599.997 74.309 L
600.003 74.309 L
600.024 74.308 L
600.459 74.326 L
600.665 74.323 L
600.671 74.348 L
601.116 74.412 L
601.333 74.398 L
601.339 74.397 L
601.447 74.39 L
601.659 74.499 L
601.996 74.425 L
602.001 74.427 L
602.159 74.41 L
602.251 74.525 L
602.663 74.425 L
602.669 74.425 L
603.103 74.481 L
603.331 74.458 L
603.337 74.458 L
603.375 74.464 L
603.749 74.387 L
603.999 74.4 L
604.005 74.4 L
604.032 74.4 L
604.586 74.209 L
604.662 74.21 L
604.667 74.21 L
604.792 74.219 L
605.129 74.17 L
605.33 74.206 L
605.335 74.206 L
605.715 74.057 L
605.997 74.062 L
606.003 74.063 L
606.014 74.065 L
606.665 73.905 L
606.671 73.905 L
606.823 73.893 L
607.132 73.952 L
607.333 73.92 L
607.339 73.92 L
607.996 73.701 L
608.001 73.701 L
608.376 73.647 L
608.653 73.708 L
608.664 73.708 L
608.669 73.708 L
608.723 73.708 L
609.31 73.865 L
609.331 73.865 L
609.337 73.864 L
609.516 73.931 L
609.918 73.764 L
609.999 73.815 L
610.005 73.815 L
610.271 73.678 L
610.662 73.74 L
610.667 73.74 L
610.722 73.743 L
611.113 73.707 L
611.33 73.714 L
611.335 73.714 L
611.618 73.712 L
611.971 73.837 L
611.998 73.836 L
612.003 73.807 L
612.628 73.691 L
612.666 73.694 L
612.671 73.694 L
612.79 73.702 L
613.247 73.485 L
613.328 73.489 L
613.333 73.489 L
613.404 73.488 L
613.86 73.591 L
613.996 73.581 L
614.001 73.578 L
614.007 73.577 L
614.088 73.61 L
614.664 73.589 L
614.669 73.589 L
614.729 73.567 L
615.305 73.706 L
615.332 73.659 L
615.337 73.659 L
615.413 73.665 L
616 73.621 L
616.005 73.615 L
616.45 73.609 L
616.662 73.681 L
616.667 73.68 L
616.95 73.651 L
617.232 73.762 L
617.33 73.673 L
617.335 73.673 L
617.525 73.661 L
617.954 73.776 L
617.998 73.773 L
618.003 73.765 L
618.02 73.767 L
618.552 73.703 L
618.666 73.712 L
618.671 73.709 L
619.296 73.764 L
619.328 73.763 L
619.334 73.763 L
619.448 73.738 L
619.92 73.817 L
619.996 73.814 L
620.001 73.815 L
620.273 73.863 L
620.61 73.771 L
620.664 73.781 L
620.669 73.78 L
620.8 73.771 L
620.838 73.886 L
621.332 73.791 L
621.337 73.798 L
621.419 73.756 L
621.891 73.814 L
622 73.813 L
622.005 73.813 L
622.195 73.819 L
622.532 73.778 L
622.662 73.802 L
622.668 73.802 L
622.923 73.818 L
623.162 73.745 L
623.33 73.756 L
623.336 73.756 L
623.401 73.743 L
623.721 73.9 L
623.998 73.843 L
624.003 73.845 L
624.59 73.929 L
624.666 73.905 L
624.671 73.905 L
624.682 73.904 L
625.051 73.944 L
625.328 73.933 L
625.334 73.932 L
625.35 73.933 L
625.535 73.884 L
625.996 73.912 L
626.002 73.912 L
626.094 73.914 L
626.517 73.867 L
626.664 73.871 L
626.669 73.871 L
626.865 73.87 L
627.071 73.907 L
627.332 73.897 L
627.337 73.897 L
627.392 73.918 L
627.973 73.804 L
628 73.812 L
628.005 73.812 L
628.239 73.806 L
628.44 73.837 L
628.662 73.823 L
628.668 73.821 L
629.243 73.715 L
629.33 73.733 L
629.336 73.733 L
629.352 73.729 L
629.537 73.794 L
629.998 73.783 L
630.004 73.783 L
630.329 73.762 L
630.601 73.869 L
630.666 73.86 L
630.671 73.86 L
631.138 73.769 L
631.328 73.772 L
631.334 73.778 L
631.399 73.776 L
631.774 73.902 L
631.996 73.867 L
632.002 73.893 L
632.322 73.858 L
632.496 73.935 L
632.664 73.93 L
632.67 73.93 L
632.827 73.937 L
632.887 73.839 L
633.332 73.862 L
633.338 73.856 L
633.745 73.846 L
633.761 73.876 L
633.995 73.869 L
634 73.869 L
S
GR
%%Trailer
%%Pages: 1
%%EOF
