%!PS-Adobe-3.0 EPSF-3.0
%%Creator: (MATLAB, The Mathworks, Inc. Version 9.3.0.713579 \(R2017b\). Operating System: Windows 7)
%%Title: fig/RBFN_6_0,1_1000_convergence.eps
%%CreationDate: 2018-05-09T13:54:00
%%Pages: (atend)
%%BoundingBox:    35     3   492   384
%%LanguageLevel: 3
%%EndComments
%%BeginProlog
%%BeginResource: procset (Apache XML Graphics Std ProcSet) 1.2 0
%%Version: 1.2 0
%%Copyright: (Copyright 2001-2003,2010 The Apache Software Foundation. License terms: http://www.apache.org/licenses/LICENSE-2.0)
/bd{bind def}bind def
/ld{load def}bd
/GR/grestore ld
/GS/gsave ld
/RM/rmoveto ld
/C/curveto ld
/t/show ld
/L/lineto ld
/ML/setmiterlimit ld
/CT/concat ld
/f/fill ld
/N/newpath ld
/S/stroke ld
/CC/setcmykcolor ld
/A/ashow ld
/cp/closepath ld
/RC/setrgbcolor ld
/LJ/setlinejoin ld
/GC/setgray ld
/LW/setlinewidth ld
/M/moveto ld
/re {4 2 roll M
1 index 0 rlineto
0 exch rlineto
neg 0 rlineto
cp } bd
/_ctm matrix def
/_tm matrix def
/BT { _ctm currentmatrix pop matrix _tm copy pop 0 0 moveto } bd
/ET { _ctm setmatrix } bd
/iTm { _ctm setmatrix _tm concat } bd
/Tm { _tm astore pop iTm 0 0 moveto } bd
/ux 0.0 def
/uy 0.0 def
/F {
  /Tp exch def
  /Tf exch def
  Tf findfont Tp scalefont setfont
  /cf Tf def  /cs Tp def
} bd
/ULS {currentpoint /uy exch def /ux exch def} bd
/ULE {
  /Tcx currentpoint pop def
  gsave
  newpath
  cf findfont cs scalefont dup
  /FontMatrix get 0 get /Ts exch def /FontInfo get dup
  /UnderlinePosition get Ts mul /To exch def
  /UnderlineThickness get Ts mul /Tt exch def
  ux uy To add moveto  Tcx uy To add lineto
  Tt setlinewidth stroke
  grestore
} bd
/OLE {
  /Tcx currentpoint pop def
  gsave
  newpath
  cf findfont cs scalefont dup
  /FontMatrix get 0 get /Ts exch def /FontInfo get dup
  /UnderlinePosition get Ts mul /To exch def
  /UnderlineThickness get Ts mul /Tt exch def
  ux uy To add cs add moveto Tcx uy To add cs add lineto
  Tt setlinewidth stroke
  grestore
} bd
/SOE {
  /Tcx currentpoint pop def
  gsave
  newpath
  cf findfont cs scalefont dup
  /FontMatrix get 0 get /Ts exch def /FontInfo get dup
  /UnderlinePosition get Ts mul /To exch def
  /UnderlineThickness get Ts mul /Tt exch def
  ux uy To add cs 10 mul 26 idiv add moveto Tcx uy To add cs 10 mul 26 idiv add lineto
  Tt setlinewidth stroke
  grestore
} bd
/QT {
/Y22 exch store
/X22 exch store
/Y21 exch store
/X21 exch store
currentpoint
/Y21 load 2 mul add 3 div exch
/X21 load 2 mul add 3 div exch
/X21 load 2 mul /X22 load add 3 div
/Y21 load 2 mul /Y22 load add 3 div
/X22 load /Y22 load curveto
} bd
/SSPD {
dup length /d exch dict def
{
/v exch def
/k exch def
currentpagedevice k known {
/cpdv currentpagedevice k get def
v cpdv ne {
/upd false def
/nullv v type /nulltype eq def
/nullcpdv cpdv type /nulltype eq def
nullv nullcpdv or
{
/upd true def
} {
/sametype v type cpdv type eq def
sametype {
v type /arraytype eq {
/vlen v length def
/cpdvlen cpdv length def
vlen cpdvlen eq {
0 1 vlen 1 sub {
/i exch def
/obj v i get def
/cpdobj cpdv i get def
obj cpdobj ne {
/upd true def
exit
} if
} for
} {
/upd true def
} ifelse
} {
v type /dicttype eq {
v {
/dv exch def
/dk exch def
/cpddv cpdv dk get def
dv cpddv ne {
/upd true def
exit
} if
} forall
} {
/upd true def
} ifelse
} ifelse
} if
} ifelse
upd true eq {
d k v put
} if
} if
} if
} forall
d length 0 gt {
d setpagedevice
} if
} bd
/RE { % /NewFontName [NewEncodingArray] /FontName RE -
  findfont dup length dict begin
  {
    1 index /FID ne
    {def} {pop pop} ifelse
  } forall
  /Encoding exch def
  /FontName 1 index def
  currentdict definefont pop
  end
} bind def
%%EndResource
%%BeginResource: procset (Apache XML Graphics EPS ProcSet) 1.0 0
%%Version: 1.0 0
%%Copyright: (Copyright 2002-2003 The Apache Software Foundation. License terms: http://www.apache.org/licenses/LICENSE-2.0)
/BeginEPSF { %def
/b4_Inc_state save def         % Save state for cleanup
/dict_count countdictstack def % Count objects on dict stack
/op_count count 1 sub def      % Count objects on operand stack
userdict begin                 % Push userdict on dict stack
/showpage { } def              % Redefine showpage, { } = null proc
0 setgray 0 setlinecap         % Prepare graphics state
1 setlinewidth 0 setlinejoin
10 setmiterlimit [ ] 0 setdash newpath
/languagelevel where           % If level not equal to 1 then
{pop languagelevel             % set strokeadjust and
1 ne                           % overprint to their defaults.
{false setstrokeadjust false setoverprint
} if
} if
} bd
/EndEPSF { %def
count op_count sub {pop} repeat            % Clean up stacks
countdictstack dict_count sub {end} repeat
b4_Inc_state restore
} bd
%%EndResource
%FOPBeginFontDict
%%IncludeResource: font Courier-Oblique
%%IncludeResource: font Courier-BoldOblique
%%IncludeResource: font Courier-Bold
%%IncludeResource: font ZapfDingbats
%%IncludeResource: font Symbol
%%IncludeResource: font Helvetica
%%IncludeResource: font Helvetica-Oblique
%%IncludeResource: font Helvetica-Bold
%%IncludeResource: font Helvetica-BoldOblique
%%IncludeResource: font Times-Roman
%%IncludeResource: font Times-Italic
%%IncludeResource: font Times-Bold
%%IncludeResource: font Times-BoldItalic
%%IncludeResource: font Courier
%FOPEndFontDict
%%BeginResource: encoding WinAnsiEncoding
/WinAnsiEncoding [
/.notdef /.notdef /.notdef /.notdef /.notdef
/.notdef /.notdef /.notdef /.notdef /.notdef
/.notdef /.notdef /.notdef /.notdef /.notdef
/.notdef /.notdef /.notdef /.notdef /.notdef
/.notdef /.notdef /.notdef /.notdef /.notdef
/.notdef /.notdef /.notdef /.notdef /.notdef
/.notdef /.notdef /space /exclam /quotedbl
/numbersign /dollar /percent /ampersand /quotesingle
/parenleft /parenright /asterisk /plus /comma
/hyphen /period /slash /zero /one
/two /three /four /five /six
/seven /eight /nine /colon /semicolon
/less /equal /greater /question /at
/A /B /C /D /E
/F /G /H /I /J
/K /L /M /N /O
/P /Q /R /S /T
/U /V /W /X /Y
/Z /bracketleft /backslash /bracketright /asciicircum
/underscore /quoteleft /a /b /c
/d /e /f /g /h
/i /j /k /l /m
/n /o /p /q /r
/s /t /u /v /w
/x /y /z /braceleft /bar
/braceright /asciitilde /bullet /Euro /bullet
/quotesinglbase /florin /quotedblbase /ellipsis /dagger
/daggerdbl /circumflex /perthousand /Scaron /guilsinglleft
/OE /bullet /Zcaron /bullet /bullet
/quoteleft /quoteright /quotedblleft /quotedblright /bullet
/endash /emdash /asciitilde /trademark /scaron
/guilsinglright /oe /bullet /zcaron /Ydieresis
/space /exclamdown /cent /sterling /currency
/yen /brokenbar /section /dieresis /copyright
/ordfeminine /guillemotleft /logicalnot /sfthyphen /registered
/macron /degree /plusminus /twosuperior /threesuperior
/acute /mu /paragraph /middot /cedilla
/onesuperior /ordmasculine /guillemotright /onequarter /onehalf
/threequarters /questiondown /Agrave /Aacute /Acircumflex
/Atilde /Adieresis /Aring /AE /Ccedilla
/Egrave /Eacute /Ecircumflex /Edieresis /Igrave
/Iacute /Icircumflex /Idieresis /Eth /Ntilde
/Ograve /Oacute /Ocircumflex /Otilde /Odieresis
/multiply /Oslash /Ugrave /Uacute /Ucircumflex
/Udieresis /Yacute /Thorn /germandbls /agrave
/aacute /acircumflex /atilde /adieresis /aring
/ae /ccedilla /egrave /eacute /ecircumflex
/edieresis /igrave /iacute /icircumflex /idieresis
/eth /ntilde /ograve /oacute /ocircumflex
/otilde /odieresis /divide /oslash /ugrave
/uacute /ucircumflex /udieresis /yacute /thorn
/ydieresis
] def
%%EndResource
%FOPBeginFontReencode
/Courier-Oblique findfont
dup length dict begin
  {1 index /FID ne {def} {pop pop} ifelse} forall
  /Encoding WinAnsiEncoding def
  currentdict
end
/Courier-Oblique exch definefont pop
/Courier-BoldOblique findfont
dup length dict begin
  {1 index /FID ne {def} {pop pop} ifelse} forall
  /Encoding WinAnsiEncoding def
  currentdict
end
/Courier-BoldOblique exch definefont pop
/Courier-Bold findfont
dup length dict begin
  {1 index /FID ne {def} {pop pop} ifelse} forall
  /Encoding WinAnsiEncoding def
  currentdict
end
/Courier-Bold exch definefont pop
/Helvetica findfont
dup length dict begin
  {1 index /FID ne {def} {pop pop} ifelse} forall
  /Encoding WinAnsiEncoding def
  currentdict
end
/Helvetica exch definefont pop
/Helvetica-Oblique findfont
dup length dict begin
  {1 index /FID ne {def} {pop pop} ifelse} forall
  /Encoding WinAnsiEncoding def
  currentdict
end
/Helvetica-Oblique exch definefont pop
/Helvetica-Bold findfont
dup length dict begin
  {1 index /FID ne {def} {pop pop} ifelse} forall
  /Encoding WinAnsiEncoding def
  currentdict
end
/Helvetica-Bold exch definefont pop
/Helvetica-BoldOblique findfont
dup length dict begin
  {1 index /FID ne {def} {pop pop} ifelse} forall
  /Encoding WinAnsiEncoding def
  currentdict
end
/Helvetica-BoldOblique exch definefont pop
/Times-Roman findfont
dup length dict begin
  {1 index /FID ne {def} {pop pop} ifelse} forall
  /Encoding WinAnsiEncoding def
  currentdict
end
/Times-Roman exch definefont pop
/Times-Italic findfont
dup length dict begin
  {1 index /FID ne {def} {pop pop} ifelse} forall
  /Encoding WinAnsiEncoding def
  currentdict
end
/Times-Italic exch definefont pop
/Times-Bold findfont
dup length dict begin
  {1 index /FID ne {def} {pop pop} ifelse} forall
  /Encoding WinAnsiEncoding def
  currentdict
end
/Times-Bold exch definefont pop
/Times-BoldItalic findfont
dup length dict begin
  {1 index /FID ne {def} {pop pop} ifelse} forall
  /Encoding WinAnsiEncoding def
  currentdict
end
/Times-BoldItalic exch definefont pop
/Courier findfont
dup length dict begin
  {1 index /FID ne {def} {pop pop} ifelse} forall
  /Encoding WinAnsiEncoding def
  currentdict
end
/Courier exch definefont pop
%FOPEndFontReencode
%%EndProlog
%%Page: 1 1
%%PageBoundingBox: 0 0 525 394
%%BeginPageSetup
[1 0 0 -1 0 394] CT
%%EndPageSetup
GS
[0.75 0 0 0.74971 0 0.39999] CT
N
0 0 M
700 0 L
700 525 L
0 525 L
0 0 L
cp
clip
1 GC
N
0 0 700 525 re
f
GR
GS
[0.75 0 0 0.74971 0 0.39999] CT
1 GC
N
0 0 700 525 re
f
GR
GS
[0.75 0 0 0.74971 0 0.39999] CT
1 GC
N
91 463 M
634 463 L
634 39 L
91 39 L
cp
f
GR
GS
[0.75 0 0 0.74971 0 0.39999] CT
0.873 GC
1 LJ
0.667 LW
N
91 463 M
91 39 L
S
GR
GS
[0.75 0 0 0.74971 0 0.39999] CT
0.873 GC
1 LJ
0.667 LW
N
199.6 463 M
199.6 39 L
S
GR
GS
[0.75 0 0 0.74971 0 0.39999] CT
0.873 GC
1 LJ
0.667 LW
N
308.2 463 M
308.2 39 L
S
GR
GS
[0.75 0 0 0.74971 0 0.39999] CT
0.873 GC
1 LJ
0.667 LW
N
416.8 463 M
416.8 39 L
S
GR
GS
[0.75 0 0 0.74971 0 0.39999] CT
0.873 GC
1 LJ
0.667 LW
N
525.4 463 M
525.4 39 L
S
GR
GS
[0.75 0 0 0.74971 0 0.39999] CT
0.873 GC
1 LJ
0.667 LW
N
634 463 M
634 39 L
S
GR
GS
[0.75 0 0 0.74971 0 0.39999] CT
0.873 GC
1 LJ
0.667 LW
N
634 463 M
91 463 L
S
GR
GS
[0.75 0 0 0.74971 0 0.39999] CT
0.873 GC
1 LJ
0.667 LW
N
634 410 M
91 410 L
S
GR
GS
[0.75 0 0 0.74971 0 0.39999] CT
0.873 GC
1 LJ
0.667 LW
N
634 357 M
91 357 L
S
GR
GS
[0.75 0 0 0.74971 0 0.39999] CT
0.873 GC
1 LJ
0.667 LW
N
634 304 M
91 304 L
S
GR
GS
[0.75 0 0 0.74971 0 0.39999] CT
0.873 GC
1 LJ
0.667 LW
N
634 251 M
91 251 L
S
GR
GS
[0.75 0 0 0.74971 0 0.39999] CT
0.873 GC
1 LJ
0.667 LW
N
634 198 M
91 198 L
S
GR
GS
[0.75 0 0 0.74971 0 0.39999] CT
0.873 GC
1 LJ
0.667 LW
N
634 145 M
91 145 L
S
GR
GS
[0.75 0 0 0.74971 0 0.39999] CT
0.873 GC
1 LJ
0.667 LW
N
634 92 M
91 92 L
S
GR
GS
[0.75 0 0 0.74971 0 0.39999] CT
0.873 GC
1 LJ
0.667 LW
N
634 39 M
91 39 L
S
GR
GS
[0.75 0 0 0.74971 0 0.39999] CT
0.149 GC
2 setlinecap
1 LJ
0.667 LW
N
91 463 M
634 463 L
S
GR
GS
[0.75 0 0 0.74971 0 0.39999] CT
0.149 GC
2 setlinecap
1 LJ
0.667 LW
N
91 39 M
634 39 L
S
GR
GS
[0.75 0 0 0.74971 0 0.39999] CT
0.149 GC
2 setlinecap
1 LJ
0.667 LW
N
91 463 M
91 457.57 L
S
GR
GS
[0.75 0 0 0.74971 0 0.39999] CT
0.149 GC
2 setlinecap
1 LJ
0.667 LW
N
199.6 463 M
199.6 457.57 L
S
GR
GS
[0.75 0 0 0.74971 0 0.39999] CT
0.149 GC
2 setlinecap
1 LJ
0.667 LW
N
308.2 463 M
308.2 457.57 L
S
GR
GS
[0.75 0 0 0.74971 0 0.39999] CT
0.149 GC
2 setlinecap
1 LJ
0.667 LW
N
416.8 463 M
416.8 457.57 L
S
GR
GS
[0.75 0 0 0.74971 0 0.39999] CT
0.149 GC
2 setlinecap
1 LJ
0.667 LW
N
525.4 463 M
525.4 457.57 L
S
GR
GS
[0.75 0 0 0.74971 0 0.39999] CT
0.149 GC
2 setlinecap
1 LJ
0.667 LW
N
634 463 M
634 457.57 L
S
GR
GS
[0.75 0 0 0.74971 0 0.39999] CT
0.149 GC
2 setlinecap
1 LJ
0.667 LW
N
91 39 M
91 44.43 L
S
GR
GS
[0.75 0 0 0.74971 0 0.39999] CT
0.149 GC
2 setlinecap
1 LJ
0.667 LW
N
199.6 39 M
199.6 44.43 L
S
GR
GS
[0.75 0 0 0.74971 0 0.39999] CT
0.149 GC
2 setlinecap
1 LJ
0.667 LW
N
308.2 39 M
308.2 44.43 L
S
GR
GS
[0.75 0 0 0.74971 0 0.39999] CT
0.149 GC
2 setlinecap
1 LJ
0.667 LW
N
416.8 39 M
416.8 44.43 L
S
GR
GS
[0.75 0 0 0.74971 0 0.39999] CT
0.149 GC
2 setlinecap
1 LJ
0.667 LW
N
525.4 39 M
525.4 44.43 L
S
GR
GS
[0.75 0 0 0.74971 0 0.39999] CT
0.149 GC
2 setlinecap
1 LJ
0.667 LW
N
634 39 M
634 44.43 L
S
GR
GS
[0.75 0 0 0.74971 68.25 352.5158] CT
0.149 GC
/Helvetica 20 F
GS
[1 0 0 1 0 0] CT
-6 21 moveto 
1 -1 scale
(0) t 
GR
GR
GS
[0.75 0 0 0.74971 149.7 352.5158] CT
0.149 GC
/Helvetica 20 F
GS
[1 0 0 1 0 0] CT
-17 21 moveto 
1 -1 scale
(200) t 
GR
GR
GS
[0.75 0 0 0.74971 231.15001 352.5158] CT
0.149 GC
/Helvetica 20 F
GS
[1 0 0 1 0 0] CT
-17 21 moveto 
1 -1 scale
(400) t 
GR
GR
GS
[0.75 0 0 0.74971 312.59999 352.5158] CT
0.149 GC
/Helvetica 20 F
GS
[1 0 0 1 0 0] CT
-17 21 moveto 
1 -1 scale
(600) t 
GR
GR
GS
[0.75 0 0 0.74971 394.05002 352.5158] CT
0.149 GC
/Helvetica 20 F
GS
[1 0 0 1 0 0] CT
-17 21 moveto 
1 -1 scale
(800) t 
GR
GR
GS
[0.75 0 0 0.74971 475.5 352.5158] CT
0.149 GC
/Helvetica 20 F
GS
[1 0 0 1 0 0] CT
-22.5 21 moveto 
1 -1 scale
(1000) t 
GR
GR
GS
[0.75 0 0 0.74971 271.87521 373.008] CT
0.149 GC
/Helvetica 22 F
GS
[1 0 0 1 0 0] CT
-48.5 23 moveto 
1 -1 scale
(Itterations) t 
GR
GR
GS
[0.75 0 0 0.74971 0 0.39999] CT
0.149 GC
2 setlinecap
1 LJ
0.667 LW
N
91 463 M
91 39 L
S
GR
GS
[0.75 0 0 0.74971 0 0.39999] CT
0.149 GC
2 setlinecap
1 LJ
0.667 LW
N
634 463 M
634 39 L
S
GR
GS
[0.75 0 0 0.74971 0 0.39999] CT
0.149 GC
2 setlinecap
1 LJ
0.667 LW
N
91 463 M
96.43 463 L
S
GR
GS
[0.75 0 0 0.74971 0 0.39999] CT
0.149 GC
2 setlinecap
1 LJ
0.667 LW
N
91 410 M
96.43 410 L
S
GR
GS
[0.75 0 0 0.74971 0 0.39999] CT
0.149 GC
2 setlinecap
1 LJ
0.667 LW
N
91 357 M
96.43 357 L
S
GR
GS
[0.75 0 0 0.74971 0 0.39999] CT
0.149 GC
2 setlinecap
1 LJ
0.667 LW
N
91 304 M
96.43 304 L
S
GR
GS
[0.75 0 0 0.74971 0 0.39999] CT
0.149 GC
2 setlinecap
1 LJ
0.667 LW
N
91 251 M
96.43 251 L
S
GR
GS
[0.75 0 0 0.74971 0 0.39999] CT
0.149 GC
2 setlinecap
1 LJ
0.667 LW
N
91 198 M
96.43 198 L
S
GR
GS
[0.75 0 0 0.74971 0 0.39999] CT
0.149 GC
2 setlinecap
1 LJ
0.667 LW
N
91 145 M
96.43 145 L
S
GR
GS
[0.75 0 0 0.74971 0 0.39999] CT
0.149 GC
2 setlinecap
1 LJ
0.667 LW
N
91 92 M
96.43 92 L
S
GR
GS
[0.75 0 0 0.74971 0 0.39999] CT
0.149 GC
2 setlinecap
1 LJ
0.667 LW
N
91 39 M
96.43 39 L
S
GR
GS
[0.75 0 0 0.74971 0 0.39999] CT
0.149 GC
2 setlinecap
1 LJ
0.667 LW
N
634 463 M
628.57 463 L
S
GR
GS
[0.75 0 0 0.74971 0 0.39999] CT
0.149 GC
2 setlinecap
1 LJ
0.667 LW
N
634 410 M
628.57 410 L
S
GR
GS
[0.75 0 0 0.74971 0 0.39999] CT
0.149 GC
2 setlinecap
1 LJ
0.667 LW
N
634 357 M
628.57 357 L
S
GR
GS
[0.75 0 0 0.74971 0 0.39999] CT
0.149 GC
2 setlinecap
1 LJ
0.667 LW
N
634 304 M
628.57 304 L
S
GR
GS
[0.75 0 0 0.74971 0 0.39999] CT
0.149 GC
2 setlinecap
1 LJ
0.667 LW
N
634 251 M
628.57 251 L
S
GR
GS
[0.75 0 0 0.74971 0 0.39999] CT
0.149 GC
2 setlinecap
1 LJ
0.667 LW
N
634 198 M
628.57 198 L
S
GR
GS
[0.75 0 0 0.74971 0 0.39999] CT
0.149 GC
2 setlinecap
1 LJ
0.667 LW
N
634 145 M
628.57 145 L
S
GR
GS
[0.75 0 0 0.74971 0 0.39999] CT
0.149 GC
2 setlinecap
1 LJ
0.667 LW
N
634 92 M
628.57 92 L
S
GR
GS
[0.75 0 0 0.74971 0 0.39999] CT
0.149 GC
2 setlinecap
1 LJ
0.667 LW
N
634 39 M
628.57 39 L
S
GR
GS
[0.75 0 0 0.74971 63.25 347.51771] CT
0.149 GC
/Helvetica 20 F
GS
[1 0 0 1 0 0] CT
-12 8 moveto 
1 -1 scale
(0) t 
GR
GR
GS
[0.75 0 0 0.74971 63.25 307.78286] CT
0.149 GC
/Helvetica 20 F
GS
[1 0 0 1 0 0] CT
-12 8 moveto 
1 -1 scale
(1) t 
GR
GR
GS
[0.75 0 0 0.74971 63.25 268.048] CT
0.149 GC
/Helvetica 20 F
GS
[1 0 0 1 0 0] CT
-12 8 moveto 
1 -1 scale
(2) t 
GR
GR
GS
[0.75 0 0 0.74971 63.25 228.31314] CT
0.149 GC
/Helvetica 20 F
GS
[1 0 0 1 0 0] CT
-12 8 moveto 
1 -1 scale
(3) t 
GR
GR
GS
[0.75 0 0 0.74971 63.25 188.57828] CT
0.149 GC
/Helvetica 20 F
GS
[1 0 0 1 0 0] CT
-12 8 moveto 
1 -1 scale
(4) t 
GR
GR
GS
[0.75 0 0 0.74971 63.25 148.84342] CT
0.149 GC
/Helvetica 20 F
GS
[1 0 0 1 0 0] CT
-12 8 moveto 
1 -1 scale
(5) t 
GR
GR
GS
[0.75 0 0 0.74971 63.25 109.10857] CT
0.149 GC
/Helvetica 20 F
GS
[1 0 0 1 0 0] CT
-12 8 moveto 
1 -1 scale
(6) t 
GR
GR
GS
[0.75 0 0 0.74971 63.25 69.37371] CT
0.149 GC
/Helvetica 20 F
GS
[1 0 0 1 0 0] CT
-12 8 moveto 
1 -1 scale
(7) t 
GR
GR
GS
[0.75 0 0 0.74971 63.25 29.63885] CT
0.149 GC
/Helvetica 20 F
GS
[1 0 0 1 0 0] CT
-12 8 moveto 
1 -1 scale
(8) t 
GR
GR
GS
[0 -0.74971 0.75 0 51.25 188.57813] CT
0.149 GC
/Helvetica 22 F
GS
[1 0 0 1 0 0] CT
-50.5 -5 moveto 
1 -1 scale
(Difference) t 
GR
GR
GS
[0.75 0 0 0.74971 162.75 22.89142] CT
/Helvetica-Bold 22 F
GS
[1 0 0 1 0 0] CT
0 0 moveto 
1 -1 scale
(Norm 2 distance from ) t 
GR
GR
GS
[0.75 0 0 0.74971 337.5 22.89142] CT
N
3.547 0.25 M
2.547 0.25 1.945 -0.484 QT
1.344 -1.219 1.109 -2.25 QT
0.875 -3.281 0.875 -4.281 QT
0.875 -4.313 L
0.875 -5.406 1.086 -6.586 QT
1.297 -7.766 1.695 -8.945 QT
2.094 -10.125 2.563 -11.047 QT
2.875 -11.688 3.391 -12.484 QT
3.906 -13.281 4.531 -13.969 QT
5.156 -14.656 5.883 -15.086 QT
6.609 -15.516 7.344 -15.516 QT
7.375 -15.516 L
9.172 -15.516 9.703 -15.07 QT
10.234 -14.625 10.523 -13.938 QT
10.813 -13.25 10.938 -12.469 QT
11.063 -11.688 11.063 -10.984 QT
11.063 -9.313 10.609 -7.578 QT
10.156 -5.844 9.359 -4.219 QT
9.063 -3.609 8.531 -2.781 QT
8 -1.953 7.398 -1.297 QT
6.797 -0.641 6.055 -0.195 QT
5.313 0.25 3.563 0.25 QT
3.547 0.25 L
cp
3.594 -0.328 M
4.313 -0.328 4.984 -1.109 QT
5.656 -1.891 6.164 -3 QT
6.672 -4.109 7.055 -5.281 QT
7.438 -6.453 7.609 -7.266 QT
4.125 -7.266 L
3.781 -5.875 3.586 -4.875 QT
3.391 -3.875 3.391 -2.906 QT
3.391 -0.328 3.594 -0.328 QT
cp
4.297 -8.031 M
7.813 -8.031 L
8.047 -9 8.188 -9.648 QT
8.328 -10.297 8.422 -11.016 QT
8.516 -11.734 8.516 -12.359 QT
8.516 -14.938 7.344 -14.938 QT
6.953 -14.938 5.938 -12.688 QT
4.922 -10.438 4.297 -8.031 QT
cp
f
GR
GS
[0.75 0 0 0.74971 346.5 22.89142] CT
/Helvetica-Bold 22 F
GS
[1 0 0 1 0 0] CT
0 0 moveto 
1 -1 scale
( to 0) t 
GR
GR
GS
[0.75 0 0 0.74971 0 0.39999] CT
0 0.447 0.741 RC
1 LJ
2.667 LW
N
91.543 457.7 M
92.086 457.519 L
92.629 457.527 L
93.172 457.527 L
93.715 431.312 L
94.258 431.306 L
94.801 426.539 L
95.344 415.517 L
95.887 415.493 L
96.43 411.208 L
96.973 411.208 L
97.516 411.161 L
98.059 407.311 L
98.602 407.311 L
99.145 403.842 L
99.688 400.718 L
100.231 400.683 L
100.774 401.598 L
101.317 401.513 L
101.86 401.513 L
102.403 401.427 L
102.946 401.427 L
103.489 401.405 L
104.032 401.405 L
104.575 401.287 L
105.118 398.507 L
105.661 398.507 L
106.204 395.999 L
106.747 376.236 L
107.29 376.236 L
107.833 376.138 L
108.376 376.133 L
108.919 356.317 L
109.462 356.201 L
110.005 356.2 L
110.548 355.239 L
111.091 336.786 L
111.634 336.784 L
112.177 336.6 L
112.72 334.43 L
113.263 334.43 L
113.806 332.465 L
114.349 330.689 L
114.892 330.685 L
115.435 330.456 L
115.978 330.45 L
116.521 330.429 L
117.064 330.37 L
117.607 328.766 L
118.15 328.766 L
118.693 328.668 L
119.236 328.651 L
119.779 328.415 L
120.322 328.408 L
120.865 328.179 L
121.408 326.762 L
121.951 326.74 L
122.494 326.709 L
123.037 326.688 L
123.58 326.454 L
124.123 325.183 L
124.666 325.183 L
125.209 315.578 L
125.752 315.504 L
126.295 315.239 L
126.838 315.228 L
127.381 299.574 L
127.924 299.231 L
128.467 284.853 L
129.01 284.618 L
129.553 284.611 L
130.096 284.545 L
130.639 283.985 L
131.182 270.905 L
131.725 270.905 L
132.268 270.878 L
132.811 270.657 L
133.354 270.649 L
133.897 270.567 L
134.44 270.537 L
134.983 270.329 L
135.526 270.32 L
136.069 270.226 L
136.612 270.194 L
137.155 270 L
137.698 269.989 L
138.241 269.888 L
138.784 269.854 L
139.327 269.749 L
139.87 269.716 L
140.413 269.611 L
140.956 268.905 L
141.499 268.568 L
142.042 267.91 L
142.585 256.15 L
143.128 255.972 L
143.671 254.87 L
144.214 254.87 L
144.757 244.18 L
145.3 244.147 L
145.843 243.964 L
146.386 242.973 L
146.929 242.866 L
147.472 241.957 L
148.015 232.335 L
148.558 232.151 L
149.101 232.141 L
149.644 231.97 L
150.187 231.08 L
150.73 231.08 L
151.273 231.081 L
151.816 230.109 L
152.359 221.447 L
152.902 213.615 L
153.445 212.506 L
153.988 212.039 L
154.531 210.99 L
155.074 203.987 L
155.617 197.661 L
156.16 196.511 L
156.703 195.914 L
157.246 195.877 L
157.789 195.708 L
158.332 194.925 L
158.875 194.217 L
159.418 194.037 L
159.961 194.027 L
160.504 193.861 L
161.047 193.85 L
161.59 193.705 L
162.133 192.624 L
162.676 186.974 L
163.219 186.974 L
163.762 181.874 L
164.305 181.864 L
164.848 181.813 L
165.391 182.029 L
165.934 180.992 L
166.477 177.957 L
167.02 178.368 L
167.563 177.866 L
168.106 177.276 L
168.649 177.049 L
169.192 177.029 L
169.735 177.265 L
170.278 177.103 L
170.821 176.877 L
171.364 178.6 L
171.907 178.587 L
172.45 178.429 L
172.993 178.384 L
173.536 177.08 L
174.079 176.008 L
174.622 171.393 L
175.165 170.655 L
175.708 169.942 L
176.251 169.902 L
176.794 169.739 L
177.337 169.688 L
177.88 169.534 L
178.423 169.474 L
178.966 169.327 L
179.509 168.253 L
180.052 167.505 L
180.595 167.439 L
181.138 167.41 L
181.681 167.388 L
182.224 167.232 L
182.767 166.234 L
183.31 165.461 L
183.853 164.538 L
184.396 160.486 L
184.939 159.696 L
185.482 159.623 L
186.025 159.598 L
186.568 158.967 L
187.111 158.395 L
187.654 157.877 L
188.197 157.16 L
188.74 156.241 L
189.283 151.662 L
189.826 150.741 L
190.369 149.941 L
190.912 149.093 L
191.455 148.288 L
191.998 147.51 L
192.541 144.347 L
193.084 144.284 L
193.627 144.058 L
194.17 143.981 L
194.713 143.921 L
195.256 143.471 L
195.799 143.471 L
196.342 143.407 L
196.885 143.381 L
197.428 143.166 L
197.971 143.085 L
198.514 143.284 L
199.057 143.226 L
199.6 142.816 L
200.143 142.021 L
200.686 132.742 L
201.229 129.994 L
201.772 129.648 L
202.315 129.674 L
202.858 127.197 L
203.401 127.198 L
203.944 126.836 L
204.487 126.807 L
205.03 126.475 L
205.573 126.437 L
206.116 125.088 L
206.659 125.067 L
207.202 123.797 L
207.745 123.685 L
208.288 123.365 L
208.831 123.237 L
209.374 122.933 L
209.917 122.791 L
210.46 122.505 L
211.003 122.472 L
211.546 121.296 L
212.089 121.145 L
212.632 120.876 L
213.175 120.715 L
213.718 120.465 L
214.261 120.297 L
214.804 120.232 L
215.347 120.181 L
215.89 119.949 L
216.433 119.775 L
216.976 119.561 L
217.519 119.531 L
218.062 117.319 L
218.605 117.263 L
219.148 117.066 L
219.691 116.986 L
220.234 114.993 L
220.777 114.942 L
221.32 114.884 L
221.863 114.703 L
222.406 114.495 L
222.949 114.441 L
223.492 114.38 L
224.035 114.331 L
224.578 114.263 L
225.121 114.244 L
225.664 114.028 L
226.207 113.905 L
226.75 113.578 L
227.293 113.578 L
227.836 112.505 L
228.379 112.319 L
228.922 112.158 L
229.465 112.037 L
230.008 110.246 L
230.551 109.979 L
231.094 109.829 L
231.637 108.78 L
232.18 107.998 L
232.723 107.011 L
233.266 106.051 L
233.809 105.916 L
234.352 106.094 L
234.895 106.046 L
235.438 106.163 L
235.981 105.901 L
236.524 105.017 L
237.067 104.893 L
237.61 104.818 L
238.153 104.767 L
238.696 104.616 L
239.239 104.556 L
239.782 103.745 L
240.325 103.691 L
240.868 101.839 L
241.411 101.7 L
241.954 101.565 L
242.497 101.438 L
243.04 101.304 L
243.583 101.189 L
244.126 101.095 L
244.669 99.674 L
245.212 99.617 L
245.755 99.51 L
246.298 99.392 L
246.841 98.633 L
247.384 98.495 L
247.927 98.396 L
248.47 98.289 L
249.013 97.01 L
249.556 96.312 L
250.099 96.179 L
250.642 94.743 L
251.185 94.146 L
251.728 93.916 L
252.271 93.851 L
252.814 93.769 L
253.357 93.818 L
253.9 93.611 L
254.443 93.552 L
254.986 93.344 L
255.529 92.77 L
256.072 92.582 L
256.615 92.626 L
257.158 92.456 L
257.701 92.399 L
258.244 92.323 L
258.787 92.27 L
259.33 92.085 L
259.873 92.014 L
260.416 92.053 L
260.959 91.927 L
261.502 91.4 L
262.045 91.249 L
262.588 91.281 L
263.131 91.147 L
263.674 91.096 L
264.217 91.031 L
264.76 91.059 L
265.303 90.945 L
265.846 90.46 L
266.389 90.357 L
266.932 89.909 L
267.475 89.816 L
268.018 89.233 L
268.561 89.372 L
269.104 89.014 L
269.647 82.667 L
270.19 82.667 L
270.733 81.549 L
271.276 81.503 L
271.819 81.445 L
272.362 81.404 L
272.905 81.351 L
273.448 81.221 L
273.991 81.093 L
274.534 81.056 L
275.077 81.004 L
275.62 80.971 L
276.163 80.923 L
276.706 80.806 L
277.249 81.323 L
277.792 80.57 L
278.335 80.446 L
278.878 80.416 L
279.421 80.37 L
279.964 80.275 L
280.507 80.236 L
281.05 80.315 L
281.593 80.27 L
282.136 80.185 L
282.679 80.061 L
283.222 80.029 L
283.765 79.868 L
284.308 79.722 L
284.851 78.346 L
285.394 77.758 L
285.937 78.117 L
286.48 76.477 L
287.023 76.443 L
287.566 76.312 L
288.109 76.312 L
288.652 76.102 L
289.195 74.91 L
289.738 74.191 L
290.281 74.429 L
290.824 73.941 L
291.367 74.26 L
291.91 73.394 L
292.453 72.943 L
292.996 73.246 L
293.539 72.488 L
294.082 72.395 L
294.625 72.606 L
295.168 72.857 L
295.711 72.173 L
296.254 72.138 L
296.797 72.023 L
297.34 71.407 L
297.883 71.373 L
298.426 71.291 L
298.969 71.485 L
299.512 71.246 L
300.055 71.419 L
300.598 71.61 L
301.141 71.054 L
301.684 70.939 L
302.227 71.096 L
302.77 70.761 L
303.313 70.558 L
303.856 70.53 L
304.399 70.432 L
304.942 70.596 L
305.485 70.419 L
306.028 70.386 L
306.571 70.321 L
307.114 70.291 L
307.657 70.231 L
308.2 70.204 L
308.743 70.149 L
309.286 70.296 L
309.829 70.145 L
310.372 70.276 L
310.915 70.149 L
311.458 70.266 L
312.001 70.407 L
312.544 69.906 L
313.087 69.881 L
313.63 69.84 L
314.173 69.948 L
314.716 70.062 L
315.259 69.782 L
315.802 69.884 L
316.345 69.639 L
316.888 69.731 L
317.431 69.279 L
317.974 69.384 L
318.517 69.295 L
319.06 69.389 L
319.603 69.46 L
320.146 69.052 L
320.689 68.685 L
321.232 68.771 L
321.775 68.815 L
322.318 68.611 L
322.861 68.544 L
323.404 68.622 L
323.947 68.664 L
324.49 68.326 L
325.033 68.272 L
325.576 68.25 L
326.119 68.17 L
326.662 68.197 L
327.205 68.019 L
327.748 67.97 L
328.291 68.041 L
328.834 68.003 L
329.377 67.982 L
329.92 67.957 L
330.463 67.937 L
331.006 67.915 L
331.549 67.897 L
332.092 67.825 L
332.635 67.849 L
333.178 67.552 L
333.721 67.534 L
334.264 67.514 L
334.807 67.578 L
335.35 67.593 L
335.893 67.435 L
336.436 67.428 L
336.979 67.439 L
337.522 67.422 L
338.065 67.405 L
338.608 67.39 L
339.151 67.375 L
339.694 67.31 L
340.237 67.31 L
340.78 67.363 L
341.323 67.416 L
341.866 67.076 L
342.409 67.075 L
342.952 66.938 L
343.495 66.937 L
344.038 66.704 L
344.581 66.645 L
345.124 66.645 L
345.667 66.521 L
346.21 66.519 L
346.753 66.404 L
347.296 66.38 L
347.839 66.363 L
348.382 66.311 L
348.925 66.311 L
349.468 66.305 L
350.011 66.095 L
350.554 66.078 L
351.097 66.066 L
351.64 66.051 L
352.183 66.04 L
352.726 66.094 L
353.269 66.083 L
353.812 65.893 L
354.355 65.893 L
354.898 65.791 L
355.441 65.777 L
355.984 65.684 L
356.527 65.666 L
357.07 65.653 L
357.613 65.651 L
358.156 65.672 L
358.699 65.658 L
359.242 65.646 L
359.785 65.599 L
360.328 65.645 L
360.871 65.632 L
361.414 65.547 L
361.957 65.538 L
362.5 65.526 L
363.043 65.478 L
363.586 65.441 L
364.129 65.442 L
364.672 65.43 L
365.215 65.353 L
365.758 65.345 L
366.301 65.385 L
366.844 65.374 L
367.387 65.304 L
367.93 65.295 L
368.473 65.127 L
369.016 65.063 L
369.559 65.059 L
370.102 65.094 L
370.645 65.094 L
371.188 65.081 L
371.731 65.076 L
372.274 65.064 L
372.817 65.01 L
373.36 65.266 L
373.903 58.618 L
374.446 58.618 L
374.989 58.475 L
375.532 58.478 L
376.075 58.348 L
376.618 58.34 L
377.161 58.329 L
377.704 58.296 L
378.247 58.266 L
378.79 58.266 L
379.333 57.705 L
379.876 58.368 L
380.419 58.224 L
380.962 58.223 L
381.505 58.451 L
382.048 57.77 L
382.591 57.669 L
383.134 60.855 L
383.677 60.883 L
384.22 60.866 L
384.763 60.81 L
385.306 59.345 L
385.849 60.609 L
386.392 61.396 L
386.935 61.304 L
387.478 61.396 L
388.021 61.622 L
388.564 61.491 L
389.107 61.175 L
389.65 59.894 L
390.193 62.203 L
390.736 62.049 L
391.279 62.905 L
391.822 62.828 L
392.365 62.777 L
392.908 62.708 L
393.451 62.657 L
393.994 62.756 L
394.537 62.707 L
395.08 62.692 L
395.623 62.648 L
396.166 62.678 L
396.709 62.632 L
397.252 62.723 L
397.795 63.172 L
398.338 63.323 L
398.881 63.325 L
399.424 63.433 L
399.967 63.388 L
400.51 63.385 L
401.053 63.345 L
401.596 63.342 L
402.139 63.305 L
402.682 63.303 L
403.225 63.27 L
403.768 63.297 L
404.311 63.297 L
404.854 63.297 L
405.397 63.393 L
405.94 63.364 L
406.483 63.362 L
407.026 63.335 L
407.569 63.333 L
408.112 63.398 L
408.655 63.49 L
409.198 63.547 L
409.741 63.484 L
410.284 63.365 L
410.827 63.318 L
411.37 63.406 L
411.913 63.456 L
412.456 63.397 L
412.999 63.286 L
413.542 63.311 L
414.085 63.287 L
414.628 63.29 L
415.171 63.269 L
415.714 63.271 L
416.257 63.315 L
416.8 63.258 L
417.343 63.207 L
417.886 63.293 L
418.429 63.33 L
418.972 63.279 L
419.515 63.229 L
420.058 63.309 L
420.601 63.29 L
421.144 63.294 L
421.687 63.277 L
422.23 63.281 L
422.773 63.265 L
423.316 63.288 L
423.859 62.919 L
424.402 62.871 L
424.945 62.775 L
425.488 62.817 L
426.031 62.848 L
426.574 62.805 L
427.117 62.718 L
427.66 62.719 L
428.203 62.666 L
428.746 62.74 L
429.289 62.767 L
429.832 62.836 L
430.375 62.86 L
430.918 62.819 L
431.461 62.768 L
432.004 62.832 L
432.547 62.853 L
433.09 62.911 L
433.633 62.898 L
434.176 62.919 L
434.719 62.873 L
435.262 62.926 L
435.805 62.945 L
436.348 62.907 L
436.891 62.829 L
437.434 62.829 L
437.977 62.759 L
438.52 62.741 L
439.063 61.854 L
439.606 61.87 L
440.149 61.833 L
440.692 61.77 L
441.235 61.723 L
441.778 61.773 L
442.321 61.786 L
442.864 61.751 L
443.407 61.694 L
443.95 61.693 L
444.493 61.964 L
445.036 61.985 L
445.579 62.065 L
446.122 62.107 L
446.665 62.178 L
447.208 62.197 L
447.751 62.133 L
448.294 62.151 L
448.837 62.162 L
449.38 62.179 L
449.923 62.243 L
450.466 62.26 L
451.009 62.218 L
451.552 62.19 L
452.095 62.138 L
452.638 62.092 L
453.181 62.15 L
453.724 62.188 L
454.267 62.239 L
454.81 62.273 L
455.353 62.282 L
455.896 62.249 L
456.439 62.21 L
456.982 62.181 L
457.525 62.139 L
458.068 62.186 L
458.611 62.201 L
459.154 62.231 L
459.697 62.273 L
460.24 62.287 L
460.783 62.313 L
461.326 62.351 L
461.869 62.364 L
462.412 62.336 L
462.955 62.296 L
463.498 62.312 L
464.041 62.347 L
464.584 62.371 L
465.127 62.377 L
465.67 62.352 L
466.213 62.315 L
466.756 62.315 L
467.299 62.336 L
467.842 62.341 L
468.385 62.318 L
468.928 62.278 L
469.471 62.258 L
470.014 62.221 L
470.557 62.49 L
471.1 62.537 L
471.643 62.54 L
472.186 62.521 L
472.729 62.488 L
473.272 61.001 L
473.815 61.135 L
474.358 63.582 L
474.901 63.359 L
475.444 58.633 L
475.987 59.33 L
476.53 59.225 L
477.073 60.033 L
477.616 60.064 L
478.159 59.772 L
478.702 61.618 L
479.245 61.728 L
479.788 61.869 L
480.331 61.841 L
480.874 61.967 L
481.417 61.583 L
481.96 62.217 L
482.503 61.884 L
483.046 61.843 L
483.589 61.527 L
484.132 62.049 L
484.675 62.033 L
485.218 62.117 L
485.761 61.831 L
486.304 61.804 L
486.847 63.859 L
487.39 63.882 L
487.933 63.983 L
488.476 63.994 L
489.019 64.083 L
489.562 63.121 L
490.105 63.234 L
490.648 63.313 L
491.191 65.714 L
491.734 65.83 L
492.277 65.968 L
492.82 66.791 L
493.363 61.903 L
493.906 61.904 L
494.449 61.965 L
494.992 61.992 L
495.535 62.003 L
496.078 62.118 L
496.621 60.534 L
497.164 60.943 L
497.707 60.943 L
498.25 60.943 L
498.793 60.943 L
499.336 60.949 L
499.879 61.256 L
500.422 60.451 L
500.965 60.819 L
501.508 61.625 L
502.051 60.897 L
502.594 61.551 L
503.137 61.568 L
503.68 61.794 L
504.223 61.568 L
504.766 60.122 L
505.309 60.652 L
505.852 60.046 L
506.395 60.466 L
506.938 60.454 L
507.481 60.479 L
508.024 60.49 L
508.567 60.49 L
509.11 60.479 L
509.653 61.219 L
510.196 61.281 L
510.739 60.984 L
511.282 60.427 L
511.825 60.759 L
512.368 60.253 L
512.911 60.581 L
513.454 60.129 L
513.997 60.423 L
514.54 60.639 L
515.083 60.237 L
515.626 60.622 L
516.169 60.019 L
516.712 59.96 L
517.255 59.971 L
517.798 60.016 L
518.341 59.825 L
518.884 60.323 L
519.427 60.466 L
519.97 60.515 L
520.513 59.245 L
521.056 57.638 L
521.599 57.536 L
522.142 57.068 L
522.685 57.085 L
523.228 57.262 L
523.771 57.26 L
524.314 57.29 L
524.857 57.309 L
525.4 57.467 L
525.943 57.142 L
526.486 57.163 L
527.029 57.175 L
527.572 57.201 L
528.115 57.223 L
528.658 57.355 L
529.201 57.376 L
529.744 57.494 L
530.287 57.523 L
530.83 57.628 L
531.373 57.663 L
531.916 57.757 L
532.459 57.796 L
533.002 57.881 L
533.545 57.923 L
534.088 57.999 L
534.631 58.043 L
535.174 58.066 L
535.717 58.076 L
536.26 58.076 L
536.803 58.111 L
537.346 58.133 L
537.889 58.141 L
538.432 58.161 L
538.975 58.168 L
539.518 58.175 L
540.061 57.881 L
540.604 57.875 L
541.147 57.609 L
541.69 57.583 L
542.233 57.623 L
542.776 57.64 L
543.319 57.647 L
543.862 57.647 L
544.405 57.685 L
544.948 56.151 L
545.491 57.981 L
546.034 57.997 L
546.577 58.003 L
547.12 57.765 L
547.663 58.226 L
548.206 58.504 L
548.749 58.493 L
549.292 58.507 L
549.835 58.496 L
550.378 58.708 L
550.921 58.504 L
551.464 58.264 L
552.007 58.079 L
552.55 58.494 L
553.093 58.494 L
553.636 58.507 L
554.179 58.512 L
554.722 58.355 L
555.265 58.733 L
555.808 58.733 L
556.351 60.795 L
556.894 59.753 L
557.437 52.418 L
557.98 52.446 L
558.523 52.352 L
559.066 52.378 L
559.609 52.294 L
560.152 52.318 L
560.695 52.724 L
561.238 52.2 L
561.781 52.126 L
562.324 52.137 L
562.867 52.141 L
563.41 52.141 L
563.953 52.098 L
564.496 52.107 L
565.039 52.116 L
565.582 51.642 L
566.125 51.576 L
566.668 51.584 L
567.211 51.583 L
567.754 51.684 L
568.297 51.951 L
568.84 51.952 L
569.383 52.317 L
569.926 51.915 L
570.469 51.84 L
571.012 51.845 L
571.555 51.846 L
572.098 51.876 L
572.641 51.811 L
573.184 51.838 L
573.727 51.781 L
574.27 50.286 L
574.813 49.923 L
575.356 50.248 L
575.899 49.945 L
576.442 50.237 L
576.985 49.986 L
577.528 50.248 L
578.071 50.042 L
578.614 50.277 L
579.157 50.11 L
579.7 49.946 L
580.243 50.158 L
580.786 50.024 L
581.329 50.029 L
581.872 50.037 L
582.415 50.247 L
582.958 50.58 L
583.501 50.58 L
584.044 50.447 L
584.587 50.645 L
585.13 50.944 L
585.673 50.944 L
586.216 50.949 L
586.759 50.957 L
587.302 51.226 L
587.845 51.227 L
588.388 51.227 L
588.931 51.42 L
589.474 51.33 L
590.017 51.208 L
590.56 51.213 L
591.103 50.993 L
591.646 50.13 L
592.189 50.641 L
592.732 50.182 L
593.275 50.215 L
593.818 50.419 L
594.361 50.306 L
594.904 50.491 L
595.447 49.174 L
595.99 49.473 L
596.533 49.46 L
597.076 49.474 L
597.619 49.522 L
598.162 49.532 L
598.705 48.776 L
599.248 48.776 L
599.791 48.83 L
600.334 48.83 L
600.877 48.829 L
601.42 49.666 L
601.963 49.784 L
602.506 49.379 L
603.049 49.644 L
603.592 49.491 L
604.135 52.405 L
604.678 52.57 L
605.221 51.755 L
605.764 50.916 L
606.307 50.679 L
606.85 52.394 L
607.393 52.885 L
607.936 53.863 L
608.479 50.604 L
609.022 50.688 L
609.565 50.462 L
610.108 50.518 L
610.651 43.167 L
611.194 43.167 L
611.737 43.322 L
612.28 43.391 L
612.823 43.401 L
613.366 43.942 L
613.909 44.461 L
614.452 44.471 L
614.995 44.472 L
615.538 44.534 L
616.081 44.6 L
616.624 44.578 L
617.167 44.714 L
617.71 44.694 L
618.253 44.814 L
618.796 44.796 L
619.339 45.295 L
619.882 45.762 L
620.425 45.758 L
620.968 46.218 L
621.511 46.639 L
622.054 46.916 L
622.597 39.403 L
623.14 39.411 L
623.683 39.467 L
624.226 39.524 L
624.769 39.574 L
625.312 39.466 L
625.855 39.563 L
626.398 39.613 L
626.941 39.62 L
627.484 39.621 L
628.027 39.628 L
628.57 39.67 L
629.113 39.573 L
629.656 40.431 L
630.199 41.052 L
630.742 41.052 L
631.285 41.087 L
631.828 41.133 L
632.371 41.163 L
632.914 41.096 L
633.457 41.881 L
634 42.439 L
S
GR
%%Trailer
%%Pages: 1
%%EOF
