%!PS-Adobe-3.0 EPSF-3.0
%%Creator: (MATLAB, The Mathworks, Inc. Version 9.3.0.713579 \(R2017b\). Operating System: Windows 7)
%%Title: fig/RBFN_600_5_500000_Q.eps
%%CreationDate: 2018-05-06T11:28:13
%%Pages: (atend)
%%BoundingBox:    54    22   479   370
%%LanguageLevel: 3
%%EndComments
%%BeginProlog
%%BeginResource: procset (Apache XML Graphics Std ProcSet) 1.2 0
%%Version: 1.2 0
%%Copyright: (Copyright 2001-2003,2010 The Apache Software Foundation. License terms: http://www.apache.org/licenses/LICENSE-2.0)
/bd{bind def}bind def
/ld{load def}bd
/GR/grestore ld
/GS/gsave ld
/RM/rmoveto ld
/C/curveto ld
/t/show ld
/L/lineto ld
/ML/setmiterlimit ld
/CT/concat ld
/f/fill ld
/N/newpath ld
/S/stroke ld
/CC/setcmykcolor ld
/A/ashow ld
/cp/closepath ld
/RC/setrgbcolor ld
/LJ/setlinejoin ld
/GC/setgray ld
/LW/setlinewidth ld
/M/moveto ld
/re {4 2 roll M
1 index 0 rlineto
0 exch rlineto
neg 0 rlineto
cp } bd
/_ctm matrix def
/_tm matrix def
/BT { _ctm currentmatrix pop matrix _tm copy pop 0 0 moveto } bd
/ET { _ctm setmatrix } bd
/iTm { _ctm setmatrix _tm concat } bd
/Tm { _tm astore pop iTm 0 0 moveto } bd
/ux 0.0 def
/uy 0.0 def
/F {
  /Tp exch def
  /Tf exch def
  Tf findfont Tp scalefont setfont
  /cf Tf def  /cs Tp def
} bd
/ULS {currentpoint /uy exch def /ux exch def} bd
/ULE {
  /Tcx currentpoint pop def
  gsave
  newpath
  cf findfont cs scalefont dup
  /FontMatrix get 0 get /Ts exch def /FontInfo get dup
  /UnderlinePosition get Ts mul /To exch def
  /UnderlineThickness get Ts mul /Tt exch def
  ux uy To add moveto  Tcx uy To add lineto
  Tt setlinewidth stroke
  grestore
} bd
/OLE {
  /Tcx currentpoint pop def
  gsave
  newpath
  cf findfont cs scalefont dup
  /FontMatrix get 0 get /Ts exch def /FontInfo get dup
  /UnderlinePosition get Ts mul /To exch def
  /UnderlineThickness get Ts mul /Tt exch def
  ux uy To add cs add moveto Tcx uy To add cs add lineto
  Tt setlinewidth stroke
  grestore
} bd
/SOE {
  /Tcx currentpoint pop def
  gsave
  newpath
  cf findfont cs scalefont dup
  /FontMatrix get 0 get /Ts exch def /FontInfo get dup
  /UnderlinePosition get Ts mul /To exch def
  /UnderlineThickness get Ts mul /Tt exch def
  ux uy To add cs 10 mul 26 idiv add moveto Tcx uy To add cs 10 mul 26 idiv add lineto
  Tt setlinewidth stroke
  grestore
} bd
/QT {
/Y22 exch store
/X22 exch store
/Y21 exch store
/X21 exch store
currentpoint
/Y21 load 2 mul add 3 div exch
/X21 load 2 mul add 3 div exch
/X21 load 2 mul /X22 load add 3 div
/Y21 load 2 mul /Y22 load add 3 div
/X22 load /Y22 load curveto
} bd
/SSPD {
dup length /d exch dict def
{
/v exch def
/k exch def
currentpagedevice k known {
/cpdv currentpagedevice k get def
v cpdv ne {
/upd false def
/nullv v type /nulltype eq def
/nullcpdv cpdv type /nulltype eq def
nullv nullcpdv or
{
/upd true def
} {
/sametype v type cpdv type eq def
sametype {
v type /arraytype eq {
/vlen v length def
/cpdvlen cpdv length def
vlen cpdvlen eq {
0 1 vlen 1 sub {
/i exch def
/obj v i get def
/cpdobj cpdv i get def
obj cpdobj ne {
/upd true def
exit
} if
} for
} {
/upd true def
} ifelse
} {
v type /dicttype eq {
v {
/dv exch def
/dk exch def
/cpddv cpdv dk get def
dv cpddv ne {
/upd true def
exit
} if
} forall
} {
/upd true def
} ifelse
} ifelse
} if
} ifelse
upd true eq {
d k v put
} if
} if
} if
} forall
d length 0 gt {
d setpagedevice
} if
} bd
/RE { % /NewFontName [NewEncodingArray] /FontName RE -
  findfont dup length dict begin
  {
    1 index /FID ne
    {def} {pop pop} ifelse
  } forall
  /Encoding exch def
  /FontName 1 index def
  currentdict definefont pop
  end
} bind def
%%EndResource
%%BeginResource: procset (Apache XML Graphics EPS ProcSet) 1.0 0
%%Version: 1.0 0
%%Copyright: (Copyright 2002-2003 The Apache Software Foundation. License terms: http://www.apache.org/licenses/LICENSE-2.0)
/BeginEPSF { %def
/b4_Inc_state save def         % Save state for cleanup
/dict_count countdictstack def % Count objects on dict stack
/op_count count 1 sub def      % Count objects on operand stack
userdict begin                 % Push userdict on dict stack
/showpage { } def              % Redefine showpage, { } = null proc
0 setgray 0 setlinecap         % Prepare graphics state
1 setlinewidth 0 setlinejoin
10 setmiterlimit [ ] 0 setdash newpath
/languagelevel where           % If level not equal to 1 then
{pop languagelevel             % set strokeadjust and
1 ne                           % overprint to their defaults.
{false setstrokeadjust false setoverprint
} if
} if
} bd
/EndEPSF { %def
count op_count sub {pop} repeat            % Clean up stacks
countdictstack dict_count sub {end} repeat
b4_Inc_state restore
} bd
%%EndResource
%FOPBeginFontDict
%%IncludeResource: font Courier-Oblique
%%IncludeResource: font Courier-BoldOblique
%%IncludeResource: font Courier-Bold
%%IncludeResource: font ZapfDingbats
%%IncludeResource: font Symbol
%%IncludeResource: font Helvetica
%%IncludeResource: font Helvetica-Oblique
%%IncludeResource: font Helvetica-Bold
%%IncludeResource: font Helvetica-BoldOblique
%%IncludeResource: font Times-Roman
%%IncludeResource: font Times-Italic
%%IncludeResource: font Times-Bold
%%IncludeResource: font Times-BoldItalic
%%IncludeResource: font Courier
%FOPEndFontDict
%%BeginResource: encoding WinAnsiEncoding
/WinAnsiEncoding [
/.notdef /.notdef /.notdef /.notdef /.notdef
/.notdef /.notdef /.notdef /.notdef /.notdef
/.notdef /.notdef /.notdef /.notdef /.notdef
/.notdef /.notdef /.notdef /.notdef /.notdef
/.notdef /.notdef /.notdef /.notdef /.notdef
/.notdef /.notdef /.notdef /.notdef /.notdef
/.notdef /.notdef /space /exclam /quotedbl
/numbersign /dollar /percent /ampersand /quotesingle
/parenleft /parenright /asterisk /plus /comma
/hyphen /period /slash /zero /one
/two /three /four /five /six
/seven /eight /nine /colon /semicolon
/less /equal /greater /question /at
/A /B /C /D /E
/F /G /H /I /J
/K /L /M /N /O
/P /Q /R /S /T
/U /V /W /X /Y
/Z /bracketleft /backslash /bracketright /asciicircum
/underscore /quoteleft /a /b /c
/d /e /f /g /h
/i /j /k /l /m
/n /o /p /q /r
/s /t /u /v /w
/x /y /z /braceleft /bar
/braceright /asciitilde /bullet /Euro /bullet
/quotesinglbase /florin /quotedblbase /ellipsis /dagger
/daggerdbl /circumflex /perthousand /Scaron /guilsinglleft
/OE /bullet /Zcaron /bullet /bullet
/quoteleft /quoteright /quotedblleft /quotedblright /bullet
/endash /emdash /asciitilde /trademark /scaron
/guilsinglright /oe /bullet /zcaron /Ydieresis
/space /exclamdown /cent /sterling /currency
/yen /brokenbar /section /dieresis /copyright
/ordfeminine /guillemotleft /logicalnot /sfthyphen /registered
/macron /degree /plusminus /twosuperior /threesuperior
/acute /mu /paragraph /middot /cedilla
/onesuperior /ordmasculine /guillemotright /onequarter /onehalf
/threequarters /questiondown /Agrave /Aacute /Acircumflex
/Atilde /Adieresis /Aring /AE /Ccedilla
/Egrave /Eacute /Ecircumflex /Edieresis /Igrave
/Iacute /Icircumflex /Idieresis /Eth /Ntilde
/Ograve /Oacute /Ocircumflex /Otilde /Odieresis
/multiply /Oslash /Ugrave /Uacute /Ucircumflex
/Udieresis /Yacute /Thorn /germandbls /agrave
/aacute /acircumflex /atilde /adieresis /aring
/ae /ccedilla /egrave /eacute /ecircumflex
/edieresis /igrave /iacute /icircumflex /idieresis
/eth /ntilde /ograve /oacute /ocircumflex
/otilde /odieresis /divide /oslash /ugrave
/uacute /ucircumflex /udieresis /yacute /thorn
/ydieresis
] def
%%EndResource
%FOPBeginFontReencode
/Courier-Oblique findfont
dup length dict begin
  {1 index /FID ne {def} {pop pop} ifelse} forall
  /Encoding WinAnsiEncoding def
  currentdict
end
/Courier-Oblique exch definefont pop
/Courier-BoldOblique findfont
dup length dict begin
  {1 index /FID ne {def} {pop pop} ifelse} forall
  /Encoding WinAnsiEncoding def
  currentdict
end
/Courier-BoldOblique exch definefont pop
/Courier-Bold findfont
dup length dict begin
  {1 index /FID ne {def} {pop pop} ifelse} forall
  /Encoding WinAnsiEncoding def
  currentdict
end
/Courier-Bold exch definefont pop
/Helvetica findfont
dup length dict begin
  {1 index /FID ne {def} {pop pop} ifelse} forall
  /Encoding WinAnsiEncoding def
  currentdict
end
/Helvetica exch definefont pop
/Helvetica-Oblique findfont
dup length dict begin
  {1 index /FID ne {def} {pop pop} ifelse} forall
  /Encoding WinAnsiEncoding def
  currentdict
end
/Helvetica-Oblique exch definefont pop
/Helvetica-Bold findfont
dup length dict begin
  {1 index /FID ne {def} {pop pop} ifelse} forall
  /Encoding WinAnsiEncoding def
  currentdict
end
/Helvetica-Bold exch definefont pop
/Helvetica-BoldOblique findfont
dup length dict begin
  {1 index /FID ne {def} {pop pop} ifelse} forall
  /Encoding WinAnsiEncoding def
  currentdict
end
/Helvetica-BoldOblique exch definefont pop
/Times-Roman findfont
dup length dict begin
  {1 index /FID ne {def} {pop pop} ifelse} forall
  /Encoding WinAnsiEncoding def
  currentdict
end
/Times-Roman exch definefont pop
/Times-Italic findfont
dup length dict begin
  {1 index /FID ne {def} {pop pop} ifelse} forall
  /Encoding WinAnsiEncoding def
  currentdict
end
/Times-Italic exch definefont pop
/Times-Bold findfont
dup length dict begin
  {1 index /FID ne {def} {pop pop} ifelse} forall
  /Encoding WinAnsiEncoding def
  currentdict
end
/Times-Bold exch definefont pop
/Times-BoldItalic findfont
dup length dict begin
  {1 index /FID ne {def} {pop pop} ifelse} forall
  /Encoding WinAnsiEncoding def
  currentdict
end
/Times-BoldItalic exch definefont pop
/Courier findfont
dup length dict begin
  {1 index /FID ne {def} {pop pop} ifelse} forall
  /Encoding WinAnsiEncoding def
  currentdict
end
/Courier exch definefont pop
%FOPEndFontReencode
%%EndProlog
%%Page: 1 1
%%PageBoundingBox: 0 0 525 394
%%BeginPageSetup
[1 0 0 -1 0 394] CT
%%EndPageSetup
GS
[0.75 0 0 0.74971 0 0.39999] CT
N
0 0 M
700 0 L
700 525 L
0 525 L
0 0 L
cp
clip
1 GC
N
0 0 700 525 re
f
GR
GS
[0.75 0 0 0.74971 0 0.39999] CT
1 GC
N
0 0 700 525 re
f
GR
GS
[0.75 0 0 0.74971 0 0.39999] CT
1 GC
N
91 467 M
634 467 L
634 39 L
91 39 L
cp
f
GR
GS
[0.75 0 0 0.74971 0 0.39999] CT
0.149 GC
1 LJ
0.667 LW
N
91 467 M
634 467 L
S
GR
GS
[0.75 0 0 0.74971 0 0.39999] CT
0.902 0.945 0.973 RC
N
90.935 441.487 M
90.935 467 L
91 467 L
cp
99.688 467 M
100.774 467 L
101.86 467 L
102.946 467 L
104.032 467 L
105.118 467 L
106.204 467 L
107.29 467 L
108.376 467 L
109.462 467 L
110.548 467 L
111.634 467 L
110.548 39 L
109.462 39 L
108.376 39 L
107.29 39 L
106.204 39 L
105.118 39 L
104.032 39 L
102.946 39 L
101.86 39 L
100.774 39 L
cp
121.408 467 M
122.494 467 L
123.58 467 L
124.666 467 L
125.752 467 L
126.838 467 L
127.924 467 L
129.01 467 L
130.096 467 L
131.182 467 L
130.096 39 L
129.01 39 L
127.924 39 L
126.838 39 L
125.752 39 L
124.666 39 L
123.58 39 L
122.494 39 L
cp
138.784 467 M
139.87 467 L
140.956 467 L
142.042 467 L
143.128 467 L
144.214 467 L
145.3 467 L
146.386 467 L
147.472 467 L
148.558 467 L
149.644 467 L
150.73 467 L
151.816 467 L
152.902 467 L
153.988 467 L
155.074 467 L
156.16 467 L
157.246 467 L
158.332 467 L
159.418 467 L
160.504 467 L
161.59 467 L
162.676 467 L
163.762 467 L
164.848 467 L
165.934 467 L
167.02 467 L
168.106 467 L
169.192 467 L
170.278 467 L
171.364 467 L
172.45 467 L
173.536 467 L
174.622 467 L
175.708 467 L
176.794 467 L
177.88 467 L
178.966 467 L
180.052 467 L
181.138 467 L
182.224 467 L
183.31 467 L
184.396 467 L
185.482 467 L
186.568 467 L
187.654 467 L
188.74 467 L
189.826 467 L
190.912 467 L
191.998 467 L
193.084 467 L
194.17 467 L
195.256 467 L
196.342 467 L
197.428 467 L
198.514 467 L
199.6 467 L
200.686 467 L
201.772 467 L
202.858 467 L
203.944 467 L
205.03 467 L
206.116 467 L
207.202 467 L
208.288 467 L
209.374 467 L
210.46 467 L
211.546 467 L
212.632 467 L
213.718 467 L
214.804 467 L
215.89 467 L
216.976 467 L
218.062 467 L
219.148 467 L
220.234 467 L
221.32 467 L
222.406 467 L
223.492 467 L
224.578 467 L
225.664 467 L
226.75 467 L
227.836 467 L
228.922 467 L
230.008 467 L
231.094 467 L
232.18 467 L
233.266 467 L
234.352 467 L
235.438 467 L
236.524 467 L
237.61 467 L
238.696 467 L
239.782 467 L
240.868 467 L
241.954 467 L
243.04 467 L
244.126 467 L
245.212 467 L
246.298 467 L
247.384 467 L
248.47 467 L
247.384 39 L
246.298 39 L
245.212 39 L
244.126 39 L
243.04 39 L
241.954 39 L
240.868 39 L
239.782 39 L
238.696 39 L
237.61 39 L
236.524 39 L
235.438 39 L
234.352 39 L
233.266 39 L
232.18 39 L
231.094 39 L
230.008 39 L
228.922 39 L
227.836 39 L
226.75 39 L
225.664 39 L
224.578 39 L
223.492 39 L
222.406 39 L
221.32 39 L
220.234 39 L
219.148 39 L
218.062 39 L
216.976 39 L
215.89 39 L
214.804 39 L
213.718 39 L
212.632 39 L
211.546 39 L
210.46 39 L
209.374 39 L
208.288 39 L
207.202 39 L
206.116 39 L
205.03 39 L
203.944 39 L
202.858 39 L
201.772 39 L
200.686 39 L
199.6 39 L
198.514 39 L
197.428 39 L
196.342 39 L
195.256 39 L
194.17 39 L
193.084 39 L
191.998 39 L
190.912 39 L
189.826 39 L
188.74 39 L
187.654 39 L
186.568 39 L
185.482 39 L
184.396 39 L
183.31 39 L
182.224 39 L
181.138 39 L
180.052 39 L
178.966 39 L
177.88 39 L
176.794 39 L
175.708 39 L
174.622 39 L
173.536 39 L
172.45 39 L
171.364 39 L
170.278 39 L
169.192 39 L
168.106 39 L
167.02 39 L
165.934 39 L
164.848 39 L
163.762 39 L
162.676 39 L
161.59 39 L
160.504 39 L
159.418 39 L
158.332 39 L
157.246 39 L
156.16 39 L
155.074 39 L
153.988 39 L
152.902 39 L
151.816 39 L
150.73 39 L
149.644 39 L
148.558 39 L
147.472 39 L
146.386 39 L
145.3 39 L
144.214 39 L
143.128 39 L
142.042 39 L
140.956 39 L
139.87 39 L
cp
585.13 467 M
586.216 467 L
587.302 467 L
588.388 467 L
589.474 467 L
590.56 467 L
591.646 467 L
592.732 467 L
593.818 467 L
594.904 467 L
593.818 39 L
592.732 39 L
591.646 39 L
590.56 39 L
589.474 39 L
588.388 39 L
587.302 39 L
586.216 39 L
cp
602.506 467 M
603.592 467 L
604.678 467 L
605.764 467 L
606.85 467 L
607.936 467 L
609.022 467 L
610.108 467 L
611.194 467 L
612.28 467 L
613.366 467 L
614.452 467 L
613.366 39 L
612.28 39 L
611.194 39 L
610.108 39 L
609.022 39 L
607.936 39 L
606.85 39 L
605.764 39 L
604.678 39 L
603.592 39 L
cp
623.14 467 M
624.226 467 L
625.312 467 L
626.398 467 L
627.484 467 L
628.57 467 L
629.656 467 L
630.742 467 L
631.828 467 L
632.914 467 L
634 467 L
634.065 467 L
634.065 64.508 L
634.065 39 L
634 39 L
632.914 39 L
631.828 39 L
630.742 39 L
629.656 39 L
628.57 39 L
627.484 39 L
626.398 39 L
625.312 39 L
624.226 39 L
cp
f
GR
GS
[0.75 0 0 0.74971 0 0.39999] CT
0.902 0.945 0.973 RC
1 LJ
0.667 LW
N
90.935 467 M
91 467 L
92.086 467 L
93.172 467 L
94.258 467 L
95.344 467 L
96.43 467 L
97.516 467 L
98.602 467 L
99.688 467 L
100.774 467 L
101.86 467 L
102.946 467 L
104.032 467 L
105.118 467 L
106.204 467 L
107.29 467 L
108.376 467 L
109.462 467 L
110.548 467 L
111.634 467 L
112.72 467 L
113.806 467 L
114.892 467 L
115.978 467 L
117.064 467 L
118.15 467 L
119.236 467 L
120.322 467 L
121.408 467 L
122.494 467 L
123.58 467 L
124.666 467 L
125.752 467 L
126.838 467 L
127.924 467 L
129.01 467 L
130.096 467 L
131.182 467 L
132.268 467 L
133.354 467 L
134.44 467 L
135.526 467 L
136.612 467 L
137.698 467 L
138.784 467 L
139.87 467 L
140.956 467 L
142.042 467 L
143.128 467 L
144.214 467 L
145.3 467 L
146.386 467 L
147.472 467 L
148.558 467 L
149.644 467 L
150.73 467 L
151.816 467 L
152.902 467 L
153.988 467 L
155.074 467 L
156.16 467 L
157.246 467 L
158.332 467 L
159.418 467 L
160.504 467 L
161.59 467 L
162.676 467 L
163.762 467 L
164.848 467 L
165.934 467 L
167.02 467 L
168.106 467 L
169.192 467 L
170.278 467 L
171.364 467 L
172.45 467 L
173.536 467 L
174.622 467 L
175.708 467 L
176.794 467 L
177.88 467 L
178.966 467 L
180.052 467 L
181.138 467 L
182.224 467 L
183.31 467 L
184.396 467 L
185.482 467 L
186.568 467 L
187.654 467 L
188.74 467 L
189.826 467 L
190.912 467 L
191.998 467 L
193.084 467 L
194.17 467 L
195.256 467 L
196.342 467 L
197.428 467 L
198.514 467 L
199.6 467 L
200.686 467 L
201.772 467 L
202.858 467 L
203.944 467 L
205.03 467 L
206.116 467 L
207.202 467 L
208.288 467 L
209.374 467 L
210.46 467 L
211.546 467 L
212.632 467 L
213.718 467 L
214.804 467 L
215.89 467 L
216.976 467 L
218.062 467 L
219.148 467 L
220.234 467 L
221.32 467 L
222.406 467 L
223.492 467 L
224.578 467 L
225.664 467 L
226.75 467 L
227.836 467 L
228.922 467 L
230.008 467 L
231.094 467 L
232.18 467 L
233.266 467 L
234.352 467 L
235.438 467 L
236.524 467 L
237.61 467 L
238.696 467 L
239.782 467 L
240.868 467 L
241.954 467 L
243.04 467 L
244.126 467 L
245.212 467 L
246.298 467 L
247.384 467 L
248.47 467 L
249.556 467 L
250.642 467 L
251.728 467 L
252.814 467 L
253.9 467 L
254.986 467 L
256.072 467 L
257.158 467 L
258.244 467 L
259.33 467 L
260.416 467 L
261.502 467 L
262.588 467 L
263.674 467 L
264.76 467 L
265.846 467 L
266.932 467 L
268.018 467 L
269.104 467 L
270.19 467 L
271.276 467 L
272.362 467 L
273.448 467 L
274.534 467 L
275.62 467 L
276.706 467 L
277.792 467 L
278.878 467 L
279.964 467 L
281.05 467 L
282.136 467 L
283.222 467 L
284.308 467 L
285.394 467 L
286.48 467 L
287.566 467 L
288.652 467 L
289.738 467 L
290.824 467 L
291.91 467 L
292.996 467 L
294.082 467 L
295.168 467 L
296.254 467 L
297.34 467 L
298.426 467 L
299.512 467 L
300.598 467 L
301.684 467 L
302.77 467 L
303.856 467 L
304.942 467 L
306.028 467 L
307.114 467 L
308.2 467 L
309.286 467 L
310.372 467 L
311.458 467 L
312.544 467 L
313.63 467 L
314.716 467 L
315.802 467 L
316.888 467 L
317.974 467 L
319.06 467 L
320.146 467 L
321.232 467 L
322.318 467 L
323.404 467 L
324.49 467 L
325.576 467 L
326.662 467 L
327.748 467 L
328.834 467 L
329.92 467 L
331.006 467 L
332.092 467 L
333.178 467 L
334.264 467 L
335.35 467 L
336.436 467 L
337.522 467 L
338.608 467 L
339.694 467 L
340.78 467 L
341.866 467 L
342.952 467 L
344.038 467 L
345.124 467 L
346.21 467 L
347.296 467 L
348.382 467 L
349.468 467 L
350.554 467 L
351.64 467 L
352.726 467 L
353.812 467 L
354.898 467 L
355.984 467 L
357.07 467 L
358.156 467 L
359.242 467 L
360.328 467 L
361.414 467 L
362.5 467 L
363.586 467 L
364.672 467 L
365.758 467 L
366.844 467 L
367.93 467 L
369.016 467 L
370.102 467 L
371.188 467 L
372.274 467 L
373.36 467 L
374.446 467 L
375.532 467 L
376.618 467 L
377.704 467 L
378.79 467 L
379.876 467 L
380.962 467 L
382.048 467 L
383.134 467 L
384.22 467 L
385.306 467 L
386.392 467 L
387.478 467 L
388.564 467 L
389.65 467 L
390.736 467 L
391.822 467 L
392.908 467 L
393.994 467 L
395.08 467 L
396.166 467 L
397.252 467 L
398.338 467 L
399.424 467 L
400.51 467 L
401.596 467 L
402.682 467 L
403.768 467 L
404.854 467 L
405.94 467 L
407.026 467 L
408.112 467 L
409.198 467 L
410.284 467 L
411.37 467 L
412.456 467 L
413.542 467 L
414.628 467 L
415.714 467 L
416.8 467 L
417.886 467 L
418.972 467 L
420.058 467 L
421.144 467 L
422.23 467 L
423.316 467 L
424.402 467 L
425.488 467 L
426.574 467 L
427.66 467 L
428.746 467 L
429.832 467 L
430.918 467 L
432.004 467 L
433.09 467 L
434.176 467 L
435.262 467 L
436.348 467 L
437.434 467 L
438.52 467 L
439.606 467 L
440.692 467 L
441.778 467 L
442.864 467 L
443.95 467 L
445.036 467 L
446.122 467 L
447.208 467 L
448.294 467 L
449.38 467 L
450.466 467 L
451.552 467 L
452.638 467 L
453.724 467 L
454.81 467 L
455.896 467 L
456.982 467 L
458.068 467 L
459.154 467 L
460.24 467 L
461.326 467 L
462.412 467 L
463.498 467 L
464.584 467 L
465.67 467 L
466.756 467 L
467.842 467 L
468.928 467 L
470.014 467 L
471.1 467 L
472.186 467 L
473.272 467 L
474.358 467 L
475.444 467 L
476.53 467 L
477.616 467 L
478.702 467 L
479.788 467 L
480.874 467 L
481.96 467 L
483.046 467 L
484.132 467 L
485.218 467 L
486.304 467 L
487.39 467 L
488.476 467 L
489.562 467 L
490.648 467 L
491.734 467 L
492.82 467 L
493.906 467 L
494.992 467 L
496.078 467 L
497.164 467 L
498.25 467 L
499.336 467 L
500.422 467 L
501.508 467 L
502.594 467 L
503.68 467 L
504.766 467 L
505.852 467 L
506.938 467 L
508.024 467 L
509.11 467 L
510.196 467 L
511.282 467 L
512.368 467 L
513.454 467 L
514.54 467 L
515.626 467 L
516.712 467 L
517.798 467 L
518.884 467 L
519.97 467 L
521.056 467 L
522.142 467 L
523.228 467 L
524.314 467 L
525.4 467 L
526.486 467 L
527.572 467 L
528.658 467 L
529.744 467 L
530.83 467 L
531.916 467 L
533.002 467 L
534.088 467 L
535.174 467 L
536.26 467 L
537.346 467 L
538.432 467 L
539.518 467 L
540.604 467 L
541.69 467 L
542.776 467 L
543.862 467 L
544.948 467 L
546.034 467 L
547.12 467 L
548.206 467 L
549.292 467 L
550.378 467 L
551.464 467 L
552.55 467 L
553.636 467 L
554.722 467 L
555.808 467 L
556.894 467 L
557.98 467 L
559.066 467 L
560.152 467 L
561.238 467 L
562.324 467 L
563.41 467 L
564.496 467 L
565.582 467 L
566.668 467 L
567.754 467 L
568.84 467 L
569.926 467 L
571.012 467 L
572.098 467 L
573.184 467 L
574.27 467 L
575.356 467 L
576.442 467 L
577.528 467 L
578.614 467 L
579.7 467 L
580.786 467 L
581.872 467 L
582.958 467 L
584.044 467 L
585.13 467 L
586.216 467 L
587.302 467 L
588.388 467 L
589.474 467 L
590.56 467 L
591.646 467 L
592.732 467 L
593.818 467 L
594.904 467 L
595.99 467 L
597.076 467 L
598.162 467 L
599.248 467 L
600.334 467 L
601.42 467 L
602.506 467 L
603.592 467 L
604.678 467 L
605.764 467 L
606.85 467 L
607.936 467 L
609.022 467 L
610.108 467 L
611.194 467 L
612.28 467 L
613.366 467 L
614.452 467 L
615.538 467 L
616.624 467 L
617.71 467 L
618.796 467 L
619.882 467 L
620.968 467 L
622.054 467 L
623.14 467 L
624.226 467 L
625.312 467 L
626.398 467 L
627.484 467 L
628.57 467 L
629.656 467 L
630.742 467 L
631.828 467 L
632.914 467 L
634 467 L
634.065 467 L
S
GR
GS
[0.75 0 0 0.74971 0 0.39999] CT
0.902 0.945 0.973 RC
1 LJ
0.667 LW
N
634.065 39 M
634 39 L
632.914 39 L
631.828 39 L
630.742 39 L
629.656 39 L
628.57 39 L
627.484 39 L
626.398 39 L
625.312 39 L
624.226 39 L
623.14 467 L
622.054 467 L
620.968 467 L
619.882 467 L
618.796 467 L
617.71 467 L
616.624 467 L
615.538 467 L
614.452 467 L
613.366 39 L
612.28 39 L
611.194 39 L
610.108 39 L
609.022 39 L
607.936 39 L
606.85 39 L
605.764 39 L
604.678 39 L
603.592 39 L
602.506 467 L
601.42 467 L
600.334 467 L
599.248 467 L
598.162 467 L
597.076 467 L
595.99 467 L
594.904 467 L
593.818 39 L
592.732 39 L
591.646 39 L
590.56 39 L
589.474 39 L
588.388 39 L
587.302 39 L
586.216 39 L
585.13 467 L
584.044 467 L
582.958 467 L
581.872 467 L
580.786 467 L
579.7 467 L
578.614 467 L
577.528 467 L
576.442 467 L
575.356 467 L
574.27 467 L
573.184 467 L
572.098 467 L
571.012 467 L
569.926 467 L
568.84 467 L
567.754 467 L
566.668 467 L
565.582 467 L
564.496 467 L
563.41 467 L
562.324 467 L
561.238 467 L
560.152 467 L
559.066 467 L
557.98 467 L
556.894 467 L
555.808 467 L
554.722 467 L
553.636 467 L
552.55 467 L
551.464 467 L
550.378 467 L
549.292 467 L
548.206 467 L
547.12 467 L
546.034 467 L
544.948 467 L
543.862 467 L
542.776 467 L
541.69 467 L
540.604 467 L
539.518 467 L
538.432 467 L
537.346 467 L
536.26 467 L
535.174 467 L
534.088 467 L
533.002 467 L
531.916 467 L
530.83 467 L
529.744 467 L
528.658 467 L
527.572 467 L
526.486 467 L
525.4 467 L
524.314 467 L
523.228 467 L
522.142 467 L
521.056 467 L
519.97 467 L
518.884 467 L
517.798 467 L
516.712 467 L
515.626 467 L
514.54 467 L
513.454 467 L
512.368 467 L
511.282 467 L
510.196 467 L
509.11 467 L
508.024 467 L
506.938 467 L
505.852 467 L
504.766 467 L
503.68 467 L
502.594 467 L
501.508 467 L
500.422 467 L
499.336 467 L
498.25 467 L
497.164 467 L
496.078 467 L
494.992 467 L
493.906 467 L
492.82 467 L
491.734 467 L
490.648 467 L
489.562 467 L
488.476 467 L
487.39 467 L
486.304 467 L
485.218 467 L
484.132 467 L
483.046 467 L
481.96 467 L
480.874 467 L
479.788 467 L
478.702 467 L
477.616 467 L
476.53 467 L
475.444 467 L
474.358 467 L
473.272 467 L
472.186 467 L
471.1 467 L
470.014 467 L
468.928 467 L
467.842 467 L
466.756 467 L
465.67 467 L
464.584 467 L
463.498 467 L
462.412 467 L
461.326 467 L
460.24 467 L
459.154 467 L
458.068 467 L
456.982 467 L
455.896 467 L
454.81 467 L
453.724 467 L
452.638 467 L
451.552 467 L
450.466 467 L
449.38 467 L
448.294 467 L
447.208 467 L
446.122 467 L
445.036 467 L
443.95 467 L
442.864 467 L
441.778 467 L
440.692 467 L
439.606 467 L
438.52 467 L
437.434 467 L
436.348 467 L
435.262 467 L
434.176 467 L
433.09 467 L
432.004 467 L
430.918 467 L
429.832 467 L
428.746 467 L
427.66 467 L
426.574 467 L
425.488 467 L
424.402 467 L
423.316 467 L
422.23 467 L
421.144 467 L
420.058 467 L
418.972 467 L
417.886 467 L
416.8 467 L
415.714 467 L
414.628 467 L
413.542 467 L
412.456 467 L
411.37 467 L
410.284 467 L
409.198 467 L
408.112 467 L
407.026 467 L
405.94 467 L
404.854 467 L
403.768 467 L
402.682 467 L
401.596 467 L
400.51 467 L
399.424 467 L
398.338 467 L
397.252 467 L
396.166 467 L
395.08 467 L
393.994 467 L
392.908 467 L
391.822 467 L
390.736 467 L
389.65 467 L
388.564 467 L
387.478 467 L
386.392 467 L
385.306 467 L
384.22 467 L
383.134 467 L
382.048 467 L
380.962 467 L
379.876 467 L
378.79 467 L
377.704 467 L
376.618 467 L
375.532 467 L
374.446 467 L
373.36 467 L
372.274 467 L
371.188 467 L
370.102 467 L
369.016 467 L
367.93 467 L
366.844 467 L
365.758 467 L
364.672 467 L
363.586 467 L
362.5 467 L
361.414 467 L
360.328 467 L
359.242 467 L
358.156 467 L
357.07 467 L
355.984 467 L
354.898 467 L
353.812 467 L
352.726 467 L
351.64 467 L
350.554 467 L
349.468 467 L
348.382 467 L
347.296 467 L
346.21 467 L
345.124 467 L
344.038 467 L
342.952 467 L
341.866 467 L
340.78 467 L
339.694 467 L
338.608 467 L
337.522 467 L
336.436 467 L
335.35 467 L
334.264 467 L
333.178 467 L
332.092 467 L
331.006 467 L
329.92 467 L
328.834 467 L
327.748 467 L
326.662 467 L
325.576 467 L
324.49 467 L
323.404 467 L
322.318 467 L
321.232 467 L
320.146 467 L
319.06 467 L
317.974 467 L
316.888 467 L
315.802 467 L
314.716 467 L
313.63 467 L
312.544 467 L
311.458 467 L
310.372 467 L
309.286 467 L
308.2 467 L
307.114 467 L
306.028 467 L
304.942 467 L
303.856 467 L
302.77 467 L
301.684 467 L
300.598 467 L
299.512 467 L
298.426 467 L
297.34 467 L
296.254 467 L
295.168 467 L
294.082 467 L
292.996 467 L
291.91 467 L
290.824 467 L
289.738 467 L
288.652 467 L
287.566 467 L
286.48 467 L
285.394 467 L
284.308 467 L
283.222 467 L
282.136 467 L
281.05 467 L
279.964 467 L
278.878 467 L
277.792 467 L
276.706 467 L
275.62 467 L
274.534 467 L
273.448 467 L
272.362 467 L
271.276 467 L
270.19 467 L
269.104 467 L
268.018 467 L
266.932 467 L
265.846 467 L
264.76 467 L
263.674 467 L
262.588 467 L
261.502 467 L
260.416 467 L
259.33 467 L
258.244 467 L
257.158 467 L
256.072 467 L
254.986 467 L
253.9 467 L
252.814 467 L
251.728 467 L
250.642 467 L
249.556 467 L
248.47 467 L
247.384 39 L
246.298 39 L
245.212 39 L
244.126 39 L
243.04 39 L
241.954 39 L
240.868 39 L
239.782 39 L
238.696 39 L
237.61 39 L
236.524 39 L
235.438 39 L
234.352 39 L
233.266 39 L
232.18 39 L
231.094 39 L
230.008 39 L
228.922 39 L
227.836 39 L
226.75 39 L
225.664 39 L
224.578 39 L
223.492 39 L
222.406 39 L
221.32 39 L
220.234 39 L
219.148 39 L
218.062 39 L
216.976 39 L
215.89 39 L
214.804 39 L
213.718 39 L
212.632 39 L
211.546 39 L
210.46 39 L
209.374 39 L
208.288 39 L
207.202 39 L
206.116 39 L
205.03 39 L
203.944 39 L
202.858 39 L
201.772 39 L
200.686 39 L
199.6 39 L
198.514 39 L
197.428 39 L
196.342 39 L
195.256 39 L
194.17 39 L
193.084 39 L
191.998 39 L
190.912 39 L
189.826 39 L
188.74 39 L
187.654 39 L
186.568 39 L
185.482 39 L
184.396 39 L
183.31 39 L
182.224 39 L
181.138 39 L
180.052 39 L
178.966 39 L
177.88 39 L
176.794 39 L
175.708 39 L
174.622 39 L
173.536 39 L
172.45 39 L
171.364 39 L
170.278 39 L
169.192 39 L
168.106 39 L
167.02 39 L
165.934 39 L
164.848 39 L
163.762 39 L
162.676 39 L
161.59 39 L
160.504 39 L
159.418 39 L
158.332 39 L
157.246 39 L
156.16 39 L
155.074 39 L
153.988 39 L
152.902 39 L
151.816 39 L
150.73 39 L
149.644 39 L
148.558 39 L
147.472 39 L
146.386 39 L
145.3 39 L
144.214 39 L
143.128 39 L
142.042 39 L
140.956 39 L
139.87 39 L
138.784 467 L
137.698 467 L
136.612 467 L
135.526 467 L
134.44 467 L
133.354 467 L
132.268 467 L
131.182 467 L
130.096 39 L
129.01 39 L
127.924 39 L
126.838 39 L
125.752 39 L
124.666 39 L
123.58 39 L
122.494 39 L
121.408 467 L
120.322 467 L
119.236 467 L
118.15 467 L
117.064 467 L
115.978 467 L
114.892 467 L
113.806 467 L
112.72 467 L
111.634 467 L
110.548 39 L
109.462 39 L
108.376 39 L
107.29 39 L
106.204 39 L
105.118 39 L
104.032 39 L
102.946 39 L
101.86 39 L
100.774 39 L
99.688 467 L
98.602 467 L
97.516 467 L
96.43 467 L
95.344 467 L
94.258 467 L
93.172 467 L
92.086 467 L
91 467 L
90.935 441.487 L
S
GR
GS
[0.75 0 0 0.74971 0 0.39999] CT
0.984 0.933 0.91 RC
N
90.935 64.513 M
90.935 467 L
91 467 L
92.086 467 L
93.172 467 L
94.258 467 L
95.344 467 L
96.43 467 L
97.516 467 L
98.602 467 L
99.688 467 L
100.774 467 L
99.688 39 L
98.602 39 L
97.516 39 L
96.43 39 L
95.344 39 L
94.258 39 L
93.172 39 L
92.086 39 L
91 39 L
cp
110.548 467 M
111.634 467 L
112.72 467 L
113.806 467 L
114.892 467 L
115.978 467 L
117.064 467 L
118.15 467 L
119.236 467 L
120.322 467 L
121.408 467 L
122.494 467 L
121.408 39 L
120.322 39 L
119.236 39 L
118.15 39 L
117.064 39 L
115.978 39 L
114.892 39 L
113.806 39 L
112.72 39 L
111.634 39 L
cp
130.096 467 M
131.182 467 L
132.268 467 L
133.354 467 L
134.44 467 L
135.526 467 L
136.612 467 L
137.698 467 L
138.784 467 L
139.87 467 L
138.784 39 L
137.698 39 L
136.612 39 L
135.526 39 L
134.44 39 L
133.354 39 L
132.268 39 L
131.182 39 L
cp
247.384 467 M
248.47 467 L
249.556 467 L
250.642 467 L
251.728 467 L
252.814 467 L
253.9 467 L
254.986 467 L
256.072 467 L
257.158 467 L
258.244 467 L
259.33 467 L
260.416 467 L
261.502 467 L
262.588 467 L
263.674 467 L
264.76 467 L
265.846 467 L
266.932 467 L
268.018 467 L
269.104 467 L
270.19 467 L
271.276 467 L
272.362 467 L
273.448 467 L
274.534 467 L
275.62 467 L
276.706 467 L
277.792 467 L
278.878 467 L
279.964 467 L
281.05 467 L
282.136 467 L
283.222 467 L
284.308 467 L
285.394 467 L
286.48 467 L
287.566 467 L
288.652 467 L
289.738 467 L
290.824 467 L
291.91 467 L
292.996 467 L
294.082 467 L
295.168 467 L
296.254 467 L
297.34 467 L
298.426 467 L
299.512 467 L
300.598 467 L
301.684 467 L
302.77 467 L
303.856 467 L
304.942 467 L
306.028 467 L
307.114 467 L
308.2 467 L
309.286 467 L
310.372 467 L
311.458 467 L
312.544 467 L
313.63 467 L
314.716 467 L
315.802 467 L
316.888 467 L
317.974 467 L
319.06 467 L
320.146 467 L
321.232 467 L
322.318 467 L
323.404 467 L
324.49 467 L
325.576 467 L
326.662 467 L
327.748 467 L
328.834 467 L
329.92 467 L
331.006 467 L
332.092 467 L
333.178 467 L
334.264 467 L
335.35 467 L
336.436 467 L
337.522 467 L
338.608 467 L
339.694 467 L
340.78 467 L
341.866 467 L
342.952 467 L
344.038 467 L
345.124 467 L
346.21 467 L
347.296 467 L
348.382 467 L
349.468 467 L
350.554 467 L
351.64 467 L
352.726 467 L
353.812 467 L
354.898 467 L
355.984 467 L
357.07 467 L
358.156 467 L
359.242 467 L
360.328 467 L
361.414 467 L
362.5 467 L
363.586 467 L
364.672 467 L
365.758 467 L
366.844 467 L
367.93 467 L
369.016 467 L
370.102 467 L
371.188 467 L
372.274 467 L
373.36 467 L
374.446 467 L
375.532 467 L
376.618 467 L
377.704 467 L
378.79 467 L
379.876 467 L
380.962 467 L
382.048 467 L
383.134 467 L
384.22 467 L
385.306 467 L
386.392 467 L
387.478 467 L
388.564 467 L
389.65 467 L
390.736 467 L
391.822 467 L
392.908 467 L
393.994 467 L
395.08 467 L
396.166 467 L
397.252 467 L
398.338 467 L
399.424 467 L
400.51 467 L
401.596 467 L
402.682 467 L
403.768 467 L
404.854 467 L
405.94 467 L
407.026 467 L
408.112 467 L
409.198 467 L
410.284 467 L
411.37 467 L
412.456 467 L
413.542 467 L
414.628 467 L
415.714 467 L
416.8 467 L
417.886 467 L
418.972 467 L
420.058 467 L
421.144 467 L
422.23 467 L
423.316 467 L
424.402 467 L
425.488 467 L
426.574 467 L
427.66 467 L
428.746 467 L
429.832 467 L
430.918 467 L
432.004 467 L
433.09 467 L
434.176 467 L
435.262 467 L
436.348 467 L
437.434 467 L
438.52 467 L
439.606 467 L
440.692 467 L
441.778 467 L
442.864 467 L
443.95 467 L
445.036 467 L
446.122 467 L
447.208 467 L
448.294 467 L
449.38 467 L
450.466 467 L
451.552 467 L
452.638 467 L
453.724 467 L
454.81 467 L
455.896 467 L
456.982 467 L
458.068 467 L
459.154 467 L
460.24 467 L
461.326 467 L
462.412 467 L
463.498 467 L
464.584 467 L
465.67 467 L
466.756 467 L
467.842 467 L
468.928 467 L
470.014 467 L
471.1 467 L
472.186 467 L
473.272 467 L
474.358 467 L
475.444 467 L
476.53 467 L
477.616 467 L
478.702 467 L
479.788 467 L
480.874 467 L
481.96 467 L
483.046 467 L
484.132 467 L
485.218 467 L
486.304 467 L
487.39 467 L
488.476 467 L
489.562 467 L
490.648 467 L
491.734 467 L
492.82 467 L
493.906 467 L
494.992 467 L
496.078 467 L
497.164 467 L
498.25 467 L
499.336 467 L
500.422 467 L
501.508 467 L
502.594 467 L
503.68 467 L
504.766 467 L
505.852 467 L
506.938 467 L
508.024 467 L
509.11 467 L
510.196 467 L
511.282 467 L
512.368 467 L
513.454 467 L
514.54 467 L
515.626 467 L
516.712 467 L
517.798 467 L
518.884 467 L
519.97 467 L
521.056 467 L
522.142 467 L
523.228 467 L
524.314 467 L
525.4 467 L
526.486 467 L
527.572 467 L
528.658 467 L
529.744 467 L
530.83 467 L
531.916 467 L
533.002 467 L
534.088 467 L
535.174 467 L
536.26 467 L
537.346 467 L
538.432 467 L
539.518 467 L
540.604 467 L
541.69 467 L
542.776 467 L
543.862 467 L
544.948 467 L
546.034 467 L
547.12 467 L
548.206 467 L
549.292 467 L
550.378 467 L
551.464 467 L
552.55 467 L
553.636 467 L
554.722 467 L
555.808 467 L
556.894 467 L
557.98 467 L
559.066 467 L
560.152 467 L
561.238 467 L
562.324 467 L
563.41 467 L
564.496 467 L
565.582 467 L
566.668 467 L
567.754 467 L
568.84 467 L
569.926 467 L
571.012 467 L
572.098 467 L
573.184 467 L
574.27 467 L
575.356 467 L
576.442 467 L
577.528 467 L
578.614 467 L
579.7 467 L
580.786 467 L
581.872 467 L
582.958 467 L
584.044 467 L
585.13 467 L
586.216 467 L
585.13 39 L
584.044 39 L
582.958 39 L
581.872 39 L
580.786 39 L
579.7 39 L
578.614 39 L
577.528 39 L
576.442 39 L
575.356 39 L
574.27 39 L
573.184 39 L
572.098 39 L
571.012 39 L
569.926 39 L
568.84 39 L
567.754 39 L
566.668 39 L
565.582 39 L
564.496 39 L
563.41 39 L
562.324 39 L
561.238 39 L
560.152 39 L
559.066 39 L
557.98 39 L
556.894 39 L
555.808 39 L
554.722 39 L
553.636 39 L
552.55 39 L
551.464 39 L
550.378 39 L
549.292 39 L
548.206 39 L
547.12 39 L
546.034 39 L
544.948 39 L
543.862 39 L
542.776 39 L
541.69 39 L
540.604 39 L
539.518 39 L
538.432 39 L
537.346 39 L
536.26 39 L
535.174 39 L
534.088 39 L
533.002 39 L
531.916 39 L
530.83 39 L
529.744 39 L
528.658 39 L
527.572 39 L
526.486 39 L
525.4 39 L
524.314 39 L
523.228 39 L
522.142 39 L
521.056 39 L
519.97 39 L
518.884 39 L
517.798 39 L
516.712 39 L
515.626 39 L
514.54 39 L
513.454 39 L
512.368 39 L
511.282 39 L
510.196 39 L
509.11 39 L
508.024 39 L
506.938 39 L
505.852 39 L
504.766 39 L
503.68 39 L
502.594 39 L
501.508 39 L
500.422 39 L
499.336 39 L
498.25 39 L
497.164 39 L
496.078 39 L
494.992 39 L
493.906 39 L
492.82 39 L
491.734 39 L
490.648 39 L
489.562 39 L
488.476 39 L
487.39 39 L
486.304 39 L
485.218 39 L
484.132 39 L
483.046 39 L
481.96 39 L
480.874 39 L
479.788 39 L
478.702 39 L
477.616 39 L
476.53 39 L
475.444 39 L
474.358 39 L
473.272 39 L
472.186 39 L
471.1 39 L
470.014 39 L
468.928 39 L
467.842 39 L
466.756 39 L
465.67 39 L
464.584 39 L
463.498 39 L
462.412 39 L
461.326 39 L
460.24 39 L
459.154 39 L
458.068 39 L
456.982 39 L
455.896 39 L
454.81 39 L
453.724 39 L
452.638 39 L
451.552 39 L
450.466 39 L
449.38 39 L
448.294 39 L
447.208 39 L
446.122 39 L
445.036 39 L
443.95 39 L
442.864 39 L
441.778 39 L
440.692 39 L
439.606 39 L
438.52 39 L
437.434 39 L
436.348 39 L
435.262 39 L
434.176 39 L
433.09 39 L
432.004 39 L
430.918 39 L
429.832 39 L
428.746 39 L
427.66 39 L
426.574 39 L
425.488 39 L
424.402 39 L
423.316 39 L
422.23 39 L
421.144 39 L
420.058 39 L
418.972 39 L
417.886 39 L
416.8 39 L
415.714 39 L
414.628 39 L
413.542 39 L
412.456 39 L
411.37 39 L
410.284 39 L
409.198 39 L
408.112 39 L
407.026 39 L
405.94 39 L
404.854 39 L
403.768 39 L
402.682 39 L
401.596 39 L
400.51 39 L
399.424 39 L
398.338 39 L
397.252 39 L
396.166 39 L
395.08 39 L
393.994 39 L
392.908 39 L
391.822 39 L
390.736 39 L
389.65 39 L
388.564 39 L
387.478 39 L
386.392 39 L
385.306 39 L
384.22 39 L
383.134 39 L
382.048 39 L
380.962 39 L
379.876 39 L
378.79 39 L
377.704 39 L
376.618 39 L
375.532 39 L
374.446 39 L
373.36 39 L
372.274 39 L
371.188 39 L
370.102 39 L
369.016 39 L
367.93 39 L
366.844 39 L
365.758 39 L
364.672 39 L
363.586 39 L
362.5 39 L
361.414 39 L
360.328 39 L
359.242 39 L
358.156 39 L
357.07 39 L
355.984 39 L
354.898 39 L
353.812 39 L
352.726 39 L
351.64 39 L
350.554 39 L
349.468 39 L
348.382 39 L
347.296 39 L
346.21 39 L
345.124 39 L
344.038 39 L
342.952 39 L
341.866 39 L
340.78 39 L
339.694 39 L
338.608 39 L
337.522 39 L
336.436 39 L
335.35 39 L
334.264 39 L
333.178 39 L
332.092 39 L
331.006 39 L
329.92 39 L
328.834 39 L
327.748 39 L
326.662 39 L
325.576 39 L
324.49 39 L
323.404 39 L
322.318 39 L
321.232 39 L
320.146 39 L
319.06 39 L
317.974 39 L
316.888 39 L
315.802 39 L
314.716 39 L
313.63 39 L
312.544 39 L
311.458 39 L
310.372 39 L
309.286 39 L
308.2 39 L
307.114 39 L
306.028 39 L
304.942 39 L
303.856 39 L
302.77 39 L
301.684 39 L
300.598 39 L
299.512 39 L
298.426 39 L
297.34 39 L
296.254 39 L
295.168 39 L
294.082 39 L
292.996 39 L
291.91 39 L
290.824 39 L
289.738 39 L
288.652 39 L
287.566 39 L
286.48 39 L
285.394 39 L
284.308 39 L
283.222 39 L
282.136 39 L
281.05 39 L
279.964 39 L
278.878 39 L
277.792 39 L
276.706 39 L
275.62 39 L
274.534 39 L
273.448 39 L
272.362 39 L
271.276 39 L
270.19 39 L
269.104 39 L
268.018 39 L
266.932 39 L
265.846 39 L
264.76 39 L
263.674 39 L
262.588 39 L
261.502 39 L
260.416 39 L
259.33 39 L
258.244 39 L
257.158 39 L
256.072 39 L
254.986 39 L
253.9 39 L
252.814 39 L
251.728 39 L
250.642 39 L
249.556 39 L
248.47 39 L
cp
593.818 467 M
594.904 467 L
595.99 467 L
597.076 467 L
598.162 467 L
599.248 467 L
600.334 467 L
601.42 467 L
602.506 467 L
603.592 467 L
602.506 39 L
601.42 39 L
600.334 39 L
599.248 39 L
598.162 39 L
597.076 39 L
595.99 39 L
594.904 39 L
cp
613.366 467 M
614.452 467 L
615.538 467 L
616.624 467 L
617.71 467 L
618.796 467 L
619.882 467 L
620.968 467 L
622.054 467 L
623.14 467 L
624.226 467 L
623.14 39 L
622.054 39 L
620.968 39 L
619.882 39 L
618.796 39 L
617.71 39 L
616.624 39 L
615.538 39 L
614.452 39 L
cp
f
GR
GS
[0.75 0 0 0.74971 0 0.39999] CT
0.984 0.933 0.91 RC
1 LJ
0.667 LW
N
90.935 467 M
91 467 L
92.086 467 L
93.172 467 L
94.258 467 L
95.344 467 L
96.43 467 L
97.516 467 L
98.602 467 L
99.688 467 L
100.774 467 L
101.86 467 L
102.946 467 L
104.032 467 L
105.118 467 L
106.204 467 L
107.29 467 L
108.376 467 L
109.462 467 L
110.548 467 L
111.634 467 L
112.72 467 L
113.806 467 L
114.892 467 L
115.978 467 L
117.064 467 L
118.15 467 L
119.236 467 L
120.322 467 L
121.408 467 L
122.494 467 L
123.58 467 L
124.666 467 L
125.752 467 L
126.838 467 L
127.924 467 L
129.01 467 L
130.096 467 L
131.182 467 L
132.268 467 L
133.354 467 L
134.44 467 L
135.526 467 L
136.612 467 L
137.698 467 L
138.784 467 L
139.87 467 L
140.956 467 L
142.042 467 L
143.128 467 L
144.214 467 L
145.3 467 L
146.386 467 L
147.472 467 L
148.558 467 L
149.644 467 L
150.73 467 L
151.816 467 L
152.902 467 L
153.988 467 L
155.074 467 L
156.16 467 L
157.246 467 L
158.332 467 L
159.418 467 L
160.504 467 L
161.59 467 L
162.676 467 L
163.762 467 L
164.848 467 L
165.934 467 L
167.02 467 L
168.106 467 L
169.192 467 L
170.278 467 L
171.364 467 L
172.45 467 L
173.536 467 L
174.622 467 L
175.708 467 L
176.794 467 L
177.88 467 L
178.966 467 L
180.052 467 L
181.138 467 L
182.224 467 L
183.31 467 L
184.396 467 L
185.482 467 L
186.568 467 L
187.654 467 L
188.74 467 L
189.826 467 L
190.912 467 L
191.998 467 L
193.084 467 L
194.17 467 L
195.256 467 L
196.342 467 L
197.428 467 L
198.514 467 L
199.6 467 L
200.686 467 L
201.772 467 L
202.858 467 L
203.944 467 L
205.03 467 L
206.116 467 L
207.202 467 L
208.288 467 L
209.374 467 L
210.46 467 L
211.546 467 L
212.632 467 L
213.718 467 L
214.804 467 L
215.89 467 L
216.976 467 L
218.062 467 L
219.148 467 L
220.234 467 L
221.32 467 L
222.406 467 L
223.492 467 L
224.578 467 L
225.664 467 L
226.75 467 L
227.836 467 L
228.922 467 L
230.008 467 L
231.094 467 L
232.18 467 L
233.266 467 L
234.352 467 L
235.438 467 L
236.524 467 L
237.61 467 L
238.696 467 L
239.782 467 L
240.868 467 L
241.954 467 L
243.04 467 L
244.126 467 L
245.212 467 L
246.298 467 L
247.384 467 L
248.47 467 L
249.556 467 L
250.642 467 L
251.728 467 L
252.814 467 L
253.9 467 L
254.986 467 L
256.072 467 L
257.158 467 L
258.244 467 L
259.33 467 L
260.416 467 L
261.502 467 L
262.588 467 L
263.674 467 L
264.76 467 L
265.846 467 L
266.932 467 L
268.018 467 L
269.104 467 L
270.19 467 L
271.276 467 L
272.362 467 L
273.448 467 L
274.534 467 L
275.62 467 L
276.706 467 L
277.792 467 L
278.878 467 L
279.964 467 L
281.05 467 L
282.136 467 L
283.222 467 L
284.308 467 L
285.394 467 L
286.48 467 L
287.566 467 L
288.652 467 L
289.738 467 L
290.824 467 L
291.91 467 L
292.996 467 L
294.082 467 L
295.168 467 L
296.254 467 L
297.34 467 L
298.426 467 L
299.512 467 L
300.598 467 L
301.684 467 L
302.77 467 L
303.856 467 L
304.942 467 L
306.028 467 L
307.114 467 L
308.2 467 L
309.286 467 L
310.372 467 L
311.458 467 L
312.544 467 L
313.63 467 L
314.716 467 L
315.802 467 L
316.888 467 L
317.974 467 L
319.06 467 L
320.146 467 L
321.232 467 L
322.318 467 L
323.404 467 L
324.49 467 L
325.576 467 L
326.662 467 L
327.748 467 L
328.834 467 L
329.92 467 L
331.006 467 L
332.092 467 L
333.178 467 L
334.264 467 L
335.35 467 L
336.436 467 L
337.522 467 L
338.608 467 L
339.694 467 L
340.78 467 L
341.866 467 L
342.952 467 L
344.038 467 L
345.124 467 L
346.21 467 L
347.296 467 L
348.382 467 L
349.468 467 L
350.554 467 L
351.64 467 L
352.726 467 L
353.812 467 L
354.898 467 L
355.984 467 L
357.07 467 L
358.156 467 L
359.242 467 L
360.328 467 L
361.414 467 L
362.5 467 L
363.586 467 L
364.672 467 L
365.758 467 L
366.844 467 L
367.93 467 L
369.016 467 L
370.102 467 L
371.188 467 L
372.274 467 L
373.36 467 L
374.446 467 L
375.532 467 L
376.618 467 L
377.704 467 L
378.79 467 L
379.876 467 L
380.962 467 L
382.048 467 L
383.134 467 L
384.22 467 L
385.306 467 L
386.392 467 L
387.478 467 L
388.564 467 L
389.65 467 L
390.736 467 L
391.822 467 L
392.908 467 L
393.994 467 L
395.08 467 L
396.166 467 L
397.252 467 L
398.338 467 L
399.424 467 L
400.51 467 L
401.596 467 L
402.682 467 L
403.768 467 L
404.854 467 L
405.94 467 L
407.026 467 L
408.112 467 L
409.198 467 L
410.284 467 L
411.37 467 L
412.456 467 L
413.542 467 L
414.628 467 L
415.714 467 L
416.8 467 L
417.886 467 L
418.972 467 L
420.058 467 L
421.144 467 L
422.23 467 L
423.316 467 L
424.402 467 L
425.488 467 L
426.574 467 L
427.66 467 L
428.746 467 L
429.832 467 L
430.918 467 L
432.004 467 L
433.09 467 L
434.176 467 L
435.262 467 L
436.348 467 L
437.434 467 L
438.52 467 L
439.606 467 L
440.692 467 L
441.778 467 L
442.864 467 L
443.95 467 L
445.036 467 L
446.122 467 L
447.208 467 L
448.294 467 L
449.38 467 L
450.466 467 L
451.552 467 L
452.638 467 L
453.724 467 L
454.81 467 L
455.896 467 L
456.982 467 L
458.068 467 L
459.154 467 L
460.24 467 L
461.326 467 L
462.412 467 L
463.498 467 L
464.584 467 L
465.67 467 L
466.756 467 L
467.842 467 L
468.928 467 L
470.014 467 L
471.1 467 L
472.186 467 L
473.272 467 L
474.358 467 L
475.444 467 L
476.53 467 L
477.616 467 L
478.702 467 L
479.788 467 L
480.874 467 L
481.96 467 L
483.046 467 L
484.132 467 L
485.218 467 L
486.304 467 L
487.39 467 L
488.476 467 L
489.562 467 L
490.648 467 L
491.734 467 L
492.82 467 L
493.906 467 L
494.992 467 L
496.078 467 L
497.164 467 L
498.25 467 L
499.336 467 L
500.422 467 L
501.508 467 L
502.594 467 L
503.68 467 L
504.766 467 L
505.852 467 L
506.938 467 L
508.024 467 L
509.11 467 L
510.196 467 L
511.282 467 L
512.368 467 L
513.454 467 L
514.54 467 L
515.626 467 L
516.712 467 L
517.798 467 L
518.884 467 L
519.97 467 L
521.056 467 L
522.142 467 L
523.228 467 L
524.314 467 L
525.4 467 L
526.486 467 L
527.572 467 L
528.658 467 L
529.744 467 L
530.83 467 L
531.916 467 L
533.002 467 L
534.088 467 L
535.174 467 L
536.26 467 L
537.346 467 L
538.432 467 L
539.518 467 L
540.604 467 L
541.69 467 L
542.776 467 L
543.862 467 L
544.948 467 L
546.034 467 L
547.12 467 L
548.206 467 L
549.292 467 L
550.378 467 L
551.464 467 L
552.55 467 L
553.636 467 L
554.722 467 L
555.808 467 L
556.894 467 L
557.98 467 L
559.066 467 L
560.152 467 L
561.238 467 L
562.324 467 L
563.41 467 L
564.496 467 L
565.582 467 L
566.668 467 L
567.754 467 L
568.84 467 L
569.926 467 L
571.012 467 L
572.098 467 L
573.184 467 L
574.27 467 L
575.356 467 L
576.442 467 L
577.528 467 L
578.614 467 L
579.7 467 L
580.786 467 L
581.872 467 L
582.958 467 L
584.044 467 L
585.13 467 L
586.216 467 L
587.302 467 L
588.388 467 L
589.474 467 L
590.56 467 L
591.646 467 L
592.732 467 L
593.818 467 L
594.904 467 L
595.99 467 L
597.076 467 L
598.162 467 L
599.248 467 L
600.334 467 L
601.42 467 L
602.506 467 L
603.592 467 L
604.678 467 L
605.764 467 L
606.85 467 L
607.936 467 L
609.022 467 L
610.108 467 L
611.194 467 L
612.28 467 L
613.366 467 L
614.452 467 L
615.538 467 L
616.624 467 L
617.71 467 L
618.796 467 L
619.882 467 L
620.968 467 L
622.054 467 L
623.14 467 L
624.226 467 L
625.312 467 L
626.398 467 L
627.484 467 L
628.57 467 L
629.656 467 L
630.742 467 L
631.828 467 L
632.914 467 L
634 467 L
634.065 467 L
S
GR
GS
[0.75 0 0 0.74971 0 0.39999] CT
0.984 0.933 0.91 RC
1 LJ
0.667 LW
N
634.065 467 M
634 467 L
632.914 467 L
631.828 467 L
630.742 467 L
629.656 467 L
628.57 467 L
627.484 467 L
626.398 467 L
625.312 467 L
624.226 467 L
623.14 39 L
622.054 39 L
620.968 39 L
619.882 39 L
618.796 39 L
617.71 39 L
616.624 39 L
615.538 39 L
614.452 39 L
613.366 467 L
612.28 467 L
611.194 467 L
610.108 467 L
609.022 467 L
607.936 467 L
606.85 467 L
605.764 467 L
604.678 467 L
603.592 467 L
602.506 39 L
601.42 39 L
600.334 39 L
599.248 39 L
598.162 39 L
597.076 39 L
595.99 39 L
594.904 39 L
593.818 467 L
592.732 467 L
591.646 467 L
590.56 467 L
589.474 467 L
588.388 467 L
587.302 467 L
586.216 467 L
585.13 39 L
584.044 39 L
582.958 39 L
581.872 39 L
580.786 39 L
579.7 39 L
578.614 39 L
577.528 39 L
576.442 39 L
575.356 39 L
574.27 39 L
573.184 39 L
572.098 39 L
571.012 39 L
569.926 39 L
568.84 39 L
567.754 39 L
566.668 39 L
565.582 39 L
564.496 39 L
563.41 39 L
562.324 39 L
561.238 39 L
560.152 39 L
559.066 39 L
557.98 39 L
556.894 39 L
555.808 39 L
554.722 39 L
553.636 39 L
552.55 39 L
551.464 39 L
550.378 39 L
549.292 39 L
548.206 39 L
547.12 39 L
546.034 39 L
544.948 39 L
543.862 39 L
542.776 39 L
541.69 39 L
540.604 39 L
539.518 39 L
538.432 39 L
537.346 39 L
536.26 39 L
535.174 39 L
534.088 39 L
533.002 39 L
531.916 39 L
530.83 39 L
529.744 39 L
528.658 39 L
527.572 39 L
526.486 39 L
525.4 39 L
524.314 39 L
523.228 39 L
522.142 39 L
521.056 39 L
519.97 39 L
518.884 39 L
517.798 39 L
516.712 39 L
515.626 39 L
514.54 39 L
513.454 39 L
512.368 39 L
511.282 39 L
510.196 39 L
509.11 39 L
508.024 39 L
506.938 39 L
505.852 39 L
504.766 39 L
503.68 39 L
502.594 39 L
501.508 39 L
500.422 39 L
499.336 39 L
498.25 39 L
497.164 39 L
496.078 39 L
494.992 39 L
493.906 39 L
492.82 39 L
491.734 39 L
490.648 39 L
489.562 39 L
488.476 39 L
487.39 39 L
486.304 39 L
485.218 39 L
484.132 39 L
483.046 39 L
481.96 39 L
480.874 39 L
479.788 39 L
478.702 39 L
477.616 39 L
476.53 39 L
475.444 39 L
474.358 39 L
473.272 39 L
472.186 39 L
471.1 39 L
470.014 39 L
468.928 39 L
467.842 39 L
466.756 39 L
465.67 39 L
464.584 39 L
463.498 39 L
462.412 39 L
461.326 39 L
460.24 39 L
459.154 39 L
458.068 39 L
456.982 39 L
455.896 39 L
454.81 39 L
453.724 39 L
452.638 39 L
451.552 39 L
450.466 39 L
449.38 39 L
448.294 39 L
447.208 39 L
446.122 39 L
445.036 39 L
443.95 39 L
442.864 39 L
441.778 39 L
440.692 39 L
439.606 39 L
438.52 39 L
437.434 39 L
436.348 39 L
435.262 39 L
434.176 39 L
433.09 39 L
432.004 39 L
430.918 39 L
429.832 39 L
428.746 39 L
427.66 39 L
426.574 39 L
425.488 39 L
424.402 39 L
423.316 39 L
422.23 39 L
421.144 39 L
420.058 39 L
418.972 39 L
417.886 39 L
416.8 39 L
415.714 39 L
414.628 39 L
413.542 39 L
412.456 39 L
411.37 39 L
410.284 39 L
409.198 39 L
408.112 39 L
407.026 39 L
405.94 39 L
404.854 39 L
403.768 39 L
402.682 39 L
401.596 39 L
400.51 39 L
399.424 39 L
398.338 39 L
397.252 39 L
396.166 39 L
395.08 39 L
393.994 39 L
392.908 39 L
391.822 39 L
390.736 39 L
389.65 39 L
388.564 39 L
387.478 39 L
386.392 39 L
385.306 39 L
384.22 39 L
383.134 39 L
382.048 39 L
380.962 39 L
379.876 39 L
378.79 39 L
377.704 39 L
376.618 39 L
375.532 39 L
374.446 39 L
373.36 39 L
372.274 39 L
371.188 39 L
370.102 39 L
369.016 39 L
367.93 39 L
366.844 39 L
365.758 39 L
364.672 39 L
363.586 39 L
362.5 39 L
361.414 39 L
360.328 39 L
359.242 39 L
358.156 39 L
357.07 39 L
355.984 39 L
354.898 39 L
353.812 39 L
352.726 39 L
351.64 39 L
350.554 39 L
349.468 39 L
348.382 39 L
347.296 39 L
346.21 39 L
345.124 39 L
344.038 39 L
342.952 39 L
341.866 39 L
340.78 39 L
339.694 39 L
338.608 39 L
337.522 39 L
336.436 39 L
335.35 39 L
334.264 39 L
333.178 39 L
332.092 39 L
331.006 39 L
329.92 39 L
328.834 39 L
327.748 39 L
326.662 39 L
325.576 39 L
324.49 39 L
323.404 39 L
322.318 39 L
321.232 39 L
320.146 39 L
319.06 39 L
317.974 39 L
316.888 39 L
315.802 39 L
314.716 39 L
313.63 39 L
312.544 39 L
311.458 39 L
310.372 39 L
309.286 39 L
308.2 39 L
307.114 39 L
306.028 39 L
304.942 39 L
303.856 39 L
302.77 39 L
301.684 39 L
300.598 39 L
299.512 39 L
298.426 39 L
297.34 39 L
296.254 39 L
295.168 39 L
294.082 39 L
292.996 39 L
291.91 39 L
290.824 39 L
289.738 39 L
288.652 39 L
287.566 39 L
286.48 39 L
285.394 39 L
284.308 39 L
283.222 39 L
282.136 39 L
281.05 39 L
279.964 39 L
278.878 39 L
277.792 39 L
276.706 39 L
275.62 39 L
274.534 39 L
273.448 39 L
272.362 39 L
271.276 39 L
270.19 39 L
269.104 39 L
268.018 39 L
266.932 39 L
265.846 39 L
264.76 39 L
263.674 39 L
262.588 39 L
261.502 39 L
260.416 39 L
259.33 39 L
258.244 39 L
257.158 39 L
256.072 39 L
254.986 39 L
253.9 39 L
252.814 39 L
251.728 39 L
250.642 39 L
249.556 39 L
248.47 39 L
247.384 467 L
246.298 467 L
245.212 467 L
244.126 467 L
243.04 467 L
241.954 467 L
240.868 467 L
239.782 467 L
238.696 467 L
237.61 467 L
236.524 467 L
235.438 467 L
234.352 467 L
233.266 467 L
232.18 467 L
231.094 467 L
230.008 467 L
228.922 467 L
227.836 467 L
226.75 467 L
225.664 467 L
224.578 467 L
223.492 467 L
222.406 467 L
221.32 467 L
220.234 467 L
219.148 467 L
218.062 467 L
216.976 467 L
215.89 467 L
214.804 467 L
213.718 467 L
212.632 467 L
211.546 467 L
210.46 467 L
209.374 467 L
208.288 467 L
207.202 467 L
206.116 467 L
205.03 467 L
203.944 467 L
202.858 467 L
201.772 467 L
200.686 467 L
199.6 467 L
198.514 467 L
197.428 467 L
196.342 467 L
195.256 467 L
194.17 467 L
193.084 467 L
191.998 467 L
190.912 467 L
189.826 467 L
188.74 467 L
187.654 467 L
186.568 467 L
185.482 467 L
184.396 467 L
183.31 467 L
182.224 467 L
181.138 467 L
180.052 467 L
178.966 467 L
177.88 467 L
176.794 467 L
175.708 467 L
174.622 467 L
173.536 467 L
172.45 467 L
171.364 467 L
170.278 467 L
169.192 467 L
168.106 467 L
167.02 467 L
165.934 467 L
164.848 467 L
163.762 467 L
162.676 467 L
161.59 467 L
160.504 467 L
159.418 467 L
158.332 467 L
157.246 467 L
156.16 467 L
155.074 467 L
153.988 467 L
152.902 467 L
151.816 467 L
150.73 467 L
149.644 467 L
148.558 467 L
147.472 467 L
146.386 467 L
145.3 467 L
144.214 467 L
143.128 467 L
142.042 467 L
140.956 467 L
139.87 467 L
138.784 39 L
137.698 39 L
136.612 39 L
135.526 39 L
134.44 39 L
133.354 39 L
132.268 39 L
131.182 39 L
130.096 467 L
129.01 467 L
127.924 467 L
126.838 467 L
125.752 467 L
124.666 467 L
123.58 467 L
122.494 467 L
121.408 39 L
120.322 39 L
119.236 39 L
118.15 39 L
117.064 39 L
115.978 39 L
114.892 39 L
113.806 39 L
112.72 39 L
111.634 39 L
110.548 467 L
109.462 467 L
108.376 467 L
107.29 467 L
106.204 467 L
105.118 467 L
104.032 467 L
102.946 467 L
101.86 467 L
100.774 467 L
99.688 39 L
98.602 39 L
97.516 39 L
96.43 39 L
95.344 39 L
94.258 39 L
93.172 39 L
92.086 39 L
91 39 L
90.935 64.513 L
S
GR
GS
[0.75 0 0 0.74971 0 0.39999] CT
0 0.447 0.741 RC
1 LJ
2.667 LW
N
90.935 467 M
91 467 L
92.086 467 L
93.172 467 L
94.258 467 L
95.344 466.999 L
96.43 466.999 L
97.516 466.997 L
98.602 466.996 L
99.688 466.994 L
100.774 466.991 L
101.86 466.988 L
102.946 466.986 L
104.032 466.983 L
105.118 466.983 L
106.204 466.984 L
107.29 466.989 L
108.376 466.997 L
109.462 467.01 L
110.548 467.027 L
111.634 467.047 L
111.867 467.051 L
S
GR
GS
[0.75 0 0 0.74971 0 0.39999] CT
0 0.447 0.741 RC
1 LJ
2.667 LW
N
116.382 467.051 M
117.064 467.023 L
118.15 466.943 L
119.236 466.82 L
120.322 466.656 L
121.408 466.458 L
122.494 466.244 L
123.58 466.043 L
124.666 465.9 L
125.752 465.865 L
126.838 465.994 L
127.924 466.335 L
129.01 466.915 L
129.193 467.051 L
S
GR
GS
[0.75 0 0 0.74971 0 0.39999] CT
0 0.447 0.741 RC
1 LJ
2.667 LW
N
137.586 467.051 M
137.698 466.781 L
138.784 462.696 L
139.87 457.092 L
140.956 450.088 L
142.042 441.974 L
143.128 433.188 L
144.214 424.269 L
145.3 415.785 L
146.386 408.257 L
147.472 402.087 L
148.558 397.503 L
149.644 394.543 L
150.73 393.061 L
151.816 392.769 L
152.902 393.298 L
153.988 394.261 L
155.074 395.317 L
156.16 396.21 L
157.246 396.791 L
158.332 397.014 L
159.418 396.921 L
160.504 396.603 L
161.59 396.176 L
162.676 395.749 L
163.762 395.402 L
164.848 395.182 L
165.934 395.101 L
167.02 395.141 L
168.106 395.267 L
169.192 395.437 L
170.278 395.611 L
171.364 395.758 L
172.45 395.858 L
173.536 395.904 L
174.622 395.9 L
175.708 395.856 L
176.794 395.788 L
177.88 395.714 L
178.966 395.646 L
180.052 395.597 L
181.138 395.571 L
182.224 395.568 L
183.31 395.586 L
184.396 395.615 L
185.482 395.648 L
186.568 395.677 L
187.654 395.697 L
188.74 395.704 L
189.826 395.7 L
190.912 395.689 L
191.998 395.675 L
193.084 395.662 L
194.17 395.655 L
195.256 395.655 L
196.342 395.66 L
197.428 395.668 L
198.514 395.675 L
199.6 395.677 L
200.686 395.673 L
201.772 395.662 L
202.858 395.646 L
203.944 395.629 L
205.03 395.616 L
206.116 395.611 L
207.202 395.616 L
208.288 395.634 L
209.374 395.661 L
210.46 395.697 L
211.546 395.734 L
212.632 395.768 L
213.718 395.792 L
214.804 395.802 L
215.89 395.793 L
216.976 395.764 L
218.062 395.715 L
219.148 395.65 L
220.234 395.577 L
221.32 395.504 L
222.406 395.444 L
223.492 395.409 L
224.578 395.408 L
225.664 395.447 L
226.75 395.528 L
227.836 395.646 L
228.922 395.789 L
230.008 395.945 L
231.094 396.098 L
232.18 396.237 L
233.266 396.358 L
234.352 396.464 L
235.438 396.569 L
236.524 396.695 L
237.61 396.868 L
238.696 397.116 L
239.782 397.467 L
240.868 397.938 L
241.954 398.541 L
243.04 399.278 L
244.126 400.142 L
245.212 401.121 L
246.298 402.2 L
247.384 403.363 L
248.47 404.597 L
249.556 405.892 L
250.642 407.241 L
251.728 408.639 L
252.814 410.084 L
253.9 411.571 L
254.986 413.09 L
256.072 414.627 L
257.158 416.165 L
258.244 417.681 L
259.33 419.148 L
260.416 420.543 L
261.502 421.843 L
262.588 423.034 L
263.674 424.108 L
264.76 425.066 L
265.846 425.916 L
266.932 426.673 L
268.018 427.352 L
269.104 427.97 L
270.19 428.537 L
271.276 429.061 L
272.362 429.541 L
273.448 429.974 L
274.534 430.354 L
275.62 430.673 L
276.706 430.928 L
277.792 431.117 L
278.878 431.246 L
279.964 431.322 L
281.05 431.358 L
282.136 431.366 L
283.222 431.359 L
284.308 431.345 L
285.394 431.334 L
286.48 431.328 L
287.566 431.327 L
288.652 431.332 L
289.738 431.34 L
290.824 431.347 L
291.91 431.353 L
292.996 431.357 L
294.082 431.357 L
295.168 431.356 L
296.254 431.353 L
297.34 431.35 L
298.426 431.348 L
299.512 431.347 L
300.598 431.346 L
301.684 431.344 L
302.77 431.342 L
303.856 431.34 L
304.942 431.336 L
306.028 431.331 L
307.114 431.326 L
308.2 431.322 L
309.286 431.319 L
310.372 431.317 L
311.458 431.317 L
312.544 431.32 L
313.63 431.324 L
314.716 431.329 L
315.802 431.336 L
316.888 431.342 L
317.974 431.349 L
319.06 431.355 L
320.146 431.362 L
321.232 431.368 L
322.318 431.375 L
323.404 431.382 L
324.49 431.392 L
325.576 431.403 L
326.662 431.416 L
327.748 431.431 L
328.834 431.448 L
329.92 431.466 L
331.006 431.488 L
332.092 431.511 L
333.178 431.539 L
334.264 431.57 L
335.35 431.607 L
336.436 431.649 L
337.522 431.698 L
338.608 431.753 L
339.694 431.815 L
340.78 431.882 L
341.866 431.953 L
342.952 432.027 L
344.038 432.102 L
345.124 432.176 L
346.21 432.247 L
347.296 432.312 L
348.382 432.368 L
349.468 432.412 L
350.554 432.44 L
351.64 432.45 L
352.726 432.438 L
353.812 432.401 L
354.898 432.338 L
355.984 432.249 L
357.07 432.132 L
358.156 431.991 L
359.242 431.825 L
360.328 431.639 L
361.414 431.433 L
362.5 431.21 L
363.586 430.971 L
364.672 430.718 L
365.758 430.449 L
366.844 430.168 L
367.93 429.873 L
369.016 429.566 L
370.102 429.248 L
371.188 428.918 L
372.274 428.578 L
373.36 428.229 L
374.446 427.871 L
375.532 427.507 L
376.618 427.14 L
377.704 426.774 L
378.79 426.414 L
379.876 426.066 L
380.962 425.735 L
382.048 425.427 L
383.134 425.144 L
384.22 424.889 L
385.306 424.661 L
386.392 424.459 L
387.478 424.279 L
388.564 424.118 L
389.65 423.972 L
390.736 423.84 L
391.822 423.717 L
392.908 423.603 L
393.994 423.497 L
395.08 423.396 L
396.166 423.301 L
397.252 423.211 L
398.338 423.126 L
399.424 423.044 L
400.51 422.966 L
401.596 422.893 L
402.682 422.825 L
403.768 422.763 L
404.854 422.706 L
405.94 422.654 L
407.026 422.608 L
408.112 422.566 L
409.198 422.528 L
410.284 422.494 L
411.37 422.462 L
412.456 422.434 L
413.542 422.41 L
414.628 422.387 L
415.714 422.367 L
416.8 422.345 L
417.886 422.321 L
418.972 422.291 L
420.058 422.251 L
421.144 422.202 L
422.23 422.14 L
423.316 422.068 L
424.402 421.987 L
425.488 421.9 L
426.574 421.809 L
427.66 421.716 L
428.746 421.622 L
429.832 421.524 L
430.918 421.419 L
432.004 421.3 L
433.09 421.162 L
434.176 420.997 L
435.262 420.801 L
436.348 420.57 L
437.434 420.3 L
438.52 419.991 L
439.606 419.642 L
440.692 419.256 L
441.778 418.832 L
442.864 418.372 L
443.95 417.878 L
445.036 417.352 L
446.122 416.797 L
447.208 416.218 L
448.294 415.62 L
449.38 415.01 L
450.466 414.395 L
451.552 413.781 L
452.638 413.172 L
453.724 412.57 L
454.81 411.973 L
455.896 411.376 L
456.982 410.771 L
458.068 410.145 L
459.154 409.484 L
460.24 408.776 L
461.326 408.006 L
462.412 407.165 L
463.498 406.245 L
464.584 405.248 L
465.67 404.179 L
466.756 403.05 L
467.842 401.878 L
468.928 400.686 L
470.014 399.492 L
471.1 398.317 L
472.186 397.175 L
473.272 396.073 L
474.358 395.013 L
475.444 393.989 L
476.53 392.994 L
477.616 392.018 L
478.702 391.057 L
479.788 390.108 L
480.874 389.174 L
481.96 388.266 L
483.046 387.394 L
484.132 386.572 L
485.218 385.81 L
486.304 385.114 L
487.39 384.484 L
488.476 383.915 L
489.562 383.397 L
490.648 382.918 L
491.734 382.465 L
492.82 382.029 L
493.906 381.604 L
494.992 381.188 L
496.078 380.783 L
497.164 380.395 L
498.25 380.031 L
499.336 379.698 L
500.422 379.4 L
501.508 379.14 L
502.594 378.918 L
503.68 378.732 L
504.766 378.579 L
505.852 378.453 L
506.938 378.35 L
508.024 378.264 L
509.11 378.193 L
510.196 378.132 L
511.282 378.081 L
512.368 378.037 L
513.454 378.001 L
514.54 377.972 L
515.626 377.95 L
516.712 377.934 L
517.798 377.923 L
518.884 377.915 L
519.97 377.907 L
521.056 377.896 L
522.142 377.881 L
523.228 377.86 L
524.314 377.836 L
525.4 377.809 L
526.486 377.784 L
527.572 377.763 L
528.658 377.748 L
529.744 377.739 L
530.83 377.735 L
531.916 377.731 L
533.002 377.722 L
534.088 377.7 L
535.174 377.66 L
536.26 377.596 L
537.346 377.506 L
538.432 377.392 L
539.518 377.257 L
540.604 377.107 L
541.69 376.95 L
542.776 376.794 L
543.862 376.645 L
544.948 376.503 L
546.034 376.366 L
547.12 376.218 L
548.206 376.039 L
549.292 375.799 L
550.378 375.459 L
551.464 374.981 L
552.55 374.33 L
553.636 373.48 L
554.722 372.423 L
555.808 371.173 L
556.894 369.769 L
557.98 368.274 L
559.066 366.763 L
560.152 365.312 L
561.238 363.981 L
562.324 362.792 L
563.41 361.715 L
564.496 360.659 L
565.582 359.476 L
566.668 357.985 L
567.754 356.003 L
568.84 353.396 L
569.926 350.13 L
571.012 346.319 L
572.098 342.252 L
573.184 338.389 L
574.27 335.333 L
575.356 333.755 L
576.442 334.304 L
577.528 337.507 L
578.614 343.67 L
579.7 352.816 L
580.786 364.658 L
581.872 378.62 L
582.958 393.907 L
584.044 409.599 L
585.13 424.771 L
586.216 438.596 L
587.302 450.437 L
588.388 459.9 L
589.474 466.846 L
589.523 467.051 L
S
GR
GS
[0.75 0 0 0.74971 0 0.39999] CT
0 0.447 0.741 RC
1 LJ
2.667 LW
N
598.292 467.051 M
599.248 465.894 L
600.334 464.973 L
601.42 464.443 L
602.506 464.259 L
603.592 464.35 L
604.678 464.635 L
605.764 465.034 L
606.85 465.478 L
607.936 465.913 L
609.022 466.302 L
610.108 466.622 L
611.194 466.865 L
612.28 467.032 L
612.488 467.051 L
S
GR
GS
[0.75 0 0 0.74971 0 0.39999] CT
0 0.447 0.741 RC
1 LJ
2.667 LW
N
619.656 467.051 M
619.882 467.043 L
620.968 467.008 L
622.054 466.982 L
623.14 466.964 L
624.226 466.954 L
625.312 466.951 L
626.398 466.952 L
627.484 466.957 L
628.57 466.963 L
629.656 466.97 L
630.742 466.977 L
631.828 466.983 L
632.914 466.988 L
634 466.993 L
634.065 466.993 L
S
GR
GS
[0.75 0 0 0.74971 0 0.39999] CT
0.851 0.325 0.098 RC
1 LJ
2.667 LW
N
90.935 466.999 M
91 466.999 L
92.086 466.998 L
93.172 466.997 L
94.258 466.996 L
95.344 466.995 L
96.43 466.994 L
97.516 466.993 L
98.602 466.992 L
99.688 466.992 L
100.774 466.992 L
101.86 466.994 L
102.946 466.997 L
104.032 467.003 L
105.118 467.009 L
106.204 467.017 L
107.29 467.026 L
108.376 467.033 L
109.462 467.038 L
110.548 467.039 L
111.634 467.031 L
112.72 467.014 L
113.806 466.983 L
114.892 466.936 L
115.978 466.873 L
117.064 466.794 L
118.15 466.703 L
119.236 466.604 L
120.322 466.51 L
121.408 466.433 L
122.494 466.39 L
123.58 466.4 L
124.666 466.483 L
125.752 466.653 L
126.838 466.92 L
127.236 467.051 L
S
GR
GS
[0.75 0 0 0.74971 0 0.39999] CT
0.851 0.325 0.098 RC
1 LJ
2.667 LW
N
136.095 467.051 M
136.612 466.385 L
137.698 464.328 L
138.784 461.596 L
139.87 458.237 L
140.956 454.366 L
142.042 450.158 L
143.128 445.832 L
144.214 441.627 L
145.3 437.771 L
146.386 434.453 L
147.472 431.799 L
148.558 429.86 L
149.644 428.605 L
150.73 427.94 L
151.816 427.719 L
152.902 427.779 L
153.988 427.958 L
155.074 428.122 L
156.16 428.178 L
157.246 428.077 L
158.332 427.815 L
159.418 427.419 L
160.504 426.939 L
161.59 426.428 L
162.676 425.937 L
163.762 425.502 L
164.848 425.143 L
165.934 424.866 L
167.02 424.661 L
168.106 424.51 L
169.192 424.393 L
170.278 424.291 L
171.364 424.189 L
172.45 424.079 L
173.536 423.957 L
174.622 423.824 L
175.708 423.686 L
176.794 423.548 L
177.88 423.415 L
178.966 423.29 L
180.052 423.177 L
181.138 423.076 L
182.224 422.986 L
183.31 422.906 L
184.396 422.835 L
185.482 422.772 L
186.568 422.718 L
187.654 422.672 L
188.74 422.634 L
189.826 422.602 L
190.912 422.576 L
191.998 422.552 L
193.084 422.529 L
194.17 422.505 L
195.256 422.478 L
196.342 422.449 L
197.428 422.418 L
198.514 422.387 L
199.6 422.357 L
200.686 422.33 L
201.772 422.305 L
202.858 422.281 L
203.944 422.254 L
205.03 422.221 L
206.116 422.178 L
207.202 422.12 L
208.288 422.047 L
209.374 421.958 L
210.46 421.855 L
211.546 421.741 L
212.632 421.617 L
213.718 421.487 L
214.804 421.351 L
215.89 421.206 L
216.976 421.047 L
218.062 420.87 L
219.148 420.668 L
220.234 420.435 L
221.32 420.167 L
222.406 419.861 L
223.492 419.518 L
224.578 419.139 L
225.664 418.728 L
226.75 418.287 L
227.836 417.819 L
228.922 417.325 L
230.008 416.804 L
231.094 416.255 L
232.18 415.676 L
233.266 415.066 L
234.352 414.425 L
235.438 413.753 L
236.524 413.051 L
237.61 412.322 L
238.696 411.567 L
239.782 410.785 L
240.868 409.975 L
241.954 409.132 L
243.04 408.251 L
244.126 407.326 L
245.212 406.354 L
246.298 405.336 L
247.384 404.274 L
248.47 403.178 L
249.556 402.061 L
250.642 400.938 L
251.728 399.824 L
252.814 398.73 L
253.9 397.665 L
254.986 396.63 L
256.072 395.619 L
257.158 394.625 L
258.244 393.637 L
259.33 392.647 L
260.416 391.65 L
261.502 390.649 L
262.588 389.651 L
263.674 388.669 L
264.76 387.72 L
265.846 386.817 L
266.932 385.974 L
268.018 385.199 L
269.104 384.493 L
270.19 383.853 L
271.276 383.274 L
272.362 382.745 L
273.448 382.259 L
274.534 381.807 L
275.62 381.386 L
276.706 380.992 L
277.792 380.624 L
278.878 380.282 L
279.964 379.968 L
281.05 379.683 L
282.136 379.429 L
283.222 379.206 L
284.308 379.013 L
285.394 378.848 L
286.48 378.71 L
287.566 378.593 L
288.652 378.495 L
289.738 378.409 L
290.824 378.333 L
291.91 378.263 L
292.996 378.197 L
294.082 378.135 L
295.168 378.078 L
296.254 378.027 L
297.34 377.984 L
298.426 377.948 L
299.512 377.92 L
300.598 377.899 L
301.684 377.882 L
302.77 377.868 L
303.856 377.854 L
304.942 377.838 L
306.028 377.821 L
307.114 377.802 L
308.2 377.784 L
309.286 377.767 L
310.372 377.752 L
311.458 377.738 L
312.544 377.725 L
313.63 377.708 L
314.716 377.685 L
315.802 377.651 L
316.888 377.602 L
317.974 377.534 L
319.06 377.446 L
320.146 377.333 L
321.232 377.196 L
322.318 377.034 L
323.404 376.845 L
324.49 376.631 L
325.576 376.394 L
326.662 376.135 L
327.748 375.858 L
328.834 375.567 L
329.92 375.265 L
331.006 374.953 L
332.092 374.628 L
333.178 374.286 L
334.264 373.916 L
335.35 373.506 L
336.436 373.041 L
337.522 372.503 L
338.608 371.877 L
339.694 371.148 L
340.78 370.305 L
341.866 369.338 L
342.952 368.241 L
344.038 367.006 L
345.124 365.628 L
346.21 364.102 L
347.296 362.422 L
348.382 360.581 L
349.468 358.578 L
350.554 356.413 L
351.64 354.092 L
352.726 351.627 L
353.812 349.04 L
354.898 346.354 L
355.984 343.6 L
357.07 340.804 L
358.156 337.992 L
359.242 335.182 L
360.328 332.387 L
361.414 329.612 L
362.5 326.864 L
363.586 324.146 L
364.672 321.471 L
365.758 318.856 L
366.844 316.324 L
367.93 313.902 L
369.016 311.616 L
370.102 309.484 L
371.188 307.513 L
372.274 305.701 L
373.36 304.036 L
374.446 302.499 L
375.532 301.071 L
376.618 299.735 L
377.704 298.483 L
378.79 297.31 L
379.876 296.219 L
380.962 295.214 L
382.048 294.299 L
383.134 293.472 L
384.22 292.729 L
385.306 292.064 L
386.392 291.466 L
387.478 290.929 L
388.564 290.447 L
389.65 290.02 L
390.736 289.648 L
391.822 289.334 L
392.908 289.079 L
393.994 288.884 L
395.08 288.743 L
396.166 288.647 L
397.252 288.588 L
398.338 288.555 L
399.424 288.536 L
400.51 288.525 L
401.596 288.518 L
402.682 288.511 L
403.768 288.507 L
404.854 288.506 L
405.94 288.51 L
407.026 288.519 L
408.112 288.533 L
409.198 288.551 L
410.284 288.57 L
411.37 288.589 L
412.456 288.604 L
413.542 288.616 L
414.628 288.622 L
415.714 288.623 L
416.8 288.622 L
417.886 288.619 L
418.972 288.617 L
420.058 288.62 L
421.144 288.628 L
422.23 288.643 L
423.316 288.664 L
424.402 288.688 L
425.488 288.712 L
426.574 288.732 L
427.66 288.745 L
428.746 288.747 L
429.832 288.738 L
430.918 288.716 L
432.004 288.684 L
433.09 288.64 L
434.176 288.581 L
435.262 288.505 L
436.348 288.402 L
437.434 288.263 L
438.52 288.078 L
439.606 287.836 L
440.692 287.529 L
441.778 287.15 L
442.864 286.699 L
443.95 286.174 L
445.036 285.577 L
446.122 284.904 L
447.208 284.142 L
448.294 283.27 L
449.38 282.249 L
450.466 281.024 L
451.552 279.53 L
452.638 277.693 L
453.724 275.439 L
454.81 272.707 L
455.896 269.455 L
456.982 265.663 L
458.068 261.335 L
459.154 256.494 L
460.24 251.169 L
461.326 245.395 L
462.412 239.197 L
463.498 232.598 L
464.584 225.619 L
465.67 218.291 L
466.756 210.667 L
467.842 202.828 L
468.928 194.883 L
470.014 186.963 L
471.1 179.204 L
472.186 171.731 L
473.272 164.642 L
474.358 157.998 L
475.444 151.821 L
476.53 146.108 L
477.616 140.837 L
478.702 135.991 L
479.788 131.559 L
480.874 127.547 L
481.96 123.972 L
483.046 120.855 L
484.132 118.205 L
485.218 116.019 L
486.304 114.27 L
487.39 112.913 L
488.476 111.893 L
489.562 111.148 L
490.648 110.621 L
491.734 110.266 L
492.82 110.045 L
493.906 109.927 L
494.992 109.889 L
496.078 109.906 L
497.164 109.954 L
498.25 110.014 L
499.336 110.066 L
500.422 110.1 L
501.508 110.112 L
502.594 110.107 L
503.68 110.093 L
504.766 110.079 L
505.852 110.07 L
506.938 110.068 L
508.024 110.068 L
509.11 110.065 L
510.196 110.056 L
511.282 110.04 L
512.368 110.023 L
513.454 110.017 L
514.54 110.032 L
515.626 110.077 L
516.712 110.152 L
517.798 110.248 L
518.884 110.351 L
519.97 110.438 L
521.056 110.491 L
522.142 110.496 L
523.228 110.45 L
524.314 110.364 L
525.4 110.259 L
526.486 110.159 L
527.572 110.091 L
528.658 110.074 L
529.744 110.116 L
530.83 110.212 L
531.916 110.341 L
533.002 110.476 L
534.088 110.584 L
535.174 110.639 L
536.26 110.621 L
537.346 110.527 L
538.432 110.369 L
539.518 110.172 L
540.604 109.973 L
541.69 109.812 L
542.776 109.729 L
543.862 109.753 L
544.948 109.9 L
546.034 110.165 L
547.12 110.522 L
548.206 110.922 L
549.292 111.296 L
550.378 111.564 L
551.464 111.644 L
552.55 111.474 L
553.636 111.025 L
554.722 110.323 L
555.808 109.46 L
556.894 108.593 L
557.98 107.925 L
559.066 107.679 L
560.152 108.037 L
561.238 109.087 L
562.324 110.765 L
563.41 112.823 L
564.496 114.832 L
565.582 116.232 L
566.668 116.44 L
567.754 114.994 L
568.84 111.723 L
569.926 106.892 L
571.012 101.295 L
572.098 96.254 L
573.184 93.509 L
574.27 94.996 L
575.356 102.546 L
576.442 117.56 L
577.528 140.716 L
578.614 171.78 L
579.7 209.566 L
580.786 252.048 L
581.872 296.628 L
582.958 340.488 L
584.044 380.971 L
585.13 415.926 L
586.216 443.935 L
587.302 464.423 L
587.518 467.051 L
S
GR
GS
[0.75 0 0 0.74971 0 0.39999] CT
0.851 0.325 0.098 RC
1 LJ
2.667 LW
N
595.938 467.051 M
595.99 466.864 L
597.076 464.054 L
598.162 462.385 L
599.248 461.732 L
600.334 461.864 L
601.42 462.519 L
602.506 463.448 L
603.592 464.448 L
604.678 465.372 L
605.764 466.134 L
606.85 466.7 L
607.877 467.051 L
S
GR
GS
[0.75 0 0 0.74971 0 0.39999] CT
0.851 0.325 0.098 RC
1 LJ
2.667 LW
N
614.963 467.051 M
615.538 467.011 L
616.624 466.956 L
617.71 466.922 L
618.796 466.906 L
619.882 466.905 L
620.968 466.913 L
622.054 466.926 L
623.14 466.942 L
624.226 466.957 L
625.312 466.97 L
626.398 466.981 L
627.484 466.989 L
628.57 466.994 L
629.656 466.997 L
630.742 466.998 L
631.828 466.999 L
632.914 466.999 L
634 466.999 L
634.065 466.999 L
S
GR
GS
[0.75 0 0 0.74971 0 0.39999] CT
0.775 GC
[1 3] 0 setdash
2 LJ
0.667 LW
N
112.72 467 M
112.72 39 L
S
GR
GS
[0.75 0 0 0.74971 0 0.39999] CT
0.775 GC
[1 3] 0 setdash
2 LJ
0.667 LW
N
134.44 467 M
134.44 39 L
S
GR
GS
[0.75 0 0 0.74971 0 0.39999] CT
0.775 GC
[1 3] 0 setdash
2 LJ
0.667 LW
N
156.16 467 M
156.16 39 L
S
GR
GS
[0.75 0 0 0.74971 0 0.39999] CT
0.775 GC
[1 3] 0 setdash
2 LJ
0.667 LW
N
177.88 467 M
177.88 39 L
S
GR
GS
[0.75 0 0 0.74971 0 0.39999] CT
0.775 GC
[1 3] 0 setdash
2 LJ
0.667 LW
N
221.32 467 M
221.32 39 L
S
GR
GS
[0.75 0 0 0.74971 0 0.39999] CT
0.775 GC
[1 3] 0 setdash
2 LJ
0.667 LW
N
243.04 467 M
243.04 39 L
S
GR
GS
[0.75 0 0 0.74971 0 0.39999] CT
0.775 GC
[1 3] 0 setdash
2 LJ
0.667 LW
N
264.76 467 M
264.76 39 L
S
GR
GS
[0.75 0 0 0.74971 0 0.39999] CT
0.775 GC
[1 3] 0 setdash
2 LJ
0.667 LW
N
286.48 467 M
286.48 39 L
S
GR
GS
[0.75 0 0 0.74971 0 0.39999] CT
0.775 GC
[1 3] 0 setdash
2 LJ
0.667 LW
N
329.92 467 M
329.92 39 L
S
GR
GS
[0.75 0 0 0.74971 0 0.39999] CT
0.775 GC
[1 3] 0 setdash
2 LJ
0.667 LW
N
351.64 467 M
351.64 39 L
S
GR
GS
[0.75 0 0 0.74971 0 0.39999] CT
0.775 GC
[1 3] 0 setdash
2 LJ
0.667 LW
N
373.36 467 M
373.36 39 L
S
GR
GS
[0.75 0 0 0.74971 0 0.39999] CT
0.775 GC
[1 3] 0 setdash
2 LJ
0.667 LW
N
395.08 467 M
395.08 39 L
S
GR
GS
[0.75 0 0 0.74971 0 0.39999] CT
0.775 GC
[1 3] 0 setdash
2 LJ
0.667 LW
N
438.52 467 M
438.52 39 L
S
GR
GS
[0.75 0 0 0.74971 0 0.39999] CT
0.775 GC
[1 3] 0 setdash
2 LJ
0.667 LW
N
460.24 467 M
460.24 39 L
S
GR
GS
[0.75 0 0 0.74971 0 0.39999] CT
0.775 GC
[1 3] 0 setdash
2 LJ
0.667 LW
N
481.96 467 M
481.96 39 L
S
GR
GS
[0.75 0 0 0.74971 0 0.39999] CT
0.775 GC
[1 3] 0 setdash
2 LJ
0.667 LW
N
503.68 467 M
503.68 39 L
S
GR
GS
[0.75 0 0 0.74971 0 0.39999] CT
0.775 GC
[1 3] 0 setdash
2 LJ
0.667 LW
N
547.12 467 M
547.12 39 L
S
GR
GS
[0.75 0 0 0.74971 0 0.39999] CT
0.775 GC
[1 3] 0 setdash
2 LJ
0.667 LW
N
568.84 467 M
568.84 39 L
S
GR
GS
[0.75 0 0 0.74971 0 0.39999] CT
0.775 GC
[1 3] 0 setdash
2 LJ
0.667 LW
N
590.56 467 M
590.56 39 L
S
GR
GS
[0.75 0 0 0.74971 0 0.39999] CT
0.775 GC
[1 3] 0 setdash
2 LJ
0.667 LW
N
612.28 467 M
612.28 39 L
S
GR
GS
[0.75 0 0 0.74971 0 0.39999] CT
0.873 GC
[1 3] 0 setdash
2 LJ
0.667 LW
N
91 467 M
91 39 L
S
GR
GS
[0.75 0 0 0.74971 0 0.39999] CT
0.873 GC
[1 3] 0 setdash
2 LJ
0.667 LW
N
199.6 467 M
199.6 39 L
S
GR
GS
[0.75 0 0 0.74971 0 0.39999] CT
0.873 GC
[1 3] 0 setdash
2 LJ
0.667 LW
N
308.2 467 M
308.2 39 L
S
GR
GS
[0.75 0 0 0.74971 0 0.39999] CT
0.873 GC
[1 3] 0 setdash
2 LJ
0.667 LW
N
416.8 467 M
416.8 39 L
S
GR
GS
[0.75 0 0 0.74971 0 0.39999] CT
0.873 GC
[1 3] 0 setdash
2 LJ
0.667 LW
N
525.4 467 M
525.4 39 L
S
GR
GS
[0.75 0 0 0.74971 0 0.39999] CT
0.873 GC
[1 3] 0 setdash
2 LJ
0.667 LW
N
634 467 M
634 39 L
S
GR
GS
[0.75 0 0 0.74971 0 0.39999] CT
0.775 GC
[1 3] 0 setdash
2 LJ
0.667 LW
N
634 452.733 M
91 452.733 L
S
GR
GS
[0.75 0 0 0.74971 0 0.39999] CT
0.775 GC
[1 3] 0 setdash
2 LJ
0.667 LW
N
634 438.467 M
91 438.467 L
S
GR
GS
[0.75 0 0 0.74971 0 0.39999] CT
0.775 GC
[1 3] 0 setdash
2 LJ
0.667 LW
N
634 424.2 M
91 424.2 L
S
GR
GS
[0.75 0 0 0.74971 0 0.39999] CT
0.775 GC
[1 3] 0 setdash
2 LJ
0.667 LW
N
634 409.933 M
91 409.933 L
S
GR
GS
[0.75 0 0 0.74971 0 0.39999] CT
0.775 GC
[1 3] 0 setdash
2 LJ
0.667 LW
N
634 381.4 M
91 381.4 L
S
GR
GS
[0.75 0 0 0.74971 0 0.39999] CT
0.775 GC
[1 3] 0 setdash
2 LJ
0.667 LW
N
634 367.133 M
91 367.133 L
S
GR
GS
[0.75 0 0 0.74971 0 0.39999] CT
0.775 GC
[1 3] 0 setdash
2 LJ
0.667 LW
N
634 352.867 M
91 352.867 L
S
GR
GS
[0.75 0 0 0.74971 0 0.39999] CT
0.775 GC
[1 3] 0 setdash
2 LJ
0.667 LW
N
634 338.6 M
91 338.6 L
S
GR
GS
[0.75 0 0 0.74971 0 0.39999] CT
0.775 GC
[1 3] 0 setdash
2 LJ
0.667 LW
N
634 310.067 M
91 310.067 L
S
GR
GS
[0.75 0 0 0.74971 0 0.39999] CT
0.775 GC
[1 3] 0 setdash
2 LJ
0.667 LW
N
634 295.8 M
91 295.8 L
S
GR
GS
[0.75 0 0 0.74971 0 0.39999] CT
0.775 GC
[1 3] 0 setdash
2 LJ
0.667 LW
N
634 281.533 M
91 281.533 L
S
GR
GS
[0.75 0 0 0.74971 0 0.39999] CT
0.775 GC
[1 3] 0 setdash
2 LJ
0.667 LW
N
634 267.267 M
91 267.267 L
S
GR
GS
[0.75 0 0 0.74971 0 0.39999] CT
0.775 GC
[1 3] 0 setdash
2 LJ
0.667 LW
N
634 238.733 M
91 238.733 L
S
GR
GS
[0.75 0 0 0.74971 0 0.39999] CT
0.775 GC
[1 3] 0 setdash
2 LJ
0.667 LW
N
634 224.467 M
91 224.467 L
S
GR
GS
[0.75 0 0 0.74971 0 0.39999] CT
0.775 GC
[1 3] 0 setdash
2 LJ
0.667 LW
N
634 210.2 M
91 210.2 L
S
GR
GS
[0.75 0 0 0.74971 0 0.39999] CT
0.775 GC
[1 3] 0 setdash
2 LJ
0.667 LW
N
634 195.933 M
91 195.933 L
S
GR
GS
[0.75 0 0 0.74971 0 0.39999] CT
0.775 GC
[1 3] 0 setdash
2 LJ
0.667 LW
N
634 167.4 M
91 167.4 L
S
GR
GS
[0.75 0 0 0.74971 0 0.39999] CT
0.775 GC
[1 3] 0 setdash
2 LJ
0.667 LW
N
634 153.133 M
91 153.133 L
S
GR
GS
[0.75 0 0 0.74971 0 0.39999] CT
0.775 GC
[1 3] 0 setdash
2 LJ
0.667 LW
N
634 138.867 M
91 138.867 L
S
GR
GS
[0.75 0 0 0.74971 0 0.39999] CT
0.775 GC
[1 3] 0 setdash
2 LJ
0.667 LW
N
634 124.6 M
91 124.6 L
S
GR
GS
[0.75 0 0 0.74971 0 0.39999] CT
0.775 GC
[1 3] 0 setdash
2 LJ
0.667 LW
N
634 96.067 M
91 96.067 L
S
GR
GS
[0.75 0 0 0.74971 0 0.39999] CT
0.775 GC
[1 3] 0 setdash
2 LJ
0.667 LW
N
634 81.8 M
91 81.8 L
S
GR
GS
[0.75 0 0 0.74971 0 0.39999] CT
0.775 GC
[1 3] 0 setdash
2 LJ
0.667 LW
N
634 67.533 M
91 67.533 L
S
GR
GS
[0.75 0 0 0.74971 0 0.39999] CT
0.775 GC
[1 3] 0 setdash
2 LJ
0.667 LW
N
634 53.267 M
91 53.267 L
S
GR
GS
[0.75 0 0 0.74971 0 0.39999] CT
0.873 GC
[1 3] 0 setdash
2 LJ
0.667 LW
N
634 467 M
91 467 L
S
GR
GS
[0.75 0 0 0.74971 0 0.39999] CT
0.873 GC
[1 3] 0 setdash
2 LJ
0.667 LW
N
634 395.667 M
91 395.667 L
S
GR
GS
[0.75 0 0 0.74971 0 0.39999] CT
0.873 GC
[1 3] 0 setdash
2 LJ
0.667 LW
N
634 324.333 M
91 324.333 L
S
GR
GS
[0.75 0 0 0.74971 0 0.39999] CT
0.873 GC
[1 3] 0 setdash
2 LJ
0.667 LW
N
634 253 M
91 253 L
S
GR
GS
[0.75 0 0 0.74971 0 0.39999] CT
0.873 GC
[1 3] 0 setdash
2 LJ
0.667 LW
N
634 181.667 M
91 181.667 L
S
GR
GS
[0.75 0 0 0.74971 0 0.39999] CT
0.873 GC
[1 3] 0 setdash
2 LJ
0.667 LW
N
634 110.333 M
91 110.333 L
S
GR
GS
[0.75 0 0 0.74971 0 0.39999] CT
0.873 GC
[1 3] 0 setdash
2 LJ
0.667 LW
N
634 39 M
91 39 L
S
GR
GS
[0.75 0 0 0.74971 0 0.39999] CT
0.149 GC
2 setlinecap
1 LJ
0.667 LW
N
91 467 M
634 467 L
S
GR
GS
[0.75 0 0 0.74971 0 0.39999] CT
0.149 GC
2 setlinecap
1 LJ
0.667 LW
N
91 467 M
91 461.57 L
S
GR
GS
[0.75 0 0 0.74971 0 0.39999] CT
0.149 GC
2 setlinecap
1 LJ
0.667 LW
N
199.6 467 M
199.6 461.57 L
S
GR
GS
[0.75 0 0 0.74971 0 0.39999] CT
0.149 GC
2 setlinecap
1 LJ
0.667 LW
N
308.2 467 M
308.2 461.57 L
S
GR
GS
[0.75 0 0 0.74971 0 0.39999] CT
0.149 GC
2 setlinecap
1 LJ
0.667 LW
N
416.8 467 M
416.8 461.57 L
S
GR
GS
[0.75 0 0 0.74971 0 0.39999] CT
0.149 GC
2 setlinecap
1 LJ
0.667 LW
N
525.4 467 M
525.4 461.57 L
S
GR
GS
[0.75 0 0 0.74971 0 0.39999] CT
0.149 GC
2 setlinecap
1 LJ
0.667 LW
N
634 467 M
634 461.57 L
S
GR
GS
[0.75 0 0 0.74971 68.25 355.51466] CT
0.149 GC
/Helvetica 20 F
GS
[1 0 0 1 0 0] CT
-6 21 moveto 
1 -1 scale
(1) t 
GR
GR
GS
[0.75 0 0 0.74971 149.7 355.51466] CT
0.149 GC
/Helvetica 20 F
GS
[1 0 0 1 0 0] CT
-6 21 moveto 
1 -1 scale
(2) t 
GR
GR
GS
[0.75 0 0 0.74971 231.15001 355.51466] CT
0.149 GC
/Helvetica 20 F
GS
[1 0 0 1 0 0] CT
-6 21 moveto 
1 -1 scale
(3) t 
GR
GR
GS
[0.75 0 0 0.74971 312.59999 355.51466] CT
0.149 GC
/Helvetica 20 F
GS
[1 0 0 1 0 0] CT
-6 21 moveto 
1 -1 scale
(4) t 
GR
GR
GS
[0.75 0 0 0.74971 394.05002 355.51466] CT
0.149 GC
/Helvetica 20 F
GS
[1 0 0 1 0 0] CT
-6 21 moveto 
1 -1 scale
(5) t 
GR
GR
GS
[0.75 0 0 0.74971 475.5 355.51466] CT
0.149 GC
/Helvetica 20 F
GS
[1 0 0 1 0 0] CT
-6 21 moveto 
1 -1 scale
(6) t 
GR
GR
GS
[0.75 0 0 0.74971 0 0.39999] CT
0.149 GC
2 setlinecap
1 LJ
0.667 LW
N
91 467 M
91 39 L
S
GR
GS
[0.75 0 0 0.74971 0 0.39999] CT
0.149 GC
2 setlinecap
1 LJ
0.667 LW
N
91 467 M
96.43 467 L
S
GR
GS
[0.75 0 0 0.74971 0 0.39999] CT
0.149 GC
2 setlinecap
1 LJ
0.667 LW
N
91 395.667 M
96.43 395.667 L
S
GR
GS
[0.75 0 0 0.74971 0 0.39999] CT
0.149 GC
2 setlinecap
1 LJ
0.667 LW
N
91 324.333 M
96.43 324.333 L
S
GR
GS
[0.75 0 0 0.74971 0 0.39999] CT
0.149 GC
2 setlinecap
1 LJ
0.667 LW
N
91 253 M
96.43 253 L
S
GR
GS
[0.75 0 0 0.74971 0 0.39999] CT
0.149 GC
2 setlinecap
1 LJ
0.667 LW
N
91 181.667 M
96.43 181.667 L
S
GR
GS
[0.75 0 0 0.74971 0 0.39999] CT
0.149 GC
2 setlinecap
1 LJ
0.667 LW
N
91 110.333 M
96.43 110.333 L
S
GR
GS
[0.75 0 0 0.74971 0 0.39999] CT
0.149 GC
2 setlinecap
1 LJ
0.667 LW
N
91 39 M
96.43 39 L
S
GR
GS
[0.75 0 0 0.74971 63.25 350.51657] CT
0.149 GC
/Helvetica 20 F
GS
[1 0 0 1 0 0] CT
-12 8 moveto 
1 -1 scale
(0) t 
GR
GR
GS
[0.75 0 0 0.74971 63.25 297.03694] CT
0.149 GC
/Helvetica 20 F
GS
[1 0 0 1 0 0] CT
-12 8 moveto 
1 -1 scale
(1) t 
GR
GR
GS
[0.75 0 0 0.74971 63.25 243.55734] CT
0.149 GC
/Helvetica 20 F
GS
[1 0 0 1 0 0] CT
-12 8 moveto 
1 -1 scale
(2) t 
GR
GR
GS
[0.75 0 0 0.74971 63.25 190.07771] CT
0.149 GC
/Helvetica 20 F
GS
[1 0 0 1 0 0] CT
-12 8 moveto 
1 -1 scale
(3) t 
GR
GR
GS
[0.75 0 0 0.74971 63.25 136.5981] CT
0.149 GC
/Helvetica 20 F
GS
[1 0 0 1 0 0] CT
-12 8 moveto 
1 -1 scale
(4) t 
GR
GR
GS
[0.75 0 0 0.74971 63.25 83.11847] CT
0.149 GC
/Helvetica 20 F
GS
[1 0 0 1 0 0] CT
-12 8 moveto 
1 -1 scale
(5) t 
GR
GR
GS
[0.75 0 0 0.74971 63.25 29.63885] CT
0.149 GC
/Helvetica 20 F
GS
[1 0 0 1 0 0] CT
-12 8 moveto 
1 -1 scale
(6) t 
GR
GR
GS
[0.75 0 0 0.74971 0 0.39999] CT
1 GC
N
191 103 M
191 52 L
104 52 L
104 103 L
cp
f
GR
GS
[0.75 0 0 0.74971 113.25 49.60649] CT
/Helvetica 18 F
GS
[1 0 0 1 0 0] CT
0 7.5 moveto 
1 -1 scale
(left) t 
GR
GR
GS
[0.75 0 0 0.74971 0 0.39999] CT
0 0.447 0.741 RC
1 LJ
2.667 LW
N
108 65.634 M
148 65.634 L
S
GR
GS
[0.75 0 0 0.74971 113.25 67.39921] CT
/Helvetica 18 F
GS
[1 0 0 1 0 0] CT
0 7.5 moveto 
1 -1 scale
(right) t 
GR
GR
GS
[0.75 0 0 0.74971 0 0.39999] CT
0.851 0.325 0.098 RC
1 LJ
2.667 LW
N
108 89.366 M
148 89.366 L
S
GR
GS
[0.75 0 0 0.74971 0 0.39999] CT
0.149 GC
10.0 ML
0.667 LW
N
104 103 M
104 52 L
191 52 L
191 103 L
cp
S
GR
%%Trailer
%%Pages: 1
%%EOF
