%!PS-Adobe-3.0 EPSF-3.0
%%Creator: (MATLAB, The Mathworks, Inc. Version 9.3.0.713579 \(R2017b\). Operating System: Windows 7)
%%Title: fig/RBFN_3_0,1_100000_convergence.eps
%%CreationDate: 2018-05-06T11:39:45
%%Pages: (atend)
%%BoundingBox:    27     3   483   384
%%LanguageLevel: 3
%%EndComments
%%BeginProlog
%%BeginResource: procset (Apache XML Graphics Std ProcSet) 1.2 0
%%Version: 1.2 0
%%Copyright: (Copyright 2001-2003,2010 The Apache Software Foundation. License terms: http://www.apache.org/licenses/LICENSE-2.0)
/bd{bind def}bind def
/ld{load def}bd
/GR/grestore ld
/GS/gsave ld
/RM/rmoveto ld
/C/curveto ld
/t/show ld
/L/lineto ld
/ML/setmiterlimit ld
/CT/concat ld
/f/fill ld
/N/newpath ld
/S/stroke ld
/CC/setcmykcolor ld
/A/ashow ld
/cp/closepath ld
/RC/setrgbcolor ld
/LJ/setlinejoin ld
/GC/setgray ld
/LW/setlinewidth ld
/M/moveto ld
/re {4 2 roll M
1 index 0 rlineto
0 exch rlineto
neg 0 rlineto
cp } bd
/_ctm matrix def
/_tm matrix def
/BT { _ctm currentmatrix pop matrix _tm copy pop 0 0 moveto } bd
/ET { _ctm setmatrix } bd
/iTm { _ctm setmatrix _tm concat } bd
/Tm { _tm astore pop iTm 0 0 moveto } bd
/ux 0.0 def
/uy 0.0 def
/F {
  /Tp exch def
  /Tf exch def
  Tf findfont Tp scalefont setfont
  /cf Tf def  /cs Tp def
} bd
/ULS {currentpoint /uy exch def /ux exch def} bd
/ULE {
  /Tcx currentpoint pop def
  gsave
  newpath
  cf findfont cs scalefont dup
  /FontMatrix get 0 get /Ts exch def /FontInfo get dup
  /UnderlinePosition get Ts mul /To exch def
  /UnderlineThickness get Ts mul /Tt exch def
  ux uy To add moveto  Tcx uy To add lineto
  Tt setlinewidth stroke
  grestore
} bd
/OLE {
  /Tcx currentpoint pop def
  gsave
  newpath
  cf findfont cs scalefont dup
  /FontMatrix get 0 get /Ts exch def /FontInfo get dup
  /UnderlinePosition get Ts mul /To exch def
  /UnderlineThickness get Ts mul /Tt exch def
  ux uy To add cs add moveto Tcx uy To add cs add lineto
  Tt setlinewidth stroke
  grestore
} bd
/SOE {
  /Tcx currentpoint pop def
  gsave
  newpath
  cf findfont cs scalefont dup
  /FontMatrix get 0 get /Ts exch def /FontInfo get dup
  /UnderlinePosition get Ts mul /To exch def
  /UnderlineThickness get Ts mul /Tt exch def
  ux uy To add cs 10 mul 26 idiv add moveto Tcx uy To add cs 10 mul 26 idiv add lineto
  Tt setlinewidth stroke
  grestore
} bd
/QT {
/Y22 exch store
/X22 exch store
/Y21 exch store
/X21 exch store
currentpoint
/Y21 load 2 mul add 3 div exch
/X21 load 2 mul add 3 div exch
/X21 load 2 mul /X22 load add 3 div
/Y21 load 2 mul /Y22 load add 3 div
/X22 load /Y22 load curveto
} bd
/SSPD {
dup length /d exch dict def
{
/v exch def
/k exch def
currentpagedevice k known {
/cpdv currentpagedevice k get def
v cpdv ne {
/upd false def
/nullv v type /nulltype eq def
/nullcpdv cpdv type /nulltype eq def
nullv nullcpdv or
{
/upd true def
} {
/sametype v type cpdv type eq def
sametype {
v type /arraytype eq {
/vlen v length def
/cpdvlen cpdv length def
vlen cpdvlen eq {
0 1 vlen 1 sub {
/i exch def
/obj v i get def
/cpdobj cpdv i get def
obj cpdobj ne {
/upd true def
exit
} if
} for
} {
/upd true def
} ifelse
} {
v type /dicttype eq {
v {
/dv exch def
/dk exch def
/cpddv cpdv dk get def
dv cpddv ne {
/upd true def
exit
} if
} forall
} {
/upd true def
} ifelse
} ifelse
} if
} ifelse
upd true eq {
d k v put
} if
} if
} if
} forall
d length 0 gt {
d setpagedevice
} if
} bd
/RE { % /NewFontName [NewEncodingArray] /FontName RE -
  findfont dup length dict begin
  {
    1 index /FID ne
    {def} {pop pop} ifelse
  } forall
  /Encoding exch def
  /FontName 1 index def
  currentdict definefont pop
  end
} bind def
%%EndResource
%%BeginResource: procset (Apache XML Graphics EPS ProcSet) 1.0 0
%%Version: 1.0 0
%%Copyright: (Copyright 2002-2003 The Apache Software Foundation. License terms: http://www.apache.org/licenses/LICENSE-2.0)
/BeginEPSF { %def
/b4_Inc_state save def         % Save state for cleanup
/dict_count countdictstack def % Count objects on dict stack
/op_count count 1 sub def      % Count objects on operand stack
userdict begin                 % Push userdict on dict stack
/showpage { } def              % Redefine showpage, { } = null proc
0 setgray 0 setlinecap         % Prepare graphics state
1 setlinewidth 0 setlinejoin
10 setmiterlimit [ ] 0 setdash newpath
/languagelevel where           % If level not equal to 1 then
{pop languagelevel             % set strokeadjust and
1 ne                           % overprint to their defaults.
{false setstrokeadjust false setoverprint
} if
} if
} bd
/EndEPSF { %def
count op_count sub {pop} repeat            % Clean up stacks
countdictstack dict_count sub {end} repeat
b4_Inc_state restore
} bd
%%EndResource
%FOPBeginFontDict
%%IncludeResource: font Courier-Oblique
%%IncludeResource: font Courier-BoldOblique
%%IncludeResource: font Courier-Bold
%%IncludeResource: font ZapfDingbats
%%IncludeResource: font Symbol
%%IncludeResource: font Helvetica
%%IncludeResource: font Helvetica-Oblique
%%IncludeResource: font Helvetica-Bold
%%IncludeResource: font Helvetica-BoldOblique
%%IncludeResource: font Times-Roman
%%IncludeResource: font Times-Italic
%%IncludeResource: font Times-Bold
%%IncludeResource: font Times-BoldItalic
%%IncludeResource: font Courier
%FOPEndFontDict
%%BeginResource: encoding WinAnsiEncoding
/WinAnsiEncoding [
/.notdef /.notdef /.notdef /.notdef /.notdef
/.notdef /.notdef /.notdef /.notdef /.notdef
/.notdef /.notdef /.notdef /.notdef /.notdef
/.notdef /.notdef /.notdef /.notdef /.notdef
/.notdef /.notdef /.notdef /.notdef /.notdef
/.notdef /.notdef /.notdef /.notdef /.notdef
/.notdef /.notdef /space /exclam /quotedbl
/numbersign /dollar /percent /ampersand /quotesingle
/parenleft /parenright /asterisk /plus /comma
/hyphen /period /slash /zero /one
/two /three /four /five /six
/seven /eight /nine /colon /semicolon
/less /equal /greater /question /at
/A /B /C /D /E
/F /G /H /I /J
/K /L /M /N /O
/P /Q /R /S /T
/U /V /W /X /Y
/Z /bracketleft /backslash /bracketright /asciicircum
/underscore /quoteleft /a /b /c
/d /e /f /g /h
/i /j /k /l /m
/n /o /p /q /r
/s /t /u /v /w
/x /y /z /braceleft /bar
/braceright /asciitilde /bullet /Euro /bullet
/quotesinglbase /florin /quotedblbase /ellipsis /dagger
/daggerdbl /circumflex /perthousand /Scaron /guilsinglleft
/OE /bullet /Zcaron /bullet /bullet
/quoteleft /quoteright /quotedblleft /quotedblright /bullet
/endash /emdash /asciitilde /trademark /scaron
/guilsinglright /oe /bullet /zcaron /Ydieresis
/space /exclamdown /cent /sterling /currency
/yen /brokenbar /section /dieresis /copyright
/ordfeminine /guillemotleft /logicalnot /sfthyphen /registered
/macron /degree /plusminus /twosuperior /threesuperior
/acute /mu /paragraph /middot /cedilla
/onesuperior /ordmasculine /guillemotright /onequarter /onehalf
/threequarters /questiondown /Agrave /Aacute /Acircumflex
/Atilde /Adieresis /Aring /AE /Ccedilla
/Egrave /Eacute /Ecircumflex /Edieresis /Igrave
/Iacute /Icircumflex /Idieresis /Eth /Ntilde
/Ograve /Oacute /Ocircumflex /Otilde /Odieresis
/multiply /Oslash /Ugrave /Uacute /Ucircumflex
/Udieresis /Yacute /Thorn /germandbls /agrave
/aacute /acircumflex /atilde /adieresis /aring
/ae /ccedilla /egrave /eacute /ecircumflex
/edieresis /igrave /iacute /icircumflex /idieresis
/eth /ntilde /ograve /oacute /ocircumflex
/otilde /odieresis /divide /oslash /ugrave
/uacute /ucircumflex /udieresis /yacute /thorn
/ydieresis
] def
%%EndResource
%FOPBeginFontReencode
/Courier-Oblique findfont
dup length dict begin
  {1 index /FID ne {def} {pop pop} ifelse} forall
  /Encoding WinAnsiEncoding def
  currentdict
end
/Courier-Oblique exch definefont pop
/Courier-BoldOblique findfont
dup length dict begin
  {1 index /FID ne {def} {pop pop} ifelse} forall
  /Encoding WinAnsiEncoding def
  currentdict
end
/Courier-BoldOblique exch definefont pop
/Courier-Bold findfont
dup length dict begin
  {1 index /FID ne {def} {pop pop} ifelse} forall
  /Encoding WinAnsiEncoding def
  currentdict
end
/Courier-Bold exch definefont pop
/Helvetica findfont
dup length dict begin
  {1 index /FID ne {def} {pop pop} ifelse} forall
  /Encoding WinAnsiEncoding def
  currentdict
end
/Helvetica exch definefont pop
/Helvetica-Oblique findfont
dup length dict begin
  {1 index /FID ne {def} {pop pop} ifelse} forall
  /Encoding WinAnsiEncoding def
  currentdict
end
/Helvetica-Oblique exch definefont pop
/Helvetica-Bold findfont
dup length dict begin
  {1 index /FID ne {def} {pop pop} ifelse} forall
  /Encoding WinAnsiEncoding def
  currentdict
end
/Helvetica-Bold exch definefont pop
/Helvetica-BoldOblique findfont
dup length dict begin
  {1 index /FID ne {def} {pop pop} ifelse} forall
  /Encoding WinAnsiEncoding def
  currentdict
end
/Helvetica-BoldOblique exch definefont pop
/Times-Roman findfont
dup length dict begin
  {1 index /FID ne {def} {pop pop} ifelse} forall
  /Encoding WinAnsiEncoding def
  currentdict
end
/Times-Roman exch definefont pop
/Times-Italic findfont
dup length dict begin
  {1 index /FID ne {def} {pop pop} ifelse} forall
  /Encoding WinAnsiEncoding def
  currentdict
end
/Times-Italic exch definefont pop
/Times-Bold findfont
dup length dict begin
  {1 index /FID ne {def} {pop pop} ifelse} forall
  /Encoding WinAnsiEncoding def
  currentdict
end
/Times-Bold exch definefont pop
/Times-BoldItalic findfont
dup length dict begin
  {1 index /FID ne {def} {pop pop} ifelse} forall
  /Encoding WinAnsiEncoding def
  currentdict
end
/Times-BoldItalic exch definefont pop
/Courier findfont
dup length dict begin
  {1 index /FID ne {def} {pop pop} ifelse} forall
  /Encoding WinAnsiEncoding def
  currentdict
end
/Courier exch definefont pop
%FOPEndFontReencode
%%EndProlog
%%Page: 1 1
%%PageBoundingBox: 0 0 525 394
%%BeginPageSetup
[1 0 0 -1 0 394] CT
%%EndPageSetup
GS
[0.75 0 0 0.74971 0 0.39999] CT
N
0 0 M
700 0 L
700 525 L
0 525 L
0 0 L
cp
clip
1 GC
N
0 0 700 525 re
f
GR
GS
[0.75 0 0 0.74971 0 0.39999] CT
1 GC
N
0 0 700 525 re
f
GR
GS
[0.75 0 0 0.74971 0 0.39999] CT
1 GC
N
91 459 M
634 459 L
634 39 L
91 39 L
cp
f
GR
GS
[0.75 0 0 0.74971 0 0.39999] CT
0.873 GC
1 LJ
0.667 LW
N
91 459 M
91 39 L
S
GR
GS
[0.75 0 0 0.74971 0 0.39999] CT
0.873 GC
1 LJ
0.667 LW
N
199.6 459 M
199.6 39 L
S
GR
GS
[0.75 0 0 0.74971 0 0.39999] CT
0.873 GC
1 LJ
0.667 LW
N
308.2 459 M
308.2 39 L
S
GR
GS
[0.75 0 0 0.74971 0 0.39999] CT
0.873 GC
1 LJ
0.667 LW
N
416.8 459 M
416.8 39 L
S
GR
GS
[0.75 0 0 0.74971 0 0.39999] CT
0.873 GC
1 LJ
0.667 LW
N
525.4 459 M
525.4 39 L
S
GR
GS
[0.75 0 0 0.74971 0 0.39999] CT
0.873 GC
1 LJ
0.667 LW
N
634 459 M
634 39 L
S
GR
GS
[0.75 0 0 0.74971 0 0.39999] CT
0.873 GC
1 LJ
0.667 LW
N
634 459 M
91 459 L
S
GR
GS
[0.75 0 0 0.74971 0 0.39999] CT
0.873 GC
1 LJ
0.667 LW
N
634 399 M
91 399 L
S
GR
GS
[0.75 0 0 0.74971 0 0.39999] CT
0.873 GC
1 LJ
0.667 LW
N
634 339 M
91 339 L
S
GR
GS
[0.75 0 0 0.74971 0 0.39999] CT
0.873 GC
1 LJ
0.667 LW
N
634 279 M
91 279 L
S
GR
GS
[0.75 0 0 0.74971 0 0.39999] CT
0.873 GC
1 LJ
0.667 LW
N
634 219 M
91 219 L
S
GR
GS
[0.75 0 0 0.74971 0 0.39999] CT
0.873 GC
1 LJ
0.667 LW
N
634 159 M
91 159 L
S
GR
GS
[0.75 0 0 0.74971 0 0.39999] CT
0.873 GC
1 LJ
0.667 LW
N
634 99 M
91 99 L
S
GR
GS
[0.75 0 0 0.74971 0 0.39999] CT
0.873 GC
1 LJ
0.667 LW
N
634 39 M
91 39 L
S
GR
GS
[0.75 0 0 0.74971 0 0.39999] CT
0.149 GC
2 setlinecap
1 LJ
0.667 LW
N
91 459 M
634 459 L
S
GR
GS
[0.75 0 0 0.74971 0 0.39999] CT
0.149 GC
2 setlinecap
1 LJ
0.667 LW
N
91 39 M
634 39 L
S
GR
GS
[0.75 0 0 0.74971 0 0.39999] CT
0.149 GC
2 setlinecap
1 LJ
0.667 LW
N
91 459 M
91 453.57 L
S
GR
GS
[0.75 0 0 0.74971 0 0.39999] CT
0.149 GC
2 setlinecap
1 LJ
0.667 LW
N
199.6 459 M
199.6 453.57 L
S
GR
GS
[0.75 0 0 0.74971 0 0.39999] CT
0.149 GC
2 setlinecap
1 LJ
0.667 LW
N
308.2 459 M
308.2 453.57 L
S
GR
GS
[0.75 0 0 0.74971 0 0.39999] CT
0.149 GC
2 setlinecap
1 LJ
0.667 LW
N
416.8 459 M
416.8 453.57 L
S
GR
GS
[0.75 0 0 0.74971 0 0.39999] CT
0.149 GC
2 setlinecap
1 LJ
0.667 LW
N
525.4 459 M
525.4 453.57 L
S
GR
GS
[0.75 0 0 0.74971 0 0.39999] CT
0.149 GC
2 setlinecap
1 LJ
0.667 LW
N
634 459 M
634 453.57 L
S
GR
GS
[0.75 0 0 0.74971 0 0.39999] CT
0.149 GC
2 setlinecap
1 LJ
0.667 LW
N
91 39 M
91 44.43 L
S
GR
GS
[0.75 0 0 0.74971 0 0.39999] CT
0.149 GC
2 setlinecap
1 LJ
0.667 LW
N
199.6 39 M
199.6 44.43 L
S
GR
GS
[0.75 0 0 0.74971 0 0.39999] CT
0.149 GC
2 setlinecap
1 LJ
0.667 LW
N
308.2 39 M
308.2 44.43 L
S
GR
GS
[0.75 0 0 0.74971 0 0.39999] CT
0.149 GC
2 setlinecap
1 LJ
0.667 LW
N
416.8 39 M
416.8 44.43 L
S
GR
GS
[0.75 0 0 0.74971 0 0.39999] CT
0.149 GC
2 setlinecap
1 LJ
0.667 LW
N
525.4 39 M
525.4 44.43 L
S
GR
GS
[0.75 0 0 0.74971 0 0.39999] CT
0.149 GC
2 setlinecap
1 LJ
0.667 LW
N
634 39 M
634 44.43 L
S
GR
GS
[0.75 0 0 0.74971 68.25 349.51694] CT
0.149 GC
/Helvetica 20 F
GS
[1 0 0 1 0 0] CT
-6 21 moveto 
1 -1 scale
(0) t 
GR
GR
GS
[0.75 0 0 0.74971 149.7 349.51694] CT
0.149 GC
/Helvetica 20 F
GS
[1 0 0 1 0 0] CT
-6 21 moveto 
1 -1 scale
(2) t 
GR
GR
GS
[0.75 0 0 0.74971 231.15001 349.51694] CT
0.149 GC
/Helvetica 20 F
GS
[1 0 0 1 0 0] CT
-6 21 moveto 
1 -1 scale
(4) t 
GR
GR
GS
[0.75 0 0 0.74971 312.59999 349.51694] CT
0.149 GC
/Helvetica 20 F
GS
[1 0 0 1 0 0] CT
-6 21 moveto 
1 -1 scale
(6) t 
GR
GR
GS
[0.75 0 0 0.74971 394.05002 349.51694] CT
0.149 GC
/Helvetica 20 F
GS
[1 0 0 1 0 0] CT
-6 21 moveto 
1 -1 scale
(8) t 
GR
GR
GS
[0.75 0 0 0.74971 475.5 349.51694] CT
0.149 GC
/Helvetica 20 F
GS
[1 0 0 1 0 0] CT
-11.5 21 moveto 
1 -1 scale
(10) t 
GR
GR
GS
[0.75 0 0 0.74971 271.87518 370.00914] CT
0.149 GC
/Helvetica 22 F
GS
[1 0 0 1 0 0] CT
-48.5 23 moveto 
1 -1 scale
(Itterations) t 
GR
GR
GS
[0.75 0 0 0.74971 439.5 390.25143] CT
0.149 GC
N
2.938 -0.578 M
2.938 -0.734 3.031 -0.859 QT
7.203 -5 L
3.031 -9.156 L
2.938 -9.266 2.938 -9.422 QT
2.938 -9.578 3.055 -9.703 QT
3.172 -9.828 3.344 -9.828 QT
3.484 -9.828 3.641 -9.703 QT
7.781 -5.563 L
11.906 -9.703 L
12.078 -9.828 12.203 -9.828 QT
12.359 -9.828 12.477 -9.711 QT
12.594 -9.594 12.594 -9.422 QT
12.594 -9.266 12.5 -9.156 QT
8.344 -5 L
12.5 -0.859 L
12.594 -0.734 12.594 -0.578 QT
12.594 -0.406 12.477 -0.289 QT
12.359 -0.172 12.203 -0.172 QT
12.047 -0.172 11.906 -0.328 QT
7.781 -4.438 L
3.641 -0.328 L
3.5 -0.172 3.344 -0.172 QT
3.172 -0.172 3.055 -0.305 QT
2.938 -0.438 2.938 -0.578 QT
cp
f
GR
GS
[0.75 0 0 0.74971 451.5 390.25143] CT
0.149 GC
/Helvetica 20 F
GS
[1 0 0 1 0 0] CT
0 0 moveto 
1 -1 scale
(10) t 
GR
GR
GS
[0.75 0 0 0.74971 468.75 382.75429] CT
0.149 GC
/Helvetica 16 F
GS
[1 0 0 1 0 0] CT
0 0 moveto 
1 -1 scale
(4) t 
GR
GR
GS
[0.75 0 0 0.74971 0 0.39999] CT
0.149 GC
2 setlinecap
1 LJ
0.667 LW
N
91 459 M
91 39 L
S
GR
GS
[0.75 0 0 0.74971 0 0.39999] CT
0.149 GC
2 setlinecap
1 LJ
0.667 LW
N
634 459 M
634 39 L
S
GR
GS
[0.75 0 0 0.74971 0 0.39999] CT
0.149 GC
2 setlinecap
1 LJ
0.667 LW
N
91 459 M
96.43 459 L
S
GR
GS
[0.75 0 0 0.74971 0 0.39999] CT
0.149 GC
2 setlinecap
1 LJ
0.667 LW
N
91 399 M
96.43 399 L
S
GR
GS
[0.75 0 0 0.74971 0 0.39999] CT
0.149 GC
2 setlinecap
1 LJ
0.667 LW
N
91 339 M
96.43 339 L
S
GR
GS
[0.75 0 0 0.74971 0 0.39999] CT
0.149 GC
2 setlinecap
1 LJ
0.667 LW
N
91 279 M
96.43 279 L
S
GR
GS
[0.75 0 0 0.74971 0 0.39999] CT
0.149 GC
2 setlinecap
1 LJ
0.667 LW
N
91 219 M
96.43 219 L
S
GR
GS
[0.75 0 0 0.74971 0 0.39999] CT
0.149 GC
2 setlinecap
1 LJ
0.667 LW
N
91 159 M
96.43 159 L
S
GR
GS
[0.75 0 0 0.74971 0 0.39999] CT
0.149 GC
2 setlinecap
1 LJ
0.667 LW
N
91 99 M
96.43 99 L
S
GR
GS
[0.75 0 0 0.74971 0 0.39999] CT
0.149 GC
2 setlinecap
1 LJ
0.667 LW
N
91 39 M
96.43 39 L
S
GR
GS
[0.75 0 0 0.74971 0 0.39999] CT
0.149 GC
2 setlinecap
1 LJ
0.667 LW
N
634 459 M
628.57 459 L
S
GR
GS
[0.75 0 0 0.74971 0 0.39999] CT
0.149 GC
2 setlinecap
1 LJ
0.667 LW
N
634 399 M
628.57 399 L
S
GR
GS
[0.75 0 0 0.74971 0 0.39999] CT
0.149 GC
2 setlinecap
1 LJ
0.667 LW
N
634 339 M
628.57 339 L
S
GR
GS
[0.75 0 0 0.74971 0 0.39999] CT
0.149 GC
2 setlinecap
1 LJ
0.667 LW
N
634 279 M
628.57 279 L
S
GR
GS
[0.75 0 0 0.74971 0 0.39999] CT
0.149 GC
2 setlinecap
1 LJ
0.667 LW
N
634 219 M
628.57 219 L
S
GR
GS
[0.75 0 0 0.74971 0 0.39999] CT
0.149 GC
2 setlinecap
1 LJ
0.667 LW
N
634 159 M
628.57 159 L
S
GR
GS
[0.75 0 0 0.74971 0 0.39999] CT
0.149 GC
2 setlinecap
1 LJ
0.667 LW
N
634 99 M
628.57 99 L
S
GR
GS
[0.75 0 0 0.74971 0 0.39999] CT
0.149 GC
2 setlinecap
1 LJ
0.667 LW
N
634 39 M
628.57 39 L
S
GR
GS
[0.75 0 0 0.74971 63.25 344.51886] CT
0.149 GC
/Helvetica 20 F
GS
[1 0 0 1 0 0] CT
-12 8 moveto 
1 -1 scale
(0) t 
GR
GR
GS
[0.75 0 0 0.74971 63.25 299.536] CT
0.149 GC
/Helvetica 20 F
GS
[1 0 0 1 0 0] CT
-12 8 moveto 
1 -1 scale
(2) t 
GR
GR
GS
[0.75 0 0 0.74971 63.25 254.55314] CT
0.149 GC
/Helvetica 20 F
GS
[1 0 0 1 0 0] CT
-12 8 moveto 
1 -1 scale
(4) t 
GR
GR
GS
[0.75 0 0 0.74971 63.25 209.57028] CT
0.149 GC
/Helvetica 20 F
GS
[1 0 0 1 0 0] CT
-12 8 moveto 
1 -1 scale
(6) t 
GR
GR
GS
[0.75 0 0 0.74971 63.25 164.58743] CT
0.149 GC
/Helvetica 20 F
GS
[1 0 0 1 0 0] CT
-12 8 moveto 
1 -1 scale
(8) t 
GR
GR
GS
[0.75 0 0 0.74971 63.25 119.60457] CT
0.149 GC
/Helvetica 20 F
GS
[1 0 0 1 0 0] CT
-23 8 moveto 
1 -1 scale
(10) t 
GR
GR
GS
[0.75 0 0 0.74971 63.25 74.62171] CT
0.149 GC
/Helvetica 20 F
GS
[1 0 0 1 0 0] CT
-23 8 moveto 
1 -1 scale
(12) t 
GR
GR
GS
[0.75 0 0 0.74971 63.25 29.63885] CT
0.149 GC
/Helvetica 20 F
GS
[1 0 0 1 0 0] CT
-23 8 moveto 
1 -1 scale
(14) t 
GR
GR
GS
[0 -0.74971 0.75 0 43 187.07871] CT
0.149 GC
/Helvetica 22 F
GS
[1 0 0 1 0 0] CT
-50.5 -5 moveto 
1 -1 scale
(Difference) t 
GR
GR
GS
[0.75 0 0 0.74971 162.75 22.89142] CT
/Helvetica-Bold 22 F
GS
[1 0 0 1 0 0] CT
0 0 moveto 
1 -1 scale
(Norm 2 distance from ) t 
GR
GR
GS
[0.75 0 0 0.74971 337.5 22.89142] CT
N
3.547 0.25 M
2.547 0.25 1.945 -0.484 QT
1.344 -1.219 1.109 -2.25 QT
0.875 -3.281 0.875 -4.281 QT
0.875 -4.313 L
0.875 -5.406 1.086 -6.586 QT
1.297 -7.766 1.695 -8.945 QT
2.094 -10.125 2.563 -11.047 QT
2.875 -11.688 3.391 -12.484 QT
3.906 -13.281 4.531 -13.969 QT
5.156 -14.656 5.883 -15.086 QT
6.609 -15.516 7.344 -15.516 QT
7.375 -15.516 L
9.172 -15.516 9.703 -15.07 QT
10.234 -14.625 10.523 -13.938 QT
10.813 -13.25 10.938 -12.469 QT
11.063 -11.688 11.063 -10.984 QT
11.063 -9.313 10.609 -7.578 QT
10.156 -5.844 9.359 -4.219 QT
9.063 -3.609 8.531 -2.781 QT
8 -1.953 7.398 -1.297 QT
6.797 -0.641 6.055 -0.195 QT
5.313 0.25 3.563 0.25 QT
3.547 0.25 L
cp
3.594 -0.328 M
4.313 -0.328 4.984 -1.109 QT
5.656 -1.891 6.164 -3 QT
6.672 -4.109 7.055 -5.281 QT
7.438 -6.453 7.609 -7.266 QT
4.125 -7.266 L
3.781 -5.875 3.586 -4.875 QT
3.391 -3.875 3.391 -2.906 QT
3.391 -0.328 3.594 -0.328 QT
cp
4.297 -8.031 M
7.813 -8.031 L
8.047 -9 8.188 -9.648 QT
8.328 -10.297 8.422 -11.016 QT
8.516 -11.734 8.516 -12.359 QT
8.516 -14.938 7.344 -14.938 QT
6.953 -14.938 5.938 -12.688 QT
4.922 -10.438 4.297 -8.031 QT
cp
f
GR
GS
[0.75 0 0 0.74971 346.5 22.89142] CT
/Helvetica-Bold 22 F
GS
[1 0 0 1 0 0] CT
0 0 moveto 
1 -1 scale
( to 0) t 
GR
GR
GS
[0.75 0 0 0.74971 0 0.39999] CT
0 0.447 0.741 RC
1 LJ
2.667 LW
N
91.005 459 M
91.331 458.423 L
91.337 458.423 L
91.348 458.423 L
91.994 456.925 L
91.999 456.925 L
92.005 456.925 L
92.01 456.925 L
92.662 454.589 L
92.667 454.452 L
93.329 452.561 L
93.335 452.561 L
93.987 451.301 L
93.997 451.301 L
94.003 451.302 L
94.654 449.81 L
94.665 449.811 L
94.671 449.811 L
95.252 447.971 L
95.333 447.972 L
95.339 447.972 L
95.349 447.973 L
95.996 446.123 L
96.001 446.096 L
96.066 446.098 L
96.663 444.357 L
96.669 444.357 L
96.701 444.358 L
97.31 442.831 L
97.331 442.831 L
97.337 442.819 L
97.961 441.244 L
97.999 441.252 L
98.005 441.195 L
98.026 441.197 L
98.662 439.73 L
98.667 439.731 L
98.7 439.731 L
99.33 437.449 L
99.335 437.449 L
99.346 437.45 L
99.949 436.01 L
99.998 436.011 L
100.003 435.985 L
100.665 434.598 L
100.671 434.6 L
101.268 432.981 L
101.333 432.984 L
101.339 432.984 L
101.35 432.984 L
101.996 431.172 L
102.001 431.04 L
102.028 431.044 L
102.658 429.334 L
102.664 429.335 L
102.669 429.334 L
103.326 427.597 L
103.332 427.599 L
103.337 427.598 L
103.342 427.599 L
103.967 426.062 L
103.999 426.063 L
104.005 426.065 L
104.027 426.066 L
104.64 424.329 L
104.662 424.329 L
104.667 424.329 L
105.33 422.707 L
105.335 422.706 L
105.373 422.709 L
105.998 420.962 L
106.003 420.937 L
106.009 420.94 L
106.666 419.521 L
106.671 419.521 L
106.742 419.524 L
107.306 418.693 L
107.328 418.707 L
107.333 418.71 L
107.339 418.711 L
107.996 417.152 L
108.001 417.151 L
108.034 417.152 L
108.664 415.858 L
108.669 415.856 L
108.756 415.864 L
109.332 414.971 L
109.337 414.973 L
109.429 414.978 L
109.956 413.24 L
110 413.246 L
110.005 413.225 L
110.646 412.118 L
110.662 412.121 L
110.667 412.119 L
110.684 412.122 L
111.33 410.564 L
111.335 410.563 L
111.352 410.566 L
111.965 409.033 L
111.998 409.035 L
112.003 409.038 L
112.106 409.045 L
112.649 406.9 L
112.666 406.904 L
112.671 406.907 L
112.78 406.911 L
113.306 405.708 L
113.328 405.71 L
113.334 405.713 L
113.339 405.716 L
113.996 404.367 L
114.001 404.366 L
114.067 404.368 L
114.664 402.943 L
114.669 402.946 L
115.31 401.393 L
115.332 401.395 L
115.337 401.398 L
115.354 401.4 L
115.902 400.095 L
116 400.103 L
116.005 400.106 L
116.011 400.109 L
116.662 398.417 L
116.668 398.403 L
117.314 396.927 L
117.33 396.927 L
117.336 396.906 L
117.971 395.215 L
117.998 395.22 L
118.003 395.223 L
118.666 394.327 L
118.671 394.209 L
118.677 394.212 L
119.312 392.04 L
119.328 392.043 L
119.334 392.041 L
119.361 392.042 L
119.991 390.129 L
119.996 390.132 L
120.002 390.129 L
120.018 390.129 L
120.653 388.771 L
120.664 388.776 L
120.67 388.775 L
120.735 388.786 L
121.327 387.51 L
121.332 387.536 L
121.337 387.539 L
121.978 386.172 L
122 386.203 L
122.005 386.202 L
122.032 386.208 L
122.662 385.267 L
122.668 385.267 L
123.303 383.918 L
123.33 383.924 L
123.336 383.923 L
123.341 383.926 L
123.998 382.919 L
124.004 382.918 L
124.014 382.92 L
124.666 381.52 L
124.671 381.52 L
125.285 380.119 L
125.328 380.13 L
125.334 380.13 L
125.339 380.133 L
125.942 379.328 L
125.996 379.332 L
126.002 379.335 L
126.664 378.197 L
126.67 378.196 L
127.289 377.182 L
127.332 377.186 L
127.338 377.085 L
127.348 377.087 L
127.989 375.624 L
127.995 375.627 L
128 375.626 L
128.022 375.634 L
128.662 374.464 L
128.668 374.462 L
128.679 374.469 L
129.32 373.523 L
129.33 373.524 L
129.336 373.527 L
129.971 372.623 L
129.998 372.626 L
130.004 372.607 L
130.025 372.614 L
130.666 371.276 L
130.672 371.257 L
130.682 371.264 L
131.329 369.266 L
131.334 369.265 L
131.35 369.269 L
131.997 367.681 L
132.002 367.682 L
132.664 366.549 L
132.67 366.555 L
133.311 365.742 L
133.332 365.745 L
133.338 365.746 L
133.984 365.015 L
133.995 365.017 L
134 365.021 L
134.033 365.027 L
134.641 363.707 L
134.663 363.732 L
134.668 363.73 L
135.32 362.661 L
135.331 362.663 L
135.336 362.667 L
135.993 360.935 L
135.998 360.937 L
136.004 360.936 L
136.009 360.94 L
136.666 359.689 L
136.672 359.685 L
137.312 358.364 L
137.329 358.367 L
137.334 358.368 L
137.345 358.37 L
137.969 357.04 L
137.997 357.048 L
138.002 357.046 L
138.008 357.047 L
138.665 355.919 L
138.67 355.901 L
139.305 354.569 L
139.332 354.597 L
139.338 354.602 L
139.343 354.606 L
139.984 353.422 L
139.995 353.465 L
140 353.463 L
140.006 353.468 L
140.663 352.146 L
140.668 352.151 L
140.782 352.168 L
141.331 351.167 L
141.336 351.163 L
141.901 350.174 L
141.999 350.191 L
142.004 350.192 L
142.031 350.201 L
142.645 349.075 L
142.666 349.078 L
142.672 349.083 L
142.721 349.089 L
143.307 348.101 L
143.329 348.142 L
143.334 348.146 L
143.97 346.525 L
143.997 346.552 L
144.002 346.548 L
144.643 345.3 L
144.665 345.304 L
144.67 345.287 L
145.333 344.247 L
145.338 344.252 L
145.995 343.21 L
146 343.207 L
146.652 341.85 L
146.663 341.894 L
146.668 341.893 L
146.728 341.899 L
147.32 340.872 L
147.331 340.875 L
147.336 340.876 L
147.369 340.884 L
147.955 340.128 L
147.999 340.131 L
148.004 340.127 L
148.667 338.022 L
148.672 338.024 L
149.264 336.493 L
149.329 336.515 L
149.334 336.52 L
149.367 336.527 L
149.997 335.434 L
150.002 335.439 L
150.665 334.769 L
150.67 334.764 L
151.333 333.64 L
151.338 333.645 L
151.349 333.648 L
151.995 332.874 L
152.001 332.871 L
152.044 332.875 L
152.658 331.964 L
152.663 331.969 L
152.669 331.967 L
152.674 331.972 L
153.331 330.64 L
153.336 330.645 L
153.358 330.649 L
153.95 329.813 L
153.999 329.826 L
154.004 329.825 L
154.01 329.827 L
154.661 328.971 L
154.667 328.969 L
154.694 328.976 L
155.329 328.151 L
155.335 328.149 L
155.34 328.154 L
155.997 327.051 L
156.003 327.046 L
156.073 327.062 L
156.665 325.68 L
156.67 325.586 L
157.311 324.522 L
157.333 324.529 L
157.338 324.533 L
157.995 323.504 L
158.001 323.502 L
158.022 323.516 L
158.647 322.329 L
158.663 322.334 L
158.669 322.242 L
158.674 322.242 L
159.288 321.406 L
159.331 321.408 L
159.337 321.41 L
159.369 321.418 L
159.999 320.026 L
160.004 320.031 L
160.618 319.034 L
160.661 319.037 L
160.667 319.043 L
161.291 317.936 L
161.329 317.951 L
161.335 317.953 L
161.346 317.958 L
161.986 316.438 L
161.997 316.44 L
162.003 316.446 L
162.654 314.964 L
162.665 314.965 L
162.671 314.962 L
162.757 314.969 L
163.328 313.776 L
163.333 313.778 L
163.338 313.779 L
163.398 313.805 L
163.995 312.558 L
164.001 312.555 L
164.012 312.559 L
164.658 311.705 L
164.663 311.711 L
164.669 311.656 L
164.712 311.66 L
165.331 310.597 L
165.337 310.592 L
165.977 309.722 L
165.999 309.73 L
166.005 309.642 L
166.01 309.645 L
166.651 308.364 L
166.662 308.368 L
166.667 308.37 L
167.324 307.528 L
167.33 307.582 L
167.335 307.58 L
167.34 307.582 L
167.987 306.517 L
167.997 306.519 L
168.003 306.517 L
168.595 305.973 L
168.665 306.022 L
168.671 305.936 L
169.328 305.286 L
169.333 305.288 L
169.339 305.274 L
169.947 304.403 L
169.996 304.449 L
170.001 304.447 L
170.007 304.449 L
170.664 303.108 L
170.669 303.106 L
170.691 303.122 L
171.277 302.211 L
171.331 302.236 L
171.337 302.229 L
171.972 301.143 L
171.999 301.143 L
172.005 301.141 L
172.656 299.761 L
172.662 299.767 L
172.667 299.765 L
172.716 299.782 L
173.33 299.014 L
173.335 299.008 L
173.981 297.831 L
173.998 297.841 L
174.003 297.783 L
174.025 297.799 L
174.665 296.67 L
174.671 296.667 L
175.333 295.314 L
175.339 295.312 L
175.355 295.324 L
175.996 294.125 L
176.001 294.124 L
176.039 294.141 L
176.571 293.36 L
176.664 293.401 L
176.669 293.398 L
176.675 293.405 L
177.315 292.538 L
177.332 292.545 L
177.337 292.532 L
177.348 292.534 L
177.999 291.494 L
178.005 291.412 L
178.662 290.597 L
178.667 290.59 L
179.145 289.794 L
179.33 289.82 L
179.335 289.82 L
179.362 289.832 L
179.933 288.298 L
179.998 288.349 L
180.003 288.346 L
180.025 288.348 L
180.666 287.432 L
180.671 287.439 L
180.676 287.447 L
181.192 286.563 L
181.328 286.577 L
181.333 286.575 L
181.388 286.607 L
181.887 285.867 L
181.996 285.892 L
182.001 285.892 L
182.007 285.899 L
182.664 285.211 L
182.669 285.21 L
182.691 285.221 L
183.305 284.235 L
183.332 284.25 L
183.337 284.244 L
183.353 284.247 L
183.994 283.41 L
184 283.417 L
184.005 283.415 L
184.032 283.433 L
184.629 282.391 L
184.662 282.409 L
184.667 282.407 L
184.695 282.418 L
185.292 281.559 L
185.33 281.581 L
185.335 281.574 L
185.384 281.59 L
185.998 280.967 L
186.003 280.965 L
186.02 280.978 L
186.666 280.39 L
186.671 280.398 L
187.323 279.396 L
187.328 279.399 L
187.334 279.387 L
187.377 279.445 L
187.996 278.212 L
188.002 278.219 L
188.659 277.065 L
188.664 277.068 L
188.669 277.067 L
188.686 277.077 L
189.245 275.933 L
189.332 275.984 L
189.337 275.977 L
189.956 275.167 L
190 275.173 L
190.005 275.181 L
190.043 275.19 L
190.662 274.219 L
190.668 274.216 L
190.673 274.224 L
191.308 273.048 L
191.33 273.054 L
191.336 272.997 L
191.352 273.013 L
191.998 271.861 L
192.003 271.927 L
192.009 271.937 L
192.525 271.405 L
192.666 271.44 L
192.671 271.438 L
192.682 271.454 L
193.127 270.492 L
193.328 270.552 L
193.334 270.549 L
193.345 270.55 L
193.996 269.725 L
194.002 269.723 L
194.029 269.731 L
194.664 269.092 L
194.67 269.089 L
194.724 269.153 L
195.327 268.101 L
195.332 268.168 L
195.337 268.112 L
195.946 267.243 L
196 267.264 L
196.005 267.272 L
196.043 267.286 L
196.662 266.404 L
196.668 266.4 L
196.744 266.407 L
197.319 265.798 L
197.33 265.812 L
197.336 265.811 L
197.482 265.828 L
197.852 265.208 L
197.998 265.227 L
198.004 265.225 L
198.123 265.236 L
198.628 264.96 L
198.666 265.01 L
198.671 265.01 L
198.682 265.022 L
199.296 264.072 L
199.329 264.084 L
199.334 264.082 L
199.405 264.118 L
199.996 262.917 L
200.002 262.841 L
200.632 262.084 L
200.664 262.099 L
200.67 262.107 L
201.332 260.833 L
201.338 260.831 L
201.403 260.923 L
201.691 260.455 L
201.995 260.575 L
202 260.572 L
202.646 259.667 L
202.663 259.682 L
202.668 259.674 L
203.325 258.815 L
203.33 258.824 L
203.336 258.767 L
203.352 258.782 L
203.998 258.115 L
204.004 258.117 L
204.074 258.12 L
204.601 257.35 L
204.666 257.386 L
204.672 257.384 L
204.699 257.403 L
205.291 256.693 L
205.329 256.785 L
205.334 256.788 L
205.361 256.789 L
205.997 255.575 L
206.002 255.584 L
206.637 254.782 L
206.664 254.794 L
206.67 254.803 L
207.305 254.156 L
207.332 254.165 L
207.338 254.173 L
207.533 254.216 L
207.995 253.793 L
208 253.791 L
208.011 253.792 L
208.663 252.952 L
208.668 252.956 L
208.684 252.972 L
209.331 252.212 L
209.336 252.221 L
209.895 251.082 L
209.998 251.127 L
210.004 251.131 L
210.047 251.157 L
210.639 250.055 L
210.666 250.06 L
210.672 250.068 L
211.323 248.861 L
211.329 248.87 L
211.334 248.862 L
211.997 248.245 L
212.002 248.178 L
212.116 248.258 L
212.534 247.677 L
212.665 247.695 L
212.67 247.698 L
212.697 247.715 L
213.3 247.163 L
213.332 247.175 L
213.338 247.185 L
213.403 247.228 L
213.99 246.356 L
213.995 246.36 L
214 246.35 L
214.011 246.357 L
214.663 245.51 L
214.668 245.444 L
214.679 245.459 L
215.287 244.361 L
215.331 244.526 L
215.336 244.535 L
215.347 244.542 L
215.988 244.018 L
215.999 244.024 L
216.004 244.034 L
216.053 244.046 L
216.666 243.549 L
216.672 243.546 L
217.237 242.853 L
217.329 242.865 L
217.334 242.799 L
217.362 242.889 L
217.997 241.8 L
218.002 241.772 L
218.024 241.787 L
218.545 241.201 L
218.665 241.227 L
218.67 241.162 L
218.681 241.17 L
219.333 240.099 L
219.338 240.096 L
219.365 240.11 L
219.892 239.687 L
219.995 239.776 L
220.001 239.78 L
220.011 239.788 L
220.663 239.189 L
220.668 239.2 L
220.712 239.22 L
221.331 238.791 L
221.336 238.795 L
221.369 238.886 L
221.944 237.816 L
221.999 237.854 L
222.004 237.863 L
222.553 237.277 L
222.667 237.305 L
222.672 237.304 L
223.302 236.344 L
223.329 236.36 L
223.335 236.297 L
223.389 236.332 L
223.997 235.661 L
224.002 235.661 L
224.6 235.171 L
224.665 235.206 L
224.67 235.21 L
225.333 234.396 L
225.338 234.333 L
225.376 234.363 L
225.974 233.173 L
225.995 233.187 L
226.001 233.197 L
226.25 233.285 L
226.5 232.837 L
226.663 232.856 L
226.669 232.935 L
226.788 232.939 L
227.331 232.15 L
227.336 232.142 L
227.429 232.154 L
227.928 231.853 L
227.999 231.87 L
228.004 231.869 L
228.026 231.887 L
228.547 231.348 L
228.661 231.449 L
228.667 231.447 L
228.846 231.477 L
229.329 230.946 L
229.335 230.943 L
229.367 230.961 L
229.997 229.931 L
230.003 229.94 L
230.518 229.608 L
230.665 229.719 L
230.67 229.689 L
231.17 228.991 L
231.333 229.007 L
231.338 229.017 L
231.349 229.019 L
231.941 228.754 L
231.995 228.823 L
232.001 228.832 L
232.017 228.849 L
232.642 227.787 L
232.663 227.801 L
232.669 227.805 L
232.68 227.876 L
233.299 226.923 L
233.331 227.01 L
233.337 227.014 L
233.478 227.182 L
233.939 226.671 L
233.999 226.7 L
234.004 226.705 L
234.075 226.722 L
234.651 226.231 L
234.662 226.238 L
234.667 226.242 L
234.748 226.261 L
235.313 225.466 L
235.329 225.548 L
235.335 225.546 L
235.954 224.977 L
235.997 225.004 L
236.003 225.002 L
236.665 224.266 L
236.671 224.276 L
237.333 223.03 L
237.339 223.029 L
237.48 223.099 L
237.947 222.464 L
237.996 222.62 L
238.001 222.617 L
238.283 222.679 L
238.663 222.178 L
238.669 222.167 L
238.87 222.208 L
239.299 221.773 L
239.331 221.784 L
239.337 221.781 L
239.342 221.792 L
239.977 221.123 L
239.999 221.219 L
240.005 221.21 L
240.021 221.216 L
240.629 220.737 L
240.662 220.76 L
240.667 220.77 L
240.673 220.78 L
241.319 219.893 L
241.33 219.896 L
241.335 219.907 L
241.959 219.193 L
241.997 219.258 L
242.003 219.27 L
242.014 219.357 L
242.6 218.529 L
242.665 218.541 L
242.671 218.538 L
242.747 218.547 L
243.279 217.811 L
243.333 217.843 L
243.339 217.834 L
243.985 216.934 L
243.996 216.938 L
244.001 216.927 L
244.664 216.276 L
244.669 216.286 L
244.68 216.294 L
245.331 215.417 L
245.337 215.415 L
245.473 215.439 L
245.956 214.872 L
245.999 214.992 L
246.005 214.983 L
246.635 214.14 L
246.662 214.147 L
246.667 214.15 L
246.781 214.167 L
247.324 213.832 L
247.33 213.842 L
247.335 213.833 L
247.943 213.039 L
247.998 213.04 L
248.003 213.031 L
248.084 213.04 L
248.655 212.597 L
248.665 212.598 L
248.671 212.596 L
248.79 212.713 L
249.301 212.423 L
249.328 212.444 L
249.333 212.435 L
249.996 212.069 L
250.001 212.06 L
250.533 211.458 L
250.664 211.51 L
250.669 211.52 L
251.18 210.978 L
251.332 211.016 L
251.337 211.014 L
251.522 211.138 L
251.978 210.736 L
251.999 210.74 L
252.005 210.731 L
252.662 210.139 L
252.667 210.136 L
252.678 210.139 L
253.189 209.468 L
253.33 209.532 L
253.335 209.523 L
253.992 208.942 L
253.998 209.029 L
254.003 209.033 L
254.622 208.344 L
254.666 208.376 L
254.671 208.381 L
254.742 208.407 L
255.323 207.84 L
255.328 207.927 L
255.334 207.932 L
255.448 207.94 L
255.996 207.216 L
256.001 207.144 L
256.664 206.749 L
256.669 206.741 L
256.74 206.777 L
257.299 205.944 L
257.332 205.957 L
257.337 205.956 L
257.348 205.964 L
257.924 205.129 L
258 205.404 L
258.005 205.414 L
258.01 205.424 L
258.624 204.537 L
258.662 204.562 L
258.668 204.552 L
258.706 204.562 L
259.319 203.716 L
259.33 203.724 L
259.335 203.721 L
259.982 203.067 L
259.998 203.1 L
260.003 203.097 L
260.052 203.124 L
260.535 202.323 L
260.666 202.372 L
260.671 202.363 L
260.736 202.456 L
261.317 201.831 L
261.328 201.832 L
261.334 201.831 L
261.388 201.853 L
261.974 201.053 L
261.996 201.062 L
262.002 201.066 L
262.132 201.119 L
262.653 200.767 L
262.664 200.788 L
262.669 200.779 L
262.686 200.773 L
263.142 200.99 L
263.332 200.804 L
263.337 200.893 L
263.538 201.03 L
263.967 200.518 L
264 200.537 L
264.005 200.527 L
264.63 199.923 L
264.662 199.943 L
264.668 199.948 L
264.684 199.967 L
265.14 199.33 L
265.33 199.443 L
265.336 199.442 L
265.341 199.446 L
265.976 199.125 L
265.998 199.13 L
266.003 199.129 L
266.595 198.533 L
266.666 198.563 L
266.671 198.561 L
266.677 198.569 L
267.318 197.993 L
267.328 198.048 L
267.334 198.046 L
267.535 198.067 L
267.991 197.645 L
267.996 197.736 L
268.002 197.728 L
268.018 197.742 L
268.659 197.036 L
268.664 197.046 L
268.67 197.044 L
268.708 197.103 L
269.061 196.56 L
269.332 196.625 L
269.337 196.623 L
269.343 196.633 L
269.913 196.141 L
270 196.17 L
270.005 196.168 L
270.027 196.19 L
270.619 195.299 L
270.662 195.328 L
270.668 195.339 L
270.7 195.359 L
271.276 194.778 L
271.33 194.78 L
271.336 194.791 L
271.39 194.803 L
271.998 194.051 L
272.004 194.05 L
272.655 193.343 L
272.666 193.352 L
272.672 193.35 L
272.715 193.391 L
273.318 192.797 L
273.329 192.819 L
273.334 192.816 L
273.356 192.832 L
273.926 192.172 L
273.996 192.247 L
274.002 192.198 L
274.078 192.233 L
274.664 191.814 L
274.67 191.804 L
274.719 191.831 L
275.305 191.434 L
275.332 191.456 L
275.338 191.454 L
275.376 191.471 L
275.984 190.857 L
275.995 190.95 L
276 190.943 L
276.033 190.966 L
276.646 190.059 L
276.663 190.068 L
276.668 190.066 L
276.728 190.105 L
277.325 189.438 L
277.33 189.449 L
277.336 189.446 L
277.39 189.553 L
277.987 188.988 L
277.998 188.99 L
278.004 188.942 L
278.02 188.957 L
278.655 188.34 L
278.666 188.342 L
278.672 188.294 L
278.677 188.306 L
279.329 187.632 L
279.334 187.644 L
279.345 187.646 L
279.964 186.945 L
279.997 186.966 L
280.002 186.978 L
280.241 187.018 L
280.621 186.37 L
280.664 186.46 L
280.67 186.471 L
280.719 186.493 L
281.251 185.885 L
281.332 185.952 L
281.338 185.964 L
281.37 185.974 L
281.995 185.119 L
282 185.12 L
282.657 184.717 L
282.663 184.729 L
282.668 184.726 L
282.674 184.738 L
283.151 184.265 L
283.331 184.35 L
283.336 184.348 L
283.341 184.359 L
283.966 183.944 L
283.999 183.95 L
284.004 183.942 L
284.656 183.385 L
284.666 183.394 L
284.672 183.405 L
284.683 183.414 L
285.269 182.916 L
285.329 182.995 L
285.334 182.992 L
285.351 183.013 L
285.997 182.064 L
286.002 182.159 L
286.138 182.22 L
286.648 181.958 L
286.665 181.971 L
286.67 181.965 L
286.768 182.103 L
287.333 181.394 L
287.338 181.489 L
287.485 181.539 L
287.919 181.02 L
287.995 181.053 L
288 181.043 L
288.657 180.076 L
288.663 180.081 L
288.668 180.079 L
288.755 180.21 L
289.331 179.62 L
289.336 179.627 L
289.45 179.665 L
289.863 179.173 L
289.999 179.273 L
290.004 179.271 L
290.037 179.28 L
290.667 178.976 L
290.672 178.981 L
290.715 179.006 L
291.21 178.732 L
291.329 178.756 L
291.334 178.755 L
291.351 178.763 L
291.877 178.118 L
291.997 178.193 L
292.002 178.206 L
292.105 178.278 L
292.638 178.014 L
292.665 178.025 L
292.67 178.024 L
292.686 178.034 L
293.333 177.595 L
293.338 177.537 L
293.354 177.551 L
293.973 176.878 L
293.995 176.909 L
294.001 176.899 L
294.125 176.956 L
294.658 176.36 L
294.663 176.365 L
294.668 176.364 L
294.679 176.389 L
294.967 176.155 L
295.331 176.24 L
295.336 176.237 L
295.353 176.249 L
295.944 175.811 L
295.999 175.834 L
296.004 175.834 L
296.015 175.836 L
296.661 175.279 L
296.667 175.284 L
296.705 175.302 L
297.324 174.785 L
297.329 174.798 L
297.335 174.803 L
297.345 174.806 L
297.997 174.447 L
298.002 174.544 L
298.062 174.58 L
298.627 174.186 L
298.665 174.221 L
298.67 174.211 L
298.85 174.27 L
299.094 173.878 L
299.333 173.981 L
299.338 173.992 L
299.479 174.153 L
299.963 173.334 L
299.995 173.373 L
300.001 173.37 L
300.006 173.382 L
300.641 172.587 L
300.663 172.783 L
300.669 172.782 L
300.842 172.914 L
301.282 172.499 L
301.331 172.614 L
301.336 172.604 L
301.565 172.705 L
301.999 172.169 L
302.004 172.182 L
302.146 172.205 L
302.526 171.908 L
302.661 171.917 L
302.667 171.874 L
302.71 171.907 L
303.329 171.119 L
303.335 171.115 L
303.514 171.256 L
303.927 170.699 L
303.997 170.721 L
304.003 170.711 L
304.611 170.195 L
304.665 170.228 L
304.671 170.225 L
304.714 170.322 L
305.224 169.661 L
305.333 169.815 L
305.338 169.82 L
305.447 169.826 L
305.985 169.215 L
305.995 169.225 L
306.001 169.215 L
306.012 169.241 L
306.663 168.606 L
306.669 168.611 L
306.919 168.733 L
307.266 168.266 L
307.331 168.309 L
307.337 168.322 L
307.358 168.331 L
307.516 168.164 L
307.999 168.21 L
308.005 168.2 L
308.222 168.271 L
308.651 167.982 L
308.662 168.007 L
308.667 167.997 L
308.71 168.01 L
309.199 167.612 L
309.329 167.737 L
309.335 167.742 L
309.357 167.759 L
309.748 167.176 L
309.997 167.289 L
310.003 167.283 L
310.367 167.365 L
310.589 167.05 L
310.665 167.053 L
310.671 167.011 L
310.676 167.024 L
311.273 166.697 L
311.333 166.722 L
311.339 166.716 L
311.366 166.735 L
311.996 166.067 L
312.001 166.062 L
312.028 166.072 L
312.636 165.773 L
312.663 165.805 L
312.669 165.803 L
312.707 165.817 L
313.32 165.519 L
313.331 165.615 L
313.337 165.628 L
313.402 165.669 L
313.999 165.313 L
314.005 165.31 L
314.108 165.423 L
314.651 164.841 L
314.662 164.866 L
314.667 164.863 L
314.738 164.924 L
315.188 164.602 L
315.33 164.706 L
315.335 164.696 L
315.965 164.001 L
315.997 164.02 L
316.003 163.98 L
316.426 164.02 L
316.66 163.691 L
316.665 163.691 L
316.671 163.681 L
317.322 163.099 L
317.333 163.103 L
317.339 163.095 L
317.366 163.308 L
317.724 162.702 L
317.996 162.758 L
318.001 162.771 L
318.104 162.802 L
318.338 162.436 L
318.664 162.488 L
318.669 162.448 L
318.691 162.462 L
319.326 161.67 L
319.332 161.671 L
319.337 161.661 L
319.706 161.279 L
319.999 161.373 L
320.005 161.37 L
320.01 161.376 L
320.635 160.691 L
320.662 160.724 L
320.667 160.721 L
320.673 160.734 L
321.096 160.335 L
321.33 160.407 L
321.335 160.343 L
321.422 160.586 L
321.829 160.065 L
321.998 160.105 L
322.003 160.095 L
322.66 159.669 L
322.666 159.674 L
322.671 159.673 L
322.676 159.679 L
323.247 158.911 L
323.328 158.982 L
323.333 158.982 L
323.518 159.078 L
323.996 158.64 L
324.001 158.654 L
324.392 158.829 L
324.653 158.539 L
324.664 158.549 L
324.669 158.555 L
324.696 158.56 L
325.261 158.242 L
325.332 158.272 L
325.337 158.266 L
325.609 158.325 L
325.972 157.962 L
326 158.064 L
326.005 158.077 L
326.043 158.123 L
326.64 157.841 L
326.662 157.851 L
326.667 157.811 L
326.711 157.817 L
327.254 157.198 L
327.33 157.233 L
327.335 157.246 L
327.362 157.036 L
327.791 157.464 L
327.998 157.419 L
328.003 157.409 L
328.622 157.088 L
328.666 157.1 L
328.671 157.105 L
328.731 157.146 L
328.899 156.857 L
329.328 156.957 L
329.334 156.956 L
329.344 156.979 L
329.996 156.217 L
330.001 156.223 L
330.105 156.306 L
330.523 155.951 L
330.664 155.975 L
330.669 155.972 L
330.734 156.039 L
331.321 155.293 L
331.332 155.298 L
331.337 155.311 L
331.419 155.335 L
331.609 155.016 L
332 155.271 L
332.005 155.276 L
332.065 155.3 L
332.624 155.038 L
332.662 155.055 L
332.668 155.054 L
332.689 155.006 L
332.874 155.388 L
333.33 155.245 L
333.335 155.237 L
333.976 154.405 L
333.998 154.416 L
334.003 154.413 L
334.269 154.562 L
334.666 154.179 L
334.671 154.192 L
334.72 154.24 L
335.187 153.633 L
335.328 153.734 L
335.334 153.739 L
335.442 153.796 L
335.649 153.497 L
335.996 153.791 L
336.002 153.781 L
336.664 152.894 L
336.669 152.908 L
336.724 153.043 L
337.294 152.72 L
337.332 152.759 L
337.337 152.756 L
337.348 152.783 L
337.929 152.121 L
338 152.159 L
338.005 152.172 L
338.011 152.185 L
338.635 151.717 L
338.662 151.725 L
338.668 151.724 L
339.059 151.925 L
339.325 151.521 L
339.33 151.522 L
339.336 151.519 L
339.471 151.634 L
339.819 151.298 L
339.998 151.421 L
340.004 151.418 L
340.204 151.548 L
340.623 151.088 L
340.666 151.11 L
340.671 151.107 L
340.699 151.136 L
341.274 150.602 L
341.328 150.608 L
341.334 150.605 L
341.442 150.667 L
341.937 150.184 L
341.996 150.207 L
342.002 150.205 L
342.007 150.21 L
342.615 149.73 L
342.664 149.752 L
342.67 149.742 L
343.028 149.551 L
343.332 149.62 L
343.338 149.617 L
343.343 149.614 L
343.49 149.888 L
344 149.808 L
344.005 149.822 L
344.168 149.875 L
344.619 149.453 L
344.662 149.457 L
344.668 149.462 L
344.776 149.465 L
345.124 149.163 L
345.33 149.22 L
345.336 149.226 L
345.846 148.427 L
345.998 148.457 L
346.004 148.47 L
346.096 148.485 L
346.574 148.019 L
346.666 148.131 L
346.672 148.134 L
347.09 148.354 L
347.318 147.877 L
347.329 147.878 L
347.334 147.88 L
347.345 147.884 L
347.958 147.425 L
347.996 147.44 L
348.002 147.439 L
348.072 147.441 L
348.654 147.055 L
348.664 147.056 L
348.67 147.057 L
348.789 147.215 L
349.267 146.938 L
349.332 147.006 L
349.338 147.003 L
349.425 147.037 L
349.995 146.503 L
350 146.5 L
350.006 146.514 L
350.527 146.21 L
350.663 146.293 L
350.668 146.295 L
350.695 146.326 L
351.244 146.05 L
351.33 146.089 L
351.336 146.084 L
351.385 146.376 L
351.977 145.696 L
351.998 145.734 L
352.004 145.724 L
352.623 145.353 L
352.666 145.403 L
352.672 145.392 L
353.09 145.676 L
353.323 145.303 L
353.329 145.317 L
353.334 145.314 L
353.606 145.388 L
353.98 145.093 L
353.997 145.095 L
354.002 145.092 L
354.046 145.13 L
354.605 144.781 L
354.665 144.844 L
354.67 144.842 L
354.73 144.887 L
355.197 144.547 L
355.332 144.553 L
355.338 144.552 L
355.658 144.63 L
355.989 144.368 L
355.995 144.382 L
356 144.384 L
356.636 143.723 L
356.663 143.751 L
356.668 143.746 L
356.717 143.78 L
357.325 143.394 L
357.331 143.4 L
357.336 143.395 L
357.341 143.397 L
357.971 143.22 L
357.999 143.246 L
358.004 143.243 L
358.037 143.283 L
358.493 142.963 L
358.666 143.096 L
358.672 143.091 L
359.307 142.584 L
359.329 142.606 L
359.334 142.62 L
359.942 142.041 L
359.997 142.066 L
360.002 142.062 L
360.056 142.08 L
360.534 141.266 L
360.665 141.37 L
360.67 141.365 L
361.267 140.759 L
361.333 140.798 L
361.338 140.801 L
361.87 140.442 L
361.995 140.484 L
362 140.473 L
362.424 140.629 L
362.652 140.201 L
362.663 140.206 L
362.668 140.219 L
362.674 140.233 L
363.331 139.808 L
363.336 139.809 L
363.999 139.996 L
364.004 139.995 L
364.031 140.03 L
364.629 139.851 L
364.667 139.983 L
364.672 139.972 L
364.797 140.02 L
365.28 139.286 L
365.329 139.318 L
365.334 139.332 L
365.568 139.437 L
365.997 139.003 L
366.002 139.11 L
366.144 139.117 L
366.573 138.702 L
366.665 138.889 L
366.67 138.821 L
367.322 138.423 L
367.333 138.449 L
367.338 138.439 L
367.897 137.841 L
367.995 137.917 L
368.001 137.913 L
368.066 138.042 L
368.446 137.695 L
368.663 137.753 L
368.668 137.75 L
368.685 137.761 L
369.195 137.483 L
369.331 137.543 L
369.336 137.532 L
369.955 137.148 L
369.999 137.264 L
370.004 137.261 L
370.346 137.384 L
370.661 137.057 L
370.667 137.165 L
370.699 137.122 L
370.976 137.621 L
371.329 137.205 L
371.335 137.208 L
371.373 137.22 L
371.981 136.904 L
371.997 136.911 L
372.003 136.925 L
372.051 136.959 L
372.437 136.71 L
372.665 136.811 L
372.67 136.767 L
372.725 136.819 L
373.317 136.342 L
373.333 136.344 L
373.338 136.357 L
373.485 136.394 L
373.914 135.989 L
373.995 135.993 L
374.001 135.962 L
374.457 136.12 L
374.582 135.953 L
374.663 136.014 L
374.669 136.015 L
374.69 136.022 L
375.331 135.843 L
375.337 135.856 L
375.961 135.289 L
375.999 135.323 L
376.004 135.336 L
376.08 135.493 L
376.634 135.281 L
376.661 135.313 L
376.667 135.319 L
376.678 135.325 L
377.329 134.948 L
377.335 134.914 L
377.509 135.038 L
377.997 134.557 L
378.003 134.563 L
378.133 134.77 L
378.649 134.426 L
378.665 134.45 L
378.671 134.448 L
378.823 134.421 L
379.061 134.621 L
379.333 134.484 L
379.338 134.481 L
379.349 134.507 L
379.974 134.203 L
379.995 134.206 L
380.001 134.219 L
380.636 133.62 L
380.663 133.623 L
380.669 133.629 L
380.995 133.661 L
381.147 133.398 L
381.331 133.444 L
381.337 133.457 L
381.5 133.47 L
381.945 132.977 L
381.999 133.021 L
382.005 133.013 L
382.634 132.752 L
382.662 132.757 L
382.667 132.77 L
382.808 132.911 L
382.982 132.687 L
383.329 132.896 L
383.335 132.909 L
383.395 132.924 L
383.834 132.736 L
383.997 132.778 L
384.003 132.774 L
384.345 132.581 L
384.665 132.922 L
384.671 132.92 L
384.866 132.94 L
385.328 132.277 L
385.333 132.29 L
385.339 132.288 L
385.377 132.314 L
385.996 131.837 L
386.001 131.806 L
386.093 131.801 L
386.571 132.122 L
386.664 131.989 L
386.669 132.003 L
386.788 132.085 L
387.331 131.754 L
387.337 131.752 L
387.494 131.643 L
387.728 131.94 L
387.999 131.803 L
388.005 131.81 L
388.037 131.935 L
388.613 131.563 L
388.662 131.62 L
388.667 131.616 L
388.7 131.63 L
389.324 131.33 L
389.33 131.335 L
389.335 131.323 L
389.422 131.229 L
389.97 131.39 L
389.998 131.384 L
390.003 131.38 L
390.432 131.451 L
390.638 131.187 L
390.665 131.202 L
390.671 131.172 L
390.861 131 L
391.301 131.26 L
391.333 131.161 L
391.339 131.174 L
391.393 131.217 L
391.996 130.608 L
392.001 130.613 L
392.512 130.023 L
392.664 130.047 L
392.669 130.044 L
392.756 129.914 L
392.875 130.092 L
393.332 129.992 L
393.337 129.988 L
393.755 129.593 L
393.999 129.771 L
394.005 129.767 L
394.141 129.674 L
394.249 129.816 L
394.662 129.729 L
394.667 129.733 L
394.901 129.796 L
395.292 129.447 L
395.33 129.478 L
395.335 129.475 L
395.661 129.68 L
395.895 129.358 L
395.998 129.408 L
396.003 129.405 L
396.454 129.369 L
396.622 129.639 L
396.666 129.594 L
396.671 129.592 L
396.888 129.627 L
397.225 129.087 L
397.328 129.161 L
397.333 129.132 L
397.486 129.088 L
397.866 129.401 L
397.996 129.339 L
398.001 129.345 L
398.099 129.373 L
398.648 128.903 L
398.664 128.92 L
398.669 128.916 L
399.196 128.563 L
399.332 128.633 L
399.337 128.621 L
399.766 128.671 L
399.962 128.378 L
400 128.393 L
400.005 128.381 L
400.054 128.467 L
400.662 128.116 L
400.667 128.115 L
400.82 128.197 L
401.308 127.884 L
401.33 127.897 L
401.335 127.893 L
401.998 127.514 L
402.003 127.486 L
402.253 127.416 L
402.416 127.686 L
402.666 127.548 L
402.671 127.546 L
402.763 127.627 L
403.29 127.149 L
403.328 127.181 L
403.334 127.18 L
403.963 127.482 L
403.996 127.395 L
404.001 127.408 L
404.067 127.398 L
404.42 127.781 L
404.664 127.578 L
404.669 127.577 L
405.082 127.715 L
405.326 127.483 L
405.332 127.496 L
405.337 127.494 L
405.37 127.572 L
406 127.317 L
406.005 127.319 L
406.434 127.358 L
406.602 127.195 L
406.662 127.309 L
406.668 127.322 L
406.678 127.327 L
407.2 127.008 L
407.33 127.211 L
407.336 127.223 L
407.341 127.221 L
407.955 127.553 L
407.998 127.519 L
408.003 127.517 L
408.291 127.342 L
408.476 127.661 L
408.666 127.474 L
408.671 127.472 L
408.677 127.485 L
409.203 127.259 L
409.328 127.291 L
409.334 127.284 L
409.426 127.245 L
409.681 127.577 L
409.996 127.299 L
410.002 127.311 L
410.121 127.367 L
410.61 126.932 L
410.664 126.961 L
410.67 126.967 L
411.066 126.599 L
411.332 126.631 L
411.337 126.637 L
411.565 126.701 L
412 126.366 L
412.005 126.362 L
412.532 125.917 L
412.662 125.951 L
412.668 125.949 L
413.004 125.975 L
413.298 125.604 L
413.33 125.717 L
413.336 125.723 L
413.542 125.64 L
413.634 125.894 L
413.998 125.789 L
414.004 125.79 L
414.069 125.816 L
414.557 125.616 L
414.666 125.693 L
414.671 125.698 L
414.704 125.731 L
415.323 125.385 L
415.328 125.398 L
415.334 125.396 L
415.388 125.389 L
415.991 125.794 L
415.996 125.791 L
416.002 125.79 L
416.023 125.827 L
416.181 125.524 L
416.664 125.675 L
416.67 125.687 L
417.202 125.262 L
417.332 125.333 L
417.338 125.321 L
417.462 125.328 L
417.962 125 L
417.995 125.002 L
418 124.994 L
418.239 125.147 L
418.652 124.934 L
418.662 124.945 L
418.668 124.958 L
418.701 124.976 L
419.292 124.359 L
419.33 124.385 L
419.336 124.398 L
419.358 124.412 L
419.868 124.046 L
419.998 124.069 L
420.004 124.065 L
420.053 124.084 L
420.292 123.831 L
420.666 123.902 L
420.672 123.89 L
420.677 123.895 L
421.225 123.456 L
421.329 123.557 L
421.334 123.555 L
421.801 123.7 L
421.964 123.529 L
421.997 123.544 L
422.002 123.512 L
422.116 123.668 L
422.648 123.27 L
422.664 123.391 L
422.67 123.404 L
422.768 123.371 L
422.985 123.634 L
423.332 123.581 L
423.338 123.568 L
423.446 123.718 L
423.995 123.128 L
424 123.141 L
424.321 122.929 L
424.625 123.226 L
424.663 123.177 L
424.668 123.115 L
424.999 122.969 L
425.135 123.208 L
425.331 123.131 L
425.336 123.129 L
425.379 123.17 L
425.51 122.942 L
425.998 122.956 L
426.004 122.969 L
426.205 123.022 L
426.628 122.826 L
426.666 122.865 L
426.672 122.852 L
426.731 122.889 L
427.003 122.706 L
427.329 122.765 L
427.334 122.771 L
427.465 123.007 L
427.997 122.616 L
428.002 122.622 L
428.067 122.693 L
428.594 122.163 L
428.665 122.191 L
428.67 122.19 L
428.849 122.143 L
428.925 122.305 L
429.332 122.177 L
429.338 122.189 L
429.343 122.195 L
429.745 121.844 L
429.995 121.879 L
430 121.876 L
430.375 122.02 L
430.641 121.727 L
430.663 121.734 L
430.668 121.73 L
430.733 121.776 L
431.314 121.143 L
431.331 121.167 L
431.336 121.155 L
431.342 121.161 L
431.977 120.707 L
431.999 120.729 L
432.004 120.743 L
432.612 120.367 L
432.666 120.563 L
432.672 120.569 L
433.204 120.365 L
433.307 120.628 L
433.329 120.623 L
433.334 120.614 L
433.66 120.771 L
433.997 120.471 L
434.002 120.467 L
434.04 120.522 L
434.659 120.165 L
434.665 120.171 L
434.67 120.159 L
434.893 120.19 L
435.061 120.026 L
435.333 120.111 L
435.338 120.109 L
435.354 120.133 L
435.517 119.942 L
435.995 119.967 L
436 119.955 L
436.028 119.982 L
436.603 119.642 L
436.663 119.668 L
436.668 119.666 L
436.739 119.71 L
437.065 119.375 L
437.331 119.587 L
437.336 119.585 L
437.57 119.746 L
437.814 119.498 L
437.999 119.536 L
438.004 119.55 L
438.162 119.667 L
438.65 119.278 L
438.667 119.289 L
438.672 119.285 L
438.677 119.296 L
439.329 118.961 L
439.335 118.966 L
439.997 118.636 L
440.002 118.635 L
440.024 118.673 L
440.187 118.458 L
440.665 118.541 L
440.67 118.555 L
440.719 118.593 L
440.763 118.427 L
441.333 118.534 L
441.338 118.546 L
441.447 118.642 L
441.783 118.397 L
441.995 118.525 L
442.001 118.523 L
442.278 118.536 L
442.658 118.343 L
442.663 118.356 L
442.669 118.355 L
442.826 118.262 L
443.119 118.811 L
443.331 118.697 L
443.336 118.698 L
443.467 118.773 L
443.999 118.345 L
444.004 118.343 L
444.151 118.488 L
444.46 118.09 L
444.661 118.143 L
444.667 118.131 L
444.721 118.132 L
445.324 117.785 L
445.329 117.799 L
445.335 117.774 L
445.899 117.363 L
445.997 117.384 L
446.003 117.376 L
446.106 117.416 L
446.437 117.111 L
446.665 117.253 L
446.67 117.259 L
446.85 117.346 L
447.327 116.819 L
447.333 116.825 L
447.338 116.823 L
447.74 116.874 L
447.995 116.597 L
448.001 116.603 L
448.131 116.701 L
448.533 116.241 L
448.663 116.379 L
448.669 116.393 L
448.935 116.61 L
449.315 116.237 L
449.331 116.262 L
449.337 116.259 L
449.651 116.3 L
449.977 116.042 L
449.999 116.068 L
450.004 116.065 L
450.178 116.037 L
450.661 116.452 L
450.667 116.44 L
450.9 116.378 L
451.199 116.572 L
451.329 116.533 L
451.335 116.472 L
451.726 116.161 L
451.997 116.234 L
452.003 116.234 L
452.301 116.198 L
452.665 116.407 L
452.671 116.419 L
452.915 116.482 L
453.333 116.176 L
453.338 116.172 L
453.48 116.106 L
453.849 116.353 L
453.996 116.258 L
454.001 116.264 L
454.24 116.392 L
454.604 115.983 L
454.663 116.078 L
454.669 116.065 L
454.685 116.083 L
455.206 115.81 L
455.331 115.856 L
455.337 115.854 L
455.581 115.699 L
455.722 116.076 L
455.999 115.957 L
456.005 115.964 L
456.048 115.934 L
456.618 116.608 L
456.662 116.534 L
456.667 116.54 L
456.808 116.352 L
457.232 116.769 L
457.33 116.748 L
457.335 116.761 L
457.509 116.8 L
457.97 116.455 L
457.997 116.469 L
458.003 116.475 L
458.464 116.638 L
458.665 116.395 L
458.671 116.401 L
458.714 116.392 L
459.333 116.791 L
459.339 116.778 L
459.344 116.753 L
459.594 117.014 L
459.996 116.853 L
460.001 116.851 L
460.083 116.926 L
460.387 116.545 L
460.664 116.574 L
460.669 116.585 L
460.881 116.679 L
461.223 116.391 L
461.331 116.413 L
461.337 116.405 L
461.348 116.528 L
461.918 116.037 L
461.999 116.183 L
462.005 116.181 L
462.157 116.283 L
462.396 116.051 L
462.662 116.093 L
462.667 116.091 L
463.02 116.223 L
463.33 115.879 L
463.335 115.885 L
463.558 115.949 L
463.862 115.545 L
463.998 115.604 L
464.003 115.602 L
464.052 115.626 L
464.551 115.291 L
464.665 115.468 L
464.671 115.481 L
464.676 115.479 L
465.17 115.846 L
465.328 115.502 L
465.333 115.499 L
465.339 115.512 L
465.99 115.033 L
465.996 115.04 L
466.001 115.037 L
466.322 115.122 L
466.566 114.728 L
466.664 114.754 L
466.669 114.76 L
467.066 114.802 L
467.272 114.531 L
467.332 114.536 L
467.337 114.549 L
467.5 114.351 L
467.999 114.472 L
468.005 114.469 L
468.309 114.568 L
468.635 114.159 L
468.662 114.161 L
468.667 114.175 L
468.684 114.199 L
469.026 113.935 L
469.33 114.103 L
469.335 114.1 L
469.346 114.126 L
469.905 113.714 L
469.998 113.79 L
470.003 113.778 L
470.356 113.47 L
470.666 113.64 L
470.671 113.64 L
470.763 113.689 L
471.073 113.356 L
471.328 113.407 L
471.333 113.406 L
471.339 113.419 L
471.665 113.074 L
471.996 113.103 L
472.001 113.117 L
472.642 112.839 L
472.664 112.964 L
472.669 112.977 L
472.686 113.002 L
472.979 112.709 L
473.332 112.877 L
473.337 112.853 L
473.516 112.916 L
474 112.661 L
474.005 112.675 L
474.043 112.762 L
474.418 112.571 L
474.662 112.649 L
474.668 112.579 L
474.885 112.682 L
475.265 112.422 L
475.33 112.458 L
475.335 112.457 L
475.422 112.522 L
475.987 112.063 L
475.998 112.064 L
476.003 112.07 L
476.199 112.295 L
476.459 111.919 L
476.666 112.072 L
476.671 112.079 L
476.682 112.09 L
477.23 111.793 L
477.328 111.857 L
477.334 111.845 L
477.573 111.634 L
477.996 111.727 L
478.002 111.729 L
478.235 111.955 L
478.642 111.628 L
478.664 111.637 L
478.669 111.651 L
478.675 111.648 L
478.854 111.868 L
479.332 111.857 L
479.337 111.871 L
479.478 111.926 L
479.897 111.491 L
480 111.551 L
480.005 111.557 L
480.521 111.258 L
480.662 111.361 L
480.668 111.359 L
480.679 111.383 L
481.227 110.999 L
481.33 111.132 L
481.336 111.123 L
481.955 110.916 L
481.998 110.929 L
482.003 110.935 L
482.02 110.875 L
482.617 111.14 L
482.666 111.114 L
482.671 111.112 L
482.948 111.222 L
483.328 111.058 L
483.334 111.055 L
483.361 111.069 L
483.996 110.71 L
484.002 110.711 L
484.317 110.474 L
484.664 110.565 L
484.67 110.57 L
484.887 110.654 L
485.142 110.354 L
485.332 110.636 L
485.337 110.634 L
485.604 110.723 L
485.967 110.437 L
486 110.557 L
486.005 110.554 L
486.347 110.313 L
486.662 110.35 L
486.668 110.362 L
487.14 109.959 L
487.33 109.995 L
487.336 109.982 L
487.341 109.989 L
487.781 109.656 L
487.998 109.669 L
488.004 109.667 L
488.112 109.648 L
488.302 110.026 L
488.666 109.785 L
488.671 109.772 L
488.688 109.79 L
489.046 109.546 L
489.329 109.605 L
489.334 109.593 L
489.399 109.743 L
489.926 109.267 L
489.996 109.295 L
490.002 109.309 L
490.007 109.323 L
490.485 109.004 L
490.664 109.144 L
490.67 109.15 L
490.691 109.164 L
491.332 108.672 L
491.338 108.687 L
491.495 108.542 L
491.989 108.797 L
491.995 108.794 L
492 108.798 L
492.619 108.491 L
492.663 108.798 L
492.668 108.915 L
492.684 109.049 L
493.33 108.393 L
493.336 108.398 L
493.558 108.567 L
493.749 108.348 L
493.998 108.396 L
494.004 108.393 L
494.031 108.417 L
494.612 108.048 L
494.666 108.069 L
494.672 108.068 L
494.78 108.119 L
495.236 107.709 L
495.329 107.777 L
495.334 107.765 L
495.589 107.784 L
495.845 107.584 L
495.997 107.752 L
496.002 107.761 L
496.013 107.756 L
496.594 108.24 L
496.664 108.164 L
496.67 108.17 L
496.931 108.235 L
497.256 107.863 L
497.332 107.863 L
497.338 107.86 L
497.441 107.988 L
497.588 107.736 L
497.995 107.827 L
498 107.841 L
498.065 107.8 L
498.369 108.044 L
498.663 107.93 L
498.668 107.883 L
499.255 107.301 L
499.331 107.314 L
499.336 107.329 L
499.455 107.434 L
499.922 106.949 L
499.998 107.082 L
500.004 107.07 L
500.281 107.162 L
500.525 106.854 L
500.666 106.922 L
500.672 106.919 L
500.998 106.707 L
501.063 106.965 L
501.329 106.787 L
501.334 106.802 L
501.986 106.297 L
501.997 106.298 L
502.002 106.313 L
502.377 106.426 L
502.616 106.124 L
502.665 106.185 L
502.67 106.182 L
502.708 106.201 L
502.969 105.979 L
503.332 106.071 L
503.338 106.068 L
503.441 106.133 L
503.995 105.703 L
504 105.708 L
504.033 105.709 L
504.663 105.396 L
504.668 105.373 L
504.755 105.449 L
505.298 105.271 L
505.331 105.297 L
505.336 105.312 L
505.863 105.338 L
505.988 105.007 L
505.999 105.019 L
506.004 105.033 L
506.183 105.101 L
506.65 104.793 L
506.667 104.802 L
506.672 104.799 L
506.84 104.655 L
507.199 104.99 L
507.329 104.857 L
507.334 104.854 L
507.459 104.921 L
507.801 104.684 L
507.997 104.816 L
508.002 104.831 L
508.366 104.659 L
508.486 104.863 L
508.665 104.8 L
508.67 104.797 L
508.855 104.917 L
509.181 104.666 L
509.333 104.767 L
509.338 104.781 L
509.68 104.9 L
509.995 104.69 L
510.001 104.695 L
510.098 104.84 L
510.413 104.539 L
510.663 104.706 L
510.668 104.702 L
510.69 104.744 L
511.304 104.532 L
511.331 104.561 L
511.336 104.558 L
511.439 104.714 L
511.863 104.365 L
511.999 104.408 L
512.004 104.407 L
512.325 104.641 L
512.542 104.338 L
512.667 104.436 L
512.672 104.433 L
512.677 104.439 L
513.313 104.239 L
513.329 104.247 L
513.335 104.262 L
513.34 104.259 L
513.802 104.721 L
513.997 104.519 L
514.002 104.516 L
514.024 104.531 L
514.654 104.255 L
514.665 104.379 L
514.67 104.378 L
514.768 104.353 L
515.116 104.552 L
515.333 104.55 L
515.338 104.489 L
515.349 104.509 L
515.952 103.823 L
515.995 103.873 L
516.001 103.861 L
516.365 103.556 L
516.663 103.684 L
516.669 103.69 L
516.973 103.823 L
517.298 103.631 L
517.331 103.739 L
517.336 103.753 L
517.364 103.74 L
517.597 104.048 L
517.999 103.758 L
518.004 103.773 L
518.276 103.612 L
518.58 103.821 L
518.661 103.756 L
518.667 103.771 L
519.221 103.702 L
519.286 103.927 L
519.329 103.791 L
519.335 103.77 L
519.373 103.776 L
519.84 103.475 L
519.997 103.506 L
520.003 103.503 L
520.16 103.572 L
520.546 103.3 L
520.665 103.374 L
520.67 103.389 L
520.687 103.416 L
521.127 102.818 L
521.333 102.837 L
521.338 102.851 L
521.355 102.833 L
521.99 103.403 L
521.995 103.4 L
522.001 103.401 L
522.082 103.5 L
522.625 103.216 L
522.663 103.344 L
522.669 103.359 L
522.707 103.399 L
523.011 103.237 L
523.331 103.377 L
523.337 103.365 L
523.413 103.253 L
523.918 103.435 L
523.999 103.402 L
524.005 103.417 L
524.053 103.463 L
524.395 103.037 L
524.661 103.329 L
524.667 103.268 L
525.031 103.214 L
525.286 103.48 L
525.329 103.464 L
525.335 103.461 L
525.389 103.41 L
525.59 103.663 L
525.997 103.614 L
526.003 103.606 L
526.024 103.544 L
526.622 103.805 L
526.665 103.773 L
526.671 103.725 L
526.692 103.681 L
526.888 103.881 L
527.333 103.772 L
527.339 103.771 L
527.355 103.792 L
527.968 103.291 L
527.996 103.319 L
528.001 103.318 L
528.142 103.43 L
528.625 103.082 L
528.663 103.252 L
528.669 103.254 L
529.005 103.045 L
529.331 103.139 L
529.337 103.131 L
529.907 103.206 L
529.923 103.085 L
529.999 103.135 L
530.005 103.149 L
530.368 103.156 L
530.618 102.883 L
530.662 102.909 L
530.667 102.896 L
530.89 102.923 L
531.33 102.679 L
531.335 102.693 L
531.487 102.767 L
531.965 102.569 L
531.997 102.592 L
532.003 102.606 L
532.008 102.61 L
532.481 102.409 L
532.665 102.47 L
532.671 102.477 L
532.758 102.554 L
533.306 102.249 L
533.333 102.285 L
533.339 102.299 L
533.621 102.455 L
533.74 102.192 L
533.996 102.276 L
534.001 102.274 L
534.093 102.31 L
534.642 102.173 L
534.664 102.196 L
534.669 102.203 L
534.854 102.255 L
535.076 102.103 L
535.331 102.174 L
535.337 102.188 L
535.424 102.233 L
535.896 101.861 L
535.999 101.933 L
536.005 101.931 L
536.016 101.958 L
536.461 101.741 L
536.662 101.766 L
536.667 101.78 L
536.673 101.794 L
537.091 101.463 L
537.33 101.527 L
537.335 101.507 L
537.96 101.058 L
537.998 101.09 L
538.003 101.077 L
538.198 101.313 L
538.665 100.994 L
538.671 100.996 L
538.959 100.946 L
539.29 101.354 L
539.328 101.312 L
539.333 101.326 L
539.551 101.189 L
539.871 101.596 L
539.996 101.481 L
540.001 101.484 L
540.164 101.475 L
540.392 101.712 L
540.664 101.546 L
540.669 101.533 L
540.702 101.571 L
541.315 101.159 L
541.332 101.179 L
541.337 101.178 L
541.467 101.279 L
542 100.958 L
542.005 100.91 L
542.363 100.669 L
542.629 100.996 L
542.662 100.974 L
542.667 100.981 L
542.727 100.966 L
543.14 101.161 L
543.33 101.078 L
543.335 101.075 L
543.732 100.962 L
543.9 101.134 L
543.998 101.058 L
544.003 101.057 L
544.269 101.08 L
544.497 100.848 L
544.666 100.876 L
544.671 100.874 L
544.78 100.722 L
545.024 100.975 L
545.328 100.874 L
545.334 100.872 L
545.355 100.886 L
545.958 100.414 L
545.996 100.415 L
546.001 100.395 L
546.121 100.146 L
546.582 100.409 L
546.664 100.404 L
546.669 100.391 L
546.924 100.354 L
547.131 100.518 L
547.332 100.466 L
547.337 100.464 L
547.43 100.487 L
547.804 100.168 L
548 100.296 L
548.005 100.305 L
548.01 100.304 L
548.45 100.503 L
548.662 100.404 L
548.668 100.391 L
549.249 100.488 L
549.33 100.331 L
549.335 100.329 L
549.656 100.019 L
549.998 100.122 L
550.003 100.121 L
550.324 99.967 L
550.639 100.338 L
550.666 100.28 L
550.671 100.295 L
550.682 100.311 L
551.307 100.018 L
551.328 100.027 L
551.334 100.014 L
551.35 99.989 L
551.659 100.246 L
551.996 100.072 L
552.002 100.059 L
552.485 99.855 L
552.664 100.146 L
552.669 100.133 L
552.745 100.166 L
553.31 99.771 L
553.332 99.788 L
553.337 99.801 L
553.37 99.916 L
553.837 99.645 L
554 99.699 L
554.005 99.691 L
554.174 99.973 L
554.662 99.925 L
554.668 99.931 L
554.885 100.006 L
555.308 99.687 L
555.33 99.713 L
555.336 99.645 L
555.406 99.776 L
555.699 99.564 L
555.998 99.616 L
556.003 99.622 L
556.226 99.582 L
556.525 99.808 L
556.666 99.696 L
556.671 99.694 L
556.704 99.658 L
557.16 99.836 L
557.328 99.779 L
557.334 99.784 L
557.404 99.855 L
557.942 99.428 L
557.996 99.467 L
558.002 99.473 L
558.208 99.719 L
558.588 99.156 L
558.664 99.197 L
558.67 99.21 L
558.746 99.254 L
559.267 98.929 L
559.332 98.97 L
559.338 98.972 L
559.37 98.992 L
559.62 98.881 L
560 98.91 L
560.005 98.908 L
560.06 98.947 L
560.543 98.577 L
560.662 98.775 L
560.668 98.773 L
561.021 98.828 L
561.178 98.718 L
561.33 98.772 L
561.336 98.766 L
561.558 98.643 L
561.879 98.888 L
561.998 98.784 L
562.004 98.782 L
562.232 98.67 L
562.367 98.889 L
562.666 98.851 L
562.672 98.849 L
562.824 99.099 L
563.236 98.756 L
563.329 98.763 L
563.334 98.714 L
563.719 98.606 L
563.882 98.78 L
563.996 98.637 L
564.002 98.651 L
564.024 98.629 L
564.436 99.026 L
564.664 98.751 L
564.67 98.749 L
564.719 98.596 L
565.093 98.863 L
565.332 98.698 L
565.338 98.713 L
565.501 98.737 L
565.978 98.375 L
565.995 98.375 L
566 98.39 L
566.38 98.344 L
566.663 98.632 L
566.668 98.629 L
566.717 98.672 L
567.227 98.33 L
567.33 98.432 L
567.336 98.445 L
567.613 98.414 L
567.673 98.567 L
567.998 98.463 L
568.004 98.476 L
568.047 98.516 L
568.655 97.966 L
568.666 97.971 L
568.672 97.977 L
568.677 97.974 L
569.16 98.183 L
569.329 98.034 L
569.334 98.043 L
569.464 98.029 L
569.997 98.267 L
570.002 98.264 L
570.284 98.293 L
570.42 98.068 L
570.664 98.181 L
570.67 98.162 L
570.865 97.972 L
571.159 98.282 L
571.332 98.13 L
571.338 98.144 L
571.392 98.161 L
571.723 97.871 L
571.995 98.046 L
572 98.06 L
572.234 98.131 L
572.505 97.977 L
572.663 98.055 L
572.668 98.06 L
572.793 98.153 L
573.26 97.815 L
573.331 97.855 L
573.336 97.841 L
573.385 97.85 L
573.765 97.537 L
573.998 97.757 L
574.004 97.77 L
574.161 97.645 L
574.303 97.839 L
574.666 97.699 L
574.672 97.692 L
574.797 97.824 L
575.28 97.603 L
575.329 97.608 L
575.334 97.621 L
575.34 97.635 L
575.98 97.332 L
575.997 97.357 L
576.002 97.354 L
576.491 97.572 L
576.594 97.265 L
576.665 97.378 L
576.67 97.392 L
576.714 97.392 L
577.333 97.143 L
577.338 97.149 L
577.343 97.149 L
577.778 97.412 L
577.995 97.15 L
578 97.158 L
578.451 97.218 L
578.63 96.926 L
578.663 96.927 L
578.668 96.941 L
578.885 96.999 L
579.314 96.839 L
579.331 96.85 L
579.336 96.837 L
579.488 96.581 L
579.961 97.085 L
579.999 97.05 L
580.004 97.049 L
580.015 97.06 L
580.183 96.863 L
580.667 97.028 L
580.672 97.041 L
580.943 97.14 L
581.155 96.844 L
581.329 96.945 L
581.334 96.953 L
581.34 96.951 L
581.997 97.207 L
582.002 97.221 L
582.013 97.282 L
582.404 96.995 L
582.665 97.038 L
582.67 97.045 L
582.697 96.948 L
582.79 97.131 L
583.333 97.049 L
583.338 97.048 L
583.344 97.062 L
583.881 96.803 L
583.995 96.841 L
584.001 96.855 L
584.017 96.88 L
584.386 96.518 L
584.663 96.56 L
584.668 96.569 L
584.788 96.619 L
585.195 96.202 L
585.331 96.26 L
585.336 96.257 L
585.401 96.427 L
585.999 96.207 L
586.004 96.209 L
586.428 95.994 L
586.661 96.355 L
586.667 96.361 L
587.052 96.393 L
587.286 96.222 L
587.329 96.281 L
587.335 96.278 L
587.356 96.317 L
587.595 95.971 L
587.997 96.192 L
588.002 96.198 L
588.404 96.063 L
588.578 96.421 L
588.665 96.355 L
588.67 96.361 L
588.676 96.375 L
589.132 96.062 L
589.333 96.254 L
589.338 96.266 L
589.528 96.095 L
589.648 96.295 L
589.995 96.216 L
590.001 96.213 L
590.283 96.012 L
590.658 96.36 L
590.663 96.291 L
590.669 96.29 L
590.696 96.313 L
591.228 96.136 L
591.331 96.178 L
591.336 96.117 L
591.418 96.058 L
591.934 96.512 L
591.999 96.45 L
592.004 96.436 L
592.14 96.499 L
592.64 96.115 L
592.661 96.126 L
592.667 96.131 L
592.737 96.174 L
593.063 95.916 L
593.329 96.12 L
593.335 96.129 L
593.536 96.003 L
593.965 96.317 L
593.997 96.229 L
594.003 96.21 L
594.323 96.509 L
594.665 96.364 L
594.671 96.377 L
594.812 96.255 L
595.333 96.406 L
595.338 96.403 L
595.626 96.721 L
595.941 96.397 L
595.995 96.41 L
596.001 96.423 L
596.05 96.532 L
596.598 96.013 L
596.663 96.204 L
596.669 96.202 L
596.701 96.229 L
597.277 95.77 L
597.331 96.015 L
597.337 96.028 L
597.798 95.927 L
597.988 96.11 L
597.999 96.106 L
598.005 96.092 L
598.048 96.035 L
598.613 96.204 L
598.662 96.158 L
598.667 96.145 L
598.808 96.099 L
598.938 96.351 L
599.329 96.189 L
599.335 96.186 L
599.422 96.229 L
599.65 95.911 L
599.997 96.038 L
600.003 96.019 L
600.014 96.01 L
600.426 96.283 L
600.665 96.176 L
600.671 96.181 L
600.682 96.195 L
601.23 95.823 L
601.333 95.847 L
601.339 95.86 L
601.349 95.872 L
601.974 95.629 L
601.996 95.634 L
602.001 95.643 L
602.115 95.597 L
602.316 95.853 L
602.663 95.612 L
602.669 95.626 L
602.68 95.637 L
603.299 95.283 L
603.331 95.299 L
603.337 95.313 L
603.511 95.359 L
603.815 95.188 L
603.999 95.305 L
604.005 95.319 L
604.227 95.111 L
604.607 95.381 L
604.662 95.242 L
604.667 95.252 L
604.673 95.249 L
605.243 95.811 L
605.33 95.7 L
605.335 95.709 L
605.362 95.745 L
605.862 95.456 L
605.997 95.634 L
606.003 95.643 L
606.008 95.582 L
606.644 96.234 L
606.665 96.219 L
606.671 96.216 L
606.769 96.141 L
606.937 96.4 L
607.333 96.362 L
607.339 96.359 L
607.35 96.292 L
607.534 96.629 L
607.996 96.383 L
608.001 96.397 L
608.115 96.437 L
608.522 96.057 L
608.664 96.144 L
608.669 96.15 L
608.729 96.04 L
609.196 96.583 L
609.331 96.438 L
609.337 96.436 L
609.375 96.515 L
609.869 96.233 L
609.999 96.288 L
610.005 96.285 L
610.244 96.254 L
610.396 96.561 L
610.662 96.379 L
610.667 96.36 L
610.711 96.4 L
611.096 96.219 L
611.33 96.289 L
611.335 96.294 L
611.509 96.367 L
611.96 96.155 L
611.998 96.311 L
612.003 96.309 L
612.112 96.363 L
612.649 95.991 L
612.666 96.002 L
612.671 96.001 L
612.812 96.063 L
613.067 95.914 L
613.328 96.037 L
613.333 96.03 L
613.784 96.27 L
613.996 96.161 L
614.001 96.159 L
614.039 96.241 L
614.153 96.01 L
614.664 96.132 L
614.669 96.141 L
615.223 96.147 L
615.332 95.951 L
615.337 95.966 L
615.674 95.652 L
616 95.811 L
616.005 95.813 L
616.179 95.698 L
616.325 95.868 L
616.662 95.76 L
616.667 95.759 L
616.711 95.53 L
617.221 95.854 L
617.33 95.765 L
617.335 95.779 L
617.563 95.938 L
617.819 95.726 L
617.998 95.763 L
618.003 95.776 L
618.079 95.688 L
618.41 95.919 L
618.666 95.851 L
618.671 95.837 L
618.801 95.714 L
619.089 95.92 L
619.328 95.828 L
619.334 95.804 L
619.638 95.759 L
619.953 95.984 L
619.996 95.962 L
620.001 95.954 L
620.067 95.986 L
620.642 95.858 L
620.664 95.86 L
620.669 95.86 L
620.675 95.873 L
621.326 95.56 L
621.332 95.571 L
621.337 95.57 L
621.419 95.47 L
621.978 95.637 L
622 95.629 L
622.005 95.642 L
622.657 95.335 L
622.662 95.348 L
622.668 95.347 L
622.744 95.395 L
623.151 95.056 L
623.33 95.364 L
623.336 95.362 L
623.368 95.615 L
623.998 95.462 L
624.003 95.475 L
624.009 95.488 L
624.633 95.119 L
624.666 95.151 L
624.671 95.149 L
624.926 94.977 L
625.214 95.224 L
625.328 95.153 L
625.334 95.083 L
625.545 95.008 L
625.806 95.314 L
625.996 95.263 L
626.002 95.269 L
626.05 95.363 L
626.621 94.809 L
626.664 94.83 L
626.669 94.836 L
626.675 94.836 L
626.892 94.99 L
627.332 94.912 L
627.337 94.909 L
627.717 95.121 L
627.994 94.866 L
628 94.875 L
628.005 94.873 L
628.38 94.675 L
628.641 94.907 L
628.662 94.835 L
628.668 94.843 L
628.711 94.777 L
629.276 95.472 L
629.33 95.421 L
629.336 95.431 L
629.439 95.502 L
629.58 95.215 L
629.998 95.485 L
630.004 95.491 L
630.188 95.418 L
630.661 95.703 L
630.666 95.69 L
630.671 95.671 L
631.247 96.016 L
631.328 95.979 L
631.334 95.981 L
631.931 96.488 L
631.996 96.465 L
632.002 96.462 L
632.067 96.515 L
632.588 96.245 L
632.664 96.282 L
632.67 96.288 L
632.838 96.388 L
633.234 96.266 L
633.332 96.3 L
633.338 96.298 L
633.359 96.243 L
633.94 96.566 L
633.995 96.515 L
634 96.53 L
S
GR
%%Trailer
%%Pages: 1
%%EOF
