%!PS-Adobe-3.0 EPSF-3.0
%%Creator: (MATLAB, The Mathworks, Inc. Version 9.3.0.713579 \(R2017b\). Operating System: Windows 7)
%%Title: fig/RBFN_2_0,1_1000_convergence.eps
%%CreationDate: 2018-05-06T11:36:58
%%Pages: (atend)
%%BoundingBox:    23     3   492   384
%%LanguageLevel: 3
%%EndComments
%%BeginProlog
%%BeginResource: procset (Apache XML Graphics Std ProcSet) 1.2 0
%%Version: 1.2 0
%%Copyright: (Copyright 2001-2003,2010 The Apache Software Foundation. License terms: http://www.apache.org/licenses/LICENSE-2.0)
/bd{bind def}bind def
/ld{load def}bd
/GR/grestore ld
/GS/gsave ld
/RM/rmoveto ld
/C/curveto ld
/t/show ld
/L/lineto ld
/ML/setmiterlimit ld
/CT/concat ld
/f/fill ld
/N/newpath ld
/S/stroke ld
/CC/setcmykcolor ld
/A/ashow ld
/cp/closepath ld
/RC/setrgbcolor ld
/LJ/setlinejoin ld
/GC/setgray ld
/LW/setlinewidth ld
/M/moveto ld
/re {4 2 roll M
1 index 0 rlineto
0 exch rlineto
neg 0 rlineto
cp } bd
/_ctm matrix def
/_tm matrix def
/BT { _ctm currentmatrix pop matrix _tm copy pop 0 0 moveto } bd
/ET { _ctm setmatrix } bd
/iTm { _ctm setmatrix _tm concat } bd
/Tm { _tm astore pop iTm 0 0 moveto } bd
/ux 0.0 def
/uy 0.0 def
/F {
  /Tp exch def
  /Tf exch def
  Tf findfont Tp scalefont setfont
  /cf Tf def  /cs Tp def
} bd
/ULS {currentpoint /uy exch def /ux exch def} bd
/ULE {
  /Tcx currentpoint pop def
  gsave
  newpath
  cf findfont cs scalefont dup
  /FontMatrix get 0 get /Ts exch def /FontInfo get dup
  /UnderlinePosition get Ts mul /To exch def
  /UnderlineThickness get Ts mul /Tt exch def
  ux uy To add moveto  Tcx uy To add lineto
  Tt setlinewidth stroke
  grestore
} bd
/OLE {
  /Tcx currentpoint pop def
  gsave
  newpath
  cf findfont cs scalefont dup
  /FontMatrix get 0 get /Ts exch def /FontInfo get dup
  /UnderlinePosition get Ts mul /To exch def
  /UnderlineThickness get Ts mul /Tt exch def
  ux uy To add cs add moveto Tcx uy To add cs add lineto
  Tt setlinewidth stroke
  grestore
} bd
/SOE {
  /Tcx currentpoint pop def
  gsave
  newpath
  cf findfont cs scalefont dup
  /FontMatrix get 0 get /Ts exch def /FontInfo get dup
  /UnderlinePosition get Ts mul /To exch def
  /UnderlineThickness get Ts mul /Tt exch def
  ux uy To add cs 10 mul 26 idiv add moveto Tcx uy To add cs 10 mul 26 idiv add lineto
  Tt setlinewidth stroke
  grestore
} bd
/QT {
/Y22 exch store
/X22 exch store
/Y21 exch store
/X21 exch store
currentpoint
/Y21 load 2 mul add 3 div exch
/X21 load 2 mul add 3 div exch
/X21 load 2 mul /X22 load add 3 div
/Y21 load 2 mul /Y22 load add 3 div
/X22 load /Y22 load curveto
} bd
/SSPD {
dup length /d exch dict def
{
/v exch def
/k exch def
currentpagedevice k known {
/cpdv currentpagedevice k get def
v cpdv ne {
/upd false def
/nullv v type /nulltype eq def
/nullcpdv cpdv type /nulltype eq def
nullv nullcpdv or
{
/upd true def
} {
/sametype v type cpdv type eq def
sametype {
v type /arraytype eq {
/vlen v length def
/cpdvlen cpdv length def
vlen cpdvlen eq {
0 1 vlen 1 sub {
/i exch def
/obj v i get def
/cpdobj cpdv i get def
obj cpdobj ne {
/upd true def
exit
} if
} for
} {
/upd true def
} ifelse
} {
v type /dicttype eq {
v {
/dv exch def
/dk exch def
/cpddv cpdv dk get def
dv cpddv ne {
/upd true def
exit
} if
} forall
} {
/upd true def
} ifelse
} ifelse
} if
} ifelse
upd true eq {
d k v put
} if
} if
} if
} forall
d length 0 gt {
d setpagedevice
} if
} bd
/RE { % /NewFontName [NewEncodingArray] /FontName RE -
  findfont dup length dict begin
  {
    1 index /FID ne
    {def} {pop pop} ifelse
  } forall
  /Encoding exch def
  /FontName 1 index def
  currentdict definefont pop
  end
} bind def
%%EndResource
%%BeginResource: procset (Apache XML Graphics EPS ProcSet) 1.0 0
%%Version: 1.0 0
%%Copyright: (Copyright 2002-2003 The Apache Software Foundation. License terms: http://www.apache.org/licenses/LICENSE-2.0)
/BeginEPSF { %def
/b4_Inc_state save def         % Save state for cleanup
/dict_count countdictstack def % Count objects on dict stack
/op_count count 1 sub def      % Count objects on operand stack
userdict begin                 % Push userdict on dict stack
/showpage { } def              % Redefine showpage, { } = null proc
0 setgray 0 setlinecap         % Prepare graphics state
1 setlinewidth 0 setlinejoin
10 setmiterlimit [ ] 0 setdash newpath
/languagelevel where           % If level not equal to 1 then
{pop languagelevel             % set strokeadjust and
1 ne                           % overprint to their defaults.
{false setstrokeadjust false setoverprint
} if
} if
} bd
/EndEPSF { %def
count op_count sub {pop} repeat            % Clean up stacks
countdictstack dict_count sub {end} repeat
b4_Inc_state restore
} bd
%%EndResource
%FOPBeginFontDict
%%IncludeResource: font Courier-Oblique
%%IncludeResource: font Courier-BoldOblique
%%IncludeResource: font Courier-Bold
%%IncludeResource: font ZapfDingbats
%%IncludeResource: font Symbol
%%IncludeResource: font Helvetica
%%IncludeResource: font Helvetica-Oblique
%%IncludeResource: font Helvetica-Bold
%%IncludeResource: font Helvetica-BoldOblique
%%IncludeResource: font Times-Roman
%%IncludeResource: font Times-Italic
%%IncludeResource: font Times-Bold
%%IncludeResource: font Times-BoldItalic
%%IncludeResource: font Courier
%FOPEndFontDict
%%BeginResource: encoding WinAnsiEncoding
/WinAnsiEncoding [
/.notdef /.notdef /.notdef /.notdef /.notdef
/.notdef /.notdef /.notdef /.notdef /.notdef
/.notdef /.notdef /.notdef /.notdef /.notdef
/.notdef /.notdef /.notdef /.notdef /.notdef
/.notdef /.notdef /.notdef /.notdef /.notdef
/.notdef /.notdef /.notdef /.notdef /.notdef
/.notdef /.notdef /space /exclam /quotedbl
/numbersign /dollar /percent /ampersand /quotesingle
/parenleft /parenright /asterisk /plus /comma
/hyphen /period /slash /zero /one
/two /three /four /five /six
/seven /eight /nine /colon /semicolon
/less /equal /greater /question /at
/A /B /C /D /E
/F /G /H /I /J
/K /L /M /N /O
/P /Q /R /S /T
/U /V /W /X /Y
/Z /bracketleft /backslash /bracketright /asciicircum
/underscore /quoteleft /a /b /c
/d /e /f /g /h
/i /j /k /l /m
/n /o /p /q /r
/s /t /u /v /w
/x /y /z /braceleft /bar
/braceright /asciitilde /bullet /Euro /bullet
/quotesinglbase /florin /quotedblbase /ellipsis /dagger
/daggerdbl /circumflex /perthousand /Scaron /guilsinglleft
/OE /bullet /Zcaron /bullet /bullet
/quoteleft /quoteright /quotedblleft /quotedblright /bullet
/endash /emdash /asciitilde /trademark /scaron
/guilsinglright /oe /bullet /zcaron /Ydieresis
/space /exclamdown /cent /sterling /currency
/yen /brokenbar /section /dieresis /copyright
/ordfeminine /guillemotleft /logicalnot /sfthyphen /registered
/macron /degree /plusminus /twosuperior /threesuperior
/acute /mu /paragraph /middot /cedilla
/onesuperior /ordmasculine /guillemotright /onequarter /onehalf
/threequarters /questiondown /Agrave /Aacute /Acircumflex
/Atilde /Adieresis /Aring /AE /Ccedilla
/Egrave /Eacute /Ecircumflex /Edieresis /Igrave
/Iacute /Icircumflex /Idieresis /Eth /Ntilde
/Ograve /Oacute /Ocircumflex /Otilde /Odieresis
/multiply /Oslash /Ugrave /Uacute /Ucircumflex
/Udieresis /Yacute /Thorn /germandbls /agrave
/aacute /acircumflex /atilde /adieresis /aring
/ae /ccedilla /egrave /eacute /ecircumflex
/edieresis /igrave /iacute /icircumflex /idieresis
/eth /ntilde /ograve /oacute /ocircumflex
/otilde /odieresis /divide /oslash /ugrave
/uacute /ucircumflex /udieresis /yacute /thorn
/ydieresis
] def
%%EndResource
%FOPBeginFontReencode
/Courier-Oblique findfont
dup length dict begin
  {1 index /FID ne {def} {pop pop} ifelse} forall
  /Encoding WinAnsiEncoding def
  currentdict
end
/Courier-Oblique exch definefont pop
/Courier-BoldOblique findfont
dup length dict begin
  {1 index /FID ne {def} {pop pop} ifelse} forall
  /Encoding WinAnsiEncoding def
  currentdict
end
/Courier-BoldOblique exch definefont pop
/Courier-Bold findfont
dup length dict begin
  {1 index /FID ne {def} {pop pop} ifelse} forall
  /Encoding WinAnsiEncoding def
  currentdict
end
/Courier-Bold exch definefont pop
/Helvetica findfont
dup length dict begin
  {1 index /FID ne {def} {pop pop} ifelse} forall
  /Encoding WinAnsiEncoding def
  currentdict
end
/Helvetica exch definefont pop
/Helvetica-Oblique findfont
dup length dict begin
  {1 index /FID ne {def} {pop pop} ifelse} forall
  /Encoding WinAnsiEncoding def
  currentdict
end
/Helvetica-Oblique exch definefont pop
/Helvetica-Bold findfont
dup length dict begin
  {1 index /FID ne {def} {pop pop} ifelse} forall
  /Encoding WinAnsiEncoding def
  currentdict
end
/Helvetica-Bold exch definefont pop
/Helvetica-BoldOblique findfont
dup length dict begin
  {1 index /FID ne {def} {pop pop} ifelse} forall
  /Encoding WinAnsiEncoding def
  currentdict
end
/Helvetica-BoldOblique exch definefont pop
/Times-Roman findfont
dup length dict begin
  {1 index /FID ne {def} {pop pop} ifelse} forall
  /Encoding WinAnsiEncoding def
  currentdict
end
/Times-Roman exch definefont pop
/Times-Italic findfont
dup length dict begin
  {1 index /FID ne {def} {pop pop} ifelse} forall
  /Encoding WinAnsiEncoding def
  currentdict
end
/Times-Italic exch definefont pop
/Times-Bold findfont
dup length dict begin
  {1 index /FID ne {def} {pop pop} ifelse} forall
  /Encoding WinAnsiEncoding def
  currentdict
end
/Times-Bold exch definefont pop
/Times-BoldItalic findfont
dup length dict begin
  {1 index /FID ne {def} {pop pop} ifelse} forall
  /Encoding WinAnsiEncoding def
  currentdict
end
/Times-BoldItalic exch definefont pop
/Courier findfont
dup length dict begin
  {1 index /FID ne {def} {pop pop} ifelse} forall
  /Encoding WinAnsiEncoding def
  currentdict
end
/Courier exch definefont pop
%FOPEndFontReencode
%%EndProlog
%%Page: 1 1
%%PageBoundingBox: 0 0 525 394
%%BeginPageSetup
[1 0 0 -1 0 394] CT
%%EndPageSetup
GS
[0.75 0 0 0.74971 0 0.39999] CT
N
0 0 M
700 0 L
700 525 L
0 525 L
0 0 L
cp
clip
1 GC
N
0 0 700 525 re
f
GR
GS
[0.75 0 0 0.74971 0 0.39999] CT
1 GC
N
0 0 700 525 re
f
GR
GS
[0.75 0 0 0.74971 0 0.39999] CT
1 GC
N
91 463 M
634 463 L
634 39 L
91 39 L
cp
f
GR
GS
[0.75 0 0 0.74971 0 0.39999] CT
0.873 GC
1 LJ
0.667 LW
N
91 463 M
91 39 L
S
GR
GS
[0.75 0 0 0.74971 0 0.39999] CT
0.873 GC
1 LJ
0.667 LW
N
199.6 463 M
199.6 39 L
S
GR
GS
[0.75 0 0 0.74971 0 0.39999] CT
0.873 GC
1 LJ
0.667 LW
N
308.2 463 M
308.2 39 L
S
GR
GS
[0.75 0 0 0.74971 0 0.39999] CT
0.873 GC
1 LJ
0.667 LW
N
416.8 463 M
416.8 39 L
S
GR
GS
[0.75 0 0 0.74971 0 0.39999] CT
0.873 GC
1 LJ
0.667 LW
N
525.4 463 M
525.4 39 L
S
GR
GS
[0.75 0 0 0.74971 0 0.39999] CT
0.873 GC
1 LJ
0.667 LW
N
634 463 M
634 39 L
S
GR
GS
[0.75 0 0 0.74971 0 0.39999] CT
0.873 GC
1 LJ
0.667 LW
N
634 463 M
91 463 L
S
GR
GS
[0.75 0 0 0.74971 0 0.39999] CT
0.873 GC
1 LJ
0.667 LW
N
634 410 M
91 410 L
S
GR
GS
[0.75 0 0 0.74971 0 0.39999] CT
0.873 GC
1 LJ
0.667 LW
N
634 357 M
91 357 L
S
GR
GS
[0.75 0 0 0.74971 0 0.39999] CT
0.873 GC
1 LJ
0.667 LW
N
634 304 M
91 304 L
S
GR
GS
[0.75 0 0 0.74971 0 0.39999] CT
0.873 GC
1 LJ
0.667 LW
N
634 251 M
91 251 L
S
GR
GS
[0.75 0 0 0.74971 0 0.39999] CT
0.873 GC
1 LJ
0.667 LW
N
634 198 M
91 198 L
S
GR
GS
[0.75 0 0 0.74971 0 0.39999] CT
0.873 GC
1 LJ
0.667 LW
N
634 145 M
91 145 L
S
GR
GS
[0.75 0 0 0.74971 0 0.39999] CT
0.873 GC
1 LJ
0.667 LW
N
634 92 M
91 92 L
S
GR
GS
[0.75 0 0 0.74971 0 0.39999] CT
0.873 GC
1 LJ
0.667 LW
N
634 39 M
91 39 L
S
GR
GS
[0.75 0 0 0.74971 0 0.39999] CT
0.149 GC
2 setlinecap
1 LJ
0.667 LW
N
91 463 M
634 463 L
S
GR
GS
[0.75 0 0 0.74971 0 0.39999] CT
0.149 GC
2 setlinecap
1 LJ
0.667 LW
N
91 39 M
634 39 L
S
GR
GS
[0.75 0 0 0.74971 0 0.39999] CT
0.149 GC
2 setlinecap
1 LJ
0.667 LW
N
91 463 M
91 457.57 L
S
GR
GS
[0.75 0 0 0.74971 0 0.39999] CT
0.149 GC
2 setlinecap
1 LJ
0.667 LW
N
199.6 463 M
199.6 457.57 L
S
GR
GS
[0.75 0 0 0.74971 0 0.39999] CT
0.149 GC
2 setlinecap
1 LJ
0.667 LW
N
308.2 463 M
308.2 457.57 L
S
GR
GS
[0.75 0 0 0.74971 0 0.39999] CT
0.149 GC
2 setlinecap
1 LJ
0.667 LW
N
416.8 463 M
416.8 457.57 L
S
GR
GS
[0.75 0 0 0.74971 0 0.39999] CT
0.149 GC
2 setlinecap
1 LJ
0.667 LW
N
525.4 463 M
525.4 457.57 L
S
GR
GS
[0.75 0 0 0.74971 0 0.39999] CT
0.149 GC
2 setlinecap
1 LJ
0.667 LW
N
634 463 M
634 457.57 L
S
GR
GS
[0.75 0 0 0.74971 0 0.39999] CT
0.149 GC
2 setlinecap
1 LJ
0.667 LW
N
91 39 M
91 44.43 L
S
GR
GS
[0.75 0 0 0.74971 0 0.39999] CT
0.149 GC
2 setlinecap
1 LJ
0.667 LW
N
199.6 39 M
199.6 44.43 L
S
GR
GS
[0.75 0 0 0.74971 0 0.39999] CT
0.149 GC
2 setlinecap
1 LJ
0.667 LW
N
308.2 39 M
308.2 44.43 L
S
GR
GS
[0.75 0 0 0.74971 0 0.39999] CT
0.149 GC
2 setlinecap
1 LJ
0.667 LW
N
416.8 39 M
416.8 44.43 L
S
GR
GS
[0.75 0 0 0.74971 0 0.39999] CT
0.149 GC
2 setlinecap
1 LJ
0.667 LW
N
525.4 39 M
525.4 44.43 L
S
GR
GS
[0.75 0 0 0.74971 0 0.39999] CT
0.149 GC
2 setlinecap
1 LJ
0.667 LW
N
634 39 M
634 44.43 L
S
GR
GS
[0.75 0 0 0.74971 68.25 352.5158] CT
0.149 GC
/Helvetica 20 F
GS
[1 0 0 1 0 0] CT
-6 21 moveto 
1 -1 scale
(0) t 
GR
GR
GS
[0.75 0 0 0.74971 149.7 352.5158] CT
0.149 GC
/Helvetica 20 F
GS
[1 0 0 1 0 0] CT
-17 21 moveto 
1 -1 scale
(200) t 
GR
GR
GS
[0.75 0 0 0.74971 231.15001 352.5158] CT
0.149 GC
/Helvetica 20 F
GS
[1 0 0 1 0 0] CT
-17 21 moveto 
1 -1 scale
(400) t 
GR
GR
GS
[0.75 0 0 0.74971 312.59999 352.5158] CT
0.149 GC
/Helvetica 20 F
GS
[1 0 0 1 0 0] CT
-17 21 moveto 
1 -1 scale
(600) t 
GR
GR
GS
[0.75 0 0 0.74971 394.05002 352.5158] CT
0.149 GC
/Helvetica 20 F
GS
[1 0 0 1 0 0] CT
-17 21 moveto 
1 -1 scale
(800) t 
GR
GR
GS
[0.75 0 0 0.74971 475.5 352.5158] CT
0.149 GC
/Helvetica 20 F
GS
[1 0 0 1 0 0] CT
-22.5 21 moveto 
1 -1 scale
(1000) t 
GR
GR
GS
[0.75 0 0 0.74971 271.87521 373.008] CT
0.149 GC
/Helvetica 22 F
GS
[1 0 0 1 0 0] CT
-48.5 23 moveto 
1 -1 scale
(Itterations) t 
GR
GR
GS
[0.75 0 0 0.74971 0 0.39999] CT
0.149 GC
2 setlinecap
1 LJ
0.667 LW
N
91 463 M
91 39 L
S
GR
GS
[0.75 0 0 0.74971 0 0.39999] CT
0.149 GC
2 setlinecap
1 LJ
0.667 LW
N
634 463 M
634 39 L
S
GR
GS
[0.75 0 0 0.74971 0 0.39999] CT
0.149 GC
2 setlinecap
1 LJ
0.667 LW
N
91 463 M
96.43 463 L
S
GR
GS
[0.75 0 0 0.74971 0 0.39999] CT
0.149 GC
2 setlinecap
1 LJ
0.667 LW
N
91 410 M
96.43 410 L
S
GR
GS
[0.75 0 0 0.74971 0 0.39999] CT
0.149 GC
2 setlinecap
1 LJ
0.667 LW
N
91 357 M
96.43 357 L
S
GR
GS
[0.75 0 0 0.74971 0 0.39999] CT
0.149 GC
2 setlinecap
1 LJ
0.667 LW
N
91 304 M
96.43 304 L
S
GR
GS
[0.75 0 0 0.74971 0 0.39999] CT
0.149 GC
2 setlinecap
1 LJ
0.667 LW
N
91 251 M
96.43 251 L
S
GR
GS
[0.75 0 0 0.74971 0 0.39999] CT
0.149 GC
2 setlinecap
1 LJ
0.667 LW
N
91 198 M
96.43 198 L
S
GR
GS
[0.75 0 0 0.74971 0 0.39999] CT
0.149 GC
2 setlinecap
1 LJ
0.667 LW
N
91 145 M
96.43 145 L
S
GR
GS
[0.75 0 0 0.74971 0 0.39999] CT
0.149 GC
2 setlinecap
1 LJ
0.667 LW
N
91 92 M
96.43 92 L
S
GR
GS
[0.75 0 0 0.74971 0 0.39999] CT
0.149 GC
2 setlinecap
1 LJ
0.667 LW
N
91 39 M
96.43 39 L
S
GR
GS
[0.75 0 0 0.74971 0 0.39999] CT
0.149 GC
2 setlinecap
1 LJ
0.667 LW
N
634 463 M
628.57 463 L
S
GR
GS
[0.75 0 0 0.74971 0 0.39999] CT
0.149 GC
2 setlinecap
1 LJ
0.667 LW
N
634 410 M
628.57 410 L
S
GR
GS
[0.75 0 0 0.74971 0 0.39999] CT
0.149 GC
2 setlinecap
1 LJ
0.667 LW
N
634 357 M
628.57 357 L
S
GR
GS
[0.75 0 0 0.74971 0 0.39999] CT
0.149 GC
2 setlinecap
1 LJ
0.667 LW
N
634 304 M
628.57 304 L
S
GR
GS
[0.75 0 0 0.74971 0 0.39999] CT
0.149 GC
2 setlinecap
1 LJ
0.667 LW
N
634 251 M
628.57 251 L
S
GR
GS
[0.75 0 0 0.74971 0 0.39999] CT
0.149 GC
2 setlinecap
1 LJ
0.667 LW
N
634 198 M
628.57 198 L
S
GR
GS
[0.75 0 0 0.74971 0 0.39999] CT
0.149 GC
2 setlinecap
1 LJ
0.667 LW
N
634 145 M
628.57 145 L
S
GR
GS
[0.75 0 0 0.74971 0 0.39999] CT
0.149 GC
2 setlinecap
1 LJ
0.667 LW
N
634 92 M
628.57 92 L
S
GR
GS
[0.75 0 0 0.74971 0 0.39999] CT
0.149 GC
2 setlinecap
1 LJ
0.667 LW
N
634 39 M
628.57 39 L
S
GR
GS
[0.75 0 0 0.74971 63.25 347.51771] CT
0.149 GC
/Helvetica 20 F
GS
[1 0 0 1 0 0] CT
-12 8 moveto 
1 -1 scale
(0) t 
GR
GR
GS
[0.75 0 0 0.74971 63.25 307.78286] CT
0.149 GC
/Helvetica 20 F
GS
[1 0 0 1 0 0] CT
-28 8 moveto 
1 -1 scale
(0.5) t 
GR
GR
GS
[0.75 0 0 0.74971 63.25 268.048] CT
0.149 GC
/Helvetica 20 F
GS
[1 0 0 1 0 0] CT
-12 8 moveto 
1 -1 scale
(1) t 
GR
GR
GS
[0.75 0 0 0.74971 63.25 228.31314] CT
0.149 GC
/Helvetica 20 F
GS
[1 0 0 1 0 0] CT
-28 8 moveto 
1 -1 scale
(1.5) t 
GR
GR
GS
[0.75 0 0 0.74971 63.25 188.57828] CT
0.149 GC
/Helvetica 20 F
GS
[1 0 0 1 0 0] CT
-12 8 moveto 
1 -1 scale
(2) t 
GR
GR
GS
[0.75 0 0 0.74971 63.25 148.84342] CT
0.149 GC
/Helvetica 20 F
GS
[1 0 0 1 0 0] CT
-28 8 moveto 
1 -1 scale
(2.5) t 
GR
GR
GS
[0.75 0 0 0.74971 63.25 109.10857] CT
0.149 GC
/Helvetica 20 F
GS
[1 0 0 1 0 0] CT
-12 8 moveto 
1 -1 scale
(3) t 
GR
GR
GS
[0.75 0 0 0.74971 63.25 69.37371] CT
0.149 GC
/Helvetica 20 F
GS
[1 0 0 1 0 0] CT
-28 8 moveto 
1 -1 scale
(3.5) t 
GR
GR
GS
[0.75 0 0 0.74971 63.25 29.63885] CT
0.149 GC
/Helvetica 20 F
GS
[1 0 0 1 0 0] CT
-12 8 moveto 
1 -1 scale
(4) t 
GR
GR
GS
[0 -0.74971 0.75 0 39.25 188.57813] CT
0.149 GC
/Helvetica 22 F
GS
[1 0 0 1 0 0] CT
-50.5 -5 moveto 
1 -1 scale
(Difference) t 
GR
GR
GS
[0.75 0 0 0.74971 162.75 22.89142] CT
/Helvetica-Bold 22 F
GS
[1 0 0 1 0 0] CT
0 0 moveto 
1 -1 scale
(Norm 2 distance from ) t 
GR
GR
GS
[0.75 0 0 0.74971 337.5 22.89142] CT
N
3.547 0.25 M
2.547 0.25 1.945 -0.484 QT
1.344 -1.219 1.109 -2.25 QT
0.875 -3.281 0.875 -4.281 QT
0.875 -4.313 L
0.875 -5.406 1.086 -6.586 QT
1.297 -7.766 1.695 -8.945 QT
2.094 -10.125 2.563 -11.047 QT
2.875 -11.688 3.391 -12.484 QT
3.906 -13.281 4.531 -13.969 QT
5.156 -14.656 5.883 -15.086 QT
6.609 -15.516 7.344 -15.516 QT
7.375 -15.516 L
9.172 -15.516 9.703 -15.07 QT
10.234 -14.625 10.523 -13.938 QT
10.813 -13.25 10.938 -12.469 QT
11.063 -11.688 11.063 -10.984 QT
11.063 -9.313 10.609 -7.578 QT
10.156 -5.844 9.359 -4.219 QT
9.063 -3.609 8.531 -2.781 QT
8 -1.953 7.398 -1.297 QT
6.797 -0.641 6.055 -0.195 QT
5.313 0.25 3.563 0.25 QT
3.547 0.25 L
cp
3.594 -0.328 M
4.313 -0.328 4.984 -1.109 QT
5.656 -1.891 6.164 -3 QT
6.672 -4.109 7.055 -5.281 QT
7.438 -6.453 7.609 -7.266 QT
4.125 -7.266 L
3.781 -5.875 3.586 -4.875 QT
3.391 -3.875 3.391 -2.906 QT
3.391 -0.328 3.594 -0.328 QT
cp
4.297 -8.031 M
7.813 -8.031 L
8.047 -9 8.188 -9.648 QT
8.328 -10.297 8.422 -11.016 QT
8.516 -11.734 8.516 -12.359 QT
8.516 -14.938 7.344 -14.938 QT
6.953 -14.938 5.938 -12.688 QT
4.922 -10.438 4.297 -8.031 QT
cp
f
GR
GS
[0.75 0 0 0.74971 346.5 22.89142] CT
/Helvetica-Bold 22 F
GS
[1 0 0 1 0 0] CT
0 0 moveto 
1 -1 scale
( to 0) t 
GR
GR
GS
[0.75 0 0 0.74971 0 0.39999] CT
0 0.447 0.741 RC
1 LJ
2.667 LW
N
91.543 457.7 M
92.086 456.64 L
92.629 456.64 L
93.172 456.64 L
93.715 456.64 L
94.258 456.64 L
94.801 456.645 L
95.344 455.59 L
95.887 454.541 L
96.43 449.267 L
96.973 449.272 L
97.516 449.272 L
98.059 449.27 L
98.602 449.269 L
99.145 449.267 L
99.688 449.283 L
100.231 448.239 L
100.774 442.992 L
101.317 443.071 L
101.86 437.85 L
102.403 437.955 L
102.946 437.953 L
103.489 438.057 L
104.032 438.053 L
104.575 438.157 L
105.118 432.96 L
105.661 432.959 L
106.204 432.958 L
106.747 433.087 L
107.29 427.916 L
107.833 428.064 L
108.376 422.918 L
108.919 423.098 L
109.462 423.084 L
110.005 423.262 L
110.548 423.241 L
111.091 423.419 L
111.634 423.391 L
112.177 423.568 L
112.72 418.444 L
113.263 418.449 L
113.806 418.449 L
114.349 418.469 L
114.892 418.468 L
115.435 418.489 L
115.978 418.489 L
116.521 418.486 L
117.064 418.688 L
117.607 413.589 L
118.15 413.544 L
118.693 413.768 L
119.236 408.694 L
119.779 408.691 L
120.322 408.711 L
120.865 408.711 L
121.408 408.708 L
121.951 408.958 L
122.494 403.907 L
123.037 403.927 L
123.58 402.911 L
124.123 397.886 L
124.666 397.876 L
125.209 397.891 L
125.752 396.874 L
126.295 395.857 L
126.838 395.852 L
127.381 396.146 L
127.924 396.099 L
128.467 396.396 L
129.01 396.339 L
129.553 396.334 L
130.096 396.329 L
130.639 396.324 L
131.182 396.359 L
131.725 395.358 L
132.268 395.298 L
132.811 395.293 L
133.354 395.286 L
133.897 395.281 L
134.44 395.32 L
134.983 394.327 L
135.526 394.321 L
136.069 394.312 L
136.612 394.307 L
137.155 394.351 L
137.698 394.35 L
138.241 394.34 L
138.784 394.334 L
139.327 394.324 L
139.87 394.318 L
140.413 394.306 L
140.956 394.3 L
141.499 394.345 L
142.042 394.344 L
142.585 394.331 L
143.128 394.325 L
143.671 394.311 L
144.214 394.607 L
144.757 389.609 L
145.3 389.929 L
145.843 384.953 L
146.386 384.948 L
146.929 384.992 L
147.472 384.991 L
148.015 385.035 L
148.558 384.045 L
149.101 384.094 L
149.644 384.021 L
150.187 384.007 L
150.73 383.964 L
151.273 383.954 L
151.816 383.987 L
152.359 383.986 L
152.902 383.967 L
153.445 384.31 L
153.988 379.359 L
154.531 378.378 L
155.074 378.431 L
155.617 378.797 L
156.16 378.779 L
156.703 379.143 L
157.246 374.214 L
157.789 374.195 L
158.332 374.189 L
158.875 374.168 L
159.418 374.554 L
159.961 369.649 L
160.504 369.633 L
161.047 369.582 L
161.59 369.992 L
162.133 365.109 L
162.676 365.161 L
163.219 365.161 L
163.762 365.139 L
164.305 365.555 L
164.848 360.695 L
165.391 361.149 L
165.934 361.125 L
166.477 361.118 L
167.02 361.092 L
167.563 361.085 L
168.106 361.058 L
168.649 361.051 L
169.192 361.104 L
169.735 360.126 L
170.278 360.022 L
170.821 360.044 L
171.364 359.074 L
171.907 359.067 L
172.45 359.125 L
172.993 358.156 L
173.536 358.604 L
174.079 353.767 L
174.622 348.953 L
175.165 348.927 L
175.708 348.962 L
176.251 347.996 L
176.794 347.995 L
177.337 343.204 L
177.88 343.204 L
178.423 343.203 L
178.966 343.725 L
179.509 343.611 L
180.052 343.602 L
180.595 343.673 L
181.138 343.673 L
181.681 343.644 L
182.224 343.635 L
182.767 343.705 L
183.31 343.705 L
183.853 343.675 L
184.396 343.666 L
184.939 343.633 L
185.482 343.625 L
186.025 343.695 L
186.568 343.695 L
187.111 343.657 L
187.654 344.175 L
188.197 344.043 L
188.74 344.035 L
189.283 344.104 L
189.826 343.156 L
190.369 343.157 L
190.912 343.129 L
191.455 343.123 L
191.998 343.197 L
192.541 343.198 L
193.084 342.251 L
193.627 337.484 L
194.17 337.48 L
194.713 337.559 L
195.256 337.559 L
195.799 337.532 L
196.342 337.763 L
196.885 337.688 L
197.428 337.698 L
197.971 337.775 L
198.514 336.833 L
199.057 336.795 L
199.6 336.785 L
200.143 336.745 L
200.686 337.284 L
201.229 337.19 L
201.772 337.356 L
202.315 337.223 L
202.858 337.216 L
203.401 337.297 L
203.944 337.298 L
204.487 337.299 L
205.03 337.378 L
205.573 336.449 L
206.116 336.411 L
206.659 336.402 L
207.202 336.361 L
207.745 336.351 L
208.288 336.436 L
208.831 336.438 L
209.374 336.395 L
209.917 336.385 L
210.46 336.341 L
211.003 336.331 L
211.546 336.416 L
212.089 336.418 L
212.632 336.503 L
213.175 336.505 L
213.718 336.46 L
214.261 336.994 L
214.804 332.256 L
215.347 332.259 L
215.89 332.337 L
216.433 331.409 L
216.976 331.965 L
217.519 327.245 L
218.062 327.821 L
218.605 327.663 L
219.148 327.653 L
219.691 327.741 L
220.234 326.821 L
220.777 322.121 L
221.32 322.052 L
221.863 322.041 L
222.406 321.992 L
222.949 322.588 L
223.492 317.91 L
224.035 318.002 L
224.578 318.005 L
225.121 317.954 L
225.664 318.572 L
226.207 318.394 L
226.75 318.384 L
227.293 318.333 L
227.836 318.323 L
228.379 318.414 L
228.922 318.418 L
229.465 318.509 L
230.008 317.598 L
230.551 317.693 L
231.094 313.037 L
231.637 313.131 L
232.18 313.769 L
232.723 313.862 L
233.266 312.952 L
233.809 312.955 L
234.352 312.897 L
234.895 312.887 L
235.438 312.824 L
235.981 313.458 L
236.524 313.273 L
237.067 313.263 L
237.61 313.207 L
238.153 313.197 L
238.696 313.293 L
239.239 313.296 L
239.782 313.221 L
240.325 313.851 L
240.868 309.215 L
241.411 309.156 L
241.954 309.146 L
242.497 309.086 L
243.04 309.077 L
243.583 309.015 L
244.126 309.664 L
244.669 305.052 L
245.212 304.151 L
245.755 303.946 L
246.298 303.937 L
246.841 303.875 L
247.384 303.866 L
247.927 303.803 L
248.47 303.794 L
249.013 303.731 L
249.556 304.341 L
250.099 299.753 L
250.642 300.438 L
251.185 300.214 L
251.728 300.207 L
252.271 300.141 L
252.814 300.134 L
253.357 300.067 L
253.9 300.727 L
254.443 300.493 L
254.986 300.488 L
255.529 300.418 L
256.072 300.413 L
256.615 300.343 L
257.158 301.024 L
257.701 296.456 L
258.244 296.383 L
258.787 297.084 L
259.33 292.535 L
259.873 292.548 L
260.416 292.286 L
260.959 293.006 L
261.502 292.736 L
262.045 293.445 L
262.588 293.283 L
263.131 293.312 L
263.674 293.259 L
264.217 293.606 L
264.76 293.333 L
265.303 293.98 L
265.846 289.442 L
266.389 289.14 L
266.932 289.147 L
267.475 289.241 L
268.018 288.41 L
268.561 288.507 L
269.104 288.521 L
269.647 288.618 L
270.19 288.632 L
270.733 288.557 L
271.276 289.288 L
271.819 284.767 L
272.362 285.517 L
272.905 285.522 L
273.448 285.619 L
273.991 285.633 L
274.534 285.73 L
275.077 284.896 L
275.62 284.997 L
276.163 284.921 L
276.706 284.925 L
277.249 285.025 L
277.792 284.189 L
278.335 284.934 L
278.878 280.429 L
279.421 280.351 L
279.964 280.353 L
280.507 280.458 L
281.05 279.619 L
281.593 280.383 L
282.136 280.088 L
282.679 280.848 L
283.222 280.545 L
283.765 281.302 L
284.308 280.993 L
284.851 281.003 L
285.394 280.925 L
285.937 280.934 L
286.48 280.855 L
287.023 281.607 L
287.566 277.115 L
288.109 272.642 L
288.652 272.658 L
289.195 272.689 L
289.738 272.794 L
290.281 271.978 L
290.824 267.525 L
291.367 268.342 L
291.91 268.349 L
292.453 268.266 L
292.996 268.274 L
293.539 268.191 L
294.082 268.199 L
294.625 268.309 L
295.168 267.49 L
295.711 267.402 L
296.254 267.396 L
296.797 267.301 L
297.34 267.291 L
297.883 267.194 L
298.426 267.065 L
298.969 267.065 L
299.512 267.876 L
300.055 267.545 L
300.598 267.299 L
301.141 267.651 L
301.684 263.219 L
302.227 263.238 L
302.77 264.066 L
303.313 259.65 L
303.856 255.253 L
304.399 255.364 L
304.942 254.562 L
305.485 254.678 L
306.028 254.696 L
306.571 254.605 L
307.114 255.474 L
307.657 255.107 L
308.2 255.122 L
308.743 255.236 L
309.286 254.441 L
309.829 254.074 L
310.372 253.983 L
310.915 254 L
311.458 253.907 L
312.001 254.77 L
312.544 254.399 L
313.087 254.42 L
313.63 254.536 L
314.173 254.557 L
314.716 254.464 L
315.259 254.484 L
315.802 254.39 L
316.345 255.243 L
316.888 250.864 L
317.431 250.976 L
317.974 250.19 L
318.517 251.066 L
319.06 250.687 L
319.603 250.703 L
320.146 250.603 L
320.689 250.619 L
321.232 250.733 L
321.775 250.756 L
322.318 250.66 L
322.861 250.679 L
323.404 250.581 L
323.947 250.597 L
324.49 250.707 L
325.033 250.708 L
325.576 250.611 L
326.119 251.482 L
326.662 247.122 L
327.205 246.336 L
327.748 247.225 L
328.291 242.88 L
328.834 242.905 L
329.377 243.022 L
329.92 243.046 L
330.463 242.262 L
331.006 243.107 L
331.549 238.777 L
332.092 238.903 L
332.635 238.502 L
333.178 238.52 L
333.721 238.642 L
334.264 238.666 L
334.807 238.564 L
335.35 239.488 L
335.893 239.082 L
336.436 240.001 L
336.979 235.683 L
337.522 235.58 L
338.065 236.515 L
338.608 232.215 L
339.151 227.934 L
339.694 223.672 L
340.237 223.695 L
340.78 223.588 L
341.323 223.534 L
341.866 223.412 L
342.409 224.409 L
342.952 223.953 L
343.495 223.968 L
344.038 223.853 L
344.581 223.876 L
345.124 223.983 L
345.667 223.217 L
346.21 222.762 L
346.753 223.753 L
347.296 223.295 L
347.839 223.054 L
348.382 223.211 L
348.925 223.182 L
349.468 223.059 L
350.011 222.689 L
350.554 222.741 L
351.097 222.643 L
351.64 222.686 L
352.183 222.793 L
352.726 222.82 L
353.269 222.926 L
353.812 222.953 L
354.355 223.059 L
354.898 223.086 L
355.441 222.348 L
355.984 222.461 L
356.527 222.574 L
357.07 221.835 L
357.613 221.813 L
358.156 222.799 L
358.699 218.549 L
359.242 217.81 L
359.785 217.938 L
360.328 217.199 L
360.871 216.461 L
361.414 215.721 L
361.957 215.865 L
362.5 215.755 L
363.043 216.754 L
363.586 216.318 L
364.129 217.311 L
364.672 213.073 L
365.215 213.215 L
365.758 213.242 L
366.301 213.383 L
366.844 213.409 L
367.387 213.549 L
367.93 213.575 L
368.473 213.463 L
369.016 214.476 L
369.559 210.254 L
370.102 210.393 L
370.645 209.926 L
371.188 209.97 L
371.731 209.857 L
372.274 209.899 L
372.817 209.797 L
373.36 209.844 L
373.903 209.976 L
374.446 209.244 L
374.989 208.779 L
375.532 208.824 L
376.075 208.962 L
376.618 208.237 L
377.161 208.381 L
377.704 207.658 L
378.247 207.686 L
378.79 207.246 L
379.333 207.293 L
379.876 207.44 L
380.419 206.721 L
380.962 206 L
381.505 207.028 L
382.048 206.957 L
382.591 206.858 L
383.134 206.804 L
383.677 206.931 L
384.22 206.21 L
384.763 205.809 L
385.306 206.636 L
385.849 207.656 L
386.392 207.217 L
386.935 208.231 L
387.478 207.791 L
388.021 207.844 L
388.564 207.998 L
389.107 207.295 L
389.65 206.857 L
390.193 206.755 L
390.736 206.817 L
391.279 206.974 L
391.822 206.275 L
392.365 207.283 L
392.908 206.851 L
393.451 207.854 L
393.994 203.631 L
394.537 203.688 L
395.08 203.848 L
395.623 203.875 L
396.166 204.033 L
396.709 204.06 L
397.252 203.954 L
397.795 204.017 L
398.338 203.911 L
398.881 204.754 L
399.424 200.548 L
399.967 200.605 L
400.51 200.763 L
401.053 200.067 L
401.596 195.88 L
402.139 196.041 L
402.682 196.069 L
403.225 196.229 L
403.768 195.532 L
404.311 195.559 L
404.854 195.098 L
405.397 195.155 L
405.94 195.318 L
406.483 194.625 L
407.026 195.683 L
407.569 191.509 L
408.112 190.815 L
408.655 190.353 L
409.198 190.378 L
409.741 191.452 L
410.284 190.99 L
410.827 190.59 L
411.37 191.363 L
411.913 190.91 L
412.456 190.984 L
412.999 190.895 L
413.542 190.983 L
414.085 191.009 L
414.628 191.173 L
415.171 191.199 L
415.714 191.077 L
416.257 191.142 L
416.8 191.302 L
417.343 191.329 L
417.886 191.492 L
418.429 191.519 L
418.972 191.68 L
419.515 191.007 L
420.058 190.887 L
420.601 190.957 L
421.144 190.836 L
421.687 190.905 L
422.23 190.783 L
422.773 191.843 L
423.316 191.387 L
423.859 192.419 L
424.402 188.254 L
424.945 187.582 L
425.488 183.436 L
426.031 184.531 L
426.574 180.398 L
427.117 180.427 L
427.66 180.596 L
428.203 180.625 L
428.746 180.793 L
429.289 180.822 L
429.832 180.989 L
430.375 180.317 L
430.918 180.345 L
431.461 180.264 L
432.004 180.711 L
432.547 176.593 L
433.09 176.621 L
433.633 176.791 L
434.176 176.818 L
434.719 176.692 L
435.262 177.821 L
435.805 173.718 L
436.348 173.207 L
436.891 173.235 L
437.434 173.403 L
437.977 173.431 L
438.52 173.303 L
439.063 173.381 L
439.606 173.547 L
440.149 172.881 L
440.692 168.798 L
441.235 168.563 L
441.778 168.714 L
442.321 168.637 L
442.864 168.779 L
443.407 168.745 L
443.95 168.873 L
444.493 168.756 L
445.036 169.69 L
445.579 165.623 L
446.122 164.957 L
446.665 160.909 L
447.208 160.938 L
447.751 160.858 L
448.294 161.264 L
448.837 161.325 L
449.38 161.181 L
449.923 161.242 L
450.466 161.097 L
451.009 162.296 L
451.552 158.262 L
452.095 157.714 L
452.638 158.921 L
453.181 158.374 L
453.724 158.461 L
454.267 158.325 L
454.81 158.41 L
455.353 158.273 L
455.896 158.358 L
456.439 158.528 L
456.982 158.565 L
457.525 158.734 L
458.068 158.77 L
458.611 158.632 L
459.154 158.717 L
459.697 158.578 L
460.24 159.782 L
460.783 159.233 L
461.326 159.321 L
461.869 159.181 L
462.412 159.266 L
462.955 159.127 L
463.498 159.209 L
464.041 159.068 L
464.584 159.146 L
465.127 159.302 L
465.67 159.345 L
466.213 159.205 L
466.756 160.369 L
467.299 159.822 L
467.842 161.011 L
468.385 156.991 L
468.928 156.327 L
469.471 157.531 L
470.014 157.388 L
470.557 158.585 L
471.1 154.575 L
471.643 155.786 L
472.186 155.232 L
472.729 156.435 L
473.272 155.883 L
473.815 155.975 L
474.358 156.128 L
474.901 155.474 L
475.444 155.331 L
475.987 156.525 L
476.53 152.519 L
477.073 152.558 L
477.616 152.712 L
478.159 152.057 L
478.702 153.254 L
479.245 149.259 L
479.788 149.362 L
480.331 149.525 L
480.874 148.87 L
481.417 149.039 L
481.96 148.385 L
482.503 147.845 L
483.046 149.013 L
483.589 145.03 L
484.132 145.075 L
484.675 144.557 L
485.218 145.596 L
485.761 141.625 L
486.304 137.673 L
486.847 137.084 L
487.39 136.493 L
487.933 132.558 L
488.476 133.476 L
489.019 129.555 L
489.562 125.651 L
490.105 125.022 L
490.648 125.145 L
491.191 125.313 L
491.734 124.691 L
492.277 120.805 L
492.82 120.166 L
493.363 120.339 L
493.906 121.662 L
494.449 121.031 L
494.992 121.167 L
495.535 121.013 L
496.078 121.144 L
496.621 120.988 L
497.164 121.115 L
497.707 121.278 L
498.25 121.322 L
498.793 121.165 L
499.336 121.289 L
499.879 121.131 L
500.422 122.476 L
500.965 121.841 L
501.508 121.968 L
502.051 121.81 L
502.594 121.932 L
503.137 122.084 L
503.68 121.458 L
504.223 121.306 L
504.766 122.537 L
505.309 121.914 L
505.852 122.038 L
506.395 121.879 L
506.938 121.999 L
507.481 121.839 L
508.024 123.168 L
508.567 119.293 L
509.11 120.635 L
509.653 120.004 L
510.196 120.128 L
510.739 120.275 L
511.282 120.326 L
511.825 120.472 L
512.368 119.848 L
512.911 119.224 L
513.454 119.359 L
513.997 118.736 L
514.54 118.57 L
515.083 119.905 L
515.626 119.293 L
516.169 119.416 L
516.712 119.255 L
517.255 119.31 L
517.798 119.146 L
518.341 120.472 L
518.884 119.864 L
519.427 119.988 L
519.97 119.826 L
520.513 119.943 L
521.056 119.78 L
521.599 119.89 L
522.142 120.041 L
522.685 120.101 L
523.228 120.251 L
523.771 120.311 L
524.314 120.46 L
524.857 120.519 L
525.4 120.357 L
525.943 121.674 L
526.486 117.802 L
527.029 117.173 L
527.572 117.006 L
528.115 117.117 L
528.658 116.952 L
529.201 118.282 L
529.744 114.426 L
530.287 115.567 L
530.83 111.723 L
531.373 111.089 L
531.916 111.245 L
532.459 110.612 L
533.002 110.673 L
533.545 110.57 L
534.088 111.159 L
534.631 107.328 L
535.174 103.515 L
535.717 99.719 L
536.26 99.547 L
536.803 100.96 L
537.346 97.177 L
537.889 93.41 L
538.432 93.517 L
538.975 93.676 L
539.518 93.736 L
540.061 93.101 L
540.604 92.424 L
541.147 92.536 L
541.69 92.7 L
542.233 92.072 L
542.776 92.242 L
543.319 92.301 L
543.862 92.136 L
544.405 93.433 L
544.948 89.678 L
545.491 85.94 L
546.034 82.219 L
546.577 81.59 L
547.12 81.643 L
547.663 81.817 L
548.206 81.191 L
548.749 81.084 L
549.292 82.581 L
549.835 81.887 L
550.378 78.176 L
550.921 77.467 L
551.464 77.386 L
552.007 77.549 L
552.55 76.936 L
553.093 76.325 L
553.636 76.173 L
554.179 76.3 L
554.722 76.279 L
555.265 76.23 L
555.808 75.657 L
556.351 75.79 L
556.894 75.617 L
557.437 75.74 L
557.98 75.558 L
558.523 77.064 L
559.066 73.37 L
559.609 73.424 L
560.152 73.6 L
560.695 72.984 L
561.238 73.166 L
561.781 73.087 L
562.324 73.228 L
562.867 73.126 L
563.41 73.656 L
563.953 73.72 L
564.496 73.53 L
565.039 73.043 L
565.582 73.174 L
566.125 73.349 L
566.668 73.413 L
567.211 73.587 L
567.754 72.968 L
568.297 74.483 L
568.84 75.7 L
569.383 75.042 L
569.926 75.168 L
570.469 75.346 L
571.012 75.41 L
571.555 75.587 L
572.098 74.975 L
572.641 76.285 L
573.184 75.605 L
573.727 77.068 L
574.27 76.393 L
574.813 77.845 L
575.356 74.134 L
575.899 73.952 L
576.442 75.449 L
576.985 74.764 L
577.528 74.909 L
578.071 74.734 L
578.614 74.876 L
579.157 74.274 L
579.7 75.763 L
580.243 75.088 L
580.786 76.569 L
581.329 75.9 L
581.872 77.373 L
582.415 76.709 L
582.958 76.119 L
583.501 76.289 L
584.044 76.108 L
584.587 77.572 L
585.13 76.92 L
585.673 78.358 L
586.216 77.708 L
586.759 79.156 L
587.302 75.423 L
587.845 71.706 L
588.388 71.523 L
588.931 71.7 L
589.474 71.865 L
590.017 71.936 L
590.56 71.753 L
591.103 73.233 L
591.646 72.565 L
592.189 74.037 L
592.732 70.328 L
593.275 70.509 L
593.818 70.67 L
594.361 70.74 L
594.904 70.9 L
595.447 70.914 L
595.99 71.078 L
596.533 70.957 L
597.076 71.131 L
597.619 71.141 L
598.162 71.301 L
598.705 71.454 L
599.248 70.872 L
599.791 71.048 L
600.334 71.207 L
600.877 71.279 L
601.42 70.698 L
601.963 70.862 L
602.506 70.282 L
603.049 66.588 L
603.592 66.402 L
604.135 67.905 L
604.678 64.223 L
605.221 63.532 L
605.764 63.712 L
606.307 63.877 L
606.85 63.949 L
607.393 63.762 L
607.936 63.938 L
608.479 64.1 L
609.022 64.173 L
609.565 64.334 L
610.108 64.406 L
610.651 64.22 L
611.194 64.394 L
611.737 64.207 L
612.28 65.71 L
612.823 62.042 L
613.366 62.116 L
613.909 62.272 L
614.452 61.686 L
614.995 60.986 L
615.538 57.333 L
616.081 56.753 L
616.624 56.053 L
617.167 56.238 L
617.71 56.404 L
618.253 56.477 L
618.796 56.642 L
619.339 56.067 L
619.882 55.873 L
620.425 55.904 L
620.968 55.743 L
621.511 55.283 L
622.054 55.462 L
622.597 55.457 L
623.14 55.394 L
623.683 54.875 L
624.226 55.058 L
624.769 55.113 L
625.312 54.922 L
625.855 55.092 L
626.398 55.255 L
626.941 55.304 L
627.484 55.467 L
628.027 55.396 L
628.57 55.568 L
629.113 55.377 L
629.656 56.915 L
630.199 56.213 L
630.742 56.401 L
631.285 56.555 L
631.828 56.633 L
632.371 56.786 L
632.914 56.863 L
633.457 56.672 L
634 58.206 L
S
GR
%%Trailer
%%Pages: 1
%%EOF
