%!PS-Adobe-3.0 EPSF-3.0
%%Creator: (MATLAB, The Mathworks, Inc. Version 9.3.0.713579 \(R2017b\). Operating System: Windows 7)
%%Title: fig/RBFN_1000_0,02_50000_convergence.eps
%%CreationDate: 2018-05-06T13:27:19
%%Pages: (atend)
%%BoundingBox:    27     3   479   384
%%LanguageLevel: 3
%%EndComments
%%BeginProlog
%%BeginResource: procset (Apache XML Graphics Std ProcSet) 1.2 0
%%Version: 1.2 0
%%Copyright: (Copyright 2001-2003,2010 The Apache Software Foundation. License terms: http://www.apache.org/licenses/LICENSE-2.0)
/bd{bind def}bind def
/ld{load def}bd
/GR/grestore ld
/GS/gsave ld
/RM/rmoveto ld
/C/curveto ld
/t/show ld
/L/lineto ld
/ML/setmiterlimit ld
/CT/concat ld
/f/fill ld
/N/newpath ld
/S/stroke ld
/CC/setcmykcolor ld
/A/ashow ld
/cp/closepath ld
/RC/setrgbcolor ld
/LJ/setlinejoin ld
/GC/setgray ld
/LW/setlinewidth ld
/M/moveto ld
/re {4 2 roll M
1 index 0 rlineto
0 exch rlineto
neg 0 rlineto
cp } bd
/_ctm matrix def
/_tm matrix def
/BT { _ctm currentmatrix pop matrix _tm copy pop 0 0 moveto } bd
/ET { _ctm setmatrix } bd
/iTm { _ctm setmatrix _tm concat } bd
/Tm { _tm astore pop iTm 0 0 moveto } bd
/ux 0.0 def
/uy 0.0 def
/F {
  /Tp exch def
  /Tf exch def
  Tf findfont Tp scalefont setfont
  /cf Tf def  /cs Tp def
} bd
/ULS {currentpoint /uy exch def /ux exch def} bd
/ULE {
  /Tcx currentpoint pop def
  gsave
  newpath
  cf findfont cs scalefont dup
  /FontMatrix get 0 get /Ts exch def /FontInfo get dup
  /UnderlinePosition get Ts mul /To exch def
  /UnderlineThickness get Ts mul /Tt exch def
  ux uy To add moveto  Tcx uy To add lineto
  Tt setlinewidth stroke
  grestore
} bd
/OLE {
  /Tcx currentpoint pop def
  gsave
  newpath
  cf findfont cs scalefont dup
  /FontMatrix get 0 get /Ts exch def /FontInfo get dup
  /UnderlinePosition get Ts mul /To exch def
  /UnderlineThickness get Ts mul /Tt exch def
  ux uy To add cs add moveto Tcx uy To add cs add lineto
  Tt setlinewidth stroke
  grestore
} bd
/SOE {
  /Tcx currentpoint pop def
  gsave
  newpath
  cf findfont cs scalefont dup
  /FontMatrix get 0 get /Ts exch def /FontInfo get dup
  /UnderlinePosition get Ts mul /To exch def
  /UnderlineThickness get Ts mul /Tt exch def
  ux uy To add cs 10 mul 26 idiv add moveto Tcx uy To add cs 10 mul 26 idiv add lineto
  Tt setlinewidth stroke
  grestore
} bd
/QT {
/Y22 exch store
/X22 exch store
/Y21 exch store
/X21 exch store
currentpoint
/Y21 load 2 mul add 3 div exch
/X21 load 2 mul add 3 div exch
/X21 load 2 mul /X22 load add 3 div
/Y21 load 2 mul /Y22 load add 3 div
/X22 load /Y22 load curveto
} bd
/SSPD {
dup length /d exch dict def
{
/v exch def
/k exch def
currentpagedevice k known {
/cpdv currentpagedevice k get def
v cpdv ne {
/upd false def
/nullv v type /nulltype eq def
/nullcpdv cpdv type /nulltype eq def
nullv nullcpdv or
{
/upd true def
} {
/sametype v type cpdv type eq def
sametype {
v type /arraytype eq {
/vlen v length def
/cpdvlen cpdv length def
vlen cpdvlen eq {
0 1 vlen 1 sub {
/i exch def
/obj v i get def
/cpdobj cpdv i get def
obj cpdobj ne {
/upd true def
exit
} if
} for
} {
/upd true def
} ifelse
} {
v type /dicttype eq {
v {
/dv exch def
/dk exch def
/cpddv cpdv dk get def
dv cpddv ne {
/upd true def
exit
} if
} forall
} {
/upd true def
} ifelse
} ifelse
} if
} ifelse
upd true eq {
d k v put
} if
} if
} if
} forall
d length 0 gt {
d setpagedevice
} if
} bd
/RE { % /NewFontName [NewEncodingArray] /FontName RE -
  findfont dup length dict begin
  {
    1 index /FID ne
    {def} {pop pop} ifelse
  } forall
  /Encoding exch def
  /FontName 1 index def
  currentdict definefont pop
  end
} bind def
%%EndResource
%%BeginResource: procset (Apache XML Graphics EPS ProcSet) 1.0 0
%%Version: 1.0 0
%%Copyright: (Copyright 2002-2003 The Apache Software Foundation. License terms: http://www.apache.org/licenses/LICENSE-2.0)
/BeginEPSF { %def
/b4_Inc_state save def         % Save state for cleanup
/dict_count countdictstack def % Count objects on dict stack
/op_count count 1 sub def      % Count objects on operand stack
userdict begin                 % Push userdict on dict stack
/showpage { } def              % Redefine showpage, { } = null proc
0 setgray 0 setlinecap         % Prepare graphics state
1 setlinewidth 0 setlinejoin
10 setmiterlimit [ ] 0 setdash newpath
/languagelevel where           % If level not equal to 1 then
{pop languagelevel             % set strokeadjust and
1 ne                           % overprint to their defaults.
{false setstrokeadjust false setoverprint
} if
} if
} bd
/EndEPSF { %def
count op_count sub {pop} repeat            % Clean up stacks
countdictstack dict_count sub {end} repeat
b4_Inc_state restore
} bd
%%EndResource
%FOPBeginFontDict
%%IncludeResource: font Courier-Oblique
%%IncludeResource: font Courier-BoldOblique
%%IncludeResource: font Courier-Bold
%%IncludeResource: font ZapfDingbats
%%IncludeResource: font Symbol
%%IncludeResource: font Helvetica
%%IncludeResource: font Helvetica-Oblique
%%IncludeResource: font Helvetica-Bold
%%IncludeResource: font Helvetica-BoldOblique
%%IncludeResource: font Times-Roman
%%IncludeResource: font Times-Italic
%%IncludeResource: font Times-Bold
%%IncludeResource: font Times-BoldItalic
%%IncludeResource: font Courier
%FOPEndFontDict
%%BeginResource: encoding WinAnsiEncoding
/WinAnsiEncoding [
/.notdef /.notdef /.notdef /.notdef /.notdef
/.notdef /.notdef /.notdef /.notdef /.notdef
/.notdef /.notdef /.notdef /.notdef /.notdef
/.notdef /.notdef /.notdef /.notdef /.notdef
/.notdef /.notdef /.notdef /.notdef /.notdef
/.notdef /.notdef /.notdef /.notdef /.notdef
/.notdef /.notdef /space /exclam /quotedbl
/numbersign /dollar /percent /ampersand /quotesingle
/parenleft /parenright /asterisk /plus /comma
/hyphen /period /slash /zero /one
/two /three /four /five /six
/seven /eight /nine /colon /semicolon
/less /equal /greater /question /at
/A /B /C /D /E
/F /G /H /I /J
/K /L /M /N /O
/P /Q /R /S /T
/U /V /W /X /Y
/Z /bracketleft /backslash /bracketright /asciicircum
/underscore /quoteleft /a /b /c
/d /e /f /g /h
/i /j /k /l /m
/n /o /p /q /r
/s /t /u /v /w
/x /y /z /braceleft /bar
/braceright /asciitilde /bullet /Euro /bullet
/quotesinglbase /florin /quotedblbase /ellipsis /dagger
/daggerdbl /circumflex /perthousand /Scaron /guilsinglleft
/OE /bullet /Zcaron /bullet /bullet
/quoteleft /quoteright /quotedblleft /quotedblright /bullet
/endash /emdash /asciitilde /trademark /scaron
/guilsinglright /oe /bullet /zcaron /Ydieresis
/space /exclamdown /cent /sterling /currency
/yen /brokenbar /section /dieresis /copyright
/ordfeminine /guillemotleft /logicalnot /sfthyphen /registered
/macron /degree /plusminus /twosuperior /threesuperior
/acute /mu /paragraph /middot /cedilla
/onesuperior /ordmasculine /guillemotright /onequarter /onehalf
/threequarters /questiondown /Agrave /Aacute /Acircumflex
/Atilde /Adieresis /Aring /AE /Ccedilla
/Egrave /Eacute /Ecircumflex /Edieresis /Igrave
/Iacute /Icircumflex /Idieresis /Eth /Ntilde
/Ograve /Oacute /Ocircumflex /Otilde /Odieresis
/multiply /Oslash /Ugrave /Uacute /Ucircumflex
/Udieresis /Yacute /Thorn /germandbls /agrave
/aacute /acircumflex /atilde /adieresis /aring
/ae /ccedilla /egrave /eacute /ecircumflex
/edieresis /igrave /iacute /icircumflex /idieresis
/eth /ntilde /ograve /oacute /ocircumflex
/otilde /odieresis /divide /oslash /ugrave
/uacute /ucircumflex /udieresis /yacute /thorn
/ydieresis
] def
%%EndResource
%FOPBeginFontReencode
/Courier-Oblique findfont
dup length dict begin
  {1 index /FID ne {def} {pop pop} ifelse} forall
  /Encoding WinAnsiEncoding def
  currentdict
end
/Courier-Oblique exch definefont pop
/Courier-BoldOblique findfont
dup length dict begin
  {1 index /FID ne {def} {pop pop} ifelse} forall
  /Encoding WinAnsiEncoding def
  currentdict
end
/Courier-BoldOblique exch definefont pop
/Courier-Bold findfont
dup length dict begin
  {1 index /FID ne {def} {pop pop} ifelse} forall
  /Encoding WinAnsiEncoding def
  currentdict
end
/Courier-Bold exch definefont pop
/Helvetica findfont
dup length dict begin
  {1 index /FID ne {def} {pop pop} ifelse} forall
  /Encoding WinAnsiEncoding def
  currentdict
end
/Helvetica exch definefont pop
/Helvetica-Oblique findfont
dup length dict begin
  {1 index /FID ne {def} {pop pop} ifelse} forall
  /Encoding WinAnsiEncoding def
  currentdict
end
/Helvetica-Oblique exch definefont pop
/Helvetica-Bold findfont
dup length dict begin
  {1 index /FID ne {def} {pop pop} ifelse} forall
  /Encoding WinAnsiEncoding def
  currentdict
end
/Helvetica-Bold exch definefont pop
/Helvetica-BoldOblique findfont
dup length dict begin
  {1 index /FID ne {def} {pop pop} ifelse} forall
  /Encoding WinAnsiEncoding def
  currentdict
end
/Helvetica-BoldOblique exch definefont pop
/Times-Roman findfont
dup length dict begin
  {1 index /FID ne {def} {pop pop} ifelse} forall
  /Encoding WinAnsiEncoding def
  currentdict
end
/Times-Roman exch definefont pop
/Times-Italic findfont
dup length dict begin
  {1 index /FID ne {def} {pop pop} ifelse} forall
  /Encoding WinAnsiEncoding def
  currentdict
end
/Times-Italic exch definefont pop
/Times-Bold findfont
dup length dict begin
  {1 index /FID ne {def} {pop pop} ifelse} forall
  /Encoding WinAnsiEncoding def
  currentdict
end
/Times-Bold exch definefont pop
/Times-BoldItalic findfont
dup length dict begin
  {1 index /FID ne {def} {pop pop} ifelse} forall
  /Encoding WinAnsiEncoding def
  currentdict
end
/Times-BoldItalic exch definefont pop
/Courier findfont
dup length dict begin
  {1 index /FID ne {def} {pop pop} ifelse} forall
  /Encoding WinAnsiEncoding def
  currentdict
end
/Courier exch definefont pop
%FOPEndFontReencode
%%EndProlog
%%Page: 1 1
%%PageBoundingBox: 0 0 525 394
%%BeginPageSetup
[1 0 0 -1 0 394] CT
%%EndPageSetup
GS
[0.75 0 0 0.74971 0 0.39999] CT
N
0 0 M
700 0 L
700 525 L
0 525 L
0 0 L
cp
clip
1 GC
N
0 0 700 525 re
f
GR
GS
[0.75 0 0 0.74971 0 0.39999] CT
1 GC
N
0 0 700 525 re
f
GR
GS
[0.75 0 0 0.74971 0 0.39999] CT
1 GC
N
91 459 M
634 459 L
634 39 L
91 39 L
cp
f
GR
GS
[0.75 0 0 0.74971 0 0.39999] CT
0.873 GC
1 LJ
0.667 LW
N
91 459 M
91 39 L
S
GR
GS
[0.75 0 0 0.74971 0 0.39999] CT
0.873 GC
1 LJ
0.667 LW
N
199.6 459 M
199.6 39 L
S
GR
GS
[0.75 0 0 0.74971 0 0.39999] CT
0.873 GC
1 LJ
0.667 LW
N
308.2 459 M
308.2 39 L
S
GR
GS
[0.75 0 0 0.74971 0 0.39999] CT
0.873 GC
1 LJ
0.667 LW
N
416.8 459 M
416.8 39 L
S
GR
GS
[0.75 0 0 0.74971 0 0.39999] CT
0.873 GC
1 LJ
0.667 LW
N
525.4 459 M
525.4 39 L
S
GR
GS
[0.75 0 0 0.74971 0 0.39999] CT
0.873 GC
1 LJ
0.667 LW
N
634 459 M
634 39 L
S
GR
GS
[0.75 0 0 0.74971 0 0.39999] CT
0.873 GC
1 LJ
0.667 LW
N
634 459 M
91 459 L
S
GR
GS
[0.75 0 0 0.74971 0 0.39999] CT
0.873 GC
1 LJ
0.667 LW
N
634 412.333 M
91 412.333 L
S
GR
GS
[0.75 0 0 0.74971 0 0.39999] CT
0.873 GC
1 LJ
0.667 LW
N
634 365.667 M
91 365.667 L
S
GR
GS
[0.75 0 0 0.74971 0 0.39999] CT
0.873 GC
1 LJ
0.667 LW
N
634 319 M
91 319 L
S
GR
GS
[0.75 0 0 0.74971 0 0.39999] CT
0.873 GC
1 LJ
0.667 LW
N
634 272.333 M
91 272.333 L
S
GR
GS
[0.75 0 0 0.74971 0 0.39999] CT
0.873 GC
1 LJ
0.667 LW
N
634 225.667 M
91 225.667 L
S
GR
GS
[0.75 0 0 0.74971 0 0.39999] CT
0.873 GC
1 LJ
0.667 LW
N
634 179 M
91 179 L
S
GR
GS
[0.75 0 0 0.74971 0 0.39999] CT
0.873 GC
1 LJ
0.667 LW
N
634 132.333 M
91 132.333 L
S
GR
GS
[0.75 0 0 0.74971 0 0.39999] CT
0.873 GC
1 LJ
0.667 LW
N
634 85.667 M
91 85.667 L
S
GR
GS
[0.75 0 0 0.74971 0 0.39999] CT
0.873 GC
1 LJ
0.667 LW
N
634 39 M
91 39 L
S
GR
GS
[0.75 0 0 0.74971 0 0.39999] CT
0.149 GC
2 setlinecap
1 LJ
0.667 LW
N
91 459 M
634 459 L
S
GR
GS
[0.75 0 0 0.74971 0 0.39999] CT
0.149 GC
2 setlinecap
1 LJ
0.667 LW
N
91 39 M
634 39 L
S
GR
GS
[0.75 0 0 0.74971 0 0.39999] CT
0.149 GC
2 setlinecap
1 LJ
0.667 LW
N
91 459 M
91 453.57 L
S
GR
GS
[0.75 0 0 0.74971 0 0.39999] CT
0.149 GC
2 setlinecap
1 LJ
0.667 LW
N
199.6 459 M
199.6 453.57 L
S
GR
GS
[0.75 0 0 0.74971 0 0.39999] CT
0.149 GC
2 setlinecap
1 LJ
0.667 LW
N
308.2 459 M
308.2 453.57 L
S
GR
GS
[0.75 0 0 0.74971 0 0.39999] CT
0.149 GC
2 setlinecap
1 LJ
0.667 LW
N
416.8 459 M
416.8 453.57 L
S
GR
GS
[0.75 0 0 0.74971 0 0.39999] CT
0.149 GC
2 setlinecap
1 LJ
0.667 LW
N
525.4 459 M
525.4 453.57 L
S
GR
GS
[0.75 0 0 0.74971 0 0.39999] CT
0.149 GC
2 setlinecap
1 LJ
0.667 LW
N
634 459 M
634 453.57 L
S
GR
GS
[0.75 0 0 0.74971 0 0.39999] CT
0.149 GC
2 setlinecap
1 LJ
0.667 LW
N
91 39 M
91 44.43 L
S
GR
GS
[0.75 0 0 0.74971 0 0.39999] CT
0.149 GC
2 setlinecap
1 LJ
0.667 LW
N
199.6 39 M
199.6 44.43 L
S
GR
GS
[0.75 0 0 0.74971 0 0.39999] CT
0.149 GC
2 setlinecap
1 LJ
0.667 LW
N
308.2 39 M
308.2 44.43 L
S
GR
GS
[0.75 0 0 0.74971 0 0.39999] CT
0.149 GC
2 setlinecap
1 LJ
0.667 LW
N
416.8 39 M
416.8 44.43 L
S
GR
GS
[0.75 0 0 0.74971 0 0.39999] CT
0.149 GC
2 setlinecap
1 LJ
0.667 LW
N
525.4 39 M
525.4 44.43 L
S
GR
GS
[0.75 0 0 0.74971 0 0.39999] CT
0.149 GC
2 setlinecap
1 LJ
0.667 LW
N
634 39 M
634 44.43 L
S
GR
GS
[0.75 0 0 0.74971 68.25 349.51694] CT
0.149 GC
/Helvetica 20 F
GS
[1 0 0 1 0 0] CT
-6 21 moveto 
1 -1 scale
(0) t 
GR
GR
GS
[0.75 0 0 0.74971 149.7 349.51694] CT
0.149 GC
/Helvetica 20 F
GS
[1 0 0 1 0 0] CT
-6 21 moveto 
1 -1 scale
(1) t 
GR
GR
GS
[0.75 0 0 0.74971 231.15001 349.51694] CT
0.149 GC
/Helvetica 20 F
GS
[1 0 0 1 0 0] CT
-6 21 moveto 
1 -1 scale
(2) t 
GR
GR
GS
[0.75 0 0 0.74971 312.59999 349.51694] CT
0.149 GC
/Helvetica 20 F
GS
[1 0 0 1 0 0] CT
-6 21 moveto 
1 -1 scale
(3) t 
GR
GR
GS
[0.75 0 0 0.74971 394.05002 349.51694] CT
0.149 GC
/Helvetica 20 F
GS
[1 0 0 1 0 0] CT
-6 21 moveto 
1 -1 scale
(4) t 
GR
GR
GS
[0.75 0 0 0.74971 475.5 349.51694] CT
0.149 GC
/Helvetica 20 F
GS
[1 0 0 1 0 0] CT
-6 21 moveto 
1 -1 scale
(5) t 
GR
GR
GS
[0.75 0 0 0.74971 271.87518 370.00914] CT
0.149 GC
/Helvetica 22 F
GS
[1 0 0 1 0 0] CT
-48.5 23 moveto 
1 -1 scale
(Itterations) t 
GR
GR
GS
[0.75 0 0 0.74971 439.5 390.25143] CT
0.149 GC
N
2.938 -0.578 M
2.938 -0.734 3.031 -0.859 QT
7.203 -5 L
3.031 -9.156 L
2.938 -9.266 2.938 -9.422 QT
2.938 -9.578 3.055 -9.703 QT
3.172 -9.828 3.344 -9.828 QT
3.484 -9.828 3.641 -9.703 QT
7.781 -5.563 L
11.906 -9.703 L
12.078 -9.828 12.203 -9.828 QT
12.359 -9.828 12.477 -9.711 QT
12.594 -9.594 12.594 -9.422 QT
12.594 -9.266 12.5 -9.156 QT
8.344 -5 L
12.5 -0.859 L
12.594 -0.734 12.594 -0.578 QT
12.594 -0.406 12.477 -0.289 QT
12.359 -0.172 12.203 -0.172 QT
12.047 -0.172 11.906 -0.328 QT
7.781 -4.438 L
3.641 -0.328 L
3.5 -0.172 3.344 -0.172 QT
3.172 -0.172 3.055 -0.305 QT
2.938 -0.438 2.938 -0.578 QT
cp
f
GR
GS
[0.75 0 0 0.74971 451.5 390.25143] CT
0.149 GC
/Helvetica 20 F
GS
[1 0 0 1 0 0] CT
0 0 moveto 
1 -1 scale
(10) t 
GR
GR
GS
[0.75 0 0 0.74971 468.75 382.75429] CT
0.149 GC
/Helvetica 16 F
GS
[1 0 0 1 0 0] CT
0 0 moveto 
1 -1 scale
(4) t 
GR
GR
GS
[0.75 0 0 0.74971 0 0.39999] CT
0.149 GC
2 setlinecap
1 LJ
0.667 LW
N
91 459 M
91 39 L
S
GR
GS
[0.75 0 0 0.74971 0 0.39999] CT
0.149 GC
2 setlinecap
1 LJ
0.667 LW
N
634 459 M
634 39 L
S
GR
GS
[0.75 0 0 0.74971 0 0.39999] CT
0.149 GC
2 setlinecap
1 LJ
0.667 LW
N
91 459 M
96.43 459 L
S
GR
GS
[0.75 0 0 0.74971 0 0.39999] CT
0.149 GC
2 setlinecap
1 LJ
0.667 LW
N
91 412.333 M
96.43 412.333 L
S
GR
GS
[0.75 0 0 0.74971 0 0.39999] CT
0.149 GC
2 setlinecap
1 LJ
0.667 LW
N
91 365.667 M
96.43 365.667 L
S
GR
GS
[0.75 0 0 0.74971 0 0.39999] CT
0.149 GC
2 setlinecap
1 LJ
0.667 LW
N
91 319 M
96.43 319 L
S
GR
GS
[0.75 0 0 0.74971 0 0.39999] CT
0.149 GC
2 setlinecap
1 LJ
0.667 LW
N
91 272.333 M
96.43 272.333 L
S
GR
GS
[0.75 0 0 0.74971 0 0.39999] CT
0.149 GC
2 setlinecap
1 LJ
0.667 LW
N
91 225.667 M
96.43 225.667 L
S
GR
GS
[0.75 0 0 0.74971 0 0.39999] CT
0.149 GC
2 setlinecap
1 LJ
0.667 LW
N
91 179 M
96.43 179 L
S
GR
GS
[0.75 0 0 0.74971 0 0.39999] CT
0.149 GC
2 setlinecap
1 LJ
0.667 LW
N
91 132.333 M
96.43 132.333 L
S
GR
GS
[0.75 0 0 0.74971 0 0.39999] CT
0.149 GC
2 setlinecap
1 LJ
0.667 LW
N
91 85.667 M
96.43 85.667 L
S
GR
GS
[0.75 0 0 0.74971 0 0.39999] CT
0.149 GC
2 setlinecap
1 LJ
0.667 LW
N
91 39 M
96.43 39 L
S
GR
GS
[0.75 0 0 0.74971 0 0.39999] CT
0.149 GC
2 setlinecap
1 LJ
0.667 LW
N
634 459 M
628.57 459 L
S
GR
GS
[0.75 0 0 0.74971 0 0.39999] CT
0.149 GC
2 setlinecap
1 LJ
0.667 LW
N
634 412.333 M
628.57 412.333 L
S
GR
GS
[0.75 0 0 0.74971 0 0.39999] CT
0.149 GC
2 setlinecap
1 LJ
0.667 LW
N
634 365.667 M
628.57 365.667 L
S
GR
GS
[0.75 0 0 0.74971 0 0.39999] CT
0.149 GC
2 setlinecap
1 LJ
0.667 LW
N
634 319 M
628.57 319 L
S
GR
GS
[0.75 0 0 0.74971 0 0.39999] CT
0.149 GC
2 setlinecap
1 LJ
0.667 LW
N
634 272.333 M
628.57 272.333 L
S
GR
GS
[0.75 0 0 0.74971 0 0.39999] CT
0.149 GC
2 setlinecap
1 LJ
0.667 LW
N
634 225.667 M
628.57 225.667 L
S
GR
GS
[0.75 0 0 0.74971 0 0.39999] CT
0.149 GC
2 setlinecap
1 LJ
0.667 LW
N
634 179 M
628.57 179 L
S
GR
GS
[0.75 0 0 0.74971 0 0.39999] CT
0.149 GC
2 setlinecap
1 LJ
0.667 LW
N
634 132.333 M
628.57 132.333 L
S
GR
GS
[0.75 0 0 0.74971 0 0.39999] CT
0.149 GC
2 setlinecap
1 LJ
0.667 LW
N
634 85.667 M
628.57 85.667 L
S
GR
GS
[0.75 0 0 0.74971 0 0.39999] CT
0.149 GC
2 setlinecap
1 LJ
0.667 LW
N
634 39 M
628.57 39 L
S
GR
GS
[0.75 0 0 0.74971 63.25 344.51886] CT
0.149 GC
/Helvetica 20 F
GS
[1 0 0 1 0 0] CT
-12 8 moveto 
1 -1 scale
(0) t 
GR
GR
GS
[0.75 0 0 0.74971 63.25 309.5322] CT
0.149 GC
/Helvetica 20 F
GS
[1 0 0 1 0 0] CT
-23 8 moveto 
1 -1 scale
(10) t 
GR
GR
GS
[0.75 0 0 0.74971 63.25 274.54551] CT
0.149 GC
/Helvetica 20 F
GS
[1 0 0 1 0 0] CT
-23 8 moveto 
1 -1 scale
(20) t 
GR
GR
GS
[0.75 0 0 0.74971 63.25 239.55885] CT
0.149 GC
/Helvetica 20 F
GS
[1 0 0 1 0 0] CT
-23 8 moveto 
1 -1 scale
(30) t 
GR
GR
GS
[0.75 0 0 0.74971 63.25 204.5722] CT
0.149 GC
/Helvetica 20 F
GS
[1 0 0 1 0 0] CT
-23 8 moveto 
1 -1 scale
(40) t 
GR
GR
GS
[0.75 0 0 0.74971 63.25 169.58552] CT
0.149 GC
/Helvetica 20 F
GS
[1 0 0 1 0 0] CT
-23 8 moveto 
1 -1 scale
(50) t 
GR
GR
GS
[0.75 0 0 0.74971 63.25 134.59885] CT
0.149 GC
/Helvetica 20 F
GS
[1 0 0 1 0 0] CT
-23 8 moveto 
1 -1 scale
(60) t 
GR
GR
GS
[0.75 0 0 0.74971 63.25 99.61218] CT
0.149 GC
/Helvetica 20 F
GS
[1 0 0 1 0 0] CT
-23 8 moveto 
1 -1 scale
(70) t 
GR
GR
GS
[0.75 0 0 0.74971 63.25 64.62552] CT
0.149 GC
/Helvetica 20 F
GS
[1 0 0 1 0 0] CT
-23 8 moveto 
1 -1 scale
(80) t 
GR
GR
GS
[0.75 0 0 0.74971 63.25 29.63885] CT
0.149 GC
/Helvetica 20 F
GS
[1 0 0 1 0 0] CT
-23 8 moveto 
1 -1 scale
(90) t 
GR
GR
GS
[0 -0.74971 0.75 0 43 187.07871] CT
0.149 GC
/Helvetica 22 F
GS
[1 0 0 1 0 0] CT
-50.5 -5 moveto 
1 -1 scale
(Difference) t 
GR
GR
GS
[0.75 0 0 0.74971 162.75 22.89142] CT
/Helvetica-Bold 22 F
GS
[1 0 0 1 0 0] CT
0 0 moveto 
1 -1 scale
(Norm 2 distance from ) t 
GR
GR
GS
[0.75 0 0 0.74971 337.5 22.89142] CT
N
3.547 0.25 M
2.547 0.25 1.945 -0.484 QT
1.344 -1.219 1.109 -2.25 QT
0.875 -3.281 0.875 -4.281 QT
0.875 -4.313 L
0.875 -5.406 1.086 -6.586 QT
1.297 -7.766 1.695 -8.945 QT
2.094 -10.125 2.563 -11.047 QT
2.875 -11.688 3.391 -12.484 QT
3.906 -13.281 4.531 -13.969 QT
5.156 -14.656 5.883 -15.086 QT
6.609 -15.516 7.344 -15.516 QT
7.375 -15.516 L
9.172 -15.516 9.703 -15.07 QT
10.234 -14.625 10.523 -13.938 QT
10.813 -13.25 10.938 -12.469 QT
11.063 -11.688 11.063 -10.984 QT
11.063 -9.313 10.609 -7.578 QT
10.156 -5.844 9.359 -4.219 QT
9.063 -3.609 8.531 -2.781 QT
8 -1.953 7.398 -1.297 QT
6.797 -0.641 6.055 -0.195 QT
5.313 0.25 3.563 0.25 QT
3.547 0.25 L
cp
3.594 -0.328 M
4.313 -0.328 4.984 -1.109 QT
5.656 -1.891 6.164 -3 QT
6.672 -4.109 7.055 -5.281 QT
7.438 -6.453 7.609 -7.266 QT
4.125 -7.266 L
3.781 -5.875 3.586 -4.875 QT
3.391 -3.875 3.391 -2.906 QT
3.391 -0.328 3.594 -0.328 QT
cp
4.297 -8.031 M
7.813 -8.031 L
8.047 -9 8.188 -9.648 QT
8.328 -10.297 8.422 -11.016 QT
8.516 -11.734 8.516 -12.359 QT
8.516 -14.938 7.344 -14.938 QT
6.953 -14.938 5.938 -12.688 QT
4.922 -10.438 4.297 -8.031 QT
cp
f
GR
GS
[0.75 0 0 0.74971 346.5 22.89142] CT
/Helvetica-Bold 22 F
GS
[1 0 0 1 0 0] CT
0 0 moveto 
1 -1 scale
( to 0) t 
GR
GR
GS
[0.75 0 0 0.74971 0 0.39999] CT
0 0.447 0.741 RC
1 LJ
2.667 LW
N
91.011 459 M
91.25 455.623 L
91.326 455.623 L
91.337 455.623 L
91.923 451.736 L
91.999 451.736 L
92.01 451.667 L
92.64 447.917 L
92.662 447.917 L
92.672 447.917 L
93.215 445.783 L
93.324 445.783 L
93.335 445.734 L
93.997 443.803 L
94.008 443.803 L
94.616 443.13 L
94.66 443.13 L
94.671 443.13 L
95.322 441.454 L
95.333 441.454 L
95.344 441.454 L
95.996 438.85 L
96.006 438.85 L
96.582 437.899 L
96.658 437.899 L
96.669 437.899 L
97.321 435.918 L
97.331 435.918 L
97.342 435.918 L
97.95 434.967 L
97.994 434.967 L
98.005 434.967 L
98.656 434.042 L
98.667 434.042 L
98.7 434.042 L
99.33 432.179 L
99.34 432.179 L
99.97 430.421 L
99.992 430.421 L
100.003 430.421 L
100.644 429.291 L
100.665 429.291 L
100.676 429.269 L
101.328 427.97 L
101.339 427.97 L
101.36 427.97 L
101.969 426.696 L
101.99 426.696 L
102.001 426.696 L
102.653 426.281 L
102.664 426.281 L
102.674 426.281 L
102.707 426.281 L
103.294 425.544 L
103.326 425.544 L
103.337 425.544 L
103.978 424.279 L
103.999 424.279 L
104.01 424.279 L
104.651 423.238 L
104.662 423.238 L
104.673 423.238 L
105.248 422.606 L
105.324 422.609 L
105.335 422.592 L
105.976 420.765 L
105.998 420.765 L
106.009 420.765 L
106.085 420.766 L
106.573 419.671 L
106.66 419.671 L
106.671 419.671 L
107.301 418.736 L
107.323 418.736 L
107.333 418.736 L
107.985 417.794 L
107.996 417.794 L
108.007 417.794 L
108.637 416.526 L
108.658 416.526 L
108.669 416.526 L
109.321 415.642 L
109.332 415.642 L
109.343 415.642 L
109.994 413.867 L
110.005 413.867 L
110.646 413.413 L
110.657 413.413 L
110.667 413.413 L
111.308 411.062 L
111.33 411.062 L
111.341 411.048 L
111.982 409.872 L
111.992 409.877 L
112.003 409.705 L
112.666 408.819 L
112.677 408.819 L
113.328 407.824 L
113.339 407.658 L
113.991 407.267 L
114.001 407.267 L
114.653 406.051 L
114.664 406.051 L
114.675 406.051 L
115.326 405.142 L
115.337 405.142 L
115.989 404.382 L
116 404.382 L
116.011 404.382 L
116.64 403.522 L
116.662 403.524 L
116.673 403.524 L
116.716 403.526 L
117.325 402.21 L
117.336 402.21 L
117.998 400.556 L
118.009 400.556 L
118.66 399.466 L
118.671 399.424 L
119.29 398.692 L
119.323 398.693 L
119.334 398.693 L
119.996 398.121 L
120.007 398.121 L
120.659 397.277 L
120.67 397.277 L
121.332 396.071 L
121.343 396.071 L
121.984 394.804 L
121.994 394.804 L
122.005 394.804 L
122.657 393.94 L
122.668 393.937 L
123.33 392.783 L
123.341 392.783 L
123.993 390.648 L
124.004 390.648 L
124.014 390.648 L
124.666 389.986 L
124.677 389.986 L
125.318 389.272 L
125.328 389.272 L
125.339 389.272 L
125.991 388.844 L
126.002 388.723 L
126.664 387.577 L
126.675 387.577 L
126.708 387.577 L
127.272 385.949 L
127.327 385.949 L
127.338 385.938 L
127.989 385.402 L
128 385.402 L
128.662 384.109 L
128.673 384.109 L
128.684 384.118 L
129.325 382.793 L
129.336 382.793 L
129.347 382.793 L
129.998 381.632 L
130.009 381.632 L
130.096 381.663 L
130.661 381.08 L
130.672 381.08 L
131.323 379.727 L
131.334 379.727 L
131.997 378.79 L
132.007 378.769 L
132.051 378.77 L
132.659 377.649 L
132.67 377.544 L
133.3 377.15 L
133.332 377.15 L
133.343 377.149 L
133.397 377.15 L
133.984 376.393 L
133.995 376.393 L
134.006 376.393 L
134.016 376.393 L
134.657 375.448 L
134.668 375.448 L
134.69 375.448 L
135.331 374.437 L
135.341 374.437 L
135.363 374.437 L
135.993 373.543 L
136.004 373.543 L
136.015 373.543 L
136.655 372.919 L
136.666 372.92 L
136.677 372.882 L
137.329 371.687 L
137.34 371.687 L
137.991 370.826 L
138.002 370.825 L
138.665 370.372 L
138.675 370.372 L
139.327 369.387 L
139.338 369.293 L
139.36 369.293 L
139.989 368.771 L
140 368.771 L
140.663 367.414 L
140.674 367.414 L
141.325 366.984 L
141.336 366.957 L
141.999 366.289 L
142.009 366.106 L
142.65 364.577 L
142.661 364.577 L
142.672 364.577 L
142.683 364.577 L
143.323 364.268 L
143.334 364.268 L
143.975 363.109 L
143.997 363.109 L
144.008 363.108 L
144.648 362.826 L
144.659 362.826 L
144.67 362.819 L
145.333 362.325 L
145.343 362.325 L
145.995 361.51 L
146.006 361.509 L
146.658 360.513 L
146.668 360.389 L
146.734 360.389 L
147.331 359.215 L
147.342 359.214 L
147.982 358.272 L
147.993 358.272 L
148.004 358.272 L
148.656 357.807 L
148.667 357.807 L
148.677 357.807 L
149.318 357.198 L
149.329 357.198 L
149.34 357.198 L
149.438 357.204 L
149.992 356.787 L
150.002 356.787 L
150.665 355.704 L
150.676 355.703 L
151.327 355.046 L
151.338 355.046 L
151.979 354.425 L
151.99 354.425 L
152.001 354.424 L
152.663 353.545 L
152.674 353.542 L
153.326 352.137 L
153.336 352.137 L
153.999 351.527 L
154.01 351.414 L
154.661 350.805 L
154.672 350.656 L
155.324 349.737 L
155.335 349.734 L
155.997 349.052 L
156.008 349.052 L
156.66 348.838 L
156.67 348.815 L
156.757 348.816 L
157.333 348.001 L
157.344 348.001 L
157.995 346.766 L
158.006 346.766 L
158.658 345.727 L
158.669 345.727 L
159.331 345.198 L
159.342 345.198 L
159.994 344.341 L
160.004 344.341 L
160.656 343.58 L
160.667 343.58 L
161.329 342.988 L
161.34 342.988 L
161.981 342.338 L
161.992 342.338 L
162.003 342.323 L
162.665 341.641 L
162.676 341.641 L
163.328 340.585 L
163.338 340.598 L
163.99 339.67 L
164.001 339.67 L
164.663 338.8 L
164.674 338.8 L
165.326 338.106 L
165.337 338.106 L
165.956 337.665 L
165.999 337.665 L
166.01 337.665 L
166.075 337.666 L
166.662 337.441 L
166.672 337.441 L
166.749 337.47 L
167.324 336.942 L
167.335 336.942 L
167.997 336.161 L
168.008 336.03 L
168.638 334.806 L
168.66 334.824 L
168.671 334.824 L
169.333 333.93 L
169.344 333.93 L
169.996 332.916 L
170.007 332.897 L
170.658 331.901 L
170.669 331.901 L
171.331 331.325 L
171.342 331.324 L
171.994 330.403 L
172.005 330.403 L
172.656 329.61 L
172.667 329.585 L
173.33 328.417 L
173.341 328.414 L
173.992 327.43 L
174.003 327.43 L
174.655 326.857 L
174.665 326.857 L
174.676 326.852 L
175.328 326.313 L
175.339 326.312 L
175.99 325.483 L
176.001 325.483 L
176.664 324.884 L
176.675 324.862 L
177.326 324.078 L
177.337 324.079 L
177.999 323.588 L
178.01 323.585 L
178.629 322.685 L
178.662 322.685 L
178.673 322.684 L
179.324 321.885 L
179.335 321.885 L
179.998 321.473 L
180.009 321.473 L
180.66 320.609 L
180.671 320.608 L
181.323 319.508 L
181.333 319.507 L
181.996 318.839 L
182.007 318.838 L
182.658 317.557 L
182.669 317.606 L
183.332 316.82 L
183.343 316.82 L
183.994 316.289 L
184.005 316.289 L
184.657 315.546 L
184.667 315.546 L
185.33 314.472 L
185.341 314.472 L
185.363 314.475 L
185.992 313.734 L
186.003 313.734 L
186.666 313.114 L
186.677 313.114 L
187.328 312.648 L
187.339 312.648 L
187.991 311.947 L
188.002 311.947 L
188.664 311.246 L
188.675 311.246 L
189.326 309.976 L
189.337 309.956 L
190 309.205 L
190.011 309.205 L
190.662 308.131 L
190.673 308.018 L
191.303 307.248 L
191.325 307.248 L
191.336 307.232 L
191.998 306.709 L
192.009 306.709 L
192.66 305.616 L
192.671 305.616 L
193.323 304.975 L
193.334 304.975 L
193.996 304.406 L
194.007 304.328 L
194.572 304.175 L
194.659 304.183 L
194.67 304.162 L
195.278 303.415 L
195.332 303.419 L
195.343 303.418 L
195.994 303.036 L
196.005 303.036 L
196.657 302.649 L
196.668 302.649 L
197.33 302.04 L
197.341 302.04 L
197.993 301.275 L
198.004 301.168 L
198.655 300.58 L
198.666 300.589 L
198.677 300.512 L
199.329 299.692 L
199.339 299.692 L
199.991 298.967 L
200.002 298.967 L
200.664 298.052 L
200.675 298.032 L
201.327 297.364 L
201.338 297.364 L
201.989 297.033 L
202 297.033 L
202.663 295.705 L
202.673 295.705 L
203.325 294.896 L
203.336 294.875 L
203.998 294.131 L
204.009 294.131 L
204.65 293.518 L
204.661 293.519 L
204.672 293.519 L
205.323 292.898 L
205.334 292.898 L
205.997 292.397 L
206.007 292.31 L
206.659 291.824 L
206.67 291.824 L
206.8 291.829 L
207.332 291.498 L
207.343 291.498 L
207.995 290.885 L
208.006 290.885 L
208.657 290.243 L
208.668 290.175 L
209.298 289.602 L
209.331 289.681 L
209.341 289.681 L
209.993 289.317 L
210.004 289.231 L
210.666 288.409 L
210.677 288.404 L
211.329 287.744 L
211.34 287.744 L
211.991 286.98 L
212.002 286.98 L
212.654 285.9 L
212.665 285.9 L
212.675 285.9 L
213.327 285.242 L
213.338 285.242 L
213.99 284.493 L
214 284.493 L
214.663 283.689 L
214.674 283.689 L
215.325 282.804 L
215.336 282.804 L
215.347 282.806 L
215.999 282.274 L
216.009 282.268 L
216.661 281.773 L
216.672 281.677 L
217.324 281.15 L
217.334 281.15 L
217.997 280.481 L
218.008 280.481 L
218.04 280.487 L
218.659 280.006 L
218.67 280.006 L
219.333 279.273 L
219.343 279.272 L
219.973 278.862 L
219.995 278.918 L
220.006 278.917 L
220.658 278.264 L
220.668 278.263 L
221.331 277.573 L
221.342 277.572 L
221.993 276.744 L
222.004 276.743 L
222.667 276.091 L
222.678 276.087 L
222.688 276.1 L
223.329 275.472 L
223.34 275.474 L
223.992 274.546 L
224.002 274.544 L
224.665 273.624 L
224.676 273.606 L
224.719 273.61 L
225.327 273.131 L
225.338 273.04 L
225.946 272.908 L
225.99 272.908 L
226.001 272.908 L
226.663 272.233 L
226.674 272.233 L
227.326 271.411 L
227.336 271.333 L
227.999 270.765 L
228.01 270.763 L
228.661 270.199 L
228.672 270.199 L
229.313 269.669 L
229.324 269.669 L
229.335 269.641 L
229.997 269.095 L
230.008 269.094 L
230.66 268.664 L
230.67 268.662 L
231.333 267.917 L
231.344 267.916 L
231.995 267.509 L
232.006 267.508 L
232.571 266.999 L
232.658 267.001 L
232.669 267.001 L
233.331 266.191 L
233.342 266.173 L
233.994 265.862 L
234.004 265.862 L
234.656 265.427 L
234.667 265.427 L
235.297 264.843 L
235.329 264.843 L
235.34 264.843 L
235.362 264.881 L
235.992 264.056 L
236.003 263.973 L
236.665 263.793 L
236.676 263.793 L
237.328 263.281 L
237.339 263.27 L
237.99 262.744 L
238.001 262.662 L
238.544 262.404 L
238.663 262.411 L
238.674 262.394 L
239.326 262.066 L
239.337 262.058 L
239.999 261.5 L
240.01 261.485 L
240.662 260.978 L
240.673 260.966 L
241.324 260.716 L
241.335 260.713 L
241.997 260.162 L
242.008 260.162 L
242.66 259.616 L
242.671 259.616 L
243.333 259.087 L
243.344 259.087 L
243.355 259.087 L
243.996 258.462 L
244.007 258.462 L
244.658 257.786 L
244.669 257.783 L
245.331 257.476 L
245.342 257.475 L
245.994 256.956 L
246.005 256.955 L
246.656 256.116 L
246.667 256.115 L
247.33 255.547 L
247.341 255.533 L
247.992 254.64 L
248.003 254.64 L
248.665 254.196 L
248.676 254.195 L
249.328 253.396 L
249.339 253.381 L
249.99 252.732 L
250.001 252.732 L
250.664 252.014 L
250.675 251.998 L
251.185 251.637 L
251.326 251.727 L
251.337 251.727 L
251.999 251.245 L
252.01 251.237 L
252.662 250.716 L
252.673 250.645 L
253.324 250.178 L
253.335 250.178 L
253.998 249.907 L
254.009 249.907 L
254.649 249.356 L
254.66 249.356 L
254.671 249.356 L
255.323 248.845 L
255.334 248.844 L
255.996 248.285 L
256.007 248.204 L
256.658 247.354 L
256.669 247.272 L
257.332 246.869 L
257.343 246.869 L
257.994 246.359 L
258.005 246.358 L
258.657 245.593 L
258.668 245.593 L
259.33 245.089 L
259.341 245.087 L
259.439 245.141 L
259.992 244.547 L
260.003 244.547 L
260.666 244.154 L
260.677 244.154 L
261.328 243.365 L
261.339 243.364 L
261.448 243.373 L
261.991 242.983 L
262.002 242.983 L
262.664 242.542 L
262.675 242.537 L
263.294 242.03 L
263.326 242.03 L
263.337 242.03 L
264 241.44 L
264.011 241.36 L
264.662 240.684 L
264.673 240.67 L
265.325 240.199 L
265.336 240.199 L
265.998 239.432 L
266.009 239.432 L
266.66 239.049 L
266.671 239.049 L
267.323 238.247 L
267.334 238.246 L
267.388 238.26 L
267.996 237.645 L
268.007 237.645 L
268.659 237.415 L
268.67 237.338 L
269.332 236.634 L
269.343 236.634 L
269.995 236.018 L
270.005 235.941 L
270.646 235.293 L
270.657 235.293 L
270.668 235.292 L
270.722 235.297 L
271.33 234.845 L
271.341 234.845 L
271.993 234.399 L
272.004 234.399 L
272.666 233.728 L
272.677 233.728 L
273.307 233.115 L
273.329 233.117 L
273.339 233.117 L
273.991 232.651 L
274.002 232.587 L
274.643 232.318 L
274.664 232.32 L
274.675 232.32 L
275.327 231.646 L
275.338 231.571 L
275.989 231.167 L
276 231.167 L
276.663 230.674 L
276.673 230.674 L
277.325 230.046 L
277.336 230.046 L
277.423 230.065 L
277.998 229.736 L
278.009 229.721 L
278.661 229.406 L
278.672 229.404 L
279.312 228.976 L
279.323 228.976 L
279.334 228.976 L
279.997 228.442 L
280.007 228.442 L
280.637 227.907 L
280.659 227.907 L
280.67 227.907 L
281.332 227.012 L
281.343 227.008 L
281.995 226.579 L
282.006 226.578 L
282.657 225.887 L
282.668 225.886 L
283.331 225.409 L
283.341 225.409 L
283.993 225.052 L
284.004 225.052 L
284.666 224.34 L
284.677 224.332 L
285.329 223.779 L
285.34 223.716 L
285.991 223.268 L
286.002 223.267 L
286.665 222.893 L
286.675 222.893 L
287.327 222.291 L
287.338 222.287 L
287.99 221.671 L
288 221.671 L
288.663 220.982 L
288.674 220.921 L
289.325 220.06 L
289.336 220.06 L
289.369 220.06 L
289.999 219.579 L
290.009 219.577 L
290.661 218.972 L
290.672 218.959 L
291.313 218.548 L
291.324 218.548 L
291.334 218.548 L
291.997 218.032 L
292.008 218.032 L
292.659 217.376 L
292.67 217.376 L
293.333 216.783 L
293.344 216.712 L
293.984 216.003 L
293.995 216.003 L
294.006 215.933 L
294.658 215.536 L
294.668 215.536 L
294.679 215.536 L
295.331 214.939 L
295.342 214.939 L
295.993 214.629 L
296.004 214.629 L
296.656 214.154 L
296.667 214.149 L
297.329 213.608 L
297.34 213.596 L
297.992 213.204 L
298.002 213.19 L
298.665 212.536 L
298.676 212.528 L
299.327 211.986 L
299.338 211.984 L
299.99 211.298 L
300.001 211.296 L
300.652 210.952 L
300.663 210.952 L
300.674 210.939 L
301.326 210.425 L
301.336 210.424 L
301.999 209.837 L
302.01 209.837 L
302.651 209.338 L
302.661 209.338 L
302.672 209.337 L
303.324 209.024 L
303.335 209.013 L
303.367 209.05 L
303.997 208.619 L
304.008 208.619 L
304.649 208.052 L
304.66 208.052 L
304.671 208.052 L
305.333 207.627 L
305.344 207.634 L
305.985 206.943 L
305.995 206.943 L
306.006 206.93 L
306.614 206.635 L
306.658 206.637 L
306.669 206.635 L
307.331 206.297 L
307.342 206.297 L
307.994 205.876 L
308.005 205.876 L
308.656 205.179 L
308.667 205.178 L
309.329 204.734 L
309.34 204.735 L
309.992 204.287 L
310.003 204.283 L
310.665 203.479 L
310.676 203.479 L
311.328 203.102 L
311.339 203.102 L
311.979 202.657 L
311.99 202.657 L
312.001 202.594 L
312.663 201.825 L
312.674 201.825 L
313.326 201.284 L
313.337 201.279 L
313.999 200.613 L
314.01 200.557 L
314.021 200.56 L
314.662 200.275 L
314.673 200.274 L
315.324 200.027 L
315.335 199.96 L
315.954 199.351 L
315.997 199.353 L
316.008 199.353 L
316.66 198.927 L
316.671 198.922 L
317.333 198.408 L
317.344 198.344 L
317.996 197.866 L
318.007 197.865 L
318.05 197.866 L
318.658 197.545 L
318.669 197.538 L
319.332 197.007 L
319.342 197.007 L
319.994 196.568 L
320.005 196.568 L
320.656 195.948 L
320.667 195.948 L
320.743 195.959 L
321.33 195.58 L
321.341 195.568 L
321.992 195.209 L
322.003 195.199 L
322.611 194.579 L
322.666 194.58 L
322.676 194.568 L
323.328 194.137 L
323.339 194.135 L
323.99 193.638 L
324.001 193.637 L
324.664 192.984 L
324.675 192.984 L
325.326 192.536 L
325.337 192.534 L
326 191.875 L
326.01 191.831 L
326.043 191.871 L
326.662 191.31 L
326.673 191.307 L
327.324 190.752 L
327.335 190.751 L
327.998 190.508 L
328.009 190.444 L
328.66 190.056 L
328.671 190.046 L
329.323 189.769 L
329.334 189.767 L
329.996 189.451 L
330.007 189.451 L
330.658 189.026 L
330.669 189.025 L
331.332 188.574 L
331.343 188.511 L
331.994 188.118 L
332.005 188.107 L
332.624 187.685 L
332.657 187.685 L
332.668 187.684 L
333.319 187.138 L
333.33 187.138 L
333.341 187.127 L
333.992 186.566 L
334.003 186.565 L
334.612 186.183 L
334.666 186.195 L
334.677 186.184 L
335.328 185.641 L
335.339 185.64 L
335.991 184.885 L
336.002 184.885 L
336.664 184.327 L
336.675 184.327 L
336.697 184.327 L
337.327 184.05 L
337.337 184.049 L
338 183.752 L
338.011 183.752 L
338.662 183.368 L
338.673 183.367 L
339.325 182.805 L
339.336 182.746 L
339.998 182.289 L
340.009 182.289 L
340.661 181.732 L
340.671 181.723 L
341.323 181.263 L
341.334 181.26 L
341.996 180.893 L
342.007 180.893 L
342.659 180.622 L
342.67 180.611 L
343.332 180.001 L
343.343 180 L
343.995 179.108 L
344.005 179.062 L
344.657 178.625 L
344.668 178.626 L
345.33 178.18 L
345.341 178.177 L
345.993 177.576 L
346.004 177.571 L
346.666 177.027 L
346.677 177.021 L
347.329 176.342 L
347.339 176.342 L
347.991 176.05 L
348.002 176.051 L
348.664 175.547 L
348.675 175.541 L
348.697 175.542 L
349.327 175.203 L
349.338 175.146 L
349.359 175.151 L
349.989 174.916 L
350 174.913 L
350.663 174.445 L
350.673 174.445 L
351.325 173.904 L
351.336 173.903 L
351.347 173.91 L
351.998 173.436 L
352.009 173.435 L
352.661 173.026 L
352.672 173.026 L
353.312 172.543 L
353.323 172.543 L
353.334 172.542 L
353.997 172.022 L
354.007 172.018 L
354.659 171.297 L
354.67 171.29 L
355.332 171.052 L
355.343 171.017 L
355.995 170.418 L
356.006 170.418 L
356.657 170.206 L
356.668 170.152 L
357.331 169.732 L
357.341 169.724 L
357.993 169.443 L
358.004 169.434 L
358.656 169.163 L
358.666 169.164 L
358.677 169.163 L
359.329 168.768 L
359.34 168.767 L
359.98 168.328 L
359.991 168.328 L
360.002 168.326 L
360.665 168 L
360.676 167.997 L
361.327 167.419 L
361.338 167.419 L
361.99 166.927 L
362 166.922 L
362.63 166.546 L
362.663 166.546 L
362.674 166.546 L
363.325 166.106 L
363.336 166.098 L
363.999 165.695 L
364.01 165.69 L
364.661 165.413 L
364.672 165.413 L
365.324 165.065 L
365.334 165.064 L
365.997 164.849 L
366.008 164.849 L
366.659 164.383 L
366.67 164.375 L
367.333 164.031 L
367.344 164.03 L
367.995 163.774 L
368.006 163.774 L
368.658 163.398 L
368.668 163.398 L
369.331 162.988 L
369.342 162.988 L
369.993 162.579 L
370.004 162.577 L
370.656 161.917 L
370.667 161.916 L
371.318 161.474 L
371.329 161.478 L
371.34 161.43 L
371.992 160.889 L
372.003 160.886 L
372.665 160.351 L
372.676 160.342 L
373.327 159.913 L
373.338 159.913 L
373.979 159.59 L
373.99 159.592 L
374.001 159.582 L
374.663 159.085 L
374.674 159.085 L
375.326 158.52 L
375.337 158.509 L
375.988 158.092 L
375.999 158.092 L
376.01 158.092 L
376.661 157.701 L
376.672 157.656 L
377.324 157.372 L
377.335 157.383 L
377.997 157.001 L
378.008 156.997 L
378.66 156.579 L
378.671 156.578 L
378.681 156.585 L
379.333 155.978 L
379.344 155.976 L
379.985 155.59 L
379.995 155.592 L
380.006 155.534 L
380.028 155.538 L
380.658 155.105 L
380.669 155.094 L
381.331 154.785 L
381.342 154.775 L
381.994 154.144 L
382.005 154.144 L
382.656 153.801 L
382.667 153.8 L
383.329 153.305 L
383.34 153.298 L
383.992 152.893 L
384.003 152.893 L
384.665 152.566 L
384.676 152.565 L
385.328 152.192 L
385.339 152.186 L
385.349 152.24 L
385.99 151.893 L
386.001 151.891 L
386.664 151.555 L
386.674 151.545 L
387.326 151.235 L
387.337 151.234 L
387.391 151.234 L
387.999 150.829 L
388.01 150.827 L
388.662 150.478 L
388.673 150.477 L
388.694 150.485 L
389.324 150.213 L
389.335 150.212 L
389.998 149.714 L
390.008 149.714 L
390.66 149.496 L
390.671 149.495 L
391.333 149.07 L
391.344 149.068 L
391.996 148.8 L
392.007 148.762 L
392.658 148.227 L
392.669 148.227 L
393.332 147.898 L
393.342 147.897 L
393.994 147.615 L
394.005 147.613 L
394.656 147.241 L
394.667 147.24 L
395.33 146.901 L
395.341 146.9 L
395.992 146.583 L
396.003 146.583 L
396.633 146.294 L
396.666 146.296 L
396.676 146.287 L
397.328 146.109 L
397.339 146.107 L
397.99 145.607 L
398.001 145.607 L
398.664 145.221 L
398.675 145.221 L
398.696 145.245 L
399.326 144.946 L
399.337 144.945 L
400 144.51 L
400.01 144.504 L
400.662 144.079 L
400.673 144.075 L
401.324 143.645 L
401.335 143.644 L
401.998 143.341 L
402.009 143.334 L
402.66 143.005 L
402.671 143.004 L
403.323 142.52 L
403.334 142.514 L
403.366 142.514 L
403.996 142.282 L
404.007 142.282 L
404.659 141.922 L
404.669 141.876 L
405.332 141.567 L
405.343 141.535 L
405.994 141.157 L
406.005 141.151 L
406.657 140.864 L
406.668 140.861 L
407.33 140.534 L
407.341 140.533 L
407.993 140.289 L
408.003 140.287 L
408.145 140.294 L
408.666 140.053 L
408.677 140.052 L
409.328 139.722 L
409.339 139.722 L
409.882 139.42 L
409.991 139.426 L
410.002 139.425 L
410.034 139.427 L
410.664 138.894 L
410.675 138.893 L
411.327 138.516 L
411.337 138.512 L
411.348 138.537 L
412 138.262 L
412.011 138.252 L
412.662 137.789 L
412.673 137.789 L
413.325 137.422 L
413.336 137.421 L
413.998 137.125 L
414.009 137.125 L
414.661 136.678 L
414.671 136.673 L
415.323 136.294 L
415.334 136.292 L
415.996 136.075 L
416.007 136.067 L
416.659 135.573 L
416.67 135.535 L
417.332 135.35 L
417.343 135.35 L
417.995 134.842 L
418.005 134.838 L
418.027 134.84 L
418.657 134.482 L
418.668 134.481 L
419.33 134.124 L
419.341 134.115 L
419.993 133.622 L
420.004 133.621 L
420.644 133.276 L
420.666 133.277 L
420.677 133.277 L
421.329 133.012 L
421.339 133.014 L
421.437 133.016 L
421.991 132.639 L
422.002 132.615 L
422.654 132.26 L
422.664 132.26 L
422.675 132.22 L
423.327 131.918 L
423.338 131.91 L
423.989 131.691 L
424 131.69 L
424.663 131.402 L
424.673 131.368 L
425.325 130.893 L
425.336 130.854 L
425.998 130.533 L
426.009 130.532 L
426.661 130.259 L
426.672 130.259 L
427.312 129.924 L
427.323 130.023 L
427.334 130.031 L
427.997 129.719 L
428.008 129.717 L
428.084 129.739 L
428.659 129.394 L
428.67 129.364 L
429.332 129.038 L
429.343 129.014 L
429.995 128.689 L
430.006 128.65 L
430.657 128.346 L
430.668 128.346 L
431.266 128.17 L
431.331 128.178 L
431.342 128.174 L
431.993 127.772 L
432.004 127.772 L
432.666 127.435 L
432.677 127.435 L
432.699 127.442 L
433.329 127.114 L
433.34 127.114 L
433.991 126.736 L
434.002 126.736 L
434.665 126.352 L
434.676 126.326 L
435.327 126.087 L
435.338 126.087 L
435.99 125.776 L
436 125.776 L
436.663 125.559 L
436.674 125.556 L
436.706 125.556 L
437.325 125.253 L
437.336 125.249 L
437.999 124.761 L
438.01 124.756 L
438.639 124.48 L
438.661 124.49 L
438.672 124.536 L
438.694 124.541 L
439.324 124.236 L
439.335 124.232 L
439.997 123.81 L
440.008 123.81 L
440.659 123.552 L
440.67 123.549 L
441.333 123.307 L
441.344 123.305 L
441.376 123.353 L
441.995 122.948 L
442.006 122.942 L
442.658 122.577 L
442.669 122.568 L
443.331 122.135 L
443.342 122.135 L
443.993 121.94 L
444.004 121.939 L
444.656 121.611 L
444.667 121.611 L
445.242 121.273 L
445.329 121.275 L
445.34 121.275 L
445.992 120.906 L
446.003 120.908 L
446.665 120.578 L
446.676 120.577 L
447.327 120.218 L
447.338 120.218 L
447.349 120.222 L
447.99 119.969 L
448.001 119.962 L
448.663 119.609 L
448.674 119.602 L
449.326 119.364 L
449.337 119.363 L
449.999 118.969 L
450.01 118.948 L
450.661 118.691 L
450.672 118.69 L
451.324 118.577 L
451.335 118.572 L
451.997 118.255 L
452.008 118.238 L
452.66 117.823 L
452.671 117.814 L
453.333 117.527 L
453.344 117.522 L
453.985 117.205 L
453.996 117.205 L
454.006 117.202 L
454.028 117.202 L
454.658 116.761 L
454.669 116.756 L
455.331 116.433 L
455.342 116.433 L
455.994 116.146 L
456.005 116.144 L
456.515 115.763 L
456.656 115.768 L
456.667 115.768 L
457.286 115.557 L
457.33 115.559 L
457.34 115.555 L
457.992 115.383 L
458.003 115.383 L
458.665 115.031 L
458.676 115.024 L
459.328 114.741 L
459.339 114.74 L
459.99 114.314 L
460.001 114.314 L
460.664 114.146 L
460.674 114.135 L
461.326 113.876 L
461.337 113.876 L
461.999 113.556 L
462.01 113.555 L
462.662 113.319 L
462.673 113.318 L
463.324 113.014 L
463.335 113.007 L
463.357 113.008 L
463.998 112.705 L
464.008 112.705 L
464.66 112.374 L
464.671 112.368 L
465.322 112.02 L
465.333 112.016 L
465.996 111.701 L
466.007 111.701 L
466.658 111.463 L
466.669 111.458 L
467.332 111.237 L
467.342 111.208 L
467.364 111.225 L
467.994 110.922 L
468.005 110.918 L
468.656 110.561 L
468.667 110.56 L
469.33 110.255 L
469.341 110.214 L
469.992 109.891 L
470.003 109.891 L
470.025 109.894 L
470.666 109.525 L
470.676 109.519 L
471.328 108.981 L
471.339 108.978 L
471.849 108.734 L
471.991 108.779 L
472.001 108.772 L
472.653 108.319 L
472.664 108.319 L
472.675 108.311 L
473.326 108.078 L
473.337 108.055 L
474 107.633 L
474.01 107.632 L
474.662 107.31 L
474.673 107.279 L
475.325 107.102 L
475.335 107.097 L
475.998 106.875 L
476.009 106.875 L
476.66 106.618 L
476.671 106.616 L
477.323 106.174 L
477.334 106.173 L
477.996 105.925 L
478.007 105.991 L
478.659 105.803 L
478.669 105.802 L
479.332 105.47 L
479.343 105.469 L
479.994 105.313 L
480.005 105.309 L
480.657 104.991 L
480.668 104.994 L
481.33 104.774 L
481.341 104.773 L
481.982 104.618 L
481.993 104.619 L
482.003 104.611 L
482.666 104.429 L
482.677 104.428 L
483.328 104.153 L
483.339 104.153 L
483.991 103.911 L
484.002 103.91 L
484.664 103.609 L
484.675 103.607 L
485.327 103.356 L
485.337 103.339 L
486 103.079 L
486.011 103.078 L
486.662 102.751 L
486.673 102.753 L
487.314 102.493 L
487.325 102.493 L
487.336 102.493 L
487.998 102.287 L
488.009 102.286 L
488.661 102.053 L
488.671 102.051 L
489.323 101.77 L
489.334 101.766 L
489.996 101.542 L
490.007 101.541 L
490.029 101.547 L
490.648 101.289 L
490.659 101.289 L
490.67 101.289 L
491.332 100.897 L
491.343 100.895 L
491.995 100.58 L
492.005 100.579 L
492.657 100.22 L
492.668 100.28 L
493.33 100.079 L
493.341 100.079 L
493.406 100.104 L
493.993 99.936 L
494.004 99.936 L
494.623 99.746 L
494.666 99.75 L
494.677 99.749 L
495.318 99.472 L
495.329 99.472 L
495.34 99.472 L
495.991 99.129 L
496.002 99.107 L
496.664 98.729 L
496.675 98.723 L
497.327 98.609 L
497.338 98.606 L
497.989 98.429 L
498 98.423 L
498.663 98.192 L
498.674 98.194 L
499.325 97.863 L
499.336 97.862 L
499.998 97.584 L
500.009 97.585 L
500.661 97.332 L
500.672 97.331 L
501.313 97.017 L
501.323 97.017 L
501.334 97.017 L
501.997 96.744 L
502.008 96.724 L
502.659 96.47 L
502.67 96.476 L
503.311 96.319 L
503.332 96.326 L
503.343 96.325 L
503.984 96.058 L
503.995 96.062 L
504.006 96.061 L
504.657 95.901 L
504.668 95.896 L
505.331 95.631 L
505.342 95.63 L
505.374 95.637 L
505.971 95.406 L
505.993 95.406 L
506.004 95.406 L
506.667 95.213 L
506.677 95.214 L
507.329 94.949 L
507.34 94.948 L
507.991 94.652 L
508.002 94.636 L
508.665 94.318 L
508.676 94.31 L
509.327 94.019 L
509.338 94.018 L
509.349 94.018 L
509.99 93.767 L
510.001 93.766 L
510.663 93.433 L
510.674 93.427 L
511.325 93.119 L
511.336 93.118 L
511.999 92.87 L
512.01 92.867 L
512.021 92.874 L
512.661 92.647 L
512.672 92.632 L
513.302 92.42 L
513.324 92.428 L
513.335 92.427 L
513.997 92.302 L
514.008 92.298 L
514.649 92.01 L
514.659 92.01 L
514.67 92.01 L
515.322 91.698 L
515.333 91.698 L
515.344 91.698 L
515.354 91.718 L
515.984 91.49 L
515.995 91.49 L
516.006 91.49 L
516.658 91.168 L
516.669 91.167 L
517.32 90.869 L
517.331 90.876 L
517.342 90.869 L
517.993 90.562 L
518.004 90.563 L
518.102 90.564 L
518.656 90.376 L
518.667 90.373 L
518.678 90.373 L
519.329 90.123 L
519.34 90.123 L
519.992 89.928 L
520.003 89.923 L
520.665 89.74 L
520.676 89.74 L
521.317 89.593 L
521.328 89.593 L
521.338 89.589 L
521.393 89.594 L
521.99 89.489 L
522.001 89.488 L
522.62 89.295 L
522.663 89.309 L
522.674 89.309 L
523.326 89.066 L
523.337 89.066 L
523.988 88.798 L
523.999 88.799 L
524.01 88.797 L
524.661 88.55 L
524.672 88.55 L
525.324 88.221 L
525.335 88.216 L
525.976 87.916 L
525.997 87.924 L
526.008 87.923 L
526.16 87.939 L
526.66 87.733 L
526.671 87.73 L
527.333 87.445 L
527.344 87.445 L
527.377 87.448 L
527.996 87.259 L
528.006 87.255 L
528.05 87.257 L
528.658 86.894 L
528.669 86.893 L
529.331 86.61 L
529.342 86.603 L
529.994 86.346 L
530.005 86.346 L
530.613 86.129 L
530.656 86.136 L
530.667 86.108 L
531.33 85.75 L
531.34 85.75 L
531.992 85.553 L
532.003 85.553 L
532.014 85.553 L
532.665 85.249 L
532.676 85.244 L
532.709 85.247 L
533.328 84.982 L
533.339 84.98 L
533.99 84.751 L
534.001 84.744 L
534.664 84.527 L
534.674 84.521 L
535.326 84.22 L
535.337 84.219 L
535.999 84.04 L
536.01 84.04 L
536.662 83.793 L
536.673 83.786 L
537.303 83.495 L
537.324 83.495 L
537.335 83.494 L
537.998 83.21 L
538.008 83.163 L
538.66 82.934 L
538.671 82.933 L
538.747 82.939 L
539.323 82.794 L
539.333 82.793 L
539.996 82.548 L
540.007 82.543 L
540.658 82.242 L
540.669 82.239 L
541.332 82.019 L
541.342 82.017 L
541.983 81.859 L
541.994 81.861 L
542.005 81.859 L
542.027 81.862 L
542.657 81.618 L
542.667 81.613 L
543.33 81.407 L
543.341 81.407 L
543.428 81.423 L
543.992 81.22 L
544.003 81.215 L
544.025 81.218 L
544.524 81.097 L
544.666 81.103 L
544.677 81.103 L
545.328 80.909 L
545.339 80.89 L
545.98 80.71 L
545.991 80.731 L
546.001 80.718 L
546.61 80.384 L
546.664 80.384 L
546.675 80.37 L
547.001 80.383 L
547.326 80.249 L
547.337 80.248 L
548 79.985 L
548.01 79.981 L
548.64 79.863 L
548.662 79.863 L
548.673 79.863 L
549.325 79.724 L
549.335 79.718 L
549.998 79.551 L
550.009 79.55 L
550.66 79.289 L
550.671 79.289 L
551.312 79.118 L
551.323 79.152 L
551.334 79.134 L
551.996 78.921 L
552.007 78.919 L
552.659 78.768 L
552.669 78.763 L
552.702 78.787 L
553.332 78.551 L
553.343 78.551 L
553.994 78.292 L
554.005 78.284 L
554.027 78.301 L
554.657 78.056 L
554.668 78.055 L
555.2 77.851 L
555.33 77.858 L
555.341 77.858 L
555.993 77.599 L
556.003 77.598 L
556.666 77.264 L
556.677 77.264 L
557.328 77.061 L
557.339 77.041 L
557.991 76.82 L
558.002 76.818 L
558.664 76.566 L
558.675 76.56 L
559.327 76.269 L
559.338 76.268 L
560 76.001 L
560.011 75.984 L
560.662 75.63 L
560.673 75.628 L
561.314 75.251 L
561.325 75.251 L
561.336 75.247 L
561.998 75.114 L
562.009 75.105 L
562.65 74.883 L
562.661 74.883 L
562.672 74.883 L
562.715 74.886 L
563.323 74.654 L
563.334 74.653 L
563.996 74.451 L
564.007 74.449 L
564.659 74.199 L
564.67 74.199 L
565.332 73.993 L
565.343 73.993 L
565.984 73.769 L
565.995 73.771 L
566.006 73.771 L
566.136 73.786 L
566.657 73.435 L
566.668 73.434 L
567.33 73.235 L
567.341 73.232 L
567.396 73.233 L
567.993 72.912 L
568.004 72.912 L
568.666 72.587 L
568.677 72.587 L
569.329 72.393 L
569.34 72.387 L
569.991 72.14 L
570.002 72.139 L
570.664 71.943 L
570.675 71.94 L
571.327 71.627 L
571.338 71.627 L
571.501 71.671 L
571.989 71.474 L
572 71.473 L
572.652 71.24 L
572.663 71.244 L
572.674 71.243 L
573.249 71.042 L
573.325 71.043 L
573.336 71.042 L
573.445 71.064 L
573.998 70.967 L
574.009 70.967 L
574.661 70.731 L
574.672 70.728 L
575.323 70.449 L
575.334 70.449 L
575.942 70.175 L
575.997 70.177 L
576.008 70.173 L
576.659 69.947 L
576.67 69.937 L
576.681 69.938 L
577.333 69.654 L
577.343 69.618 L
577.995 69.325 L
578.006 69.325 L
578.657 69.126 L
578.668 69.125 L
579.331 68.959 L
579.342 68.959 L
579.993 68.786 L
580.004 68.78 L
580.667 68.607 L
580.677 68.607 L
581.307 68.366 L
581.329 68.371 L
581.34 68.37 L
581.991 68.202 L
582.002 68.201 L
582.654 68.039 L
582.665 68.039 L
582.676 68.024 L
583.316 67.706 L
583.327 67.706 L
583.338 67.705 L
583.36 67.706 L
583.99 67.519 L
584.001 67.518 L
584.663 67.281 L
584.674 67.277 L
584.696 67.277 L
585.326 67.001 L
585.336 67 L
585.988 66.776 L
585.999 66.776 L
586.01 66.774 L
586.661 66.621 L
586.672 66.612 L
587.324 66.344 L
587.335 66.344 L
587.997 66.106 L
588.008 66.106 L
588.659 65.845 L
588.67 65.844 L
589.333 65.643 L
589.344 65.638 L
589.995 65.432 L
590.006 65.431 L
590.658 65.187 L
590.669 65.187 L
591.32 64.952 L
591.331 64.966 L
591.342 64.958 L
591.483 64.982 L
591.983 64.639 L
591.994 64.639 L
592.004 64.639 L
592.102 64.659 L
592.656 64.447 L
592.667 64.446 L
593.286 64.279 L
593.329 64.292 L
593.34 64.291 L
593.948 64.035 L
593.992 64.065 L
594.003 64.059 L
594.046 64.065 L
594.665 63.888 L
594.676 63.883 L
595.328 63.678 L
595.338 63.677 L
595.425 63.693 L
595.99 63.567 L
596.001 63.551 L
596.663 63.39 L
596.674 63.389 L
597.326 63.156 L
597.337 63.153 L
597.901 62.92 L
597.999 62.921 L
598.01 62.92 L
598.662 62.786 L
598.672 62.781 L
599.324 62.617 L
599.335 62.617 L
599.997 62.492 L
600.008 62.487 L
600.66 62.268 L
600.671 62.268 L
601.333 62.068 L
601.344 62.062 L
601.996 61.89 L
602.006 61.89 L
602.658 61.699 L
602.669 61.699 L
603.331 61.432 L
603.342 61.432 L
603.994 61.2 L
604.005 61.197 L
604.645 61.025 L
604.656 61.025 L
604.667 61.025 L
604.678 61.026 L
605.33 60.917 L
605.34 60.916 L
605.992 60.626 L
606.003 60.618 L
606.644 60.477 L
606.665 60.483 L
606.676 60.479 L
607.328 60.267 L
607.339 60.239 L
607.99 60.037 L
608.001 60.036 L
608.642 59.855 L
608.664 59.855 L
608.674 59.854 L
609.326 59.668 L
609.337 59.667 L
609.999 59.416 L
610.01 59.411 L
610.662 59.281 L
610.673 59.28 L
611.324 59.031 L
611.335 59.029 L
611.998 58.774 L
612.008 58.774 L
612.66 58.644 L
612.671 58.636 L
613.323 58.46 L
613.333 58.457 L
613.996 58.271 L
614.007 58.27 L
614.647 58.125 L
614.658 58.125 L
614.669 58.083 L
615.332 57.89 L
615.343 57.864 L
615.994 57.719 L
616.005 57.717 L
616.016 57.729 L
616.657 57.553 L
616.667 57.55 L
617.33 57.346 L
617.341 57.346 L
617.982 57.156 L
617.992 57.158 L
618.003 57.158 L
618.666 56.959 L
618.677 56.958 L
618.774 56.96 L
619.328 56.845 L
619.339 56.843 L
619.915 56.672 L
619.991 56.675 L
620.001 56.672 L
620.012 56.673 L
620.555 56.57 L
620.664 56.628 L
620.675 56.627 L
621.326 56.448 L
621.337 56.443 L
622 56.302 L
622.011 56.3 L
622.021 56.305 L
622.64 56.152 L
622.662 56.152 L
622.673 56.152 L
623.325 55.906 L
623.336 55.9 L
623.998 55.633 L
624.009 55.632 L
624.628 55.477 L
624.66 55.477 L
624.671 55.477 L
625.323 55.244 L
625.334 55.244 L
625.996 55.104 L
626.007 55.097 L
626.637 54.871 L
626.659 54.871 L
626.669 54.87 L
627.332 54.681 L
627.343 54.681 L
627.994 54.545 L
628.005 54.544 L
628.657 54.38 L
628.668 54.375 L
629.33 54.152 L
629.341 54.155 L
629.993 53.977 L
630.004 53.977 L
630.666 53.848 L
630.677 53.849 L
630.72 53.851 L
631.328 53.653 L
631.339 53.652 L
631.969 53.466 L
631.991 53.474 L
632.002 53.469 L
632.664 53.319 L
632.675 53.318 L
633.327 53.014 L
633.338 52.994 L
633.989 52.734 L
634 52.733 L
S
GR
%%Trailer
%%Pages: 1
%%EOF
