%!PS-Adobe-3.0 EPSF-3.0
%%Creator: (MATLAB, The Mathworks, Inc. Version 9.3.0.713579 \(R2017b\). Operating System: Windows 7)
%%Title: fig/RBFN_Q_600_0,33333.eps
%%CreationDate: 2018-05-06T10:54:58
%%Pages: (atend)
%%BoundingBox:    40    13   384   297
%%LanguageLevel: 3
%%EndComments
%%BeginProlog
%%BeginResource: procset (Apache XML Graphics Std ProcSet) 1.2 0
%%Version: 1.2 0
%%Copyright: (Copyright 2001-2003,2010 The Apache Software Foundation. License terms: http://www.apache.org/licenses/LICENSE-2.0)
/bd{bind def}bind def
/ld{load def}bd
/GR/grestore ld
/GS/gsave ld
/RM/rmoveto ld
/C/curveto ld
/t/show ld
/L/lineto ld
/ML/setmiterlimit ld
/CT/concat ld
/f/fill ld
/N/newpath ld
/S/stroke ld
/CC/setcmykcolor ld
/A/ashow ld
/cp/closepath ld
/RC/setrgbcolor ld
/LJ/setlinejoin ld
/GC/setgray ld
/LW/setlinewidth ld
/M/moveto ld
/re {4 2 roll M
1 index 0 rlineto
0 exch rlineto
neg 0 rlineto
cp } bd
/_ctm matrix def
/_tm matrix def
/BT { _ctm currentmatrix pop matrix _tm copy pop 0 0 moveto } bd
/ET { _ctm setmatrix } bd
/iTm { _ctm setmatrix _tm concat } bd
/Tm { _tm astore pop iTm 0 0 moveto } bd
/ux 0.0 def
/uy 0.0 def
/F {
  /Tp exch def
  /Tf exch def
  Tf findfont Tp scalefont setfont
  /cf Tf def  /cs Tp def
} bd
/ULS {currentpoint /uy exch def /ux exch def} bd
/ULE {
  /Tcx currentpoint pop def
  gsave
  newpath
  cf findfont cs scalefont dup
  /FontMatrix get 0 get /Ts exch def /FontInfo get dup
  /UnderlinePosition get Ts mul /To exch def
  /UnderlineThickness get Ts mul /Tt exch def
  ux uy To add moveto  Tcx uy To add lineto
  Tt setlinewidth stroke
  grestore
} bd
/OLE {
  /Tcx currentpoint pop def
  gsave
  newpath
  cf findfont cs scalefont dup
  /FontMatrix get 0 get /Ts exch def /FontInfo get dup
  /UnderlinePosition get Ts mul /To exch def
  /UnderlineThickness get Ts mul /Tt exch def
  ux uy To add cs add moveto Tcx uy To add cs add lineto
  Tt setlinewidth stroke
  grestore
} bd
/SOE {
  /Tcx currentpoint pop def
  gsave
  newpath
  cf findfont cs scalefont dup
  /FontMatrix get 0 get /Ts exch def /FontInfo get dup
  /UnderlinePosition get Ts mul /To exch def
  /UnderlineThickness get Ts mul /Tt exch def
  ux uy To add cs 10 mul 26 idiv add moveto Tcx uy To add cs 10 mul 26 idiv add lineto
  Tt setlinewidth stroke
  grestore
} bd
/QT {
/Y22 exch store
/X22 exch store
/Y21 exch store
/X21 exch store
currentpoint
/Y21 load 2 mul add 3 div exch
/X21 load 2 mul add 3 div exch
/X21 load 2 mul /X22 load add 3 div
/Y21 load 2 mul /Y22 load add 3 div
/X22 load /Y22 load curveto
} bd
/SSPD {
dup length /d exch dict def
{
/v exch def
/k exch def
currentpagedevice k known {
/cpdv currentpagedevice k get def
v cpdv ne {
/upd false def
/nullv v type /nulltype eq def
/nullcpdv cpdv type /nulltype eq def
nullv nullcpdv or
{
/upd true def
} {
/sametype v type cpdv type eq def
sametype {
v type /arraytype eq {
/vlen v length def
/cpdvlen cpdv length def
vlen cpdvlen eq {
0 1 vlen 1 sub {
/i exch def
/obj v i get def
/cpdobj cpdv i get def
obj cpdobj ne {
/upd true def
exit
} if
} for
} {
/upd true def
} ifelse
} {
v type /dicttype eq {
v {
/dv exch def
/dk exch def
/cpddv cpdv dk get def
dv cpddv ne {
/upd true def
exit
} if
} forall
} {
/upd true def
} ifelse
} ifelse
} if
} ifelse
upd true eq {
d k v put
} if
} if
} if
} forall
d length 0 gt {
d setpagedevice
} if
} bd
/RE { % /NewFontName [NewEncodingArray] /FontName RE -
  findfont dup length dict begin
  {
    1 index /FID ne
    {def} {pop pop} ifelse
  } forall
  /Encoding exch def
  /FontName 1 index def
  currentdict definefont pop
  end
} bind def
%%EndResource
%%BeginResource: procset (Apache XML Graphics EPS ProcSet) 1.0 0
%%Version: 1.0 0
%%Copyright: (Copyright 2002-2003 The Apache Software Foundation. License terms: http://www.apache.org/licenses/LICENSE-2.0)
/BeginEPSF { %def
/b4_Inc_state save def         % Save state for cleanup
/dict_count countdictstack def % Count objects on dict stack
/op_count count 1 sub def      % Count objects on operand stack
userdict begin                 % Push userdict on dict stack
/showpage { } def              % Redefine showpage, { } = null proc
0 setgray 0 setlinecap         % Prepare graphics state
1 setlinewidth 0 setlinejoin
10 setmiterlimit [ ] 0 setdash newpath
/languagelevel where           % If level not equal to 1 then
{pop languagelevel             % set strokeadjust and
1 ne                           % overprint to their defaults.
{false setstrokeadjust false setoverprint
} if
} if
} bd
/EndEPSF { %def
count op_count sub {pop} repeat            % Clean up stacks
countdictstack dict_count sub {end} repeat
b4_Inc_state restore
} bd
%%EndResource
%FOPBeginFontDict
%%IncludeResource: font Courier-Oblique
%%IncludeResource: font Courier-BoldOblique
%%IncludeResource: font Courier-Bold
%%IncludeResource: font ZapfDingbats
%%IncludeResource: font Symbol
%%IncludeResource: font Helvetica
%%IncludeResource: font Helvetica-Oblique
%%IncludeResource: font Helvetica-Bold
%%IncludeResource: font Helvetica-BoldOblique
%%IncludeResource: font Times-Roman
%%IncludeResource: font Times-Italic
%%IncludeResource: font Times-Bold
%%IncludeResource: font Times-BoldItalic
%%IncludeResource: font Courier
%FOPEndFontDict
%%BeginResource: encoding WinAnsiEncoding
/WinAnsiEncoding [
/.notdef /.notdef /.notdef /.notdef /.notdef
/.notdef /.notdef /.notdef /.notdef /.notdef
/.notdef /.notdef /.notdef /.notdef /.notdef
/.notdef /.notdef /.notdef /.notdef /.notdef
/.notdef /.notdef /.notdef /.notdef /.notdef
/.notdef /.notdef /.notdef /.notdef /.notdef
/.notdef /.notdef /space /exclam /quotedbl
/numbersign /dollar /percent /ampersand /quotesingle
/parenleft /parenright /asterisk /plus /comma
/hyphen /period /slash /zero /one
/two /three /four /five /six
/seven /eight /nine /colon /semicolon
/less /equal /greater /question /at
/A /B /C /D /E
/F /G /H /I /J
/K /L /M /N /O
/P /Q /R /S /T
/U /V /W /X /Y
/Z /bracketleft /backslash /bracketright /asciicircum
/underscore /quoteleft /a /b /c
/d /e /f /g /h
/i /j /k /l /m
/n /o /p /q /r
/s /t /u /v /w
/x /y /z /braceleft /bar
/braceright /asciitilde /bullet /Euro /bullet
/quotesinglbase /florin /quotedblbase /ellipsis /dagger
/daggerdbl /circumflex /perthousand /Scaron /guilsinglleft
/OE /bullet /Zcaron /bullet /bullet
/quoteleft /quoteright /quotedblleft /quotedblright /bullet
/endash /emdash /asciitilde /trademark /scaron
/guilsinglright /oe /bullet /zcaron /Ydieresis
/space /exclamdown /cent /sterling /currency
/yen /brokenbar /section /dieresis /copyright
/ordfeminine /guillemotleft /logicalnot /sfthyphen /registered
/macron /degree /plusminus /twosuperior /threesuperior
/acute /mu /paragraph /middot /cedilla
/onesuperior /ordmasculine /guillemotright /onequarter /onehalf
/threequarters /questiondown /Agrave /Aacute /Acircumflex
/Atilde /Adieresis /Aring /AE /Ccedilla
/Egrave /Eacute /Ecircumflex /Edieresis /Igrave
/Iacute /Icircumflex /Idieresis /Eth /Ntilde
/Ograve /Oacute /Ocircumflex /Otilde /Odieresis
/multiply /Oslash /Ugrave /Uacute /Ucircumflex
/Udieresis /Yacute /Thorn /germandbls /agrave
/aacute /acircumflex /atilde /adieresis /aring
/ae /ccedilla /egrave /eacute /ecircumflex
/edieresis /igrave /iacute /icircumflex /idieresis
/eth /ntilde /ograve /oacute /ocircumflex
/otilde /odieresis /divide /oslash /ugrave
/uacute /ucircumflex /udieresis /yacute /thorn
/ydieresis
] def
%%EndResource
%FOPBeginFontReencode
/Courier-Oblique findfont
dup length dict begin
  {1 index /FID ne {def} {pop pop} ifelse} forall
  /Encoding WinAnsiEncoding def
  currentdict
end
/Courier-Oblique exch definefont pop
/Courier-BoldOblique findfont
dup length dict begin
  {1 index /FID ne {def} {pop pop} ifelse} forall
  /Encoding WinAnsiEncoding def
  currentdict
end
/Courier-BoldOblique exch definefont pop
/Courier-Bold findfont
dup length dict begin
  {1 index /FID ne {def} {pop pop} ifelse} forall
  /Encoding WinAnsiEncoding def
  currentdict
end
/Courier-Bold exch definefont pop
/Helvetica findfont
dup length dict begin
  {1 index /FID ne {def} {pop pop} ifelse} forall
  /Encoding WinAnsiEncoding def
  currentdict
end
/Helvetica exch definefont pop
/Helvetica-Oblique findfont
dup length dict begin
  {1 index /FID ne {def} {pop pop} ifelse} forall
  /Encoding WinAnsiEncoding def
  currentdict
end
/Helvetica-Oblique exch definefont pop
/Helvetica-Bold findfont
dup length dict begin
  {1 index /FID ne {def} {pop pop} ifelse} forall
  /Encoding WinAnsiEncoding def
  currentdict
end
/Helvetica-Bold exch definefont pop
/Helvetica-BoldOblique findfont
dup length dict begin
  {1 index /FID ne {def} {pop pop} ifelse} forall
  /Encoding WinAnsiEncoding def
  currentdict
end
/Helvetica-BoldOblique exch definefont pop
/Times-Roman findfont
dup length dict begin
  {1 index /FID ne {def} {pop pop} ifelse} forall
  /Encoding WinAnsiEncoding def
  currentdict
end
/Times-Roman exch definefont pop
/Times-Italic findfont
dup length dict begin
  {1 index /FID ne {def} {pop pop} ifelse} forall
  /Encoding WinAnsiEncoding def
  currentdict
end
/Times-Italic exch definefont pop
/Times-Bold findfont
dup length dict begin
  {1 index /FID ne {def} {pop pop} ifelse} forall
  /Encoding WinAnsiEncoding def
  currentdict
end
/Times-Bold exch definefont pop
/Times-BoldItalic findfont
dup length dict begin
  {1 index /FID ne {def} {pop pop} ifelse} forall
  /Encoding WinAnsiEncoding def
  currentdict
end
/Times-BoldItalic exch definefont pop
/Courier findfont
dup length dict begin
  {1 index /FID ne {def} {pop pop} ifelse} forall
  /Encoding WinAnsiEncoding def
  currentdict
end
/Courier exch definefont pop
%FOPEndFontReencode
%%EndProlog
%%Page: 1 1
%%PageBoundingBox: 0 0 420 315
%%BeginPageSetup
[1 0 0 -1 0 315] CT
%%EndPageSetup
GS
[0.75 0 0 0.75 0 0] CT
1 GC
N
0 0 560 420 re
f
GR
GS
[0.75 0 0 0.75 0 0] CT
1 GC
N
0 0 560 420 re
f
GR
GS
[0.75 0 0 0.75 0 0] CT
1 GC
N
73 374 M
507 374 L
507 31 L
73 31 L
cp
f
GR
GS
[0.75 0 0 0.75 0 0] CT
0.149 GC
1 LJ
0.667 LW
N
73 374 M
507 374 L
S
GR
GS
[0.75 0 0 0.75 0 0] CT
0.902 0.945 0.973 RC
N
73.868 374 M
74.736 374 L
75.604 374 L
74.736 31 L
cp
75.604 374 M
76.472 374 L
77.34 374 L
76.472 31 L
cp
77.34 374 M
78.208 374 L
79.076 374 L
78.208 31 L
cp
79.076 374 M
79.944 374 L
80.812 374 L
79.944 31 L
cp
80.812 374 M
81.68 374 L
82.548 374 L
83.416 374 L
82.548 31 L
81.68 31 L
cp
83.416 374 M
84.284 374 L
85.152 374 L
86.02 374 L
86.888 374 L
87.756 374 L
86.888 31 L
86.02 31 L
85.152 31 L
84.284 31 L
cp
87.756 374 M
88.624 374 L
89.492 374 L
88.624 31 L
cp
89.492 374 M
90.36 374 L
91.228 374 L
92.096 374 L
91.228 31 L
90.36 31 L
cp
92.096 374 M
92.964 374 L
93.832 374 L
92.964 31 L
cp
93.832 374 M
94.7 374 L
95.568 374 L
96.436 374 L
95.568 31 L
94.7 31 L
cp
96.436 374 M
97.304 374 L
98.172 374 L
97.304 31 L
cp
98.172 374 M
99.04 374 L
99.908 374 L
100.776 374 L
99.908 31 L
99.04 31 L
cp
100.776 374 M
101.644 374 L
102.512 374 L
101.644 31 L
cp
102.512 374 M
103.38 374 L
104.248 374 L
103.38 31 L
cp
105.116 374 M
105.984 374 L
106.852 374 L
105.984 31 L
cp
106.852 374 M
107.72 374 L
108.588 374 L
107.72 31 L
cp
109.456 374 M
110.324 374 L
111.192 374 L
110.324 31 L
cp
111.192 374 M
112.06 374 L
112.928 374 L
112.06 31 L
cp
113.796 374 M
114.664 374 L
115.532 374 L
114.664 31 L
cp
115.532 374 M
116.4 374 L
117.268 374 L
118.136 374 L
119.004 374 L
119.872 374 L
120.74 374 L
121.608 374 L
122.476 374 L
123.344 374 L
124.212 374 L
125.08 374 L
125.948 374 L
126.816 374 L
127.684 374 L
128.552 374 L
129.42 374 L
130.288 374 L
131.156 374 L
132.024 374 L
132.892 374 L
133.76 374 L
134.628 374 L
135.496 374 L
136.364 374 L
137.232 374 L
138.1 374 L
138.968 374 L
139.836 374 L
140.704 374 L
141.572 374 L
142.44 374 L
143.308 374 L
144.176 374 L
145.044 374 L
145.912 374 L
146.78 374 L
147.648 374 L
148.516 374 L
149.384 374 L
150.252 374 L
151.12 374 L
151.988 374 L
152.856 374 L
153.724 374 L
154.592 374 L
155.46 374 L
156.328 374 L
157.196 374 L
158.064 374 L
158.932 374 L
159.8 374 L
160.668 374 L
161.536 374 L
162.404 374 L
163.272 374 L
164.14 374 L
165.008 374 L
165.876 374 L
166.744 374 L
167.612 374 L
168.48 374 L
169.348 374 L
170.216 374 L
171.084 374 L
171.952 374 L
172.82 374 L
173.688 374 L
174.556 374 L
175.424 374 L
176.292 374 L
177.16 374 L
178.028 374 L
178.896 374 L
179.764 374 L
180.632 374 L
181.5 374 L
182.368 374 L
183.236 374 L
184.104 374 L
184.972 374 L
185.84 374 L
186.708 374 L
187.576 374 L
188.444 374 L
189.312 374 L
190.18 374 L
191.048 374 L
191.916 374 L
192.784 374 L
193.652 374 L
194.52 374 L
195.388 374 L
196.256 374 L
197.124 374 L
197.992 374 L
198.86 374 L
199.728 374 L
198.86 31 L
197.992 31 L
197.124 31 L
196.256 31 L
195.388 31 L
194.52 31 L
193.652 31 L
192.784 31 L
191.916 31 L
191.048 31 L
190.18 31 L
189.312 31 L
188.444 31 L
187.576 31 L
186.708 31 L
185.84 31 L
184.972 31 L
184.104 31 L
183.236 31 L
182.368 31 L
181.5 31 L
180.632 31 L
179.764 31 L
178.896 31 L
178.028 31 L
177.16 31 L
176.292 31 L
175.424 31 L
174.556 31 L
173.688 31 L
172.82 31 L
171.952 31 L
171.084 31 L
170.216 31 L
169.348 31 L
168.48 31 L
167.612 31 L
166.744 31 L
165.876 31 L
165.008 31 L
164.14 31 L
163.272 31 L
162.404 31 L
161.536 31 L
160.668 31 L
159.8 31 L
158.932 31 L
158.064 31 L
157.196 31 L
156.328 31 L
155.46 31 L
154.592 31 L
153.724 31 L
152.856 31 L
151.988 31 L
151.12 31 L
150.252 31 L
149.384 31 L
148.516 31 L
147.648 31 L
146.78 31 L
145.912 31 L
145.044 31 L
144.176 31 L
143.308 31 L
142.44 31 L
141.572 31 L
140.704 31 L
139.836 31 L
138.968 31 L
138.1 31 L
137.232 31 L
136.364 31 L
135.496 31 L
134.628 31 L
133.76 31 L
132.892 31 L
132.024 31 L
131.156 31 L
130.288 31 L
129.42 31 L
128.552 31 L
127.684 31 L
126.816 31 L
125.948 31 L
125.08 31 L
124.212 31 L
123.344 31 L
122.476 31 L
121.608 31 L
120.74 31 L
119.872 31 L
119.004 31 L
118.136 31 L
117.268 31 L
116.4 31 L
cp
463.6 374 M
464.468 374 L
465.336 374 L
464.468 31 L
cp
465.336 374 M
466.204 374 L
467.072 374 L
467.94 374 L
467.072 31 L
466.204 31 L
cp
467.94 374 M
468.808 374 L
469.676 374 L
468.808 31 L
cp
469.676 374 M
470.544 374 L
471.412 374 L
472.28 374 L
471.412 31 L
470.544 31 L
cp
472.28 374 M
473.148 374 L
474.016 374 L
473.148 31 L
cp
474.016 374 M
474.884 374 L
475.752 374 L
476.62 374 L
475.752 31 L
474.884 31 L
cp
476.62 374 M
477.488 374 L
478.356 374 L
477.488 31 L
cp
478.356 374 M
479.224 374 L
480.092 374 L
479.224 31 L
cp
480.96 374 M
481.828 374 L
482.696 374 L
481.828 31 L
cp
482.696 374 M
483.564 374 L
484.432 374 L
483.564 31 L
cp
484.432 374 M
485.3 374 L
486.168 374 L
487.036 374 L
486.168 31 L
485.3 31 L
cp
487.036 374 M
487.904 374 L
488.772 374 L
487.904 31 L
cp
489.64 374 M
490.508 374 L
491.376 374 L
490.508 31 L
cp
491.376 374 M
492.244 374 L
493.112 374 L
492.244 31 L
cp
493.112 374 M
493.98 374 L
494.848 374 L
495.716 374 L
494.848 31 L
493.98 31 L
cp
495.716 374 M
496.584 374 L
497.452 374 L
496.584 31 L
cp
498.32 374 M
499.188 374 L
500.056 374 L
499.188 31 L
cp
500.056 374 M
500.924 374 L
501.792 374 L
500.924 31 L
cp
502.66 374 M
503.528 374 L
504.396 374 L
503.528 31 L
cp
504.396 374 M
505.264 374 L
506.132 374 L
507 374 L
507.052 374 L
507.052 51.446 L
507 31 L
506.132 31 L
505.264 31 L
cp
f
GR
GS
[0.75 0 0 0.75 0 0] CT
0.902 0.945 0.973 RC
1 LJ
0.667 LW
N
72.948 374 M
73 374 L
73.868 374 L
74.736 374 L
75.604 374 L
76.472 374 L
77.34 374 L
78.208 374 L
79.076 374 L
79.944 374 L
80.812 374 L
81.68 374 L
82.548 374 L
83.416 374 L
84.284 374 L
85.152 374 L
86.02 374 L
86.888 374 L
87.756 374 L
88.624 374 L
89.492 374 L
90.36 374 L
91.228 374 L
92.096 374 L
92.964 374 L
93.832 374 L
94.7 374 L
95.568 374 L
96.436 374 L
97.304 374 L
98.172 374 L
99.04 374 L
99.908 374 L
100.776 374 L
101.644 374 L
102.512 374 L
103.38 374 L
104.248 374 L
105.116 374 L
105.984 374 L
106.852 374 L
107.72 374 L
108.588 374 L
109.456 374 L
110.324 374 L
111.192 374 L
112.06 374 L
112.928 374 L
113.796 374 L
114.664 374 L
115.532 374 L
116.4 374 L
117.268 374 L
118.136 374 L
119.004 374 L
119.872 374 L
120.74 374 L
121.608 374 L
122.476 374 L
123.344 374 L
124.212 374 L
125.08 374 L
125.948 374 L
126.816 374 L
127.684 374 L
128.552 374 L
129.42 374 L
130.288 374 L
131.156 374 L
132.024 374 L
132.892 374 L
133.76 374 L
134.628 374 L
135.496 374 L
136.364 374 L
137.232 374 L
138.1 374 L
138.968 374 L
139.836 374 L
140.704 374 L
141.572 374 L
142.44 374 L
143.308 374 L
144.176 374 L
145.044 374 L
145.912 374 L
146.78 374 L
147.648 374 L
148.516 374 L
149.384 374 L
150.252 374 L
151.12 374 L
151.988 374 L
152.856 374 L
153.724 374 L
154.592 374 L
155.46 374 L
156.328 374 L
157.196 374 L
158.064 374 L
158.932 374 L
159.8 374 L
160.668 374 L
161.536 374 L
162.404 374 L
163.272 374 L
164.14 374 L
165.008 374 L
165.876 374 L
166.744 374 L
167.612 374 L
168.48 374 L
169.348 374 L
170.216 374 L
171.084 374 L
171.952 374 L
172.82 374 L
173.688 374 L
174.556 374 L
175.424 374 L
176.292 374 L
177.16 374 L
178.028 374 L
178.896 374 L
179.764 374 L
180.632 374 L
181.5 374 L
182.368 374 L
183.236 374 L
184.104 374 L
184.972 374 L
185.84 374 L
186.708 374 L
187.576 374 L
188.444 374 L
189.312 374 L
190.18 374 L
191.048 374 L
191.916 374 L
192.784 374 L
193.652 374 L
194.52 374 L
195.388 374 L
196.256 374 L
197.124 374 L
197.992 374 L
198.86 374 L
199.728 374 L
200.596 374 L
201.464 374 L
202.332 374 L
203.2 374 L
204.068 374 L
204.936 374 L
205.804 374 L
206.672 374 L
207.54 374 L
208.408 374 L
209.276 374 L
210.144 374 L
211.012 374 L
211.88 374 L
212.748 374 L
213.616 374 L
214.484 374 L
215.352 374 L
216.22 374 L
217.088 374 L
217.956 374 L
218.824 374 L
219.692 374 L
220.56 374 L
221.428 374 L
222.296 374 L
223.164 374 L
224.032 374 L
224.9 374 L
225.768 374 L
226.636 374 L
227.504 374 L
228.372 374 L
229.24 374 L
230.108 374 L
230.976 374 L
231.844 374 L
232.712 374 L
233.58 374 L
234.448 374 L
235.316 374 L
236.184 374 L
237.052 374 L
237.92 374 L
238.788 374 L
239.656 374 L
240.524 374 L
241.392 374 L
242.26 374 L
243.128 374 L
243.996 374 L
244.864 374 L
245.732 374 L
246.6 374 L
247.468 374 L
248.336 374 L
249.204 374 L
250.072 374 L
250.94 374 L
251.808 374 L
252.676 374 L
253.544 374 L
254.412 374 L
255.28 374 L
256.148 374 L
257.016 374 L
257.884 374 L
258.752 374 L
259.62 374 L
260.488 374 L
261.356 374 L
262.224 374 L
263.092 374 L
263.96 374 L
264.828 374 L
265.696 374 L
266.564 374 L
267.432 374 L
268.3 374 L
269.168 374 L
270.036 374 L
270.904 374 L
271.772 374 L
272.64 374 L
273.508 374 L
274.376 374 L
275.244 374 L
276.112 374 L
276.98 374 L
277.848 374 L
278.716 374 L
279.584 374 L
280.452 374 L
281.32 374 L
282.188 374 L
283.056 374 L
283.924 374 L
284.792 374 L
285.66 374 L
286.528 374 L
287.396 374 L
288.264 374 L
289.132 374 L
290 374 L
290.868 374 L
291.736 374 L
292.604 374 L
293.472 374 L
294.34 374 L
295.208 374 L
296.076 374 L
296.944 374 L
297.812 374 L
298.68 374 L
299.548 374 L
300.416 374 L
301.284 374 L
302.152 374 L
303.02 374 L
303.888 374 L
304.756 374 L
305.624 374 L
306.492 374 L
307.36 374 L
308.228 374 L
309.096 374 L
309.964 374 L
310.832 374 L
311.7 374 L
312.568 374 L
313.436 374 L
314.304 374 L
315.172 374 L
316.04 374 L
316.908 374 L
317.776 374 L
318.644 374 L
319.512 374 L
320.38 374 L
321.248 374 L
322.116 374 L
322.984 374 L
323.852 374 L
324.72 374 L
325.588 374 L
326.456 374 L
327.324 374 L
328.192 374 L
329.06 374 L
329.928 374 L
330.796 374 L
331.664 374 L
332.532 374 L
333.4 374 L
334.268 374 L
335.136 374 L
336.004 374 L
336.872 374 L
337.74 374 L
338.608 374 L
339.476 374 L
340.344 374 L
341.212 374 L
342.08 374 L
342.948 374 L
343.816 374 L
344.684 374 L
345.552 374 L
346.42 374 L
347.288 374 L
348.156 374 L
349.024 374 L
349.892 374 L
350.76 374 L
351.628 374 L
352.496 374 L
353.364 374 L
354.232 374 L
355.1 374 L
355.968 374 L
356.836 374 L
357.704 374 L
358.572 374 L
359.44 374 L
360.308 374 L
361.176 374 L
362.044 374 L
362.912 374 L
363.78 374 L
364.648 374 L
365.516 374 L
366.384 374 L
367.252 374 L
368.12 374 L
368.988 374 L
369.856 374 L
370.724 374 L
371.592 374 L
372.46 374 L
373.328 374 L
374.196 374 L
375.064 374 L
375.932 374 L
376.8 374 L
377.668 374 L
378.536 374 L
379.404 374 L
380.272 374 L
381.14 374 L
382.008 374 L
382.876 374 L
383.744 374 L
384.612 374 L
385.48 374 L
386.348 374 L
387.216 374 L
388.084 374 L
388.952 374 L
389.82 374 L
390.688 374 L
391.556 374 L
392.424 374 L
393.292 374 L
394.16 374 L
395.028 374 L
395.896 374 L
396.764 374 L
397.632 374 L
398.5 374 L
399.368 374 L
400.236 374 L
401.104 374 L
401.972 374 L
402.84 374 L
403.708 374 L
404.576 374 L
405.444 374 L
406.312 374 L
407.18 374 L
408.048 374 L
408.916 374 L
409.784 374 L
410.652 374 L
411.52 374 L
412.388 374 L
413.256 374 L
414.124 374 L
414.992 374 L
415.86 374 L
416.728 374 L
417.596 374 L
418.464 374 L
419.332 374 L
420.2 374 L
421.068 374 L
421.936 374 L
422.804 374 L
423.672 374 L
424.54 374 L
425.408 374 L
426.276 374 L
427.144 374 L
428.012 374 L
428.88 374 L
429.748 374 L
430.616 374 L
431.484 374 L
432.352 374 L
433.22 374 L
434.088 374 L
434.956 374 L
435.824 374 L
436.692 374 L
437.56 374 L
438.428 374 L
439.296 374 L
440.164 374 L
441.032 374 L
441.9 374 L
442.768 374 L
443.636 374 L
444.504 374 L
445.372 374 L
446.24 374 L
447.108 374 L
447.976 374 L
448.844 374 L
449.712 374 L
450.58 374 L
451.448 374 L
452.316 374 L
453.184 374 L
454.052 374 L
454.92 374 L
455.788 374 L
456.656 374 L
457.524 374 L
458.392 374 L
459.26 374 L
460.128 374 L
460.996 374 L
461.864 374 L
462.732 374 L
463.6 374 L
464.468 374 L
465.336 374 L
466.204 374 L
467.072 374 L
467.94 374 L
468.808 374 L
469.676 374 L
470.544 374 L
471.412 374 L
472.28 374 L
473.148 374 L
474.016 374 L
474.884 374 L
475.752 374 L
476.62 374 L
477.488 374 L
478.356 374 L
479.224 374 L
480.092 374 L
480.96 374 L
481.828 374 L
482.696 374 L
483.564 374 L
484.432 374 L
485.3 374 L
486.168 374 L
487.036 374 L
487.904 374 L
488.772 374 L
489.64 374 L
490.508 374 L
491.376 374 L
492.244 374 L
493.112 374 L
493.98 374 L
494.848 374 L
495.716 374 L
496.584 374 L
497.452 374 L
498.32 374 L
499.188 374 L
500.056 374 L
500.924 374 L
501.792 374 L
502.66 374 L
503.528 374 L
504.396 374 L
505.264 374 L
506.132 374 L
507 374 L
507.052 374 L
S
GR
GS
[0.75 0 0 0.75 0 0] CT
0.902 0.945 0.973 RC
1 LJ
0.667 LW
N
507.052 51.446 M
507 31 L
506.132 31 L
505.264 31 L
504.396 374 L
503.528 31 L
502.66 374 L
501.792 374 L
500.924 31 L
500.056 374 L
499.188 31 L
498.32 374 L
497.452 374 L
496.584 31 L
495.716 374 L
494.848 31 L
493.98 31 L
493.112 374 L
492.244 31 L
491.376 374 L
490.508 31 L
489.64 374 L
488.772 374 L
487.904 31 L
487.036 374 L
486.168 31 L
485.3 31 L
484.432 374 L
483.564 31 L
482.696 374 L
481.828 31 L
480.96 374 L
480.092 374 L
479.224 31 L
478.356 374 L
477.488 31 L
476.62 374 L
475.752 31 L
474.884 31 L
474.016 374 L
473.148 31 L
472.28 374 L
471.412 31 L
470.544 31 L
469.676 374 L
468.808 31 L
467.94 374 L
467.072 31 L
466.204 31 L
465.336 374 L
464.468 31 L
463.6 374 L
462.732 374 L
461.864 374 L
460.996 374 L
460.128 374 L
459.26 374 L
458.392 374 L
457.524 374 L
456.656 374 L
455.788 374 L
454.92 374 L
454.052 374 L
453.184 374 L
452.316 374 L
451.448 374 L
450.58 374 L
449.712 374 L
448.844 374 L
447.976 374 L
447.108 374 L
446.24 374 L
445.372 374 L
444.504 374 L
443.636 374 L
442.768 374 L
441.9 374 L
441.032 374 L
440.164 374 L
439.296 374 L
438.428 374 L
437.56 374 L
436.692 374 L
435.824 374 L
434.956 374 L
434.088 374 L
433.22 374 L
432.352 374 L
431.484 374 L
430.616 374 L
429.748 374 L
428.88 374 L
428.012 374 L
427.144 374 L
426.276 374 L
425.408 374 L
424.54 374 L
423.672 374 L
422.804 374 L
421.936 374 L
421.068 374 L
420.2 374 L
419.332 374 L
418.464 374 L
417.596 374 L
416.728 374 L
415.86 374 L
414.992 374 L
414.124 374 L
413.256 374 L
412.388 374 L
411.52 374 L
410.652 374 L
409.784 374 L
408.916 374 L
408.048 374 L
407.18 374 L
406.312 374 L
405.444 374 L
404.576 374 L
403.708 374 L
402.84 374 L
401.972 374 L
401.104 374 L
400.236 374 L
399.368 374 L
398.5 374 L
397.632 374 L
396.764 374 L
395.896 374 L
395.028 374 L
394.16 374 L
393.292 374 L
392.424 374 L
391.556 374 L
390.688 374 L
389.82 374 L
388.952 374 L
388.084 374 L
387.216 374 L
386.348 374 L
385.48 374 L
384.612 374 L
383.744 374 L
382.876 374 L
382.008 374 L
381.14 374 L
380.272 374 L
379.404 374 L
378.536 374 L
377.668 374 L
376.8 374 L
375.932 374 L
375.064 374 L
374.196 374 L
373.328 374 L
372.46 374 L
371.592 374 L
370.724 374 L
369.856 374 L
368.988 374 L
368.12 374 L
367.252 374 L
366.384 374 L
365.516 374 L
364.648 374 L
363.78 374 L
362.912 374 L
362.044 374 L
361.176 374 L
360.308 374 L
359.44 374 L
358.572 374 L
357.704 374 L
356.836 374 L
355.968 374 L
355.1 374 L
354.232 374 L
353.364 374 L
352.496 374 L
351.628 374 L
350.76 374 L
349.892 374 L
349.024 374 L
348.156 374 L
347.288 374 L
346.42 374 L
345.552 374 L
344.684 374 L
343.816 374 L
342.948 374 L
342.08 374 L
341.212 374 L
340.344 374 L
339.476 374 L
338.608 374 L
337.74 374 L
336.872 374 L
336.004 374 L
335.136 374 L
334.268 374 L
333.4 374 L
332.532 374 L
331.664 374 L
330.796 374 L
329.928 374 L
329.06 374 L
328.192 374 L
327.324 374 L
326.456 374 L
325.588 374 L
324.72 374 L
323.852 374 L
322.984 374 L
322.116 374 L
321.248 374 L
320.38 374 L
319.512 374 L
318.644 374 L
317.776 374 L
316.908 374 L
316.04 374 L
315.172 374 L
314.304 374 L
313.436 374 L
312.568 374 L
311.7 374 L
310.832 374 L
309.964 374 L
309.096 374 L
308.228 374 L
307.36 374 L
306.492 374 L
305.624 374 L
304.756 374 L
303.888 374 L
303.02 374 L
302.152 374 L
301.284 374 L
300.416 374 L
299.548 374 L
298.68 374 L
297.812 374 L
296.944 374 L
296.076 374 L
295.208 374 L
294.34 374 L
293.472 374 L
292.604 374 L
291.736 374 L
290.868 374 L
290 374 L
289.132 374 L
288.264 374 L
287.396 374 L
286.528 374 L
285.66 374 L
284.792 374 L
283.924 374 L
283.056 374 L
282.188 374 L
281.32 374 L
280.452 374 L
279.584 374 L
278.716 374 L
277.848 374 L
276.98 374 L
276.112 374 L
275.244 374 L
274.376 374 L
273.508 374 L
272.64 374 L
271.772 374 L
270.904 374 L
270.036 374 L
269.168 374 L
268.3 374 L
267.432 374 L
266.564 374 L
265.696 374 L
264.828 374 L
263.96 374 L
263.092 374 L
262.224 374 L
261.356 374 L
260.488 374 L
259.62 374 L
258.752 374 L
257.884 374 L
257.016 374 L
256.148 374 L
255.28 374 L
254.412 374 L
253.544 374 L
252.676 374 L
251.808 374 L
250.94 374 L
250.072 374 L
249.204 374 L
248.336 374 L
247.468 374 L
246.6 374 L
245.732 374 L
244.864 374 L
243.996 374 L
243.128 374 L
242.26 374 L
241.392 374 L
240.524 374 L
239.656 374 L
238.788 374 L
237.92 374 L
237.052 374 L
236.184 374 L
235.316 374 L
234.448 374 L
233.58 374 L
232.712 374 L
231.844 374 L
230.976 374 L
230.108 374 L
229.24 374 L
228.372 374 L
227.504 374 L
226.636 374 L
225.768 374 L
224.9 374 L
224.032 374 L
223.164 374 L
222.296 374 L
221.428 374 L
220.56 374 L
219.692 374 L
218.824 374 L
217.956 374 L
217.088 374 L
216.22 374 L
215.352 374 L
214.484 374 L
213.616 374 L
212.748 374 L
211.88 374 L
211.012 374 L
210.144 374 L
209.276 374 L
208.408 374 L
207.54 374 L
206.672 374 L
205.804 374 L
204.936 374 L
204.068 374 L
203.2 374 L
202.332 374 L
201.464 374 L
200.596 374 L
199.728 374 L
198.86 31 L
197.992 31 L
197.124 31 L
196.256 31 L
195.388 31 L
194.52 31 L
193.652 31 L
192.784 31 L
191.916 31 L
191.048 31 L
190.18 31 L
189.312 31 L
188.444 31 L
187.576 31 L
186.708 31 L
185.84 31 L
184.972 31 L
184.104 31 L
183.236 31 L
182.368 31 L
181.5 31 L
180.632 31 L
179.764 31 L
178.896 31 L
178.028 31 L
177.16 31 L
176.292 31 L
175.424 31 L
174.556 31 L
173.688 31 L
172.82 31 L
171.952 31 L
171.084 31 L
170.216 31 L
169.348 31 L
168.48 31 L
167.612 31 L
166.744 31 L
165.876 31 L
165.008 31 L
164.14 31 L
163.272 31 L
162.404 31 L
161.536 31 L
160.668 31 L
159.8 31 L
158.932 31 L
158.064 31 L
157.196 31 L
156.328 31 L
155.46 31 L
154.592 31 L
153.724 31 L
152.856 31 L
151.988 31 L
151.12 31 L
150.252 31 L
149.384 31 L
148.516 31 L
147.648 31 L
146.78 31 L
145.912 31 L
145.044 31 L
144.176 31 L
143.308 31 L
142.44 31 L
141.572 31 L
140.704 31 L
139.836 31 L
138.968 31 L
138.1 31 L
137.232 31 L
136.364 31 L
135.496 31 L
134.628 31 L
133.76 31 L
132.892 31 L
132.024 31 L
131.156 31 L
130.288 31 L
129.42 31 L
128.552 31 L
127.684 31 L
126.816 31 L
125.948 31 L
125.08 31 L
124.212 31 L
123.344 31 L
122.476 31 L
121.608 31 L
120.74 31 L
119.872 31 L
119.004 31 L
118.136 31 L
117.268 31 L
116.4 31 L
115.532 374 L
114.664 31 L
113.796 374 L
112.928 374 L
112.06 31 L
111.192 374 L
110.324 31 L
109.456 374 L
108.588 374 L
107.72 31 L
106.852 374 L
105.984 31 L
105.116 374 L
104.248 374 L
103.38 31 L
102.512 374 L
101.644 31 L
100.776 374 L
99.908 31 L
99.04 31 L
98.172 374 L
97.304 31 L
96.436 374 L
95.568 31 L
94.7 31 L
93.832 374 L
92.964 31 L
92.096 374 L
91.228 31 L
90.36 31 L
89.492 374 L
88.624 31 L
87.756 374 L
86.888 31 L
86.02 31 L
85.152 31 L
84.284 31 L
83.416 374 L
82.548 31 L
81.68 31 L
80.812 374 L
79.944 31 L
79.076 374 L
78.208 31 L
77.34 374 L
76.472 31 L
75.604 374 L
74.736 31 L
73.868 374 L
73 374 L
72.948 374 L
S
GR
GS
[0.75 0 0 0.75 0 0] CT
0.984 0.933 0.91 RC
N
72.948 353.556 M
72.948 374 L
73 374 L
73.868 374 L
74.736 374 L
73.868 31 L
73 31 L
72.948 31 L
cp
74.736 374 M
75.604 374 L
76.472 374 L
75.604 31 L
cp
76.472 374 M
77.34 374 L
78.208 374 L
77.34 31 L
cp
78.208 374 M
79.076 374 L
79.944 374 L
79.076 31 L
cp
79.944 374 M
80.812 374 L
81.68 374 L
80.812 31 L
cp
82.548 374 M
83.416 374 L
84.284 374 L
83.416 31 L
cp
86.888 374 M
87.756 374 L
88.624 374 L
87.756 31 L
cp
88.624 374 M
89.492 374 L
90.36 374 L
89.492 31 L
cp
91.228 374 M
92.096 374 L
92.964 374 L
92.096 31 L
cp
92.964 374 M
93.832 374 L
94.7 374 L
93.832 31 L
cp
95.568 374 M
96.436 374 L
97.304 374 L
96.436 31 L
cp
97.304 374 M
98.172 374 L
99.04 374 L
98.172 31 L
cp
99.908 374 M
100.776 374 L
101.644 374 L
100.776 31 L
cp
101.644 374 M
102.512 374 L
103.38 374 L
102.512 31 L
cp
103.38 374 M
104.248 374 L
105.116 374 L
105.984 374 L
105.116 31 L
104.248 31 L
cp
105.984 374 M
106.852 374 L
107.72 374 L
106.852 31 L
cp
107.72 374 M
108.588 374 L
109.456 374 L
110.324 374 L
109.456 31 L
108.588 31 L
cp
110.324 374 M
111.192 374 L
112.06 374 L
111.192 31 L
cp
112.06 374 M
112.928 374 L
113.796 374 L
114.664 374 L
113.796 31 L
112.928 31 L
cp
114.664 374 M
115.532 374 L
116.4 374 L
115.532 31 L
cp
198.86 374 M
199.728 374 L
200.596 374 L
201.464 374 L
202.332 374 L
203.2 374 L
204.068 374 L
204.936 374 L
205.804 374 L
206.672 374 L
207.54 374 L
208.408 374 L
209.276 374 L
210.144 374 L
211.012 374 L
211.88 374 L
212.748 374 L
213.616 374 L
214.484 374 L
215.352 374 L
216.22 374 L
217.088 374 L
217.956 374 L
218.824 374 L
219.692 374 L
220.56 374 L
221.428 374 L
222.296 374 L
223.164 374 L
224.032 374 L
224.9 374 L
225.768 374 L
226.636 374 L
227.504 374 L
228.372 374 L
229.24 374 L
230.108 374 L
230.976 374 L
231.844 374 L
232.712 374 L
233.58 374 L
234.448 374 L
235.316 374 L
236.184 374 L
237.052 374 L
237.92 374 L
238.788 374 L
239.656 374 L
240.524 374 L
241.392 374 L
242.26 374 L
243.128 374 L
243.996 374 L
244.864 374 L
245.732 374 L
246.6 374 L
247.468 374 L
248.336 374 L
249.204 374 L
250.072 374 L
250.94 374 L
251.808 374 L
252.676 374 L
253.544 374 L
254.412 374 L
255.28 374 L
256.148 374 L
257.016 374 L
257.884 374 L
258.752 374 L
259.62 374 L
260.488 374 L
261.356 374 L
262.224 374 L
263.092 374 L
263.96 374 L
264.828 374 L
265.696 374 L
266.564 374 L
267.432 374 L
268.3 374 L
269.168 374 L
270.036 374 L
270.904 374 L
271.772 374 L
272.64 374 L
273.508 374 L
274.376 374 L
275.244 374 L
276.112 374 L
276.98 374 L
277.848 374 L
278.716 374 L
279.584 374 L
280.452 374 L
281.32 374 L
282.188 374 L
283.056 374 L
283.924 374 L
284.792 374 L
285.66 374 L
286.528 374 L
287.396 374 L
288.264 374 L
289.132 374 L
290 374 L
290.868 374 L
291.736 374 L
292.604 374 L
293.472 374 L
294.34 374 L
295.208 374 L
296.076 374 L
296.944 374 L
297.812 374 L
298.68 374 L
299.548 374 L
300.416 374 L
301.284 374 L
302.152 374 L
303.02 374 L
303.888 374 L
304.756 374 L
305.624 374 L
306.492 374 L
307.36 374 L
308.228 374 L
309.096 374 L
309.964 374 L
310.832 374 L
311.7 374 L
312.568 374 L
313.436 374 L
314.304 374 L
315.172 374 L
316.04 374 L
316.908 374 L
317.776 374 L
318.644 374 L
319.512 374 L
320.38 374 L
321.248 374 L
322.116 374 L
322.984 374 L
323.852 374 L
324.72 374 L
325.588 374 L
326.456 374 L
327.324 374 L
328.192 374 L
329.06 374 L
329.928 374 L
330.796 374 L
331.664 374 L
332.532 374 L
333.4 374 L
334.268 374 L
335.136 374 L
336.004 374 L
336.872 374 L
337.74 374 L
338.608 374 L
339.476 374 L
340.344 374 L
341.212 374 L
342.08 374 L
342.948 374 L
343.816 374 L
344.684 374 L
345.552 374 L
346.42 374 L
347.288 374 L
348.156 374 L
349.024 374 L
349.892 374 L
350.76 374 L
351.628 374 L
352.496 374 L
353.364 374 L
354.232 374 L
355.1 374 L
355.968 374 L
356.836 374 L
357.704 374 L
358.572 374 L
359.44 374 L
360.308 374 L
361.176 374 L
362.044 374 L
362.912 374 L
363.78 374 L
364.648 374 L
365.516 374 L
366.384 374 L
367.252 374 L
368.12 374 L
368.988 374 L
369.856 374 L
370.724 374 L
371.592 374 L
372.46 374 L
373.328 374 L
374.196 374 L
375.064 374 L
375.932 374 L
376.8 374 L
377.668 374 L
378.536 374 L
379.404 374 L
380.272 374 L
381.14 374 L
382.008 374 L
382.876 374 L
383.744 374 L
384.612 374 L
385.48 374 L
386.348 374 L
387.216 374 L
388.084 374 L
388.952 374 L
389.82 374 L
390.688 374 L
391.556 374 L
392.424 374 L
393.292 374 L
394.16 374 L
395.028 374 L
395.896 374 L
396.764 374 L
397.632 374 L
398.5 374 L
399.368 374 L
400.236 374 L
401.104 374 L
401.972 374 L
402.84 374 L
403.708 374 L
404.576 374 L
405.444 374 L
406.312 374 L
407.18 374 L
408.048 374 L
408.916 374 L
409.784 374 L
410.652 374 L
411.52 374 L
412.388 374 L
413.256 374 L
414.124 374 L
414.992 374 L
415.86 374 L
416.728 374 L
417.596 374 L
418.464 374 L
419.332 374 L
420.2 374 L
421.068 374 L
421.936 374 L
422.804 374 L
423.672 374 L
424.54 374 L
425.408 374 L
426.276 374 L
427.144 374 L
428.012 374 L
428.88 374 L
429.748 374 L
430.616 374 L
431.484 374 L
432.352 374 L
433.22 374 L
434.088 374 L
434.956 374 L
435.824 374 L
436.692 374 L
437.56 374 L
438.428 374 L
439.296 374 L
440.164 374 L
441.032 374 L
441.9 374 L
442.768 374 L
443.636 374 L
444.504 374 L
445.372 374 L
446.24 374 L
447.108 374 L
447.976 374 L
448.844 374 L
449.712 374 L
450.58 374 L
451.448 374 L
452.316 374 L
453.184 374 L
454.052 374 L
454.92 374 L
455.788 374 L
456.656 374 L
457.524 374 L
458.392 374 L
459.26 374 L
460.128 374 L
460.996 374 L
461.864 374 L
462.732 374 L
463.6 374 L
464.468 374 L
463.6 31 L
462.732 31 L
461.864 31 L
460.996 31 L
460.128 31 L
459.26 31 L
458.392 31 L
457.524 31 L
456.656 31 L
455.788 31 L
454.92 31 L
454.052 31 L
453.184 31 L
452.316 31 L
451.448 31 L
450.58 31 L
449.712 31 L
448.844 31 L
447.976 31 L
447.108 31 L
446.24 31 L
445.372 31 L
444.504 31 L
443.636 31 L
442.768 31 L
441.9 31 L
441.032 31 L
440.164 31 L
439.296 31 L
438.428 31 L
437.56 31 L
436.692 31 L
435.824 31 L
434.956 31 L
434.088 31 L
433.22 31 L
432.352 31 L
431.484 31 L
430.616 31 L
429.748 31 L
428.88 31 L
428.012 31 L
427.144 31 L
426.276 31 L
425.408 31 L
424.54 31 L
423.672 31 L
422.804 31 L
421.936 31 L
421.068 31 L
420.2 31 L
419.332 31 L
418.464 31 L
417.596 31 L
416.728 31 L
415.86 31 L
414.992 31 L
414.124 31 L
413.256 31 L
412.388 31 L
411.52 31 L
410.652 31 L
409.784 31 L
408.916 31 L
408.048 31 L
407.18 31 L
406.312 31 L
405.444 31 L
404.576 31 L
403.708 31 L
402.84 31 L
401.972 31 L
401.104 31 L
400.236 31 L
399.368 31 L
398.5 31 L
397.632 31 L
396.764 31 L
395.896 31 L
395.028 31 L
394.16 31 L
393.292 31 L
392.424 31 L
391.556 31 L
390.688 31 L
389.82 31 L
388.952 31 L
388.084 31 L
387.216 31 L
386.348 31 L
385.48 31 L
384.612 31 L
383.744 31 L
382.876 31 L
382.008 31 L
381.14 31 L
380.272 31 L
379.404 31 L
378.536 31 L
377.668 31 L
376.8 31 L
375.932 31 L
375.064 31 L
374.196 31 L
373.328 31 L
372.46 31 L
371.592 31 L
370.724 31 L
369.856 31 L
368.988 31 L
368.12 31 L
367.252 31 L
366.384 31 L
365.516 31 L
364.648 31 L
363.78 31 L
362.912 31 L
362.044 31 L
361.176 31 L
360.308 31 L
359.44 31 L
358.572 31 L
357.704 31 L
356.836 31 L
355.968 31 L
355.1 31 L
354.232 31 L
353.364 31 L
352.496 31 L
351.628 31 L
350.76 31 L
349.892 31 L
349.024 31 L
348.156 31 L
347.288 31 L
346.42 31 L
345.552 31 L
344.684 31 L
343.816 31 L
342.948 31 L
342.08 31 L
341.212 31 L
340.344 31 L
339.476 31 L
338.608 31 L
337.74 31 L
336.872 31 L
336.004 31 L
335.136 31 L
334.268 31 L
333.4 31 L
332.532 31 L
331.664 31 L
330.796 31 L
329.928 31 L
329.06 31 L
328.192 31 L
327.324 31 L
326.456 31 L
325.588 31 L
324.72 31 L
323.852 31 L
322.984 31 L
322.116 31 L
321.248 31 L
320.38 31 L
319.512 31 L
318.644 31 L
317.776 31 L
316.908 31 L
316.04 31 L
315.172 31 L
314.304 31 L
313.436 31 L
312.568 31 L
311.7 31 L
310.832 31 L
309.964 31 L
309.096 31 L
308.228 31 L
307.36 31 L
306.492 31 L
305.624 31 L
304.756 31 L
303.888 31 L
303.02 31 L
302.152 31 L
301.284 31 L
300.416 31 L
299.548 31 L
298.68 31 L
297.812 31 L
296.944 31 L
296.076 31 L
295.208 31 L
294.34 31 L
293.472 31 L
292.604 31 L
291.736 31 L
290.868 31 L
290 31 L
289.132 31 L
288.264 31 L
287.396 31 L
286.528 31 L
285.66 31 L
284.792 31 L
283.924 31 L
283.056 31 L
282.188 31 L
281.32 31 L
280.452 31 L
279.584 31 L
278.716 31 L
277.848 31 L
276.98 31 L
276.112 31 L
275.244 31 L
274.376 31 L
273.508 31 L
272.64 31 L
271.772 31 L
270.904 31 L
270.036 31 L
269.168 31 L
268.3 31 L
267.432 31 L
266.564 31 L
265.696 31 L
264.828 31 L
263.96 31 L
263.092 31 L
262.224 31 L
261.356 31 L
260.488 31 L
259.62 31 L
258.752 31 L
257.884 31 L
257.016 31 L
256.148 31 L
255.28 31 L
254.412 31 L
253.544 31 L
252.676 31 L
251.808 31 L
250.94 31 L
250.072 31 L
249.204 31 L
248.336 31 L
247.468 31 L
246.6 31 L
245.732 31 L
244.864 31 L
243.996 31 L
243.128 31 L
242.26 31 L
241.392 31 L
240.524 31 L
239.656 31 L
238.788 31 L
237.92 31 L
237.052 31 L
236.184 31 L
235.316 31 L
234.448 31 L
233.58 31 L
232.712 31 L
231.844 31 L
230.976 31 L
230.108 31 L
229.24 31 L
228.372 31 L
227.504 31 L
226.636 31 L
225.768 31 L
224.9 31 L
224.032 31 L
223.164 31 L
222.296 31 L
221.428 31 L
220.56 31 L
219.692 31 L
218.824 31 L
217.956 31 L
217.088 31 L
216.22 31 L
215.352 31 L
214.484 31 L
213.616 31 L
212.748 31 L
211.88 31 L
211.012 31 L
210.144 31 L
209.276 31 L
208.408 31 L
207.54 31 L
206.672 31 L
205.804 31 L
204.936 31 L
204.068 31 L
203.2 31 L
202.332 31 L
201.464 31 L
200.596 31 L
199.728 31 L
cp
464.468 374 M
465.336 374 L
466.204 374 L
465.336 31 L
cp
467.072 374 M
467.94 374 L
468.808 374 L
467.94 31 L
cp
468.808 374 M
469.676 374 L
470.544 374 L
469.676 31 L
cp
471.412 374 M
472.28 374 L
473.148 374 L
472.28 31 L
cp
473.148 374 M
474.016 374 L
474.884 374 L
474.016 31 L
cp
475.752 374 M
476.62 374 L
477.488 374 L
476.62 31 L
cp
477.488 374 M
478.356 374 L
479.224 374 L
478.356 31 L
cp
479.224 374 M
480.092 374 L
480.96 374 L
481.828 374 L
480.96 31 L
480.092 31 L
cp
481.828 374 M
482.696 374 L
483.564 374 L
482.696 31 L
cp
483.564 374 M
484.432 374 L
485.3 374 L
484.432 31 L
cp
486.168 374 M
487.036 374 L
487.904 374 L
487.036 31 L
cp
487.904 374 M
488.772 374 L
489.64 374 L
490.508 374 L
489.64 31 L
488.772 31 L
cp
490.508 374 M
491.376 374 L
492.244 374 L
491.376 31 L
cp
492.244 374 M
493.112 374 L
493.98 374 L
493.112 31 L
cp
494.848 374 M
495.716 374 L
496.584 374 L
495.716 31 L
cp
496.584 374 M
497.452 374 L
498.32 374 L
499.188 374 L
498.32 31 L
497.452 31 L
cp
499.188 374 M
500.056 374 L
500.924 374 L
500.056 31 L
cp
500.924 374 M
501.792 374 L
502.66 374 L
503.528 374 L
502.66 31 L
501.792 31 L
cp
503.528 374 M
504.396 374 L
505.264 374 L
504.396 31 L
cp
507.052 353.554 M
507 374 L
507.052 374 L
cp
f
GR
GS
[0.75 0 0 0.75 0 0] CT
0.984 0.933 0.91 RC
1 LJ
0.667 LW
N
72.948 374 M
73 374 L
73.868 374 L
74.736 374 L
75.604 374 L
76.472 374 L
77.34 374 L
78.208 374 L
79.076 374 L
79.944 374 L
80.812 374 L
81.68 374 L
82.548 374 L
83.416 374 L
84.284 374 L
85.152 374 L
86.02 374 L
86.888 374 L
87.756 374 L
88.624 374 L
89.492 374 L
90.36 374 L
91.228 374 L
92.096 374 L
92.964 374 L
93.832 374 L
94.7 374 L
95.568 374 L
96.436 374 L
97.304 374 L
98.172 374 L
99.04 374 L
99.908 374 L
100.776 374 L
101.644 374 L
102.512 374 L
103.38 374 L
104.248 374 L
105.116 374 L
105.984 374 L
106.852 374 L
107.72 374 L
108.588 374 L
109.456 374 L
110.324 374 L
111.192 374 L
112.06 374 L
112.928 374 L
113.796 374 L
114.664 374 L
115.532 374 L
116.4 374 L
117.268 374 L
118.136 374 L
119.004 374 L
119.872 374 L
120.74 374 L
121.608 374 L
122.476 374 L
123.344 374 L
124.212 374 L
125.08 374 L
125.948 374 L
126.816 374 L
127.684 374 L
128.552 374 L
129.42 374 L
130.288 374 L
131.156 374 L
132.024 374 L
132.892 374 L
133.76 374 L
134.628 374 L
135.496 374 L
136.364 374 L
137.232 374 L
138.1 374 L
138.968 374 L
139.836 374 L
140.704 374 L
141.572 374 L
142.44 374 L
143.308 374 L
144.176 374 L
145.044 374 L
145.912 374 L
146.78 374 L
147.648 374 L
148.516 374 L
149.384 374 L
150.252 374 L
151.12 374 L
151.988 374 L
152.856 374 L
153.724 374 L
154.592 374 L
155.46 374 L
156.328 374 L
157.196 374 L
158.064 374 L
158.932 374 L
159.8 374 L
160.668 374 L
161.536 374 L
162.404 374 L
163.272 374 L
164.14 374 L
165.008 374 L
165.876 374 L
166.744 374 L
167.612 374 L
168.48 374 L
169.348 374 L
170.216 374 L
171.084 374 L
171.952 374 L
172.82 374 L
173.688 374 L
174.556 374 L
175.424 374 L
176.292 374 L
177.16 374 L
178.028 374 L
178.896 374 L
179.764 374 L
180.632 374 L
181.5 374 L
182.368 374 L
183.236 374 L
184.104 374 L
184.972 374 L
185.84 374 L
186.708 374 L
187.576 374 L
188.444 374 L
189.312 374 L
190.18 374 L
191.048 374 L
191.916 374 L
192.784 374 L
193.652 374 L
194.52 374 L
195.388 374 L
196.256 374 L
197.124 374 L
197.992 374 L
198.86 374 L
199.728 374 L
200.596 374 L
201.464 374 L
202.332 374 L
203.2 374 L
204.068 374 L
204.936 374 L
205.804 374 L
206.672 374 L
207.54 374 L
208.408 374 L
209.276 374 L
210.144 374 L
211.012 374 L
211.88 374 L
212.748 374 L
213.616 374 L
214.484 374 L
215.352 374 L
216.22 374 L
217.088 374 L
217.956 374 L
218.824 374 L
219.692 374 L
220.56 374 L
221.428 374 L
222.296 374 L
223.164 374 L
224.032 374 L
224.9 374 L
225.768 374 L
226.636 374 L
227.504 374 L
228.372 374 L
229.24 374 L
230.108 374 L
230.976 374 L
231.844 374 L
232.712 374 L
233.58 374 L
234.448 374 L
235.316 374 L
236.184 374 L
237.052 374 L
237.92 374 L
238.788 374 L
239.656 374 L
240.524 374 L
241.392 374 L
242.26 374 L
243.128 374 L
243.996 374 L
244.864 374 L
245.732 374 L
246.6 374 L
247.468 374 L
248.336 374 L
249.204 374 L
250.072 374 L
250.94 374 L
251.808 374 L
252.676 374 L
253.544 374 L
254.412 374 L
255.28 374 L
256.148 374 L
257.016 374 L
257.884 374 L
258.752 374 L
259.62 374 L
260.488 374 L
261.356 374 L
262.224 374 L
263.092 374 L
263.96 374 L
264.828 374 L
265.696 374 L
266.564 374 L
267.432 374 L
268.3 374 L
269.168 374 L
270.036 374 L
270.904 374 L
271.772 374 L
272.64 374 L
273.508 374 L
274.376 374 L
275.244 374 L
276.112 374 L
276.98 374 L
277.848 374 L
278.716 374 L
279.584 374 L
280.452 374 L
281.32 374 L
282.188 374 L
283.056 374 L
283.924 374 L
284.792 374 L
285.66 374 L
286.528 374 L
287.396 374 L
288.264 374 L
289.132 374 L
290 374 L
290.868 374 L
291.736 374 L
292.604 374 L
293.472 374 L
294.34 374 L
295.208 374 L
296.076 374 L
296.944 374 L
297.812 374 L
298.68 374 L
299.548 374 L
300.416 374 L
301.284 374 L
302.152 374 L
303.02 374 L
303.888 374 L
304.756 374 L
305.624 374 L
306.492 374 L
307.36 374 L
308.228 374 L
309.096 374 L
309.964 374 L
310.832 374 L
311.7 374 L
312.568 374 L
313.436 374 L
314.304 374 L
315.172 374 L
316.04 374 L
316.908 374 L
317.776 374 L
318.644 374 L
319.512 374 L
320.38 374 L
321.248 374 L
322.116 374 L
322.984 374 L
323.852 374 L
324.72 374 L
325.588 374 L
326.456 374 L
327.324 374 L
328.192 374 L
329.06 374 L
329.928 374 L
330.796 374 L
331.664 374 L
332.532 374 L
333.4 374 L
334.268 374 L
335.136 374 L
336.004 374 L
336.872 374 L
337.74 374 L
338.608 374 L
339.476 374 L
340.344 374 L
341.212 374 L
342.08 374 L
342.948 374 L
343.816 374 L
344.684 374 L
345.552 374 L
346.42 374 L
347.288 374 L
348.156 374 L
349.024 374 L
349.892 374 L
350.76 374 L
351.628 374 L
352.496 374 L
353.364 374 L
354.232 374 L
355.1 374 L
355.968 374 L
356.836 374 L
357.704 374 L
358.572 374 L
359.44 374 L
360.308 374 L
361.176 374 L
362.044 374 L
362.912 374 L
363.78 374 L
364.648 374 L
365.516 374 L
366.384 374 L
367.252 374 L
368.12 374 L
368.988 374 L
369.856 374 L
370.724 374 L
371.592 374 L
372.46 374 L
373.328 374 L
374.196 374 L
375.064 374 L
375.932 374 L
376.8 374 L
377.668 374 L
378.536 374 L
379.404 374 L
380.272 374 L
381.14 374 L
382.008 374 L
382.876 374 L
383.744 374 L
384.612 374 L
385.48 374 L
386.348 374 L
387.216 374 L
388.084 374 L
388.952 374 L
389.82 374 L
390.688 374 L
391.556 374 L
392.424 374 L
393.292 374 L
394.16 374 L
395.028 374 L
395.896 374 L
396.764 374 L
397.632 374 L
398.5 374 L
399.368 374 L
400.236 374 L
401.104 374 L
401.972 374 L
402.84 374 L
403.708 374 L
404.576 374 L
405.444 374 L
406.312 374 L
407.18 374 L
408.048 374 L
408.916 374 L
409.784 374 L
410.652 374 L
411.52 374 L
412.388 374 L
413.256 374 L
414.124 374 L
414.992 374 L
415.86 374 L
416.728 374 L
417.596 374 L
418.464 374 L
419.332 374 L
420.2 374 L
421.068 374 L
421.936 374 L
422.804 374 L
423.672 374 L
424.54 374 L
425.408 374 L
426.276 374 L
427.144 374 L
428.012 374 L
428.88 374 L
429.748 374 L
430.616 374 L
431.484 374 L
432.352 374 L
433.22 374 L
434.088 374 L
434.956 374 L
435.824 374 L
436.692 374 L
437.56 374 L
438.428 374 L
439.296 374 L
440.164 374 L
441.032 374 L
441.9 374 L
442.768 374 L
443.636 374 L
444.504 374 L
445.372 374 L
446.24 374 L
447.108 374 L
447.976 374 L
448.844 374 L
449.712 374 L
450.58 374 L
451.448 374 L
452.316 374 L
453.184 374 L
454.052 374 L
454.92 374 L
455.788 374 L
456.656 374 L
457.524 374 L
458.392 374 L
459.26 374 L
460.128 374 L
460.996 374 L
461.864 374 L
462.732 374 L
463.6 374 L
464.468 374 L
465.336 374 L
466.204 374 L
467.072 374 L
467.94 374 L
468.808 374 L
469.676 374 L
470.544 374 L
471.412 374 L
472.28 374 L
473.148 374 L
474.016 374 L
474.884 374 L
475.752 374 L
476.62 374 L
477.488 374 L
478.356 374 L
479.224 374 L
480.092 374 L
480.96 374 L
481.828 374 L
482.696 374 L
483.564 374 L
484.432 374 L
485.3 374 L
486.168 374 L
487.036 374 L
487.904 374 L
488.772 374 L
489.64 374 L
490.508 374 L
491.376 374 L
492.244 374 L
493.112 374 L
493.98 374 L
494.848 374 L
495.716 374 L
496.584 374 L
497.452 374 L
498.32 374 L
499.188 374 L
500.056 374 L
500.924 374 L
501.792 374 L
502.66 374 L
503.528 374 L
504.396 374 L
505.264 374 L
506.132 374 L
507 374 L
507.052 374 L
S
GR
GS
[0.75 0 0 0.75 0 0] CT
0.984 0.933 0.91 RC
1 LJ
0.667 LW
N
507.052 353.554 M
507 374 L
506.132 374 L
505.264 374 L
504.396 31 L
503.528 374 L
502.66 31 L
501.792 31 L
500.924 374 L
500.056 31 L
499.188 374 L
498.32 31 L
497.452 31 L
496.584 374 L
495.716 31 L
494.848 374 L
493.98 374 L
493.112 31 L
492.244 374 L
491.376 31 L
490.508 374 L
489.64 31 L
488.772 31 L
487.904 374 L
487.036 31 L
486.168 374 L
485.3 374 L
484.432 31 L
483.564 374 L
482.696 31 L
481.828 374 L
480.96 31 L
480.092 31 L
479.224 374 L
478.356 31 L
477.488 374 L
476.62 31 L
475.752 374 L
474.884 374 L
474.016 31 L
473.148 374 L
472.28 31 L
471.412 374 L
470.544 374 L
469.676 31 L
468.808 374 L
467.94 31 L
467.072 374 L
466.204 374 L
465.336 31 L
464.468 374 L
463.6 31 L
462.732 31 L
461.864 31 L
460.996 31 L
460.128 31 L
459.26 31 L
458.392 31 L
457.524 31 L
456.656 31 L
455.788 31 L
454.92 31 L
454.052 31 L
453.184 31 L
452.316 31 L
451.448 31 L
450.58 31 L
449.712 31 L
448.844 31 L
447.976 31 L
447.108 31 L
446.24 31 L
445.372 31 L
444.504 31 L
443.636 31 L
442.768 31 L
441.9 31 L
441.032 31 L
440.164 31 L
439.296 31 L
438.428 31 L
437.56 31 L
436.692 31 L
435.824 31 L
434.956 31 L
434.088 31 L
433.22 31 L
432.352 31 L
431.484 31 L
430.616 31 L
429.748 31 L
428.88 31 L
428.012 31 L
427.144 31 L
426.276 31 L
425.408 31 L
424.54 31 L
423.672 31 L
422.804 31 L
421.936 31 L
421.068 31 L
420.2 31 L
419.332 31 L
418.464 31 L
417.596 31 L
416.728 31 L
415.86 31 L
414.992 31 L
414.124 31 L
413.256 31 L
412.388 31 L
411.52 31 L
410.652 31 L
409.784 31 L
408.916 31 L
408.048 31 L
407.18 31 L
406.312 31 L
405.444 31 L
404.576 31 L
403.708 31 L
402.84 31 L
401.972 31 L
401.104 31 L
400.236 31 L
399.368 31 L
398.5 31 L
397.632 31 L
396.764 31 L
395.896 31 L
395.028 31 L
394.16 31 L
393.292 31 L
392.424 31 L
391.556 31 L
390.688 31 L
389.82 31 L
388.952 31 L
388.084 31 L
387.216 31 L
386.348 31 L
385.48 31 L
384.612 31 L
383.744 31 L
382.876 31 L
382.008 31 L
381.14 31 L
380.272 31 L
379.404 31 L
378.536 31 L
377.668 31 L
376.8 31 L
375.932 31 L
375.064 31 L
374.196 31 L
373.328 31 L
372.46 31 L
371.592 31 L
370.724 31 L
369.856 31 L
368.988 31 L
368.12 31 L
367.252 31 L
366.384 31 L
365.516 31 L
364.648 31 L
363.78 31 L
362.912 31 L
362.044 31 L
361.176 31 L
360.308 31 L
359.44 31 L
358.572 31 L
357.704 31 L
356.836 31 L
355.968 31 L
355.1 31 L
354.232 31 L
353.364 31 L
352.496 31 L
351.628 31 L
350.76 31 L
349.892 31 L
349.024 31 L
348.156 31 L
347.288 31 L
346.42 31 L
345.552 31 L
344.684 31 L
343.816 31 L
342.948 31 L
342.08 31 L
341.212 31 L
340.344 31 L
339.476 31 L
338.608 31 L
337.74 31 L
336.872 31 L
336.004 31 L
335.136 31 L
334.268 31 L
333.4 31 L
332.532 31 L
331.664 31 L
330.796 31 L
329.928 31 L
329.06 31 L
328.192 31 L
327.324 31 L
326.456 31 L
325.588 31 L
324.72 31 L
323.852 31 L
322.984 31 L
322.116 31 L
321.248 31 L
320.38 31 L
319.512 31 L
318.644 31 L
317.776 31 L
316.908 31 L
316.04 31 L
315.172 31 L
314.304 31 L
313.436 31 L
312.568 31 L
311.7 31 L
310.832 31 L
309.964 31 L
309.096 31 L
308.228 31 L
307.36 31 L
306.492 31 L
305.624 31 L
304.756 31 L
303.888 31 L
303.02 31 L
302.152 31 L
301.284 31 L
300.416 31 L
299.548 31 L
298.68 31 L
297.812 31 L
296.944 31 L
296.076 31 L
295.208 31 L
294.34 31 L
293.472 31 L
292.604 31 L
291.736 31 L
290.868 31 L
290 31 L
289.132 31 L
288.264 31 L
287.396 31 L
286.528 31 L
285.66 31 L
284.792 31 L
283.924 31 L
283.056 31 L
282.188 31 L
281.32 31 L
280.452 31 L
279.584 31 L
278.716 31 L
277.848 31 L
276.98 31 L
276.112 31 L
275.244 31 L
274.376 31 L
273.508 31 L
272.64 31 L
271.772 31 L
270.904 31 L
270.036 31 L
269.168 31 L
268.3 31 L
267.432 31 L
266.564 31 L
265.696 31 L
264.828 31 L
263.96 31 L
263.092 31 L
262.224 31 L
261.356 31 L
260.488 31 L
259.62 31 L
258.752 31 L
257.884 31 L
257.016 31 L
256.148 31 L
255.28 31 L
254.412 31 L
253.544 31 L
252.676 31 L
251.808 31 L
250.94 31 L
250.072 31 L
249.204 31 L
248.336 31 L
247.468 31 L
246.6 31 L
245.732 31 L
244.864 31 L
243.996 31 L
243.128 31 L
242.26 31 L
241.392 31 L
240.524 31 L
239.656 31 L
238.788 31 L
237.92 31 L
237.052 31 L
236.184 31 L
235.316 31 L
234.448 31 L
233.58 31 L
232.712 31 L
231.844 31 L
230.976 31 L
230.108 31 L
229.24 31 L
228.372 31 L
227.504 31 L
226.636 31 L
225.768 31 L
224.9 31 L
224.032 31 L
223.164 31 L
222.296 31 L
221.428 31 L
220.56 31 L
219.692 31 L
218.824 31 L
217.956 31 L
217.088 31 L
216.22 31 L
215.352 31 L
214.484 31 L
213.616 31 L
212.748 31 L
211.88 31 L
211.012 31 L
210.144 31 L
209.276 31 L
208.408 31 L
207.54 31 L
206.672 31 L
205.804 31 L
204.936 31 L
204.068 31 L
203.2 31 L
202.332 31 L
201.464 31 L
200.596 31 L
199.728 31 L
198.86 374 L
197.992 374 L
197.124 374 L
196.256 374 L
195.388 374 L
194.52 374 L
193.652 374 L
192.784 374 L
191.916 374 L
191.048 374 L
190.18 374 L
189.312 374 L
188.444 374 L
187.576 374 L
186.708 374 L
185.84 374 L
184.972 374 L
184.104 374 L
183.236 374 L
182.368 374 L
181.5 374 L
180.632 374 L
179.764 374 L
178.896 374 L
178.028 374 L
177.16 374 L
176.292 374 L
175.424 374 L
174.556 374 L
173.688 374 L
172.82 374 L
171.952 374 L
171.084 374 L
170.216 374 L
169.348 374 L
168.48 374 L
167.612 374 L
166.744 374 L
165.876 374 L
165.008 374 L
164.14 374 L
163.272 374 L
162.404 374 L
161.536 374 L
160.668 374 L
159.8 374 L
158.932 374 L
158.064 374 L
157.196 374 L
156.328 374 L
155.46 374 L
154.592 374 L
153.724 374 L
152.856 374 L
151.988 374 L
151.12 374 L
150.252 374 L
149.384 374 L
148.516 374 L
147.648 374 L
146.78 374 L
145.912 374 L
145.044 374 L
144.176 374 L
143.308 374 L
142.44 374 L
141.572 374 L
140.704 374 L
139.836 374 L
138.968 374 L
138.1 374 L
137.232 374 L
136.364 374 L
135.496 374 L
134.628 374 L
133.76 374 L
132.892 374 L
132.024 374 L
131.156 374 L
130.288 374 L
129.42 374 L
128.552 374 L
127.684 374 L
126.816 374 L
125.948 374 L
125.08 374 L
124.212 374 L
123.344 374 L
122.476 374 L
121.608 374 L
120.74 374 L
119.872 374 L
119.004 374 L
118.136 374 L
117.268 374 L
116.4 374 L
115.532 31 L
114.664 374 L
113.796 31 L
112.928 31 L
112.06 374 L
111.192 31 L
110.324 374 L
109.456 31 L
108.588 31 L
107.72 374 L
106.852 31 L
105.984 374 L
105.116 31 L
104.248 31 L
103.38 374 L
102.512 31 L
101.644 374 L
100.776 31 L
99.908 374 L
99.04 374 L
98.172 31 L
97.304 374 L
96.436 31 L
95.568 374 L
94.7 374 L
93.832 31 L
92.964 374 L
92.096 31 L
91.228 374 L
90.36 374 L
89.492 31 L
88.624 374 L
87.756 31 L
86.888 374 L
86.02 374 L
85.152 374 L
84.284 374 L
83.416 31 L
82.548 374 L
81.68 374 L
80.812 31 L
79.944 374 L
79.076 31 L
78.208 374 L
77.34 31 L
76.472 374 L
75.604 31 L
74.736 374 L
73.868 31 L
73 31 L
72.948 31 L
S
GR
GS
[0.75 0 0 0.75 0 0] CT
0 0.447 0.741 RC
1 LJ
2.667 LW
N
72.948 374 M
73 374 L
73.868 374 L
74.736 374 L
75.604 374 L
76.472 374 L
77.34 374 L
78.208 374 L
79.076 374 L
79.944 374 L
80.812 374 L
81.68 374 L
82.548 374 L
83.416 374 L
84.284 374 L
85.152 374 L
86.02 374 L
86.888 374 L
87.756 374 L
88.624 374 L
89.492 374 L
90.36 374 L
91.228 374 L
92.096 374 L
92.964 374 L
93.832 374 L
94.7 374 L
95.568 374 L
96.436 374 L
97.304 374 L
98.172 374 L
99.04 374 L
99.908 374 L
100.776 374 L
101.644 374 L
102.512 374 L
103.38 374 L
104.248 374 L
105.116 374 L
105.984 374 L
106.852 374 L
107.72 374 L
108.588 374 L
109.456 374 L
110.324 374 L
111.192 374 L
112.06 374 L
112.928 374 L
113.796 373.999 L
114.664 373.782 L
114.755 374.041 L
S
GR
GS
[0.75 0 0 0.75 0 0] CT
0 0.447 0.741 RC
1 LJ
2.667 LW
N
115.569 374.041 M
116.4 324.055 L
117.268 316.906 L
118.136 329.334 L
119.004 336.866 L
119.872 330.044 L
120.74 318.021 L
121.608 317.159 L
122.476 328.638 L
123.344 336.823 L
124.212 330.66 L
125.08 318.465 L
125.948 316.824 L
126.816 327.982 L
127.684 336.736 L
128.552 331.259 L
129.42 318.941 L
130.288 316.526 L
131.156 327.319 L
132.024 336.607 L
132.892 331.838 L
133.76 319.445 L
134.628 316.267 L
135.496 326.651 L
136.364 336.437 L
137.232 332.395 L
138.1 319.975 L
138.968 316.047 L
139.836 325.982 L
140.704 336.227 L
141.572 332.927 L
142.44 320.531 L
143.308 315.867 L
144.176 325.313 L
145.044 335.978 L
145.912 333.433 L
146.78 321.109 L
147.648 315.729 L
148.516 324.648 L
149.384 335.691 L
150.252 333.91 L
151.12 321.707 L
151.988 315.632 L
152.856 323.989 L
153.724 335.366 L
154.592 334.358 L
155.46 322.323 L
156.328 315.577 L
157.196 323.339 L
158.064 335.006 L
158.932 334.773 L
159.8 322.954 L
160.668 315.564 L
161.536 322.7 L
162.404 334.611 L
163.272 335.154 L
164.14 323.598 L
165.008 315.594 L
165.876 322.074 L
166.744 334.182 L
167.612 335.501 L
168.48 324.252 L
169.348 315.665 L
170.216 321.465 L
171.084 333.723 L
171.952 335.81 L
172.82 324.913 L
173.688 315.779 L
174.556 320.875 L
175.424 333.234 L
176.292 336.083 L
177.16 325.58 L
178.028 315.934 L
178.896 320.306 L
179.764 332.706 L
180.632 336.547 L
181.5 326.208 L
182.368 316.413 L
183.236 319.707 L
184.104 332.269 L
184.972 337.211 L
185.84 327.5 L
186.708 317.063 L
187.576 318.808 L
188.444 331.766 L
189.312 337.707 L
190.18 329.625 L
191.048 318.692 L
191.916 322.568 L
192.784 332.693 L
193.652 339.299 L
194.52 330.938 L
195.388 324.641 L
196.256 322.806 L
197.124 336.882 L
197.992 341.117 L
198.86 334.955 L
199.728 323.337 L
200.596 330.403 L
201.464 340.007 L
202.332 342.493 L
203.2 342.375 L
204.068 336.049 L
204.936 334.332 L
205.804 340.725 L
206.672 348.138 L
207.54 345.625 L
208.408 340.002 L
209.276 341.352 L
210.144 345.417 L
211.012 350.599 L
211.88 349.696 L
212.748 341.895 L
213.616 339.663 L
214.484 349.365 L
215.352 352.625 L
216.22 350.335 L
217.088 344.689 L
217.956 344.931 L
218.824 349.993 L
219.692 354.276 L
220.56 352.817 L
221.428 346.811 L
222.296 345.243 L
223.164 349.232 L
224.032 354.802 L
224.9 353.251 L
225.768 347.053 L
226.636 344.993 L
227.504 349.948 L
228.372 355.009 L
229.24 353.521 L
230.108 347.323 L
230.976 344.917 L
231.844 349.662 L
232.712 354.965 L
233.58 353.765 L
234.448 347.613 L
235.316 344.853 L
236.184 349.258 L
237.052 354.814 L
237.92 354.001 L
238.788 347.914 L
239.656 344.809 L
240.524 348.929 L
241.392 354.648 L
242.26 354.222 L
243.128 348.224 L
243.996 344.785 L
244.864 348.605 L
245.732 354.465 L
246.6 354.426 L
247.468 348.541 L
248.336 344.783 L
249.204 348.289 L
250.072 354.271 L
250.94 354.627 L
251.808 348.874 L
252.676 344.81 L
253.544 347.985 L
254.412 354.057 L
255.28 354.797 L
256.148 349.21 L
257.016 344.836 L
257.884 347.732 L
258.752 353.906 L
259.62 354.959 L
260.488 349.607 L
261.356 344.895 L
262.224 347.512 L
263.092 353.606 L
263.96 355.16 L
264.828 349.971 L
265.696 345.073 L
266.564 347.369 L
267.432 353.464 L
268.3 355.382 L
269.168 350.625 L
270.036 345.511 L
270.904 347.227 L
271.772 353.646 L
272.64 355.956 L
273.508 351.35 L
274.376 346.202 L
275.244 347.535 L
276.112 353.539 L
276.98 356.137 L
277.848 351.889 L
278.716 346.941 L
279.584 347.968 L
280.452 353.302 L
281.32 356.297 L
282.188 352.307 L
283.056 347.269 L
283.924 347.253 L
284.792 352.727 L
285.66 356.165 L
286.528 352.556 L
287.396 346.485 L
288.264 347.386 L
289.132 352.699 L
290 355.96 L
290.868 352.122 L
291.736 345.95 L
292.604 346.043 L
293.472 351.492 L
294.34 354.911 L
295.208 351.296 L
296.076 344.758 L
296.944 344.497 L
297.812 349.861 L
298.68 354.141 L
299.548 350.62 L
300.416 343.957 L
301.284 342.436 L
302.152 348.108 L
303.02 353.288 L
303.888 350.085 L
304.756 342.365 L
305.624 340.353 L
306.492 347.025 L
307.36 352.32 L
308.228 349.55 L
309.096 342.639 L
309.964 339.9 L
310.832 346.147 L
311.7 351.713 L
312.568 349.551 L
313.436 342.192 L
314.304 338.646 L
315.172 344.985 L
316.04 351.003 L
316.908 349.133 L
317.776 341.612 L
318.644 338.255 L
319.512 343.982 L
320.38 350.757 L
321.248 349.315 L
322.116 341.458 L
322.984 338.081 L
323.852 343.275 L
324.72 350.188 L
325.588 349.243 L
326.456 341.915 L
327.324 337.751 L
328.192 342.728 L
329.06 349.847 L
329.928 349.426 L
330.796 341.972 L
331.664 337.601 L
332.532 342.253 L
333.4 349.533 L
334.268 349.529 L
335.136 342.22 L
336.004 337.401 L
336.872 341.653 L
337.74 349.1 L
338.608 349.638 L
339.476 342.395 L
340.344 337.33 L
341.212 340.778 L
342.08 348.828 L
342.948 349.83 L
343.816 342.786 L
344.684 337.064 L
345.552 340.688 L
346.42 348.271 L
347.288 349.714 L
348.156 342.5 L
349.024 336.863 L
349.892 339.313 L
350.76 346.973 L
351.628 349.386 L
352.496 342.691 L
353.364 336.166 L
354.232 338.146 L
355.1 346.376 L
355.968 348.807 L
356.836 342.14 L
357.704 334.874 L
358.572 336.682 L
359.44 344.983 L
360.308 347.718 L
361.176 340.116 L
362.044 331.507 L
362.912 333.629 L
363.78 342.542 L
364.648 345.999 L
365.516 338.029 L
366.384 330.082 L
367.252 330.392 L
368.12 340.46 L
368.988 343.627 L
369.856 337.074 L
370.724 326.001 L
371.592 327.397 L
372.46 335.74 L
373.328 340.376 L
374.196 332.842 L
375.064 323.274 L
375.932 322.554 L
376.8 334.311 L
377.668 338.813 L
378.536 329.586 L
379.404 319.656 L
380.272 318.224 L
381.14 329.647 L
382.008 336.597 L
382.876 328.609 L
383.744 314.952 L
384.612 312.063 L
385.48 325.878 L
386.348 333.284 L
387.216 327.283 L
388.084 315.271 L
388.952 308.174 L
389.82 321.56 L
390.688 331.42 L
391.556 324.378 L
392.424 311.396 L
393.292 305.701 L
394.16 318.988 L
395.028 329.689 L
395.896 323.8 L
396.764 309.81 L
397.632 303.881 L
398.5 317.035 L
399.368 328.236 L
400.236 323.662 L
401.104 309.173 L
401.972 303.587 L
402.84 314.404 L
403.708 327.485 L
404.576 323.882 L
405.444 308.101 L
406.312 302.23 L
407.18 313.448 L
408.048 326.668 L
408.916 323.881 L
409.784 308.806 L
410.652 301.378 L
411.52 312.077 L
412.388 326.035 L
413.256 324.427 L
414.124 309.289 L
414.992 301.062 L
415.86 311.03 L
416.728 325.51 L
417.596 324.805 L
418.464 309.943 L
419.332 300.959 L
420.2 310.256 L
421.068 324.934 L
421.936 325.085 L
422.804 310.624 L
423.672 300.961 L
424.54 309.35 L
425.408 324.43 L
426.276 325.659 L
427.144 311.535 L
428.012 300.633 L
428.88 308.577 L
429.748 323.778 L
430.616 326.025 L
431.484 312.1 L
432.352 300.75 L
433.22 307.383 L
434.088 322.905 L
434.956 326.086 L
435.824 312.04 L
436.692 300.823 L
437.56 305.641 L
438.428 321.812 L
439.296 325.735 L
440.164 312.421 L
441.032 296.554 L
441.9 303.928 L
442.768 319.789 L
443.636 324.584 L
444.504 311.063 L
445.372 297.097 L
446.24 300.246 L
447.108 318.17 L
447.976 323.39 L
448.844 309.268 L
449.712 292.832 L
450.58 297.206 L
451.448 310.195 L
452.316 318.739 L
453.184 305.781 L
454.052 283.33 L
454.92 287.6 L
455.788 309.548 L
456.656 314.68 L
457.524 302.635 L
458.392 274.162 L
459.26 271.847 L
460.128 299.783 L
460.996 306.776 L
461.864 295.77 L
462.732 268.485 L
463.6 262.045 L
464.468 373.158 L
465.336 373.759 L
466.204 373.988 L
467.072 373.998 L
467.94 374 L
468.808 374 L
469.676 374 L
470.544 374 L
471.412 374 L
472.28 374 L
473.148 374 L
474.016 374 L
474.884 374 L
475.752 374 L
476.62 374 L
477.488 374 L
478.356 374 L
479.224 374 L
480.092 374 L
480.96 374 L
481.828 374 L
482.696 374 L
483.564 374 L
484.432 374 L
485.3 374 L
486.168 374 L
487.036 374 L
487.904 374 L
488.772 374 L
489.64 374 L
490.508 374 L
491.376 374 L
492.244 374 L
493.112 374 L
493.98 374 L
494.848 374 L
495.716 374 L
496.584 374 L
497.452 374 L
498.32 374 L
499.188 374 L
500.056 374 L
500.924 374 L
501.792 374 L
502.66 374 L
503.528 374 L
504.396 374 L
505.264 374 L
506.132 374 L
507 374 L
507.052 374 L
S
GR
GS
[0.75 0 0 0.75 0 0] CT
0.851 0.325 0.098 RC
1 LJ
2.667 LW
N
72.948 374 M
73 374 L
73.868 374 L
74.736 374 L
75.604 374 L
76.472 374 L
77.34 374 L
78.208 374 L
79.076 374 L
79.944 374 L
80.812 374 L
81.68 374 L
82.548 374 L
83.416 374 L
84.284 374 L
85.152 374 L
86.02 374 L
86.888 374 L
87.756 374 L
88.624 374 L
89.492 374 L
90.36 374 L
91.228 374 L
92.096 374 L
92.964 374 L
93.832 374 L
94.7 374 L
95.568 374 L
96.436 374 L
97.304 374 L
98.172 374 L
99.04 374 L
99.908 374 L
100.776 374 L
101.644 374 L
102.512 374 L
103.38 374 L
104.248 374 L
105.116 374 L
105.984 374 L
106.852 374 L
107.72 374 L
108.588 374 L
109.456 374 L
110.324 374 L
111.192 374 L
112.06 374 L
112.928 374 L
113.796 373.998 L
114.664 373.914 L
114.831 374.041 L
S
GR
GS
[0.75 0 0 0.75 0 0] CT
0.851 0.325 0.098 RC
1 LJ
2.667 LW
N
115.549 374.041 M
116.4 347.423 L
117.268 346.331 L
118.136 351.888 L
119.004 355.353 L
119.872 351.631 L
120.74 345.238 L
121.608 344.327 L
122.476 350.02 L
123.344 354.799 L
124.212 350.967 L
125.08 344.856 L
125.948 343.247 L
126.816 349.09 L
127.684 353.35 L
128.552 350.626 L
129.42 343.21 L
130.288 341.741 L
131.156 347.445 L
132.024 352.41 L
132.892 349.97 L
133.76 342.538 L
134.628 340.97 L
135.496 346.481 L
136.364 351.84 L
137.232 349.363 L
138.1 342.04 L
138.968 339.762 L
139.836 345.464 L
140.704 351.395 L
141.572 349.27 L
142.44 341.316 L
143.308 338.739 L
144.176 344.275 L
145.044 350.835 L
145.912 349.091 L
146.78 341.29 L
147.648 338.247 L
148.516 343.505 L
149.384 350.524 L
150.252 349.283 L
151.12 341.725 L
151.988 337.837 L
152.856 343.043 L
153.724 350.08 L
154.592 349.421 L
155.46 341.784 L
156.328 337.679 L
157.196 342.427 L
158.064 349.671 L
158.932 349.496 L
159.8 342.141 L
160.668 337.487 L
161.536 341.874 L
162.404 349.387 L
163.272 349.709 L
164.14 342.221 L
165.008 337.269 L
165.876 341.392 L
166.744 348.992 L
167.612 349.796 L
168.48 342.713 L
169.348 337.082 L
170.216 340.624 L
171.084 348.47 L
171.952 349.662 L
172.82 342.372 L
173.688 336.434 L
174.556 339.85 L
175.424 347.994 L
176.292 349.047 L
177.16 342.447 L
178.028 335.926 L
178.896 338.596 L
179.764 346.417 L
180.632 349.018 L
181.5 341.896 L
182.368 333.689 L
183.236 337.671 L
184.104 345.126 L
184.972 348.005 L
185.84 341.424 L
186.708 334.468 L
187.576 334.53 L
188.444 343.705 L
189.312 345.909 L
190.18 339.285 L
191.048 329.836 L
191.916 330.55 L
192.784 340.84 L
193.652 344.695 L
194.52 336.387 L
195.388 327.722 L
196.256 327.728 L
197.124 338.026 L
197.992 341.875 L
198.86 335.028 L
199.728 321.604 L
200.596 322.681 L
201.464 334.061 L
202.332 340.009 L
203.2 332.978 L
204.068 321.376 L
204.936 318.375 L
205.804 329.799 L
206.672 337.607 L
207.54 329.394 L
208.408 317.558 L
209.276 313.904 L
210.144 326.199 L
211.012 333.998 L
211.88 326.892 L
212.748 311.524 L
213.616 310.058 L
214.484 323.464 L
215.352 332.01 L
216.22 326.17 L
217.088 311.401 L
217.956 307.894 L
218.824 319.85 L
219.692 330.28 L
220.56 324.985 L
221.428 309.979 L
222.296 305.973 L
223.164 317.402 L
224.032 329.142 L
224.9 323.707 L
225.768 308.242 L
226.636 302.821 L
227.504 315.296 L
228.372 327.581 L
229.24 323.925 L
230.108 308.392 L
230.976 302.424 L
231.844 314.221 L
232.712 327.21 L
233.58 324.027 L
234.448 308.586 L
235.316 301.769 L
236.184 312.508 L
237.052 326.331 L
237.92 324.181 L
238.788 308.952 L
239.656 301.241 L
240.524 311.473 L
241.392 325.815 L
242.26 324.588 L
243.128 309.611 L
243.996 301.027 L
244.864 310.443 L
245.732 325.135 L
246.6 325.064 L
247.468 310.278 L
248.336 300.935 L
249.204 309.688 L
250.072 324.68 L
250.94 325.529 L
251.808 311.089 L
252.676 300.932 L
253.544 308.884 L
254.412 324.119 L
255.28 325.898 L
256.148 311.924 L
257.016 300.724 L
257.884 308.072 L
258.752 323.259 L
259.62 325.91 L
260.488 311.759 L
261.356 300.94 L
262.224 306.996 L
263.092 322.27 L
263.96 325.453 L
264.828 312.492 L
265.696 299.404 L
266.564 305.872 L
267.432 319.776 L
268.3 325.31 L
269.168 312.188 L
270.036 297.498 L
270.904 302.387 L
271.772 317.517 L
272.64 322.256 L
273.508 310.835 L
274.376 294.013 L
275.244 299.071 L
276.112 314.632 L
276.98 319.98 L
277.848 303.921 L
278.716 291.421 L
279.584 289.556 L
280.452 307.312 L
281.32 316.286 L
282.188 301.364 L
283.056 281.935 L
283.924 288.728 L
284.792 302.284 L
285.66 311.522 L
286.528 296.073 L
287.396 275.077 L
288.264 272.666 L
289.132 292.715 L
290 303.939 L
290.868 286.479 L
291.736 264.337 L
292.604 261.388 L
293.472 281.883 L
294.34 296.355 L
295.208 282.477 L
296.076 258.541 L
296.944 251.802 L
297.812 273.027 L
298.68 290.058 L
299.548 277.953 L
300.416 250.16 L
301.284 243.751 L
302.152 271.439 L
303.02 288.724 L
303.888 274.589 L
304.756 247.95 L
305.624 237.519 L
306.492 262.3 L
307.36 283.203 L
308.228 271.218 L
309.096 241.639 L
309.964 233.398 L
310.832 256.461 L
311.7 281.885 L
312.568 271.464 L
313.436 241.928 L
314.304 231.323 L
315.172 254.226 L
316.04 279.585 L
316.908 272.515 L
317.776 241.036 L
318.644 229.373 L
319.512 251.92 L
320.38 278.808 L
321.248 273.312 L
322.116 242.653 L
322.984 228.465 L
323.852 249.928 L
324.72 278.027 L
325.588 274.301 L
326.456 243.871 L
327.324 228.118 L
328.192 248.314 L
329.06 277.066 L
329.928 275.366 L
330.796 245.441 L
331.664 227.917 L
332.532 246.706 L
333.4 276.151 L
334.268 276.359 L
335.136 247.026 L
336.004 227.927 L
336.872 245.12 L
337.74 275.108 L
338.608 277.243 L
339.476 248.645 L
340.344 228.043 L
341.212 243.572 L
342.08 274.006 L
342.948 278.072 L
343.816 250.289 L
344.684 228.266 L
345.552 241.883 L
346.42 269.653 L
347.288 278.791 L
348.156 251.949 L
349.024 228.598 L
349.892 240.543 L
350.76 271.556 L
351.628 278.969 L
352.496 253.607 L
353.364 228.945 L
354.232 239.533 L
355.1 268.509 L
355.968 279.132 L
356.836 254.753 L
357.704 228.562 L
358.572 235.632 L
359.44 264.623 L
360.308 280.404 L
361.176 257.304 L
362.044 226.382 L
362.912 227.507 L
363.78 255.115 L
364.648 275.344 L
365.516 254.848 L
366.384 216.876 L
367.252 220.038 L
368.12 244.095 L
368.988 263.737 L
369.856 240.069 L
370.724 200.672 L
371.592 198.455 L
372.46 221.421 L
373.328 248.732 L
374.196 224.638 L
375.064 170.561 L
375.932 171.562 L
376.8 208.675 L
377.668 228.973 L
378.536 195.418 L
379.404 134.339 L
380.272 151.205 L
381.14 174.597 L
382.008 213.601 L
382.876 178.293 L
383.744 120.248 L
384.612 106.485 L
385.48 163.167 L
386.348 200.926 L
387.216 165.883 L
388.084 101.678 L
388.952 95.245 L
389.82 152.681 L
390.688 196.841 L
391.556 164.091 L
392.424 107.326 L
393.292 88.473 L
394.16 142.603 L
395.028 191.522 L
395.896 169.49 L
396.764 102.658 L
397.632 84.659 L
398.5 135.275 L
399.368 185.681 L
400.236 169.777 L
401.104 110.189 L
401.972 87.8 L
402.84 136.571 L
403.708 184.529 L
404.576 170.168 L
405.444 108.376 L
406.312 82.895 L
407.18 128.568 L
408.048 183.052 L
408.916 172.615 L
409.784 111.327 L
410.652 82.327 L
411.52 125.258 L
412.388 181.503 L
413.256 174.912 L
414.124 114.372 L
414.992 81.968 L
415.86 121.988 L
416.728 179.771 L
417.596 177.053 L
418.464 117.498 L
419.332 81.82 L
420.2 118.768 L
421.068 177.864 L
421.936 179.029 L
422.804 120.693 L
423.672 81.884 L
424.54 115.612 L
425.408 175.788 L
426.276 180.832 L
427.144 123.945 L
428.012 82.159 L
428.88 112.534 L
429.748 173.552 L
430.616 182.455 L
431.484 127.24 L
432.352 82.643 L
433.22 109.544 L
434.088 171.165 L
434.956 183.892 L
435.824 130.566 L
436.692 83.336 L
437.56 106.655 L
438.428 168.636 L
439.296 185.137 L
440.164 133.909 L
441.032 84.234 L
441.9 103.878 L
442.768 165.974 L
443.636 186.186 L
444.504 137.256 L
445.372 85.334 L
446.24 101.223 L
447.108 163.191 L
447.976 187.034 L
448.844 140.595 L
449.712 86.631 L
450.58 98.704 L
451.448 160.296 L
452.316 187.679 L
453.184 143.909 L
454.052 88.122 L
454.92 96.325 L
455.788 157.303 L
456.656 188.117 L
457.524 147.19 L
458.392 89.797 L
459.26 94.104 L
460.128 154.221 L
460.996 188.328 L
461.864 150.771 L
462.732 88.536 L
463.6 116.522 L
464.429 374.041 L
S
GR
GS
[0.75 0 0 0.75 0 0] CT
0.851 0.325 0.098 RC
1 LJ
2.667 LW
N
465.272 374.041 M
465.336 373.086 L
466.204 373.995 L
467.072 374 L
467.94 374 L
468.808 374 L
469.676 374 L
470.544 374 L
471.412 374 L
472.28 374 L
473.148 374 L
474.016 374 L
474.884 374 L
475.752 374 L
476.62 374 L
477.488 374 L
478.356 374 L
479.224 374 L
480.092 374 L
480.96 374 L
481.828 374 L
482.696 374 L
483.564 374 L
484.432 374 L
485.3 374 L
486.168 374 L
487.036 374 L
487.904 374 L
488.772 374 L
489.64 374 L
490.508 374 L
491.376 374 L
492.244 374 L
493.112 374 L
493.98 374 L
494.848 374 L
495.716 374 L
496.584 374 L
497.452 374 L
498.32 374 L
499.188 374 L
500.056 374 L
500.924 374 L
501.792 374 L
502.66 374 L
503.528 374 L
504.396 374 L
505.264 374 L
506.132 374 L
507 374 L
507.052 374 L
S
GR
GS
[0.75 0 0 0.75 0 0] CT
0.775 GC
[1 3] 0 setdash
2 LJ
0.667 LW
N
90.36 374 M
90.36 31 L
S
GR
GS
[0.75 0 0 0.75 0 0] CT
0.775 GC
[1 3] 0 setdash
2 LJ
0.667 LW
N
107.72 374 M
107.72 31 L
S
GR
GS
[0.75 0 0 0.75 0 0] CT
0.775 GC
[1 3] 0 setdash
2 LJ
0.667 LW
N
125.08 374 M
125.08 31 L
S
GR
GS
[0.75 0 0 0.75 0 0] CT
0.775 GC
[1 3] 0 setdash
2 LJ
0.667 LW
N
142.44 374 M
142.44 31 L
S
GR
GS
[0.75 0 0 0.75 0 0] CT
0.775 GC
[1 3] 0 setdash
2 LJ
0.667 LW
N
177.16 374 M
177.16 31 L
S
GR
GS
[0.75 0 0 0.75 0 0] CT
0.775 GC
[1 3] 0 setdash
2 LJ
0.667 LW
N
194.52 374 M
194.52 31 L
S
GR
GS
[0.75 0 0 0.75 0 0] CT
0.775 GC
[1 3] 0 setdash
2 LJ
0.667 LW
N
211.88 374 M
211.88 31 L
S
GR
GS
[0.75 0 0 0.75 0 0] CT
0.775 GC
[1 3] 0 setdash
2 LJ
0.667 LW
N
229.24 374 M
229.24 31 L
S
GR
GS
[0.75 0 0 0.75 0 0] CT
0.775 GC
[1 3] 0 setdash
2 LJ
0.667 LW
N
263.96 374 M
263.96 31 L
S
GR
GS
[0.75 0 0 0.75 0 0] CT
0.775 GC
[1 3] 0 setdash
2 LJ
0.667 LW
N
281.32 374 M
281.32 31 L
S
GR
GS
[0.75 0 0 0.75 0 0] CT
0.775 GC
[1 3] 0 setdash
2 LJ
0.667 LW
N
298.68 374 M
298.68 31 L
S
GR
GS
[0.75 0 0 0.75 0 0] CT
0.775 GC
[1 3] 0 setdash
2 LJ
0.667 LW
N
316.04 374 M
316.04 31 L
S
GR
GS
[0.75 0 0 0.75 0 0] CT
0.775 GC
[1 3] 0 setdash
2 LJ
0.667 LW
N
350.76 374 M
350.76 31 L
S
GR
GS
[0.75 0 0 0.75 0 0] CT
0.775 GC
[1 3] 0 setdash
2 LJ
0.667 LW
N
368.12 374 M
368.12 31 L
S
GR
GS
[0.75 0 0 0.75 0 0] CT
0.775 GC
[1 3] 0 setdash
2 LJ
0.667 LW
N
385.48 374 M
385.48 31 L
S
GR
GS
[0.75 0 0 0.75 0 0] CT
0.775 GC
[1 3] 0 setdash
2 LJ
0.667 LW
N
402.84 374 M
402.84 31 L
S
GR
GS
[0.75 0 0 0.75 0 0] CT
0.775 GC
[1 3] 0 setdash
2 LJ
0.667 LW
N
437.56 374 M
437.56 31 L
S
GR
GS
[0.75 0 0 0.75 0 0] CT
0.775 GC
[1 3] 0 setdash
2 LJ
0.667 LW
N
454.92 374 M
454.92 31 L
S
GR
GS
[0.75 0 0 0.75 0 0] CT
0.775 GC
[1 3] 0 setdash
2 LJ
0.667 LW
N
472.28 374 M
472.28 31 L
S
GR
GS
[0.75 0 0 0.75 0 0] CT
0.775 GC
[1 3] 0 setdash
2 LJ
0.667 LW
N
489.64 374 M
489.64 31 L
S
GR
GS
[0.75 0 0 0.75 0 0] CT
0.873 GC
[1 3] 0 setdash
2 LJ
0.667 LW
N
73 374 M
73 31 L
S
GR
GS
[0.75 0 0 0.75 0 0] CT
0.873 GC
[1 3] 0 setdash
2 LJ
0.667 LW
N
159.8 374 M
159.8 31 L
S
GR
GS
[0.75 0 0 0.75 0 0] CT
0.873 GC
[1 3] 0 setdash
2 LJ
0.667 LW
N
246.6 374 M
246.6 31 L
S
GR
GS
[0.75 0 0 0.75 0 0] CT
0.873 GC
[1 3] 0 setdash
2 LJ
0.667 LW
N
333.4 374 M
333.4 31 L
S
GR
GS
[0.75 0 0 0.75 0 0] CT
0.873 GC
[1 3] 0 setdash
2 LJ
0.667 LW
N
420.2 374 M
420.2 31 L
S
GR
GS
[0.75 0 0 0.75 0 0] CT
0.873 GC
[1 3] 0 setdash
2 LJ
0.667 LW
N
507 374 M
507 31 L
S
GR
GS
[0.75 0 0 0.75 0 0] CT
0.775 GC
[1 3] 0 setdash
2 LJ
0.667 LW
N
507 362.567 M
73 362.567 L
S
GR
GS
[0.75 0 0 0.75 0 0] CT
0.775 GC
[1 3] 0 setdash
2 LJ
0.667 LW
N
507 351.133 M
73 351.133 L
S
GR
GS
[0.75 0 0 0.75 0 0] CT
0.775 GC
[1 3] 0 setdash
2 LJ
0.667 LW
N
507 339.7 M
73 339.7 L
S
GR
GS
[0.75 0 0 0.75 0 0] CT
0.775 GC
[1 3] 0 setdash
2 LJ
0.667 LW
N
507 328.267 M
73 328.267 L
S
GR
GS
[0.75 0 0 0.75 0 0] CT
0.775 GC
[1 3] 0 setdash
2 LJ
0.667 LW
N
507 305.4 M
73 305.4 L
S
GR
GS
[0.75 0 0 0.75 0 0] CT
0.775 GC
[1 3] 0 setdash
2 LJ
0.667 LW
N
507 293.967 M
73 293.967 L
S
GR
GS
[0.75 0 0 0.75 0 0] CT
0.775 GC
[1 3] 0 setdash
2 LJ
0.667 LW
N
507 282.533 M
73 282.533 L
S
GR
GS
[0.75 0 0 0.75 0 0] CT
0.775 GC
[1 3] 0 setdash
2 LJ
0.667 LW
N
507 271.1 M
73 271.1 L
S
GR
GS
[0.75 0 0 0.75 0 0] CT
0.775 GC
[1 3] 0 setdash
2 LJ
0.667 LW
N
507 248.233 M
73 248.233 L
S
GR
GS
[0.75 0 0 0.75 0 0] CT
0.775 GC
[1 3] 0 setdash
2 LJ
0.667 LW
N
507 236.8 M
73 236.8 L
S
GR
GS
[0.75 0 0 0.75 0 0] CT
0.775 GC
[1 3] 0 setdash
2 LJ
0.667 LW
N
507 225.367 M
73 225.367 L
S
GR
GS
[0.75 0 0 0.75 0 0] CT
0.775 GC
[1 3] 0 setdash
2 LJ
0.667 LW
N
507 213.933 M
73 213.933 L
S
GR
GS
[0.75 0 0 0.75 0 0] CT
0.775 GC
[1 3] 0 setdash
2 LJ
0.667 LW
N
507 191.067 M
73 191.067 L
S
GR
GS
[0.75 0 0 0.75 0 0] CT
0.775 GC
[1 3] 0 setdash
2 LJ
0.667 LW
N
507 179.633 M
73 179.633 L
S
GR
GS
[0.75 0 0 0.75 0 0] CT
0.775 GC
[1 3] 0 setdash
2 LJ
0.667 LW
N
507 168.2 M
73 168.2 L
S
GR
GS
[0.75 0 0 0.75 0 0] CT
0.775 GC
[1 3] 0 setdash
2 LJ
0.667 LW
N
507 156.767 M
73 156.767 L
S
GR
GS
[0.75 0 0 0.75 0 0] CT
0.775 GC
[1 3] 0 setdash
2 LJ
0.667 LW
N
507 133.9 M
73 133.9 L
S
GR
GS
[0.75 0 0 0.75 0 0] CT
0.775 GC
[1 3] 0 setdash
2 LJ
0.667 LW
N
507 122.467 M
73 122.467 L
S
GR
GS
[0.75 0 0 0.75 0 0] CT
0.775 GC
[1 3] 0 setdash
2 LJ
0.667 LW
N
507 111.033 M
73 111.033 L
S
GR
GS
[0.75 0 0 0.75 0 0] CT
0.775 GC
[1 3] 0 setdash
2 LJ
0.667 LW
N
507 99.6 M
73 99.6 L
S
GR
GS
[0.75 0 0 0.75 0 0] CT
0.775 GC
[1 3] 0 setdash
2 LJ
0.667 LW
N
507 76.733 M
73 76.733 L
S
GR
GS
[0.75 0 0 0.75 0 0] CT
0.775 GC
[1 3] 0 setdash
2 LJ
0.667 LW
N
507 65.3 M
73 65.3 L
S
GR
GS
[0.75 0 0 0.75 0 0] CT
0.775 GC
[1 3] 0 setdash
2 LJ
0.667 LW
N
507 53.867 M
73 53.867 L
S
GR
GS
[0.75 0 0 0.75 0 0] CT
0.775 GC
[1 3] 0 setdash
2 LJ
0.667 LW
N
507 42.433 M
73 42.433 L
S
GR
GS
[0.75 0 0 0.75 0 0] CT
0.873 GC
[1 3] 0 setdash
2 LJ
0.667 LW
N
507 374 M
73 374 L
S
GR
GS
[0.75 0 0 0.75 0 0] CT
0.873 GC
[1 3] 0 setdash
2 LJ
0.667 LW
N
507 316.833 M
73 316.833 L
S
GR
GS
[0.75 0 0 0.75 0 0] CT
0.873 GC
[1 3] 0 setdash
2 LJ
0.667 LW
N
507 259.667 M
73 259.667 L
S
GR
GS
[0.75 0 0 0.75 0 0] CT
0.873 GC
[1 3] 0 setdash
2 LJ
0.667 LW
N
507 202.5 M
73 202.5 L
S
GR
GS
[0.75 0 0 0.75 0 0] CT
0.873 GC
[1 3] 0 setdash
2 LJ
0.667 LW
N
507 145.333 M
73 145.333 L
S
GR
GS
[0.75 0 0 0.75 0 0] CT
0.873 GC
[1 3] 0 setdash
2 LJ
0.667 LW
N
507 88.167 M
73 88.167 L
S
GR
GS
[0.75 0 0 0.75 0 0] CT
0.873 GC
[1 3] 0 setdash
2 LJ
0.667 LW
N
507 31 M
73 31 L
S
GR
GS
[0.75 0 0 0.75 0 0] CT
0.149 GC
2 setlinecap
1 LJ
0.667 LW
N
73 374 M
507 374 L
S
GR
GS
[0.75 0 0 0.75 0 0] CT
0.149 GC
2 setlinecap
1 LJ
0.667 LW
N
73 374 M
73 369.66 L
S
GR
GS
[0.75 0 0 0.75 0 0] CT
0.149 GC
2 setlinecap
1 LJ
0.667 LW
N
159.8 374 M
159.8 369.66 L
S
GR
GS
[0.75 0 0 0.75 0 0] CT
0.149 GC
2 setlinecap
1 LJ
0.667 LW
N
246.6 374 M
246.6 369.66 L
S
GR
GS
[0.75 0 0 0.75 0 0] CT
0.149 GC
2 setlinecap
1 LJ
0.667 LW
N
333.4 374 M
333.4 369.66 L
S
GR
GS
[0.75 0 0 0.75 0 0] CT
0.149 GC
2 setlinecap
1 LJ
0.667 LW
N
420.2 374 M
420.2 369.66 L
S
GR
GS
[0.75 0 0 0.75 0 0] CT
0.149 GC
2 setlinecap
1 LJ
0.667 LW
N
507 374 M
507 369.66 L
S
GR
GS
[0.75 0 0 0.75 54.75 285.49999] CT
0.149 GC
/Helvetica 20 F
GS
[1 0 0 1 0 0] CT
-6 21 moveto 
1 -1 scale
(1) t 
GR
GR
GS
[0.75 0 0 0.75 119.85 285.49999] CT
0.149 GC
/Helvetica 20 F
GS
[1 0 0 1 0 0] CT
-6 21 moveto 
1 -1 scale
(2) t 
GR
GR
GS
[0.75 0 0 0.75 184.95 285.49999] CT
0.149 GC
/Helvetica 20 F
GS
[1 0 0 1 0 0] CT
-6 21 moveto 
1 -1 scale
(3) t 
GR
GR
GS
[0.75 0 0 0.75 250.05 285.49999] CT
0.149 GC
/Helvetica 20 F
GS
[1 0 0 1 0 0] CT
-6 21 moveto 
1 -1 scale
(4) t 
GR
GR
GS
[0.75 0 0 0.75 315.15001 285.49999] CT
0.149 GC
/Helvetica 20 F
GS
[1 0 0 1 0 0] CT
-6 21 moveto 
1 -1 scale
(5) t 
GR
GR
GS
[0.75 0 0 0.75 380.25 285.49999] CT
0.149 GC
/Helvetica 20 F
GS
[1 0 0 1 0 0] CT
-6 21 moveto 
1 -1 scale
(6) t 
GR
GR
GS
[0.75 0 0 0.75 0 0] CT
0.149 GC
2 setlinecap
1 LJ
0.667 LW
N
73 374 M
73 31 L
S
GR
GS
[0.75 0 0 0.75 0 0] CT
0.149 GC
2 setlinecap
1 LJ
0.667 LW
N
73 374 M
77.34 374 L
S
GR
GS
[0.75 0 0 0.75 0 0] CT
0.149 GC
2 setlinecap
1 LJ
0.667 LW
N
73 316.833 M
77.34 316.833 L
S
GR
GS
[0.75 0 0 0.75 0 0] CT
0.149 GC
2 setlinecap
1 LJ
0.667 LW
N
73 259.667 M
77.34 259.667 L
S
GR
GS
[0.75 0 0 0.75 0 0] CT
0.149 GC
2 setlinecap
1 LJ
0.667 LW
N
73 202.5 M
77.34 202.5 L
S
GR
GS
[0.75 0 0 0.75 0 0] CT
0.149 GC
2 setlinecap
1 LJ
0.667 LW
N
73 145.333 M
77.34 145.333 L
S
GR
GS
[0.75 0 0 0.75 0 0] CT
0.149 GC
2 setlinecap
1 LJ
0.667 LW
N
73 88.167 M
77.34 88.167 L
S
GR
GS
[0.75 0 0 0.75 0 0] CT
0.149 GC
2 setlinecap
1 LJ
0.667 LW
N
73 31 M
77.34 31 L
S
GR
GS
[0.75 0 0 0.75 49.75 280.5] CT
0.149 GC
/Helvetica 20 F
GS
[1 0 0 1 0 0] CT
-12 8 moveto 
1 -1 scale
(0) t 
GR
GR
GS
[0.75 0 0 0.75 49.75 237.62501] CT
0.149 GC
/Helvetica 20 F
GS
[1 0 0 1 0 0] CT
-12 8 moveto 
1 -1 scale
(1) t 
GR
GR
GS
[0.75 0 0 0.75 49.75 194.74999] CT
0.149 GC
/Helvetica 20 F
GS
[1 0 0 1 0 0] CT
-12 8 moveto 
1 -1 scale
(2) t 
GR
GR
GS
[0.75 0 0 0.75 49.75 151.875] CT
0.149 GC
/Helvetica 20 F
GS
[1 0 0 1 0 0] CT
-12 8 moveto 
1 -1 scale
(3) t 
GR
GR
GS
[0.75 0 0 0.75 49.75 109] CT
0.149 GC
/Helvetica 20 F
GS
[1 0 0 1 0 0] CT
-12 8 moveto 
1 -1 scale
(4) t 
GR
GR
GS
[0.75 0 0 0.75 49.75 66.125] CT
0.149 GC
/Helvetica 20 F
GS
[1 0 0 1 0 0] CT
-12 8 moveto 
1 -1 scale
(5) t 
GR
GR
GS
[0.75 0 0 0.75 49.75 23.25] CT
0.149 GC
/Helvetica 20 F
GS
[1 0 0 1 0 0] CT
-12 8 moveto 
1 -1 scale
(6) t 
GR
GR
GS
[0.75 0 0 0.75 0 0] CT
1 GC
N
173 95 M
173 44 L
86 44 L
86 95 L
cp
f
GR
GS
[0.75 0 0 0.75 99.75 43.22525] CT
/Helvetica 18 F
GS
[1 0 0 1 0 0] CT
0 7.5 moveto 
1 -1 scale
(left) t 
GR
GR
GS
[0.75 0 0 0.75 0 0] CT
0 0.447 0.741 RC
1 LJ
2.667 LW
N
90 57.634 M
130 57.634 L
S
GR
GS
[0.75 0 0 0.75 99.75 61.02475] CT
/Helvetica 18 F
GS
[1 0 0 1 0 0] CT
0 7.5 moveto 
1 -1 scale
(right) t 
GR
GR
GS
[0.75 0 0 0.75 0 0] CT
0.851 0.325 0.098 RC
1 LJ
2.667 LW
N
90 81.366 M
130 81.366 L
S
GR
GS
[0.75 0 0 0.75 0 0] CT
0.149 GC
10.0 ML
0.667 LW
N
86 95 M
86 44 L
173 44 L
173 95 L
cp
S
GR
%%Trailer
%%Pages: 1
%%EOF
