%!PS-Adobe-3.0 EPSF-3.0
%%Creator: (MATLAB, The Mathworks, Inc. Version 9.3.0.713579 \(R2017b\). Operating System: Windows 7)
%%Title: fig/RBFN_600_5_100000_Q.eps
%%CreationDate: 2018-05-06T11:31:30
%%Pages: (atend)
%%BoundingBox:    35     3   479   384
%%LanguageLevel: 3
%%EndComments
%%BeginProlog
%%BeginResource: procset (Apache XML Graphics Std ProcSet) 1.2 0
%%Version: 1.2 0
%%Copyright: (Copyright 2001-2003,2010 The Apache Software Foundation. License terms: http://www.apache.org/licenses/LICENSE-2.0)
/bd{bind def}bind def
/ld{load def}bd
/GR/grestore ld
/GS/gsave ld
/RM/rmoveto ld
/C/curveto ld
/t/show ld
/L/lineto ld
/ML/setmiterlimit ld
/CT/concat ld
/f/fill ld
/N/newpath ld
/S/stroke ld
/CC/setcmykcolor ld
/A/ashow ld
/cp/closepath ld
/RC/setrgbcolor ld
/LJ/setlinejoin ld
/GC/setgray ld
/LW/setlinewidth ld
/M/moveto ld
/re {4 2 roll M
1 index 0 rlineto
0 exch rlineto
neg 0 rlineto
cp } bd
/_ctm matrix def
/_tm matrix def
/BT { _ctm currentmatrix pop matrix _tm copy pop 0 0 moveto } bd
/ET { _ctm setmatrix } bd
/iTm { _ctm setmatrix _tm concat } bd
/Tm { _tm astore pop iTm 0 0 moveto } bd
/ux 0.0 def
/uy 0.0 def
/F {
  /Tp exch def
  /Tf exch def
  Tf findfont Tp scalefont setfont
  /cf Tf def  /cs Tp def
} bd
/ULS {currentpoint /uy exch def /ux exch def} bd
/ULE {
  /Tcx currentpoint pop def
  gsave
  newpath
  cf findfont cs scalefont dup
  /FontMatrix get 0 get /Ts exch def /FontInfo get dup
  /UnderlinePosition get Ts mul /To exch def
  /UnderlineThickness get Ts mul /Tt exch def
  ux uy To add moveto  Tcx uy To add lineto
  Tt setlinewidth stroke
  grestore
} bd
/OLE {
  /Tcx currentpoint pop def
  gsave
  newpath
  cf findfont cs scalefont dup
  /FontMatrix get 0 get /Ts exch def /FontInfo get dup
  /UnderlinePosition get Ts mul /To exch def
  /UnderlineThickness get Ts mul /Tt exch def
  ux uy To add cs add moveto Tcx uy To add cs add lineto
  Tt setlinewidth stroke
  grestore
} bd
/SOE {
  /Tcx currentpoint pop def
  gsave
  newpath
  cf findfont cs scalefont dup
  /FontMatrix get 0 get /Ts exch def /FontInfo get dup
  /UnderlinePosition get Ts mul /To exch def
  /UnderlineThickness get Ts mul /Tt exch def
  ux uy To add cs 10 mul 26 idiv add moveto Tcx uy To add cs 10 mul 26 idiv add lineto
  Tt setlinewidth stroke
  grestore
} bd
/QT {
/Y22 exch store
/X22 exch store
/Y21 exch store
/X21 exch store
currentpoint
/Y21 load 2 mul add 3 div exch
/X21 load 2 mul add 3 div exch
/X21 load 2 mul /X22 load add 3 div
/Y21 load 2 mul /Y22 load add 3 div
/X22 load /Y22 load curveto
} bd
/SSPD {
dup length /d exch dict def
{
/v exch def
/k exch def
currentpagedevice k known {
/cpdv currentpagedevice k get def
v cpdv ne {
/upd false def
/nullv v type /nulltype eq def
/nullcpdv cpdv type /nulltype eq def
nullv nullcpdv or
{
/upd true def
} {
/sametype v type cpdv type eq def
sametype {
v type /arraytype eq {
/vlen v length def
/cpdvlen cpdv length def
vlen cpdvlen eq {
0 1 vlen 1 sub {
/i exch def
/obj v i get def
/cpdobj cpdv i get def
obj cpdobj ne {
/upd true def
exit
} if
} for
} {
/upd true def
} ifelse
} {
v type /dicttype eq {
v {
/dv exch def
/dk exch def
/cpddv cpdv dk get def
dv cpddv ne {
/upd true def
exit
} if
} forall
} {
/upd true def
} ifelse
} ifelse
} if
} ifelse
upd true eq {
d k v put
} if
} if
} if
} forall
d length 0 gt {
d setpagedevice
} if
} bd
/RE { % /NewFontName [NewEncodingArray] /FontName RE -
  findfont dup length dict begin
  {
    1 index /FID ne
    {def} {pop pop} ifelse
  } forall
  /Encoding exch def
  /FontName 1 index def
  currentdict definefont pop
  end
} bind def
%%EndResource
%%BeginResource: procset (Apache XML Graphics EPS ProcSet) 1.0 0
%%Version: 1.0 0
%%Copyright: (Copyright 2002-2003 The Apache Software Foundation. License terms: http://www.apache.org/licenses/LICENSE-2.0)
/BeginEPSF { %def
/b4_Inc_state save def         % Save state for cleanup
/dict_count countdictstack def % Count objects on dict stack
/op_count count 1 sub def      % Count objects on operand stack
userdict begin                 % Push userdict on dict stack
/showpage { } def              % Redefine showpage, { } = null proc
0 setgray 0 setlinecap         % Prepare graphics state
1 setlinewidth 0 setlinejoin
10 setmiterlimit [ ] 0 setdash newpath
/languagelevel where           % If level not equal to 1 then
{pop languagelevel             % set strokeadjust and
1 ne                           % overprint to their defaults.
{false setstrokeadjust false setoverprint
} if
} if
} bd
/EndEPSF { %def
count op_count sub {pop} repeat            % Clean up stacks
countdictstack dict_count sub {end} repeat
b4_Inc_state restore
} bd
%%EndResource
%FOPBeginFontDict
%%IncludeResource: font Courier-Oblique
%%IncludeResource: font Courier-BoldOblique
%%IncludeResource: font Courier-Bold
%%IncludeResource: font ZapfDingbats
%%IncludeResource: font Symbol
%%IncludeResource: font Helvetica
%%IncludeResource: font Helvetica-Oblique
%%IncludeResource: font Helvetica-Bold
%%IncludeResource: font Helvetica-BoldOblique
%%IncludeResource: font Times-Roman
%%IncludeResource: font Times-Italic
%%IncludeResource: font Times-Bold
%%IncludeResource: font Times-BoldItalic
%%IncludeResource: font Courier
%FOPEndFontDict
%%BeginResource: encoding WinAnsiEncoding
/WinAnsiEncoding [
/.notdef /.notdef /.notdef /.notdef /.notdef
/.notdef /.notdef /.notdef /.notdef /.notdef
/.notdef /.notdef /.notdef /.notdef /.notdef
/.notdef /.notdef /.notdef /.notdef /.notdef
/.notdef /.notdef /.notdef /.notdef /.notdef
/.notdef /.notdef /.notdef /.notdef /.notdef
/.notdef /.notdef /space /exclam /quotedbl
/numbersign /dollar /percent /ampersand /quotesingle
/parenleft /parenright /asterisk /plus /comma
/hyphen /period /slash /zero /one
/two /three /four /five /six
/seven /eight /nine /colon /semicolon
/less /equal /greater /question /at
/A /B /C /D /E
/F /G /H /I /J
/K /L /M /N /O
/P /Q /R /S /T
/U /V /W /X /Y
/Z /bracketleft /backslash /bracketright /asciicircum
/underscore /quoteleft /a /b /c
/d /e /f /g /h
/i /j /k /l /m
/n /o /p /q /r
/s /t /u /v /w
/x /y /z /braceleft /bar
/braceright /asciitilde /bullet /Euro /bullet
/quotesinglbase /florin /quotedblbase /ellipsis /dagger
/daggerdbl /circumflex /perthousand /Scaron /guilsinglleft
/OE /bullet /Zcaron /bullet /bullet
/quoteleft /quoteright /quotedblleft /quotedblright /bullet
/endash /emdash /asciitilde /trademark /scaron
/guilsinglright /oe /bullet /zcaron /Ydieresis
/space /exclamdown /cent /sterling /currency
/yen /brokenbar /section /dieresis /copyright
/ordfeminine /guillemotleft /logicalnot /sfthyphen /registered
/macron /degree /plusminus /twosuperior /threesuperior
/acute /mu /paragraph /middot /cedilla
/onesuperior /ordmasculine /guillemotright /onequarter /onehalf
/threequarters /questiondown /Agrave /Aacute /Acircumflex
/Atilde /Adieresis /Aring /AE /Ccedilla
/Egrave /Eacute /Ecircumflex /Edieresis /Igrave
/Iacute /Icircumflex /Idieresis /Eth /Ntilde
/Ograve /Oacute /Ocircumflex /Otilde /Odieresis
/multiply /Oslash /Ugrave /Uacute /Ucircumflex
/Udieresis /Yacute /Thorn /germandbls /agrave
/aacute /acircumflex /atilde /adieresis /aring
/ae /ccedilla /egrave /eacute /ecircumflex
/edieresis /igrave /iacute /icircumflex /idieresis
/eth /ntilde /ograve /oacute /ocircumflex
/otilde /odieresis /divide /oslash /ugrave
/uacute /ucircumflex /udieresis /yacute /thorn
/ydieresis
] def
%%EndResource
%FOPBeginFontReencode
/Courier-Oblique findfont
dup length dict begin
  {1 index /FID ne {def} {pop pop} ifelse} forall
  /Encoding WinAnsiEncoding def
  currentdict
end
/Courier-Oblique exch definefont pop
/Courier-BoldOblique findfont
dup length dict begin
  {1 index /FID ne {def} {pop pop} ifelse} forall
  /Encoding WinAnsiEncoding def
  currentdict
end
/Courier-BoldOblique exch definefont pop
/Courier-Bold findfont
dup length dict begin
  {1 index /FID ne {def} {pop pop} ifelse} forall
  /Encoding WinAnsiEncoding def
  currentdict
end
/Courier-Bold exch definefont pop
/Helvetica findfont
dup length dict begin
  {1 index /FID ne {def} {pop pop} ifelse} forall
  /Encoding WinAnsiEncoding def
  currentdict
end
/Helvetica exch definefont pop
/Helvetica-Oblique findfont
dup length dict begin
  {1 index /FID ne {def} {pop pop} ifelse} forall
  /Encoding WinAnsiEncoding def
  currentdict
end
/Helvetica-Oblique exch definefont pop
/Helvetica-Bold findfont
dup length dict begin
  {1 index /FID ne {def} {pop pop} ifelse} forall
  /Encoding WinAnsiEncoding def
  currentdict
end
/Helvetica-Bold exch definefont pop
/Helvetica-BoldOblique findfont
dup length dict begin
  {1 index /FID ne {def} {pop pop} ifelse} forall
  /Encoding WinAnsiEncoding def
  currentdict
end
/Helvetica-BoldOblique exch definefont pop
/Times-Roman findfont
dup length dict begin
  {1 index /FID ne {def} {pop pop} ifelse} forall
  /Encoding WinAnsiEncoding def
  currentdict
end
/Times-Roman exch definefont pop
/Times-Italic findfont
dup length dict begin
  {1 index /FID ne {def} {pop pop} ifelse} forall
  /Encoding WinAnsiEncoding def
  currentdict
end
/Times-Italic exch definefont pop
/Times-Bold findfont
dup length dict begin
  {1 index /FID ne {def} {pop pop} ifelse} forall
  /Encoding WinAnsiEncoding def
  currentdict
end
/Times-Bold exch definefont pop
/Times-BoldItalic findfont
dup length dict begin
  {1 index /FID ne {def} {pop pop} ifelse} forall
  /Encoding WinAnsiEncoding def
  currentdict
end
/Times-BoldItalic exch definefont pop
/Courier findfont
dup length dict begin
  {1 index /FID ne {def} {pop pop} ifelse} forall
  /Encoding WinAnsiEncoding def
  currentdict
end
/Courier exch definefont pop
%FOPEndFontReencode
%%EndProlog
%%Page: 1 1
%%PageBoundingBox: 0 0 525 394
%%BeginPageSetup
[1 0 0 -1 0 394] CT
%%EndPageSetup
GS
[0.75 0 0 0.74971 0 0.39999] CT
N
0 0 M
700 0 L
700 525 L
0 525 L
0 0 L
cp
clip
1 GC
N
0 0 700 525 re
f
GR
GS
[0.75 0 0 0.74971 0 0.39999] CT
1 GC
N
0 0 700 525 re
f
GR
GS
[0.75 0 0 0.74971 0 0.39999] CT
1 GC
N
91 463 M
634 463 L
634 39 L
91 39 L
cp
f
GR
GS
[0.75 0 0 0.74971 271.87525 26.54629] CT
/Helvetica-Bold 22 F
GS
[1 0 0 1 0 0] CT
-56 -5 moveto 
1 -1 scale
(Q-function) t 
GR
GR
GS
[0.75 0 0 0.74971 0 0.39999] CT
0.149 GC
1 LJ
0.667 LW
N
91 463 M
634 463 L
S
GR
GS
[0.75 0 0 0.74971 0 0.39999] CT
0.902 0.945 0.973 RC
N
90.935 437.725 M
90.935 463 L
91 463 L
92.086 463 L
93.172 463 L
94.258 463 L
95.344 463 L
96.43 463 L
95.344 39 L
94.258 39 L
93.172 39 L
92.086 39 L
91 39 L
90.935 39 L
cp
109.462 463 M
110.548 463 L
111.634 463 L
112.72 463 L
113.806 463 L
114.892 463 L
115.978 463 L
117.064 463 L
118.15 463 L
119.236 463 L
120.322 463 L
121.408 463 L
122.494 463 L
123.58 463 L
124.666 463 L
123.58 39 L
122.494 39 L
121.408 39 L
120.322 39 L
119.236 39 L
118.15 39 L
117.064 39 L
115.978 39 L
114.892 39 L
113.806 39 L
112.72 39 L
111.634 39 L
110.548 39 L
cp
136.612 463 M
137.698 463 L
138.784 463 L
139.87 463 L
140.956 463 L
142.042 463 L
143.128 463 L
144.214 463 L
145.3 463 L
146.386 463 L
147.472 463 L
148.558 463 L
149.644 463 L
150.73 463 L
151.816 463 L
152.902 463 L
153.988 463 L
155.074 463 L
156.16 463 L
157.246 463 L
158.332 463 L
159.418 463 L
160.504 463 L
161.59 463 L
162.676 463 L
163.762 463 L
164.848 463 L
165.934 463 L
167.02 463 L
168.106 463 L
169.192 463 L
170.278 463 L
171.364 463 L
172.45 463 L
173.536 463 L
174.622 463 L
175.708 463 L
176.794 463 L
177.88 463 L
178.966 463 L
180.052 463 L
181.138 463 L
182.224 463 L
183.31 463 L
184.396 463 L
185.482 463 L
186.568 463 L
187.654 463 L
188.74 463 L
189.826 463 L
190.912 463 L
191.998 463 L
193.084 463 L
194.17 463 L
195.256 463 L
196.342 463 L
197.428 463 L
198.514 463 L
199.6 463 L
200.686 463 L
201.772 463 L
202.858 463 L
203.944 463 L
205.03 463 L
206.116 463 L
207.202 463 L
208.288 463 L
209.374 463 L
210.46 463 L
211.546 463 L
212.632 463 L
213.718 463 L
214.804 463 L
215.89 463 L
216.976 463 L
218.062 463 L
219.148 463 L
220.234 463 L
221.32 463 L
222.406 463 L
223.492 463 L
224.578 463 L
225.664 463 L
226.75 463 L
227.836 463 L
228.922 463 L
230.008 463 L
231.094 463 L
232.18 463 L
233.266 463 L
234.352 463 L
235.438 463 L
236.524 463 L
237.61 463 L
238.696 463 L
239.782 463 L
240.868 463 L
241.954 463 L
243.04 463 L
244.126 463 L
245.212 463 L
246.298 463 L
247.384 463 L
248.47 463 L
247.384 39 L
246.298 39 L
245.212 39 L
244.126 39 L
243.04 39 L
241.954 39 L
240.868 39 L
239.782 39 L
238.696 39 L
237.61 39 L
236.524 39 L
235.438 39 L
234.352 39 L
233.266 39 L
232.18 39 L
231.094 39 L
230.008 39 L
228.922 39 L
227.836 39 L
226.75 39 L
225.664 39 L
224.578 39 L
223.492 39 L
222.406 39 L
221.32 39 L
220.234 39 L
219.148 39 L
218.062 39 L
216.976 39 L
215.89 39 L
214.804 39 L
213.718 39 L
212.632 39 L
211.546 39 L
210.46 39 L
209.374 39 L
208.288 39 L
207.202 39 L
206.116 39 L
205.03 39 L
203.944 39 L
202.858 39 L
201.772 39 L
200.686 39 L
199.6 39 L
198.514 39 L
197.428 39 L
196.342 39 L
195.256 39 L
194.17 39 L
193.084 39 L
191.998 39 L
190.912 39 L
189.826 39 L
188.74 39 L
187.654 39 L
186.568 39 L
185.482 39 L
184.396 39 L
183.31 39 L
182.224 39 L
181.138 39 L
180.052 39 L
178.966 39 L
177.88 39 L
176.794 39 L
175.708 39 L
174.622 39 L
173.536 39 L
172.45 39 L
171.364 39 L
170.278 39 L
169.192 39 L
168.106 39 L
167.02 39 L
165.934 39 L
164.848 39 L
163.762 39 L
162.676 39 L
161.59 39 L
160.504 39 L
159.418 39 L
158.332 39 L
157.246 39 L
156.16 39 L
155.074 39 L
153.988 39 L
152.902 39 L
151.816 39 L
150.73 39 L
149.644 39 L
148.558 39 L
147.472 39 L
146.386 39 L
145.3 39 L
144.214 39 L
143.128 39 L
142.042 39 L
140.956 39 L
139.87 39 L
138.784 39 L
137.698 39 L
cp
588.388 463 M
589.474 463 L
590.56 463 L
591.646 463 L
592.732 463 L
593.818 463 L
594.904 463 L
595.99 463 L
597.076 463 L
598.162 463 L
599.248 463 L
600.334 463 L
601.42 463 L
600.334 39 L
599.248 39 L
598.162 39 L
597.076 39 L
595.99 39 L
594.904 39 L
593.818 39 L
592.732 39 L
591.646 39 L
590.56 39 L
589.474 39 L
cp
614.452 463 M
615.538 463 L
616.624 463 L
617.71 463 L
618.796 463 L
619.882 463 L
620.968 463 L
622.054 463 L
623.14 463 L
624.226 463 L
625.312 463 L
626.398 463 L
627.484 463 L
628.57 463 L
629.656 463 L
628.57 39 L
627.484 39 L
626.398 39 L
625.312 39 L
624.226 39 L
623.14 39 L
622.054 39 L
620.968 39 L
619.882 39 L
618.796 39 L
617.71 39 L
616.624 39 L
615.538 39 L
cp
f
GR
GS
[0.75 0 0 0.74971 0 0.39999] CT
0.902 0.945 0.973 RC
1 LJ
0.667 LW
N
90.935 463 M
91 463 L
92.086 463 L
93.172 463 L
94.258 463 L
95.344 463 L
96.43 463 L
97.516 463 L
98.602 463 L
99.688 463 L
100.774 463 L
101.86 463 L
102.946 463 L
104.032 463 L
105.118 463 L
106.204 463 L
107.29 463 L
108.376 463 L
109.462 463 L
110.548 463 L
111.634 463 L
112.72 463 L
113.806 463 L
114.892 463 L
115.978 463 L
117.064 463 L
118.15 463 L
119.236 463 L
120.322 463 L
121.408 463 L
122.494 463 L
123.58 463 L
124.666 463 L
125.752 463 L
126.838 463 L
127.924 463 L
129.01 463 L
130.096 463 L
131.182 463 L
132.268 463 L
133.354 463 L
134.44 463 L
135.526 463 L
136.612 463 L
137.698 463 L
138.784 463 L
139.87 463 L
140.956 463 L
142.042 463 L
143.128 463 L
144.214 463 L
145.3 463 L
146.386 463 L
147.472 463 L
148.558 463 L
149.644 463 L
150.73 463 L
151.816 463 L
152.902 463 L
153.988 463 L
155.074 463 L
156.16 463 L
157.246 463 L
158.332 463 L
159.418 463 L
160.504 463 L
161.59 463 L
162.676 463 L
163.762 463 L
164.848 463 L
165.934 463 L
167.02 463 L
168.106 463 L
169.192 463 L
170.278 463 L
171.364 463 L
172.45 463 L
173.536 463 L
174.622 463 L
175.708 463 L
176.794 463 L
177.88 463 L
178.966 463 L
180.052 463 L
181.138 463 L
182.224 463 L
183.31 463 L
184.396 463 L
185.482 463 L
186.568 463 L
187.654 463 L
188.74 463 L
189.826 463 L
190.912 463 L
191.998 463 L
193.084 463 L
194.17 463 L
195.256 463 L
196.342 463 L
197.428 463 L
198.514 463 L
199.6 463 L
200.686 463 L
201.772 463 L
202.858 463 L
203.944 463 L
205.03 463 L
206.116 463 L
207.202 463 L
208.288 463 L
209.374 463 L
210.46 463 L
211.546 463 L
212.632 463 L
213.718 463 L
214.804 463 L
215.89 463 L
216.976 463 L
218.062 463 L
219.148 463 L
220.234 463 L
221.32 463 L
222.406 463 L
223.492 463 L
224.578 463 L
225.664 463 L
226.75 463 L
227.836 463 L
228.922 463 L
230.008 463 L
231.094 463 L
232.18 463 L
233.266 463 L
234.352 463 L
235.438 463 L
236.524 463 L
237.61 463 L
238.696 463 L
239.782 463 L
240.868 463 L
241.954 463 L
243.04 463 L
244.126 463 L
245.212 463 L
246.298 463 L
247.384 463 L
248.47 463 L
249.556 463 L
250.642 463 L
251.728 463 L
252.814 463 L
253.9 463 L
254.986 463 L
256.072 463 L
257.158 463 L
258.244 463 L
259.33 463 L
260.416 463 L
261.502 463 L
262.588 463 L
263.674 463 L
264.76 463 L
265.846 463 L
266.932 463 L
268.018 463 L
269.104 463 L
270.19 463 L
271.276 463 L
272.362 463 L
273.448 463 L
274.534 463 L
275.62 463 L
276.706 463 L
277.792 463 L
278.878 463 L
279.964 463 L
281.05 463 L
282.136 463 L
283.222 463 L
284.308 463 L
285.394 463 L
286.48 463 L
287.566 463 L
288.652 463 L
289.738 463 L
290.824 463 L
291.91 463 L
292.996 463 L
294.082 463 L
295.168 463 L
296.254 463 L
297.34 463 L
298.426 463 L
299.512 463 L
300.598 463 L
301.684 463 L
302.77 463 L
303.856 463 L
304.942 463 L
306.028 463 L
307.114 463 L
308.2 463 L
309.286 463 L
310.372 463 L
311.458 463 L
312.544 463 L
313.63 463 L
314.716 463 L
315.802 463 L
316.888 463 L
317.974 463 L
319.06 463 L
320.146 463 L
321.232 463 L
322.318 463 L
323.404 463 L
324.49 463 L
325.576 463 L
326.662 463 L
327.748 463 L
328.834 463 L
329.92 463 L
331.006 463 L
332.092 463 L
333.178 463 L
334.264 463 L
335.35 463 L
336.436 463 L
337.522 463 L
338.608 463 L
339.694 463 L
340.78 463 L
341.866 463 L
342.952 463 L
344.038 463 L
345.124 463 L
346.21 463 L
347.296 463 L
348.382 463 L
349.468 463 L
350.554 463 L
351.64 463 L
352.726 463 L
353.812 463 L
354.898 463 L
355.984 463 L
357.07 463 L
358.156 463 L
359.242 463 L
360.328 463 L
361.414 463 L
362.5 463 L
363.586 463 L
364.672 463 L
365.758 463 L
366.844 463 L
367.93 463 L
369.016 463 L
370.102 463 L
371.188 463 L
372.274 463 L
373.36 463 L
374.446 463 L
375.532 463 L
376.618 463 L
377.704 463 L
378.79 463 L
379.876 463 L
380.962 463 L
382.048 463 L
383.134 463 L
384.22 463 L
385.306 463 L
386.392 463 L
387.478 463 L
388.564 463 L
389.65 463 L
390.736 463 L
391.822 463 L
392.908 463 L
393.994 463 L
395.08 463 L
396.166 463 L
397.252 463 L
398.338 463 L
399.424 463 L
400.51 463 L
401.596 463 L
402.682 463 L
403.768 463 L
404.854 463 L
405.94 463 L
407.026 463 L
408.112 463 L
409.198 463 L
410.284 463 L
411.37 463 L
412.456 463 L
413.542 463 L
414.628 463 L
415.714 463 L
416.8 463 L
417.886 463 L
418.972 463 L
420.058 463 L
421.144 463 L
422.23 463 L
423.316 463 L
424.402 463 L
425.488 463 L
426.574 463 L
427.66 463 L
428.746 463 L
429.832 463 L
430.918 463 L
432.004 463 L
433.09 463 L
434.176 463 L
435.262 463 L
436.348 463 L
437.434 463 L
438.52 463 L
439.606 463 L
440.692 463 L
441.778 463 L
442.864 463 L
443.95 463 L
445.036 463 L
446.122 463 L
447.208 463 L
448.294 463 L
449.38 463 L
450.466 463 L
451.552 463 L
452.638 463 L
453.724 463 L
454.81 463 L
455.896 463 L
456.982 463 L
458.068 463 L
459.154 463 L
460.24 463 L
461.326 463 L
462.412 463 L
463.498 463 L
464.584 463 L
465.67 463 L
466.756 463 L
467.842 463 L
468.928 463 L
470.014 463 L
471.1 463 L
472.186 463 L
473.272 463 L
474.358 463 L
475.444 463 L
476.53 463 L
477.616 463 L
478.702 463 L
479.788 463 L
480.874 463 L
481.96 463 L
483.046 463 L
484.132 463 L
485.218 463 L
486.304 463 L
487.39 463 L
488.476 463 L
489.562 463 L
490.648 463 L
491.734 463 L
492.82 463 L
493.906 463 L
494.992 463 L
496.078 463 L
497.164 463 L
498.25 463 L
499.336 463 L
500.422 463 L
501.508 463 L
502.594 463 L
503.68 463 L
504.766 463 L
505.852 463 L
506.938 463 L
508.024 463 L
509.11 463 L
510.196 463 L
511.282 463 L
512.368 463 L
513.454 463 L
514.54 463 L
515.626 463 L
516.712 463 L
517.798 463 L
518.884 463 L
519.97 463 L
521.056 463 L
522.142 463 L
523.228 463 L
524.314 463 L
525.4 463 L
526.486 463 L
527.572 463 L
528.658 463 L
529.744 463 L
530.83 463 L
531.916 463 L
533.002 463 L
534.088 463 L
535.174 463 L
536.26 463 L
537.346 463 L
538.432 463 L
539.518 463 L
540.604 463 L
541.69 463 L
542.776 463 L
543.862 463 L
544.948 463 L
546.034 463 L
547.12 463 L
548.206 463 L
549.292 463 L
550.378 463 L
551.464 463 L
552.55 463 L
553.636 463 L
554.722 463 L
555.808 463 L
556.894 463 L
557.98 463 L
559.066 463 L
560.152 463 L
561.238 463 L
562.324 463 L
563.41 463 L
564.496 463 L
565.582 463 L
566.668 463 L
567.754 463 L
568.84 463 L
569.926 463 L
571.012 463 L
572.098 463 L
573.184 463 L
574.27 463 L
575.356 463 L
576.442 463 L
577.528 463 L
578.614 463 L
579.7 463 L
580.786 463 L
581.872 463 L
582.958 463 L
584.044 463 L
585.13 463 L
586.216 463 L
587.302 463 L
588.388 463 L
589.474 463 L
590.56 463 L
591.646 463 L
592.732 463 L
593.818 463 L
594.904 463 L
595.99 463 L
597.076 463 L
598.162 463 L
599.248 463 L
600.334 463 L
601.42 463 L
602.506 463 L
603.592 463 L
604.678 463 L
605.764 463 L
606.85 463 L
607.936 463 L
609.022 463 L
610.108 463 L
611.194 463 L
612.28 463 L
613.366 463 L
614.452 463 L
615.538 463 L
616.624 463 L
617.71 463 L
618.796 463 L
619.882 463 L
620.968 463 L
622.054 463 L
623.14 463 L
624.226 463 L
625.312 463 L
626.398 463 L
627.484 463 L
628.57 463 L
629.656 463 L
630.742 463 L
631.828 463 L
632.914 463 L
634 463 L
634.065 463 L
S
GR
GS
[0.75 0 0 0.74971 0 0.39999] CT
0.902 0.945 0.973 RC
1 LJ
0.667 LW
N
634.065 463 M
634 463 L
632.914 463 L
631.828 463 L
630.742 463 L
629.656 463 L
628.57 39 L
627.484 39 L
626.398 39 L
625.312 39 L
624.226 39 L
623.14 39 L
622.054 39 L
620.968 39 L
619.882 39 L
618.796 39 L
617.71 39 L
616.624 39 L
615.538 39 L
614.452 463 L
613.366 463 L
612.28 463 L
611.194 463 L
610.108 463 L
609.022 463 L
607.936 463 L
606.85 463 L
605.764 463 L
604.678 463 L
603.592 463 L
602.506 463 L
601.42 463 L
600.334 39 L
599.248 39 L
598.162 39 L
597.076 39 L
595.99 39 L
594.904 39 L
593.818 39 L
592.732 39 L
591.646 39 L
590.56 39 L
589.474 39 L
588.388 463 L
587.302 463 L
586.216 463 L
585.13 463 L
584.044 463 L
582.958 463 L
581.872 463 L
580.786 463 L
579.7 463 L
578.614 463 L
577.528 463 L
576.442 463 L
575.356 463 L
574.27 463 L
573.184 463 L
572.098 463 L
571.012 463 L
569.926 463 L
568.84 463 L
567.754 463 L
566.668 463 L
565.582 463 L
564.496 463 L
563.41 463 L
562.324 463 L
561.238 463 L
560.152 463 L
559.066 463 L
557.98 463 L
556.894 463 L
555.808 463 L
554.722 463 L
553.636 463 L
552.55 463 L
551.464 463 L
550.378 463 L
549.292 463 L
548.206 463 L
547.12 463 L
546.034 463 L
544.948 463 L
543.862 463 L
542.776 463 L
541.69 463 L
540.604 463 L
539.518 463 L
538.432 463 L
537.346 463 L
536.26 463 L
535.174 463 L
534.088 463 L
533.002 463 L
531.916 463 L
530.83 463 L
529.744 463 L
528.658 463 L
527.572 463 L
526.486 463 L
525.4 463 L
524.314 463 L
523.228 463 L
522.142 463 L
521.056 463 L
519.97 463 L
518.884 463 L
517.798 463 L
516.712 463 L
515.626 463 L
514.54 463 L
513.454 463 L
512.368 463 L
511.282 463 L
510.196 463 L
509.11 463 L
508.024 463 L
506.938 463 L
505.852 463 L
504.766 463 L
503.68 463 L
502.594 463 L
501.508 463 L
500.422 463 L
499.336 463 L
498.25 463 L
497.164 463 L
496.078 463 L
494.992 463 L
493.906 463 L
492.82 463 L
491.734 463 L
490.648 463 L
489.562 463 L
488.476 463 L
487.39 463 L
486.304 463 L
485.218 463 L
484.132 463 L
483.046 463 L
481.96 463 L
480.874 463 L
479.788 463 L
478.702 463 L
477.616 463 L
476.53 463 L
475.444 463 L
474.358 463 L
473.272 463 L
472.186 463 L
471.1 463 L
470.014 463 L
468.928 463 L
467.842 463 L
466.756 463 L
465.67 463 L
464.584 463 L
463.498 463 L
462.412 463 L
461.326 463 L
460.24 463 L
459.154 463 L
458.068 463 L
456.982 463 L
455.896 463 L
454.81 463 L
453.724 463 L
452.638 463 L
451.552 463 L
450.466 463 L
449.38 463 L
448.294 463 L
447.208 463 L
446.122 463 L
445.036 463 L
443.95 463 L
442.864 463 L
441.778 463 L
440.692 463 L
439.606 463 L
438.52 463 L
437.434 463 L
436.348 463 L
435.262 463 L
434.176 463 L
433.09 463 L
432.004 463 L
430.918 463 L
429.832 463 L
428.746 463 L
427.66 463 L
426.574 463 L
425.488 463 L
424.402 463 L
423.316 463 L
422.23 463 L
421.144 463 L
420.058 463 L
418.972 463 L
417.886 463 L
416.8 463 L
415.714 463 L
414.628 463 L
413.542 463 L
412.456 463 L
411.37 463 L
410.284 463 L
409.198 463 L
408.112 463 L
407.026 463 L
405.94 463 L
404.854 463 L
403.768 463 L
402.682 463 L
401.596 463 L
400.51 463 L
399.424 463 L
398.338 463 L
397.252 463 L
396.166 463 L
395.08 463 L
393.994 463 L
392.908 463 L
391.822 463 L
390.736 463 L
389.65 463 L
388.564 463 L
387.478 463 L
386.392 463 L
385.306 463 L
384.22 463 L
383.134 463 L
382.048 463 L
380.962 463 L
379.876 463 L
378.79 463 L
377.704 463 L
376.618 463 L
375.532 463 L
374.446 463 L
373.36 463 L
372.274 463 L
371.188 463 L
370.102 463 L
369.016 463 L
367.93 463 L
366.844 463 L
365.758 463 L
364.672 463 L
363.586 463 L
362.5 463 L
361.414 463 L
360.328 463 L
359.242 463 L
358.156 463 L
357.07 463 L
355.984 463 L
354.898 463 L
353.812 463 L
352.726 463 L
351.64 463 L
350.554 463 L
349.468 463 L
348.382 463 L
347.296 463 L
346.21 463 L
345.124 463 L
344.038 463 L
342.952 463 L
341.866 463 L
340.78 463 L
339.694 463 L
338.608 463 L
337.522 463 L
336.436 463 L
335.35 463 L
334.264 463 L
333.178 463 L
332.092 463 L
331.006 463 L
329.92 463 L
328.834 463 L
327.748 463 L
326.662 463 L
325.576 463 L
324.49 463 L
323.404 463 L
322.318 463 L
321.232 463 L
320.146 463 L
319.06 463 L
317.974 463 L
316.888 463 L
315.802 463 L
314.716 463 L
313.63 463 L
312.544 463 L
311.458 463 L
310.372 463 L
309.286 463 L
308.2 463 L
307.114 463 L
306.028 463 L
304.942 463 L
303.856 463 L
302.77 463 L
301.684 463 L
300.598 463 L
299.512 463 L
298.426 463 L
297.34 463 L
296.254 463 L
295.168 463 L
294.082 463 L
292.996 463 L
291.91 463 L
290.824 463 L
289.738 463 L
288.652 463 L
287.566 463 L
286.48 463 L
285.394 463 L
284.308 463 L
283.222 463 L
282.136 463 L
281.05 463 L
279.964 463 L
278.878 463 L
277.792 463 L
276.706 463 L
275.62 463 L
274.534 463 L
273.448 463 L
272.362 463 L
271.276 463 L
270.19 463 L
269.104 463 L
268.018 463 L
266.932 463 L
265.846 463 L
264.76 463 L
263.674 463 L
262.588 463 L
261.502 463 L
260.416 463 L
259.33 463 L
258.244 463 L
257.158 463 L
256.072 463 L
254.986 463 L
253.9 463 L
252.814 463 L
251.728 463 L
250.642 463 L
249.556 463 L
248.47 463 L
247.384 39 L
246.298 39 L
245.212 39 L
244.126 39 L
243.04 39 L
241.954 39 L
240.868 39 L
239.782 39 L
238.696 39 L
237.61 39 L
236.524 39 L
235.438 39 L
234.352 39 L
233.266 39 L
232.18 39 L
231.094 39 L
230.008 39 L
228.922 39 L
227.836 39 L
226.75 39 L
225.664 39 L
224.578 39 L
223.492 39 L
222.406 39 L
221.32 39 L
220.234 39 L
219.148 39 L
218.062 39 L
216.976 39 L
215.89 39 L
214.804 39 L
213.718 39 L
212.632 39 L
211.546 39 L
210.46 39 L
209.374 39 L
208.288 39 L
207.202 39 L
206.116 39 L
205.03 39 L
203.944 39 L
202.858 39 L
201.772 39 L
200.686 39 L
199.6 39 L
198.514 39 L
197.428 39 L
196.342 39 L
195.256 39 L
194.17 39 L
193.084 39 L
191.998 39 L
190.912 39 L
189.826 39 L
188.74 39 L
187.654 39 L
186.568 39 L
185.482 39 L
184.396 39 L
183.31 39 L
182.224 39 L
181.138 39 L
180.052 39 L
178.966 39 L
177.88 39 L
176.794 39 L
175.708 39 L
174.622 39 L
173.536 39 L
172.45 39 L
171.364 39 L
170.278 39 L
169.192 39 L
168.106 39 L
167.02 39 L
165.934 39 L
164.848 39 L
163.762 39 L
162.676 39 L
161.59 39 L
160.504 39 L
159.418 39 L
158.332 39 L
157.246 39 L
156.16 39 L
155.074 39 L
153.988 39 L
152.902 39 L
151.816 39 L
150.73 39 L
149.644 39 L
148.558 39 L
147.472 39 L
146.386 39 L
145.3 39 L
144.214 39 L
143.128 39 L
142.042 39 L
140.956 39 L
139.87 39 L
138.784 39 L
137.698 39 L
136.612 463 L
135.526 463 L
134.44 463 L
133.354 463 L
132.268 463 L
131.182 463 L
130.096 463 L
129.01 463 L
127.924 463 L
126.838 463 L
125.752 463 L
124.666 463 L
123.58 39 L
122.494 39 L
121.408 39 L
120.322 39 L
119.236 39 L
118.15 39 L
117.064 39 L
115.978 39 L
114.892 39 L
113.806 39 L
112.72 39 L
111.634 39 L
110.548 39 L
109.462 463 L
108.376 463 L
107.29 463 L
106.204 463 L
105.118 463 L
104.032 463 L
102.946 463 L
101.86 463 L
100.774 463 L
99.688 463 L
98.602 463 L
97.516 463 L
96.43 463 L
95.344 39 L
94.258 39 L
93.172 39 L
92.086 39 L
91 39 L
90.935 39 L
S
GR
GS
[0.75 0 0 0.74971 0 0.39999] CT
0.984 0.933 0.91 RC
N
95.344 463 M
96.43 463 L
97.516 463 L
98.602 463 L
99.688 463 L
100.774 463 L
101.86 463 L
102.946 463 L
104.032 463 L
105.118 463 L
106.204 463 L
107.29 463 L
108.376 463 L
109.462 463 L
110.548 463 L
109.462 39 L
108.376 39 L
107.29 39 L
106.204 39 L
105.118 39 L
104.032 39 L
102.946 39 L
101.86 39 L
100.774 39 L
99.688 39 L
98.602 39 L
97.516 39 L
96.43 39 L
cp
123.58 463 M
124.666 463 L
125.752 463 L
126.838 463 L
127.924 463 L
129.01 463 L
130.096 463 L
131.182 463 L
132.268 463 L
133.354 463 L
134.44 463 L
135.526 463 L
136.612 463 L
137.698 463 L
136.612 39 L
135.526 39 L
134.44 39 L
133.354 39 L
132.268 39 L
131.182 39 L
130.096 39 L
129.01 39 L
127.924 39 L
126.838 39 L
125.752 39 L
124.666 39 L
cp
247.384 463 M
248.47 463 L
249.556 463 L
250.642 463 L
251.728 463 L
252.814 463 L
253.9 463 L
254.986 463 L
256.072 463 L
257.158 463 L
258.244 463 L
259.33 463 L
260.416 463 L
261.502 463 L
262.588 463 L
263.674 463 L
264.76 463 L
265.846 463 L
266.932 463 L
268.018 463 L
269.104 463 L
270.19 463 L
271.276 463 L
272.362 463 L
273.448 463 L
274.534 463 L
275.62 463 L
276.706 463 L
277.792 463 L
278.878 463 L
279.964 463 L
281.05 463 L
282.136 463 L
283.222 463 L
284.308 463 L
285.394 463 L
286.48 463 L
287.566 463 L
288.652 463 L
289.738 463 L
290.824 463 L
291.91 463 L
292.996 463 L
294.082 463 L
295.168 463 L
296.254 463 L
297.34 463 L
298.426 463 L
299.512 463 L
300.598 463 L
301.684 463 L
302.77 463 L
303.856 463 L
304.942 463 L
306.028 463 L
307.114 463 L
308.2 463 L
309.286 463 L
310.372 463 L
311.458 463 L
312.544 463 L
313.63 463 L
314.716 463 L
315.802 463 L
316.888 463 L
317.974 463 L
319.06 463 L
320.146 463 L
321.232 463 L
322.318 463 L
323.404 463 L
324.49 463 L
325.576 463 L
326.662 463 L
327.748 463 L
328.834 463 L
329.92 463 L
331.006 463 L
332.092 463 L
333.178 463 L
334.264 463 L
335.35 463 L
336.436 463 L
337.522 463 L
338.608 463 L
339.694 463 L
340.78 463 L
341.866 463 L
342.952 463 L
344.038 463 L
345.124 463 L
346.21 463 L
347.296 463 L
348.382 463 L
349.468 463 L
350.554 463 L
351.64 463 L
352.726 463 L
353.812 463 L
354.898 463 L
355.984 463 L
357.07 463 L
358.156 463 L
359.242 463 L
360.328 463 L
361.414 463 L
362.5 463 L
363.586 463 L
364.672 463 L
365.758 463 L
366.844 463 L
367.93 463 L
369.016 463 L
370.102 463 L
371.188 463 L
372.274 463 L
373.36 463 L
374.446 463 L
375.532 463 L
376.618 463 L
377.704 463 L
378.79 463 L
379.876 463 L
380.962 463 L
382.048 463 L
383.134 463 L
384.22 463 L
385.306 463 L
386.392 463 L
387.478 463 L
388.564 463 L
389.65 463 L
390.736 463 L
391.822 463 L
392.908 463 L
393.994 463 L
395.08 463 L
396.166 463 L
397.252 463 L
398.338 463 L
399.424 463 L
400.51 463 L
401.596 463 L
402.682 463 L
403.768 463 L
404.854 463 L
405.94 463 L
407.026 463 L
408.112 463 L
409.198 463 L
410.284 463 L
411.37 463 L
412.456 463 L
413.542 463 L
414.628 463 L
415.714 463 L
416.8 463 L
417.886 463 L
418.972 463 L
420.058 463 L
421.144 463 L
422.23 463 L
423.316 463 L
424.402 463 L
425.488 463 L
426.574 463 L
427.66 463 L
428.746 463 L
429.832 463 L
430.918 463 L
432.004 463 L
433.09 463 L
434.176 463 L
435.262 463 L
436.348 463 L
437.434 463 L
438.52 463 L
439.606 463 L
440.692 463 L
441.778 463 L
442.864 463 L
443.95 463 L
445.036 463 L
446.122 463 L
447.208 463 L
448.294 463 L
449.38 463 L
450.466 463 L
451.552 463 L
452.638 463 L
453.724 463 L
454.81 463 L
455.896 463 L
456.982 463 L
458.068 463 L
459.154 463 L
460.24 463 L
461.326 463 L
462.412 463 L
463.498 463 L
464.584 463 L
465.67 463 L
466.756 463 L
467.842 463 L
468.928 463 L
470.014 463 L
471.1 463 L
472.186 463 L
473.272 463 L
474.358 463 L
475.444 463 L
476.53 463 L
477.616 463 L
478.702 463 L
479.788 463 L
480.874 463 L
481.96 463 L
483.046 463 L
484.132 463 L
485.218 463 L
486.304 463 L
487.39 463 L
488.476 463 L
489.562 463 L
490.648 463 L
491.734 463 L
492.82 463 L
493.906 463 L
494.992 463 L
496.078 463 L
497.164 463 L
498.25 463 L
499.336 463 L
500.422 463 L
501.508 463 L
502.594 463 L
503.68 463 L
504.766 463 L
505.852 463 L
506.938 463 L
508.024 463 L
509.11 463 L
510.196 463 L
511.282 463 L
512.368 463 L
513.454 463 L
514.54 463 L
515.626 463 L
516.712 463 L
517.798 463 L
518.884 463 L
519.97 463 L
521.056 463 L
522.142 463 L
523.228 463 L
524.314 463 L
525.4 463 L
526.486 463 L
527.572 463 L
528.658 463 L
529.744 463 L
530.83 463 L
531.916 463 L
533.002 463 L
534.088 463 L
535.174 463 L
536.26 463 L
537.346 463 L
538.432 463 L
539.518 463 L
540.604 463 L
541.69 463 L
542.776 463 L
543.862 463 L
544.948 463 L
546.034 463 L
547.12 463 L
548.206 463 L
549.292 463 L
550.378 463 L
551.464 463 L
552.55 463 L
553.636 463 L
554.722 463 L
555.808 463 L
556.894 463 L
557.98 463 L
559.066 463 L
560.152 463 L
561.238 463 L
562.324 463 L
563.41 463 L
564.496 463 L
565.582 463 L
566.668 463 L
567.754 463 L
568.84 463 L
569.926 463 L
571.012 463 L
572.098 463 L
573.184 463 L
574.27 463 L
575.356 463 L
576.442 463 L
577.528 463 L
578.614 463 L
579.7 463 L
580.786 463 L
581.872 463 L
582.958 463 L
584.044 463 L
585.13 463 L
586.216 463 L
587.302 463 L
588.388 463 L
589.474 463 L
588.388 39 L
587.302 39 L
586.216 39 L
585.13 39 L
584.044 39 L
582.958 39 L
581.872 39 L
580.786 39 L
579.7 39 L
578.614 39 L
577.528 39 L
576.442 39 L
575.356 39 L
574.27 39 L
573.184 39 L
572.098 39 L
571.012 39 L
569.926 39 L
568.84 39 L
567.754 39 L
566.668 39 L
565.582 39 L
564.496 39 L
563.41 39 L
562.324 39 L
561.238 39 L
560.152 39 L
559.066 39 L
557.98 39 L
556.894 39 L
555.808 39 L
554.722 39 L
553.636 39 L
552.55 39 L
551.464 39 L
550.378 39 L
549.292 39 L
548.206 39 L
547.12 39 L
546.034 39 L
544.948 39 L
543.862 39 L
542.776 39 L
541.69 39 L
540.604 39 L
539.518 39 L
538.432 39 L
537.346 39 L
536.26 39 L
535.174 39 L
534.088 39 L
533.002 39 L
531.916 39 L
530.83 39 L
529.744 39 L
528.658 39 L
527.572 39 L
526.486 39 L
525.4 39 L
524.314 39 L
523.228 39 L
522.142 39 L
521.056 39 L
519.97 39 L
518.884 39 L
517.798 39 L
516.712 39 L
515.626 39 L
514.54 39 L
513.454 39 L
512.368 39 L
511.282 39 L
510.196 39 L
509.11 39 L
508.024 39 L
506.938 39 L
505.852 39 L
504.766 39 L
503.68 39 L
502.594 39 L
501.508 39 L
500.422 39 L
499.336 39 L
498.25 39 L
497.164 39 L
496.078 39 L
494.992 39 L
493.906 39 L
492.82 39 L
491.734 39 L
490.648 39 L
489.562 39 L
488.476 39 L
487.39 39 L
486.304 39 L
485.218 39 L
484.132 39 L
483.046 39 L
481.96 39 L
480.874 39 L
479.788 39 L
478.702 39 L
477.616 39 L
476.53 39 L
475.444 39 L
474.358 39 L
473.272 39 L
472.186 39 L
471.1 39 L
470.014 39 L
468.928 39 L
467.842 39 L
466.756 39 L
465.67 39 L
464.584 39 L
463.498 39 L
462.412 39 L
461.326 39 L
460.24 39 L
459.154 39 L
458.068 39 L
456.982 39 L
455.896 39 L
454.81 39 L
453.724 39 L
452.638 39 L
451.552 39 L
450.466 39 L
449.38 39 L
448.294 39 L
447.208 39 L
446.122 39 L
445.036 39 L
443.95 39 L
442.864 39 L
441.778 39 L
440.692 39 L
439.606 39 L
438.52 39 L
437.434 39 L
436.348 39 L
435.262 39 L
434.176 39 L
433.09 39 L
432.004 39 L
430.918 39 L
429.832 39 L
428.746 39 L
427.66 39 L
426.574 39 L
425.488 39 L
424.402 39 L
423.316 39 L
422.23 39 L
421.144 39 L
420.058 39 L
418.972 39 L
417.886 39 L
416.8 39 L
415.714 39 L
414.628 39 L
413.542 39 L
412.456 39 L
411.37 39 L
410.284 39 L
409.198 39 L
408.112 39 L
407.026 39 L
405.94 39 L
404.854 39 L
403.768 39 L
402.682 39 L
401.596 39 L
400.51 39 L
399.424 39 L
398.338 39 L
397.252 39 L
396.166 39 L
395.08 39 L
393.994 39 L
392.908 39 L
391.822 39 L
390.736 39 L
389.65 39 L
388.564 39 L
387.478 39 L
386.392 39 L
385.306 39 L
384.22 39 L
383.134 39 L
382.048 39 L
380.962 39 L
379.876 39 L
378.79 39 L
377.704 39 L
376.618 39 L
375.532 39 L
374.446 39 L
373.36 39 L
372.274 39 L
371.188 39 L
370.102 39 L
369.016 39 L
367.93 39 L
366.844 39 L
365.758 39 L
364.672 39 L
363.586 39 L
362.5 39 L
361.414 39 L
360.328 39 L
359.242 39 L
358.156 39 L
357.07 39 L
355.984 39 L
354.898 39 L
353.812 39 L
352.726 39 L
351.64 39 L
350.554 39 L
349.468 39 L
348.382 39 L
347.296 39 L
346.21 39 L
345.124 39 L
344.038 39 L
342.952 39 L
341.866 39 L
340.78 39 L
339.694 39 L
338.608 39 L
337.522 39 L
336.436 39 L
335.35 39 L
334.264 39 L
333.178 39 L
332.092 39 L
331.006 39 L
329.92 39 L
328.834 39 L
327.748 39 L
326.662 39 L
325.576 39 L
324.49 39 L
323.404 39 L
322.318 39 L
321.232 39 L
320.146 39 L
319.06 39 L
317.974 39 L
316.888 39 L
315.802 39 L
314.716 39 L
313.63 39 L
312.544 39 L
311.458 39 L
310.372 39 L
309.286 39 L
308.2 39 L
307.114 39 L
306.028 39 L
304.942 39 L
303.856 39 L
302.77 39 L
301.684 39 L
300.598 39 L
299.512 39 L
298.426 39 L
297.34 39 L
296.254 39 L
295.168 39 L
294.082 39 L
292.996 39 L
291.91 39 L
290.824 39 L
289.738 39 L
288.652 39 L
287.566 39 L
286.48 39 L
285.394 39 L
284.308 39 L
283.222 39 L
282.136 39 L
281.05 39 L
279.964 39 L
278.878 39 L
277.792 39 L
276.706 39 L
275.62 39 L
274.534 39 L
273.448 39 L
272.362 39 L
271.276 39 L
270.19 39 L
269.104 39 L
268.018 39 L
266.932 39 L
265.846 39 L
264.76 39 L
263.674 39 L
262.588 39 L
261.502 39 L
260.416 39 L
259.33 39 L
258.244 39 L
257.158 39 L
256.072 39 L
254.986 39 L
253.9 39 L
252.814 39 L
251.728 39 L
250.642 39 L
249.556 39 L
248.47 39 L
cp
600.334 463 M
601.42 463 L
602.506 463 L
603.592 463 L
604.678 463 L
605.764 463 L
606.85 463 L
607.936 463 L
609.022 463 L
610.108 463 L
611.194 463 L
612.28 463 L
613.366 463 L
614.452 463 L
615.538 463 L
614.452 39 L
613.366 39 L
612.28 39 L
611.194 39 L
610.108 39 L
609.022 39 L
607.936 39 L
606.85 39 L
605.764 39 L
604.678 39 L
603.592 39 L
602.506 39 L
601.42 39 L
cp
628.57 463 M
629.656 463 L
630.742 463 L
631.828 463 L
632.914 463 L
634 463 L
634.065 463 L
634.065 64.27 L
634.065 39 L
634 39 L
632.914 39 L
631.828 39 L
630.742 39 L
629.656 39 L
cp
f
GR
GS
[0.75 0 0 0.74971 0 0.39999] CT
0.984 0.933 0.91 RC
1 LJ
0.667 LW
N
90.935 463 M
91 463 L
92.086 463 L
93.172 463 L
94.258 463 L
95.344 463 L
96.43 463 L
97.516 463 L
98.602 463 L
99.688 463 L
100.774 463 L
101.86 463 L
102.946 463 L
104.032 463 L
105.118 463 L
106.204 463 L
107.29 463 L
108.376 463 L
109.462 463 L
110.548 463 L
111.634 463 L
112.72 463 L
113.806 463 L
114.892 463 L
115.978 463 L
117.064 463 L
118.15 463 L
119.236 463 L
120.322 463 L
121.408 463 L
122.494 463 L
123.58 463 L
124.666 463 L
125.752 463 L
126.838 463 L
127.924 463 L
129.01 463 L
130.096 463 L
131.182 463 L
132.268 463 L
133.354 463 L
134.44 463 L
135.526 463 L
136.612 463 L
137.698 463 L
138.784 463 L
139.87 463 L
140.956 463 L
142.042 463 L
143.128 463 L
144.214 463 L
145.3 463 L
146.386 463 L
147.472 463 L
148.558 463 L
149.644 463 L
150.73 463 L
151.816 463 L
152.902 463 L
153.988 463 L
155.074 463 L
156.16 463 L
157.246 463 L
158.332 463 L
159.418 463 L
160.504 463 L
161.59 463 L
162.676 463 L
163.762 463 L
164.848 463 L
165.934 463 L
167.02 463 L
168.106 463 L
169.192 463 L
170.278 463 L
171.364 463 L
172.45 463 L
173.536 463 L
174.622 463 L
175.708 463 L
176.794 463 L
177.88 463 L
178.966 463 L
180.052 463 L
181.138 463 L
182.224 463 L
183.31 463 L
184.396 463 L
185.482 463 L
186.568 463 L
187.654 463 L
188.74 463 L
189.826 463 L
190.912 463 L
191.998 463 L
193.084 463 L
194.17 463 L
195.256 463 L
196.342 463 L
197.428 463 L
198.514 463 L
199.6 463 L
200.686 463 L
201.772 463 L
202.858 463 L
203.944 463 L
205.03 463 L
206.116 463 L
207.202 463 L
208.288 463 L
209.374 463 L
210.46 463 L
211.546 463 L
212.632 463 L
213.718 463 L
214.804 463 L
215.89 463 L
216.976 463 L
218.062 463 L
219.148 463 L
220.234 463 L
221.32 463 L
222.406 463 L
223.492 463 L
224.578 463 L
225.664 463 L
226.75 463 L
227.836 463 L
228.922 463 L
230.008 463 L
231.094 463 L
232.18 463 L
233.266 463 L
234.352 463 L
235.438 463 L
236.524 463 L
237.61 463 L
238.696 463 L
239.782 463 L
240.868 463 L
241.954 463 L
243.04 463 L
244.126 463 L
245.212 463 L
246.298 463 L
247.384 463 L
248.47 463 L
249.556 463 L
250.642 463 L
251.728 463 L
252.814 463 L
253.9 463 L
254.986 463 L
256.072 463 L
257.158 463 L
258.244 463 L
259.33 463 L
260.416 463 L
261.502 463 L
262.588 463 L
263.674 463 L
264.76 463 L
265.846 463 L
266.932 463 L
268.018 463 L
269.104 463 L
270.19 463 L
271.276 463 L
272.362 463 L
273.448 463 L
274.534 463 L
275.62 463 L
276.706 463 L
277.792 463 L
278.878 463 L
279.964 463 L
281.05 463 L
282.136 463 L
283.222 463 L
284.308 463 L
285.394 463 L
286.48 463 L
287.566 463 L
288.652 463 L
289.738 463 L
290.824 463 L
291.91 463 L
292.996 463 L
294.082 463 L
295.168 463 L
296.254 463 L
297.34 463 L
298.426 463 L
299.512 463 L
300.598 463 L
301.684 463 L
302.77 463 L
303.856 463 L
304.942 463 L
306.028 463 L
307.114 463 L
308.2 463 L
309.286 463 L
310.372 463 L
311.458 463 L
312.544 463 L
313.63 463 L
314.716 463 L
315.802 463 L
316.888 463 L
317.974 463 L
319.06 463 L
320.146 463 L
321.232 463 L
322.318 463 L
323.404 463 L
324.49 463 L
325.576 463 L
326.662 463 L
327.748 463 L
328.834 463 L
329.92 463 L
331.006 463 L
332.092 463 L
333.178 463 L
334.264 463 L
335.35 463 L
336.436 463 L
337.522 463 L
338.608 463 L
339.694 463 L
340.78 463 L
341.866 463 L
342.952 463 L
344.038 463 L
345.124 463 L
346.21 463 L
347.296 463 L
348.382 463 L
349.468 463 L
350.554 463 L
351.64 463 L
352.726 463 L
353.812 463 L
354.898 463 L
355.984 463 L
357.07 463 L
358.156 463 L
359.242 463 L
360.328 463 L
361.414 463 L
362.5 463 L
363.586 463 L
364.672 463 L
365.758 463 L
366.844 463 L
367.93 463 L
369.016 463 L
370.102 463 L
371.188 463 L
372.274 463 L
373.36 463 L
374.446 463 L
375.532 463 L
376.618 463 L
377.704 463 L
378.79 463 L
379.876 463 L
380.962 463 L
382.048 463 L
383.134 463 L
384.22 463 L
385.306 463 L
386.392 463 L
387.478 463 L
388.564 463 L
389.65 463 L
390.736 463 L
391.822 463 L
392.908 463 L
393.994 463 L
395.08 463 L
396.166 463 L
397.252 463 L
398.338 463 L
399.424 463 L
400.51 463 L
401.596 463 L
402.682 463 L
403.768 463 L
404.854 463 L
405.94 463 L
407.026 463 L
408.112 463 L
409.198 463 L
410.284 463 L
411.37 463 L
412.456 463 L
413.542 463 L
414.628 463 L
415.714 463 L
416.8 463 L
417.886 463 L
418.972 463 L
420.058 463 L
421.144 463 L
422.23 463 L
423.316 463 L
424.402 463 L
425.488 463 L
426.574 463 L
427.66 463 L
428.746 463 L
429.832 463 L
430.918 463 L
432.004 463 L
433.09 463 L
434.176 463 L
435.262 463 L
436.348 463 L
437.434 463 L
438.52 463 L
439.606 463 L
440.692 463 L
441.778 463 L
442.864 463 L
443.95 463 L
445.036 463 L
446.122 463 L
447.208 463 L
448.294 463 L
449.38 463 L
450.466 463 L
451.552 463 L
452.638 463 L
453.724 463 L
454.81 463 L
455.896 463 L
456.982 463 L
458.068 463 L
459.154 463 L
460.24 463 L
461.326 463 L
462.412 463 L
463.498 463 L
464.584 463 L
465.67 463 L
466.756 463 L
467.842 463 L
468.928 463 L
470.014 463 L
471.1 463 L
472.186 463 L
473.272 463 L
474.358 463 L
475.444 463 L
476.53 463 L
477.616 463 L
478.702 463 L
479.788 463 L
480.874 463 L
481.96 463 L
483.046 463 L
484.132 463 L
485.218 463 L
486.304 463 L
487.39 463 L
488.476 463 L
489.562 463 L
490.648 463 L
491.734 463 L
492.82 463 L
493.906 463 L
494.992 463 L
496.078 463 L
497.164 463 L
498.25 463 L
499.336 463 L
500.422 463 L
501.508 463 L
502.594 463 L
503.68 463 L
504.766 463 L
505.852 463 L
506.938 463 L
508.024 463 L
509.11 463 L
510.196 463 L
511.282 463 L
512.368 463 L
513.454 463 L
514.54 463 L
515.626 463 L
516.712 463 L
517.798 463 L
518.884 463 L
519.97 463 L
521.056 463 L
522.142 463 L
523.228 463 L
524.314 463 L
525.4 463 L
526.486 463 L
527.572 463 L
528.658 463 L
529.744 463 L
530.83 463 L
531.916 463 L
533.002 463 L
534.088 463 L
535.174 463 L
536.26 463 L
537.346 463 L
538.432 463 L
539.518 463 L
540.604 463 L
541.69 463 L
542.776 463 L
543.862 463 L
544.948 463 L
546.034 463 L
547.12 463 L
548.206 463 L
549.292 463 L
550.378 463 L
551.464 463 L
552.55 463 L
553.636 463 L
554.722 463 L
555.808 463 L
556.894 463 L
557.98 463 L
559.066 463 L
560.152 463 L
561.238 463 L
562.324 463 L
563.41 463 L
564.496 463 L
565.582 463 L
566.668 463 L
567.754 463 L
568.84 463 L
569.926 463 L
571.012 463 L
572.098 463 L
573.184 463 L
574.27 463 L
575.356 463 L
576.442 463 L
577.528 463 L
578.614 463 L
579.7 463 L
580.786 463 L
581.872 463 L
582.958 463 L
584.044 463 L
585.13 463 L
586.216 463 L
587.302 463 L
588.388 463 L
589.474 463 L
590.56 463 L
591.646 463 L
592.732 463 L
593.818 463 L
594.904 463 L
595.99 463 L
597.076 463 L
598.162 463 L
599.248 463 L
600.334 463 L
601.42 463 L
602.506 463 L
603.592 463 L
604.678 463 L
605.764 463 L
606.85 463 L
607.936 463 L
609.022 463 L
610.108 463 L
611.194 463 L
612.28 463 L
613.366 463 L
614.452 463 L
615.538 463 L
616.624 463 L
617.71 463 L
618.796 463 L
619.882 463 L
620.968 463 L
622.054 463 L
623.14 463 L
624.226 463 L
625.312 463 L
626.398 463 L
627.484 463 L
628.57 463 L
629.656 463 L
630.742 463 L
631.828 463 L
632.914 463 L
634 463 L
634.065 463 L
S
GR
GS
[0.75 0 0 0.74971 0 0.39999] CT
0.984 0.933 0.91 RC
1 LJ
0.667 LW
N
634.065 39 M
634 39 L
632.914 39 L
631.828 39 L
630.742 39 L
629.656 39 L
628.57 463 L
627.484 463 L
626.398 463 L
625.312 463 L
624.226 463 L
623.14 463 L
622.054 463 L
620.968 463 L
619.882 463 L
618.796 463 L
617.71 463 L
616.624 463 L
615.538 463 L
614.452 39 L
613.366 39 L
612.28 39 L
611.194 39 L
610.108 39 L
609.022 39 L
607.936 39 L
606.85 39 L
605.764 39 L
604.678 39 L
603.592 39 L
602.506 39 L
601.42 39 L
600.334 463 L
599.248 463 L
598.162 463 L
597.076 463 L
595.99 463 L
594.904 463 L
593.818 463 L
592.732 463 L
591.646 463 L
590.56 463 L
589.474 463 L
588.388 39 L
587.302 39 L
586.216 39 L
585.13 39 L
584.044 39 L
582.958 39 L
581.872 39 L
580.786 39 L
579.7 39 L
578.614 39 L
577.528 39 L
576.442 39 L
575.356 39 L
574.27 39 L
573.184 39 L
572.098 39 L
571.012 39 L
569.926 39 L
568.84 39 L
567.754 39 L
566.668 39 L
565.582 39 L
564.496 39 L
563.41 39 L
562.324 39 L
561.238 39 L
560.152 39 L
559.066 39 L
557.98 39 L
556.894 39 L
555.808 39 L
554.722 39 L
553.636 39 L
552.55 39 L
551.464 39 L
550.378 39 L
549.292 39 L
548.206 39 L
547.12 39 L
546.034 39 L
544.948 39 L
543.862 39 L
542.776 39 L
541.69 39 L
540.604 39 L
539.518 39 L
538.432 39 L
537.346 39 L
536.26 39 L
535.174 39 L
534.088 39 L
533.002 39 L
531.916 39 L
530.83 39 L
529.744 39 L
528.658 39 L
527.572 39 L
526.486 39 L
525.4 39 L
524.314 39 L
523.228 39 L
522.142 39 L
521.056 39 L
519.97 39 L
518.884 39 L
517.798 39 L
516.712 39 L
515.626 39 L
514.54 39 L
513.454 39 L
512.368 39 L
511.282 39 L
510.196 39 L
509.11 39 L
508.024 39 L
506.938 39 L
505.852 39 L
504.766 39 L
503.68 39 L
502.594 39 L
501.508 39 L
500.422 39 L
499.336 39 L
498.25 39 L
497.164 39 L
496.078 39 L
494.992 39 L
493.906 39 L
492.82 39 L
491.734 39 L
490.648 39 L
489.562 39 L
488.476 39 L
487.39 39 L
486.304 39 L
485.218 39 L
484.132 39 L
483.046 39 L
481.96 39 L
480.874 39 L
479.788 39 L
478.702 39 L
477.616 39 L
476.53 39 L
475.444 39 L
474.358 39 L
473.272 39 L
472.186 39 L
471.1 39 L
470.014 39 L
468.928 39 L
467.842 39 L
466.756 39 L
465.67 39 L
464.584 39 L
463.498 39 L
462.412 39 L
461.326 39 L
460.24 39 L
459.154 39 L
458.068 39 L
456.982 39 L
455.896 39 L
454.81 39 L
453.724 39 L
452.638 39 L
451.552 39 L
450.466 39 L
449.38 39 L
448.294 39 L
447.208 39 L
446.122 39 L
445.036 39 L
443.95 39 L
442.864 39 L
441.778 39 L
440.692 39 L
439.606 39 L
438.52 39 L
437.434 39 L
436.348 39 L
435.262 39 L
434.176 39 L
433.09 39 L
432.004 39 L
430.918 39 L
429.832 39 L
428.746 39 L
427.66 39 L
426.574 39 L
425.488 39 L
424.402 39 L
423.316 39 L
422.23 39 L
421.144 39 L
420.058 39 L
418.972 39 L
417.886 39 L
416.8 39 L
415.714 39 L
414.628 39 L
413.542 39 L
412.456 39 L
411.37 39 L
410.284 39 L
409.198 39 L
408.112 39 L
407.026 39 L
405.94 39 L
404.854 39 L
403.768 39 L
402.682 39 L
401.596 39 L
400.51 39 L
399.424 39 L
398.338 39 L
397.252 39 L
396.166 39 L
395.08 39 L
393.994 39 L
392.908 39 L
391.822 39 L
390.736 39 L
389.65 39 L
388.564 39 L
387.478 39 L
386.392 39 L
385.306 39 L
384.22 39 L
383.134 39 L
382.048 39 L
380.962 39 L
379.876 39 L
378.79 39 L
377.704 39 L
376.618 39 L
375.532 39 L
374.446 39 L
373.36 39 L
372.274 39 L
371.188 39 L
370.102 39 L
369.016 39 L
367.93 39 L
366.844 39 L
365.758 39 L
364.672 39 L
363.586 39 L
362.5 39 L
361.414 39 L
360.328 39 L
359.242 39 L
358.156 39 L
357.07 39 L
355.984 39 L
354.898 39 L
353.812 39 L
352.726 39 L
351.64 39 L
350.554 39 L
349.468 39 L
348.382 39 L
347.296 39 L
346.21 39 L
345.124 39 L
344.038 39 L
342.952 39 L
341.866 39 L
340.78 39 L
339.694 39 L
338.608 39 L
337.522 39 L
336.436 39 L
335.35 39 L
334.264 39 L
333.178 39 L
332.092 39 L
331.006 39 L
329.92 39 L
328.834 39 L
327.748 39 L
326.662 39 L
325.576 39 L
324.49 39 L
323.404 39 L
322.318 39 L
321.232 39 L
320.146 39 L
319.06 39 L
317.974 39 L
316.888 39 L
315.802 39 L
314.716 39 L
313.63 39 L
312.544 39 L
311.458 39 L
310.372 39 L
309.286 39 L
308.2 39 L
307.114 39 L
306.028 39 L
304.942 39 L
303.856 39 L
302.77 39 L
301.684 39 L
300.598 39 L
299.512 39 L
298.426 39 L
297.34 39 L
296.254 39 L
295.168 39 L
294.082 39 L
292.996 39 L
291.91 39 L
290.824 39 L
289.738 39 L
288.652 39 L
287.566 39 L
286.48 39 L
285.394 39 L
284.308 39 L
283.222 39 L
282.136 39 L
281.05 39 L
279.964 39 L
278.878 39 L
277.792 39 L
276.706 39 L
275.62 39 L
274.534 39 L
273.448 39 L
272.362 39 L
271.276 39 L
270.19 39 L
269.104 39 L
268.018 39 L
266.932 39 L
265.846 39 L
264.76 39 L
263.674 39 L
262.588 39 L
261.502 39 L
260.416 39 L
259.33 39 L
258.244 39 L
257.158 39 L
256.072 39 L
254.986 39 L
253.9 39 L
252.814 39 L
251.728 39 L
250.642 39 L
249.556 39 L
248.47 39 L
247.384 463 L
246.298 463 L
245.212 463 L
244.126 463 L
243.04 463 L
241.954 463 L
240.868 463 L
239.782 463 L
238.696 463 L
237.61 463 L
236.524 463 L
235.438 463 L
234.352 463 L
233.266 463 L
232.18 463 L
231.094 463 L
230.008 463 L
228.922 463 L
227.836 463 L
226.75 463 L
225.664 463 L
224.578 463 L
223.492 463 L
222.406 463 L
221.32 463 L
220.234 463 L
219.148 463 L
218.062 463 L
216.976 463 L
215.89 463 L
214.804 463 L
213.718 463 L
212.632 463 L
211.546 463 L
210.46 463 L
209.374 463 L
208.288 463 L
207.202 463 L
206.116 463 L
205.03 463 L
203.944 463 L
202.858 463 L
201.772 463 L
200.686 463 L
199.6 463 L
198.514 463 L
197.428 463 L
196.342 463 L
195.256 463 L
194.17 463 L
193.084 463 L
191.998 463 L
190.912 463 L
189.826 463 L
188.74 463 L
187.654 463 L
186.568 463 L
185.482 463 L
184.396 463 L
183.31 463 L
182.224 463 L
181.138 463 L
180.052 463 L
178.966 463 L
177.88 463 L
176.794 463 L
175.708 463 L
174.622 463 L
173.536 463 L
172.45 463 L
171.364 463 L
170.278 463 L
169.192 463 L
168.106 463 L
167.02 463 L
165.934 463 L
164.848 463 L
163.762 463 L
162.676 463 L
161.59 463 L
160.504 463 L
159.418 463 L
158.332 463 L
157.246 463 L
156.16 463 L
155.074 463 L
153.988 463 L
152.902 463 L
151.816 463 L
150.73 463 L
149.644 463 L
148.558 463 L
147.472 463 L
146.386 463 L
145.3 463 L
144.214 463 L
143.128 463 L
142.042 463 L
140.956 463 L
139.87 463 L
138.784 463 L
137.698 463 L
136.612 39 L
135.526 39 L
134.44 39 L
133.354 39 L
132.268 39 L
131.182 39 L
130.096 39 L
129.01 39 L
127.924 39 L
126.838 39 L
125.752 39 L
124.666 39 L
123.58 463 L
122.494 463 L
121.408 463 L
120.322 463 L
119.236 463 L
118.15 463 L
117.064 463 L
115.978 463 L
114.892 463 L
113.806 463 L
112.72 463 L
111.634 463 L
110.548 463 L
109.462 39 L
108.376 39 L
107.29 39 L
106.204 39 L
105.118 39 L
104.032 39 L
102.946 39 L
101.86 39 L
100.774 39 L
99.688 39 L
98.602 39 L
97.516 39 L
96.43 39 L
95.344 463 L
94.258 463 L
93.172 463 L
92.086 463 L
91 463 L
90.935 463 L
S
GR
GS
[0.75 0 0 0.74971 0 0.39999] CT
0 0.447 0.741 RC
1 LJ
2.667 LW
N
90.935 463 M
91 463 L
92.086 463 L
93.172 463 L
94.258 463 L
95.344 463 L
96.43 463 L
97.516 463 L
98.602 463 L
99.688 463 L
100.774 463 L
101.86 463 L
102.946 463 L
104.032 463 L
105.118 463 L
106.204 463 L
107.29 462.999 L
108.376 462.998 L
109.462 462.996 L
110.548 462.993 L
111.634 462.99 L
112.72 462.985 L
113.806 462.979 L
114.892 462.972 L
115.978 462.965 L
117.064 462.959 L
118.15 462.955 L
119.236 462.957 L
120.322 462.968 L
121.408 462.993 L
122.494 463.036 L
122.722 463.051 L
S
GR
GS
[0.75 0 0 0.74971 0 0.39999] CT
0 0.447 0.741 RC
1 LJ
2.667 LW
N
132.901 463.051 M
133.354 462.785 L
134.44 461.692 L
135.526 460.013 L
136.612 457.629 L
137.698 454.446 L
138.784 450.413 L
139.87 445.538 L
140.956 439.902 L
142.042 433.656 L
143.128 427.022 L
144.214 420.268 L
145.3 413.688 L
146.386 407.571 L
147.472 402.165 L
148.558 397.658 L
149.644 394.152 L
150.73 391.665 L
151.816 390.129 L
152.902 389.409 L
153.988 389.328 L
155.074 389.686 L
156.16 390.294 L
157.246 390.984 L
158.332 391.629 L
159.418 392.147 L
160.504 392.499 L
161.59 392.681 L
162.676 392.72 L
163.762 392.657 L
164.848 392.539 L
165.934 392.408 L
167.02 392.3 L
168.106 392.235 L
169.192 392.222 L
170.278 392.257 L
171.364 392.33 L
172.45 392.423 L
173.536 392.521 L
174.622 392.607 L
175.708 392.671 L
176.794 392.705 L
177.88 392.705 L
178.966 392.673 L
180.052 392.61 L
181.138 392.525 L
182.224 392.424 L
183.31 392.318 L
184.396 392.219 L
185.482 392.136 L
186.568 392.079 L
187.654 392.056 L
188.74 392.069 L
189.826 392.115 L
190.912 392.19 L
191.998 392.281 L
193.084 392.377 L
194.17 392.463 L
195.256 392.527 L
196.342 392.562 L
197.428 392.563 L
198.514 392.532 L
199.6 392.475 L
200.686 392.4 L
201.772 392.32 L
202.858 392.247 L
203.944 392.192 L
205.03 392.162 L
206.116 392.162 L
207.202 392.191 L
208.288 392.243 L
209.374 392.307 L
210.46 392.371 L
211.546 392.421 L
212.632 392.445 L
213.718 392.434 L
214.804 392.386 L
215.89 392.306 L
216.976 392.205 L
218.062 392.102 L
219.148 392.015 L
220.234 391.966 L
221.32 391.968 L
222.406 392.031 L
223.492 392.153 L
224.578 392.323 L
225.664 392.523 L
226.75 392.728 L
227.836 392.914 L
228.922 393.059 L
230.008 393.149 L
231.094 393.181 L
232.18 393.164 L
233.266 393.116 L
234.352 393.067 L
235.438 393.052 L
236.524 393.105 L
237.61 393.259 L
238.696 393.538 L
239.782 393.954 L
240.868 394.507 L
241.954 395.187 L
243.04 395.97 L
244.126 396.829 L
245.212 397.732 L
246.298 398.655 L
247.384 399.577 L
248.47 400.493 L
249.556 401.406 L
250.642 402.33 L
251.728 403.29 L
252.814 404.309 L
253.9 405.412 L
254.986 406.616 L
256.072 407.931 L
257.158 409.353 L
258.244 410.868 L
259.33 412.454 L
260.416 414.079 L
261.502 415.709 L
262.588 417.306 L
263.674 418.832 L
264.76 420.256 L
265.846 421.55 L
266.932 422.693 L
268.018 423.676 L
269.104 424.496 L
270.19 425.162 L
271.276 425.688 L
272.362 426.096 L
273.448 426.41 L
274.534 426.655 L
275.62 426.85 L
276.706 427.015 L
277.792 427.159 L
278.878 427.289 L
279.964 427.406 L
281.05 427.509 L
282.136 427.595 L
283.222 427.661 L
284.308 427.707 L
285.394 427.734 L
286.48 427.746 L
287.566 427.746 L
288.652 427.741 L
289.738 427.733 L
290.824 427.726 L
291.91 427.721 L
292.996 427.719 L
294.082 427.72 L
295.168 427.721 L
296.254 427.723 L
297.34 427.725 L
298.426 427.726 L
299.512 427.726 L
300.598 427.725 L
301.684 427.722 L
302.77 427.719 L
303.856 427.713 L
304.942 427.706 L
306.028 427.696 L
307.114 427.685 L
308.2 427.674 L
309.286 427.663 L
310.372 427.655 L
311.458 427.651 L
312.544 427.651 L
313.63 427.656 L
314.716 427.665 L
315.802 427.676 L
316.888 427.687 L
317.974 427.696 L
319.06 427.702 L
320.146 427.702 L
321.232 427.698 L
322.318 427.692 L
323.404 427.686 L
324.49 427.683 L
325.576 427.685 L
326.662 427.695 L
327.748 427.712 L
328.834 427.735 L
329.92 427.764 L
331.006 427.794 L
332.092 427.825 L
333.178 427.854 L
334.264 427.881 L
335.35 427.908 L
336.436 427.937 L
337.522 427.971 L
338.608 428.012 L
339.694 428.065 L
340.78 428.128 L
341.866 428.201 L
342.952 428.281 L
344.038 428.365 L
345.124 428.447 L
346.21 428.524 L
347.296 428.592 L
348.382 428.647 L
349.468 428.69 L
350.554 428.718 L
351.64 428.731 L
352.726 428.729 L
353.812 428.709 L
354.898 428.671 L
355.984 428.61 L
357.07 428.523 L
358.156 428.409 L
359.242 428.267 L
360.328 428.097 L
361.414 427.902 L
362.5 427.687 L
363.586 427.457 L
364.672 427.217 L
365.758 426.971 L
366.844 426.721 L
367.93 426.466 L
369.016 426.203 L
370.102 425.928 L
371.188 425.635 L
372.274 425.322 L
373.36 424.986 L
374.446 424.629 L
375.532 424.257 L
376.618 423.877 L
377.704 423.501 L
378.79 423.139 L
379.876 422.803 L
380.962 422.498 L
382.048 422.23 L
383.134 421.999 L
384.22 421.8 L
385.306 421.626 L
386.392 421.468 L
387.478 421.318 L
388.564 421.167 L
389.65 421.012 L
390.736 420.851 L
391.822 420.685 L
392.908 420.519 L
393.994 420.357 L
395.08 420.206 L
396.166 420.069 L
397.252 419.95 L
398.338 419.849 L
399.424 419.765 L
400.51 419.694 L
401.596 419.633 L
402.682 419.578 L
403.768 419.527 L
404.854 419.477 L
405.94 419.428 L
407.026 419.378 L
408.112 419.33 L
409.198 419.282 L
410.284 419.236 L
411.37 419.191 L
412.456 419.148 L
413.542 419.107 L
414.628 419.065 L
415.714 419.024 L
416.8 418.982 L
417.886 418.937 L
418.972 418.89 L
420.058 418.84 L
421.144 418.786 L
422.23 418.727 L
423.316 418.665 L
424.402 418.598 L
425.488 418.527 L
426.574 418.453 L
427.66 418.375 L
428.746 418.293 L
429.832 418.204 L
430.918 418.108 L
432.004 417.999 L
433.09 417.874 L
434.176 417.729 L
435.262 417.559 L
436.348 417.359 L
437.434 417.125 L
438.52 416.854 L
439.606 416.543 L
440.692 416.19 L
441.778 415.796 L
442.864 415.364 L
443.95 414.897 L
445.036 414.403 L
446.122 413.888 L
447.208 413.358 L
448.294 412.82 L
449.38 412.275 L
450.466 411.72 L
451.552 411.149 L
452.638 410.552 L
453.724 409.917 L
454.81 409.232 L
455.896 408.49 L
456.982 407.684 L
458.068 406.817 L
459.154 405.895 L
460.24 404.93 L
461.326 403.937 L
462.412 402.931 L
463.498 401.924 L
464.584 400.925 L
465.67 399.939 L
466.756 398.965 L
467.842 397.998 L
468.928 397.033 L
470.014 396.065 L
471.1 395.088 L
472.186 394.103 L
473.272 393.11 L
474.358 392.115 L
475.444 391.125 L
476.53 390.145 L
477.616 389.184 L
478.702 388.245 L
479.788 387.335 L
480.874 386.453 L
481.96 385.602 L
483.046 384.782 L
484.132 383.994 L
485.218 383.24 L
486.304 382.522 L
487.39 381.843 L
488.476 381.208 L
489.562 380.618 L
490.648 380.078 L
491.734 379.586 L
492.82 379.144 L
493.906 378.747 L
494.992 378.391 L
496.078 378.072 L
497.164 377.783 L
498.25 377.517 L
499.336 377.269 L
500.422 377.034 L
501.508 376.808 L
502.594 376.59 L
503.68 376.38 L
504.766 376.18 L
505.852 375.993 L
506.938 375.826 L
508.024 375.682 L
509.11 375.567 L
510.196 375.483 L
511.282 375.432 L
512.368 375.412 L
513.454 375.416 L
514.54 375.438 L
515.626 375.466 L
516.712 375.49 L
517.798 375.499 L
518.884 375.486 L
519.97 375.446 L
521.056 375.38 L
522.142 375.292 L
523.228 375.19 L
524.314 375.087 L
525.4 374.991 L
526.486 374.914 L
527.572 374.861 L
528.658 374.835 L
529.744 374.834 L
530.83 374.853 L
531.916 374.885 L
533.002 374.922 L
534.088 374.955 L
535.174 374.98 L
536.26 374.991 L
537.346 374.984 L
538.432 374.957 L
539.518 374.906 L
540.604 374.825 L
541.69 374.712 L
542.776 374.559 L
543.862 374.365 L
544.948 374.127 L
546.034 373.847 L
547.12 373.53 L
548.206 373.181 L
549.292 372.809 L
550.378 372.419 L
551.464 372.013 L
552.55 371.589 L
553.636 371.135 L
554.722 370.637 L
555.808 370.069 L
556.894 369.403 L
557.98 368.607 L
559.066 367.644 L
560.152 366.476 L
561.238 365.062 L
562.324 363.364 L
563.41 361.345 L
564.496 358.979 L
565.582 356.257 L
566.668 353.202 L
567.754 349.878 L
568.84 346.403 L
569.926 342.961 L
571.012 339.795 L
572.098 337.204 L
573.184 335.518 L
574.27 335.069 L
575.356 336.152 L
576.442 338.985 L
577.528 343.678 L
578.614 350.208 L
579.7 358.411 L
580.786 367.999 L
581.872 378.58 L
582.958 389.702 L
584.044 400.899 L
585.13 411.731 L
586.216 421.827 L
587.302 430.904 L
588.388 438.786 L
589.474 445.394 L
590.56 450.742 L
591.646 454.915 L
592.732 458.045 L
593.818 460.292 L
594.904 461.824 L
595.99 462.801 L
596.468 463.051 L
S
GR
GS
[0.75 0 0 0.74971 0 0.39999] CT
0 0.447 0.741 RC
1 LJ
2.667 LW
N
608.089 463.051 M
609.022 463.019 L
610.108 462.995 L
611.194 462.981 L
612.28 462.974 L
613.366 462.972 L
614.452 462.974 L
615.538 462.976 L
616.624 462.98 L
617.71 462.984 L
618.796 462.987 L
619.882 462.991 L
620.968 462.993 L
622.054 462.995 L
623.14 462.997 L
624.226 462.998 L
625.312 462.999 L
626.398 462.999 L
627.484 463 L
628.57 463 L
629.656 463 L
630.742 463 L
631.828 463 L
632.914 463 L
634 463 L
634.065 463 L
S
GR
GS
[0.75 0 0 0.74971 0 0.39999] CT
0.851 0.325 0.098 RC
1 LJ
2.667 LW
N
90.935 463 M
91 463 L
92.086 463 L
93.172 463 L
94.258 463 L
95.344 463 L
96.43 463 L
97.516 463 L
98.602 463 L
99.688 463 L
100.774 463 L
101.86 462.999 L
102.946 462.999 L
104.032 462.999 L
105.118 462.998 L
106.204 462.997 L
107.29 462.997 L
108.376 462.996 L
109.462 462.995 L
110.548 462.995 L
111.634 462.994 L
112.72 462.995 L
113.806 462.996 L
114.892 462.999 L
115.978 463.004 L
117.064 463.011 L
118.15 463.022 L
119.236 463.037 L
120.012 463.051 L
S
GR
GS
[0.75 0 0 0.74971 0 0.39999] CT
0.851 0.325 0.098 RC
1 LJ
2.667 LW
N
128.262 463.051 M
129.01 462.97 L
130.096 462.764 L
131.182 462.435 L
132.268 461.946 L
133.354 461.253 L
134.44 460.314 L
135.526 459.09 L
136.612 457.549 L
137.698 455.677 L
138.784 453.475 L
139.87 450.969 L
140.956 448.211 L
142.042 445.276 L
143.128 442.257 L
144.214 439.262 L
145.3 436.398 L
146.386 433.766 L
147.472 431.446 L
148.558 429.494 L
149.644 427.932 L
150.73 426.753 L
151.816 425.922 L
152.902 425.384 L
153.988 425.068 L
155.074 424.904 L
156.16 424.824 L
157.246 424.769 L
158.332 424.698 L
159.418 424.582 L
160.504 424.407 L
161.59 424.171 L
162.676 423.884 L
163.762 423.559 L
164.848 423.212 L
165.934 422.859 L
167.02 422.517 L
168.106 422.198 L
169.192 421.909 L
170.278 421.656 L
171.364 421.44 L
172.45 421.258 L
173.536 421.106 L
174.622 420.976 L
175.708 420.863 L
176.794 420.757 L
177.88 420.655 L
178.966 420.549 L
180.052 420.439 L
181.138 420.322 L
182.224 420.201 L
183.31 420.079 L
184.396 419.96 L
185.482 419.851 L
186.568 419.756 L
187.654 419.678 L
188.74 419.621 L
189.826 419.585 L
190.912 419.565 L
191.998 419.559 L
193.084 419.56 L
194.17 419.562 L
195.256 419.561 L
196.342 419.55 L
197.428 419.529 L
198.514 419.495 L
199.6 419.449 L
200.686 419.393 L
201.772 419.328 L
202.858 419.256 L
203.944 419.178 L
205.03 419.095 L
206.116 419.008 L
207.202 418.918 L
208.288 418.826 L
209.374 418.733 L
210.46 418.638 L
211.546 418.544 L
212.632 418.448 L
213.718 418.35 L
214.804 418.248 L
215.89 418.137 L
216.976 418.014 L
218.062 417.874 L
219.148 417.714 L
220.234 417.529 L
221.32 417.317 L
222.406 417.075 L
223.492 416.799 L
224.578 416.487 L
225.664 416.136 L
226.75 415.741 L
227.836 415.298 L
228.922 414.803 L
230.008 414.253 L
231.094 413.646 L
232.18 412.982 L
233.266 412.264 L
234.352 411.497 L
235.438 410.685 L
236.524 409.837 L
237.61 408.958 L
238.696 408.056 L
239.782 407.137 L
240.868 406.208 L
241.954 405.274 L
243.04 404.34 L
244.126 403.413 L
245.212 402.495 L
246.298 401.589 L
247.384 400.697 L
248.47 399.817 L
249.556 398.945 L
250.642 398.075 L
251.728 397.2 L
252.814 396.314 L
253.9 395.41 L
254.986 394.484 L
256.072 393.536 L
257.158 392.567 L
258.244 391.584 L
259.33 390.593 L
260.416 389.606 L
261.502 388.633 L
262.588 387.685 L
263.674 386.772 L
264.76 385.903 L
265.846 385.084 L
266.932 384.32 L
268.018 383.611 L
269.104 382.957 L
270.19 382.351 L
271.276 381.787 L
272.362 381.256 L
273.448 380.747 L
274.534 380.252 L
275.62 379.764 L
276.706 379.279 L
277.792 378.798 L
278.878 378.326 L
279.964 377.869 L
281.05 377.436 L
282.136 377.037 L
283.222 376.679 L
284.308 376.369 L
285.394 376.108 L
286.48 375.898 L
287.566 375.733 L
288.652 375.61 L
289.738 375.521 L
290.824 375.459 L
291.91 375.417 L
292.996 375.386 L
294.082 375.359 L
295.168 375.332 L
296.254 375.298 L
297.34 375.254 L
298.426 375.2 L
299.512 375.135 L
300.598 375.062 L
301.684 374.987 L
302.77 374.914 L
303.856 374.851 L
304.942 374.801 L
306.028 374.769 L
307.114 374.755 L
308.2 374.757 L
309.286 374.769 L
310.372 374.784 L
311.458 374.795 L
312.544 374.795 L
313.63 374.782 L
314.716 374.754 L
315.802 374.714 L
316.888 374.667 L
317.974 374.616 L
319.06 374.566 L
320.146 374.516 L
321.232 374.463 L
322.318 374.398 L
323.404 374.312 L
324.49 374.191 L
325.576 374.025 L
326.662 373.808 L
327.748 373.534 L
328.834 373.207 L
329.92 372.83 L
331.006 372.409 L
332.092 371.951 L
333.178 371.458 L
334.264 370.93 L
335.35 370.36 L
336.436 369.735 L
337.522 369.041 L
338.608 368.261 L
339.694 367.378 L
340.78 366.377 L
341.866 365.247 L
342.952 363.982 L
344.038 362.581 L
345.124 361.045 L
346.21 359.379 L
347.296 357.59 L
348.382 355.683 L
349.468 353.664 L
350.554 351.539 L
351.64 349.314 L
352.726 346.999 L
353.812 344.602 L
354.898 342.141 L
355.984 339.631 L
357.07 337.095 L
358.156 334.552 L
359.242 332.023 L
360.328 329.522 L
361.414 327.059 L
362.5 324.64 L
363.586 322.263 L
364.672 319.924 L
365.758 317.616 L
366.844 315.334 L
367.93 313.077 L
369.016 310.851 L
370.102 308.666 L
371.188 306.539 L
372.274 304.492 L
373.36 302.547 L
374.446 300.724 L
375.532 299.04 L
376.618 297.504 L
377.704 296.117 L
378.79 294.875 L
379.876 293.765 L
380.962 292.774 L
382.048 291.888 L
383.134 291.095 L
384.22 290.388 L
385.306 289.762 L
386.392 289.215 L
387.478 288.747 L
388.564 288.356 L
389.65 288.036 L
390.736 287.78 L
391.822 287.575 L
392.908 287.409 L
393.994 287.267 L
395.08 287.138 L
396.166 287.012 L
397.252 286.885 L
398.338 286.759 L
399.424 286.637 L
400.51 286.527 L
401.596 286.438 L
402.682 286.378 L
403.768 286.35 L
404.854 286.353 L
405.94 286.383 L
407.026 286.43 L
408.112 286.48 L
409.198 286.52 L
410.284 286.54 L
411.37 286.531 L
412.456 286.492 L
413.542 286.43 L
414.628 286.357 L
415.714 286.287 L
416.8 286.236 L
417.886 286.218 L
418.972 286.239 L
420.058 286.296 L
421.144 286.38 L
422.23 286.473 L
423.316 286.555 L
424.402 286.607 L
425.488 286.614 L
426.574 286.572 L
427.66 286.485 L
428.746 286.365 L
429.832 286.231 L
430.918 286.1 L
432.004 285.987 L
433.09 285.894 L
434.176 285.817 L
435.262 285.739 L
436.348 285.637 L
437.434 285.49 L
438.52 285.279 L
439.606 284.998 L
440.692 284.656 L
441.778 284.274 L
442.864 283.884 L
443.95 283.52 L
445.036 283.208 L
446.122 282.955 L
447.208 282.743 L
448.294 282.52 L
449.38 282.201 L
450.466 281.68 L
451.552 280.836 L
452.638 279.552 L
453.724 277.733 L
454.81 275.318 L
455.896 272.287 L
456.982 268.661 L
458.068 264.494 L
459.154 259.859 L
460.24 254.827 L
461.326 249.456 L
462.412 243.782 L
463.498 237.812 L
464.584 231.537 L
465.67 224.941 L
466.756 218.018 L
467.842 210.783 L
468.928 203.283 L
470.014 195.598 L
471.1 187.835 L
472.186 180.115 L
473.272 172.564 L
474.358 165.296 L
475.444 158.41 L
476.53 151.978 L
477.616 146.054 L
478.702 140.668 L
479.788 135.835 L
480.874 131.553 L
481.96 127.805 L
483.046 124.562 L
484.132 121.777 L
485.218 119.387 L
486.304 117.324 L
487.39 115.511 L
488.476 113.879 L
489.562 112.373 L
490.648 110.959 L
491.734 109.631 L
492.82 108.409 L
493.906 107.338 L
494.992 106.473 L
496.078 105.877 L
497.164 105.6 L
498.25 105.672 L
499.336 106.094 L
500.422 106.83 L
501.508 107.81 L
502.594 108.934 L
503.68 110.079 L
504.766 111.12 L
505.852 111.939 L
506.938 112.446 L
508.024 112.589 L
509.11 112.363 L
510.196 111.81 L
511.282 111.018 L
512.368 110.101 L
513.454 109.186 L
514.54 108.395 L
515.626 107.825 L
516.712 107.536 L
517.798 107.544 L
518.884 107.822 L
519.97 108.31 L
521.056 108.923 L
522.142 109.573 L
523.228 110.177 L
524.314 110.669 L
525.4 111.01 L
526.486 111.184 L
527.572 111.198 L
528.658 111.074 L
529.744 110.846 L
530.83 110.548 L
531.916 110.215 L
533.002 109.877 L
534.088 109.558 L
535.174 109.275 L
536.26 109.037 L
537.346 108.848 L
538.432 108.709 L
539.518 108.617 L
540.604 108.57 L
541.69 108.572 L
542.776 108.629 L
543.862 108.752 L
544.948 108.955 L
546.034 109.244 L
547.12 109.617 L
548.206 110.059 L
549.292 110.539 L
550.378 111.015 L
551.464 111.44 L
552.55 111.775 L
553.636 111.994 L
554.722 112.092 L
555.808 112.087 L
556.894 112.009 L
557.98 111.89 L
559.066 111.745 L
560.152 111.558 L
561.238 111.267 L
562.324 110.769 L
563.41 109.928 L
564.496 108.608 L
565.582 106.717 L
566.668 104.254 L
567.754 101.366 L
568.84 98.389 L
569.926 95.864 L
571.012 94.529 L
572.098 95.264 L
573.184 99.006 L
574.27 106.632 L
575.356 118.829 L
576.442 135.978 L
577.528 158.06 L
578.614 184.621 L
579.7 214.791 L
580.786 247.369 L
581.872 280.943 L
582.958 314.052 L
584.044 345.338 L
585.13 373.677 L
586.216 398.276 L
587.302 418.706 L
588.388 434.895 L
589.474 447.074 L
590.56 455.7 L
591.646 461.364 L
592.194 463.051 L
S
GR
GS
[0.75 0 0 0.74971 0 0.39999] CT
0.851 0.325 0.098 RC
1 LJ
2.667 LW
N
603.141 463.051 M
603.592 462.961 L
604.678 462.84 L
605.764 462.787 L
606.85 462.779 L
607.936 462.797 L
609.022 462.829 L
610.108 462.865 L
611.194 462.899 L
612.28 462.928 L
613.366 462.951 L
614.452 462.969 L
615.538 462.982 L
616.624 462.99 L
617.71 462.996 L
618.796 462.999 L
619.882 463.001 L
620.968 463.001 L
622.054 463.002 L
623.14 463.001 L
624.226 463.001 L
625.312 463.001 L
626.398 463 L
627.484 463 L
628.57 463 L
629.656 463 L
630.742 463 L
631.828 463 L
632.914 463 L
634 463 L
634.065 463 L
S
GR
GS
[0.75 0 0 0.74971 0 0.39999] CT
0.775 GC
[1 3] 0 setdash
2 LJ
0.667 LW
N
112.72 463 M
112.72 39 L
S
GR
GS
[0.75 0 0 0.74971 0 0.39999] CT
0.775 GC
[1 3] 0 setdash
2 LJ
0.667 LW
N
134.44 463 M
134.44 39 L
S
GR
GS
[0.75 0 0 0.74971 0 0.39999] CT
0.775 GC
[1 3] 0 setdash
2 LJ
0.667 LW
N
156.16 463 M
156.16 39 L
S
GR
GS
[0.75 0 0 0.74971 0 0.39999] CT
0.775 GC
[1 3] 0 setdash
2 LJ
0.667 LW
N
177.88 463 M
177.88 39 L
S
GR
GS
[0.75 0 0 0.74971 0 0.39999] CT
0.775 GC
[1 3] 0 setdash
2 LJ
0.667 LW
N
221.32 463 M
221.32 39 L
S
GR
GS
[0.75 0 0 0.74971 0 0.39999] CT
0.775 GC
[1 3] 0 setdash
2 LJ
0.667 LW
N
243.04 463 M
243.04 39 L
S
GR
GS
[0.75 0 0 0.74971 0 0.39999] CT
0.775 GC
[1 3] 0 setdash
2 LJ
0.667 LW
N
264.76 463 M
264.76 39 L
S
GR
GS
[0.75 0 0 0.74971 0 0.39999] CT
0.775 GC
[1 3] 0 setdash
2 LJ
0.667 LW
N
286.48 463 M
286.48 39 L
S
GR
GS
[0.75 0 0 0.74971 0 0.39999] CT
0.775 GC
[1 3] 0 setdash
2 LJ
0.667 LW
N
329.92 463 M
329.92 39 L
S
GR
GS
[0.75 0 0 0.74971 0 0.39999] CT
0.775 GC
[1 3] 0 setdash
2 LJ
0.667 LW
N
351.64 463 M
351.64 39 L
S
GR
GS
[0.75 0 0 0.74971 0 0.39999] CT
0.775 GC
[1 3] 0 setdash
2 LJ
0.667 LW
N
373.36 463 M
373.36 39 L
S
GR
GS
[0.75 0 0 0.74971 0 0.39999] CT
0.775 GC
[1 3] 0 setdash
2 LJ
0.667 LW
N
395.08 463 M
395.08 39 L
S
GR
GS
[0.75 0 0 0.74971 0 0.39999] CT
0.775 GC
[1 3] 0 setdash
2 LJ
0.667 LW
N
438.52 463 M
438.52 39 L
S
GR
GS
[0.75 0 0 0.74971 0 0.39999] CT
0.775 GC
[1 3] 0 setdash
2 LJ
0.667 LW
N
460.24 463 M
460.24 39 L
S
GR
GS
[0.75 0 0 0.74971 0 0.39999] CT
0.775 GC
[1 3] 0 setdash
2 LJ
0.667 LW
N
481.96 463 M
481.96 39 L
S
GR
GS
[0.75 0 0 0.74971 0 0.39999] CT
0.775 GC
[1 3] 0 setdash
2 LJ
0.667 LW
N
503.68 463 M
503.68 39 L
S
GR
GS
[0.75 0 0 0.74971 0 0.39999] CT
0.775 GC
[1 3] 0 setdash
2 LJ
0.667 LW
N
547.12 463 M
547.12 39 L
S
GR
GS
[0.75 0 0 0.74971 0 0.39999] CT
0.775 GC
[1 3] 0 setdash
2 LJ
0.667 LW
N
568.84 463 M
568.84 39 L
S
GR
GS
[0.75 0 0 0.74971 0 0.39999] CT
0.775 GC
[1 3] 0 setdash
2 LJ
0.667 LW
N
590.56 463 M
590.56 39 L
S
GR
GS
[0.75 0 0 0.74971 0 0.39999] CT
0.775 GC
[1 3] 0 setdash
2 LJ
0.667 LW
N
612.28 463 M
612.28 39 L
S
GR
GS
[0.75 0 0 0.74971 0 0.39999] CT
0.873 GC
[1 3] 0 setdash
2 LJ
0.667 LW
N
91 463 M
91 39 L
S
GR
GS
[0.75 0 0 0.74971 0 0.39999] CT
0.873 GC
[1 3] 0 setdash
2 LJ
0.667 LW
N
199.6 463 M
199.6 39 L
S
GR
GS
[0.75 0 0 0.74971 0 0.39999] CT
0.873 GC
[1 3] 0 setdash
2 LJ
0.667 LW
N
308.2 463 M
308.2 39 L
S
GR
GS
[0.75 0 0 0.74971 0 0.39999] CT
0.873 GC
[1 3] 0 setdash
2 LJ
0.667 LW
N
416.8 463 M
416.8 39 L
S
GR
GS
[0.75 0 0 0.74971 0 0.39999] CT
0.873 GC
[1 3] 0 setdash
2 LJ
0.667 LW
N
525.4 463 M
525.4 39 L
S
GR
GS
[0.75 0 0 0.74971 0 0.39999] CT
0.873 GC
[1 3] 0 setdash
2 LJ
0.667 LW
N
634 463 M
634 39 L
S
GR
GS
[0.75 0 0 0.74971 0 0.39999] CT
0.775 GC
[1 3] 0 setdash
2 LJ
0.667 LW
N
634 448.867 M
91 448.867 L
S
GR
GS
[0.75 0 0 0.74971 0 0.39999] CT
0.775 GC
[1 3] 0 setdash
2 LJ
0.667 LW
N
634 434.733 M
91 434.733 L
S
GR
GS
[0.75 0 0 0.74971 0 0.39999] CT
0.775 GC
[1 3] 0 setdash
2 LJ
0.667 LW
N
634 420.6 M
91 420.6 L
S
GR
GS
[0.75 0 0 0.74971 0 0.39999] CT
0.775 GC
[1 3] 0 setdash
2 LJ
0.667 LW
N
634 406.467 M
91 406.467 L
S
GR
GS
[0.75 0 0 0.74971 0 0.39999] CT
0.775 GC
[1 3] 0 setdash
2 LJ
0.667 LW
N
634 378.2 M
91 378.2 L
S
GR
GS
[0.75 0 0 0.74971 0 0.39999] CT
0.775 GC
[1 3] 0 setdash
2 LJ
0.667 LW
N
634 364.067 M
91 364.067 L
S
GR
GS
[0.75 0 0 0.74971 0 0.39999] CT
0.775 GC
[1 3] 0 setdash
2 LJ
0.667 LW
N
634 349.933 M
91 349.933 L
S
GR
GS
[0.75 0 0 0.74971 0 0.39999] CT
0.775 GC
[1 3] 0 setdash
2 LJ
0.667 LW
N
634 335.8 M
91 335.8 L
S
GR
GS
[0.75 0 0 0.74971 0 0.39999] CT
0.775 GC
[1 3] 0 setdash
2 LJ
0.667 LW
N
634 307.533 M
91 307.533 L
S
GR
GS
[0.75 0 0 0.74971 0 0.39999] CT
0.775 GC
[1 3] 0 setdash
2 LJ
0.667 LW
N
634 293.4 M
91 293.4 L
S
GR
GS
[0.75 0 0 0.74971 0 0.39999] CT
0.775 GC
[1 3] 0 setdash
2 LJ
0.667 LW
N
634 279.267 M
91 279.267 L
S
GR
GS
[0.75 0 0 0.74971 0 0.39999] CT
0.775 GC
[1 3] 0 setdash
2 LJ
0.667 LW
N
634 265.133 M
91 265.133 L
S
GR
GS
[0.75 0 0 0.74971 0 0.39999] CT
0.775 GC
[1 3] 0 setdash
2 LJ
0.667 LW
N
634 236.867 M
91 236.867 L
S
GR
GS
[0.75 0 0 0.74971 0 0.39999] CT
0.775 GC
[1 3] 0 setdash
2 LJ
0.667 LW
N
634 222.733 M
91 222.733 L
S
GR
GS
[0.75 0 0 0.74971 0 0.39999] CT
0.775 GC
[1 3] 0 setdash
2 LJ
0.667 LW
N
634 208.6 M
91 208.6 L
S
GR
GS
[0.75 0 0 0.74971 0 0.39999] CT
0.775 GC
[1 3] 0 setdash
2 LJ
0.667 LW
N
634 194.467 M
91 194.467 L
S
GR
GS
[0.75 0 0 0.74971 0 0.39999] CT
0.775 GC
[1 3] 0 setdash
2 LJ
0.667 LW
N
634 166.2 M
91 166.2 L
S
GR
GS
[0.75 0 0 0.74971 0 0.39999] CT
0.775 GC
[1 3] 0 setdash
2 LJ
0.667 LW
N
634 152.067 M
91 152.067 L
S
GR
GS
[0.75 0 0 0.74971 0 0.39999] CT
0.775 GC
[1 3] 0 setdash
2 LJ
0.667 LW
N
634 137.933 M
91 137.933 L
S
GR
GS
[0.75 0 0 0.74971 0 0.39999] CT
0.775 GC
[1 3] 0 setdash
2 LJ
0.667 LW
N
634 123.8 M
91 123.8 L
S
GR
GS
[0.75 0 0 0.74971 0 0.39999] CT
0.775 GC
[1 3] 0 setdash
2 LJ
0.667 LW
N
634 95.533 M
91 95.533 L
S
GR
GS
[0.75 0 0 0.74971 0 0.39999] CT
0.775 GC
[1 3] 0 setdash
2 LJ
0.667 LW
N
634 81.4 M
91 81.4 L
S
GR
GS
[0.75 0 0 0.74971 0 0.39999] CT
0.775 GC
[1 3] 0 setdash
2 LJ
0.667 LW
N
634 67.267 M
91 67.267 L
S
GR
GS
[0.75 0 0 0.74971 0 0.39999] CT
0.775 GC
[1 3] 0 setdash
2 LJ
0.667 LW
N
634 53.133 M
91 53.133 L
S
GR
GS
[0.75 0 0 0.74971 0 0.39999] CT
0.873 GC
[1 3] 0 setdash
2 LJ
0.667 LW
N
634 463 M
91 463 L
S
GR
GS
[0.75 0 0 0.74971 0 0.39999] CT
0.873 GC
[1 3] 0 setdash
2 LJ
0.667 LW
N
634 392.333 M
91 392.333 L
S
GR
GS
[0.75 0 0 0.74971 0 0.39999] CT
0.873 GC
[1 3] 0 setdash
2 LJ
0.667 LW
N
634 321.667 M
91 321.667 L
S
GR
GS
[0.75 0 0 0.74971 0 0.39999] CT
0.873 GC
[1 3] 0 setdash
2 LJ
0.667 LW
N
634 251 M
91 251 L
S
GR
GS
[0.75 0 0 0.74971 0 0.39999] CT
0.873 GC
[1 3] 0 setdash
2 LJ
0.667 LW
N
634 180.333 M
91 180.333 L
S
GR
GS
[0.75 0 0 0.74971 0 0.39999] CT
0.873 GC
[1 3] 0 setdash
2 LJ
0.667 LW
N
634 109.667 M
91 109.667 L
S
GR
GS
[0.75 0 0 0.74971 0 0.39999] CT
0.873 GC
[1 3] 0 setdash
2 LJ
0.667 LW
N
634 39 M
91 39 L
S
GR
GS
[0.75 0 0 0.74971 0 0.39999] CT
0.149 GC
2 setlinecap
1 LJ
0.667 LW
N
91 463 M
634 463 L
S
GR
GS
[0.75 0 0 0.74971 0 0.39999] CT
0.149 GC
2 setlinecap
1 LJ
0.667 LW
N
91 463 M
91 457.57 L
S
GR
GS
[0.75 0 0 0.74971 0 0.39999] CT
0.149 GC
2 setlinecap
1 LJ
0.667 LW
N
199.6 463 M
199.6 457.57 L
S
GR
GS
[0.75 0 0 0.74971 0 0.39999] CT
0.149 GC
2 setlinecap
1 LJ
0.667 LW
N
308.2 463 M
308.2 457.57 L
S
GR
GS
[0.75 0 0 0.74971 0 0.39999] CT
0.149 GC
2 setlinecap
1 LJ
0.667 LW
N
416.8 463 M
416.8 457.57 L
S
GR
GS
[0.75 0 0 0.74971 0 0.39999] CT
0.149 GC
2 setlinecap
1 LJ
0.667 LW
N
525.4 463 M
525.4 457.57 L
S
GR
GS
[0.75 0 0 0.74971 0 0.39999] CT
0.149 GC
2 setlinecap
1 LJ
0.667 LW
N
634 463 M
634 457.57 L
S
GR
GS
[0.75 0 0 0.74971 68.25 352.5158] CT
0.149 GC
/Helvetica 20 F
GS
[1 0 0 1 0 0] CT
-6 21 moveto 
1 -1 scale
(1) t 
GR
GR
GS
[0.75 0 0 0.74971 149.7 352.5158] CT
0.149 GC
/Helvetica 20 F
GS
[1 0 0 1 0 0] CT
-6 21 moveto 
1 -1 scale
(2) t 
GR
GR
GS
[0.75 0 0 0.74971 231.15001 352.5158] CT
0.149 GC
/Helvetica 20 F
GS
[1 0 0 1 0 0] CT
-6 21 moveto 
1 -1 scale
(3) t 
GR
GR
GS
[0.75 0 0 0.74971 312.59999 352.5158] CT
0.149 GC
/Helvetica 20 F
GS
[1 0 0 1 0 0] CT
-6 21 moveto 
1 -1 scale
(4) t 
GR
GR
GS
[0.75 0 0 0.74971 394.05002 352.5158] CT
0.149 GC
/Helvetica 20 F
GS
[1 0 0 1 0 0] CT
-6 21 moveto 
1 -1 scale
(5) t 
GR
GR
GS
[0.75 0 0 0.74971 475.5 352.5158] CT
0.149 GC
/Helvetica 20 F
GS
[1 0 0 1 0 0] CT
-6 21 moveto 
1 -1 scale
(6) t 
GR
GR
GS
[0.75 0 0 0.74971 271.87518 373.008] CT
0.149 GC
/Helvetica 22 F
GS
[1 0 0 1 0 0] CT
-24 23 moveto 
1 -1 scale
(state) t 
GR
GR
GS
[0.75 0 0 0.74971 0 0.39999] CT
0.149 GC
2 setlinecap
1 LJ
0.667 LW
N
91 463 M
91 39 L
S
GR
GS
[0.75 0 0 0.74971 0 0.39999] CT
0.149 GC
2 setlinecap
1 LJ
0.667 LW
N
91 463 M
96.43 463 L
S
GR
GS
[0.75 0 0 0.74971 0 0.39999] CT
0.149 GC
2 setlinecap
1 LJ
0.667 LW
N
91 392.333 M
96.43 392.333 L
S
GR
GS
[0.75 0 0 0.74971 0 0.39999] CT
0.149 GC
2 setlinecap
1 LJ
0.667 LW
N
91 321.667 M
96.43 321.667 L
S
GR
GS
[0.75 0 0 0.74971 0 0.39999] CT
0.149 GC
2 setlinecap
1 LJ
0.667 LW
N
91 251 M
96.43 251 L
S
GR
GS
[0.75 0 0 0.74971 0 0.39999] CT
0.149 GC
2 setlinecap
1 LJ
0.667 LW
N
91 180.333 M
96.43 180.333 L
S
GR
GS
[0.75 0 0 0.74971 0 0.39999] CT
0.149 GC
2 setlinecap
1 LJ
0.667 LW
N
91 109.667 M
96.43 109.667 L
S
GR
GS
[0.75 0 0 0.74971 0 0.39999] CT
0.149 GC
2 setlinecap
1 LJ
0.667 LW
N
91 39 M
96.43 39 L
S
GR
GS
[0.75 0 0 0.74971 63.25 347.51771] CT
0.149 GC
/Helvetica 20 F
GS
[1 0 0 1 0 0] CT
-12 8 moveto 
1 -1 scale
(0) t 
GR
GR
GS
[0.75 0 0 0.74971 63.25 294.53791] CT
0.149 GC
/Helvetica 20 F
GS
[1 0 0 1 0 0] CT
-12 8 moveto 
1 -1 scale
(1) t 
GR
GR
GS
[0.75 0 0 0.74971 63.25 241.55809] CT
0.149 GC
/Helvetica 20 F
GS
[1 0 0 1 0 0] CT
-12 8 moveto 
1 -1 scale
(2) t 
GR
GR
GS
[0.75 0 0 0.74971 63.25 188.57828] CT
0.149 GC
/Helvetica 20 F
GS
[1 0 0 1 0 0] CT
-12 8 moveto 
1 -1 scale
(3) t 
GR
GR
GS
[0.75 0 0 0.74971 63.25 135.59847] CT
0.149 GC
/Helvetica 20 F
GS
[1 0 0 1 0 0] CT
-12 8 moveto 
1 -1 scale
(4) t 
GR
GR
GS
[0.75 0 0 0.74971 63.25 82.61866] CT
0.149 GC
/Helvetica 20 F
GS
[1 0 0 1 0 0] CT
-12 8 moveto 
1 -1 scale
(5) t 
GR
GR
GS
[0.75 0 0 0.74971 63.25 29.63885] CT
0.149 GC
/Helvetica 20 F
GS
[1 0 0 1 0 0] CT
-12 8 moveto 
1 -1 scale
(6) t 
GR
GR
GS
[0 -0.74971 0.75 0 51.25 188.57813] CT
0.149 GC
/Helvetica 22 F
GS
[1 0 0 1 0 0] CT
-9 -5 moveto 
1 -1 scale
(Q) t 
GR
GR
GS
[0.75 0 0 0.74971 0 0.39999] CT
1 GC
N
191 103 M
191 52 L
104 52 L
104 103 L
cp
f
GR
GS
[0.75 0 0 0.74971 113.25 49.60649] CT
/Helvetica 18 F
GS
[1 0 0 1 0 0] CT
0 7.5 moveto 
1 -1 scale
(left) t 
GR
GR
GS
[0.75 0 0 0.74971 0 0.39999] CT
0 0.447 0.741 RC
1 LJ
2.667 LW
N
108 65.634 M
148 65.634 L
S
GR
GS
[0.75 0 0 0.74971 113.25 67.39921] CT
/Helvetica 18 F
GS
[1 0 0 1 0 0] CT
0 7.5 moveto 
1 -1 scale
(right) t 
GR
GR
GS
[0.75 0 0 0.74971 0 0.39999] CT
0.851 0.325 0.098 RC
1 LJ
2.667 LW
N
108 89.366 M
148 89.366 L
S
GR
GS
[0.75 0 0 0.74971 0 0.39999] CT
0.149 GC
10.0 ML
0.667 LW
N
104 103 M
104 52 L
191 52 L
191 103 L
cp
S
GR
%%Trailer
%%Pages: 1
%%EOF
