%!PS-Adobe-3.0 EPSF-3.0
%%Creator: (MATLAB, The Mathworks, Inc. Version 9.3.0.713579 \(R2017b\). Operating System: Windows 7)
%%Title: fig/RBFN_Q_600_1.eps
%%CreationDate: 2018-05-06T11:04:22
%%Pages: (atend)
%%BoundingBox:    40    13   384   297
%%LanguageLevel: 3
%%EndComments
%%BeginProlog
%%BeginResource: procset (Apache XML Graphics Std ProcSet) 1.2 0
%%Version: 1.2 0
%%Copyright: (Copyright 2001-2003,2010 The Apache Software Foundation. License terms: http://www.apache.org/licenses/LICENSE-2.0)
/bd{bind def}bind def
/ld{load def}bd
/GR/grestore ld
/GS/gsave ld
/RM/rmoveto ld
/C/curveto ld
/t/show ld
/L/lineto ld
/ML/setmiterlimit ld
/CT/concat ld
/f/fill ld
/N/newpath ld
/S/stroke ld
/CC/setcmykcolor ld
/A/ashow ld
/cp/closepath ld
/RC/setrgbcolor ld
/LJ/setlinejoin ld
/GC/setgray ld
/LW/setlinewidth ld
/M/moveto ld
/re {4 2 roll M
1 index 0 rlineto
0 exch rlineto
neg 0 rlineto
cp } bd
/_ctm matrix def
/_tm matrix def
/BT { _ctm currentmatrix pop matrix _tm copy pop 0 0 moveto } bd
/ET { _ctm setmatrix } bd
/iTm { _ctm setmatrix _tm concat } bd
/Tm { _tm astore pop iTm 0 0 moveto } bd
/ux 0.0 def
/uy 0.0 def
/F {
  /Tp exch def
  /Tf exch def
  Tf findfont Tp scalefont setfont
  /cf Tf def  /cs Tp def
} bd
/ULS {currentpoint /uy exch def /ux exch def} bd
/ULE {
  /Tcx currentpoint pop def
  gsave
  newpath
  cf findfont cs scalefont dup
  /FontMatrix get 0 get /Ts exch def /FontInfo get dup
  /UnderlinePosition get Ts mul /To exch def
  /UnderlineThickness get Ts mul /Tt exch def
  ux uy To add moveto  Tcx uy To add lineto
  Tt setlinewidth stroke
  grestore
} bd
/OLE {
  /Tcx currentpoint pop def
  gsave
  newpath
  cf findfont cs scalefont dup
  /FontMatrix get 0 get /Ts exch def /FontInfo get dup
  /UnderlinePosition get Ts mul /To exch def
  /UnderlineThickness get Ts mul /Tt exch def
  ux uy To add cs add moveto Tcx uy To add cs add lineto
  Tt setlinewidth stroke
  grestore
} bd
/SOE {
  /Tcx currentpoint pop def
  gsave
  newpath
  cf findfont cs scalefont dup
  /FontMatrix get 0 get /Ts exch def /FontInfo get dup
  /UnderlinePosition get Ts mul /To exch def
  /UnderlineThickness get Ts mul /Tt exch def
  ux uy To add cs 10 mul 26 idiv add moveto Tcx uy To add cs 10 mul 26 idiv add lineto
  Tt setlinewidth stroke
  grestore
} bd
/QT {
/Y22 exch store
/X22 exch store
/Y21 exch store
/X21 exch store
currentpoint
/Y21 load 2 mul add 3 div exch
/X21 load 2 mul add 3 div exch
/X21 load 2 mul /X22 load add 3 div
/Y21 load 2 mul /Y22 load add 3 div
/X22 load /Y22 load curveto
} bd
/SSPD {
dup length /d exch dict def
{
/v exch def
/k exch def
currentpagedevice k known {
/cpdv currentpagedevice k get def
v cpdv ne {
/upd false def
/nullv v type /nulltype eq def
/nullcpdv cpdv type /nulltype eq def
nullv nullcpdv or
{
/upd true def
} {
/sametype v type cpdv type eq def
sametype {
v type /arraytype eq {
/vlen v length def
/cpdvlen cpdv length def
vlen cpdvlen eq {
0 1 vlen 1 sub {
/i exch def
/obj v i get def
/cpdobj cpdv i get def
obj cpdobj ne {
/upd true def
exit
} if
} for
} {
/upd true def
} ifelse
} {
v type /dicttype eq {
v {
/dv exch def
/dk exch def
/cpddv cpdv dk get def
dv cpddv ne {
/upd true def
exit
} if
} forall
} {
/upd true def
} ifelse
} ifelse
} if
} ifelse
upd true eq {
d k v put
} if
} if
} if
} forall
d length 0 gt {
d setpagedevice
} if
} bd
/RE { % /NewFontName [NewEncodingArray] /FontName RE -
  findfont dup length dict begin
  {
    1 index /FID ne
    {def} {pop pop} ifelse
  } forall
  /Encoding exch def
  /FontName 1 index def
  currentdict definefont pop
  end
} bind def
%%EndResource
%%BeginResource: procset (Apache XML Graphics EPS ProcSet) 1.0 0
%%Version: 1.0 0
%%Copyright: (Copyright 2002-2003 The Apache Software Foundation. License terms: http://www.apache.org/licenses/LICENSE-2.0)
/BeginEPSF { %def
/b4_Inc_state save def         % Save state for cleanup
/dict_count countdictstack def % Count objects on dict stack
/op_count count 1 sub def      % Count objects on operand stack
userdict begin                 % Push userdict on dict stack
/showpage { } def              % Redefine showpage, { } = null proc
0 setgray 0 setlinecap         % Prepare graphics state
1 setlinewidth 0 setlinejoin
10 setmiterlimit [ ] 0 setdash newpath
/languagelevel where           % If level not equal to 1 then
{pop languagelevel             % set strokeadjust and
1 ne                           % overprint to their defaults.
{false setstrokeadjust false setoverprint
} if
} if
} bd
/EndEPSF { %def
count op_count sub {pop} repeat            % Clean up stacks
countdictstack dict_count sub {end} repeat
b4_Inc_state restore
} bd
%%EndResource
%FOPBeginFontDict
%%IncludeResource: font Courier-Oblique
%%IncludeResource: font Courier-BoldOblique
%%IncludeResource: font Courier-Bold
%%IncludeResource: font ZapfDingbats
%%IncludeResource: font Symbol
%%IncludeResource: font Helvetica
%%IncludeResource: font Helvetica-Oblique
%%IncludeResource: font Helvetica-Bold
%%IncludeResource: font Helvetica-BoldOblique
%%IncludeResource: font Times-Roman
%%IncludeResource: font Times-Italic
%%IncludeResource: font Times-Bold
%%IncludeResource: font Times-BoldItalic
%%IncludeResource: font Courier
%FOPEndFontDict
%%BeginResource: encoding WinAnsiEncoding
/WinAnsiEncoding [
/.notdef /.notdef /.notdef /.notdef /.notdef
/.notdef /.notdef /.notdef /.notdef /.notdef
/.notdef /.notdef /.notdef /.notdef /.notdef
/.notdef /.notdef /.notdef /.notdef /.notdef
/.notdef /.notdef /.notdef /.notdef /.notdef
/.notdef /.notdef /.notdef /.notdef /.notdef
/.notdef /.notdef /space /exclam /quotedbl
/numbersign /dollar /percent /ampersand /quotesingle
/parenleft /parenright /asterisk /plus /comma
/hyphen /period /slash /zero /one
/two /three /four /five /six
/seven /eight /nine /colon /semicolon
/less /equal /greater /question /at
/A /B /C /D /E
/F /G /H /I /J
/K /L /M /N /O
/P /Q /R /S /T
/U /V /W /X /Y
/Z /bracketleft /backslash /bracketright /asciicircum
/underscore /quoteleft /a /b /c
/d /e /f /g /h
/i /j /k /l /m
/n /o /p /q /r
/s /t /u /v /w
/x /y /z /braceleft /bar
/braceright /asciitilde /bullet /Euro /bullet
/quotesinglbase /florin /quotedblbase /ellipsis /dagger
/daggerdbl /circumflex /perthousand /Scaron /guilsinglleft
/OE /bullet /Zcaron /bullet /bullet
/quoteleft /quoteright /quotedblleft /quotedblright /bullet
/endash /emdash /asciitilde /trademark /scaron
/guilsinglright /oe /bullet /zcaron /Ydieresis
/space /exclamdown /cent /sterling /currency
/yen /brokenbar /section /dieresis /copyright
/ordfeminine /guillemotleft /logicalnot /sfthyphen /registered
/macron /degree /plusminus /twosuperior /threesuperior
/acute /mu /paragraph /middot /cedilla
/onesuperior /ordmasculine /guillemotright /onequarter /onehalf
/threequarters /questiondown /Agrave /Aacute /Acircumflex
/Atilde /Adieresis /Aring /AE /Ccedilla
/Egrave /Eacute /Ecircumflex /Edieresis /Igrave
/Iacute /Icircumflex /Idieresis /Eth /Ntilde
/Ograve /Oacute /Ocircumflex /Otilde /Odieresis
/multiply /Oslash /Ugrave /Uacute /Ucircumflex
/Udieresis /Yacute /Thorn /germandbls /agrave
/aacute /acircumflex /atilde /adieresis /aring
/ae /ccedilla /egrave /eacute /ecircumflex
/edieresis /igrave /iacute /icircumflex /idieresis
/eth /ntilde /ograve /oacute /ocircumflex
/otilde /odieresis /divide /oslash /ugrave
/uacute /ucircumflex /udieresis /yacute /thorn
/ydieresis
] def
%%EndResource
%FOPBeginFontReencode
/Courier-Oblique findfont
dup length dict begin
  {1 index /FID ne {def} {pop pop} ifelse} forall
  /Encoding WinAnsiEncoding def
  currentdict
end
/Courier-Oblique exch definefont pop
/Courier-BoldOblique findfont
dup length dict begin
  {1 index /FID ne {def} {pop pop} ifelse} forall
  /Encoding WinAnsiEncoding def
  currentdict
end
/Courier-BoldOblique exch definefont pop
/Courier-Bold findfont
dup length dict begin
  {1 index /FID ne {def} {pop pop} ifelse} forall
  /Encoding WinAnsiEncoding def
  currentdict
end
/Courier-Bold exch definefont pop
/Helvetica findfont
dup length dict begin
  {1 index /FID ne {def} {pop pop} ifelse} forall
  /Encoding WinAnsiEncoding def
  currentdict
end
/Helvetica exch definefont pop
/Helvetica-Oblique findfont
dup length dict begin
  {1 index /FID ne {def} {pop pop} ifelse} forall
  /Encoding WinAnsiEncoding def
  currentdict
end
/Helvetica-Oblique exch definefont pop
/Helvetica-Bold findfont
dup length dict begin
  {1 index /FID ne {def} {pop pop} ifelse} forall
  /Encoding WinAnsiEncoding def
  currentdict
end
/Helvetica-Bold exch definefont pop
/Helvetica-BoldOblique findfont
dup length dict begin
  {1 index /FID ne {def} {pop pop} ifelse} forall
  /Encoding WinAnsiEncoding def
  currentdict
end
/Helvetica-BoldOblique exch definefont pop
/Times-Roman findfont
dup length dict begin
  {1 index /FID ne {def} {pop pop} ifelse} forall
  /Encoding WinAnsiEncoding def
  currentdict
end
/Times-Roman exch definefont pop
/Times-Italic findfont
dup length dict begin
  {1 index /FID ne {def} {pop pop} ifelse} forall
  /Encoding WinAnsiEncoding def
  currentdict
end
/Times-Italic exch definefont pop
/Times-Bold findfont
dup length dict begin
  {1 index /FID ne {def} {pop pop} ifelse} forall
  /Encoding WinAnsiEncoding def
  currentdict
end
/Times-Bold exch definefont pop
/Times-BoldItalic findfont
dup length dict begin
  {1 index /FID ne {def} {pop pop} ifelse} forall
  /Encoding WinAnsiEncoding def
  currentdict
end
/Times-BoldItalic exch definefont pop
/Courier findfont
dup length dict begin
  {1 index /FID ne {def} {pop pop} ifelse} forall
  /Encoding WinAnsiEncoding def
  currentdict
end
/Courier exch definefont pop
%FOPEndFontReencode
%%EndProlog
%%Page: 1 1
%%PageBoundingBox: 0 0 420 315
%%BeginPageSetup
[1 0 0 -1 0 315] CT
%%EndPageSetup
GS
[0.75 0 0 0.75 0 0] CT
1 GC
N
0 0 560 420 re
f
GR
GS
[0.75 0 0 0.75 0 0] CT
1 GC
N
0 0 560 420 re
f
GR
GS
[0.75 0 0 0.75 0 0] CT
1 GC
N
73 374 M
507 374 L
507 31 L
73 31 L
cp
f
GR
GS
[0.75 0 0 0.75 0 0] CT
0.149 GC
1 LJ
0.667 LW
N
73 374 M
507 374 L
S
GR
GS
[0.75 0 0 0.75 0 0] CT
0.902 0.945 0.973 RC
N
72.948 353.556 M
72.948 374 L
73 374 L
cp
74.736 374 M
75.604 374 L
76.472 374 L
77.34 374 L
78.208 374 L
77.34 31 L
76.472 31 L
75.604 31 L
cp
79.944 374 M
80.812 374 L
81.68 374 L
82.548 374 L
83.416 374 L
82.548 31 L
81.68 31 L
80.812 31 L
cp
84.284 374 M
85.152 374 L
86.02 374 L
86.888 374 L
87.756 374 L
86.888 31 L
86.02 31 L
85.152 31 L
cp
89.492 374 M
90.36 374 L
91.228 374 L
92.096 374 L
92.964 374 L
92.096 31 L
91.228 31 L
90.36 31 L
cp
93.832 374 M
94.7 374 L
95.568 374 L
96.436 374 L
97.304 374 L
96.436 31 L
95.568 31 L
94.7 31 L
cp
99.04 374 M
99.908 374 L
100.776 374 L
101.644 374 L
100.776 31 L
99.908 31 L
cp
103.38 374 M
104.248 374 L
105.116 374 L
105.984 374 L
105.116 31 L
104.248 31 L
cp
107.72 374 M
108.588 374 L
109.456 374 L
110.324 374 L
109.456 31 L
108.588 31 L
cp
111.192 374 M
112.06 374 L
112.928 374 L
113.796 374 L
112.928 31 L
112.06 31 L
cp
114.664 374 M
115.532 374 L
116.4 374 L
117.268 374 L
118.136 374 L
119.004 374 L
119.872 374 L
120.74 374 L
121.608 374 L
122.476 374 L
123.344 374 L
124.212 374 L
125.08 374 L
125.948 374 L
126.816 374 L
127.684 374 L
128.552 374 L
129.42 374 L
130.288 374 L
131.156 374 L
132.024 374 L
132.892 374 L
133.76 374 L
134.628 374 L
135.496 374 L
136.364 374 L
137.232 374 L
138.1 374 L
138.968 374 L
139.836 374 L
140.704 374 L
141.572 374 L
142.44 374 L
143.308 374 L
144.176 374 L
145.044 374 L
145.912 374 L
146.78 374 L
147.648 374 L
148.516 374 L
149.384 374 L
150.252 374 L
151.12 374 L
151.988 374 L
152.856 374 L
153.724 374 L
154.592 374 L
155.46 374 L
156.328 374 L
157.196 374 L
158.064 374 L
158.932 374 L
159.8 374 L
160.668 374 L
161.536 374 L
162.404 374 L
163.272 374 L
164.14 374 L
165.008 374 L
165.876 374 L
166.744 374 L
167.612 374 L
168.48 374 L
169.348 374 L
170.216 374 L
171.084 374 L
171.952 374 L
172.82 374 L
173.688 374 L
174.556 374 L
175.424 374 L
176.292 374 L
177.16 374 L
178.028 374 L
178.896 374 L
179.764 374 L
180.632 374 L
181.5 374 L
182.368 374 L
183.236 374 L
184.104 374 L
184.972 374 L
185.84 374 L
186.708 374 L
187.576 374 L
188.444 374 L
189.312 374 L
190.18 374 L
191.048 374 L
191.916 374 L
192.784 374 L
193.652 374 L
194.52 374 L
195.388 374 L
196.256 374 L
197.124 374 L
197.992 374 L
198.86 374 L
197.992 31 L
197.124 31 L
196.256 31 L
195.388 31 L
194.52 31 L
193.652 31 L
192.784 31 L
191.916 31 L
191.048 31 L
190.18 31 L
189.312 31 L
188.444 31 L
187.576 31 L
186.708 31 L
185.84 31 L
184.972 31 L
184.104 31 L
183.236 31 L
182.368 31 L
181.5 31 L
180.632 31 L
179.764 31 L
178.896 31 L
178.028 31 L
177.16 31 L
176.292 31 L
175.424 31 L
174.556 31 L
173.688 31 L
172.82 31 L
171.952 31 L
171.084 31 L
170.216 31 L
169.348 31 L
168.48 31 L
167.612 31 L
166.744 31 L
165.876 31 L
165.008 31 L
164.14 31 L
163.272 31 L
162.404 31 L
161.536 31 L
160.668 31 L
159.8 31 L
158.932 31 L
158.064 31 L
157.196 31 L
156.328 31 L
155.46 31 L
154.592 31 L
153.724 31 L
152.856 31 L
151.988 31 L
151.12 31 L
150.252 31 L
149.384 31 L
148.516 31 L
147.648 31 L
146.78 31 L
145.912 31 L
145.044 31 L
144.176 31 L
143.308 31 L
142.44 31 L
141.572 31 L
140.704 31 L
139.836 31 L
138.968 31 L
138.1 31 L
137.232 31 L
136.364 31 L
135.496 31 L
134.628 31 L
133.76 31 L
132.892 31 L
132.024 31 L
131.156 31 L
130.288 31 L
129.42 31 L
128.552 31 L
127.684 31 L
126.816 31 L
125.948 31 L
125.08 31 L
124.212 31 L
123.344 31 L
122.476 31 L
121.608 31 L
120.74 31 L
119.872 31 L
119.004 31 L
118.136 31 L
117.268 31 L
116.4 31 L
115.532 31 L
cp
464.468 374 M
465.336 374 L
466.204 374 L
467.072 374 L
466.204 31 L
465.336 31 L
cp
467.94 374 M
468.808 374 L
469.676 374 L
470.544 374 L
469.676 31 L
468.808 31 L
cp
471.412 374 M
472.28 374 L
473.148 374 L
474.016 374 L
473.148 31 L
472.28 31 L
cp
475.752 374 M
476.62 374 L
477.488 374 L
478.356 374 L
477.488 31 L
476.62 31 L
cp
480.092 374 M
480.96 374 L
481.828 374 L
482.696 374 L
483.564 374 L
482.696 31 L
481.828 31 L
480.96 31 L
cp
484.432 374 M
485.3 374 L
486.168 374 L
487.036 374 L
487.904 374 L
487.036 31 L
486.168 31 L
485.3 31 L
cp
489.64 374 M
490.508 374 L
491.376 374 L
492.244 374 L
493.112 374 L
492.244 31 L
491.376 31 L
490.508 31 L
cp
494.848 374 M
495.716 374 L
496.584 374 L
497.452 374 L
496.584 31 L
495.716 31 L
cp
499.188 374 M
500.056 374 L
500.924 374 L
501.792 374 L
502.66 374 L
501.792 31 L
500.924 31 L
500.056 31 L
cp
503.528 374 M
504.396 374 L
505.264 374 L
506.132 374 L
507 374 L
506.132 31 L
505.264 31 L
504.396 31 L
cp
f
GR
GS
[0.75 0 0 0.75 0 0] CT
0.902 0.945 0.973 RC
1 LJ
0.667 LW
N
72.948 374 M
73 374 L
73.868 374 L
74.736 374 L
75.604 374 L
76.472 374 L
77.34 374 L
78.208 374 L
79.076 374 L
79.944 374 L
80.812 374 L
81.68 374 L
82.548 374 L
83.416 374 L
84.284 374 L
85.152 374 L
86.02 374 L
86.888 374 L
87.756 374 L
88.624 374 L
89.492 374 L
90.36 374 L
91.228 374 L
92.096 374 L
92.964 374 L
93.832 374 L
94.7 374 L
95.568 374 L
96.436 374 L
97.304 374 L
98.172 374 L
99.04 374 L
99.908 374 L
100.776 374 L
101.644 374 L
102.512 374 L
103.38 374 L
104.248 374 L
105.116 374 L
105.984 374 L
106.852 374 L
107.72 374 L
108.588 374 L
109.456 374 L
110.324 374 L
111.192 374 L
112.06 374 L
112.928 374 L
113.796 374 L
114.664 374 L
115.532 374 L
116.4 374 L
117.268 374 L
118.136 374 L
119.004 374 L
119.872 374 L
120.74 374 L
121.608 374 L
122.476 374 L
123.344 374 L
124.212 374 L
125.08 374 L
125.948 374 L
126.816 374 L
127.684 374 L
128.552 374 L
129.42 374 L
130.288 374 L
131.156 374 L
132.024 374 L
132.892 374 L
133.76 374 L
134.628 374 L
135.496 374 L
136.364 374 L
137.232 374 L
138.1 374 L
138.968 374 L
139.836 374 L
140.704 374 L
141.572 374 L
142.44 374 L
143.308 374 L
144.176 374 L
145.044 374 L
145.912 374 L
146.78 374 L
147.648 374 L
148.516 374 L
149.384 374 L
150.252 374 L
151.12 374 L
151.988 374 L
152.856 374 L
153.724 374 L
154.592 374 L
155.46 374 L
156.328 374 L
157.196 374 L
158.064 374 L
158.932 374 L
159.8 374 L
160.668 374 L
161.536 374 L
162.404 374 L
163.272 374 L
164.14 374 L
165.008 374 L
165.876 374 L
166.744 374 L
167.612 374 L
168.48 374 L
169.348 374 L
170.216 374 L
171.084 374 L
171.952 374 L
172.82 374 L
173.688 374 L
174.556 374 L
175.424 374 L
176.292 374 L
177.16 374 L
178.028 374 L
178.896 374 L
179.764 374 L
180.632 374 L
181.5 374 L
182.368 374 L
183.236 374 L
184.104 374 L
184.972 374 L
185.84 374 L
186.708 374 L
187.576 374 L
188.444 374 L
189.312 374 L
190.18 374 L
191.048 374 L
191.916 374 L
192.784 374 L
193.652 374 L
194.52 374 L
195.388 374 L
196.256 374 L
197.124 374 L
197.992 374 L
198.86 374 L
199.728 374 L
200.596 374 L
201.464 374 L
202.332 374 L
203.2 374 L
204.068 374 L
204.936 374 L
205.804 374 L
206.672 374 L
207.54 374 L
208.408 374 L
209.276 374 L
210.144 374 L
211.012 374 L
211.88 374 L
212.748 374 L
213.616 374 L
214.484 374 L
215.352 374 L
216.22 374 L
217.088 374 L
217.956 374 L
218.824 374 L
219.692 374 L
220.56 374 L
221.428 374 L
222.296 374 L
223.164 374 L
224.032 374 L
224.9 374 L
225.768 374 L
226.636 374 L
227.504 374 L
228.372 374 L
229.24 374 L
230.108 374 L
230.976 374 L
231.844 374 L
232.712 374 L
233.58 374 L
234.448 374 L
235.316 374 L
236.184 374 L
237.052 374 L
237.92 374 L
238.788 374 L
239.656 374 L
240.524 374 L
241.392 374 L
242.26 374 L
243.128 374 L
243.996 374 L
244.864 374 L
245.732 374 L
246.6 374 L
247.468 374 L
248.336 374 L
249.204 374 L
250.072 374 L
250.94 374 L
251.808 374 L
252.676 374 L
253.544 374 L
254.412 374 L
255.28 374 L
256.148 374 L
257.016 374 L
257.884 374 L
258.752 374 L
259.62 374 L
260.488 374 L
261.356 374 L
262.224 374 L
263.092 374 L
263.96 374 L
264.828 374 L
265.696 374 L
266.564 374 L
267.432 374 L
268.3 374 L
269.168 374 L
270.036 374 L
270.904 374 L
271.772 374 L
272.64 374 L
273.508 374 L
274.376 374 L
275.244 374 L
276.112 374 L
276.98 374 L
277.848 374 L
278.716 374 L
279.584 374 L
280.452 374 L
281.32 374 L
282.188 374 L
283.056 374 L
283.924 374 L
284.792 374 L
285.66 374 L
286.528 374 L
287.396 374 L
288.264 374 L
289.132 374 L
290 374 L
290.868 374 L
291.736 374 L
292.604 374 L
293.472 374 L
294.34 374 L
295.208 374 L
296.076 374 L
296.944 374 L
297.812 374 L
298.68 374 L
299.548 374 L
300.416 374 L
301.284 374 L
302.152 374 L
303.02 374 L
303.888 374 L
304.756 374 L
305.624 374 L
306.492 374 L
307.36 374 L
308.228 374 L
309.096 374 L
309.964 374 L
310.832 374 L
311.7 374 L
312.568 374 L
313.436 374 L
314.304 374 L
315.172 374 L
316.04 374 L
316.908 374 L
317.776 374 L
318.644 374 L
319.512 374 L
320.38 374 L
321.248 374 L
322.116 374 L
322.984 374 L
323.852 374 L
324.72 374 L
325.588 374 L
326.456 374 L
327.324 374 L
328.192 374 L
329.06 374 L
329.928 374 L
330.796 374 L
331.664 374 L
332.532 374 L
333.4 374 L
334.268 374 L
335.136 374 L
336.004 374 L
336.872 374 L
337.74 374 L
338.608 374 L
339.476 374 L
340.344 374 L
341.212 374 L
342.08 374 L
342.948 374 L
343.816 374 L
344.684 374 L
345.552 374 L
346.42 374 L
347.288 374 L
348.156 374 L
349.024 374 L
349.892 374 L
350.76 374 L
351.628 374 L
352.496 374 L
353.364 374 L
354.232 374 L
355.1 374 L
355.968 374 L
356.836 374 L
357.704 374 L
358.572 374 L
359.44 374 L
360.308 374 L
361.176 374 L
362.044 374 L
362.912 374 L
363.78 374 L
364.648 374 L
365.516 374 L
366.384 374 L
367.252 374 L
368.12 374 L
368.988 374 L
369.856 374 L
370.724 374 L
371.592 374 L
372.46 374 L
373.328 374 L
374.196 374 L
375.064 374 L
375.932 374 L
376.8 374 L
377.668 374 L
378.536 374 L
379.404 374 L
380.272 374 L
381.14 374 L
382.008 374 L
382.876 374 L
383.744 374 L
384.612 374 L
385.48 374 L
386.348 374 L
387.216 374 L
388.084 374 L
388.952 374 L
389.82 374 L
390.688 374 L
391.556 374 L
392.424 374 L
393.292 374 L
394.16 374 L
395.028 374 L
395.896 374 L
396.764 374 L
397.632 374 L
398.5 374 L
399.368 374 L
400.236 374 L
401.104 374 L
401.972 374 L
402.84 374 L
403.708 374 L
404.576 374 L
405.444 374 L
406.312 374 L
407.18 374 L
408.048 374 L
408.916 374 L
409.784 374 L
410.652 374 L
411.52 374 L
412.388 374 L
413.256 374 L
414.124 374 L
414.992 374 L
415.86 374 L
416.728 374 L
417.596 374 L
418.464 374 L
419.332 374 L
420.2 374 L
421.068 374 L
421.936 374 L
422.804 374 L
423.672 374 L
424.54 374 L
425.408 374 L
426.276 374 L
427.144 374 L
428.012 374 L
428.88 374 L
429.748 374 L
430.616 374 L
431.484 374 L
432.352 374 L
433.22 374 L
434.088 374 L
434.956 374 L
435.824 374 L
436.692 374 L
437.56 374 L
438.428 374 L
439.296 374 L
440.164 374 L
441.032 374 L
441.9 374 L
442.768 374 L
443.636 374 L
444.504 374 L
445.372 374 L
446.24 374 L
447.108 374 L
447.976 374 L
448.844 374 L
449.712 374 L
450.58 374 L
451.448 374 L
452.316 374 L
453.184 374 L
454.052 374 L
454.92 374 L
455.788 374 L
456.656 374 L
457.524 374 L
458.392 374 L
459.26 374 L
460.128 374 L
460.996 374 L
461.864 374 L
462.732 374 L
463.6 374 L
464.468 374 L
465.336 374 L
466.204 374 L
467.072 374 L
467.94 374 L
468.808 374 L
469.676 374 L
470.544 374 L
471.412 374 L
472.28 374 L
473.148 374 L
474.016 374 L
474.884 374 L
475.752 374 L
476.62 374 L
477.488 374 L
478.356 374 L
479.224 374 L
480.092 374 L
480.96 374 L
481.828 374 L
482.696 374 L
483.564 374 L
484.432 374 L
485.3 374 L
486.168 374 L
487.036 374 L
487.904 374 L
488.772 374 L
489.64 374 L
490.508 374 L
491.376 374 L
492.244 374 L
493.112 374 L
493.98 374 L
494.848 374 L
495.716 374 L
496.584 374 L
497.452 374 L
498.32 374 L
499.188 374 L
500.056 374 L
500.924 374 L
501.792 374 L
502.66 374 L
503.528 374 L
504.396 374 L
505.264 374 L
506.132 374 L
507 374 L
507.052 374 L
S
GR
GS
[0.75 0 0 0.75 0 0] CT
0.902 0.945 0.973 RC
1 LJ
0.667 LW
N
507.052 374 M
507 374 L
506.132 31 L
505.264 31 L
504.396 31 L
503.528 374 L
502.66 374 L
501.792 31 L
500.924 31 L
500.056 31 L
499.188 374 L
498.32 374 L
497.452 374 L
496.584 31 L
495.716 31 L
494.848 374 L
493.98 374 L
493.112 374 L
492.244 31 L
491.376 31 L
490.508 31 L
489.64 374 L
488.772 374 L
487.904 374 L
487.036 31 L
486.168 31 L
485.3 31 L
484.432 374 L
483.564 374 L
482.696 31 L
481.828 31 L
480.96 31 L
480.092 374 L
479.224 374 L
478.356 374 L
477.488 31 L
476.62 31 L
475.752 374 L
474.884 374 L
474.016 374 L
473.148 31 L
472.28 31 L
471.412 374 L
470.544 374 L
469.676 31 L
468.808 31 L
467.94 374 L
467.072 374 L
466.204 31 L
465.336 31 L
464.468 374 L
463.6 374 L
462.732 374 L
461.864 374 L
460.996 374 L
460.128 374 L
459.26 374 L
458.392 374 L
457.524 374 L
456.656 374 L
455.788 374 L
454.92 374 L
454.052 374 L
453.184 374 L
452.316 374 L
451.448 374 L
450.58 374 L
449.712 374 L
448.844 374 L
447.976 374 L
447.108 374 L
446.24 374 L
445.372 374 L
444.504 374 L
443.636 374 L
442.768 374 L
441.9 374 L
441.032 374 L
440.164 374 L
439.296 374 L
438.428 374 L
437.56 374 L
436.692 374 L
435.824 374 L
434.956 374 L
434.088 374 L
433.22 374 L
432.352 374 L
431.484 374 L
430.616 374 L
429.748 374 L
428.88 374 L
428.012 374 L
427.144 374 L
426.276 374 L
425.408 374 L
424.54 374 L
423.672 374 L
422.804 374 L
421.936 374 L
421.068 374 L
420.2 374 L
419.332 374 L
418.464 374 L
417.596 374 L
416.728 374 L
415.86 374 L
414.992 374 L
414.124 374 L
413.256 374 L
412.388 374 L
411.52 374 L
410.652 374 L
409.784 374 L
408.916 374 L
408.048 374 L
407.18 374 L
406.312 374 L
405.444 374 L
404.576 374 L
403.708 374 L
402.84 374 L
401.972 374 L
401.104 374 L
400.236 374 L
399.368 374 L
398.5 374 L
397.632 374 L
396.764 374 L
395.896 374 L
395.028 374 L
394.16 374 L
393.292 374 L
392.424 374 L
391.556 374 L
390.688 374 L
389.82 374 L
388.952 374 L
388.084 374 L
387.216 374 L
386.348 374 L
385.48 374 L
384.612 374 L
383.744 374 L
382.876 374 L
382.008 374 L
381.14 374 L
380.272 374 L
379.404 374 L
378.536 374 L
377.668 374 L
376.8 374 L
375.932 374 L
375.064 374 L
374.196 374 L
373.328 374 L
372.46 374 L
371.592 374 L
370.724 374 L
369.856 374 L
368.988 374 L
368.12 374 L
367.252 374 L
366.384 374 L
365.516 374 L
364.648 374 L
363.78 374 L
362.912 374 L
362.044 374 L
361.176 374 L
360.308 374 L
359.44 374 L
358.572 374 L
357.704 374 L
356.836 374 L
355.968 374 L
355.1 374 L
354.232 374 L
353.364 374 L
352.496 374 L
351.628 374 L
350.76 374 L
349.892 374 L
349.024 374 L
348.156 374 L
347.288 374 L
346.42 374 L
345.552 374 L
344.684 374 L
343.816 374 L
342.948 374 L
342.08 374 L
341.212 374 L
340.344 374 L
339.476 374 L
338.608 374 L
337.74 374 L
336.872 374 L
336.004 374 L
335.136 374 L
334.268 374 L
333.4 374 L
332.532 374 L
331.664 374 L
330.796 374 L
329.928 374 L
329.06 374 L
328.192 374 L
327.324 374 L
326.456 374 L
325.588 374 L
324.72 374 L
323.852 374 L
322.984 374 L
322.116 374 L
321.248 374 L
320.38 374 L
319.512 374 L
318.644 374 L
317.776 374 L
316.908 374 L
316.04 374 L
315.172 374 L
314.304 374 L
313.436 374 L
312.568 374 L
311.7 374 L
310.832 374 L
309.964 374 L
309.096 374 L
308.228 374 L
307.36 374 L
306.492 374 L
305.624 374 L
304.756 374 L
303.888 374 L
303.02 374 L
302.152 374 L
301.284 374 L
300.416 374 L
299.548 374 L
298.68 374 L
297.812 374 L
296.944 374 L
296.076 374 L
295.208 374 L
294.34 374 L
293.472 374 L
292.604 374 L
291.736 374 L
290.868 374 L
290 374 L
289.132 374 L
288.264 374 L
287.396 374 L
286.528 374 L
285.66 374 L
284.792 374 L
283.924 374 L
283.056 374 L
282.188 374 L
281.32 374 L
280.452 374 L
279.584 374 L
278.716 374 L
277.848 374 L
276.98 374 L
276.112 374 L
275.244 374 L
274.376 374 L
273.508 374 L
272.64 374 L
271.772 374 L
270.904 374 L
270.036 374 L
269.168 374 L
268.3 374 L
267.432 374 L
266.564 374 L
265.696 374 L
264.828 374 L
263.96 374 L
263.092 374 L
262.224 374 L
261.356 374 L
260.488 374 L
259.62 374 L
258.752 374 L
257.884 374 L
257.016 374 L
256.148 374 L
255.28 374 L
254.412 374 L
253.544 374 L
252.676 374 L
251.808 374 L
250.94 374 L
250.072 374 L
249.204 374 L
248.336 374 L
247.468 374 L
246.6 374 L
245.732 374 L
244.864 374 L
243.996 374 L
243.128 374 L
242.26 374 L
241.392 374 L
240.524 374 L
239.656 374 L
238.788 374 L
237.92 374 L
237.052 374 L
236.184 374 L
235.316 374 L
234.448 374 L
233.58 374 L
232.712 374 L
231.844 374 L
230.976 374 L
230.108 374 L
229.24 374 L
228.372 374 L
227.504 374 L
226.636 374 L
225.768 374 L
224.9 374 L
224.032 374 L
223.164 374 L
222.296 374 L
221.428 374 L
220.56 374 L
219.692 374 L
218.824 374 L
217.956 374 L
217.088 374 L
216.22 374 L
215.352 374 L
214.484 374 L
213.616 374 L
212.748 374 L
211.88 374 L
211.012 374 L
210.144 374 L
209.276 374 L
208.408 374 L
207.54 374 L
206.672 374 L
205.804 374 L
204.936 374 L
204.068 374 L
203.2 374 L
202.332 374 L
201.464 374 L
200.596 374 L
199.728 374 L
198.86 374 L
197.992 31 L
197.124 31 L
196.256 31 L
195.388 31 L
194.52 31 L
193.652 31 L
192.784 31 L
191.916 31 L
191.048 31 L
190.18 31 L
189.312 31 L
188.444 31 L
187.576 31 L
186.708 31 L
185.84 31 L
184.972 31 L
184.104 31 L
183.236 31 L
182.368 31 L
181.5 31 L
180.632 31 L
179.764 31 L
178.896 31 L
178.028 31 L
177.16 31 L
176.292 31 L
175.424 31 L
174.556 31 L
173.688 31 L
172.82 31 L
171.952 31 L
171.084 31 L
170.216 31 L
169.348 31 L
168.48 31 L
167.612 31 L
166.744 31 L
165.876 31 L
165.008 31 L
164.14 31 L
163.272 31 L
162.404 31 L
161.536 31 L
160.668 31 L
159.8 31 L
158.932 31 L
158.064 31 L
157.196 31 L
156.328 31 L
155.46 31 L
154.592 31 L
153.724 31 L
152.856 31 L
151.988 31 L
151.12 31 L
150.252 31 L
149.384 31 L
148.516 31 L
147.648 31 L
146.78 31 L
145.912 31 L
145.044 31 L
144.176 31 L
143.308 31 L
142.44 31 L
141.572 31 L
140.704 31 L
139.836 31 L
138.968 31 L
138.1 31 L
137.232 31 L
136.364 31 L
135.496 31 L
134.628 31 L
133.76 31 L
132.892 31 L
132.024 31 L
131.156 31 L
130.288 31 L
129.42 31 L
128.552 31 L
127.684 31 L
126.816 31 L
125.948 31 L
125.08 31 L
124.212 31 L
123.344 31 L
122.476 31 L
121.608 31 L
120.74 31 L
119.872 31 L
119.004 31 L
118.136 31 L
117.268 31 L
116.4 31 L
115.532 31 L
114.664 374 L
113.796 374 L
112.928 31 L
112.06 31 L
111.192 374 L
110.324 374 L
109.456 31 L
108.588 31 L
107.72 374 L
106.852 374 L
105.984 374 L
105.116 31 L
104.248 31 L
103.38 374 L
102.512 374 L
101.644 374 L
100.776 31 L
99.908 31 L
99.04 374 L
98.172 374 L
97.304 374 L
96.436 31 L
95.568 31 L
94.7 31 L
93.832 374 L
92.964 374 L
92.096 31 L
91.228 31 L
90.36 31 L
89.492 374 L
88.624 374 L
87.756 374 L
86.888 31 L
86.02 31 L
85.152 31 L
84.284 374 L
83.416 374 L
82.548 31 L
81.68 31 L
80.812 31 L
79.944 374 L
79.076 374 L
78.208 374 L
77.34 31 L
76.472 31 L
75.604 31 L
74.736 374 L
73.868 374 L
73 374 L
72.948 353.556 L
S
GR
GS
[0.75 0 0 0.75 0 0] CT
0.984 0.933 0.91 RC
N
72.948 51.444 M
72.948 374 L
73 374 L
73.868 374 L
74.736 374 L
75.604 374 L
74.736 31 L
73.868 31 L
73 31 L
cp
77.34 374 M
78.208 374 L
79.076 374 L
79.944 374 L
80.812 374 L
79.944 31 L
79.076 31 L
78.208 31 L
cp
82.548 374 M
83.416 374 L
84.284 374 L
85.152 374 L
84.284 31 L
83.416 31 L
cp
86.888 374 M
87.756 374 L
88.624 374 L
89.492 374 L
90.36 374 L
89.492 31 L
88.624 31 L
87.756 31 L
cp
92.096 374 M
92.964 374 L
93.832 374 L
94.7 374 L
93.832 31 L
92.964 31 L
cp
96.436 374 M
97.304 374 L
98.172 374 L
99.04 374 L
99.908 374 L
99.04 31 L
98.172 31 L
97.304 31 L
cp
100.776 374 M
101.644 374 L
102.512 374 L
103.38 374 L
104.248 374 L
103.38 31 L
102.512 31 L
101.644 31 L
cp
105.116 374 M
105.984 374 L
106.852 374 L
107.72 374 L
108.588 374 L
107.72 31 L
106.852 31 L
105.984 31 L
cp
109.456 374 M
110.324 374 L
111.192 374 L
112.06 374 L
111.192 31 L
110.324 31 L
cp
112.928 374 M
113.796 374 L
114.664 374 L
115.532 374 L
114.664 31 L
113.796 31 L
cp
197.992 374 M
198.86 374 L
199.728 374 L
200.596 374 L
201.464 374 L
202.332 374 L
203.2 374 L
204.068 374 L
204.936 374 L
205.804 374 L
206.672 374 L
207.54 374 L
208.408 374 L
209.276 374 L
210.144 374 L
211.012 374 L
211.88 374 L
212.748 374 L
213.616 374 L
214.484 374 L
215.352 374 L
216.22 374 L
217.088 374 L
217.956 374 L
218.824 374 L
219.692 374 L
220.56 374 L
221.428 374 L
222.296 374 L
223.164 374 L
224.032 374 L
224.9 374 L
225.768 374 L
226.636 374 L
227.504 374 L
228.372 374 L
229.24 374 L
230.108 374 L
230.976 374 L
231.844 374 L
232.712 374 L
233.58 374 L
234.448 374 L
235.316 374 L
236.184 374 L
237.052 374 L
237.92 374 L
238.788 374 L
239.656 374 L
240.524 374 L
241.392 374 L
242.26 374 L
243.128 374 L
243.996 374 L
244.864 374 L
245.732 374 L
246.6 374 L
247.468 374 L
248.336 374 L
249.204 374 L
250.072 374 L
250.94 374 L
251.808 374 L
252.676 374 L
253.544 374 L
254.412 374 L
255.28 374 L
256.148 374 L
257.016 374 L
257.884 374 L
258.752 374 L
259.62 374 L
260.488 374 L
261.356 374 L
262.224 374 L
263.092 374 L
263.96 374 L
264.828 374 L
265.696 374 L
266.564 374 L
267.432 374 L
268.3 374 L
269.168 374 L
270.036 374 L
270.904 374 L
271.772 374 L
272.64 374 L
273.508 374 L
274.376 374 L
275.244 374 L
276.112 374 L
276.98 374 L
277.848 374 L
278.716 374 L
279.584 374 L
280.452 374 L
281.32 374 L
282.188 374 L
283.056 374 L
283.924 374 L
284.792 374 L
285.66 374 L
286.528 374 L
287.396 374 L
288.264 374 L
289.132 374 L
290 374 L
290.868 374 L
291.736 374 L
292.604 374 L
293.472 374 L
294.34 374 L
295.208 374 L
296.076 374 L
296.944 374 L
297.812 374 L
298.68 374 L
299.548 374 L
300.416 374 L
301.284 374 L
302.152 374 L
303.02 374 L
303.888 374 L
304.756 374 L
305.624 374 L
306.492 374 L
307.36 374 L
308.228 374 L
309.096 374 L
309.964 374 L
310.832 374 L
311.7 374 L
312.568 374 L
313.436 374 L
314.304 374 L
315.172 374 L
316.04 374 L
316.908 374 L
317.776 374 L
318.644 374 L
319.512 374 L
320.38 374 L
321.248 374 L
322.116 374 L
322.984 374 L
323.852 374 L
324.72 374 L
325.588 374 L
326.456 374 L
327.324 374 L
328.192 374 L
329.06 374 L
329.928 374 L
330.796 374 L
331.664 374 L
332.532 374 L
333.4 374 L
334.268 374 L
335.136 374 L
336.004 374 L
336.872 374 L
337.74 374 L
338.608 374 L
339.476 374 L
340.344 374 L
341.212 374 L
342.08 374 L
342.948 374 L
343.816 374 L
344.684 374 L
345.552 374 L
346.42 374 L
347.288 374 L
348.156 374 L
349.024 374 L
349.892 374 L
350.76 374 L
351.628 374 L
352.496 374 L
353.364 374 L
354.232 374 L
355.1 374 L
355.968 374 L
356.836 374 L
357.704 374 L
358.572 374 L
359.44 374 L
360.308 374 L
361.176 374 L
362.044 374 L
362.912 374 L
363.78 374 L
364.648 374 L
365.516 374 L
366.384 374 L
367.252 374 L
368.12 374 L
368.988 374 L
369.856 374 L
370.724 374 L
371.592 374 L
372.46 374 L
373.328 374 L
374.196 374 L
375.064 374 L
375.932 374 L
376.8 374 L
377.668 374 L
378.536 374 L
379.404 374 L
380.272 374 L
381.14 374 L
382.008 374 L
382.876 374 L
383.744 374 L
384.612 374 L
385.48 374 L
386.348 374 L
387.216 374 L
388.084 374 L
388.952 374 L
389.82 374 L
390.688 374 L
391.556 374 L
392.424 374 L
393.292 374 L
394.16 374 L
395.028 374 L
395.896 374 L
396.764 374 L
397.632 374 L
398.5 374 L
399.368 374 L
400.236 374 L
401.104 374 L
401.972 374 L
402.84 374 L
403.708 374 L
404.576 374 L
405.444 374 L
406.312 374 L
407.18 374 L
408.048 374 L
408.916 374 L
409.784 374 L
410.652 374 L
411.52 374 L
412.388 374 L
413.256 374 L
414.124 374 L
414.992 374 L
415.86 374 L
416.728 374 L
417.596 374 L
418.464 374 L
419.332 374 L
420.2 374 L
421.068 374 L
421.936 374 L
422.804 374 L
423.672 374 L
424.54 374 L
425.408 374 L
426.276 374 L
427.144 374 L
428.012 374 L
428.88 374 L
429.748 374 L
430.616 374 L
431.484 374 L
432.352 374 L
433.22 374 L
434.088 374 L
434.956 374 L
435.824 374 L
436.692 374 L
437.56 374 L
438.428 374 L
439.296 374 L
440.164 374 L
441.032 374 L
441.9 374 L
442.768 374 L
443.636 374 L
444.504 374 L
445.372 374 L
446.24 374 L
447.108 374 L
447.976 374 L
448.844 374 L
449.712 374 L
450.58 374 L
451.448 374 L
452.316 374 L
453.184 374 L
454.052 374 L
454.92 374 L
455.788 374 L
456.656 374 L
457.524 374 L
458.392 374 L
459.26 374 L
460.128 374 L
460.996 374 L
461.864 374 L
462.732 374 L
463.6 374 L
464.468 374 L
465.336 374 L
464.468 31 L
463.6 31 L
462.732 31 L
461.864 31 L
460.996 31 L
460.128 31 L
459.26 31 L
458.392 31 L
457.524 31 L
456.656 31 L
455.788 31 L
454.92 31 L
454.052 31 L
453.184 31 L
452.316 31 L
451.448 31 L
450.58 31 L
449.712 31 L
448.844 31 L
447.976 31 L
447.108 31 L
446.24 31 L
445.372 31 L
444.504 31 L
443.636 31 L
442.768 31 L
441.9 31 L
441.032 31 L
440.164 31 L
439.296 31 L
438.428 31 L
437.56 31 L
436.692 31 L
435.824 31 L
434.956 31 L
434.088 31 L
433.22 31 L
432.352 31 L
431.484 31 L
430.616 31 L
429.748 31 L
428.88 31 L
428.012 31 L
427.144 31 L
426.276 31 L
425.408 31 L
424.54 31 L
423.672 31 L
422.804 31 L
421.936 31 L
421.068 31 L
420.2 31 L
419.332 31 L
418.464 31 L
417.596 31 L
416.728 31 L
415.86 31 L
414.992 31 L
414.124 31 L
413.256 31 L
412.388 31 L
411.52 31 L
410.652 31 L
409.784 31 L
408.916 31 L
408.048 31 L
407.18 31 L
406.312 31 L
405.444 31 L
404.576 31 L
403.708 31 L
402.84 31 L
401.972 31 L
401.104 31 L
400.236 31 L
399.368 31 L
398.5 31 L
397.632 31 L
396.764 31 L
395.896 31 L
395.028 31 L
394.16 31 L
393.292 31 L
392.424 31 L
391.556 31 L
390.688 31 L
389.82 31 L
388.952 31 L
388.084 31 L
387.216 31 L
386.348 31 L
385.48 31 L
384.612 31 L
383.744 31 L
382.876 31 L
382.008 31 L
381.14 31 L
380.272 31 L
379.404 31 L
378.536 31 L
377.668 31 L
376.8 31 L
375.932 31 L
375.064 31 L
374.196 31 L
373.328 31 L
372.46 31 L
371.592 31 L
370.724 31 L
369.856 31 L
368.988 31 L
368.12 31 L
367.252 31 L
366.384 31 L
365.516 31 L
364.648 31 L
363.78 31 L
362.912 31 L
362.044 31 L
361.176 31 L
360.308 31 L
359.44 31 L
358.572 31 L
357.704 31 L
356.836 31 L
355.968 31 L
355.1 31 L
354.232 31 L
353.364 31 L
352.496 31 L
351.628 31 L
350.76 31 L
349.892 31 L
349.024 31 L
348.156 31 L
347.288 31 L
346.42 31 L
345.552 31 L
344.684 31 L
343.816 31 L
342.948 31 L
342.08 31 L
341.212 31 L
340.344 31 L
339.476 31 L
338.608 31 L
337.74 31 L
336.872 31 L
336.004 31 L
335.136 31 L
334.268 31 L
333.4 31 L
332.532 31 L
331.664 31 L
330.796 31 L
329.928 31 L
329.06 31 L
328.192 31 L
327.324 31 L
326.456 31 L
325.588 31 L
324.72 31 L
323.852 31 L
322.984 31 L
322.116 31 L
321.248 31 L
320.38 31 L
319.512 31 L
318.644 31 L
317.776 31 L
316.908 31 L
316.04 31 L
315.172 31 L
314.304 31 L
313.436 31 L
312.568 31 L
311.7 31 L
310.832 31 L
309.964 31 L
309.096 31 L
308.228 31 L
307.36 31 L
306.492 31 L
305.624 31 L
304.756 31 L
303.888 31 L
303.02 31 L
302.152 31 L
301.284 31 L
300.416 31 L
299.548 31 L
298.68 31 L
297.812 31 L
296.944 31 L
296.076 31 L
295.208 31 L
294.34 31 L
293.472 31 L
292.604 31 L
291.736 31 L
290.868 31 L
290 31 L
289.132 31 L
288.264 31 L
287.396 31 L
286.528 31 L
285.66 31 L
284.792 31 L
283.924 31 L
283.056 31 L
282.188 31 L
281.32 31 L
280.452 31 L
279.584 31 L
278.716 31 L
277.848 31 L
276.98 31 L
276.112 31 L
275.244 31 L
274.376 31 L
273.508 31 L
272.64 31 L
271.772 31 L
270.904 31 L
270.036 31 L
269.168 31 L
268.3 31 L
267.432 31 L
266.564 31 L
265.696 31 L
264.828 31 L
263.96 31 L
263.092 31 L
262.224 31 L
261.356 31 L
260.488 31 L
259.62 31 L
258.752 31 L
257.884 31 L
257.016 31 L
256.148 31 L
255.28 31 L
254.412 31 L
253.544 31 L
252.676 31 L
251.808 31 L
250.94 31 L
250.072 31 L
249.204 31 L
248.336 31 L
247.468 31 L
246.6 31 L
245.732 31 L
244.864 31 L
243.996 31 L
243.128 31 L
242.26 31 L
241.392 31 L
240.524 31 L
239.656 31 L
238.788 31 L
237.92 31 L
237.052 31 L
236.184 31 L
235.316 31 L
234.448 31 L
233.58 31 L
232.712 31 L
231.844 31 L
230.976 31 L
230.108 31 L
229.24 31 L
228.372 31 L
227.504 31 L
226.636 31 L
225.768 31 L
224.9 31 L
224.032 31 L
223.164 31 L
222.296 31 L
221.428 31 L
220.56 31 L
219.692 31 L
218.824 31 L
217.956 31 L
217.088 31 L
216.22 31 L
215.352 31 L
214.484 31 L
213.616 31 L
212.748 31 L
211.88 31 L
211.012 31 L
210.144 31 L
209.276 31 L
208.408 31 L
207.54 31 L
206.672 31 L
205.804 31 L
204.936 31 L
204.068 31 L
203.2 31 L
202.332 31 L
201.464 31 L
200.596 31 L
199.728 31 L
198.86 31 L
cp
466.204 374 M
467.072 374 L
467.94 374 L
468.808 374 L
467.94 31 L
467.072 31 L
cp
469.676 374 M
470.544 374 L
471.412 374 L
472.28 374 L
471.412 31 L
470.544 31 L
cp
473.148 374 M
474.016 374 L
474.884 374 L
475.752 374 L
476.62 374 L
475.752 31 L
474.884 31 L
474.016 31 L
cp
477.488 374 M
478.356 374 L
479.224 374 L
480.092 374 L
480.96 374 L
480.092 31 L
479.224 31 L
478.356 31 L
cp
482.696 374 M
483.564 374 L
484.432 374 L
485.3 374 L
484.432 31 L
483.564 31 L
cp
487.036 374 M
487.904 374 L
488.772 374 L
489.64 374 L
490.508 374 L
489.64 31 L
488.772 31 L
487.904 31 L
cp
492.244 374 M
493.112 374 L
493.98 374 L
494.848 374 L
495.716 374 L
494.848 31 L
493.98 31 L
493.112 31 L
cp
496.584 374 M
497.452 374 L
498.32 374 L
499.188 374 L
500.056 374 L
499.188 31 L
498.32 31 L
497.452 31 L
cp
501.792 374 M
502.66 374 L
503.528 374 L
504.396 374 L
503.528 31 L
502.66 31 L
cp
506.132 374 M
507 374 L
507.052 374 L
507.052 51.446 L
507.052 31 L
507 31 L
cp
f
GR
GS
[0.75 0 0 0.75 0 0] CT
0.984 0.933 0.91 RC
1 LJ
0.667 LW
N
72.948 374 M
73 374 L
73.868 374 L
74.736 374 L
75.604 374 L
76.472 374 L
77.34 374 L
78.208 374 L
79.076 374 L
79.944 374 L
80.812 374 L
81.68 374 L
82.548 374 L
83.416 374 L
84.284 374 L
85.152 374 L
86.02 374 L
86.888 374 L
87.756 374 L
88.624 374 L
89.492 374 L
90.36 374 L
91.228 374 L
92.096 374 L
92.964 374 L
93.832 374 L
94.7 374 L
95.568 374 L
96.436 374 L
97.304 374 L
98.172 374 L
99.04 374 L
99.908 374 L
100.776 374 L
101.644 374 L
102.512 374 L
103.38 374 L
104.248 374 L
105.116 374 L
105.984 374 L
106.852 374 L
107.72 374 L
108.588 374 L
109.456 374 L
110.324 374 L
111.192 374 L
112.06 374 L
112.928 374 L
113.796 374 L
114.664 374 L
115.532 374 L
116.4 374 L
117.268 374 L
118.136 374 L
119.004 374 L
119.872 374 L
120.74 374 L
121.608 374 L
122.476 374 L
123.344 374 L
124.212 374 L
125.08 374 L
125.948 374 L
126.816 374 L
127.684 374 L
128.552 374 L
129.42 374 L
130.288 374 L
131.156 374 L
132.024 374 L
132.892 374 L
133.76 374 L
134.628 374 L
135.496 374 L
136.364 374 L
137.232 374 L
138.1 374 L
138.968 374 L
139.836 374 L
140.704 374 L
141.572 374 L
142.44 374 L
143.308 374 L
144.176 374 L
145.044 374 L
145.912 374 L
146.78 374 L
147.648 374 L
148.516 374 L
149.384 374 L
150.252 374 L
151.12 374 L
151.988 374 L
152.856 374 L
153.724 374 L
154.592 374 L
155.46 374 L
156.328 374 L
157.196 374 L
158.064 374 L
158.932 374 L
159.8 374 L
160.668 374 L
161.536 374 L
162.404 374 L
163.272 374 L
164.14 374 L
165.008 374 L
165.876 374 L
166.744 374 L
167.612 374 L
168.48 374 L
169.348 374 L
170.216 374 L
171.084 374 L
171.952 374 L
172.82 374 L
173.688 374 L
174.556 374 L
175.424 374 L
176.292 374 L
177.16 374 L
178.028 374 L
178.896 374 L
179.764 374 L
180.632 374 L
181.5 374 L
182.368 374 L
183.236 374 L
184.104 374 L
184.972 374 L
185.84 374 L
186.708 374 L
187.576 374 L
188.444 374 L
189.312 374 L
190.18 374 L
191.048 374 L
191.916 374 L
192.784 374 L
193.652 374 L
194.52 374 L
195.388 374 L
196.256 374 L
197.124 374 L
197.992 374 L
198.86 374 L
199.728 374 L
200.596 374 L
201.464 374 L
202.332 374 L
203.2 374 L
204.068 374 L
204.936 374 L
205.804 374 L
206.672 374 L
207.54 374 L
208.408 374 L
209.276 374 L
210.144 374 L
211.012 374 L
211.88 374 L
212.748 374 L
213.616 374 L
214.484 374 L
215.352 374 L
216.22 374 L
217.088 374 L
217.956 374 L
218.824 374 L
219.692 374 L
220.56 374 L
221.428 374 L
222.296 374 L
223.164 374 L
224.032 374 L
224.9 374 L
225.768 374 L
226.636 374 L
227.504 374 L
228.372 374 L
229.24 374 L
230.108 374 L
230.976 374 L
231.844 374 L
232.712 374 L
233.58 374 L
234.448 374 L
235.316 374 L
236.184 374 L
237.052 374 L
237.92 374 L
238.788 374 L
239.656 374 L
240.524 374 L
241.392 374 L
242.26 374 L
243.128 374 L
243.996 374 L
244.864 374 L
245.732 374 L
246.6 374 L
247.468 374 L
248.336 374 L
249.204 374 L
250.072 374 L
250.94 374 L
251.808 374 L
252.676 374 L
253.544 374 L
254.412 374 L
255.28 374 L
256.148 374 L
257.016 374 L
257.884 374 L
258.752 374 L
259.62 374 L
260.488 374 L
261.356 374 L
262.224 374 L
263.092 374 L
263.96 374 L
264.828 374 L
265.696 374 L
266.564 374 L
267.432 374 L
268.3 374 L
269.168 374 L
270.036 374 L
270.904 374 L
271.772 374 L
272.64 374 L
273.508 374 L
274.376 374 L
275.244 374 L
276.112 374 L
276.98 374 L
277.848 374 L
278.716 374 L
279.584 374 L
280.452 374 L
281.32 374 L
282.188 374 L
283.056 374 L
283.924 374 L
284.792 374 L
285.66 374 L
286.528 374 L
287.396 374 L
288.264 374 L
289.132 374 L
290 374 L
290.868 374 L
291.736 374 L
292.604 374 L
293.472 374 L
294.34 374 L
295.208 374 L
296.076 374 L
296.944 374 L
297.812 374 L
298.68 374 L
299.548 374 L
300.416 374 L
301.284 374 L
302.152 374 L
303.02 374 L
303.888 374 L
304.756 374 L
305.624 374 L
306.492 374 L
307.36 374 L
308.228 374 L
309.096 374 L
309.964 374 L
310.832 374 L
311.7 374 L
312.568 374 L
313.436 374 L
314.304 374 L
315.172 374 L
316.04 374 L
316.908 374 L
317.776 374 L
318.644 374 L
319.512 374 L
320.38 374 L
321.248 374 L
322.116 374 L
322.984 374 L
323.852 374 L
324.72 374 L
325.588 374 L
326.456 374 L
327.324 374 L
328.192 374 L
329.06 374 L
329.928 374 L
330.796 374 L
331.664 374 L
332.532 374 L
333.4 374 L
334.268 374 L
335.136 374 L
336.004 374 L
336.872 374 L
337.74 374 L
338.608 374 L
339.476 374 L
340.344 374 L
341.212 374 L
342.08 374 L
342.948 374 L
343.816 374 L
344.684 374 L
345.552 374 L
346.42 374 L
347.288 374 L
348.156 374 L
349.024 374 L
349.892 374 L
350.76 374 L
351.628 374 L
352.496 374 L
353.364 374 L
354.232 374 L
355.1 374 L
355.968 374 L
356.836 374 L
357.704 374 L
358.572 374 L
359.44 374 L
360.308 374 L
361.176 374 L
362.044 374 L
362.912 374 L
363.78 374 L
364.648 374 L
365.516 374 L
366.384 374 L
367.252 374 L
368.12 374 L
368.988 374 L
369.856 374 L
370.724 374 L
371.592 374 L
372.46 374 L
373.328 374 L
374.196 374 L
375.064 374 L
375.932 374 L
376.8 374 L
377.668 374 L
378.536 374 L
379.404 374 L
380.272 374 L
381.14 374 L
382.008 374 L
382.876 374 L
383.744 374 L
384.612 374 L
385.48 374 L
386.348 374 L
387.216 374 L
388.084 374 L
388.952 374 L
389.82 374 L
390.688 374 L
391.556 374 L
392.424 374 L
393.292 374 L
394.16 374 L
395.028 374 L
395.896 374 L
396.764 374 L
397.632 374 L
398.5 374 L
399.368 374 L
400.236 374 L
401.104 374 L
401.972 374 L
402.84 374 L
403.708 374 L
404.576 374 L
405.444 374 L
406.312 374 L
407.18 374 L
408.048 374 L
408.916 374 L
409.784 374 L
410.652 374 L
411.52 374 L
412.388 374 L
413.256 374 L
414.124 374 L
414.992 374 L
415.86 374 L
416.728 374 L
417.596 374 L
418.464 374 L
419.332 374 L
420.2 374 L
421.068 374 L
421.936 374 L
422.804 374 L
423.672 374 L
424.54 374 L
425.408 374 L
426.276 374 L
427.144 374 L
428.012 374 L
428.88 374 L
429.748 374 L
430.616 374 L
431.484 374 L
432.352 374 L
433.22 374 L
434.088 374 L
434.956 374 L
435.824 374 L
436.692 374 L
437.56 374 L
438.428 374 L
439.296 374 L
440.164 374 L
441.032 374 L
441.9 374 L
442.768 374 L
443.636 374 L
444.504 374 L
445.372 374 L
446.24 374 L
447.108 374 L
447.976 374 L
448.844 374 L
449.712 374 L
450.58 374 L
451.448 374 L
452.316 374 L
453.184 374 L
454.052 374 L
454.92 374 L
455.788 374 L
456.656 374 L
457.524 374 L
458.392 374 L
459.26 374 L
460.128 374 L
460.996 374 L
461.864 374 L
462.732 374 L
463.6 374 L
464.468 374 L
465.336 374 L
466.204 374 L
467.072 374 L
467.94 374 L
468.808 374 L
469.676 374 L
470.544 374 L
471.412 374 L
472.28 374 L
473.148 374 L
474.016 374 L
474.884 374 L
475.752 374 L
476.62 374 L
477.488 374 L
478.356 374 L
479.224 374 L
480.092 374 L
480.96 374 L
481.828 374 L
482.696 374 L
483.564 374 L
484.432 374 L
485.3 374 L
486.168 374 L
487.036 374 L
487.904 374 L
488.772 374 L
489.64 374 L
490.508 374 L
491.376 374 L
492.244 374 L
493.112 374 L
493.98 374 L
494.848 374 L
495.716 374 L
496.584 374 L
497.452 374 L
498.32 374 L
499.188 374 L
500.056 374 L
500.924 374 L
501.792 374 L
502.66 374 L
503.528 374 L
504.396 374 L
505.264 374 L
506.132 374 L
507 374 L
507.052 374 L
S
GR
GS
[0.75 0 0 0.75 0 0] CT
0.984 0.933 0.91 RC
1 LJ
0.667 LW
N
507.052 31 M
507 31 L
506.132 374 L
505.264 374 L
504.396 374 L
503.528 31 L
502.66 31 L
501.792 374 L
500.924 374 L
500.056 374 L
499.188 31 L
498.32 31 L
497.452 31 L
496.584 374 L
495.716 374 L
494.848 31 L
493.98 31 L
493.112 31 L
492.244 374 L
491.376 374 L
490.508 374 L
489.64 31 L
488.772 31 L
487.904 31 L
487.036 374 L
486.168 374 L
485.3 374 L
484.432 31 L
483.564 31 L
482.696 374 L
481.828 374 L
480.96 374 L
480.092 31 L
479.224 31 L
478.356 31 L
477.488 374 L
476.62 374 L
475.752 31 L
474.884 31 L
474.016 31 L
473.148 374 L
472.28 374 L
471.412 31 L
470.544 31 L
469.676 374 L
468.808 374 L
467.94 31 L
467.072 31 L
466.204 374 L
465.336 374 L
464.468 31 L
463.6 31 L
462.732 31 L
461.864 31 L
460.996 31 L
460.128 31 L
459.26 31 L
458.392 31 L
457.524 31 L
456.656 31 L
455.788 31 L
454.92 31 L
454.052 31 L
453.184 31 L
452.316 31 L
451.448 31 L
450.58 31 L
449.712 31 L
448.844 31 L
447.976 31 L
447.108 31 L
446.24 31 L
445.372 31 L
444.504 31 L
443.636 31 L
442.768 31 L
441.9 31 L
441.032 31 L
440.164 31 L
439.296 31 L
438.428 31 L
437.56 31 L
436.692 31 L
435.824 31 L
434.956 31 L
434.088 31 L
433.22 31 L
432.352 31 L
431.484 31 L
430.616 31 L
429.748 31 L
428.88 31 L
428.012 31 L
427.144 31 L
426.276 31 L
425.408 31 L
424.54 31 L
423.672 31 L
422.804 31 L
421.936 31 L
421.068 31 L
420.2 31 L
419.332 31 L
418.464 31 L
417.596 31 L
416.728 31 L
415.86 31 L
414.992 31 L
414.124 31 L
413.256 31 L
412.388 31 L
411.52 31 L
410.652 31 L
409.784 31 L
408.916 31 L
408.048 31 L
407.18 31 L
406.312 31 L
405.444 31 L
404.576 31 L
403.708 31 L
402.84 31 L
401.972 31 L
401.104 31 L
400.236 31 L
399.368 31 L
398.5 31 L
397.632 31 L
396.764 31 L
395.896 31 L
395.028 31 L
394.16 31 L
393.292 31 L
392.424 31 L
391.556 31 L
390.688 31 L
389.82 31 L
388.952 31 L
388.084 31 L
387.216 31 L
386.348 31 L
385.48 31 L
384.612 31 L
383.744 31 L
382.876 31 L
382.008 31 L
381.14 31 L
380.272 31 L
379.404 31 L
378.536 31 L
377.668 31 L
376.8 31 L
375.932 31 L
375.064 31 L
374.196 31 L
373.328 31 L
372.46 31 L
371.592 31 L
370.724 31 L
369.856 31 L
368.988 31 L
368.12 31 L
367.252 31 L
366.384 31 L
365.516 31 L
364.648 31 L
363.78 31 L
362.912 31 L
362.044 31 L
361.176 31 L
360.308 31 L
359.44 31 L
358.572 31 L
357.704 31 L
356.836 31 L
355.968 31 L
355.1 31 L
354.232 31 L
353.364 31 L
352.496 31 L
351.628 31 L
350.76 31 L
349.892 31 L
349.024 31 L
348.156 31 L
347.288 31 L
346.42 31 L
345.552 31 L
344.684 31 L
343.816 31 L
342.948 31 L
342.08 31 L
341.212 31 L
340.344 31 L
339.476 31 L
338.608 31 L
337.74 31 L
336.872 31 L
336.004 31 L
335.136 31 L
334.268 31 L
333.4 31 L
332.532 31 L
331.664 31 L
330.796 31 L
329.928 31 L
329.06 31 L
328.192 31 L
327.324 31 L
326.456 31 L
325.588 31 L
324.72 31 L
323.852 31 L
322.984 31 L
322.116 31 L
321.248 31 L
320.38 31 L
319.512 31 L
318.644 31 L
317.776 31 L
316.908 31 L
316.04 31 L
315.172 31 L
314.304 31 L
313.436 31 L
312.568 31 L
311.7 31 L
310.832 31 L
309.964 31 L
309.096 31 L
308.228 31 L
307.36 31 L
306.492 31 L
305.624 31 L
304.756 31 L
303.888 31 L
303.02 31 L
302.152 31 L
301.284 31 L
300.416 31 L
299.548 31 L
298.68 31 L
297.812 31 L
296.944 31 L
296.076 31 L
295.208 31 L
294.34 31 L
293.472 31 L
292.604 31 L
291.736 31 L
290.868 31 L
290 31 L
289.132 31 L
288.264 31 L
287.396 31 L
286.528 31 L
285.66 31 L
284.792 31 L
283.924 31 L
283.056 31 L
282.188 31 L
281.32 31 L
280.452 31 L
279.584 31 L
278.716 31 L
277.848 31 L
276.98 31 L
276.112 31 L
275.244 31 L
274.376 31 L
273.508 31 L
272.64 31 L
271.772 31 L
270.904 31 L
270.036 31 L
269.168 31 L
268.3 31 L
267.432 31 L
266.564 31 L
265.696 31 L
264.828 31 L
263.96 31 L
263.092 31 L
262.224 31 L
261.356 31 L
260.488 31 L
259.62 31 L
258.752 31 L
257.884 31 L
257.016 31 L
256.148 31 L
255.28 31 L
254.412 31 L
253.544 31 L
252.676 31 L
251.808 31 L
250.94 31 L
250.072 31 L
249.204 31 L
248.336 31 L
247.468 31 L
246.6 31 L
245.732 31 L
244.864 31 L
243.996 31 L
243.128 31 L
242.26 31 L
241.392 31 L
240.524 31 L
239.656 31 L
238.788 31 L
237.92 31 L
237.052 31 L
236.184 31 L
235.316 31 L
234.448 31 L
233.58 31 L
232.712 31 L
231.844 31 L
230.976 31 L
230.108 31 L
229.24 31 L
228.372 31 L
227.504 31 L
226.636 31 L
225.768 31 L
224.9 31 L
224.032 31 L
223.164 31 L
222.296 31 L
221.428 31 L
220.56 31 L
219.692 31 L
218.824 31 L
217.956 31 L
217.088 31 L
216.22 31 L
215.352 31 L
214.484 31 L
213.616 31 L
212.748 31 L
211.88 31 L
211.012 31 L
210.144 31 L
209.276 31 L
208.408 31 L
207.54 31 L
206.672 31 L
205.804 31 L
204.936 31 L
204.068 31 L
203.2 31 L
202.332 31 L
201.464 31 L
200.596 31 L
199.728 31 L
198.86 31 L
197.992 374 L
197.124 374 L
196.256 374 L
195.388 374 L
194.52 374 L
193.652 374 L
192.784 374 L
191.916 374 L
191.048 374 L
190.18 374 L
189.312 374 L
188.444 374 L
187.576 374 L
186.708 374 L
185.84 374 L
184.972 374 L
184.104 374 L
183.236 374 L
182.368 374 L
181.5 374 L
180.632 374 L
179.764 374 L
178.896 374 L
178.028 374 L
177.16 374 L
176.292 374 L
175.424 374 L
174.556 374 L
173.688 374 L
172.82 374 L
171.952 374 L
171.084 374 L
170.216 374 L
169.348 374 L
168.48 374 L
167.612 374 L
166.744 374 L
165.876 374 L
165.008 374 L
164.14 374 L
163.272 374 L
162.404 374 L
161.536 374 L
160.668 374 L
159.8 374 L
158.932 374 L
158.064 374 L
157.196 374 L
156.328 374 L
155.46 374 L
154.592 374 L
153.724 374 L
152.856 374 L
151.988 374 L
151.12 374 L
150.252 374 L
149.384 374 L
148.516 374 L
147.648 374 L
146.78 374 L
145.912 374 L
145.044 374 L
144.176 374 L
143.308 374 L
142.44 374 L
141.572 374 L
140.704 374 L
139.836 374 L
138.968 374 L
138.1 374 L
137.232 374 L
136.364 374 L
135.496 374 L
134.628 374 L
133.76 374 L
132.892 374 L
132.024 374 L
131.156 374 L
130.288 374 L
129.42 374 L
128.552 374 L
127.684 374 L
126.816 374 L
125.948 374 L
125.08 374 L
124.212 374 L
123.344 374 L
122.476 374 L
121.608 374 L
120.74 374 L
119.872 374 L
119.004 374 L
118.136 374 L
117.268 374 L
116.4 374 L
115.532 374 L
114.664 31 L
113.796 31 L
112.928 374 L
112.06 374 L
111.192 31 L
110.324 31 L
109.456 374 L
108.588 374 L
107.72 31 L
106.852 31 L
105.984 31 L
105.116 374 L
104.248 374 L
103.38 31 L
102.512 31 L
101.644 31 L
100.776 374 L
99.908 374 L
99.04 31 L
98.172 31 L
97.304 31 L
96.436 374 L
95.568 374 L
94.7 374 L
93.832 31 L
92.964 31 L
92.096 374 L
91.228 374 L
90.36 374 L
89.492 31 L
88.624 31 L
87.756 31 L
86.888 374 L
86.02 374 L
85.152 374 L
84.284 31 L
83.416 31 L
82.548 374 L
81.68 374 L
80.812 374 L
79.944 31 L
79.076 31 L
78.208 31 L
77.34 374 L
76.472 374 L
75.604 374 L
74.736 31 L
73.868 31 L
73 31 L
72.948 51.444 L
S
GR
GS
[0.75 0 0 0.75 0 0] CT
0 0.447 0.741 RC
1 LJ
2.667 LW
N
72.948 374 M
73 374 L
73.868 374 L
74.736 374 L
75.604 374 L
76.472 374 L
77.34 374 L
78.208 374 L
79.076 374 L
79.944 374 L
80.812 374 L
81.68 374 L
82.548 374 L
83.416 374 L
84.284 374 L
85.152 374 L
86.02 374 L
86.888 374 L
87.756 374 L
88.624 374 L
89.492 374 L
90.36 374 L
91.228 374 L
92.096 374 L
92.964 374 L
93.832 374 L
94.7 374 L
95.568 374 L
96.436 374 L
97.304 374 L
98.172 374 L
99.04 374 L
99.908 374 L
100.776 374 L
101.644 374 L
102.512 374 L
103.38 374 L
104.248 374 L
105.116 374 L
105.984 374 L
106.852 374 L
107.72 374 L
108.588 373.999 L
109.456 373.999 L
110.324 374.004 L
111.192 373.991 L
112.06 373.846 L
112.928 373.709 L
113.194 374.041 L
S
GR
GS
[0.75 0 0 0.75 0 0] CT
0 0.447 0.741 RC
1 LJ
2.667 LW
N
114.74 374.041 M
115.532 361.63 L
116.4 331.651 L
117.268 314.437 L
118.136 316.226 L
119.004 317.56 L
119.872 316.624 L
120.74 316.748 L
121.608 316.944 L
122.476 316.79 L
123.344 316.888 L
124.212 316.842 L
125.08 316.733 L
125.948 316.981 L
126.816 316.779 L
127.684 316.748 L
128.552 316.983 L
129.42 316.768 L
130.288 316.775 L
131.156 316.916 L
132.024 316.822 L
132.892 316.795 L
133.76 316.859 L
134.628 316.834 L
135.496 316.798 L
136.364 316.896 L
137.232 316.79 L
138.1 316.791 L
138.968 316.944 L
139.836 316.777 L
140.704 316.735 L
141.572 316.986 L
142.44 316.844 L
143.308 316.694 L
144.176 316.943 L
145.044 316.895 L
145.912 316.674 L
146.78 316.897 L
147.648 316.884 L
148.516 316.781 L
149.384 316.808 L
150.252 316.898 L
151.12 316.797 L
151.988 316.787 L
152.856 316.905 L
153.724 316.809 L
154.592 316.819 L
155.46 316.834 L
156.328 316.88 L
157.196 316.77 L
158.064 316.837 L
158.932 316.882 L
159.8 316.725 L
160.668 316.919 L
161.536 316.81 L
162.404 316.771 L
163.272 316.919 L
164.14 316.79 L
165.008 316.777 L
165.876 316.933 L
166.744 316.789 L
167.612 316.768 L
168.48 316.913 L
169.348 316.812 L
170.216 316.803 L
171.084 316.851 L
171.952 316.824 L
172.82 316.879 L
173.688 316.772 L
174.556 316.822 L
175.424 316.948 L
176.292 316.801 L
177.16 316.779 L
178.028 316.773 L
178.896 316.777 L
179.764 316.864 L
180.632 317.041 L
181.5 317.331 L
182.368 317.588 L
183.236 317.877 L
184.104 317.799 L
184.972 317.419 L
185.84 317.13 L
186.708 317.775 L
187.576 318.991 L
188.444 318.763 L
189.312 318.409 L
190.18 318.672 L
191.048 319.025 L
191.916 319.82 L
192.784 320.167 L
193.652 320.106 L
194.52 320.617 L
195.388 322.259 L
196.256 323.093 L
197.124 323.413 L
197.992 325.178 L
198.86 326.783 L
199.728 328.344 L
200.596 328.728 L
201.464 327.456 L
202.332 328.504 L
203.2 330.897 L
204.068 333.482 L
204.936 335.945 L
205.804 335.339 L
206.672 335.576 L
207.54 337.808 L
208.408 338.268 L
209.276 338.247 L
210.144 339.635 L
211.012 341.124 L
211.88 341.534 L
212.748 341.03 L
213.616 341.708 L
214.484 342.748 L
215.352 343.161 L
216.22 343.716 L
217.088 343.857 L
217.956 343.634 L
218.824 343.386 L
219.692 343.55 L
220.56 344.163 L
221.428 344.529 L
222.296 344.856 L
223.164 345.197 L
224.032 345.092 L
224.9 344.995 L
225.768 345.227 L
226.636 345.405 L
227.504 345.437 L
228.372 345.433 L
229.24 345.32 L
230.108 345.31 L
230.976 345.418 L
231.844 345.436 L
232.712 345.42 L
233.58 345.428 L
234.448 345.418 L
235.316 345.418 L
236.184 345.414 L
237.052 345.411 L
237.92 345.428 L
238.788 345.41 L
239.656 345.405 L
240.524 345.446 L
241.392 345.4 L
242.26 345.415 L
243.128 345.437 L
243.996 345.408 L
244.864 345.409 L
245.732 345.429 L
246.6 345.41 L
247.468 345.4 L
248.336 345.43 L
249.204 345.421 L
250.072 345.43 L
250.94 345.429 L
251.808 345.414 L
252.676 345.451 L
253.544 345.421 L
254.412 345.433 L
255.28 345.47 L
256.148 345.423 L
257.016 345.448 L
257.884 345.449 L
258.752 345.475 L
259.62 345.527 L
260.488 345.583 L
261.356 345.661 L
262.224 345.587 L
263.092 345.529 L
263.96 345.533 L
264.828 345.573 L
265.696 345.683 L
266.564 345.732 L
267.432 345.774 L
268.3 345.864 L
269.168 345.942 L
270.036 345.959 L
270.904 345.887 L
271.772 345.892 L
272.64 346.095 L
273.508 346.262 L
274.376 346.334 L
275.244 346.297 L
276.112 346.359 L
276.98 346.432 L
277.848 346.491 L
278.716 346.701 L
279.584 346.8 L
280.452 346.794 L
281.32 346.7 L
282.188 346.644 L
283.056 346.822 L
283.924 346.832 L
284.792 346.64 L
285.66 346.58 L
286.528 346.552 L
287.396 346.458 L
288.264 346.157 L
289.132 345.914 L
290 345.785 L
290.868 345.59 L
291.736 345.474 L
292.604 345.537 L
293.472 345.306 L
294.34 344.759 L
295.208 344.406 L
296.076 344.135 L
296.944 344.127 L
297.812 344.246 L
298.68 343.903 L
299.548 343.241 L
300.416 342.81 L
301.284 342.784 L
302.152 342.478 L
303.02 342.053 L
303.888 341.795 L
304.756 341.458 L
305.624 341.158 L
306.492 340.903 L
307.36 340.721 L
308.228 340.567 L
309.096 340.405 L
309.964 340.301 L
310.832 340.257 L
311.7 340.192 L
312.568 339.973 L
313.436 339.775 L
314.304 339.629 L
315.172 339.549 L
316.04 339.45 L
316.908 339.284 L
317.776 339.1 L
318.644 338.966 L
319.512 338.93 L
320.38 338.808 L
321.248 338.795 L
322.116 338.839 L
322.984 338.787 L
323.852 338.722 L
324.72 338.623 L
325.588 338.598 L
326.456 338.597 L
327.324 338.521 L
328.192 338.493 L
329.06 338.436 L
329.928 338.393 L
330.796 338.441 L
331.664 338.412 L
332.532 338.394 L
333.4 338.383 L
334.268 338.351 L
335.136 338.337 L
336.004 338.207 L
336.872 338.159 L
337.74 338.157 L
338.608 338.16 L
339.476 338.146 L
340.344 338.002 L
341.212 337.824 L
342.08 337.798 L
342.948 337.781 L
343.816 337.755 L
344.684 337.712 L
345.552 337.593 L
346.42 337.465 L
347.288 337.41 L
348.156 337.301 L
349.024 337.071 L
349.892 336.989 L
350.76 336.936 L
351.628 336.589 L
352.496 336.196 L
353.364 336.011 L
354.232 335.712 L
355.1 335.211 L
355.968 334.799 L
356.836 334.789 L
357.704 334.82 L
358.572 334.527 L
359.44 334.154 L
360.308 333.427 L
361.176 332.474 L
362.044 331.904 L
362.912 331.663 L
363.78 331.285 L
364.648 330.66 L
365.516 329.85 L
366.384 329.082 L
367.252 328.347 L
368.12 327.36 L
368.988 327.111 L
369.856 327.424 L
370.724 327.397 L
371.592 327.17 L
372.46 325.615 L
373.328 323.829 L
374.196 323.118 L
375.064 321.765 L
375.932 320.38 L
376.8 320.391 L
377.668 320.012 L
378.536 318.669 L
379.404 316.941 L
380.272 315.392 L
381.14 314.956 L
382.008 314.812 L
382.876 314.231 L
383.744 313.138 L
384.612 312.42 L
385.48 312.44 L
386.348 311.615 L
387.216 310.483 L
388.084 309.942 L
388.952 309.142 L
389.82 308.392 L
390.688 308.342 L
391.556 308.436 L
392.424 308.102 L
393.292 307.513 L
394.16 307.071 L
395.028 306.484 L
395.896 305.965 L
396.764 306.015 L
397.632 305.66 L
398.5 305.162 L
399.368 305.001 L
400.236 304.67 L
401.104 304.277 L
401.972 304.187 L
402.84 304.038 L
403.708 303.458 L
404.576 303.498 L
405.444 303.615 L
406.312 303.466 L
407.18 303.594 L
408.048 303.25 L
408.916 302.96 L
409.784 303.019 L
410.652 302.836 L
411.52 302.822 L
412.388 302.835 L
413.256 302.666 L
414.124 302.726 L
414.992 302.729 L
415.86 302.683 L
416.728 302.682 L
417.596 302.637 L
418.464 302.761 L
419.332 302.513 L
420.2 302.475 L
421.068 302.746 L
421.936 302.555 L
422.804 302.478 L
423.672 302.578 L
424.54 302.537 L
425.408 302.309 L
426.276 302.396 L
427.144 302.61 L
428.012 302.369 L
428.88 302.173 L
429.748 302.366 L
430.616 302.417 L
431.484 302.108 L
432.352 302.025 L
433.22 301.612 L
434.088 301.339 L
434.956 301.476 L
435.824 301.409 L
436.692 301.593 L
437.56 301.58 L
438.428 301.137 L
439.296 300.583 L
440.164 300.518 L
441.032 300.33 L
441.9 299.354 L
442.768 298.309 L
443.636 298.202 L
444.504 298.143 L
445.372 297.546 L
446.24 296.975 L
447.108 295.574 L
447.976 294.544 L
448.844 295.026 L
449.712 293.966 L
450.58 291.299 L
451.448 288.943 L
452.316 287.091 L
453.184 286.011 L
454.052 286.161 L
454.92 286.083 L
455.788 282.749 L
456.656 278.97 L
457.524 278.902 L
458.392 277.86 L
459.26 273.165 L
460.128 271.125 L
460.996 273.964 L
461.864 271.659 L
462.732 264.112 L
463.6 283.965 L
464.468 334.845 L
465.336 370.441 L
465.823 374.041 L
S
GR
GS
[0.75 0 0 0.75 0 0] CT
0 0.447 0.741 RC
1 LJ
2.667 LW
N
467.361 374.041 M
467.94 373.46 L
468.808 373.771 L
469.676 373.983 L
470.544 374.008 L
471.412 374 L
472.28 373.998 L
473.148 374 L
474.016 374 L
474.884 374 L
475.752 374 L
476.62 374 L
477.488 374 L
478.356 374 L
479.224 374 L
480.092 374 L
480.96 374 L
481.828 374 L
482.696 374 L
483.564 374 L
484.432 374 L
485.3 374 L
486.168 374 L
487.036 374 L
487.904 374 L
488.772 374 L
489.64 374 L
490.508 374 L
491.376 374 L
492.244 374 L
493.112 374 L
493.98 374 L
494.848 374 L
495.716 374 L
496.584 374 L
497.452 374 L
498.32 374 L
499.188 374 L
500.056 374 L
500.924 374 L
501.792 374 L
502.66 374 L
503.528 374 L
504.396 374 L
505.264 374 L
506.132 374 L
507 374 L
507.052 374 L
S
GR
GS
[0.75 0 0 0.75 0 0] CT
0.851 0.325 0.098 RC
1 LJ
2.667 LW
N
72.948 374 M
73 374 L
73.868 374 L
74.736 374 L
75.604 374 L
76.472 374 L
77.34 374 L
78.208 374 L
79.076 374 L
79.944 374 L
80.812 374 L
81.68 374 L
82.548 374 L
83.416 374 L
84.284 374 L
85.152 374 L
86.02 374 L
86.888 374 L
87.756 374 L
88.624 374 L
89.492 374 L
90.36 374 L
91.228 374 L
92.096 374 L
92.964 374 L
93.832 374 L
94.7 374 L
95.568 374 L
96.436 374 L
97.304 374 L
98.172 374 L
99.04 374 L
99.908 374 L
100.776 374 L
101.644 374 L
102.512 374 L
103.38 374 L
104.248 374 L
105.116 374 L
105.984 374 L
106.852 374 L
107.72 374 L
108.588 374 L
109.456 374.002 L
110.324 373.998 L
111.192 373.961 L
112.06 373.895 L
112.86 374.041 L
S
GR
GS
[0.75 0 0 0.75 0 0] CT
0.851 0.325 0.098 RC
1 LJ
2.667 LW
N
114.282 374.041 M
114.664 373.542 L
115.532 365.038 L
116.4 351.254 L
117.268 344.521 L
118.136 345.193 L
119.004 345.309 L
119.872 344.828 L
120.74 344.825 L
121.608 344.432 L
122.476 343.921 L
123.344 343.7 L
124.212 343.485 L
125.08 343.324 L
125.948 343.192 L
126.816 342.965 L
127.684 342.677 L
128.552 342.32 L
129.42 342.005 L
130.288 341.809 L
131.156 341.683 L
132.024 341.667 L
132.892 341.3 L
133.76 340.751 L
134.628 340.59 L
135.496 340.579 L
136.364 340.566 L
137.232 340.293 L
138.1 339.865 L
138.968 339.804 L
139.836 339.816 L
140.704 339.572 L
141.572 339.497 L
142.44 339.612 L
143.308 339.42 L
144.176 339.106 L
145.044 339.076 L
145.912 339.024 L
146.78 338.829 L
147.648 338.796 L
148.516 338.739 L
149.384 338.62 L
150.252 338.559 L
151.12 338.553 L
151.988 338.548 L
152.856 338.484 L
153.724 338.456 L
154.592 338.499 L
155.46 338.497 L
156.328 338.454 L
157.196 338.429 L
158.064 338.364 L
158.932 338.337 L
159.8 338.338 L
160.668 338.327 L
161.536 338.238 L
162.404 338.219 L
163.272 338.242 L
164.14 338.145 L
165.008 338.071 L
165.876 338.089 L
166.744 338.033 L
167.612 337.909 L
168.48 337.987 L
169.348 337.976 L
170.216 337.793 L
171.084 337.758 L
171.952 337.681 L
172.82 337.526 L
173.688 337.289 L
174.556 337.037 L
175.424 336.933 L
176.292 336.831 L
177.16 336.675 L
178.028 336.431 L
178.896 336.426 L
179.764 336.49 L
180.632 336.283 L
181.5 335.971 L
182.368 335.433 L
183.236 334.96 L
184.104 334.746 L
184.972 334.267 L
185.84 333.553 L
186.708 332.804 L
187.576 332.14 L
188.444 331.706 L
189.312 331.12 L
190.18 330.336 L
191.048 329.85 L
191.916 329.282 L
192.784 328.856 L
193.652 329.01 L
194.52 328.517 L
195.388 327.712 L
196.256 326.824 L
197.124 325.844 L
197.992 325.183 L
198.86 324.265 L
199.728 323.424 L
200.596 322.81 L
201.464 321.736 L
202.332 320.592 L
203.2 319.875 L
204.068 318.979 L
204.936 318.615 L
205.804 318.251 L
206.672 317.156 L
207.54 316.341 L
208.408 315.497 L
209.276 314.478 L
210.144 314.103 L
211.012 313.689 L
211.88 312.663 L
212.748 312.115 L
213.616 311.169 L
214.484 310.006 L
215.352 309.507 L
216.22 309.445 L
217.088 309.283 L
217.956 308.669 L
218.824 307.763 L
219.692 306.924 L
220.56 306.689 L
221.428 306.688 L
222.296 306.168 L
223.164 305.653 L
224.032 305.107 L
224.9 304.638 L
225.768 304.45 L
226.636 304.111 L
227.504 304.008 L
228.372 304.017 L
229.24 303.665 L
230.108 303.46 L
230.976 303.467 L
231.844 303.511 L
232.712 303.463 L
233.58 303.174 L
234.448 303.285 L
235.316 303.229 L
236.184 302.957 L
237.052 302.993 L
237.92 302.868 L
238.788 302.745 L
239.656 302.775 L
240.524 302.735 L
241.392 302.655 L
242.26 302.591 L
243.128 302.723 L
243.996 302.64 L
244.864 302.529 L
245.732 302.676 L
246.6 302.58 L
247.468 302.48 L
248.336 302.605 L
249.204 302.503 L
250.072 302.498 L
250.94 302.563 L
251.808 302.507 L
252.676 302.434 L
253.544 302.495 L
254.412 302.535 L
255.28 302.472 L
256.148 302.445 L
257.016 302.34 L
257.884 302.342 L
258.752 302.292 L
259.62 301.942 L
260.488 301.763 L
261.356 301.731 L
262.224 301.358 L
263.092 301.181 L
263.96 301.115 L
264.828 300.644 L
265.696 300.535 L
266.564 300.958 L
267.432 300.62 L
268.3 299.718 L
269.168 299.398 L
270.036 298.742 L
270.904 297.836 L
271.772 297.44 L
272.64 296.156 L
273.508 294.543 L
274.376 293.925 L
275.244 293.469 L
276.112 293.68 L
276.98 294.023 L
277.848 291.263 L
278.716 286.69 L
279.584 284.369 L
280.452 284.778 L
281.32 284.192 L
282.188 282.656 L
283.056 282.677 L
283.924 281.694 L
284.792 277.76 L
285.66 274.056 L
286.528 272.003 L
287.396 268.918 L
288.264 266.918 L
289.132 267.379 L
290 267.866 L
290.868 267.868 L
291.736 265.518 L
292.604 262.216 L
293.472 259.497 L
294.34 256.053 L
295.208 253.353 L
296.076 252.184 L
296.944 250.959 L
297.812 249.414 L
298.68 248.009 L
299.548 246.179 L
300.416 245.086 L
301.284 243.747 L
302.152 241.506 L
303.02 240.22 L
303.888 239.036 L
304.756 237.41 L
305.624 236.244 L
306.492 236.099 L
307.36 235.624 L
308.228 234.519 L
309.096 234.425 L
309.964 234.16 L
310.832 233.779 L
311.7 233.691 L
312.568 233.241 L
313.436 232.772 L
314.304 232.416 L
315.172 232.008 L
316.04 231.539 L
316.908 231.712 L
317.776 231.74 L
318.644 231.502 L
319.512 231.342 L
320.38 231.349 L
321.248 231.391 L
322.116 231.123 L
322.984 231.219 L
323.852 231.138 L
324.72 230.971 L
325.588 231.254 L
326.456 231.171 L
327.324 231.058 L
328.192 231.178 L
329.06 231.126 L
329.928 231.038 L
330.796 231.078 L
331.664 231.144 L
332.532 231.127 L
333.4 231.062 L
334.268 231.17 L
335.136 231.163 L
336.004 231.055 L
336.872 231.044 L
337.74 231.228 L
338.608 230.971 L
339.476 231.056 L
340.344 231.28 L
341.212 230.993 L
342.08 231.098 L
342.948 231.17 L
343.816 231.112 L
344.684 231.026 L
345.552 231.183 L
346.42 231.026 L
347.288 231.034 L
348.156 231.338 L
349.024 230.756 L
349.892 230.094 L
350.76 230.531 L
351.628 231.04 L
352.496 231.298 L
353.364 230.864 L
354.232 229.933 L
355.1 230.372 L
355.968 231.016 L
356.836 231.323 L
357.704 232.027 L
358.572 231.042 L
359.44 227.966 L
360.308 226.158 L
361.176 226.305 L
362.044 224.108 L
362.912 219.508 L
363.78 217.577 L
364.648 217.255 L
365.516 213.98 L
366.384 212.529 L
367.252 210.982 L
368.12 205.076 L
368.988 201.694 L
369.856 201.977 L
370.724 198.605 L
371.592 196.318 L
372.46 183.213 L
373.328 165.492 L
374.196 164.882 L
375.064 161.157 L
375.932 153.708 L
376.8 152.756 L
377.668 148.571 L
378.536 142.409 L
379.404 133.256 L
380.272 123.774 L
381.14 121.279 L
382.008 115.788 L
382.876 112.865 L
383.744 116.138 L
384.612 112.256 L
385.48 102.297 L
386.348 97.622 L
387.216 99.117 L
388.084 98.146 L
388.952 96.079 L
389.82 97.211 L
390.688 96.802 L
391.556 94.999 L
392.424 95.392 L
393.292 91.923 L
394.16 89.166 L
395.028 89.857 L
395.896 87.614 L
396.764 87.912 L
397.632 88.123 L
398.5 87.614 L
399.368 89.959 L
400.236 88.815 L
401.104 87.188 L
401.972 88.494 L
402.84 87.954 L
403.708 88.144 L
404.576 88.934 L
405.444 87.756 L
406.312 87.855 L
407.18 88.397 L
408.048 88.318 L
408.916 87.898 L
409.784 88.501 L
410.652 87.973 L
411.52 88.101 L
412.388 88.543 L
413.256 87.715 L
414.124 88.317 L
414.992 88.257 L
415.86 88.069 L
416.728 88.167 L
417.596 88.174 L
418.464 88.335 L
419.332 87.834 L
420.2 88.261 L
421.068 88.335 L
421.936 87.87 L
422.804 88.381 L
423.672 88.004 L
424.54 88.213 L
425.408 88.375 L
426.276 87.743 L
427.144 88.602 L
428.012 87.858 L
428.88 88.279 L
429.748 88.392 L
430.616 87.857 L
431.484 88.352 L
432.352 88.127 L
433.22 88.55 L
434.088 87.597 L
434.956 88.389 L
435.824 88.615 L
436.692 87.547 L
437.56 88.275 L
438.428 88.277 L
439.296 88.118 L
440.164 88.052 L
441.032 88.222 L
441.9 88.259 L
442.768 88.038 L
443.636 88.095 L
444.504 88.336 L
445.372 88.065 L
446.24 88.123 L
447.108 88.295 L
447.976 88.061 L
448.844 88.35 L
449.712 87.816 L
450.58 88.291 L
451.448 88.513 L
452.316 87.433 L
453.184 88.662 L
454.052 88.279 L
454.92 87.357 L
455.788 88.841 L
456.656 87.594 L
457.524 87.928 L
458.392 89.421 L
459.26 87.32 L
460.128 86.855 L
460.996 92.203 L
461.864 85.519 L
462.732 77.608 L
463.6 168.505 L
464.468 320.646 L
465.2 374.041 L
S
GR
GS
[0.75 0 0 0.75 0 0] CT
0.851 0.325 0.098 RC
1 LJ
2.667 LW
N
466.826 374.041 M
467.072 372.44 L
467.94 373.423 L
468.787 374.041 L
S
GR
GS
[0.75 0 0 0.75 0 0] CT
0.851 0.325 0.098 RC
1 LJ
2.667 LW
N
469.238 374.041 M
469.676 374.026 L
470.544 373.989 L
471.412 373.995 L
472.28 374 L
473.148 374 L
474.016 374 L
474.884 374 L
475.752 374 L
476.62 374 L
477.488 374 L
478.356 374 L
479.224 374 L
480.092 374 L
480.96 374 L
481.828 374 L
482.696 374 L
483.564 374 L
484.432 374 L
485.3 374 L
486.168 374 L
487.036 374 L
487.904 374 L
488.772 374 L
489.64 374 L
490.508 374 L
491.376 374 L
492.244 374 L
493.112 374 L
493.98 374 L
494.848 374 L
495.716 374 L
496.584 374 L
497.452 374 L
498.32 374 L
499.188 374 L
500.056 374 L
500.924 374 L
501.792 374 L
502.66 374 L
503.528 374 L
504.396 374 L
505.264 374 L
506.132 374 L
507 374 L
507.052 374 L
S
GR
GS
[0.75 0 0 0.75 0 0] CT
0.775 GC
[1 3] 0 setdash
2 LJ
0.667 LW
N
90.36 374 M
90.36 31 L
S
GR
GS
[0.75 0 0 0.75 0 0] CT
0.775 GC
[1 3] 0 setdash
2 LJ
0.667 LW
N
107.72 374 M
107.72 31 L
S
GR
GS
[0.75 0 0 0.75 0 0] CT
0.775 GC
[1 3] 0 setdash
2 LJ
0.667 LW
N
125.08 374 M
125.08 31 L
S
GR
GS
[0.75 0 0 0.75 0 0] CT
0.775 GC
[1 3] 0 setdash
2 LJ
0.667 LW
N
142.44 374 M
142.44 31 L
S
GR
GS
[0.75 0 0 0.75 0 0] CT
0.775 GC
[1 3] 0 setdash
2 LJ
0.667 LW
N
177.16 374 M
177.16 31 L
S
GR
GS
[0.75 0 0 0.75 0 0] CT
0.775 GC
[1 3] 0 setdash
2 LJ
0.667 LW
N
194.52 374 M
194.52 31 L
S
GR
GS
[0.75 0 0 0.75 0 0] CT
0.775 GC
[1 3] 0 setdash
2 LJ
0.667 LW
N
211.88 374 M
211.88 31 L
S
GR
GS
[0.75 0 0 0.75 0 0] CT
0.775 GC
[1 3] 0 setdash
2 LJ
0.667 LW
N
229.24 374 M
229.24 31 L
S
GR
GS
[0.75 0 0 0.75 0 0] CT
0.775 GC
[1 3] 0 setdash
2 LJ
0.667 LW
N
263.96 374 M
263.96 31 L
S
GR
GS
[0.75 0 0 0.75 0 0] CT
0.775 GC
[1 3] 0 setdash
2 LJ
0.667 LW
N
281.32 374 M
281.32 31 L
S
GR
GS
[0.75 0 0 0.75 0 0] CT
0.775 GC
[1 3] 0 setdash
2 LJ
0.667 LW
N
298.68 374 M
298.68 31 L
S
GR
GS
[0.75 0 0 0.75 0 0] CT
0.775 GC
[1 3] 0 setdash
2 LJ
0.667 LW
N
316.04 374 M
316.04 31 L
S
GR
GS
[0.75 0 0 0.75 0 0] CT
0.775 GC
[1 3] 0 setdash
2 LJ
0.667 LW
N
350.76 374 M
350.76 31 L
S
GR
GS
[0.75 0 0 0.75 0 0] CT
0.775 GC
[1 3] 0 setdash
2 LJ
0.667 LW
N
368.12 374 M
368.12 31 L
S
GR
GS
[0.75 0 0 0.75 0 0] CT
0.775 GC
[1 3] 0 setdash
2 LJ
0.667 LW
N
385.48 374 M
385.48 31 L
S
GR
GS
[0.75 0 0 0.75 0 0] CT
0.775 GC
[1 3] 0 setdash
2 LJ
0.667 LW
N
402.84 374 M
402.84 31 L
S
GR
GS
[0.75 0 0 0.75 0 0] CT
0.775 GC
[1 3] 0 setdash
2 LJ
0.667 LW
N
437.56 374 M
437.56 31 L
S
GR
GS
[0.75 0 0 0.75 0 0] CT
0.775 GC
[1 3] 0 setdash
2 LJ
0.667 LW
N
454.92 374 M
454.92 31 L
S
GR
GS
[0.75 0 0 0.75 0 0] CT
0.775 GC
[1 3] 0 setdash
2 LJ
0.667 LW
N
472.28 374 M
472.28 31 L
S
GR
GS
[0.75 0 0 0.75 0 0] CT
0.775 GC
[1 3] 0 setdash
2 LJ
0.667 LW
N
489.64 374 M
489.64 31 L
S
GR
GS
[0.75 0 0 0.75 0 0] CT
0.873 GC
[1 3] 0 setdash
2 LJ
0.667 LW
N
73 374 M
73 31 L
S
GR
GS
[0.75 0 0 0.75 0 0] CT
0.873 GC
[1 3] 0 setdash
2 LJ
0.667 LW
N
159.8 374 M
159.8 31 L
S
GR
GS
[0.75 0 0 0.75 0 0] CT
0.873 GC
[1 3] 0 setdash
2 LJ
0.667 LW
N
246.6 374 M
246.6 31 L
S
GR
GS
[0.75 0 0 0.75 0 0] CT
0.873 GC
[1 3] 0 setdash
2 LJ
0.667 LW
N
333.4 374 M
333.4 31 L
S
GR
GS
[0.75 0 0 0.75 0 0] CT
0.873 GC
[1 3] 0 setdash
2 LJ
0.667 LW
N
420.2 374 M
420.2 31 L
S
GR
GS
[0.75 0 0 0.75 0 0] CT
0.873 GC
[1 3] 0 setdash
2 LJ
0.667 LW
N
507 374 M
507 31 L
S
GR
GS
[0.75 0 0 0.75 0 0] CT
0.775 GC
[1 3] 0 setdash
2 LJ
0.667 LW
N
507 362.567 M
73 362.567 L
S
GR
GS
[0.75 0 0 0.75 0 0] CT
0.775 GC
[1 3] 0 setdash
2 LJ
0.667 LW
N
507 351.133 M
73 351.133 L
S
GR
GS
[0.75 0 0 0.75 0 0] CT
0.775 GC
[1 3] 0 setdash
2 LJ
0.667 LW
N
507 339.7 M
73 339.7 L
S
GR
GS
[0.75 0 0 0.75 0 0] CT
0.775 GC
[1 3] 0 setdash
2 LJ
0.667 LW
N
507 328.267 M
73 328.267 L
S
GR
GS
[0.75 0 0 0.75 0 0] CT
0.775 GC
[1 3] 0 setdash
2 LJ
0.667 LW
N
507 305.4 M
73 305.4 L
S
GR
GS
[0.75 0 0 0.75 0 0] CT
0.775 GC
[1 3] 0 setdash
2 LJ
0.667 LW
N
507 293.967 M
73 293.967 L
S
GR
GS
[0.75 0 0 0.75 0 0] CT
0.775 GC
[1 3] 0 setdash
2 LJ
0.667 LW
N
507 282.533 M
73 282.533 L
S
GR
GS
[0.75 0 0 0.75 0 0] CT
0.775 GC
[1 3] 0 setdash
2 LJ
0.667 LW
N
507 271.1 M
73 271.1 L
S
GR
GS
[0.75 0 0 0.75 0 0] CT
0.775 GC
[1 3] 0 setdash
2 LJ
0.667 LW
N
507 248.233 M
73 248.233 L
S
GR
GS
[0.75 0 0 0.75 0 0] CT
0.775 GC
[1 3] 0 setdash
2 LJ
0.667 LW
N
507 236.8 M
73 236.8 L
S
GR
GS
[0.75 0 0 0.75 0 0] CT
0.775 GC
[1 3] 0 setdash
2 LJ
0.667 LW
N
507 225.367 M
73 225.367 L
S
GR
GS
[0.75 0 0 0.75 0 0] CT
0.775 GC
[1 3] 0 setdash
2 LJ
0.667 LW
N
507 213.933 M
73 213.933 L
S
GR
GS
[0.75 0 0 0.75 0 0] CT
0.775 GC
[1 3] 0 setdash
2 LJ
0.667 LW
N
507 191.067 M
73 191.067 L
S
GR
GS
[0.75 0 0 0.75 0 0] CT
0.775 GC
[1 3] 0 setdash
2 LJ
0.667 LW
N
507 179.633 M
73 179.633 L
S
GR
GS
[0.75 0 0 0.75 0 0] CT
0.775 GC
[1 3] 0 setdash
2 LJ
0.667 LW
N
507 168.2 M
73 168.2 L
S
GR
GS
[0.75 0 0 0.75 0 0] CT
0.775 GC
[1 3] 0 setdash
2 LJ
0.667 LW
N
507 156.767 M
73 156.767 L
S
GR
GS
[0.75 0 0 0.75 0 0] CT
0.775 GC
[1 3] 0 setdash
2 LJ
0.667 LW
N
507 133.9 M
73 133.9 L
S
GR
GS
[0.75 0 0 0.75 0 0] CT
0.775 GC
[1 3] 0 setdash
2 LJ
0.667 LW
N
507 122.467 M
73 122.467 L
S
GR
GS
[0.75 0 0 0.75 0 0] CT
0.775 GC
[1 3] 0 setdash
2 LJ
0.667 LW
N
507 111.033 M
73 111.033 L
S
GR
GS
[0.75 0 0 0.75 0 0] CT
0.775 GC
[1 3] 0 setdash
2 LJ
0.667 LW
N
507 99.6 M
73 99.6 L
S
GR
GS
[0.75 0 0 0.75 0 0] CT
0.775 GC
[1 3] 0 setdash
2 LJ
0.667 LW
N
507 76.733 M
73 76.733 L
S
GR
GS
[0.75 0 0 0.75 0 0] CT
0.775 GC
[1 3] 0 setdash
2 LJ
0.667 LW
N
507 65.3 M
73 65.3 L
S
GR
GS
[0.75 0 0 0.75 0 0] CT
0.775 GC
[1 3] 0 setdash
2 LJ
0.667 LW
N
507 53.867 M
73 53.867 L
S
GR
GS
[0.75 0 0 0.75 0 0] CT
0.775 GC
[1 3] 0 setdash
2 LJ
0.667 LW
N
507 42.433 M
73 42.433 L
S
GR
GS
[0.75 0 0 0.75 0 0] CT
0.873 GC
[1 3] 0 setdash
2 LJ
0.667 LW
N
507 374 M
73 374 L
S
GR
GS
[0.75 0 0 0.75 0 0] CT
0.873 GC
[1 3] 0 setdash
2 LJ
0.667 LW
N
507 316.833 M
73 316.833 L
S
GR
GS
[0.75 0 0 0.75 0 0] CT
0.873 GC
[1 3] 0 setdash
2 LJ
0.667 LW
N
507 259.667 M
73 259.667 L
S
GR
GS
[0.75 0 0 0.75 0 0] CT
0.873 GC
[1 3] 0 setdash
2 LJ
0.667 LW
N
507 202.5 M
73 202.5 L
S
GR
GS
[0.75 0 0 0.75 0 0] CT
0.873 GC
[1 3] 0 setdash
2 LJ
0.667 LW
N
507 145.333 M
73 145.333 L
S
GR
GS
[0.75 0 0 0.75 0 0] CT
0.873 GC
[1 3] 0 setdash
2 LJ
0.667 LW
N
507 88.167 M
73 88.167 L
S
GR
GS
[0.75 0 0 0.75 0 0] CT
0.873 GC
[1 3] 0 setdash
2 LJ
0.667 LW
N
507 31 M
73 31 L
S
GR
GS
[0.75 0 0 0.75 0 0] CT
0.149 GC
2 setlinecap
1 LJ
0.667 LW
N
73 374 M
507 374 L
S
GR
GS
[0.75 0 0 0.75 0 0] CT
0.149 GC
2 setlinecap
1 LJ
0.667 LW
N
73 374 M
73 369.66 L
S
GR
GS
[0.75 0 0 0.75 0 0] CT
0.149 GC
2 setlinecap
1 LJ
0.667 LW
N
159.8 374 M
159.8 369.66 L
S
GR
GS
[0.75 0 0 0.75 0 0] CT
0.149 GC
2 setlinecap
1 LJ
0.667 LW
N
246.6 374 M
246.6 369.66 L
S
GR
GS
[0.75 0 0 0.75 0 0] CT
0.149 GC
2 setlinecap
1 LJ
0.667 LW
N
333.4 374 M
333.4 369.66 L
S
GR
GS
[0.75 0 0 0.75 0 0] CT
0.149 GC
2 setlinecap
1 LJ
0.667 LW
N
420.2 374 M
420.2 369.66 L
S
GR
GS
[0.75 0 0 0.75 0 0] CT
0.149 GC
2 setlinecap
1 LJ
0.667 LW
N
507 374 M
507 369.66 L
S
GR
GS
[0.75 0 0 0.75 54.75 285.49999] CT
0.149 GC
/Helvetica 20 F
GS
[1 0 0 1 0 0] CT
-6 21 moveto 
1 -1 scale
(1) t 
GR
GR
GS
[0.75 0 0 0.75 119.85 285.49999] CT
0.149 GC
/Helvetica 20 F
GS
[1 0 0 1 0 0] CT
-6 21 moveto 
1 -1 scale
(2) t 
GR
GR
GS
[0.75 0 0 0.75 184.95 285.49999] CT
0.149 GC
/Helvetica 20 F
GS
[1 0 0 1 0 0] CT
-6 21 moveto 
1 -1 scale
(3) t 
GR
GR
GS
[0.75 0 0 0.75 250.05 285.49999] CT
0.149 GC
/Helvetica 20 F
GS
[1 0 0 1 0 0] CT
-6 21 moveto 
1 -1 scale
(4) t 
GR
GR
GS
[0.75 0 0 0.75 315.15001 285.49999] CT
0.149 GC
/Helvetica 20 F
GS
[1 0 0 1 0 0] CT
-6 21 moveto 
1 -1 scale
(5) t 
GR
GR
GS
[0.75 0 0 0.75 380.25 285.49999] CT
0.149 GC
/Helvetica 20 F
GS
[1 0 0 1 0 0] CT
-6 21 moveto 
1 -1 scale
(6) t 
GR
GR
GS
[0.75 0 0 0.75 0 0] CT
0.149 GC
2 setlinecap
1 LJ
0.667 LW
N
73 374 M
73 31 L
S
GR
GS
[0.75 0 0 0.75 0 0] CT
0.149 GC
2 setlinecap
1 LJ
0.667 LW
N
73 374 M
77.34 374 L
S
GR
GS
[0.75 0 0 0.75 0 0] CT
0.149 GC
2 setlinecap
1 LJ
0.667 LW
N
73 316.833 M
77.34 316.833 L
S
GR
GS
[0.75 0 0 0.75 0 0] CT
0.149 GC
2 setlinecap
1 LJ
0.667 LW
N
73 259.667 M
77.34 259.667 L
S
GR
GS
[0.75 0 0 0.75 0 0] CT
0.149 GC
2 setlinecap
1 LJ
0.667 LW
N
73 202.5 M
77.34 202.5 L
S
GR
GS
[0.75 0 0 0.75 0 0] CT
0.149 GC
2 setlinecap
1 LJ
0.667 LW
N
73 145.333 M
77.34 145.333 L
S
GR
GS
[0.75 0 0 0.75 0 0] CT
0.149 GC
2 setlinecap
1 LJ
0.667 LW
N
73 88.167 M
77.34 88.167 L
S
GR
GS
[0.75 0 0 0.75 0 0] CT
0.149 GC
2 setlinecap
1 LJ
0.667 LW
N
73 31 M
77.34 31 L
S
GR
GS
[0.75 0 0 0.75 49.75 280.5] CT
0.149 GC
/Helvetica 20 F
GS
[1 0 0 1 0 0] CT
-12 8 moveto 
1 -1 scale
(0) t 
GR
GR
GS
[0.75 0 0 0.75 49.75 237.62501] CT
0.149 GC
/Helvetica 20 F
GS
[1 0 0 1 0 0] CT
-12 8 moveto 
1 -1 scale
(1) t 
GR
GR
GS
[0.75 0 0 0.75 49.75 194.74999] CT
0.149 GC
/Helvetica 20 F
GS
[1 0 0 1 0 0] CT
-12 8 moveto 
1 -1 scale
(2) t 
GR
GR
GS
[0.75 0 0 0.75 49.75 151.875] CT
0.149 GC
/Helvetica 20 F
GS
[1 0 0 1 0 0] CT
-12 8 moveto 
1 -1 scale
(3) t 
GR
GR
GS
[0.75 0 0 0.75 49.75 109] CT
0.149 GC
/Helvetica 20 F
GS
[1 0 0 1 0 0] CT
-12 8 moveto 
1 -1 scale
(4) t 
GR
GR
GS
[0.75 0 0 0.75 49.75 66.125] CT
0.149 GC
/Helvetica 20 F
GS
[1 0 0 1 0 0] CT
-12 8 moveto 
1 -1 scale
(5) t 
GR
GR
GS
[0.75 0 0 0.75 49.75 23.25] CT
0.149 GC
/Helvetica 20 F
GS
[1 0 0 1 0 0] CT
-12 8 moveto 
1 -1 scale
(6) t 
GR
GR
GS
[0.75 0 0 0.75 0 0] CT
1 GC
N
173 95 M
173 44 L
86 44 L
86 95 L
cp
f
GR
GS
[0.75 0 0 0.75 99.75 43.22525] CT
/Helvetica 18 F
GS
[1 0 0 1 0 0] CT
0 7.5 moveto 
1 -1 scale
(left) t 
GR
GR
GS
[0.75 0 0 0.75 0 0] CT
0 0.447 0.741 RC
1 LJ
2.667 LW
N
90 57.634 M
130 57.634 L
S
GR
GS
[0.75 0 0 0.75 99.75 61.02475] CT
/Helvetica 18 F
GS
[1 0 0 1 0 0] CT
0 7.5 moveto 
1 -1 scale
(right) t 
GR
GR
GS
[0.75 0 0 0.75 0 0] CT
0.851 0.325 0.098 RC
1 LJ
2.667 LW
N
90 81.366 M
130 81.366 L
S
GR
GS
[0.75 0 0 0.75 0 0] CT
0.149 GC
10.0 ML
0.667 LW
N
86 95 M
86 44 L
173 44 L
173 95 L
cp
S
GR
%%Trailer
%%Pages: 1
%%EOF
