%!PS-Adobe-3.0 EPSF-3.0
%%Creator: (MATLAB, The Mathworks, Inc. Version 9.3.0.713579 \(R2017b\). Operating System: Windows 7)
%%Title: fig/RBFN_2_5_1000_convergence.eps
%%CreationDate: 2018-05-06T11:34:49
%%Pages: (atend)
%%BoundingBox:    35     3   492   384
%%LanguageLevel: 3
%%EndComments
%%BeginProlog
%%BeginResource: procset (Apache XML Graphics Std ProcSet) 1.2 0
%%Version: 1.2 0
%%Copyright: (Copyright 2001-2003,2010 The Apache Software Foundation. License terms: http://www.apache.org/licenses/LICENSE-2.0)
/bd{bind def}bind def
/ld{load def}bd
/GR/grestore ld
/GS/gsave ld
/RM/rmoveto ld
/C/curveto ld
/t/show ld
/L/lineto ld
/ML/setmiterlimit ld
/CT/concat ld
/f/fill ld
/N/newpath ld
/S/stroke ld
/CC/setcmykcolor ld
/A/ashow ld
/cp/closepath ld
/RC/setrgbcolor ld
/LJ/setlinejoin ld
/GC/setgray ld
/LW/setlinewidth ld
/M/moveto ld
/re {4 2 roll M
1 index 0 rlineto
0 exch rlineto
neg 0 rlineto
cp } bd
/_ctm matrix def
/_tm matrix def
/BT { _ctm currentmatrix pop matrix _tm copy pop 0 0 moveto } bd
/ET { _ctm setmatrix } bd
/iTm { _ctm setmatrix _tm concat } bd
/Tm { _tm astore pop iTm 0 0 moveto } bd
/ux 0.0 def
/uy 0.0 def
/F {
  /Tp exch def
  /Tf exch def
  Tf findfont Tp scalefont setfont
  /cf Tf def  /cs Tp def
} bd
/ULS {currentpoint /uy exch def /ux exch def} bd
/ULE {
  /Tcx currentpoint pop def
  gsave
  newpath
  cf findfont cs scalefont dup
  /FontMatrix get 0 get /Ts exch def /FontInfo get dup
  /UnderlinePosition get Ts mul /To exch def
  /UnderlineThickness get Ts mul /Tt exch def
  ux uy To add moveto  Tcx uy To add lineto
  Tt setlinewidth stroke
  grestore
} bd
/OLE {
  /Tcx currentpoint pop def
  gsave
  newpath
  cf findfont cs scalefont dup
  /FontMatrix get 0 get /Ts exch def /FontInfo get dup
  /UnderlinePosition get Ts mul /To exch def
  /UnderlineThickness get Ts mul /Tt exch def
  ux uy To add cs add moveto Tcx uy To add cs add lineto
  Tt setlinewidth stroke
  grestore
} bd
/SOE {
  /Tcx currentpoint pop def
  gsave
  newpath
  cf findfont cs scalefont dup
  /FontMatrix get 0 get /Ts exch def /FontInfo get dup
  /UnderlinePosition get Ts mul /To exch def
  /UnderlineThickness get Ts mul /Tt exch def
  ux uy To add cs 10 mul 26 idiv add moveto Tcx uy To add cs 10 mul 26 idiv add lineto
  Tt setlinewidth stroke
  grestore
} bd
/QT {
/Y22 exch store
/X22 exch store
/Y21 exch store
/X21 exch store
currentpoint
/Y21 load 2 mul add 3 div exch
/X21 load 2 mul add 3 div exch
/X21 load 2 mul /X22 load add 3 div
/Y21 load 2 mul /Y22 load add 3 div
/X22 load /Y22 load curveto
} bd
/SSPD {
dup length /d exch dict def
{
/v exch def
/k exch def
currentpagedevice k known {
/cpdv currentpagedevice k get def
v cpdv ne {
/upd false def
/nullv v type /nulltype eq def
/nullcpdv cpdv type /nulltype eq def
nullv nullcpdv or
{
/upd true def
} {
/sametype v type cpdv type eq def
sametype {
v type /arraytype eq {
/vlen v length def
/cpdvlen cpdv length def
vlen cpdvlen eq {
0 1 vlen 1 sub {
/i exch def
/obj v i get def
/cpdobj cpdv i get def
obj cpdobj ne {
/upd true def
exit
} if
} for
} {
/upd true def
} ifelse
} {
v type /dicttype eq {
v {
/dv exch def
/dk exch def
/cpddv cpdv dk get def
dv cpddv ne {
/upd true def
exit
} if
} forall
} {
/upd true def
} ifelse
} ifelse
} if
} ifelse
upd true eq {
d k v put
} if
} if
} if
} forall
d length 0 gt {
d setpagedevice
} if
} bd
/RE { % /NewFontName [NewEncodingArray] /FontName RE -
  findfont dup length dict begin
  {
    1 index /FID ne
    {def} {pop pop} ifelse
  } forall
  /Encoding exch def
  /FontName 1 index def
  currentdict definefont pop
  end
} bind def
%%EndResource
%%BeginResource: procset (Apache XML Graphics EPS ProcSet) 1.0 0
%%Version: 1.0 0
%%Copyright: (Copyright 2002-2003 The Apache Software Foundation. License terms: http://www.apache.org/licenses/LICENSE-2.0)
/BeginEPSF { %def
/b4_Inc_state save def         % Save state for cleanup
/dict_count countdictstack def % Count objects on dict stack
/op_count count 1 sub def      % Count objects on operand stack
userdict begin                 % Push userdict on dict stack
/showpage { } def              % Redefine showpage, { } = null proc
0 setgray 0 setlinecap         % Prepare graphics state
1 setlinewidth 0 setlinejoin
10 setmiterlimit [ ] 0 setdash newpath
/languagelevel where           % If level not equal to 1 then
{pop languagelevel             % set strokeadjust and
1 ne                           % overprint to their defaults.
{false setstrokeadjust false setoverprint
} if
} if
} bd
/EndEPSF { %def
count op_count sub {pop} repeat            % Clean up stacks
countdictstack dict_count sub {end} repeat
b4_Inc_state restore
} bd
%%EndResource
%FOPBeginFontDict
%%IncludeResource: font Courier-Oblique
%%IncludeResource: font Courier-BoldOblique
%%IncludeResource: font Courier-Bold
%%IncludeResource: font ZapfDingbats
%%IncludeResource: font Symbol
%%IncludeResource: font Helvetica
%%IncludeResource: font Helvetica-Oblique
%%IncludeResource: font Helvetica-Bold
%%IncludeResource: font Helvetica-BoldOblique
%%IncludeResource: font Times-Roman
%%IncludeResource: font Times-Italic
%%IncludeResource: font Times-Bold
%%IncludeResource: font Times-BoldItalic
%%IncludeResource: font Courier
%FOPEndFontDict
%%BeginResource: encoding WinAnsiEncoding
/WinAnsiEncoding [
/.notdef /.notdef /.notdef /.notdef /.notdef
/.notdef /.notdef /.notdef /.notdef /.notdef
/.notdef /.notdef /.notdef /.notdef /.notdef
/.notdef /.notdef /.notdef /.notdef /.notdef
/.notdef /.notdef /.notdef /.notdef /.notdef
/.notdef /.notdef /.notdef /.notdef /.notdef
/.notdef /.notdef /space /exclam /quotedbl
/numbersign /dollar /percent /ampersand /quotesingle
/parenleft /parenright /asterisk /plus /comma
/hyphen /period /slash /zero /one
/two /three /four /five /six
/seven /eight /nine /colon /semicolon
/less /equal /greater /question /at
/A /B /C /D /E
/F /G /H /I /J
/K /L /M /N /O
/P /Q /R /S /T
/U /V /W /X /Y
/Z /bracketleft /backslash /bracketright /asciicircum
/underscore /quoteleft /a /b /c
/d /e /f /g /h
/i /j /k /l /m
/n /o /p /q /r
/s /t /u /v /w
/x /y /z /braceleft /bar
/braceright /asciitilde /bullet /Euro /bullet
/quotesinglbase /florin /quotedblbase /ellipsis /dagger
/daggerdbl /circumflex /perthousand /Scaron /guilsinglleft
/OE /bullet /Zcaron /bullet /bullet
/quoteleft /quoteright /quotedblleft /quotedblright /bullet
/endash /emdash /asciitilde /trademark /scaron
/guilsinglright /oe /bullet /zcaron /Ydieresis
/space /exclamdown /cent /sterling /currency
/yen /brokenbar /section /dieresis /copyright
/ordfeminine /guillemotleft /logicalnot /sfthyphen /registered
/macron /degree /plusminus /twosuperior /threesuperior
/acute /mu /paragraph /middot /cedilla
/onesuperior /ordmasculine /guillemotright /onequarter /onehalf
/threequarters /questiondown /Agrave /Aacute /Acircumflex
/Atilde /Adieresis /Aring /AE /Ccedilla
/Egrave /Eacute /Ecircumflex /Edieresis /Igrave
/Iacute /Icircumflex /Idieresis /Eth /Ntilde
/Ograve /Oacute /Ocircumflex /Otilde /Odieresis
/multiply /Oslash /Ugrave /Uacute /Ucircumflex
/Udieresis /Yacute /Thorn /germandbls /agrave
/aacute /acircumflex /atilde /adieresis /aring
/ae /ccedilla /egrave /eacute /ecircumflex
/edieresis /igrave /iacute /icircumflex /idieresis
/eth /ntilde /ograve /oacute /ocircumflex
/otilde /odieresis /divide /oslash /ugrave
/uacute /ucircumflex /udieresis /yacute /thorn
/ydieresis
] def
%%EndResource
%FOPBeginFontReencode
/Courier-Oblique findfont
dup length dict begin
  {1 index /FID ne {def} {pop pop} ifelse} forall
  /Encoding WinAnsiEncoding def
  currentdict
end
/Courier-Oblique exch definefont pop
/Courier-BoldOblique findfont
dup length dict begin
  {1 index /FID ne {def} {pop pop} ifelse} forall
  /Encoding WinAnsiEncoding def
  currentdict
end
/Courier-BoldOblique exch definefont pop
/Courier-Bold findfont
dup length dict begin
  {1 index /FID ne {def} {pop pop} ifelse} forall
  /Encoding WinAnsiEncoding def
  currentdict
end
/Courier-Bold exch definefont pop
/Helvetica findfont
dup length dict begin
  {1 index /FID ne {def} {pop pop} ifelse} forall
  /Encoding WinAnsiEncoding def
  currentdict
end
/Helvetica exch definefont pop
/Helvetica-Oblique findfont
dup length dict begin
  {1 index /FID ne {def} {pop pop} ifelse} forall
  /Encoding WinAnsiEncoding def
  currentdict
end
/Helvetica-Oblique exch definefont pop
/Helvetica-Bold findfont
dup length dict begin
  {1 index /FID ne {def} {pop pop} ifelse} forall
  /Encoding WinAnsiEncoding def
  currentdict
end
/Helvetica-Bold exch definefont pop
/Helvetica-BoldOblique findfont
dup length dict begin
  {1 index /FID ne {def} {pop pop} ifelse} forall
  /Encoding WinAnsiEncoding def
  currentdict
end
/Helvetica-BoldOblique exch definefont pop
/Times-Roman findfont
dup length dict begin
  {1 index /FID ne {def} {pop pop} ifelse} forall
  /Encoding WinAnsiEncoding def
  currentdict
end
/Times-Roman exch definefont pop
/Times-Italic findfont
dup length dict begin
  {1 index /FID ne {def} {pop pop} ifelse} forall
  /Encoding WinAnsiEncoding def
  currentdict
end
/Times-Italic exch definefont pop
/Times-Bold findfont
dup length dict begin
  {1 index /FID ne {def} {pop pop} ifelse} forall
  /Encoding WinAnsiEncoding def
  currentdict
end
/Times-Bold exch definefont pop
/Times-BoldItalic findfont
dup length dict begin
  {1 index /FID ne {def} {pop pop} ifelse} forall
  /Encoding WinAnsiEncoding def
  currentdict
end
/Times-BoldItalic exch definefont pop
/Courier findfont
dup length dict begin
  {1 index /FID ne {def} {pop pop} ifelse} forall
  /Encoding WinAnsiEncoding def
  currentdict
end
/Courier exch definefont pop
%FOPEndFontReencode
%%EndProlog
%%Page: 1 1
%%PageBoundingBox: 0 0 525 394
%%BeginPageSetup
[1 0 0 -1 0 394] CT
%%EndPageSetup
GS
[0.75 0 0 0.74971 0 0.39999] CT
N
0 0 M
700 0 L
700 525 L
0 525 L
0 0 L
cp
clip
1 GC
N
0 0 700 525 re
f
GR
GS
[0.75 0 0 0.74971 0 0.39999] CT
1 GC
N
0 0 700 525 re
f
GR
GS
[0.75 0 0 0.74971 0 0.39999] CT
1 GC
N
91 463 M
634 463 L
634 39 L
91 39 L
cp
f
GR
GS
[0.75 0 0 0.74971 0 0.39999] CT
0.873 GC
1 LJ
0.667 LW
N
91 463 M
91 39 L
S
GR
GS
[0.75 0 0 0.74971 0 0.39999] CT
0.873 GC
1 LJ
0.667 LW
N
199.6 463 M
199.6 39 L
S
GR
GS
[0.75 0 0 0.74971 0 0.39999] CT
0.873 GC
1 LJ
0.667 LW
N
308.2 463 M
308.2 39 L
S
GR
GS
[0.75 0 0 0.74971 0 0.39999] CT
0.873 GC
1 LJ
0.667 LW
N
416.8 463 M
416.8 39 L
S
GR
GS
[0.75 0 0 0.74971 0 0.39999] CT
0.873 GC
1 LJ
0.667 LW
N
525.4 463 M
525.4 39 L
S
GR
GS
[0.75 0 0 0.74971 0 0.39999] CT
0.873 GC
1 LJ
0.667 LW
N
634 463 M
634 39 L
S
GR
GS
[0.75 0 0 0.74971 0 0.39999] CT
0.873 GC
1 LJ
0.667 LW
N
634 463 M
91 463 L
S
GR
GS
[0.75 0 0 0.74971 0 0.39999] CT
0.873 GC
1 LJ
0.667 LW
N
634 392.333 M
91 392.333 L
S
GR
GS
[0.75 0 0 0.74971 0 0.39999] CT
0.873 GC
1 LJ
0.667 LW
N
634 321.667 M
91 321.667 L
S
GR
GS
[0.75 0 0 0.74971 0 0.39999] CT
0.873 GC
1 LJ
0.667 LW
N
634 251 M
91 251 L
S
GR
GS
[0.75 0 0 0.74971 0 0.39999] CT
0.873 GC
1 LJ
0.667 LW
N
634 180.333 M
91 180.333 L
S
GR
GS
[0.75 0 0 0.74971 0 0.39999] CT
0.873 GC
1 LJ
0.667 LW
N
634 109.667 M
91 109.667 L
S
GR
GS
[0.75 0 0 0.74971 0 0.39999] CT
0.873 GC
1 LJ
0.667 LW
N
634 39 M
91 39 L
S
GR
GS
[0.75 0 0 0.74971 0 0.39999] CT
0.149 GC
2 setlinecap
1 LJ
0.667 LW
N
91 463 M
634 463 L
S
GR
GS
[0.75 0 0 0.74971 0 0.39999] CT
0.149 GC
2 setlinecap
1 LJ
0.667 LW
N
91 39 M
634 39 L
S
GR
GS
[0.75 0 0 0.74971 0 0.39999] CT
0.149 GC
2 setlinecap
1 LJ
0.667 LW
N
91 463 M
91 457.57 L
S
GR
GS
[0.75 0 0 0.74971 0 0.39999] CT
0.149 GC
2 setlinecap
1 LJ
0.667 LW
N
199.6 463 M
199.6 457.57 L
S
GR
GS
[0.75 0 0 0.74971 0 0.39999] CT
0.149 GC
2 setlinecap
1 LJ
0.667 LW
N
308.2 463 M
308.2 457.57 L
S
GR
GS
[0.75 0 0 0.74971 0 0.39999] CT
0.149 GC
2 setlinecap
1 LJ
0.667 LW
N
416.8 463 M
416.8 457.57 L
S
GR
GS
[0.75 0 0 0.74971 0 0.39999] CT
0.149 GC
2 setlinecap
1 LJ
0.667 LW
N
525.4 463 M
525.4 457.57 L
S
GR
GS
[0.75 0 0 0.74971 0 0.39999] CT
0.149 GC
2 setlinecap
1 LJ
0.667 LW
N
634 463 M
634 457.57 L
S
GR
GS
[0.75 0 0 0.74971 0 0.39999] CT
0.149 GC
2 setlinecap
1 LJ
0.667 LW
N
91 39 M
91 44.43 L
S
GR
GS
[0.75 0 0 0.74971 0 0.39999] CT
0.149 GC
2 setlinecap
1 LJ
0.667 LW
N
199.6 39 M
199.6 44.43 L
S
GR
GS
[0.75 0 0 0.74971 0 0.39999] CT
0.149 GC
2 setlinecap
1 LJ
0.667 LW
N
308.2 39 M
308.2 44.43 L
S
GR
GS
[0.75 0 0 0.74971 0 0.39999] CT
0.149 GC
2 setlinecap
1 LJ
0.667 LW
N
416.8 39 M
416.8 44.43 L
S
GR
GS
[0.75 0 0 0.74971 0 0.39999] CT
0.149 GC
2 setlinecap
1 LJ
0.667 LW
N
525.4 39 M
525.4 44.43 L
S
GR
GS
[0.75 0 0 0.74971 0 0.39999] CT
0.149 GC
2 setlinecap
1 LJ
0.667 LW
N
634 39 M
634 44.43 L
S
GR
GS
[0.75 0 0 0.74971 68.25 352.5158] CT
0.149 GC
/Helvetica 20 F
GS
[1 0 0 1 0 0] CT
-6 21 moveto 
1 -1 scale
(0) t 
GR
GR
GS
[0.75 0 0 0.74971 149.7 352.5158] CT
0.149 GC
/Helvetica 20 F
GS
[1 0 0 1 0 0] CT
-17 21 moveto 
1 -1 scale
(200) t 
GR
GR
GS
[0.75 0 0 0.74971 231.15001 352.5158] CT
0.149 GC
/Helvetica 20 F
GS
[1 0 0 1 0 0] CT
-17 21 moveto 
1 -1 scale
(400) t 
GR
GR
GS
[0.75 0 0 0.74971 312.59999 352.5158] CT
0.149 GC
/Helvetica 20 F
GS
[1 0 0 1 0 0] CT
-17 21 moveto 
1 -1 scale
(600) t 
GR
GR
GS
[0.75 0 0 0.74971 394.05002 352.5158] CT
0.149 GC
/Helvetica 20 F
GS
[1 0 0 1 0 0] CT
-17 21 moveto 
1 -1 scale
(800) t 
GR
GR
GS
[0.75 0 0 0.74971 475.5 352.5158] CT
0.149 GC
/Helvetica 20 F
GS
[1 0 0 1 0 0] CT
-22.5 21 moveto 
1 -1 scale
(1000) t 
GR
GR
GS
[0.75 0 0 0.74971 271.87521 373.008] CT
0.149 GC
/Helvetica 22 F
GS
[1 0 0 1 0 0] CT
-48.5 23 moveto 
1 -1 scale
(Itterations) t 
GR
GR
GS
[0.75 0 0 0.74971 0 0.39999] CT
0.149 GC
2 setlinecap
1 LJ
0.667 LW
N
91 463 M
91 39 L
S
GR
GS
[0.75 0 0 0.74971 0 0.39999] CT
0.149 GC
2 setlinecap
1 LJ
0.667 LW
N
634 463 M
634 39 L
S
GR
GS
[0.75 0 0 0.74971 0 0.39999] CT
0.149 GC
2 setlinecap
1 LJ
0.667 LW
N
91 463 M
96.43 463 L
S
GR
GS
[0.75 0 0 0.74971 0 0.39999] CT
0.149 GC
2 setlinecap
1 LJ
0.667 LW
N
91 392.333 M
96.43 392.333 L
S
GR
GS
[0.75 0 0 0.74971 0 0.39999] CT
0.149 GC
2 setlinecap
1 LJ
0.667 LW
N
91 321.667 M
96.43 321.667 L
S
GR
GS
[0.75 0 0 0.74971 0 0.39999] CT
0.149 GC
2 setlinecap
1 LJ
0.667 LW
N
91 251 M
96.43 251 L
S
GR
GS
[0.75 0 0 0.74971 0 0.39999] CT
0.149 GC
2 setlinecap
1 LJ
0.667 LW
N
91 180.333 M
96.43 180.333 L
S
GR
GS
[0.75 0 0 0.74971 0 0.39999] CT
0.149 GC
2 setlinecap
1 LJ
0.667 LW
N
91 109.667 M
96.43 109.667 L
S
GR
GS
[0.75 0 0 0.74971 0 0.39999] CT
0.149 GC
2 setlinecap
1 LJ
0.667 LW
N
91 39 M
96.43 39 L
S
GR
GS
[0.75 0 0 0.74971 0 0.39999] CT
0.149 GC
2 setlinecap
1 LJ
0.667 LW
N
634 463 M
628.57 463 L
S
GR
GS
[0.75 0 0 0.74971 0 0.39999] CT
0.149 GC
2 setlinecap
1 LJ
0.667 LW
N
634 392.333 M
628.57 392.333 L
S
GR
GS
[0.75 0 0 0.74971 0 0.39999] CT
0.149 GC
2 setlinecap
1 LJ
0.667 LW
N
634 321.667 M
628.57 321.667 L
S
GR
GS
[0.75 0 0 0.74971 0 0.39999] CT
0.149 GC
2 setlinecap
1 LJ
0.667 LW
N
634 251 M
628.57 251 L
S
GR
GS
[0.75 0 0 0.74971 0 0.39999] CT
0.149 GC
2 setlinecap
1 LJ
0.667 LW
N
634 180.333 M
628.57 180.333 L
S
GR
GS
[0.75 0 0 0.74971 0 0.39999] CT
0.149 GC
2 setlinecap
1 LJ
0.667 LW
N
634 109.667 M
628.57 109.667 L
S
GR
GS
[0.75 0 0 0.74971 0 0.39999] CT
0.149 GC
2 setlinecap
1 LJ
0.667 LW
N
634 39 M
628.57 39 L
S
GR
GS
[0.75 0 0 0.74971 63.25 347.51771] CT
0.149 GC
/Helvetica 20 F
GS
[1 0 0 1 0 0] CT
-12 8 moveto 
1 -1 scale
(0) t 
GR
GR
GS
[0.75 0 0 0.74971 63.25 294.53791] CT
0.149 GC
/Helvetica 20 F
GS
[1 0 0 1 0 0] CT
-12 8 moveto 
1 -1 scale
(1) t 
GR
GR
GS
[0.75 0 0 0.74971 63.25 241.55809] CT
0.149 GC
/Helvetica 20 F
GS
[1 0 0 1 0 0] CT
-12 8 moveto 
1 -1 scale
(2) t 
GR
GR
GS
[0.75 0 0 0.74971 63.25 188.57828] CT
0.149 GC
/Helvetica 20 F
GS
[1 0 0 1 0 0] CT
-12 8 moveto 
1 -1 scale
(3) t 
GR
GR
GS
[0.75 0 0 0.74971 63.25 135.59847] CT
0.149 GC
/Helvetica 20 F
GS
[1 0 0 1 0 0] CT
-12 8 moveto 
1 -1 scale
(4) t 
GR
GR
GS
[0.75 0 0 0.74971 63.25 82.61866] CT
0.149 GC
/Helvetica 20 F
GS
[1 0 0 1 0 0] CT
-12 8 moveto 
1 -1 scale
(5) t 
GR
GR
GS
[0.75 0 0 0.74971 63.25 29.63885] CT
0.149 GC
/Helvetica 20 F
GS
[1 0 0 1 0 0] CT
-12 8 moveto 
1 -1 scale
(6) t 
GR
GR
GS
[0 -0.74971 0.75 0 51.25 188.57813] CT
0.149 GC
/Helvetica 22 F
GS
[1 0 0 1 0 0] CT
-50.5 -5 moveto 
1 -1 scale
(Difference) t 
GR
GR
GS
[0.75 0 0 0.74971 162.75 22.89142] CT
/Helvetica-Bold 22 F
GS
[1 0 0 1 0 0] CT
0 0 moveto 
1 -1 scale
(Norm 2 distance from ) t 
GR
GR
GS
[0.75 0 0 0.74971 337.5 22.89142] CT
N
3.547 0.25 M
2.547 0.25 1.945 -0.484 QT
1.344 -1.219 1.109 -2.25 QT
0.875 -3.281 0.875 -4.281 QT
0.875 -4.313 L
0.875 -5.406 1.086 -6.586 QT
1.297 -7.766 1.695 -8.945 QT
2.094 -10.125 2.563 -11.047 QT
2.875 -11.688 3.391 -12.484 QT
3.906 -13.281 4.531 -13.969 QT
5.156 -14.656 5.883 -15.086 QT
6.609 -15.516 7.344 -15.516 QT
7.375 -15.516 L
9.172 -15.516 9.703 -15.07 QT
10.234 -14.625 10.523 -13.938 QT
10.813 -13.25 10.938 -12.469 QT
11.063 -11.688 11.063 -10.984 QT
11.063 -9.313 10.609 -7.578 QT
10.156 -5.844 9.359 -4.219 QT
9.063 -3.609 8.531 -2.781 QT
8 -1.953 7.398 -1.297 QT
6.797 -0.641 6.055 -0.195 QT
5.313 0.25 3.563 0.25 QT
3.547 0.25 L
cp
3.594 -0.328 M
4.313 -0.328 4.984 -1.109 QT
5.656 -1.891 6.164 -3 QT
6.672 -4.109 7.055 -5.281 QT
7.438 -6.453 7.609 -7.266 QT
4.125 -7.266 L
3.781 -5.875 3.586 -4.875 QT
3.391 -3.875 3.391 -2.906 QT
3.391 -0.328 3.594 -0.328 QT
cp
4.297 -8.031 M
7.813 -8.031 L
8.047 -9 8.188 -9.648 QT
8.328 -10.297 8.422 -11.016 QT
8.516 -11.734 8.516 -12.359 QT
8.516 -14.938 7.344 -14.938 QT
6.953 -14.938 5.938 -12.688 QT
4.922 -10.438 4.297 -8.031 QT
cp
f
GR
GS
[0.75 0 0 0.74971 346.5 22.89142] CT
/Helvetica-Bold 22 F
GS
[1 0 0 1 0 0] CT
0 0 moveto 
1 -1 scale
( to 0) t 
GR
GR
GS
[0.75 0 0 0.74971 0 0.39999] CT
0 0.447 0.741 RC
1 LJ
2.667 LW
N
91.543 438.015 M
92.086 413.655 L
92.629 389.904 L
93.172 388.077 L
93.715 386.341 L
94.258 384.692 L
94.801 386.519 L
95.344 388.3 L
95.887 386.824 L
96.43 380.424 L
96.973 382.161 L
97.516 383.855 L
98.059 385.506 L
98.602 362.132 L
99.145 360.591 L
99.688 362.786 L
100.231 361.378 L
100.774 360.04 L
101.317 362.179 L
101.86 364.265 L
102.403 341.315 L
102.946 339.576 L
103.489 332.927 L
104.032 335.535 L
104.575 334.28 L
105.118 336.823 L
105.661 335.695 L
106.204 338.174 L
106.747 337.164 L
107.29 336.205 L
107.833 335.294 L
108.376 329.431 L
108.919 331.848 L
109.462 331.336 L
110.005 333.692 L
110.548 333.264 L
111.091 327.861 L
111.634 330.159 L
112.177 332.399 L
112.72 332.376 L
113.263 332.355 L
113.806 334.539 L
114.349 334.573 L
114.892 336.702 L
115.435 338.778 L
115.978 338.916 L
116.521 340.94 L
117.064 317.93 L
117.607 317.536 L
118.15 320.085 L
118.693 319.774 L
119.236 322.259 L
119.779 322.026 L
120.322 316.808 L
120.865 316.848 L
121.408 319.271 L
121.951 319.369 L
122.494 314.466 L
123.037 316.828 L
123.58 317.226 L
124.123 317.604 L
124.666 317.963 L
125.209 320.266 L
125.752 320.664 L
126.295 322.91 L
126.838 323.345 L
127.381 318.761 L
127.924 320.951 L
128.467 323.086 L
129.01 323.836 L
129.553 324.548 L
130.096 325.226 L
130.639 327.307 L
131.182 328.002 L
131.725 330.032 L
132.268 330.743 L
132.811 332.721 L
133.354 334.651 L
133.897 336.532 L
134.44 313.382 L
134.983 290.81 L
135.526 293.787 L
136.069 293.539 L
136.612 293.303 L
137.155 288.082 L
137.698 290.985 L
138.241 293.815 L
138.784 293.995 L
139.327 294.166 L
139.87 289.333 L
140.413 292.092 L
140.956 292.565 L
141.499 295.255 L
142.042 297.879 L
142.585 275.452 L
143.128 275.474 L
143.671 270.498 L
144.214 248.632 L
144.757 252.297 L
145.3 255.871 L
145.843 255.775 L
146.386 259.259 L
146.929 259.255 L
147.472 259.251 L
148.015 254.251 L
148.558 232.663 L
149.101 232.369 L
149.644 232.09 L
150.187 231.826 L
150.73 226.578 L
151.273 230.513 L
151.816 230.623 L
152.359 225.73 L
152.902 226.078 L
153.445 229.915 L
153.988 208.673 L
154.531 212.947 L
155.074 192.128 L
155.617 196.816 L
156.16 196.415 L
156.703 196.035 L
157.246 200.604 L
157.789 205.059 L
158.332 209.403 L
158.875 188.654 L
159.418 193.408 L
159.961 192.981 L
160.504 197.616 L
161.047 177.151 L
161.59 182.183 L
162.133 187.089 L
162.676 191.87 L
163.219 191.437 L
163.762 196.099 L
164.305 195.804 L
164.848 200.35 L
165.391 204.782 L
165.934 204.726 L
166.477 209.047 L
167.02 213.261 L
167.563 213.42 L
168.106 217.529 L
168.649 196.551 L
169.192 196.281 L
169.735 196.025 L
170.278 190.785 L
170.821 170.331 L
171.364 175.372 L
171.907 175.006 L
172.45 179.921 L
172.993 184.713 L
173.536 164.402 L
174.079 169.583 L
174.622 169.098 L
175.165 168.639 L
175.708 173.689 L
176.251 173.379 L
176.794 173.084 L
177.337 167.808 L
177.88 162.795 L
178.423 163.029 L
178.966 167.953 L
179.509 168.299 L
180.052 168.628 L
180.595 163.944 L
181.138 164.49 L
181.681 169.291 L
182.224 169.93 L
182.767 174.611 L
183.31 175.335 L
183.853 171.027 L
184.396 171.93 L
184.939 167.792 L
185.482 147.373 L
186.025 142.931 L
186.568 123.023 L
187.111 128.594 L
187.654 134.026 L
188.197 129.584 L
188.74 130.359 L
189.283 131.096 L
189.826 136.394 L
190.369 116.575 L
190.912 116.913 L
191.455 117.234 L
191.998 122.893 L
192.541 128.411 L
193.084 128.995 L
193.627 134.376 L
194.17 135.065 L
194.713 135.72 L
195.256 131.346 L
195.799 132.187 L
196.342 137.432 L
196.885 142.547 L
197.428 143.605 L
197.971 148.591 L
198.514 149.721 L
199.057 154.583 L
199.6 159.324 L
200.143 138.964 L
200.686 144.094 L
201.229 145.026 L
201.772 145.911 L
202.315 146.753 L
202.858 151.755 L
203.401 152.68 L
203.944 153.559 L
204.487 158.436 L
205.03 163.191 L
205.573 167.828 L
206.116 169.019 L
206.659 170.15 L
207.202 166.229 L
207.745 167.499 L
208.288 172.02 L
208.831 173.341 L
209.374 177.748 L
209.917 182.046 L
210.46 161.254 L
211.003 162.207 L
211.546 163.112 L
212.089 158.975 L
212.632 163.684 L
213.175 164.869 L
213.718 169.46 L
214.261 170.7 L
214.804 175.176 L
215.347 179.541 L
215.89 180.94 L
216.433 185.196 L
216.976 186.632 L
217.519 187.996 L
218.062 192.144 L
218.605 196.19 L
219.148 197.69 L
219.691 201.634 L
220.234 203.158 L
220.777 204.607 L
221.32 200.986 L
221.863 204.832 L
222.406 206.484 L
222.949 210.234 L
223.492 211.897 L
224.035 213.478 L
224.578 217.133 L
225.121 218.726 L
225.664 215.243 L
226.207 193.828 L
226.75 197.926 L
227.293 199.18 L
227.836 200.372 L
228.379 204.369 L
228.922 205.601 L
229.465 209.498 L
230.008 213.299 L
230.551 214.661 L
231.094 215.955 L
231.637 217.186 L
232.18 220.89 L
232.723 222.152 L
233.266 225.763 L
233.809 229.285 L
234.352 232.72 L
234.895 234.181 L
235.438 237.53 L
235.981 239.002 L
236.524 240.402 L
237.067 241.731 L
237.61 237.999 L
238.153 241.262 L
238.696 244.445 L
239.239 246.055 L
239.782 249.158 L
240.325 250.766 L
240.868 253.791 L
241.411 255.394 L
241.954 258.343 L
242.497 259.94 L
243.04 261.457 L
243.583 257.902 L
244.126 260.777 L
244.669 263.581 L
245.212 265.341 L
245.755 268.075 L
246.298 269.815 L
246.841 271.47 L
247.384 274.134 L
247.927 275.772 L
248.47 278.37 L
249.013 279.992 L
249.556 281.533 L
250.099 278 L
250.642 280.532 L
251.185 282.236 L
251.728 284.705 L
252.271 287.112 L
252.814 289.46 L
253.357 266.779 L
253.9 268.01 L
254.443 270.867 L
254.986 272.108 L
255.529 274.893 L
256.072 276.141 L
256.615 278.857 L
257.158 280.111 L
257.701 282.758 L
258.244 284.016 L
258.787 286.597 L
259.33 287.856 L
259.873 289.053 L
260.416 285.194 L
260.959 286.525 L
261.502 289.041 L
262.045 291.495 L
262.588 268.915 L
263.131 269.738 L
263.674 272.695 L
264.217 275.579 L
264.76 253.415 L
265.303 253.79 L
265.846 232.178 L
266.389 236.082 L
266.932 239.893 L
267.475 239.901 L
268.018 243.613 L
268.561 243.713 L
269.104 247.331 L
269.647 247.518 L
270.19 242.698 L
270.733 238.119 L
271.276 238.765 L
271.819 239.38 L
272.362 234.967 L
272.905 235.771 L
273.448 239.299 L
273.991 240.151 L
274.534 235.964 L
275.077 239.403 L
275.62 242.757 L
276.163 246.029 L
276.706 247.298 L
277.249 250.487 L
277.792 228.623 L
278.335 232.279 L
278.878 233.11 L
279.421 233.901 L
279.964 229.655 L
280.507 230.617 L
281.05 231.532 L
281.593 227.405 L
282.136 223.484 L
282.679 224.755 L
283.222 220.967 L
283.765 222.363 L
284.308 223.69 L
284.851 224.952 L
285.394 228.515 L
285.937 231.989 L
286.48 235.378 L
287.023 236.835 L
287.566 240.139 L
288.109 241.607 L
288.652 243.001 L
289.195 244.327 L
289.738 247.546 L
290.281 250.686 L
290.824 252.104 L
291.367 253.451 L
291.91 249.735 L
292.453 252.798 L
292.996 254.338 L
293.539 255.803 L
294.082 258.788 L
294.625 260.254 L
295.168 263.164 L
295.711 241.032 L
296.254 241.943 L
296.797 242.809 L
297.34 243.632 L
297.883 247.023 L
298.426 247.89 L
298.969 251.196 L
299.512 252.102 L
300.055 255.325 L
300.598 258.468 L
301.141 259.487 L
301.684 262.552 L
302.227 263.597 L
302.77 264.591 L
303.313 265.535 L
303.856 268.521 L
304.399 271.434 L
304.942 274.274 L
305.485 275.389 L
306.028 278.158 L
306.571 255.89 L
307.114 256.462 L
307.657 252.01 L
308.2 255.267 L
308.743 233.471 L
309.286 233.773 L
309.829 237.493 L
310.372 216.148 L
310.915 220.309 L
311.458 220.259 L
312.001 220.212 L
312.544 224.268 L
313.087 228.224 L
313.63 232.082 L
314.173 210.867 L
314.716 190.181 L
315.259 194.988 L
315.802 194.313 L
316.345 188.676 L
316.888 188.316 L
317.431 187.975 L
317.974 192.662 L
318.517 192.455 L
319.06 197.025 L
319.603 201.481 L
320.146 205.826 L
320.689 205.963 L
321.232 210.2 L
321.775 210.435 L
322.318 210.66 L
322.861 214.79 L
323.404 215.106 L
323.947 219.133 L
324.49 223.06 L
325.033 223.558 L
325.576 224.033 L
326.119 227.861 L
326.662 228.408 L
327.205 228.928 L
327.748 232.658 L
328.291 233.246 L
328.834 236.883 L
329.377 240.43 L
329.92 243.889 L
330.463 244.712 L
331.006 245.494 L
331.549 246.238 L
332.092 241.949 L
332.635 242.871 L
333.178 246.241 L
333.721 247.201 L
334.264 250.487 L
334.807 253.692 L
335.35 256.818 L
335.893 257.968 L
336.436 261.016 L
336.979 262.185 L
337.522 265.156 L
338.065 266.341 L
338.608 267.467 L
339.151 270.363 L
339.694 271.506 L
340.237 272.592 L
340.78 275.415 L
341.323 276.517 L
341.866 272.569 L
342.409 275.321 L
342.952 276.634 L
343.495 279.318 L
344.038 281.934 L
344.581 259.525 L
345.124 260.345 L
345.667 261.125 L
346.21 256.87 L
346.753 259.983 L
347.296 238.049 L
347.839 241.63 L
348.382 242.204 L
348.925 245.696 L
349.468 246.326 L
350.011 246.926 L
350.554 250.33 L
351.097 253.649 L
351.64 256.887 L
352.183 257.704 L
352.726 258.481 L
353.269 259.22 L
353.812 262.374 L
354.355 263.156 L
354.898 266.231 L
355.441 267.05 L
355.984 262.832 L
356.527 265.832 L
357.07 268.757 L
357.613 246.647 L
358.156 250.052 L
358.699 253.372 L
359.242 231.644 L
359.785 231.852 L
360.328 235.632 L
360.871 214.35 L
361.414 218.567 L
361.957 218.434 L
362.5 222.545 L
363.043 222.521 L
363.586 226.529 L
364.129 230.438 L
364.672 234.251 L
365.215 212.998 L
365.758 212.737 L
366.301 212.489 L
366.844 216.735 L
367.387 220.875 L
367.93 224.913 L
368.473 224.988 L
369.016 228.924 L
369.559 229.093 L
370.102 229.254 L
370.645 224.412 L
371.188 228.25 L
371.731 231.993 L
372.274 232.576 L
372.817 233.131 L
373.36 236.779 L
373.903 240.337 L
374.446 241.044 L
374.989 219.548 L
375.532 223.553 L
376.075 227.458 L
376.618 227.791 L
377.161 228.108 L
377.704 223.413 L
378.247 223.947 L
378.79 224.456 L
379.333 228.263 L
379.876 231.975 L
380.419 210.63 L
380.962 189.815 L
381.505 194.489 L
382.048 199.047 L
382.591 198.894 L
383.134 203.338 L
383.677 182.7 L
384.22 187.549 L
384.763 187.12 L
385.306 191.848 L
385.849 196.457 L
386.392 196.283 L
386.935 200.777 L
387.478 180.189 L
388.021 185.083 L
388.564 184.637 L
389.107 184.215 L
389.65 188.988 L
390.193 188.706 L
390.736 193.359 L
391.279 193.208 L
391.822 197.745 L
392.365 197.714 L
392.908 202.138 L
393.451 202.22 L
393.994 206.533 L
394.537 210.739 L
395.08 189.872 L
395.623 169.524 L
396.166 174.657 L
396.709 174.044 L
397.252 173.463 L
397.795 178.465 L
398.338 178.038 L
398.881 182.916 L
399.424 187.672 L
399.967 187.507 L
400.51 192.145 L
401.053 171.696 L
401.596 171.145 L
402.139 165.626 L
402.682 170.656 L
403.225 165.539 L
403.768 165.674 L
404.311 170.578 L
404.854 170.828 L
405.397 175.61 L
405.94 180.274 L
406.483 159.853 L
407.026 164.909 L
407.569 169.84 L
408.112 170.052 L
408.655 174.859 L
409.198 175.181 L
409.741 179.868 L
410.284 184.439 L
410.827 163.927 L
411.37 168.897 L
411.913 148.772 L
412.456 143.424 L
412.999 143.336 L
413.542 148.684 L
414.085 148.735 L
414.628 153.949 L
415.171 159.034 L
415.714 159.339 L
416.257 164.297 L
416.8 164.71 L
417.343 165.105 L
417.886 165.48 L
418.429 170.31 L
418.972 175.021 L
419.515 179.616 L
420.058 159.127 L
420.601 159.325 L
421.144 164.314 L
421.687 164.627 L
422.23 169.49 L
422.773 174.234 L
423.316 174.77 L
423.859 175.282 L
424.402 179.904 L
424.945 180.505 L
425.488 185.013 L
426.031 185.697 L
426.574 181.351 L
427.117 182.219 L
427.66 186.612 L
428.203 190.9 L
428.746 191.939 L
429.289 192.927 L
429.832 193.867 L
430.375 189.764 L
430.918 190.86 L
431.461 195.039 L
432.004 196.185 L
432.547 197.274 L
433.09 201.347 L
433.633 202.484 L
434.176 203.565 L
434.719 199.596 L
435.262 203.569 L
435.805 204.891 L
436.348 206.148 L
436.891 210.021 L
437.434 213.797 L
437.977 215.182 L
438.52 218.864 L
439.063 220.271 L
439.606 221.61 L
440.149 222.883 L
440.692 226.469 L
441.235 227.768 L
441.778 231.263 L
442.321 234.673 L
442.864 236.079 L
443.407 239.403 L
443.95 240.822 L
444.493 242.171 L
445.036 245.41 L
445.579 248.569 L
446.122 250.009 L
446.665 253.089 L
447.208 254.535 L
447.751 255.91 L
448.294 252.221 L
448.837 253.711 L
449.38 256.712 L
449.923 258.203 L
450.466 254.625 L
451.009 256.216 L
451.552 259.141 L
452.095 260.73 L
452.638 263.583 L
453.181 266.365 L
453.724 268.015 L
454.267 269.583 L
454.81 266.078 L
455.353 268.789 L
455.896 270.521 L
456.439 272.168 L
456.982 268.738 L
457.525 270.469 L
458.068 273.111 L
458.611 275.687 L
459.154 278.201 L
459.697 280.653 L
460.24 258.124 L
460.783 259.464 L
461.326 262.415 L
461.869 263.763 L
462.412 260.048 L
462.955 261.514 L
463.498 264.391 L
464.041 260.86 L
464.584 263.667 L
465.127 266.405 L
465.67 244.147 L
466.213 240.375 L
466.756 218.661 L
467.299 219.529 L
467.842 215.358 L
468.385 211.395 L
468.928 212.624 L
469.471 216.396 L
470.014 217.657 L
470.557 218.857 L
471.1 222.532 L
471.643 226.117 L
472.186 204.668 L
472.729 205.452 L
473.272 209.484 L
473.815 213.416 L
474.358 192.297 L
474.901 192.71 L
475.444 193.104 L
475.987 193.48 L
476.53 193.838 L
477.073 189.183 L
477.616 193.545 L
478.159 172.842 L
478.702 173.004 L
479.245 177.776 L
479.788 157.468 L
480.331 157.232 L
480.874 162.394 L
481.417 162.3 L
481.96 167.332 L
482.503 147.274 L
483.046 146.811 L
483.589 152.215 L
484.132 157.486 L
484.675 157.312 L
485.218 162.451 L
485.761 162.414 L
486.304 162.381 L
486.847 167.389 L
487.39 172.273 L
487.933 177.037 L
488.476 177.37 L
489.019 177.687 L
489.562 182.329 L
490.105 182.747 L
490.648 183.145 L
491.191 187.669 L
491.734 192.082 L
492.277 171.431 L
492.82 176.249 L
493.363 176.451 L
493.906 176.645 L
494.449 181.344 L
494.992 181.646 L
495.535 181.934 L
496.078 177.213 L
496.621 156.839 L
497.164 136.968 L
497.707 142.563 L
498.25 123.047 L
498.793 128.981 L
499.336 128.28 L
499.879 134.07 L
500.422 114.749 L
500.965 108.754 L
501.508 89.916 L
502.051 96.514 L
502.594 95.507 L
503.137 94.552 L
503.68 88.649 L
504.223 88.031 L
504.766 69.498 L
505.309 76.393 L
505.852 83.116 L
506.395 82.41 L
506.938 81.741 L
507.481 88.295 L
508.024 87.823 L
508.567 82.379 L
509.11 88.773 L
509.653 88.754 L
510.196 88.737 L
510.739 88.722 L
511.282 83.713 L
511.825 83.948 L
512.368 90.181 L
512.911 90.56 L
513.454 96.635 L
513.997 97.147 L
514.54 103.071 L
515.083 108.849 L
515.626 109.627 L
516.169 110.368 L
516.712 115.998 L
517.255 121.489 L
517.798 101.881 L
518.341 107.722 L
518.884 113.419 L
519.427 118.974 L
519.97 99.429 L
520.513 105.339 L
521.056 111.098 L
521.599 91.748 L
522.142 97.851 L
522.685 103.794 L
523.228 109.589 L
523.771 90.278 L
524.314 71.448 L
524.857 78.051 L
525.4 77.947 L
525.943 77.85 L
526.486 84.286 L
527.029 90.562 L
527.572 96.684 L
528.115 97.06 L
528.658 103.028 L
529.201 103.535 L
529.744 104.017 L
530.287 109.834 L
530.83 115.507 L
531.373 116.251 L
531.916 116.96 L
532.459 117.635 L
533.002 113.281 L
533.545 93.853 L
534.088 99.866 L
534.631 105.731 L
535.174 106.399 L
535.717 107.036 L
536.26 102.645 L
536.803 83.404 L
537.346 78.751 L
537.889 79.322 L
538.432 79.867 L
538.975 80.386 L
539.518 86.584 L
540.061 92.629 L
540.604 93.427 L
541.147 94.186 L
541.69 94.909 L
542.233 100.799 L
542.776 106.543 L
543.319 107.519 L
543.862 103.452 L
544.405 109.053 L
544.948 114.516 L
545.491 115.921 L
546.034 117.258 L
546.577 118.53 L
547.12 123.851 L
547.663 129.042 L
548.206 134.104 L
548.749 114.088 L
549.292 94.568 L
549.835 100.488 L
550.378 101.244 L
550.921 101.963 L
551.464 107.736 L
552.007 113.366 L
552.55 118.857 L
553.093 119.96 L
553.636 125.313 L
554.179 126.496 L
554.722 131.714 L
555.265 111.853 L
555.808 92.481 L
556.351 92.757 L
556.894 93.016 L
557.437 99.086 L
557.98 105.007 L
558.523 105.551 L
559.066 106.069 L
559.609 106.563 L
560.152 107.034 L
560.695 102.486 L
561.238 108.254 L
561.781 113.879 L
562.324 119.366 L
562.867 99.759 L
563.41 100.363 L
563.953 106.201 L
564.496 106.92 L
565.039 107.606 L
565.582 103.262 L
566.125 104.132 L
566.668 99.963 L
567.211 100.994 L
567.754 101.975 L
568.297 107.665 L
568.84 113.214 L
569.383 93.673 L
569.926 94.396 L
570.469 100.295 L
571.012 101.13 L
571.555 101.924 L
572.098 107.673 L
572.641 113.281 L
573.184 114.318 L
573.727 119.785 L
574.27 120.907 L
574.813 126.237 L
575.356 106.485 L
575.899 112.172 L
576.442 113.024 L
576.985 118.575 L
577.528 119.517 L
578.071 124.929 L
578.614 105.252 L
579.157 100.799 L
579.7 106.565 L
580.243 112.188 L
580.786 113.235 L
581.329 118.717 L
581.872 119.849 L
582.415 120.926 L
582.958 121.95 L
583.501 127.29 L
584.044 128.398 L
584.587 124.455 L
585.13 129.66 L
585.673 134.737 L
586.216 136.242 L
586.759 137.674 L
587.302 142.621 L
587.845 147.446 L
588.388 149.049 L
588.931 153.753 L
589.474 158.342 L
590.017 137.881 L
590.56 134.131 L
591.103 139.112 L
591.646 140.67 L
592.189 145.527 L
592.732 150.263 L
593.275 151.981 L
593.818 153.615 L
594.361 150.173 L
594.904 154.799 L
595.447 134.369 L
595.99 135.7 L
596.533 140.718 L
597.076 142.101 L
597.619 146.994 L
598.162 148.431 L
598.705 149.798 L
599.248 151.098 L
599.791 155.862 L
600.334 157.217 L
600.877 161.861 L
601.42 166.391 L
601.963 167.906 L
602.506 172.322 L
603.049 176.631 L
603.592 178.287 L
604.135 179.861 L
604.678 181.359 L
605.221 185.554 L
605.764 189.646 L
606.307 193.638 L
606.85 195.365 L
607.393 199.256 L
607.936 200.995 L
608.479 204.787 L
609.022 206.534 L
609.565 210.231 L
610.108 188.926 L
610.651 168.142 L
611.194 163.85 L
611.737 164.762 L
612.28 169.424 L
612.823 149.035 L
613.366 154.09 L
613.909 134.08 L
614.452 139.507 L
614.995 144.801 L
615.538 145.17 L
616.081 145.522 L
616.624 150.679 L
617.167 151.143 L
617.71 156.171 L
618.253 161.075 L
618.796 161.762 L
619.339 166.544 L
619.882 167.316 L
620.425 168.051 L
620.968 172.71 L
621.511 177.255 L
622.054 156.76 L
622.597 152.183 L
623.14 152.823 L
623.683 153.436 L
624.226 149.025 L
624.769 129.033 L
625.312 109.536 L
625.855 109.352 L
626.398 115.281 L
626.941 121.065 L
627.484 126.706 L
628.027 126.962 L
628.57 132.462 L
629.113 112.882 L
629.656 118.735 L
630.199 99.496 L
630.742 94.061 L
631.285 93.89 L
631.828 93.73 L
632.371 88.583 L
632.914 88.682 L
633.457 69.918 L
634 76.575 L
S
GR
%%Trailer
%%Pages: 1
%%EOF
