%!PS-Adobe-3.0 EPSF-3.0
%%Creator: (MATLAB, The Mathworks, Inc. Version 9.3.0.713579 \(R2017b\). Operating System: Windows 7)
%%Title: (C:/Users/Taeke/Documents/Studie 2017-2018/Q3 - Q4 Machine Learning/machinelearning/assignment7/fig/mean.eps)
%%CreationDate: 2018-07-05T22:24:50
%%Pages: (atend)
%%BoundingBox:    24     3   412   367
%%LanguageLevel: 3
%%EndComments
%%BeginProlog
%%BeginResource: procset (Apache XML Graphics Std ProcSet) 1.2 0
%%Version: 1.2 0
%%Copyright: (Copyright 2001-2003,2010 The Apache Software Foundation. License terms: http://www.apache.org/licenses/LICENSE-2.0)
/bd{bind def}bind def
/ld{load def}bd
/GR/grestore ld
/GS/gsave ld
/RM/rmoveto ld
/C/curveto ld
/t/show ld
/L/lineto ld
/ML/setmiterlimit ld
/CT/concat ld
/f/fill ld
/N/newpath ld
/S/stroke ld
/CC/setcmykcolor ld
/A/ashow ld
/cp/closepath ld
/RC/setrgbcolor ld
/LJ/setlinejoin ld
/GC/setgray ld
/LW/setlinewidth ld
/M/moveto ld
/re {4 2 roll M
1 index 0 rlineto
0 exch rlineto
neg 0 rlineto
cp } bd
/_ctm matrix def
/_tm matrix def
/BT { _ctm currentmatrix pop matrix _tm copy pop 0 0 moveto } bd
/ET { _ctm setmatrix } bd
/iTm { _ctm setmatrix _tm concat } bd
/Tm { _tm astore pop iTm 0 0 moveto } bd
/ux 0.0 def
/uy 0.0 def
/F {
  /Tp exch def
  /Tf exch def
  Tf findfont Tp scalefont setfont
  /cf Tf def  /cs Tp def
} bd
/ULS {currentpoint /uy exch def /ux exch def} bd
/ULE {
  /Tcx currentpoint pop def
  gsave
  newpath
  cf findfont cs scalefont dup
  /FontMatrix get 0 get /Ts exch def /FontInfo get dup
  /UnderlinePosition get Ts mul /To exch def
  /UnderlineThickness get Ts mul /Tt exch def
  ux uy To add moveto  Tcx uy To add lineto
  Tt setlinewidth stroke
  grestore
} bd
/OLE {
  /Tcx currentpoint pop def
  gsave
  newpath
  cf findfont cs scalefont dup
  /FontMatrix get 0 get /Ts exch def /FontInfo get dup
  /UnderlinePosition get Ts mul /To exch def
  /UnderlineThickness get Ts mul /Tt exch def
  ux uy To add cs add moveto Tcx uy To add cs add lineto
  Tt setlinewidth stroke
  grestore
} bd
/SOE {
  /Tcx currentpoint pop def
  gsave
  newpath
  cf findfont cs scalefont dup
  /FontMatrix get 0 get /Ts exch def /FontInfo get dup
  /UnderlinePosition get Ts mul /To exch def
  /UnderlineThickness get Ts mul /Tt exch def
  ux uy To add cs 10 mul 26 idiv add moveto Tcx uy To add cs 10 mul 26 idiv add lineto
  Tt setlinewidth stroke
  grestore
} bd
/QT {
/Y22 exch store
/X22 exch store
/Y21 exch store
/X21 exch store
currentpoint
/Y21 load 2 mul add 3 div exch
/X21 load 2 mul add 3 div exch
/X21 load 2 mul /X22 load add 3 div
/Y21 load 2 mul /Y22 load add 3 div
/X22 load /Y22 load curveto
} bd
/SSPD {
dup length /d exch dict def
{
/v exch def
/k exch def
currentpagedevice k known {
/cpdv currentpagedevice k get def
v cpdv ne {
/upd false def
/nullv v type /nulltype eq def
/nullcpdv cpdv type /nulltype eq def
nullv nullcpdv or
{
/upd true def
} {
/sametype v type cpdv type eq def
sametype {
v type /arraytype eq {
/vlen v length def
/cpdvlen cpdv length def
vlen cpdvlen eq {
0 1 vlen 1 sub {
/i exch def
/obj v i get def
/cpdobj cpdv i get def
obj cpdobj ne {
/upd true def
exit
} if
} for
} {
/upd true def
} ifelse
} {
v type /dicttype eq {
v {
/dv exch def
/dk exch def
/cpddv cpdv dk get def
dv cpddv ne {
/upd true def
exit
} if
} forall
} {
/upd true def
} ifelse
} ifelse
} if
} ifelse
upd true eq {
d k v put
} if
} if
} if
} forall
d length 0 gt {
d setpagedevice
} if
} bd
/RE { % /NewFontName [NewEncodingArray] /FontName RE -
  findfont dup length dict begin
  {
    1 index /FID ne
    {def} {pop pop} ifelse
  } forall
  /Encoding exch def
  /FontName 1 index def
  currentdict definefont pop
  end
} bind def
%%EndResource
%%BeginResource: procset (Apache XML Graphics EPS ProcSet) 1.0 0
%%Version: 1.0 0
%%Copyright: (Copyright 2002-2003 The Apache Software Foundation. License terms: http://www.apache.org/licenses/LICENSE-2.0)
/BeginEPSF { %def
/b4_Inc_state save def         % Save state for cleanup
/dict_count countdictstack def % Count objects on dict stack
/op_count count 1 sub def      % Count objects on operand stack
userdict begin                 % Push userdict on dict stack
/showpage { } def              % Redefine showpage, { } = null proc
0 setgray 0 setlinecap         % Prepare graphics state
1 setlinewidth 0 setlinejoin
10 setmiterlimit [ ] 0 setdash newpath
/languagelevel where           % If level not equal to 1 then
{pop languagelevel             % set strokeadjust and
1 ne                           % overprint to their defaults.
{false setstrokeadjust false setoverprint
} if
} if
} bd
/EndEPSF { %def
count op_count sub {pop} repeat            % Clean up stacks
countdictstack dict_count sub {end} repeat
b4_Inc_state restore
} bd
%%EndResource
%FOPBeginFontDict
%%IncludeResource: font Courier-Oblique
%%IncludeResource: font Courier-BoldOblique
%%IncludeResource: font Courier-Bold
%%IncludeResource: font ZapfDingbats
%%IncludeResource: font Symbol
%%IncludeResource: font Helvetica
%%IncludeResource: font Helvetica-Oblique
%%IncludeResource: font Helvetica-Bold
%%IncludeResource: font Helvetica-BoldOblique
%%IncludeResource: font Times-Roman
%%IncludeResource: font Times-Italic
%%IncludeResource: font Times-Bold
%%IncludeResource: font Times-BoldItalic
%%IncludeResource: font Courier
%FOPEndFontDict
%%BeginResource: encoding WinAnsiEncoding
/WinAnsiEncoding [
/.notdef /.notdef /.notdef /.notdef /.notdef
/.notdef /.notdef /.notdef /.notdef /.notdef
/.notdef /.notdef /.notdef /.notdef /.notdef
/.notdef /.notdef /.notdef /.notdef /.notdef
/.notdef /.notdef /.notdef /.notdef /.notdef
/.notdef /.notdef /.notdef /.notdef /.notdef
/.notdef /.notdef /space /exclam /quotedbl
/numbersign /dollar /percent /ampersand /quotesingle
/parenleft /parenright /asterisk /plus /comma
/hyphen /period /slash /zero /one
/two /three /four /five /six
/seven /eight /nine /colon /semicolon
/less /equal /greater /question /at
/A /B /C /D /E
/F /G /H /I /J
/K /L /M /N /O
/P /Q /R /S /T
/U /V /W /X /Y
/Z /bracketleft /backslash /bracketright /asciicircum
/underscore /quoteleft /a /b /c
/d /e /f /g /h
/i /j /k /l /m
/n /o /p /q /r
/s /t /u /v /w
/x /y /z /braceleft /bar
/braceright /asciitilde /bullet /Euro /bullet
/quotesinglbase /florin /quotedblbase /ellipsis /dagger
/daggerdbl /circumflex /perthousand /Scaron /guilsinglleft
/OE /bullet /Zcaron /bullet /bullet
/quoteleft /quoteright /quotedblleft /quotedblright /bullet
/endash /emdash /asciitilde /trademark /scaron
/guilsinglright /oe /bullet /zcaron /Ydieresis
/space /exclamdown /cent /sterling /currency
/yen /brokenbar /section /dieresis /copyright
/ordfeminine /guillemotleft /logicalnot /sfthyphen /registered
/macron /degree /plusminus /twosuperior /threesuperior
/acute /mu /paragraph /middot /cedilla
/onesuperior /ordmasculine /guillemotright /onequarter /onehalf
/threequarters /questiondown /Agrave /Aacute /Acircumflex
/Atilde /Adieresis /Aring /AE /Ccedilla
/Egrave /Eacute /Ecircumflex /Edieresis /Igrave
/Iacute /Icircumflex /Idieresis /Eth /Ntilde
/Ograve /Oacute /Ocircumflex /Otilde /Odieresis
/multiply /Oslash /Ugrave /Uacute /Ucircumflex
/Udieresis /Yacute /Thorn /germandbls /agrave
/aacute /acircumflex /atilde /adieresis /aring
/ae /ccedilla /egrave /eacute /ecircumflex
/edieresis /igrave /iacute /icircumflex /idieresis
/eth /ntilde /ograve /oacute /ocircumflex
/otilde /odieresis /divide /oslash /ugrave
/uacute /ucircumflex /udieresis /yacute /thorn
/ydieresis
] def
%%EndResource
%FOPBeginFontReencode
/Courier-Oblique findfont
dup length dict begin
  {1 index /FID ne {def} {pop pop} ifelse} forall
  /Encoding WinAnsiEncoding def
  currentdict
end
/Courier-Oblique exch definefont pop
/Courier-BoldOblique findfont
dup length dict begin
  {1 index /FID ne {def} {pop pop} ifelse} forall
  /Encoding WinAnsiEncoding def
  currentdict
end
/Courier-BoldOblique exch definefont pop
/Courier-Bold findfont
dup length dict begin
  {1 index /FID ne {def} {pop pop} ifelse} forall
  /Encoding WinAnsiEncoding def
  currentdict
end
/Courier-Bold exch definefont pop
/Helvetica findfont
dup length dict begin
  {1 index /FID ne {def} {pop pop} ifelse} forall
  /Encoding WinAnsiEncoding def
  currentdict
end
/Helvetica exch definefont pop
/Helvetica-Oblique findfont
dup length dict begin
  {1 index /FID ne {def} {pop pop} ifelse} forall
  /Encoding WinAnsiEncoding def
  currentdict
end
/Helvetica-Oblique exch definefont pop
/Helvetica-Bold findfont
dup length dict begin
  {1 index /FID ne {def} {pop pop} ifelse} forall
  /Encoding WinAnsiEncoding def
  currentdict
end
/Helvetica-Bold exch definefont pop
/Helvetica-BoldOblique findfont
dup length dict begin
  {1 index /FID ne {def} {pop pop} ifelse} forall
  /Encoding WinAnsiEncoding def
  currentdict
end
/Helvetica-BoldOblique exch definefont pop
/Times-Roman findfont
dup length dict begin
  {1 index /FID ne {def} {pop pop} ifelse} forall
  /Encoding WinAnsiEncoding def
  currentdict
end
/Times-Roman exch definefont pop
/Times-Italic findfont
dup length dict begin
  {1 index /FID ne {def} {pop pop} ifelse} forall
  /Encoding WinAnsiEncoding def
  currentdict
end
/Times-Italic exch definefont pop
/Times-Bold findfont
dup length dict begin
  {1 index /FID ne {def} {pop pop} ifelse} forall
  /Encoding WinAnsiEncoding def
  currentdict
end
/Times-Bold exch definefont pop
/Times-BoldItalic findfont
dup length dict begin
  {1 index /FID ne {def} {pop pop} ifelse} forall
  /Encoding WinAnsiEncoding def
  currentdict
end
/Times-BoldItalic exch definefont pop
/Courier findfont
dup length dict begin
  {1 index /FID ne {def} {pop pop} ifelse} forall
  /Encoding WinAnsiEncoding def
  currentdict
end
/Courier exch definefont pop
%FOPEndFontReencode
%%EndProlog
%%Page: 1 1
%%PageBoundingBox: 0 0 450 375
%%BeginPageSetup
[1 0 0 -1 0 375] CT
%%EndPageSetup
GS
[0.75 0 0 0.75 0 0] CT
1 GC
N
0 0 600 500 re
f
GR
GS
[0.75 0 0 0.75 0 0] CT
1 GC
N
0 0 600 500 re
f
GR
GS
[0.75 0 0 0.75 0 0] CT
1 GC
N
78 438 M
543 438 L
543 37 L
78 37 L
cp
f
GR
GS
[0.75 0 0 0.75 0 0] CT
0.873 GC
1 LJ
0.667 LW
N
190.241 438 M
190.241 37 L
S
GR
GS
[0.75 0 0 0.75 0 0] CT
0.873 GC
1 LJ
0.667 LW
N
304.773 438 M
304.773 37 L
S
GR
GS
[0.75 0 0 0.75 0 0] CT
0.873 GC
1 LJ
0.667 LW
N
419.305 438 M
419.305 37 L
S
GR
GS
[0.75 0 0 0.75 0 0] CT
0.873 GC
1 LJ
0.667 LW
N
533.837 438 M
533.837 37 L
S
GR
GS
[0.75 0 0 0.75 0 0] CT
0.873 GC
1 LJ
0.667 LW
N
543 438 M
78 438 L
S
GR
GS
[0.75 0 0 0.75 0 0] CT
0.873 GC
1 LJ
0.667 LW
N
543 357.8 M
78 357.8 L
S
GR
GS
[0.75 0 0 0.75 0 0] CT
0.873 GC
1 LJ
0.667 LW
N
543 277.6 M
78 277.6 L
S
GR
GS
[0.75 0 0 0.75 0 0] CT
0.873 GC
1 LJ
0.667 LW
N
543 197.4 M
78 197.4 L
S
GR
GS
[0.75 0 0 0.75 0 0] CT
0.873 GC
1 LJ
0.667 LW
N
543 117.2 M
78 117.2 L
S
GR
GS
[0.75 0 0 0.75 0 0] CT
0.873 GC
1 LJ
0.667 LW
N
543 37 M
78 37 L
S
GR
GS
[0.75 0 0 0.75 0 0] CT
0.149 GC
2 setlinecap
1 LJ
0.667 LW
N
78 438 M
543 438 L
S
GR
GS
[0.75 0 0 0.75 0 0] CT
0.149 GC
2 setlinecap
1 LJ
0.667 LW
N
78 37 M
543 37 L
S
GR
GS
[0.75 0 0 0.75 0 0] CT
0.149 GC
2 setlinecap
1 LJ
0.667 LW
N
190.241 438 M
190.241 433.35 L
S
GR
GS
[0.75 0 0 0.75 0 0] CT
0.149 GC
2 setlinecap
1 LJ
0.667 LW
N
304.773 438 M
304.773 433.35 L
S
GR
GS
[0.75 0 0 0.75 0 0] CT
0.149 GC
2 setlinecap
1 LJ
0.667 LW
N
419.305 438 M
419.305 433.35 L
S
GR
GS
[0.75 0 0 0.75 0 0] CT
0.149 GC
2 setlinecap
1 LJ
0.667 LW
N
533.837 438 M
533.837 433.35 L
S
GR
GS
[0.75 0 0 0.75 0 0] CT
0.149 GC
2 setlinecap
1 LJ
0.667 LW
N
190.241 37 M
190.241 41.65 L
S
GR
GS
[0.75 0 0 0.75 0 0] CT
0.149 GC
2 setlinecap
1 LJ
0.667 LW
N
304.773 37 M
304.773 41.65 L
S
GR
GS
[0.75 0 0 0.75 0 0] CT
0.149 GC
2 setlinecap
1 LJ
0.667 LW
N
419.305 37 M
419.305 41.65 L
S
GR
GS
[0.75 0 0 0.75 0 0] CT
0.149 GC
2 setlinecap
1 LJ
0.667 LW
N
533.837 37 M
533.837 41.65 L
S
GR
GS
[0.75 0 0 0.75 142.68103 333.50002] CT
0.149 GC
/Helvetica 20 F
GS
[1 0 0 1 0 0] CT
-11.5 21 moveto 
1 -1 scale
(50) t 
GR
GR
GS
[0.75 0 0 0.75 228.58006 333.50002] CT
0.149 GC
/Helvetica 20 F
GS
[1 0 0 1 0 0] CT
-17 21 moveto 
1 -1 scale
(100) t 
GR
GR
GS
[0.75 0 0 0.75 314.47906 333.50002] CT
0.149 GC
/Helvetica 20 F
GS
[1 0 0 1 0 0] CT
-17 21 moveto 
1 -1 scale
(150) t 
GR
GR
GS
[0.75 0 0 0.75 400.3781 333.50002] CT
0.149 GC
/Helvetica 20 F
GS
[1 0 0 1 0 0] CT
-17 21 moveto 
1 -1 scale
(200) t 
GR
GR
GS
[0.75 0 0 0.75 232.87516 354] CT
0.149 GC
/Helvetica 22 F
GS
[1 0 0 1 0 0] CT
-34.5 23 moveto 
1 -1 scale
(feature) t 
GR
GR
GS
[0.75 0 0 0.75 0 0] CT
0.149 GC
2 setlinecap
1 LJ
0.667 LW
N
78 438 M
78 37 L
S
GR
GS
[0.75 0 0 0.75 0 0] CT
0.149 GC
2 setlinecap
1 LJ
0.667 LW
N
543 438 M
543 37 L
S
GR
GS
[0.75 0 0 0.75 0 0] CT
0.149 GC
2 setlinecap
1 LJ
0.667 LW
N
78 438 M
82.65 438 L
S
GR
GS
[0.75 0 0 0.75 0 0] CT
0.149 GC
2 setlinecap
1 LJ
0.667 LW
N
78 357.8 M
82.65 357.8 L
S
GR
GS
[0.75 0 0 0.75 0 0] CT
0.149 GC
2 setlinecap
1 LJ
0.667 LW
N
78 277.6 M
82.65 277.6 L
S
GR
GS
[0.75 0 0 0.75 0 0] CT
0.149 GC
2 setlinecap
1 LJ
0.667 LW
N
78 197.4 M
82.65 197.4 L
S
GR
GS
[0.75 0 0 0.75 0 0] CT
0.149 GC
2 setlinecap
1 LJ
0.667 LW
N
78 117.2 M
82.65 117.2 L
S
GR
GS
[0.75 0 0 0.75 0 0] CT
0.149 GC
2 setlinecap
1 LJ
0.667 LW
N
78 37 M
82.65 37 L
S
GR
GS
[0.75 0 0 0.75 0 0] CT
0.149 GC
2 setlinecap
1 LJ
0.667 LW
N
543 438 M
538.35 438 L
S
GR
GS
[0.75 0 0 0.75 0 0] CT
0.149 GC
2 setlinecap
1 LJ
0.667 LW
N
543 357.8 M
538.35 357.8 L
S
GR
GS
[0.75 0 0 0.75 0 0] CT
0.149 GC
2 setlinecap
1 LJ
0.667 LW
N
543 277.6 M
538.35 277.6 L
S
GR
GS
[0.75 0 0 0.75 0 0] CT
0.149 GC
2 setlinecap
1 LJ
0.667 LW
N
543 197.4 M
538.35 197.4 L
S
GR
GS
[0.75 0 0 0.75 0 0] CT
0.149 GC
2 setlinecap
1 LJ
0.667 LW
N
543 117.2 M
538.35 117.2 L
S
GR
GS
[0.75 0 0 0.75 0 0] CT
0.149 GC
2 setlinecap
1 LJ
0.667 LW
N
543 37 M
538.35 37 L
S
GR
GS
[0.75 0 0 0.75 53.5 328.5] CT
0.149 GC
/Helvetica 20 F
GS
[1 0 0 1 0 0] CT
-18 8 moveto 
1 -1 scale
(-6) t 
GR
GR
GS
[0.75 0 0 0.75 53.5 268.34999] CT
0.149 GC
/Helvetica 20 F
GS
[1 0 0 1 0 0] CT
-18 8 moveto 
1 -1 scale
(-4) t 
GR
GR
GS
[0.75 0 0 0.75 53.5 208.2] CT
0.149 GC
/Helvetica 20 F
GS
[1 0 0 1 0 0] CT
-18 8 moveto 
1 -1 scale
(-2) t 
GR
GR
GS
[0.75 0 0 0.75 53.5 148.05] CT
0.149 GC
/Helvetica 20 F
GS
[1 0 0 1 0 0] CT
-12 8 moveto 
1 -1 scale
(0) t 
GR
GR
GS
[0.75 0 0 0.75 53.5 87.9] CT
0.149 GC
/Helvetica 20 F
GS
[1 0 0 1 0 0] CT
-12 8 moveto 
1 -1 scale
(2) t 
GR
GR
GS
[0.75 0 0 0.75 53.5 27.75] CT
0.149 GC
/Helvetica 20 F
GS
[1 0 0 1 0 0] CT
-12 8 moveto 
1 -1 scale
(4) t 
GR
GR
GS
[0 -0.75 0.75 0 37 178.12485] CT
0.149 GC
/Helvetica 22 F
GS
[1 0 0 1 0 0] CT
-28 -5 moveto 
1 -1 scale
(mean) t 
GR
GR
GS
[0.75 0 0 0.75 232.87523 24.65626] CT
/Helvetica-Bold 22 F
GS
[1 0 0 1 0 0] CT
-170 -5 moveto 
1 -1 scale
(Mean value for different features) t 
GR
GR
GS
[0.75 0 0 0.75 60.21798 303.45758] CT
1 0.502 0.502 RC
10.0 ML
1.333 LW
N
0 -4 M
0 4 L
-4 0 M
4 0 L
-2.828 -2.828 M
2.828 2.828 L
-2.828 2.828 M
2.828 -2.828 L
S
GR
GS
[0.75 0 0 0.75 61.93596 281.35769] CT
1 0.502 0.502 RC
10.0 ML
1.333 LW
N
0 -4 M
0 4 L
-4 0 M
4 0 L
-2.828 -2.828 M
2.828 2.828 L
-2.828 2.828 M
2.828 -2.828 L
S
GR
GS
[0.75 0 0 0.75 63.65394 301.61492] CT
1 0.502 0.502 RC
10.0 ML
1.333 LW
N
0 -4 M
0 4 L
-4 0 M
4 0 L
-2.828 -2.828 M
2.828 2.828 L
-2.828 2.828 M
2.828 -2.828 L
S
GR
GS
[0.75 0 0 0.75 65.37192 276.40237] CT
1 0.502 0.502 RC
10.0 ML
1.333 LW
N
0 -4 M
0 4 L
-4 0 M
4 0 L
-2.828 -2.828 M
2.828 2.828 L
-2.828 2.828 M
2.828 -2.828 L
S
GR
GS
[0.75 0 0 0.75 67.0899 278.04543] CT
1 0.502 0.502 RC
10.0 ML
1.333 LW
N
0 -4 M
0 4 L
-4 0 M
4 0 L
-2.828 -2.828 M
2.828 2.828 L
-2.828 2.828 M
2.828 -2.828 L
S
GR
GS
[0.75 0 0 0.75 68.80788 286.37217] CT
1 0.502 0.502 RC
10.0 ML
1.333 LW
N
0 -4 M
0 4 L
-4 0 M
4 0 L
-2.828 -2.828 M
2.828 2.828 L
-2.828 2.828 M
2.828 -2.828 L
S
GR
GS
[0.75 0 0 0.75 70.52586 296.41882] CT
1 0.502 0.502 RC
10.0 ML
1.333 LW
N
0 -4 M
0 4 L
-4 0 M
4 0 L
-2.828 -2.828 M
2.828 2.828 L
-2.828 2.828 M
2.828 -2.828 L
S
GR
GS
[0.75 0 0 0.75 72.24384 281.34748] CT
1 0.502 0.502 RC
10.0 ML
1.333 LW
N
0 -4 M
0 4 L
-4 0 M
4 0 L
-2.828 -2.828 M
2.828 2.828 L
-2.828 2.828 M
2.828 -2.828 L
S
GR
GS
[0.75 0 0 0.75 73.96182 284.9734] CT
1 0.502 0.502 RC
10.0 ML
1.333 LW
N
0 -4 M
0 4 L
-4 0 M
4 0 L
-2.828 -2.828 M
2.828 2.828 L
-2.828 2.828 M
2.828 -2.828 L
S
GR
GS
[0.75 0 0 0.75 75.6798 283.95831] CT
1 0.502 0.502 RC
10.0 ML
1.333 LW
N
0 -4 M
0 4 L
-4 0 M
4 0 L
-2.828 -2.828 M
2.828 2.828 L
-2.828 2.828 M
2.828 -2.828 L
S
GR
GS
[0.75 0 0 0.75 77.39778 270.06237] CT
1 0.502 0.502 RC
10.0 ML
1.333 LW
N
0 -4 M
0 4 L
-4 0 M
4 0 L
-2.828 -2.828 M
2.828 2.828 L
-2.828 2.828 M
2.828 -2.828 L
S
GR
GS
[0.75 0 0 0.75 79.11576 285.90958] CT
1 0.502 0.502 RC
10.0 ML
1.333 LW
N
0 -4 M
0 4 L
-4 0 M
4 0 L
-2.828 -2.828 M
2.828 2.828 L
-2.828 2.828 M
2.828 -2.828 L
S
GR
GS
[0.75 0 0 0.75 80.83375 273.89948] CT
1 0.502 0.502 RC
10.0 ML
1.333 LW
N
0 -4 M
0 4 L
-4 0 M
4 0 L
-2.828 -2.828 M
2.828 2.828 L
-2.828 2.828 M
2.828 -2.828 L
S
GR
GS
[0.75 0 0 0.75 82.55172 280.89558] CT
1 0.502 0.502 RC
10.0 ML
1.333 LW
N
0 -4 M
0 4 L
-4 0 M
4 0 L
-2.828 -2.828 M
2.828 2.828 L
-2.828 2.828 M
2.828 -2.828 L
S
GR
GS
[0.75 0 0 0.75 84.2697 257.46593] CT
1 0.502 0.502 RC
10.0 ML
1.333 LW
N
0 -4 M
0 4 L
-4 0 M
4 0 L
-2.828 -2.828 M
2.828 2.828 L
-2.828 2.828 M
2.828 -2.828 L
S
GR
GS
[0.75 0 0 0.75 85.98768 257.32706] CT
1 0.502 0.502 RC
10.0 ML
1.333 LW
N
0 -4 M
0 4 L
-4 0 M
4 0 L
-2.828 -2.828 M
2.828 2.828 L
-2.828 2.828 M
2.828 -2.828 L
S
GR
GS
[0.75 0 0 0.75 87.70567 256.74607] CT
1 0.502 0.502 RC
10.0 ML
1.333 LW
N
0 -4 M
0 4 L
-4 0 M
4 0 L
-2.828 -2.828 M
2.828 2.828 L
-2.828 2.828 M
2.828 -2.828 L
S
GR
GS
[0.75 0 0 0.75 89.42365 267.15594] CT
1 0.502 0.502 RC
10.0 ML
1.333 LW
N
0 -4 M
0 4 L
-4 0 M
4 0 L
-2.828 -2.828 M
2.828 2.828 L
-2.828 2.828 M
2.828 -2.828 L
S
GR
GS
[0.75 0 0 0.75 91.14163 268.52138] CT
1 0.502 0.502 RC
10.0 ML
1.333 LW
N
0 -4 M
0 4 L
-4 0 M
4 0 L
-2.828 -2.828 M
2.828 2.828 L
-2.828 2.828 M
2.828 -2.828 L
S
GR
GS
[0.75 0 0 0.75 92.8596 256.10005] CT
1 0.502 0.502 RC
10.0 ML
1.333 LW
N
0 -4 M
0 4 L
-4 0 M
4 0 L
-2.828 -2.828 M
2.828 2.828 L
-2.828 2.828 M
2.828 -2.828 L
S
GR
GS
[0.75 0 0 0.75 94.57759 267.88115] CT
1 0.502 0.502 RC
10.0 ML
1.333 LW
N
0 -4 M
0 4 L
-4 0 M
4 0 L
-2.828 -2.828 M
2.828 2.828 L
-2.828 2.828 M
2.828 -2.828 L
S
GR
GS
[0.75 0 0 0.75 96.29557 251.43642] CT
1 0.502 0.502 RC
10.0 ML
1.333 LW
N
0 -4 M
0 4 L
-4 0 M
4 0 L
-2.828 -2.828 M
2.828 2.828 L
-2.828 2.828 M
2.828 -2.828 L
S
GR
GS
[0.75 0 0 0.75 98.01354 243.58637] CT
1 0.502 0.502 RC
10.0 ML
1.333 LW
N
0 -4 M
0 4 L
-4 0 M
4 0 L
-2.828 -2.828 M
2.828 2.828 L
-2.828 2.828 M
2.828 -2.828 L
S
GR
GS
[0.75 0 0 0.75 99.73153 246.59258] CT
1 0.502 0.502 RC
10.0 ML
1.333 LW
N
0 -4 M
0 4 L
-4 0 M
4 0 L
-2.828 -2.828 M
2.828 2.828 L
-2.828 2.828 M
2.828 -2.828 L
S
GR
GS
[0.75 0 0 0.75 101.4495 221.71133] CT
1 0.502 0.502 RC
10.0 ML
1.333 LW
N
0 -4 M
0 4 L
-4 0 M
4 0 L
-2.828 -2.828 M
2.828 2.828 L
-2.828 2.828 M
2.828 -2.828 L
S
GR
GS
[0.75 0 0 0.75 103.16749 255.69255] CT
1 0.502 0.502 RC
10.0 ML
1.333 LW
N
0 -4 M
0 4 L
-4 0 M
4 0 L
-2.828 -2.828 M
2.828 2.828 L
-2.828 2.828 M
2.828 -2.828 L
S
GR
GS
[0.75 0 0 0.75 104.88547 220.23159] CT
1 0.502 0.502 RC
10.0 ML
1.333 LW
N
0 -4 M
0 4 L
-4 0 M
4 0 L
-2.828 -2.828 M
2.828 2.828 L
-2.828 2.828 M
2.828 -2.828 L
S
GR
GS
[0.75 0 0 0.75 106.60344 223.24608] CT
1 0.502 0.502 RC
10.0 ML
1.333 LW
N
0 -4 M
0 4 L
-4 0 M
4 0 L
-2.828 -2.828 M
2.828 2.828 L
-2.828 2.828 M
2.828 -2.828 L
S
GR
GS
[0.75 0 0 0.75 108.32143 223.56173] CT
1 0.502 0.502 RC
10.0 ML
1.333 LW
N
0 -4 M
0 4 L
-4 0 M
4 0 L
-2.828 -2.828 M
2.828 2.828 L
-2.828 2.828 M
2.828 -2.828 L
S
GR
GS
[0.75 0 0 0.75 110.03941 204.83263] CT
1 0.502 0.502 RC
10.0 ML
1.333 LW
N
0 -4 M
0 4 L
-4 0 M
4 0 L
-2.828 -2.828 M
2.828 2.828 L
-2.828 2.828 M
2.828 -2.828 L
S
GR
GS
[0.75 0 0 0.75 111.75739 223.89466] CT
1 0.502 0.502 RC
10.0 ML
1.333 LW
N
0 -4 M
0 4 L
-4 0 M
4 0 L
-2.828 -2.828 M
2.828 2.828 L
-2.828 2.828 M
2.828 -2.828 L
S
GR
GS
[0.75 0 0 0.75 113.47537 211.24972] CT
1 0.502 0.502 RC
10.0 ML
1.333 LW
N
0 -4 M
0 4 L
-4 0 M
4 0 L
-2.828 -2.828 M
2.828 2.828 L
-2.828 2.828 M
2.828 -2.828 L
S
GR
GS
[0.75 0 0 0.75 115.19334 232.33271] CT
1 0.502 0.502 RC
10.0 ML
1.333 LW
N
0 -4 M
0 4 L
-4 0 M
4 0 L
-2.828 -2.828 M
2.828 2.828 L
-2.828 2.828 M
2.828 -2.828 L
S
GR
GS
[0.75 0 0 0.75 116.91133 194.18353] CT
1 0.502 0.502 RC
10.0 ML
1.333 LW
N
0 -4 M
0 4 L
-4 0 M
4 0 L
-2.828 -2.828 M
2.828 2.828 L
-2.828 2.828 M
2.828 -2.828 L
S
GR
GS
[0.75 0 0 0.75 118.62931 188.63757] CT
1 0.502 0.502 RC
10.0 ML
1.333 LW
N
0 -4 M
0 4 L
-4 0 M
4 0 L
-2.828 -2.828 M
2.828 2.828 L
-2.828 2.828 M
2.828 -2.828 L
S
GR
GS
[0.75 0 0 0.75 120.34729 195.88735] CT
1 0.502 0.502 RC
10.0 ML
1.333 LW
N
0 -4 M
0 4 L
-4 0 M
4 0 L
-2.828 -2.828 M
2.828 2.828 L
-2.828 2.828 M
2.828 -2.828 L
S
GR
GS
[0.75 0 0 0.75 122.06527 201.43092] CT
1 0.502 0.502 RC
10.0 ML
1.333 LW
N
0 -4 M
0 4 L
-4 0 M
4 0 L
-2.828 -2.828 M
2.828 2.828 L
-2.828 2.828 M
2.828 -2.828 L
S
GR
GS
[0.75 0 0 0.75 123.78326 182.87626] CT
1 0.502 0.502 RC
10.0 ML
1.333 LW
N
0 -4 M
0 4 L
-4 0 M
4 0 L
-2.828 -2.828 M
2.828 2.828 L
-2.828 2.828 M
2.828 -2.828 L
S
GR
GS
[0.75 0 0 0.75 125.50123 190.11115] CT
1 0.502 0.502 RC
10.0 ML
1.333 LW
N
0 -4 M
0 4 L
-4 0 M
4 0 L
-2.828 -2.828 M
2.828 2.828 L
-2.828 2.828 M
2.828 -2.828 L
S
GR
GS
[0.75 0 0 0.75 127.21921 165.29063] CT
1 0.502 0.502 RC
10.0 ML
1.333 LW
N
0 -4 M
0 4 L
-4 0 M
4 0 L
-2.828 -2.828 M
2.828 2.828 L
-2.828 2.828 M
2.828 -2.828 L
S
GR
GS
[0.75 0 0 0.75 128.93719 162.80508] CT
1 0.502 0.502 RC
10.0 ML
1.333 LW
N
0 -4 M
0 4 L
-4 0 M
4 0 L
-2.828 -2.828 M
2.828 2.828 L
-2.828 2.828 M
2.828 -2.828 L
S
GR
GS
[0.75 0 0 0.75 130.65517 149.72284] CT
1 0.502 0.502 RC
10.0 ML
1.333 LW
N
0 -4 M
0 4 L
-4 0 M
4 0 L
-2.828 -2.828 M
2.828 2.828 L
-2.828 2.828 M
2.828 -2.828 L
S
GR
GS
[0.75 0 0 0.75 132.37316 171.02545] CT
1 0.502 0.502 RC
10.0 ML
1.333 LW
N
0 -4 M
0 4 L
-4 0 M
4 0 L
-2.828 -2.828 M
2.828 2.828 L
-2.828 2.828 M
2.828 -2.828 L
S
GR
GS
[0.75 0 0 0.75 134.09113 160.01209] CT
1 0.502 0.502 RC
10.0 ML
1.333 LW
N
0 -4 M
0 4 L
-4 0 M
4 0 L
-2.828 -2.828 M
2.828 2.828 L
-2.828 2.828 M
2.828 -2.828 L
S
GR
GS
[0.75 0 0 0.75 135.80911 153.71732] CT
1 0.502 0.502 RC
10.0 ML
1.333 LW
N
0 -4 M
0 4 L
-4 0 M
4 0 L
-2.828 -2.828 M
2.828 2.828 L
-2.828 2.828 M
2.828 -2.828 L
S
GR
GS
[0.75 0 0 0.75 137.5271 189.01566] CT
1 0.502 0.502 RC
10.0 ML
1.333 LW
N
0 -4 M
0 4 L
-4 0 M
4 0 L
-2.828 -2.828 M
2.828 2.828 L
-2.828 2.828 M
2.828 -2.828 L
S
GR
GS
[0.75 0 0 0.75 139.24507 162.85062] CT
1 0.502 0.502 RC
10.0 ML
1.333 LW
N
0 -4 M
0 4 L
-4 0 M
4 0 L
-2.828 -2.828 M
2.828 2.828 L
-2.828 2.828 M
2.828 -2.828 L
S
GR
GS
[0.75 0 0 0.75 140.96306 149.76078] CT
1 0.502 0.502 RC
10.0 ML
1.333 LW
N
0 -4 M
0 4 L
-4 0 M
4 0 L
-2.828 -2.828 M
2.828 2.828 L
-2.828 2.828 M
2.828 -2.828 L
S
GR
GS
[0.75 0 0 0.75 142.68103 130.63873] CT
1 0.502 0.502 RC
10.0 ML
1.333 LW
N
0 -4 M
0 4 L
-4 0 M
4 0 L
-2.828 -2.828 M
2.828 2.828 L
-2.828 2.828 M
2.828 -2.828 L
S
GR
GS
[0.75 0 0 0.75 144.39901 160.26675] CT
1 0.502 0.502 RC
10.0 ML
1.333 LW
N
0 -4 M
0 4 L
-4 0 M
4 0 L
-2.828 -2.828 M
2.828 2.828 L
-2.828 2.828 M
2.828 -2.828 L
S
GR
GS
[0.75 0 0 0.75 146.117 152.67765] CT
1 0.502 0.502 RC
10.0 ML
1.333 LW
N
0 -4 M
0 4 L
-4 0 M
4 0 L
-2.828 -2.828 M
2.828 2.828 L
-2.828 2.828 M
2.828 -2.828 L
S
GR
GS
[0.75 0 0 0.75 147.83497 124.72707] CT
1 0.502 0.502 RC
10.0 ML
1.333 LW
N
0 -4 M
0 4 L
-4 0 M
4 0 L
-2.828 -2.828 M
2.828 2.828 L
-2.828 2.828 M
2.828 -2.828 L
S
GR
GS
[0.75 0 0 0.75 149.55296 175.87035] CT
1 0.502 0.502 RC
10.0 ML
1.333 LW
N
0 -4 M
0 4 L
-4 0 M
4 0 L
-2.828 -2.828 M
2.828 2.828 L
-2.828 2.828 M
2.828 -2.828 L
S
GR
GS
[0.75 0 0 0.75 151.27094 135.90118] CT
1 0.502 0.502 RC
10.0 ML
1.333 LW
N
0 -4 M
0 4 L
-4 0 M
4 0 L
-2.828 -2.828 M
2.828 2.828 L
-2.828 2.828 M
2.828 -2.828 L
S
GR
GS
[0.75 0 0 0.75 152.98891 124.2755] CT
1 0.502 0.502 RC
10.0 ML
1.333 LW
N
0 -4 M
0 4 L
-4 0 M
4 0 L
-2.828 -2.828 M
2.828 2.828 L
-2.828 2.828 M
2.828 -2.828 L
S
GR
GS
[0.75 0 0 0.75 154.7069 141.0087] CT
1 0.502 0.502 RC
10.0 ML
1.333 LW
N
0 -4 M
0 4 L
-4 0 M
4 0 L
-2.828 -2.828 M
2.828 2.828 L
-2.828 2.828 M
2.828 -2.828 L
S
GR
GS
[0.75 0 0 0.75 156.42487 139.76057] CT
1 0.502 0.502 RC
10.0 ML
1.333 LW
N
0 -4 M
0 4 L
-4 0 M
4 0 L
-2.828 -2.828 M
2.828 2.828 L
-2.828 2.828 M
2.828 -2.828 L
S
GR
GS
[0.75 0 0 0.75 158.14286 126.85664] CT
1 0.502 0.502 RC
10.0 ML
1.333 LW
N
0 -4 M
0 4 L
-4 0 M
4 0 L
-2.828 -2.828 M
2.828 2.828 L
-2.828 2.828 M
2.828 -2.828 L
S
GR
GS
[0.75 0 0 0.75 159.86084 126.95514] CT
1 0.502 0.502 RC
10.0 ML
1.333 LW
N
0 -4 M
0 4 L
-4 0 M
4 0 L
-2.828 -2.828 M
2.828 2.828 L
-2.828 2.828 M
2.828 -2.828 L
S
GR
GS
[0.75 0 0 0.75 161.57882 121.79597] CT
1 0.502 0.502 RC
10.0 ML
1.333 LW
N
0 -4 M
0 4 L
-4 0 M
4 0 L
-2.828 -2.828 M
2.828 2.828 L
-2.828 2.828 M
2.828 -2.828 L
S
GR
GS
[0.75 0 0 0.75 163.2968 145.89253] CT
1 0.502 0.502 RC
10.0 ML
1.333 LW
N
0 -4 M
0 4 L
-4 0 M
4 0 L
-2.828 -2.828 M
2.828 2.828 L
-2.828 2.828 M
2.828 -2.828 L
S
GR
GS
[0.75 0 0 0.75 165.01477 118.4737] CT
1 0.502 0.502 RC
10.0 ML
1.333 LW
N
0 -4 M
0 4 L
-4 0 M
4 0 L
-2.828 -2.828 M
2.828 2.828 L
-2.828 2.828 M
2.828 -2.828 L
S
GR
GS
[0.75 0 0 0.75 166.73276 114.17249] CT
1 0.502 0.502 RC
10.0 ML
1.333 LW
N
0 -4 M
0 4 L
-4 0 M
4 0 L
-2.828 -2.828 M
2.828 2.828 L
-2.828 2.828 M
2.828 -2.828 L
S
GR
GS
[0.75 0 0 0.75 168.45074 119.98484] CT
1 0.502 0.502 RC
10.0 ML
1.333 LW
N
0 -4 M
0 4 L
-4 0 M
4 0 L
-2.828 -2.828 M
2.828 2.828 L
-2.828 2.828 M
2.828 -2.828 L
S
GR
GS
[0.75 0 0 0.75 170.16872 122.45756] CT
1 0.502 0.502 RC
10.0 ML
1.333 LW
N
0 -4 M
0 4 L
-4 0 M
4 0 L
-2.828 -2.828 M
2.828 2.828 L
-2.828 2.828 M
2.828 -2.828 L
S
GR
GS
[0.75 0 0 0.75 171.8867 117.33159] CT
1 0.502 0.502 RC
10.0 ML
1.333 LW
N
0 -4 M
0 4 L
-4 0 M
4 0 L
-2.828 -2.828 M
2.828 2.828 L
-2.828 2.828 M
2.828 -2.828 L
S
GR
GS
[0.75 0 0 0.75 173.60468 122.78023] CT
1 0.502 0.502 RC
10.0 ML
1.333 LW
N
0 -4 M
0 4 L
-4 0 M
4 0 L
-2.828 -2.828 M
2.828 2.828 L
-2.828 2.828 M
2.828 -2.828 L
S
GR
GS
[0.75 0 0 0.75 175.32266 125.73312] CT
1 0.502 0.502 RC
10.0 ML
1.333 LW
N
0 -4 M
0 4 L
-4 0 M
4 0 L
-2.828 -2.828 M
2.828 2.828 L
-2.828 2.828 M
2.828 -2.828 L
S
GR
GS
[0.75 0 0 0.75 177.04064 144.89612] CT
1 0.502 0.502 RC
10.0 ML
1.333 LW
N
0 -4 M
0 4 L
-4 0 M
4 0 L
-2.828 -2.828 M
2.828 2.828 L
-2.828 2.828 M
2.828 -2.828 L
S
GR
GS
[0.75 0 0 0.75 178.75863 135.52291] CT
1 0.502 0.502 RC
10.0 ML
1.333 LW
N
0 -4 M
0 4 L
-4 0 M
4 0 L
-2.828 -2.828 M
2.828 2.828 L
-2.828 2.828 M
2.828 -2.828 L
S
GR
GS
[0.75 0 0 0.75 180.4766 122.86895] CT
1 0.502 0.502 RC
10.0 ML
1.333 LW
N
0 -4 M
0 4 L
-4 0 M
4 0 L
-2.828 -2.828 M
2.828 2.828 L
-2.828 2.828 M
2.828 -2.828 L
S
GR
GS
[0.75 0 0 0.75 182.19458 134.30945] CT
1 0.502 0.502 RC
10.0 ML
1.333 LW
N
0 -4 M
0 4 L
-4 0 M
4 0 L
-2.828 -2.828 M
2.828 2.828 L
-2.828 2.828 M
2.828 -2.828 L
S
GR
GS
[0.75 0 0 0.75 183.91256 119.57843] CT
1 0.502 0.502 RC
10.0 ML
1.333 LW
N
0 -4 M
0 4 L
-4 0 M
4 0 L
-2.828 -2.828 M
2.828 2.828 L
-2.828 2.828 M
2.828 -2.828 L
S
GR
GS
[0.75 0 0 0.75 185.63054 119.77677] CT
1 0.502 0.502 RC
10.0 ML
1.333 LW
N
0 -4 M
0 4 L
-4 0 M
4 0 L
-2.828 -2.828 M
2.828 2.828 L
-2.828 2.828 M
2.828 -2.828 L
S
GR
GS
[0.75 0 0 0.75 187.34853 141.26636] CT
1 0.502 0.502 RC
10.0 ML
1.333 LW
N
0 -4 M
0 4 L
-4 0 M
4 0 L
-2.828 -2.828 M
2.828 2.828 L
-2.828 2.828 M
2.828 -2.828 L
S
GR
GS
[0.75 0 0 0.75 189.0665 113.37355] CT
1 0.502 0.502 RC
10.0 ML
1.333 LW
N
0 -4 M
0 4 L
-4 0 M
4 0 L
-2.828 -2.828 M
2.828 2.828 L
-2.828 2.828 M
2.828 -2.828 L
S
GR
GS
[0.75 0 0 0.75 190.78448 106.98719] CT
1 0.502 0.502 RC
10.0 ML
1.333 LW
N
0 -4 M
0 4 L
-4 0 M
4 0 L
-2.828 -2.828 M
2.828 2.828 L
-2.828 2.828 M
2.828 -2.828 L
S
GR
GS
[0.75 0 0 0.75 192.50246 99.55535] CT
1 0.502 0.502 RC
10.0 ML
1.333 LW
N
0 -4 M
0 4 L
-4 0 M
4 0 L
-2.828 -2.828 M
2.828 2.828 L
-2.828 2.828 M
2.828 -2.828 L
S
GR
GS
[0.75 0 0 0.75 194.22045 104.47703] CT
1 0.502 0.502 RC
10.0 ML
1.333 LW
N
0 -4 M
0 4 L
-4 0 M
4 0 L
-2.828 -2.828 M
2.828 2.828 L
-2.828 2.828 M
2.828 -2.828 L
S
GR
GS
[0.75 0 0 0.75 195.93842 117.87052] CT
1 0.502 0.502 RC
10.0 ML
1.333 LW
N
0 -4 M
0 4 L
-4 0 M
4 0 L
-2.828 -2.828 M
2.828 2.828 L
-2.828 2.828 M
2.828 -2.828 L
S
GR
GS
[0.75 0 0 0.75 197.6564 117.43759] CT
1 0.502 0.502 RC
10.0 ML
1.333 LW
N
0 -4 M
0 4 L
-4 0 M
4 0 L
-2.828 -2.828 M
2.828 2.828 L
-2.828 2.828 M
2.828 -2.828 L
S
GR
GS
[0.75 0 0 0.75 199.37439 107.31635] CT
1 0.502 0.502 RC
10.0 ML
1.333 LW
N
0 -4 M
0 4 L
-4 0 M
4 0 L
-2.828 -2.828 M
2.828 2.828 L
-2.828 2.828 M
2.828 -2.828 L
S
GR
GS
[0.75 0 0 0.75 201.09235 117.62462] CT
1 0.502 0.502 RC
10.0 ML
1.333 LW
N
0 -4 M
0 4 L
-4 0 M
4 0 L
-2.828 -2.828 M
2.828 2.828 L
-2.828 2.828 M
2.828 -2.828 L
S
GR
GS
[0.75 0 0 0.75 202.81034 145.7857] CT
1 0.502 0.502 RC
10.0 ML
1.333 LW
N
0 -4 M
0 4 L
-4 0 M
4 0 L
-2.828 -2.828 M
2.828 2.828 L
-2.828 2.828 M
2.828 -2.828 L
S
GR
GS
[0.75 0 0 0.75 204.52833 118.98806] CT
1 0.502 0.502 RC
10.0 ML
1.333 LW
N
0 -4 M
0 4 L
-4 0 M
4 0 L
-2.828 -2.828 M
2.828 2.828 L
-2.828 2.828 M
2.828 -2.828 L
S
GR
GS
[0.75 0 0 0.75 206.24632 113.01672] CT
1 0.502 0.502 RC
10.0 ML
1.333 LW
N
0 -4 M
0 4 L
-4 0 M
4 0 L
-2.828 -2.828 M
2.828 2.828 L
-2.828 2.828 M
2.828 -2.828 L
S
GR
GS
[0.75 0 0 0.75 207.96428 116.83787] CT
1 0.502 0.502 RC
10.0 ML
1.333 LW
N
0 -4 M
0 4 L
-4 0 M
4 0 L
-2.828 -2.828 M
2.828 2.828 L
-2.828 2.828 M
2.828 -2.828 L
S
GR
GS
[0.75 0 0 0.75 209.68227 106.22636] CT
1 0.502 0.502 RC
10.0 ML
1.333 LW
N
0 -4 M
0 4 L
-4 0 M
4 0 L
-2.828 -2.828 M
2.828 2.828 L
-2.828 2.828 M
2.828 -2.828 L
S
GR
GS
[0.75 0 0 0.75 211.40025 124.94828] CT
1 0.502 0.502 RC
10.0 ML
1.333 LW
N
0 -4 M
0 4 L
-4 0 M
4 0 L
-2.828 -2.828 M
2.828 2.828 L
-2.828 2.828 M
2.828 -2.828 L
S
GR
GS
[0.75 0 0 0.75 213.11822 119.51054] CT
1 0.502 0.502 RC
10.0 ML
1.333 LW
N
0 -4 M
0 4 L
-4 0 M
4 0 L
-2.828 -2.828 M
2.828 2.828 L
-2.828 2.828 M
2.828 -2.828 L
S
GR
GS
[0.75 0 0 0.75 214.8362 154.39564] CT
1 0.502 0.502 RC
10.0 ML
1.333 LW
N
0 -4 M
0 4 L
-4 0 M
4 0 L
-2.828 -2.828 M
2.828 2.828 L
-2.828 2.828 M
2.828 -2.828 L
S
GR
GS
[0.75 0 0 0.75 216.55419 128.51899] CT
1 0.502 0.502 RC
10.0 ML
1.333 LW
N
0 -4 M
0 4 L
-4 0 M
4 0 L
-2.828 -2.828 M
2.828 2.828 L
-2.828 2.828 M
2.828 -2.828 L
S
GR
GS
[0.75 0 0 0.75 218.27218 125.14055] CT
1 0.502 0.502 RC
10.0 ML
1.333 LW
N
0 -4 M
0 4 L
-4 0 M
4 0 L
-2.828 -2.828 M
2.828 2.828 L
-2.828 2.828 M
2.828 -2.828 L
S
GR
GS
[0.75 0 0 0.75 219.99014 109.41681] CT
1 0.502 0.502 RC
10.0 ML
1.333 LW
N
0 -4 M
0 4 L
-4 0 M
4 0 L
-2.828 -2.828 M
2.828 2.828 L
-2.828 2.828 M
2.828 -2.828 L
S
GR
GS
[0.75 0 0 0.75 221.70813 147.71496] CT
1 0.502 0.502 RC
10.0 ML
1.333 LW
N
0 -4 M
0 4 L
-4 0 M
4 0 L
-2.828 -2.828 M
2.828 2.828 L
-2.828 2.828 M
2.828 -2.828 L
S
GR
GS
[0.75 0 0 0.75 223.42612 127.13948] CT
1 0.502 0.502 RC
10.0 ML
1.333 LW
N
0 -4 M
0 4 L
-4 0 M
4 0 L
-2.828 -2.828 M
2.828 2.828 L
-2.828 2.828 M
2.828 -2.828 L
S
GR
GS
[0.75 0 0 0.75 225.14408 135.83742] CT
1 0.502 0.502 RC
10.0 ML
1.333 LW
N
0 -4 M
0 4 L
-4 0 M
4 0 L
-2.828 -2.828 M
2.828 2.828 L
-2.828 2.828 M
2.828 -2.828 L
S
GR
GS
[0.75 0 0 0.75 226.86207 122.74932] CT
1 0.502 0.502 RC
10.0 ML
1.333 LW
N
0 -4 M
0 4 L
-4 0 M
4 0 L
-2.828 -2.828 M
2.828 2.828 L
-2.828 2.828 M
2.828 -2.828 L
S
GR
GS
[0.75 0 0 0.75 228.58006 129.10103] CT
1 0.502 0.502 RC
10.0 ML
1.333 LW
N
0 -4 M
0 4 L
-4 0 M
4 0 L
-2.828 -2.828 M
2.828 2.828 L
-2.828 2.828 M
2.828 -2.828 L
S
GR
GS
[0.75 0 0 0.75 230.29802 142.66875] CT
1 0.502 0.502 RC
10.0 ML
1.333 LW
N
0 -4 M
0 4 L
-4 0 M
4 0 L
-2.828 -2.828 M
2.828 2.828 L
-2.828 2.828 M
2.828 -2.828 L
S
GR
GS
[0.75 0 0 0.75 232.01601 168.32718] CT
1 0.502 0.502 RC
10.0 ML
1.333 LW
N
0 -4 M
0 4 L
-4 0 M
4 0 L
-2.828 -2.828 M
2.828 2.828 L
-2.828 2.828 M
2.828 -2.828 L
S
GR
GS
[0.75 0 0 0.75 233.73399 137.01767] CT
1 0.502 0.502 RC
10.0 ML
1.333 LW
N
0 -4 M
0 4 L
-4 0 M
4 0 L
-2.828 -2.828 M
2.828 2.828 L
-2.828 2.828 M
2.828 -2.828 L
S
GR
GS
[0.75 0 0 0.75 235.45198 148.36716] CT
1 0.502 0.502 RC
10.0 ML
1.333 LW
N
0 -4 M
0 4 L
-4 0 M
4 0 L
-2.828 -2.828 M
2.828 2.828 L
-2.828 2.828 M
2.828 -2.828 L
S
GR
GS
[0.75 0 0 0.75 237.16994 146.46927] CT
1 0.502 0.502 RC
10.0 ML
1.333 LW
N
0 -4 M
0 4 L
-4 0 M
4 0 L
-2.828 -2.828 M
2.828 2.828 L
-2.828 2.828 M
2.828 -2.828 L
S
GR
GS
[0.75 0 0 0.75 238.88793 150.40957] CT
1 0.502 0.502 RC
10.0 ML
1.333 LW
N
0 -4 M
0 4 L
-4 0 M
4 0 L
-2.828 -2.828 M
2.828 2.828 L
-2.828 2.828 M
2.828 -2.828 L
S
GR
GS
[0.75 0 0 0.75 240.60592 173.23252] CT
1 0.502 0.502 RC
10.0 ML
1.333 LW
N
0 -4 M
0 4 L
-4 0 M
4 0 L
-2.828 -2.828 M
2.828 2.828 L
-2.828 2.828 M
2.828 -2.828 L
S
GR
GS
[0.75 0 0 0.75 242.32388 157.07823] CT
1 0.502 0.502 RC
10.0 ML
1.333 LW
N
0 -4 M
0 4 L
-4 0 M
4 0 L
-2.828 -2.828 M
2.828 2.828 L
-2.828 2.828 M
2.828 -2.828 L
S
GR
GS
[0.75 0 0 0.75 244.04187 145.26834] CT
1 0.502 0.502 RC
10.0 ML
1.333 LW
N
0 -4 M
0 4 L
-4 0 M
4 0 L
-2.828 -2.828 M
2.828 2.828 L
-2.828 2.828 M
2.828 -2.828 L
S
GR
GS
[0.75 0 0 0.75 245.75986 150.55127] CT
1 0.502 0.502 RC
10.0 ML
1.333 LW
N
0 -4 M
0 4 L
-4 0 M
4 0 L
-2.828 -2.828 M
2.828 2.828 L
-2.828 2.828 M
2.828 -2.828 L
S
GR
GS
[0.75 0 0 0.75 247.47782 175.98435] CT
1 0.502 0.502 RC
10.0 ML
1.333 LW
N
0 -4 M
0 4 L
-4 0 M
4 0 L
-2.828 -2.828 M
2.828 2.828 L
-2.828 2.828 M
2.828 -2.828 L
S
GR
GS
[0.75 0 0 0.75 249.19581 166.72424] CT
1 0.502 0.502 RC
10.0 ML
1.333 LW
N
0 -4 M
0 4 L
-4 0 M
4 0 L
-2.828 -2.828 M
2.828 2.828 L
-2.828 2.828 M
2.828 -2.828 L
S
GR
GS
[0.75 0 0 0.75 250.9138 165.65849] CT
1 0.502 0.502 RC
10.0 ML
1.333 LW
N
0 -4 M
0 4 L
-4 0 M
4 0 L
-2.828 -2.828 M
2.828 2.828 L
-2.828 2.828 M
2.828 -2.828 L
S
GR
GS
[0.75 0 0 0.75 252.63178 160.61724] CT
1 0.502 0.502 RC
10.0 ML
1.333 LW
N
0 -4 M
0 4 L
-4 0 M
4 0 L
-2.828 -2.828 M
2.828 2.828 L
-2.828 2.828 M
2.828 -2.828 L
S
GR
GS
[0.75 0 0 0.75 254.34975 138.58033] CT
1 0.502 0.502 RC
10.0 ML
1.333 LW
N
0 -4 M
0 4 L
-4 0 M
4 0 L
-2.828 -2.828 M
2.828 2.828 L
-2.828 2.828 M
2.828 -2.828 L
S
GR
GS
[0.75 0 0 0.75 256.06773 173.05664] CT
1 0.502 0.502 RC
10.0 ML
1.333 LW
N
0 -4 M
0 4 L
-4 0 M
4 0 L
-2.828 -2.828 M
2.828 2.828 L
-2.828 2.828 M
2.828 -2.828 L
S
GR
GS
[0.75 0 0 0.75 257.78572 179.73862] CT
1 0.502 0.502 RC
10.0 ML
1.333 LW
N
0 -4 M
0 4 L
-4 0 M
4 0 L
-2.828 -2.828 M
2.828 2.828 L
-2.828 2.828 M
2.828 -2.828 L
S
GR
GS
[0.75 0 0 0.75 259.50368 171.81862] CT
1 0.502 0.502 RC
10.0 ML
1.333 LW
N
0 -4 M
0 4 L
-4 0 M
4 0 L
-2.828 -2.828 M
2.828 2.828 L
-2.828 2.828 M
2.828 -2.828 L
S
GR
GS
[0.75 0 0 0.75 261.22167 171.75211] CT
1 0.502 0.502 RC
10.0 ML
1.333 LW
N
0 -4 M
0 4 L
-4 0 M
4 0 L
-2.828 -2.828 M
2.828 2.828 L
-2.828 2.828 M
2.828 -2.828 L
S
GR
GS
[0.75 0 0 0.75 262.93966 146.72989] CT
1 0.502 0.502 RC
10.0 ML
1.333 LW
N
0 -4 M
0 4 L
-4 0 M
4 0 L
-2.828 -2.828 M
2.828 2.828 L
-2.828 2.828 M
2.828 -2.828 L
S
GR
GS
[0.75 0 0 0.75 264.65765 187.18497] CT
1 0.502 0.502 RC
10.0 ML
1.333 LW
N
0 -4 M
0 4 L
-4 0 M
4 0 L
-2.828 -2.828 M
2.828 2.828 L
-2.828 2.828 M
2.828 -2.828 L
S
GR
GS
[0.75 0 0 0.75 266.37561 153.90543] CT
1 0.502 0.502 RC
10.0 ML
1.333 LW
N
0 -4 M
0 4 L
-4 0 M
4 0 L
-2.828 -2.828 M
2.828 2.828 L
-2.828 2.828 M
2.828 -2.828 L
S
GR
GS
[0.75 0 0 0.75 268.0936 155.8931] CT
1 0.502 0.502 RC
10.0 ML
1.333 LW
N
0 -4 M
0 4 L
-4 0 M
4 0 L
-2.828 -2.828 M
2.828 2.828 L
-2.828 2.828 M
2.828 -2.828 L
S
GR
GS
[0.75 0 0 0.75 269.81158 159.3786] CT
1 0.502 0.502 RC
10.0 ML
1.333 LW
N
0 -4 M
0 4 L
-4 0 M
4 0 L
-2.828 -2.828 M
2.828 2.828 L
-2.828 2.828 M
2.828 -2.828 L
S
GR
GS
[0.75 0 0 0.75 271.52955 186.19358] CT
1 0.502 0.502 RC
10.0 ML
1.333 LW
N
0 -4 M
0 4 L
-4 0 M
4 0 L
-2.828 -2.828 M
2.828 2.828 L
-2.828 2.828 M
2.828 -2.828 L
S
GR
GS
[0.75 0 0 0.75 273.24754 169.0864] CT
1 0.502 0.502 RC
10.0 ML
1.333 LW
N
0 -4 M
0 4 L
-4 0 M
4 0 L
-2.828 -2.828 M
2.828 2.828 L
-2.828 2.828 M
2.828 -2.828 L
S
GR
GS
[0.75 0 0 0.75 274.96552 168.57622] CT
1 0.502 0.502 RC
10.0 ML
1.333 LW
N
0 -4 M
0 4 L
-4 0 M
4 0 L
-2.828 -2.828 M
2.828 2.828 L
-2.828 2.828 M
2.828 -2.828 L
S
GR
GS
[0.75 0 0 0.75 276.68349 189.13663] CT
1 0.502 0.502 RC
10.0 ML
1.333 LW
N
0 -4 M
0 4 L
-4 0 M
4 0 L
-2.828 -2.828 M
2.828 2.828 L
-2.828 2.828 M
2.828 -2.828 L
S
GR
GS
[0.75 0 0 0.75 278.40147 175.10184] CT
1 0.502 0.502 RC
10.0 ML
1.333 LW
N
0 -4 M
0 4 L
-4 0 M
4 0 L
-2.828 -2.828 M
2.828 2.828 L
-2.828 2.828 M
2.828 -2.828 L
S
GR
GS
[0.75 0 0 0.75 280.11946 161.38646] CT
1 0.502 0.502 RC
10.0 ML
1.333 LW
N
0 -4 M
0 4 L
-4 0 M
4 0 L
-2.828 -2.828 M
2.828 2.828 L
-2.828 2.828 M
2.828 -2.828 L
S
GR
GS
[0.75 0 0 0.75 281.83745 174.73702] CT
1 0.502 0.502 RC
10.0 ML
1.333 LW
N
0 -4 M
0 4 L
-4 0 M
4 0 L
-2.828 -2.828 M
2.828 2.828 L
-2.828 2.828 M
2.828 -2.828 L
S
GR
GS
[0.75 0 0 0.75 283.55541 151.31025] CT
1 0.502 0.502 RC
10.0 ML
1.333 LW
N
0 -4 M
0 4 L
-4 0 M
4 0 L
-2.828 -2.828 M
2.828 2.828 L
-2.828 2.828 M
2.828 -2.828 L
S
GR
GS
[0.75 0 0 0.75 285.2734 171.72644] CT
1 0.502 0.502 RC
10.0 ML
1.333 LW
N
0 -4 M
0 4 L
-4 0 M
4 0 L
-2.828 -2.828 M
2.828 2.828 L
-2.828 2.828 M
2.828 -2.828 L
S
GR
GS
[0.75 0 0 0.75 286.99139 167.6254] CT
1 0.502 0.502 RC
10.0 ML
1.333 LW
N
0 -4 M
0 4 L
-4 0 M
4 0 L
-2.828 -2.828 M
2.828 2.828 L
-2.828 2.828 M
2.828 -2.828 L
S
GR
GS
[0.75 0 0 0.75 288.70935 170.13457] CT
1 0.502 0.502 RC
10.0 ML
1.333 LW
N
0 -4 M
0 4 L
-4 0 M
4 0 L
-2.828 -2.828 M
2.828 2.828 L
-2.828 2.828 M
2.828 -2.828 L
S
GR
GS
[0.75 0 0 0.75 290.42734 174.41854] CT
1 0.502 0.502 RC
10.0 ML
1.333 LW
N
0 -4 M
0 4 L
-4 0 M
4 0 L
-2.828 -2.828 M
2.828 2.828 L
-2.828 2.828 M
2.828 -2.828 L
S
GR
GS
[0.75 0 0 0.75 292.14532 164.36702] CT
1 0.502 0.502 RC
10.0 ML
1.333 LW
N
0 -4 M
0 4 L
-4 0 M
4 0 L
-2.828 -2.828 M
2.828 2.828 L
-2.828 2.828 M
2.828 -2.828 L
S
GR
GS
[0.75 0 0 0.75 293.86331 170.62695] CT
1 0.502 0.502 RC
10.0 ML
1.333 LW
N
0 -4 M
0 4 L
-4 0 M
4 0 L
-2.828 -2.828 M
2.828 2.828 L
-2.828 2.828 M
2.828 -2.828 L
S
GR
GS
[0.75 0 0 0.75 295.58128 155.37606] CT
1 0.502 0.502 RC
10.0 ML
1.333 LW
N
0 -4 M
0 4 L
-4 0 M
4 0 L
-2.828 -2.828 M
2.828 2.828 L
-2.828 2.828 M
2.828 -2.828 L
S
GR
GS
[0.75 0 0 0.75 297.29926 137.94676] CT
1 0.502 0.502 RC
10.0 ML
1.333 LW
N
0 -4 M
0 4 L
-4 0 M
4 0 L
-2.828 -2.828 M
2.828 2.828 L
-2.828 2.828 M
2.828 -2.828 L
S
GR
GS
[0.75 0 0 0.75 299.01725 183.16935] CT
1 0.502 0.502 RC
10.0 ML
1.333 LW
N
0 -4 M
0 4 L
-4 0 M
4 0 L
-2.828 -2.828 M
2.828 2.828 L
-2.828 2.828 M
2.828 -2.828 L
S
GR
GS
[0.75 0 0 0.75 300.73521 184.02193] CT
1 0.502 0.502 RC
10.0 ML
1.333 LW
N
0 -4 M
0 4 L
-4 0 M
4 0 L
-2.828 -2.828 M
2.828 2.828 L
-2.828 2.828 M
2.828 -2.828 L
S
GR
GS
[0.75 0 0 0.75 302.4532 170.17043] CT
1 0.502 0.502 RC
10.0 ML
1.333 LW
N
0 -4 M
0 4 L
-4 0 M
4 0 L
-2.828 -2.828 M
2.828 2.828 L
-2.828 2.828 M
2.828 -2.828 L
S
GR
GS
[0.75 0 0 0.75 304.17119 173.30173] CT
1 0.502 0.502 RC
10.0 ML
1.333 LW
N
0 -4 M
0 4 L
-4 0 M
4 0 L
-2.828 -2.828 M
2.828 2.828 L
-2.828 2.828 M
2.828 -2.828 L
S
GR
GS
[0.75 0 0 0.75 305.88915 166.11715] CT
1 0.502 0.502 RC
10.0 ML
1.333 LW
N
0 -4 M
0 4 L
-4 0 M
4 0 L
-2.828 -2.828 M
2.828 2.828 L
-2.828 2.828 M
2.828 -2.828 L
S
GR
GS
[0.75 0 0 0.75 307.60714 155.24198] CT
1 0.502 0.502 RC
10.0 ML
1.333 LW
N
0 -4 M
0 4 L
-4 0 M
4 0 L
-2.828 -2.828 M
2.828 2.828 L
-2.828 2.828 M
2.828 -2.828 L
S
GR
GS
[0.75 0 0 0.75 309.32513 148.01295] CT
1 0.502 0.502 RC
10.0 ML
1.333 LW
N
0 -4 M
0 4 L
-4 0 M
4 0 L
-2.828 -2.828 M
2.828 2.828 L
-2.828 2.828 M
2.828 -2.828 L
S
GR
GS
[0.75 0 0 0.75 311.04311 133.96618] CT
1 0.502 0.502 RC
10.0 ML
1.333 LW
N
0 -4 M
0 4 L
-4 0 M
4 0 L
-2.828 -2.828 M
2.828 2.828 L
-2.828 2.828 M
2.828 -2.828 L
S
GR
GS
[0.75 0 0 0.75 312.76108 160.26196] CT
1 0.502 0.502 RC
10.0 ML
1.333 LW
N
0 -4 M
0 4 L
-4 0 M
4 0 L
-2.828 -2.828 M
2.828 2.828 L
-2.828 2.828 M
2.828 -2.828 L
S
GR
GS
[0.75 0 0 0.75 314.47906 158.64958] CT
1 0.502 0.502 RC
10.0 ML
1.333 LW
N
0 -4 M
0 4 L
-4 0 M
4 0 L
-2.828 -2.828 M
2.828 2.828 L
-2.828 2.828 M
2.828 -2.828 L
S
GR
GS
[0.75 0 0 0.75 316.19705 159.53093] CT
1 0.502 0.502 RC
10.0 ML
1.333 LW
N
0 -4 M
0 4 L
-4 0 M
4 0 L
-2.828 -2.828 M
2.828 2.828 L
-2.828 2.828 M
2.828 -2.828 L
S
GR
GS
[0.75 0 0 0.75 317.91502 158.58695] CT
1 0.502 0.502 RC
10.0 ML
1.333 LW
N
0 -4 M
0 4 L
-4 0 M
4 0 L
-2.828 -2.828 M
2.828 2.828 L
-2.828 2.828 M
2.828 -2.828 L
S
GR
GS
[0.75 0 0 0.75 319.633 142.73165] CT
1 0.502 0.502 RC
10.0 ML
1.333 LW
N
0 -4 M
0 4 L
-4 0 M
4 0 L
-2.828 -2.828 M
2.828 2.828 L
-2.828 2.828 M
2.828 -2.828 L
S
GR
GS
[0.75 0 0 0.75 321.35099 179.27811] CT
1 0.502 0.502 RC
10.0 ML
1.333 LW
N
0 -4 M
0 4 L
-4 0 M
4 0 L
-2.828 -2.828 M
2.828 2.828 L
-2.828 2.828 M
2.828 -2.828 L
S
GR
GS
[0.75 0 0 0.75 323.06895 144.65048] CT
1 0.502 0.502 RC
10.0 ML
1.333 LW
N
0 -4 M
0 4 L
-4 0 M
4 0 L
-2.828 -2.828 M
2.828 2.828 L
-2.828 2.828 M
2.828 -2.828 L
S
GR
GS
[0.75 0 0 0.75 324.78694 160.17085] CT
1 0.502 0.502 RC
10.0 ML
1.333 LW
N
0 -4 M
0 4 L
-4 0 M
4 0 L
-2.828 -2.828 M
2.828 2.828 L
-2.828 2.828 M
2.828 -2.828 L
S
GR
GS
[0.75 0 0 0.75 326.50493 154.06785] CT
1 0.502 0.502 RC
10.0 ML
1.333 LW
N
0 -4 M
0 4 L
-4 0 M
4 0 L
-2.828 -2.828 M
2.828 2.828 L
-2.828 2.828 M
2.828 -2.828 L
S
GR
GS
[0.75 0 0 0.75 328.22292 140.81179] CT
1 0.502 0.502 RC
10.0 ML
1.333 LW
N
0 -4 M
0 4 L
-4 0 M
4 0 L
-2.828 -2.828 M
2.828 2.828 L
-2.828 2.828 M
2.828 -2.828 L
S
GR
GS
[0.75 0 0 0.75 329.94088 132.58851] CT
1 0.502 0.502 RC
10.0 ML
1.333 LW
N
0 -4 M
0 4 L
-4 0 M
4 0 L
-2.828 -2.828 M
2.828 2.828 L
-2.828 2.828 M
2.828 -2.828 L
S
GR
GS
[0.75 0 0 0.75 331.65887 137.2662] CT
1 0.502 0.502 RC
10.0 ML
1.333 LW
N
0 -4 M
0 4 L
-4 0 M
4 0 L
-2.828 -2.828 M
2.828 2.828 L
-2.828 2.828 M
2.828 -2.828 L
S
GR
GS
[0.75 0 0 0.75 333.37685 123.9973] CT
1 0.502 0.502 RC
10.0 ML
1.333 LW
N
0 -4 M
0 4 L
-4 0 M
4 0 L
-2.828 -2.828 M
2.828 2.828 L
-2.828 2.828 M
2.828 -2.828 L
S
GR
GS
[0.75 0 0 0.75 335.09482 155.77361] CT
1 0.502 0.502 RC
10.0 ML
1.333 LW
N
0 -4 M
0 4 L
-4 0 M
4 0 L
-2.828 -2.828 M
2.828 2.828 L
-2.828 2.828 M
2.828 -2.828 L
S
GR
GS
[0.75 0 0 0.75 336.81281 122.86572] CT
1 0.502 0.502 RC
10.0 ML
1.333 LW
N
0 -4 M
0 4 L
-4 0 M
4 0 L
-2.828 -2.828 M
2.828 2.828 L
-2.828 2.828 M
2.828 -2.828 L
S
GR
GS
[0.75 0 0 0.75 338.53079 111.33831] CT
1 0.502 0.502 RC
10.0 ML
1.333 LW
N
0 -4 M
0 4 L
-4 0 M
4 0 L
-2.828 -2.828 M
2.828 2.828 L
-2.828 2.828 M
2.828 -2.828 L
S
GR
GS
[0.75 0 0 0.75 340.24878 125.47091] CT
1 0.502 0.502 RC
10.0 ML
1.333 LW
N
0 -4 M
0 4 L
-4 0 M
4 0 L
-2.828 -2.828 M
2.828 2.828 L
-2.828 2.828 M
2.828 -2.828 L
S
GR
GS
[0.75 0 0 0.75 341.96674 128.50089] CT
1 0.502 0.502 RC
10.0 ML
1.333 LW
N
0 -4 M
0 4 L
-4 0 M
4 0 L
-2.828 -2.828 M
2.828 2.828 L
-2.828 2.828 M
2.828 -2.828 L
S
GR
GS
[0.75 0 0 0.75 343.68473 122.94359] CT
1 0.502 0.502 RC
10.0 ML
1.333 LW
N
0 -4 M
0 4 L
-4 0 M
4 0 L
-2.828 -2.828 M
2.828 2.828 L
-2.828 2.828 M
2.828 -2.828 L
S
GR
GS
[0.75 0 0 0.75 345.40272 117.80861] CT
1 0.502 0.502 RC
10.0 ML
1.333 LW
N
0 -4 M
0 4 L
-4 0 M
4 0 L
-2.828 -2.828 M
2.828 2.828 L
-2.828 2.828 M
2.828 -2.828 L
S
GR
GS
[0.75 0 0 0.75 347.12068 134.55828] CT
1 0.502 0.502 RC
10.0 ML
1.333 LW
N
0 -4 M
0 4 L
-4 0 M
4 0 L
-2.828 -2.828 M
2.828 2.828 L
-2.828 2.828 M
2.828 -2.828 L
S
GR
GS
[0.75 0 0 0.75 348.83867 118.66824] CT
1 0.502 0.502 RC
10.0 ML
1.333 LW
N
0 -4 M
0 4 L
-4 0 M
4 0 L
-2.828 -2.828 M
2.828 2.828 L
-2.828 2.828 M
2.828 -2.828 L
S
GR
GS
[0.75 0 0 0.75 350.55666 126.45019] CT
1 0.502 0.502 RC
10.0 ML
1.333 LW
N
0 -4 M
0 4 L
-4 0 M
4 0 L
-2.828 -2.828 M
2.828 2.828 L
-2.828 2.828 M
2.828 -2.828 L
S
GR
GS
[0.75 0 0 0.75 352.27462 124.73608] CT
1 0.502 0.502 RC
10.0 ML
1.333 LW
N
0 -4 M
0 4 L
-4 0 M
4 0 L
-2.828 -2.828 M
2.828 2.828 L
-2.828 2.828 M
2.828 -2.828 L
S
GR
GS
[0.75 0 0 0.75 353.99261 131.39106] CT
1 0.502 0.502 RC
10.0 ML
1.333 LW
N
0 -4 M
0 4 L
-4 0 M
4 0 L
-2.828 -2.828 M
2.828 2.828 L
-2.828 2.828 M
2.828 -2.828 L
S
GR
GS
[0.75 0 0 0.75 355.71059 154.88402] CT
1 0.502 0.502 RC
10.0 ML
1.333 LW
N
0 -4 M
0 4 L
-4 0 M
4 0 L
-2.828 -2.828 M
2.828 2.828 L
-2.828 2.828 M
2.828 -2.828 L
S
GR
GS
[0.75 0 0 0.75 357.42858 132.12981] CT
1 0.502 0.502 RC
10.0 ML
1.333 LW
N
0 -4 M
0 4 L
-4 0 M
4 0 L
-2.828 -2.828 M
2.828 2.828 L
-2.828 2.828 M
2.828 -2.828 L
S
GR
GS
[0.75 0 0 0.75 359.14655 132.41222] CT
1 0.502 0.502 RC
10.0 ML
1.333 LW
N
0 -4 M
0 4 L
-4 0 M
4 0 L
-2.828 -2.828 M
2.828 2.828 L
-2.828 2.828 M
2.828 -2.828 L
S
GR
GS
[0.75 0 0 0.75 360.86453 126.99925] CT
1 0.502 0.502 RC
10.0 ML
1.333 LW
N
0 -4 M
0 4 L
-4 0 M
4 0 L
-2.828 -2.828 M
2.828 2.828 L
-2.828 2.828 M
2.828 -2.828 L
S
GR
GS
[0.75 0 0 0.75 362.58252 128.93187] CT
1 0.502 0.502 RC
10.0 ML
1.333 LW
N
0 -4 M
0 4 L
-4 0 M
4 0 L
-2.828 -2.828 M
2.828 2.828 L
-2.828 2.828 M
2.828 -2.828 L
S
GR
GS
[0.75 0 0 0.75 364.30048 139.62455] CT
1 0.502 0.502 RC
10.0 ML
1.333 LW
N
0 -4 M
0 4 L
-4 0 M
4 0 L
-2.828 -2.828 M
2.828 2.828 L
-2.828 2.828 M
2.828 -2.828 L
S
GR
GS
[0.75 0 0 0.75 366.01847 140.35515] CT
1 0.502 0.502 RC
10.0 ML
1.333 LW
N
0 -4 M
0 4 L
-4 0 M
4 0 L
-2.828 -2.828 M
2.828 2.828 L
-2.828 2.828 M
2.828 -2.828 L
S
GR
GS
[0.75 0 0 0.75 367.73646 123.24802] CT
1 0.502 0.502 RC
10.0 ML
1.333 LW
N
0 -4 M
0 4 L
-4 0 M
4 0 L
-2.828 -2.828 M
2.828 2.828 L
-2.828 2.828 M
2.828 -2.828 L
S
GR
GS
[0.75 0 0 0.75 369.45444 129.34577] CT
1 0.502 0.502 RC
10.0 ML
1.333 LW
N
0 -4 M
0 4 L
-4 0 M
4 0 L
-2.828 -2.828 M
2.828 2.828 L
-2.828 2.828 M
2.828 -2.828 L
S
GR
GS
[0.75 0 0 0.75 371.17241 152.56191] CT
1 0.502 0.502 RC
10.0 ML
1.333 LW
N
0 -4 M
0 4 L
-4 0 M
4 0 L
-2.828 -2.828 M
2.828 2.828 L
-2.828 2.828 M
2.828 -2.828 L
S
GR
GS
[0.75 0 0 0.75 372.8904 128.76395] CT
1 0.502 0.502 RC
10.0 ML
1.333 LW
N
0 -4 M
0 4 L
-4 0 M
4 0 L
-2.828 -2.828 M
2.828 2.828 L
-2.828 2.828 M
2.828 -2.828 L
S
GR
GS
[0.75 0 0 0.75 374.60838 131.04553] CT
1 0.502 0.502 RC
10.0 ML
1.333 LW
N
0 -4 M
0 4 L
-4 0 M
4 0 L
-2.828 -2.828 M
2.828 2.828 L
-2.828 2.828 M
2.828 -2.828 L
S
GR
GS
[0.75 0 0 0.75 376.32635 128.99059] CT
1 0.502 0.502 RC
10.0 ML
1.333 LW
N
0 -4 M
0 4 L
-4 0 M
4 0 L
-2.828 -2.828 M
2.828 2.828 L
-2.828 2.828 M
2.828 -2.828 L
S
GR
GS
[0.75 0 0 0.75 378.04433 128.73824] CT
1 0.502 0.502 RC
10.0 ML
1.333 LW
N
0 -4 M
0 4 L
-4 0 M
4 0 L
-2.828 -2.828 M
2.828 2.828 L
-2.828 2.828 M
2.828 -2.828 L
S
GR
GS
[0.75 0 0 0.75 379.76232 149.41737] CT
1 0.502 0.502 RC
10.0 ML
1.333 LW
N
0 -4 M
0 4 L
-4 0 M
4 0 L
-2.828 -2.828 M
2.828 2.828 L
-2.828 2.828 M
2.828 -2.828 L
S
GR
GS
[0.75 0 0 0.75 381.48029 137.67216] CT
1 0.502 0.502 RC
10.0 ML
1.333 LW
N
0 -4 M
0 4 L
-4 0 M
4 0 L
-2.828 -2.828 M
2.828 2.828 L
-2.828 2.828 M
2.828 -2.828 L
S
GR
GS
[0.75 0 0 0.75 383.19827 140.57093] CT
1 0.502 0.502 RC
10.0 ML
1.333 LW
N
0 -4 M
0 4 L
-4 0 M
4 0 L
-2.828 -2.828 M
2.828 2.828 L
-2.828 2.828 M
2.828 -2.828 L
S
GR
GS
[0.75 0 0 0.75 384.91626 140.88499] CT
1 0.502 0.502 RC
10.0 ML
1.333 LW
N
0 -4 M
0 4 L
-4 0 M
4 0 L
-2.828 -2.828 M
2.828 2.828 L
-2.828 2.828 M
2.828 -2.828 L
S
GR
GS
[0.75 0 0 0.75 386.63425 142.14183] CT
1 0.502 0.502 RC
10.0 ML
1.333 LW
N
0 -4 M
0 4 L
-4 0 M
4 0 L
-2.828 -2.828 M
2.828 2.828 L
-2.828 2.828 M
2.828 -2.828 L
S
GR
GS
[0.75 0 0 0.75 388.35223 123.04781] CT
1 0.502 0.502 RC
10.0 ML
1.333 LW
N
0 -4 M
0 4 L
-4 0 M
4 0 L
-2.828 -2.828 M
2.828 2.828 L
-2.828 2.828 M
2.828 -2.828 L
S
GR
GS
[0.75 0 0 0.75 390.07018 122.00029] CT
1 0.502 0.502 RC
10.0 ML
1.333 LW
N
0 -4 M
0 4 L
-4 0 M
4 0 L
-2.828 -2.828 M
2.828 2.828 L
-2.828 2.828 M
2.828 -2.828 L
S
GR
GS
[0.75 0 0 0.75 391.78816 146.75356] CT
1 0.502 0.502 RC
10.0 ML
1.333 LW
N
0 -4 M
0 4 L
-4 0 M
4 0 L
-2.828 -2.828 M
2.828 2.828 L
-2.828 2.828 M
2.828 -2.828 L
S
GR
GS
[0.75 0 0 0.75 393.50615 157.86915] CT
1 0.502 0.502 RC
10.0 ML
1.333 LW
N
0 -4 M
0 4 L
-4 0 M
4 0 L
-2.828 -2.828 M
2.828 2.828 L
-2.828 2.828 M
2.828 -2.828 L
S
GR
GS
[0.75 0 0 0.75 395.22414 138.36527] CT
1 0.502 0.502 RC
10.0 ML
1.333 LW
N
0 -4 M
0 4 L
-4 0 M
4 0 L
-2.828 -2.828 M
2.828 2.828 L
-2.828 2.828 M
2.828 -2.828 L
S
GR
GS
[0.75 0 0 0.75 396.94212 141.90341] CT
1 0.502 0.502 RC
10.0 ML
1.333 LW
N
0 -4 M
0 4 L
-4 0 M
4 0 L
-2.828 -2.828 M
2.828 2.828 L
-2.828 2.828 M
2.828 -2.828 L
S
GR
GS
[0.75 0 0 0.75 398.66011 145.70021] CT
1 0.502 0.502 RC
10.0 ML
1.333 LW
N
0 -4 M
0 4 L
-4 0 M
4 0 L
-2.828 -2.828 M
2.828 2.828 L
-2.828 2.828 M
2.828 -2.828 L
S
GR
GS
[0.75 0 0 0.75 400.3781 121.74011] CT
1 0.502 0.502 RC
10.0 ML
1.333 LW
N
0 -4 M
0 4 L
-4 0 M
4 0 L
-2.828 -2.828 M
2.828 2.828 L
-2.828 2.828 M
2.828 -2.828 L
S
GR
GS
[0.75 0 0 0.75 402.09604 151.78758] CT
1 0.502 0.502 RC
10.0 ML
1.333 LW
N
0 -4 M
0 4 L
-4 0 M
4 0 L
-2.828 -2.828 M
2.828 2.828 L
-2.828 2.828 M
2.828 -2.828 L
S
GR
GS
[0.75 0 0 0.75 403.81403 159.58157] CT
1 0.502 0.502 RC
10.0 ML
1.333 LW
N
0 -4 M
0 4 L
-4 0 M
4 0 L
-2.828 -2.828 M
2.828 2.828 L
-2.828 2.828 M
2.828 -2.828 L
S
GR
GS
[0.75 0 0 0.75 405.53201 137.97842] CT
1 0.502 0.502 RC
10.0 ML
1.333 LW
N
0 -4 M
0 4 L
-4 0 M
4 0 L
-2.828 -2.828 M
2.828 2.828 L
-2.828 2.828 M
2.828 -2.828 L
S
GR
GS
[0.75 0 0 0.75 407.25 155.19483] CT
1 0.502 0.502 RC
10.0 ML
1.333 LW
N
0 -4 M
0 4 L
-4 0 M
4 0 L
-2.828 -2.828 M
2.828 2.828 L
-2.828 2.828 M
2.828 -2.828 L
S
GR
GS
[0.75 0 0 0.75 60.21798 289.383] CT
N
1.333 0 M
1.333 0.736 0.736 1.333 0 1.333 C
-0.736 1.333 -1.333 0.736 -1.333 0 C
-1.333 -0.736 -0.736 -1.333 0 -1.333 C
0.736 -1.333 1.333 -0.736 1.333 0 C
cp
f
GR
GS
[0.75 0 0 0.75 61.93596 292.02546] CT
N
/f-1057828618{1.333 0 M
1.333 0.736 0.736 1.333 0 1.333 C
-0.736 1.333 -1.333 0.736 -1.333 0 C
-1.333 -0.736 -0.736 -1.333 0 -1.333 C
0.736 -1.333 1.333 -0.736 1.333 0 C
cp}def
f-1057828618
f
GR
GS
[0.75 0 0 0.75 63.65394 289.89237] CT
N
f-1057828618
f
GR
GS
[0.75 0 0 0.75 65.37192 288.01707] CT
N
f-1057828618
f
GR
GS
[0.75 0 0 0.75 67.0899 287.80016] CT
N
f-1057828618
f
GR
GS
[0.75 0 0 0.75 68.80788 286.8506] CT
N
f-1057828618
f
GR
GS
[0.75 0 0 0.75 70.52586 285.68715] CT
N
f-1057828618
f
GR
GS
[0.75 0 0 0.75 72.24384 283.90718] CT
N
f-1057828618
f
GR
GS
[0.75 0 0 0.75 73.96182 282.71237] CT
N
f-1057828618
f
GR
GS
[0.75 0 0 0.75 75.6798 279.45689] CT
N
f-1057828618
f
GR
GS
[0.75 0 0 0.75 77.39778 278.84832] CT
N
f-1057828618
f
GR
GS
[0.75 0 0 0.75 79.11576 275.89165] CT
N
f-1057828618
f
GR
GS
[0.75 0 0 0.75 80.83375 275.36288] CT
N
f-1057828618
f
GR
GS
[0.75 0 0 0.75 82.55172 271.34736] CT
N
f-1057828618
f
GR
GS
[0.75 0 0 0.75 84.2697 270.9063] CT
N
f-1057828618
f
GR
GS
[0.75 0 0 0.75 85.98768 266.46719] CT
N
f-1057828618
f
GR
GS
[0.75 0 0 0.75 87.70567 266.08971] CT
N
f-1057828618
f
GR
GS
[0.75 0 0 0.75 89.42365 263.01803] CT
N
f-1057828618
f
GR
GS
[0.75 0 0 0.75 91.14163 260.90838] CT
N
f-1057828618
f
GR
GS
[0.75 0 0 0.75 92.8596 258.84638] CT
N
f-1057828618
f
GR
GS
[0.75 0 0 0.75 94.57759 252.43034] CT
N
f-1057828618
f
GR
GS
[0.75 0 0 0.75 96.29557 253.45599] CT
N
f-1057828618
f
GR
GS
[0.75 0 0 0.75 98.01354 247.3648] CT
N
f-1057828618
f
GR
GS
[0.75 0 0 0.75 99.73153 244.83934] CT
N
f-1057828618
f
GR
GS
[0.75 0 0 0.75 101.4495 240.41055] CT
N
f-1057828618
f
GR
GS
[0.75 0 0 0.75 103.16749 238.61082] CT
N
f-1057828618
f
GR
GS
[0.75 0 0 0.75 104.88547 232.29716] CT
N
f-1057828618
f
GR
GS
[0.75 0 0 0.75 106.60344 229.68343] CT
N
f-1057828618
f
GR
GS
[0.75 0 0 0.75 108.32143 225.4725] CT
N
f-1057828618
f
GR
GS
[0.75 0 0 0.75 110.03941 221.31992] CT
N
f-1057828618
f
GR
GS
[0.75 0 0 0.75 111.75739 219.31716] CT
N
f-1057828618
f
GR
GS
[0.75 0 0 0.75 113.47537 214.86802] CT
N
f-1057828618
f
GR
GS
[0.75 0 0 0.75 115.19334 210.55552] CT
N
f-1057828618
f
GR
GS
[0.75 0 0 0.75 116.91133 207.60704] CT
N
f-1057828618
f
GR
GS
[0.75 0 0 0.75 118.62931 201.74643] CT
N
f-1057828618
f
GR
GS
[0.75 0 0 0.75 120.34729 199.74516] CT
N
f-1057828618
f
GR
GS
[0.75 0 0 0.75 122.06527 194.58167] CT
N
f-1057828618
f
GR
GS
[0.75 0 0 0.75 123.78326 193.855] CT
N
f-1057828618
f
GR
GS
[0.75 0 0 0.75 125.50123 186.8626] CT
N
f-1057828618
f
GR
GS
[0.75 0 0 0.75 127.21921 183.4303] CT
N
f-1057828618
f
GR
GS
[0.75 0 0 0.75 128.93719 181.48968] CT
N
f-1057828618
f
GR
GS
[0.75 0 0 0.75 130.65517 177.1232] CT
N
f-1057828618
f
GR
GS
[0.75 0 0 0.75 132.37316 173.43446] CT
N
f-1057828618
f
GR
GS
[0.75 0 0 0.75 134.09113 168.70525] CT
N
f-1057828618
f
GR
GS
[0.75 0 0 0.75 135.80911 166.96265] CT
N
f-1057828618
f
GR
GS
[0.75 0 0 0.75 137.5271 160.97055] CT
N
f-1057828618
f
GR
GS
[0.75 0 0 0.75 139.24507 161.05344] CT
N
f-1057828618
f
GR
GS
[0.75 0 0 0.75 140.96306 159.92163] CT
N
f-1057828618
f
GR
GS
[0.75 0 0 0.75 142.68103 153.45822] CT
N
f-1057828618
f
GR
GS
[0.75 0 0 0.75 144.39901 151.43456] CT
N
f-1057828618
f
GR
GS
[0.75 0 0 0.75 146.117 148.10028] CT
N
f-1057828618
f
GR
GS
[0.75 0 0 0.75 147.83497 146.24675] CT
N
f-1057828618
f
GR
GS
[0.75 0 0 0.75 149.55296 144.03291] CT
N
f-1057828618
f
GR
GS
[0.75 0 0 0.75 151.27094 139.8535] CT
N
f-1057828618
f
GR
GS
[0.75 0 0 0.75 152.98891 138.41144] CT
N
f-1057828618
f
GR
GS
[0.75 0 0 0.75 154.7069 135.6594] CT
N
f-1057828618
f
GR
GS
[0.75 0 0 0.75 156.42487 132.79572] CT
N
f-1057828618
f
GR
GS
[0.75 0 0 0.75 158.14286 130.23753] CT
N
f-1057828618
f
GR
GS
[0.75 0 0 0.75 159.86084 128.54469] CT
N
f-1057828618
f
GR
GS
[0.75 0 0 0.75 161.57882 126.19517] CT
N
f-1057828618
f
GR
GS
[0.75 0 0 0.75 163.2968 124.94883] CT
N
f-1057828618
f
GR
GS
[0.75 0 0 0.75 165.01477 121.60114] CT
N
f-1057828618
f
GR
GS
[0.75 0 0 0.75 166.73276 121.33233] CT
N
f-1057828618
f
GR
GS
[0.75 0 0 0.75 168.45074 118.66013] CT
N
f-1057828618
f
GR
GS
[0.75 0 0 0.75 170.16872 121.87568] CT
N
f-1057828618
f
GR
GS
[0.75 0 0 0.75 171.8867 117.67487] CT
N
f-1057828618
f
GR
GS
[0.75 0 0 0.75 173.60468 119.05857] CT
N
f-1057828618
f
GR
GS
[0.75 0 0 0.75 175.32266 116.70181] CT
N
f-1057828618
f
GR
GS
[0.75 0 0 0.75 177.04064 119.1731] CT
N
f-1057828618
f
GR
GS
[0.75 0 0 0.75 178.75863 116.89787] CT
N
f-1057828618
f
GR
GS
[0.75 0 0 0.75 180.4766 116.6722] CT
N
f-1057828618
f
GR
GS
[0.75 0 0 0.75 182.19458 115.61561] CT
N
f-1057828618
f
GR
GS
[0.75 0 0 0.75 183.91256 116.44021] CT
N
f-1057828618
f
GR
GS
[0.75 0 0 0.75 185.63054 113.55913] CT
N
f-1057828618
f
GR
GS
[0.75 0 0 0.75 187.34853 115.39958] CT
N
f-1057828618
f
GR
GS
[0.75 0 0 0.75 189.0665 117.34013] CT
N
f-1057828618
f
GR
GS
[0.75 0 0 0.75 190.78448 117.0155] CT
N
f-1057828618
f
GR
GS
[0.75 0 0 0.75 192.50246 114.54261] CT
N
f-1057828618
f
GR
GS
[0.75 0 0 0.75 194.22045 119.73452] CT
N
f-1057828618
f
GR
GS
[0.75 0 0 0.75 195.93842 119.35595] CT
N
f-1057828618
f
GR
GS
[0.75 0 0 0.75 197.6564 118.60466] CT
N
f-1057828618
f
GR
GS
[0.75 0 0 0.75 199.37439 118.88283] CT
N
f-1057828618
f
GR
GS
[0.75 0 0 0.75 201.09235 120.27548] CT
N
f-1057828618
f
GR
GS
[0.75 0 0 0.75 202.81034 123.44151] CT
N
f-1057828618
f
GR
GS
[0.75 0 0 0.75 204.52833 123.76583] CT
N
f-1057828618
f
GR
GS
[0.75 0 0 0.75 206.24632 123.94434] CT
N
f-1057828618
f
GR
GS
[0.75 0 0 0.75 207.96428 122.73056] CT
N
f-1057828618
f
GR
GS
[0.75 0 0 0.75 209.68227 127.78979] CT
N
f-1057828618
f
GR
GS
[0.75 0 0 0.75 211.40025 127.59916] CT
N
f-1057828618
f
GR
GS
[0.75 0 0 0.75 213.11822 128.63131] CT
N
f-1057828618
f
GR
GS
[0.75 0 0 0.75 214.8362 131.29493] CT
N
f-1057828618
f
GR
GS
[0.75 0 0 0.75 216.55419 129.73892] CT
N
f-1057828618
f
GR
GS
[0.75 0 0 0.75 218.27218 134.29943] CT
N
f-1057828618
f
GR
GS
[0.75 0 0 0.75 219.99014 135.87255] CT
N
f-1057828618
f
GR
GS
[0.75 0 0 0.75 221.70813 139.36816] CT
N
f-1057828618
f
GR
GS
[0.75 0 0 0.75 223.42612 140.05416] CT
N
f-1057828618
f
GR
GS
[0.75 0 0 0.75 225.14408 140.2794] CT
N
f-1057828618
f
GR
GS
[0.75 0 0 0.75 226.86207 142.3996] CT
N
f-1057828618
f
GR
GS
[0.75 0 0 0.75 228.58006 139.98291] CT
N
f-1057828618
f
GR
GS
[0.75 0 0 0.75 230.29802 142.55382] CT
N
f-1057828618
f
GR
GS
[0.75 0 0 0.75 232.01601 148.08598] CT
N
f-1057828618
f
GR
GS
[0.75 0 0 0.75 233.73399 148.91384] CT
N
f-1057828618
f
GR
GS
[0.75 0 0 0.75 235.45198 147.79249] CT
N
f-1057828618
f
GR
GS
[0.75 0 0 0.75 237.16994 153.55995] CT
N
f-1057828618
f
GR
GS
[0.75 0 0 0.75 238.88793 152.67317] CT
N
f-1057828618
f
GR
GS
[0.75 0 0 0.75 240.60592 153.16861] CT
N
f-1057828618
f
GR
GS
[0.75 0 0 0.75 242.32388 154.91535] CT
N
f-1057828618
f
GR
GS
[0.75 0 0 0.75 244.04187 158.08902] CT
N
f-1057828618
f
GR
GS
[0.75 0 0 0.75 245.75986 158.0546] CT
N
f-1057828618
f
GR
GS
[0.75 0 0 0.75 247.47782 159.73084] CT
N
f-1057828618
f
GR
GS
[0.75 0 0 0.75 249.19581 159.77388] CT
N
f-1057828618
f
GR
GS
[0.75 0 0 0.75 250.9138 161.28865] CT
N
f-1057828618
f
GR
GS
[0.75 0 0 0.75 252.63178 163.52673] CT
N
f-1057828618
f
GR
GS
[0.75 0 0 0.75 254.34975 164.71692] CT
N
f-1057828618
f
GR
GS
[0.75 0 0 0.75 256.06773 167.43114] CT
N
f-1057828618
f
GR
GS
[0.75 0 0 0.75 257.78572 165.22947] CT
N
f-1057828618
f
GR
GS
[0.75 0 0 0.75 259.50368 165.10969] CT
N
f-1057828618
f
GR
GS
[0.75 0 0 0.75 261.22167 167.97217] CT
N
f-1057828618
f
GR
GS
[0.75 0 0 0.75 262.93966 165.96653] CT
N
f-1057828618
f
GR
GS
[0.75 0 0 0.75 264.65765 167.96332] CT
N
f-1057828618
f
GR
GS
[0.75 0 0 0.75 266.37561 168.42676] CT
N
f-1057828618
f
GR
GS
[0.75 0 0 0.75 268.0936 169.97914] CT
N
f-1057828618
f
GR
GS
[0.75 0 0 0.75 269.81158 170.1642] CT
N
f-1057828618
f
GR
GS
[0.75 0 0 0.75 271.52955 170.81154] CT
N
f-1057828618
f
GR
GS
[0.75 0 0 0.75 273.24754 169.63868] CT
N
f-1057828618
f
GR
GS
[0.75 0 0 0.75 274.96552 169.35865] CT
N
f-1057828618
f
GR
GS
[0.75 0 0 0.75 276.68349 168.27201] CT
N
f-1057828618
f
GR
GS
[0.75 0 0 0.75 278.40147 169.80856] CT
N
f-1057828618
f
GR
GS
[0.75 0 0 0.75 280.11946 170.02124] CT
N
f-1057828618
f
GR
GS
[0.75 0 0 0.75 281.83745 169.02848] CT
N
f-1057828618
f
GR
GS
[0.75 0 0 0.75 283.55541 166.56885] CT
N
f-1057828618
f
GR
GS
[0.75 0 0 0.75 285.2734 168.66925] CT
N
f-1057828618
f
GR
GS
[0.75 0 0 0.75 286.99139 165.66807] CT
N
f-1057828618
f
GR
GS
[0.75 0 0 0.75 288.70935 166.93296] CT
N
f-1057828618
f
GR
GS
[0.75 0 0 0.75 290.42734 166.5664] CT
N
f-1057828618
f
GR
GS
[0.75 0 0 0.75 292.14532 164.09359] CT
N
f-1057828618
f
GR
GS
[0.75 0 0 0.75 293.86331 165.79607] CT
N
f-1057828618
f
GR
GS
[0.75 0 0 0.75 295.58128 162.88437] CT
N
f-1057828618
f
GR
GS
[0.75 0 0 0.75 297.29926 160.5215] CT
N
f-1057828618
f
GR
GS
[0.75 0 0 0.75 299.01725 162.69281] CT
N
f-1057828618
f
GR
GS
[0.75 0 0 0.75 300.73521 163.044] CT
N
f-1057828618
f
GR
GS
[0.75 0 0 0.75 302.4532 159.21952] CT
N
f-1057828618
f
GR
GS
[0.75 0 0 0.75 304.17119 158.87062] CT
N
f-1057828618
f
GR
GS
[0.75 0 0 0.75 305.88915 156.21651] CT
N
f-1057828618
f
GR
GS
[0.75 0 0 0.75 307.60714 160.03429] CT
N
f-1057828618
f
GR
GS
[0.75 0 0 0.75 309.32513 157.16778] CT
N
f-1057828618
f
GR
GS
[0.75 0 0 0.75 311.04311 155.09801] CT
N
f-1057828618
f
GR
GS
[0.75 0 0 0.75 312.76108 154.4817] CT
N
f-1057828618
f
GR
GS
[0.75 0 0 0.75 314.47906 152.51081] CT
N
f-1057828618
f
GR
GS
[0.75 0 0 0.75 316.19705 150.33798] CT
N
f-1057828618
f
GR
GS
[0.75 0 0 0.75 317.91502 151.79783] CT
N
f-1057828618
f
GR
GS
[0.75 0 0 0.75 319.633 149.61365] CT
N
f-1057828618
f
GR
GS
[0.75 0 0 0.75 321.35099 148.31398] CT
N
f-1057828618
f
GR
GS
[0.75 0 0 0.75 323.06895 147.23491] CT
N
f-1057828618
f
GR
GS
[0.75 0 0 0.75 324.78694 146.54669] CT
N
f-1057828618
f
GR
GS
[0.75 0 0 0.75 326.50493 144.99294] CT
N
f-1057828618
f
GR
GS
[0.75 0 0 0.75 328.22292 141.57895] CT
N
f-1057828618
f
GR
GS
[0.75 0 0 0.75 329.94088 142.34391] CT
N
f-1057828618
f
GR
GS
[0.75 0 0 0.75 331.65887 144.11874] CT
N
f-1057828618
f
GR
GS
[0.75 0 0 0.75 333.37685 138.73924] CT
N
f-1057828618
f
GR
GS
[0.75 0 0 0.75 335.09482 137.90697] CT
N
f-1057828618
f
GR
GS
[0.75 0 0 0.75 336.81281 136.7066] CT
N
f-1057828618
f
GR
GS
[0.75 0 0 0.75 338.53079 136.51643] CT
N
f-1057828618
f
GR
GS
[0.75 0 0 0.75 340.24878 137.0663] CT
N
f-1057828618
f
GR
GS
[0.75 0 0 0.75 341.96674 135.98505] CT
N
f-1057828618
f
GR
GS
[0.75 0 0 0.75 343.68473 136.27723] CT
N
f-1057828618
f
GR
GS
[0.75 0 0 0.75 345.40272 132.71738] CT
N
f-1057828618
f
GR
GS
[0.75 0 0 0.75 347.12068 134.36468] CT
N
f-1057828618
f
GR
GS
[0.75 0 0 0.75 348.83867 131.8485] CT
N
f-1057828618
f
GR
GS
[0.75 0 0 0.75 350.55666 132.15247] CT
N
f-1057828618
f
GR
GS
[0.75 0 0 0.75 352.27462 131.23087] CT
N
f-1057828618
f
GR
GS
[0.75 0 0 0.75 353.99261 131.97536] CT
N
f-1057828618
f
GR
GS
[0.75 0 0 0.75 355.71059 131.59808] CT
N
f-1057828618
f
GR
GS
[0.75 0 0 0.75 357.42858 132.30745] CT
N
f-1057828618
f
GR
GS
[0.75 0 0 0.75 359.14655 128.82288] CT
N
f-1057828618
f
GR
GS
[0.75 0 0 0.75 360.86453 130.0598] CT
N
f-1057828618
f
GR
GS
[0.75 0 0 0.75 362.58252 129.07924] CT
N
f-1057828618
f
GR
GS
[0.75 0 0 0.75 364.30048 130.37466] CT
N
f-1057828618
f
GR
GS
[0.75 0 0 0.75 366.01847 130.06133] CT
N
f-1057828618
f
GR
GS
[0.75 0 0 0.75 367.73646 128.35511] CT
N
f-1057828618
f
GR
GS
[0.75 0 0 0.75 369.45444 132.12907] CT
N
f-1057828618
f
GR
GS
[0.75 0 0 0.75 371.17241 130.17495] CT
N
f-1057828618
f
GR
GS
[0.75 0 0 0.75 372.8904 131.92538] CT
N
f-1057828618
f
GR
GS
[0.75 0 0 0.75 374.60838 129.86097] CT
N
f-1057828618
f
GR
GS
[0.75 0 0 0.75 376.32635 132.11282] CT
N
f-1057828618
f
GR
GS
[0.75 0 0 0.75 378.04433 132.64846] CT
N
f-1057828618
f
GR
GS
[0.75 0 0 0.75 379.76232 131.80899] CT
N
f-1057828618
f
GR
GS
[0.75 0 0 0.75 381.48029 134.16837] CT
N
f-1057828618
f
GR
GS
[0.75 0 0 0.75 383.19827 135.41708] CT
N
f-1057828618
f
GR
GS
[0.75 0 0 0.75 384.91626 134.50756] CT
N
f-1057828618
f
GR
GS
[0.75 0 0 0.75 386.63425 135.18165] CT
N
f-1057828618
f
GR
GS
[0.75 0 0 0.75 388.35223 137.32883] CT
N
f-1057828618
f
GR
GS
[0.75 0 0 0.75 390.07018 136.60499] CT
N
f-1057828618
f
GR
GS
[0.75 0 0 0.75 391.78816 138.35497] CT
N
f-1057828618
f
GR
GS
[0.75 0 0 0.75 393.50615 137.59577] CT
N
f-1057828618
f
GR
GS
[0.75 0 0 0.75 395.22414 139.16493] CT
N
f-1057828618
f
GR
GS
[0.75 0 0 0.75 396.94212 141.69459] CT
N
f-1057828618
f
GR
GS
[0.75 0 0 0.75 398.66011 140.33949] CT
N
f-1057828618
f
GR
GS
[0.75 0 0 0.75 400.3781 141.31444] CT
N
f-1057828618
f
GR
GS
[0.75 0 0 0.75 402.09604 144.75626] CT
N
f-1057828618
f
GR
GS
[0.75 0 0 0.75 403.81403 145.60335] CT
N
f-1057828618
f
GR
GS
[0.75 0 0 0.75 405.53201 145.08054] CT
N
f-1057828618
f
GR
GS
[0.75 0 0 0.75 407.25 146.70015] CT
N
f-1057828618
f
GR
GS
[0.75 0 0 0.75 0 0] CT
1 GC
N
530 101 M
530 50 L
403 50 L
403 101 L
cp
f
GR
GS
[0.75 0 0 0.75 337.5 47.72525] CT
/Helvetica 18 F
GS
[1 0 0 1 0 0] CT
0 7.5 moveto 
1 -1 scale
(train data) t 
GR
GR
GS
[0.75 0 0 0.75 320.25 47.72525] CT
1 0.502 0.502 RC
10.0 ML
1.333 LW
N
0 -4 M
0 4 L
-4 0 M
4 0 L
-2.828 -2.828 M
2.828 2.828 L
-2.828 2.828 M
2.828 -2.828 L
S
GR
GS
[0.75 0 0 0.75 337.5 65.52475] CT
/Helvetica 18 F
GS
[1 0 0 1 0 0] CT
0 7.5 moveto 
1 -1 scale
(test data) t 
GR
GR
GS
[0.75 0 0 0.75 320.25 65.52475] CT
N
f-1057828618
f
GR
GS
[0.75 0 0 0.75 0 0] CT
0.149 GC
10.0 ML
0.667 LW
N
403 101 M
403 50 L
530 50 L
530 101 L
cp
S
GR
%%Trailer
%%Pages: 1
%%EOF
