%!PS-Adobe-3.0 EPSF-3.0
%%Creator: (MATLAB, The Mathworks, Inc. Version 9.3.0.713579 \(R2017b\). Operating System: Windows 7)
%%Title: ./optimization_errorbar.eps
%%CreationDate: 2018-06-22T19:10:50
%%Pages: (atend)
%%BoundingBox:    33     3   688   283
%%LanguageLevel: 3
%%EndComments
%%BeginProlog
%%BeginResource: procset (Apache XML Graphics Std ProcSet) 1.2 0
%%Version: 1.2 0
%%Copyright: (Copyright 2001-2003,2010 The Apache Software Foundation. License terms: http://www.apache.org/licenses/LICENSE-2.0)
/bd{bind def}bind def
/ld{load def}bd
/GR/grestore ld
/GS/gsave ld
/RM/rmoveto ld
/C/curveto ld
/t/show ld
/L/lineto ld
/ML/setmiterlimit ld
/CT/concat ld
/f/fill ld
/N/newpath ld
/S/stroke ld
/CC/setcmykcolor ld
/A/ashow ld
/cp/closepath ld
/RC/setrgbcolor ld
/LJ/setlinejoin ld
/GC/setgray ld
/LW/setlinewidth ld
/M/moveto ld
/re {4 2 roll M
1 index 0 rlineto
0 exch rlineto
neg 0 rlineto
cp } bd
/_ctm matrix def
/_tm matrix def
/BT { _ctm currentmatrix pop matrix _tm copy pop 0 0 moveto } bd
/ET { _ctm setmatrix } bd
/iTm { _ctm setmatrix _tm concat } bd
/Tm { _tm astore pop iTm 0 0 moveto } bd
/ux 0.0 def
/uy 0.0 def
/F {
  /Tp exch def
  /Tf exch def
  Tf findfont Tp scalefont setfont
  /cf Tf def  /cs Tp def
} bd
/ULS {currentpoint /uy exch def /ux exch def} bd
/ULE {
  /Tcx currentpoint pop def
  gsave
  newpath
  cf findfont cs scalefont dup
  /FontMatrix get 0 get /Ts exch def /FontInfo get dup
  /UnderlinePosition get Ts mul /To exch def
  /UnderlineThickness get Ts mul /Tt exch def
  ux uy To add moveto  Tcx uy To add lineto
  Tt setlinewidth stroke
  grestore
} bd
/OLE {
  /Tcx currentpoint pop def
  gsave
  newpath
  cf findfont cs scalefont dup
  /FontMatrix get 0 get /Ts exch def /FontInfo get dup
  /UnderlinePosition get Ts mul /To exch def
  /UnderlineThickness get Ts mul /Tt exch def
  ux uy To add cs add moveto Tcx uy To add cs add lineto
  Tt setlinewidth stroke
  grestore
} bd
/SOE {
  /Tcx currentpoint pop def
  gsave
  newpath
  cf findfont cs scalefont dup
  /FontMatrix get 0 get /Ts exch def /FontInfo get dup
  /UnderlinePosition get Ts mul /To exch def
  /UnderlineThickness get Ts mul /Tt exch def
  ux uy To add cs 10 mul 26 idiv add moveto Tcx uy To add cs 10 mul 26 idiv add lineto
  Tt setlinewidth stroke
  grestore
} bd
/QT {
/Y22 exch store
/X22 exch store
/Y21 exch store
/X21 exch store
currentpoint
/Y21 load 2 mul add 3 div exch
/X21 load 2 mul add 3 div exch
/X21 load 2 mul /X22 load add 3 div
/Y21 load 2 mul /Y22 load add 3 div
/X22 load /Y22 load curveto
} bd
/SSPD {
dup length /d exch dict def
{
/v exch def
/k exch def
currentpagedevice k known {
/cpdv currentpagedevice k get def
v cpdv ne {
/upd false def
/nullv v type /nulltype eq def
/nullcpdv cpdv type /nulltype eq def
nullv nullcpdv or
{
/upd true def
} {
/sametype v type cpdv type eq def
sametype {
v type /arraytype eq {
/vlen v length def
/cpdvlen cpdv length def
vlen cpdvlen eq {
0 1 vlen 1 sub {
/i exch def
/obj v i get def
/cpdobj cpdv i get def
obj cpdobj ne {
/upd true def
exit
} if
} for
} {
/upd true def
} ifelse
} {
v type /dicttype eq {
v {
/dv exch def
/dk exch def
/cpddv cpdv dk get def
dv cpddv ne {
/upd true def
exit
} if
} forall
} {
/upd true def
} ifelse
} ifelse
} if
} ifelse
upd true eq {
d k v put
} if
} if
} if
} forall
d length 0 gt {
d setpagedevice
} if
} bd
/RE { % /NewFontName [NewEncodingArray] /FontName RE -
  findfont dup length dict begin
  {
    1 index /FID ne
    {def} {pop pop} ifelse
  } forall
  /Encoding exch def
  /FontName 1 index def
  currentdict definefont pop
  end
} bind def
%%EndResource
%%BeginResource: procset (Apache XML Graphics EPS ProcSet) 1.0 0
%%Version: 1.0 0
%%Copyright: (Copyright 2002-2003 The Apache Software Foundation. License terms: http://www.apache.org/licenses/LICENSE-2.0)
/BeginEPSF { %def
/b4_Inc_state save def         % Save state for cleanup
/dict_count countdictstack def % Count objects on dict stack
/op_count count 1 sub def      % Count objects on operand stack
userdict begin                 % Push userdict on dict stack
/showpage { } def              % Redefine showpage, { } = null proc
0 setgray 0 setlinecap         % Prepare graphics state
1 setlinewidth 0 setlinejoin
10 setmiterlimit [ ] 0 setdash newpath
/languagelevel where           % If level not equal to 1 then
{pop languagelevel             % set strokeadjust and
1 ne                           % overprint to their defaults.
{false setstrokeadjust false setoverprint
} if
} if
} bd
/EndEPSF { %def
count op_count sub {pop} repeat            % Clean up stacks
countdictstack dict_count sub {end} repeat
b4_Inc_state restore
} bd
%%EndResource
%FOPBeginFontDict
%%IncludeResource: font Courier-Oblique
%%IncludeResource: font Courier-BoldOblique
%%IncludeResource: font Courier-Bold
%%IncludeResource: font ZapfDingbats
%%IncludeResource: font Symbol
%%IncludeResource: font Helvetica
%%IncludeResource: font Helvetica-Oblique
%%IncludeResource: font Helvetica-Bold
%%IncludeResource: font Helvetica-BoldOblique
%%IncludeResource: font Times-Roman
%%IncludeResource: font Times-Italic
%%IncludeResource: font Times-Bold
%%IncludeResource: font Times-BoldItalic
%%IncludeResource: font Courier
%FOPEndFontDict
%%BeginResource: encoding WinAnsiEncoding
/WinAnsiEncoding [
/.notdef /.notdef /.notdef /.notdef /.notdef
/.notdef /.notdef /.notdef /.notdef /.notdef
/.notdef /.notdef /.notdef /.notdef /.notdef
/.notdef /.notdef /.notdef /.notdef /.notdef
/.notdef /.notdef /.notdef /.notdef /.notdef
/.notdef /.notdef /.notdef /.notdef /.notdef
/.notdef /.notdef /space /exclam /quotedbl
/numbersign /dollar /percent /ampersand /quotesingle
/parenleft /parenright /asterisk /plus /comma
/hyphen /period /slash /zero /one
/two /three /four /five /six
/seven /eight /nine /colon /semicolon
/less /equal /greater /question /at
/A /B /C /D /E
/F /G /H /I /J
/K /L /M /N /O
/P /Q /R /S /T
/U /V /W /X /Y
/Z /bracketleft /backslash /bracketright /asciicircum
/underscore /quoteleft /a /b /c
/d /e /f /g /h
/i /j /k /l /m
/n /o /p /q /r
/s /t /u /v /w
/x /y /z /braceleft /bar
/braceright /asciitilde /bullet /Euro /bullet
/quotesinglbase /florin /quotedblbase /ellipsis /dagger
/daggerdbl /circumflex /perthousand /Scaron /guilsinglleft
/OE /bullet /Zcaron /bullet /bullet
/quoteleft /quoteright /quotedblleft /quotedblright /bullet
/endash /emdash /asciitilde /trademark /scaron
/guilsinglright /oe /bullet /zcaron /Ydieresis
/space /exclamdown /cent /sterling /currency
/yen /brokenbar /section /dieresis /copyright
/ordfeminine /guillemotleft /logicalnot /sfthyphen /registered
/macron /degree /plusminus /twosuperior /threesuperior
/acute /mu /paragraph /middot /cedilla
/onesuperior /ordmasculine /guillemotright /onequarter /onehalf
/threequarters /questiondown /Agrave /Aacute /Acircumflex
/Atilde /Adieresis /Aring /AE /Ccedilla
/Egrave /Eacute /Ecircumflex /Edieresis /Igrave
/Iacute /Icircumflex /Idieresis /Eth /Ntilde
/Ograve /Oacute /Ocircumflex /Otilde /Odieresis
/multiply /Oslash /Ugrave /Uacute /Ucircumflex
/Udieresis /Yacute /Thorn /germandbls /agrave
/aacute /acircumflex /atilde /adieresis /aring
/ae /ccedilla /egrave /eacute /ecircumflex
/edieresis /igrave /iacute /icircumflex /idieresis
/eth /ntilde /ograve /oacute /ocircumflex
/otilde /odieresis /divide /oslash /ugrave
/uacute /ucircumflex /udieresis /yacute /thorn
/ydieresis
] def
%%EndResource
%FOPBeginFontReencode
/Courier-Oblique findfont
dup length dict begin
  {1 index /FID ne {def} {pop pop} ifelse} forall
  /Encoding WinAnsiEncoding def
  currentdict
end
/Courier-Oblique exch definefont pop
/Courier-BoldOblique findfont
dup length dict begin
  {1 index /FID ne {def} {pop pop} ifelse} forall
  /Encoding WinAnsiEncoding def
  currentdict
end
/Courier-BoldOblique exch definefont pop
/Courier-Bold findfont
dup length dict begin
  {1 index /FID ne {def} {pop pop} ifelse} forall
  /Encoding WinAnsiEncoding def
  currentdict
end
/Courier-Bold exch definefont pop
/Helvetica findfont
dup length dict begin
  {1 index /FID ne {def} {pop pop} ifelse} forall
  /Encoding WinAnsiEncoding def
  currentdict
end
/Helvetica exch definefont pop
/Helvetica-Oblique findfont
dup length dict begin
  {1 index /FID ne {def} {pop pop} ifelse} forall
  /Encoding WinAnsiEncoding def
  currentdict
end
/Helvetica-Oblique exch definefont pop
/Helvetica-Bold findfont
dup length dict begin
  {1 index /FID ne {def} {pop pop} ifelse} forall
  /Encoding WinAnsiEncoding def
  currentdict
end
/Helvetica-Bold exch definefont pop
/Helvetica-BoldOblique findfont
dup length dict begin
  {1 index /FID ne {def} {pop pop} ifelse} forall
  /Encoding WinAnsiEncoding def
  currentdict
end
/Helvetica-BoldOblique exch definefont pop
/Times-Roman findfont
dup length dict begin
  {1 index /FID ne {def} {pop pop} ifelse} forall
  /Encoding WinAnsiEncoding def
  currentdict
end
/Times-Roman exch definefont pop
/Times-Italic findfont
dup length dict begin
  {1 index /FID ne {def} {pop pop} ifelse} forall
  /Encoding WinAnsiEncoding def
  currentdict
end
/Times-Italic exch definefont pop
/Times-Bold findfont
dup length dict begin
  {1 index /FID ne {def} {pop pop} ifelse} forall
  /Encoding WinAnsiEncoding def
  currentdict
end
/Times-Bold exch definefont pop
/Times-BoldItalic findfont
dup length dict begin
  {1 index /FID ne {def} {pop pop} ifelse} forall
  /Encoding WinAnsiEncoding def
  currentdict
end
/Times-BoldItalic exch definefont pop
/Courier findfont
dup length dict begin
  {1 index /FID ne {def} {pop pop} ifelse} forall
  /Encoding WinAnsiEncoding def
  currentdict
end
/Courier exch definefont pop
%FOPEndFontReencode
%%EndProlog
%%Page: 1 1
%%PageBoundingBox: 0 0 750 300
%%BeginPageSetup
[1 0 0 -1 0 300] CT
%%EndPageSetup
GS
[0.75 0 0 0.75 0 0] CT
1 GC
N
0 0 1000 400 re
f
GR
GS
[0.75 0 0 0.75 0 0] CT
1 GC
N
0 0 1000 400 re
f
GR
GS
[0.75 0 0 0.75 0 0] CT
1 GC
N
115 332 M
801 332 L
801 30 L
115 30 L
cp
f
GR
GS
[0.75 0 0 0.75 0 0] CT
0.775 GC
[1 3] 0 setdash
2 LJ
0.667 LW
N
209.898 332 M
209.898 30 L
S
GR
GS
[0.75 0 0 0.75 0 0] CT
0.775 GC
[1 3] 0 setdash
2 LJ
0.667 LW
N
265.41 332 M
265.41 30 L
S
GR
GS
[0.75 0 0 0.75 0 0] CT
0.775 GC
[1 3] 0 setdash
2 LJ
0.667 LW
N
304.796 332 M
304.796 30 L
S
GR
GS
[0.75 0 0 0.75 0 0] CT
0.775 GC
[1 3] 0 setdash
2 LJ
0.667 LW
N
335.346 332 M
335.346 30 L
S
GR
GS
[0.75 0 0 0.75 0 0] CT
0.775 GC
[1 3] 0 setdash
2 LJ
0.667 LW
N
360.308 332 M
360.308 30 L
S
GR
GS
[0.75 0 0 0.75 0 0] CT
0.775 GC
[1 3] 0 setdash
2 LJ
0.667 LW
N
381.412 332 M
381.412 30 L
S
GR
GS
[0.75 0 0 0.75 0 0] CT
0.775 GC
[1 3] 0 setdash
2 LJ
0.667 LW
N
399.694 332 M
399.694 30 L
S
GR
GS
[0.75 0 0 0.75 0 0] CT
0.775 GC
[1 3] 0 setdash
2 LJ
0.667 LW
N
415.819 332 M
415.819 30 L
S
GR
GS
[0.75 0 0 0.75 0 0] CT
0.775 GC
[1 3] 0 setdash
2 LJ
0.667 LW
N
525.142 332 M
525.142 30 L
S
GR
GS
[0.75 0 0 0.75 0 0] CT
0.775 GC
[1 3] 0 setdash
2 LJ
0.667 LW
N
580.654 332 M
580.654 30 L
S
GR
GS
[0.75 0 0 0.75 0 0] CT
0.775 GC
[1 3] 0 setdash
2 LJ
0.667 LW
N
620.04 332 M
620.04 30 L
S
GR
GS
[0.75 0 0 0.75 0 0] CT
0.775 GC
[1 3] 0 setdash
2 LJ
0.667 LW
N
650.59 332 M
650.59 30 L
S
GR
GS
[0.75 0 0 0.75 0 0] CT
0.775 GC
[1 3] 0 setdash
2 LJ
0.667 LW
N
675.552 332 M
675.552 30 L
S
GR
GS
[0.75 0 0 0.75 0 0] CT
0.775 GC
[1 3] 0 setdash
2 LJ
0.667 LW
N
696.656 332 M
696.656 30 L
S
GR
GS
[0.75 0 0 0.75 0 0] CT
0.775 GC
[1 3] 0 setdash
2 LJ
0.667 LW
N
714.938 332 M
714.938 30 L
S
GR
GS
[0.75 0 0 0.75 0 0] CT
0.775 GC
[1 3] 0 setdash
2 LJ
0.667 LW
N
731.063 332 M
731.063 30 L
S
GR
GS
[0.75 0 0 0.75 0 0] CT
0.873 GC
1 LJ
0.667 LW
N
115 332 M
115 30 L
S
GR
GS
[0.75 0 0 0.75 0 0] CT
0.873 GC
1 LJ
0.667 LW
N
430.244 332 M
430.244 30 L
S
GR
GS
[0.75 0 0 0.75 0 0] CT
0.873 GC
1 LJ
0.667 LW
N
745.488 332 M
745.488 30 L
S
GR
GS
[0.75 0 0 0.75 0 0] CT
0.775 GC
[1 3] 0 setdash
2 LJ
0.667 LW
N
801 300.988 M
115 300.988 L
S
GR
GS
[0.75 0 0 0.75 0 0] CT
0.775 GC
[1 3] 0 setdash
2 LJ
0.667 LW
N
801 270.162 M
115 270.162 L
S
GR
GS
[0.75 0 0 0.75 0 0] CT
0.775 GC
[1 3] 0 setdash
2 LJ
0.667 LW
N
801 239.52 M
115 239.52 L
S
GR
GS
[0.75 0 0 0.75 0 0] CT
0.775 GC
[1 3] 0 setdash
2 LJ
0.667 LW
N
801 209.06 M
115 209.06 L
S
GR
GS
[0.75 0 0 0.75 0 0] CT
0.775 GC
[1 3] 0 setdash
2 LJ
0.667 LW
N
801 148.676 M
115 148.676 L
S
GR
GS
[0.75 0 0 0.75 0 0] CT
0.775 GC
[1 3] 0 setdash
2 LJ
0.667 LW
N
801 118.749 M
115 118.749 L
S
GR
GS
[0.75 0 0 0.75 0 0] CT
0.775 GC
[1 3] 0 setdash
2 LJ
0.667 LW
N
801 88.995 M
115 88.995 L
S
GR
GS
[0.75 0 0 0.75 0 0] CT
0.775 GC
[1 3] 0 setdash
2 LJ
0.667 LW
N
801 59.413 M
115 59.413 L
S
GR
GS
[0.75 0 0 0.75 0 0] CT
0.873 GC
1 LJ
0.667 LW
N
801 332 M
115 332 L
S
GR
GS
[0.75 0 0 0.75 0 0] CT
0.873 GC
1 LJ
0.667 LW
N
801 178.779 M
115 178.779 L
S
GR
GS
[0.75 0 0 0.75 0 0] CT
0.873 GC
1 LJ
0.667 LW
N
801 30 M
115 30 L
S
GR
GS
[0.75 0 0 0.75 0 0] CT
0.149 GC
2 setlinecap
1 LJ
0.667 LW
N
115 332 M
801 332 L
S
GR
GS
[0.75 0 0 0.75 0 0] CT
0.149 GC
2 setlinecap
1 LJ
0.667 LW
N
115 332 M
115 325.14 L
S
GR
GS
[0.75 0 0 0.75 0 0] CT
0.149 GC
2 setlinecap
1 LJ
0.667 LW
N
430.244 332 M
430.244 325.14 L
S
GR
GS
[0.75 0 0 0.75 0 0] CT
0.149 GC
2 setlinecap
1 LJ
0.667 LW
N
745.488 332 M
745.488 325.14 L
S
GR
GS
[0.75 0 0 0.75 0 0] CT
0.149 GC
2 setlinecap
1 LJ
0.667 LW
N
115 332 M
115 328.57 L
S
GR
GS
[0.75 0 0 0.75 0 0] CT
0.149 GC
2 setlinecap
1 LJ
0.667 LW
N
209.898 332 M
209.898 328.57 L
S
GR
GS
[0.75 0 0 0.75 0 0] CT
0.149 GC
2 setlinecap
1 LJ
0.667 LW
N
265.41 332 M
265.41 328.57 L
S
GR
GS
[0.75 0 0 0.75 0 0] CT
0.149 GC
2 setlinecap
1 LJ
0.667 LW
N
304.796 332 M
304.796 328.57 L
S
GR
GS
[0.75 0 0 0.75 0 0] CT
0.149 GC
2 setlinecap
1 LJ
0.667 LW
N
335.346 332 M
335.346 328.57 L
S
GR
GS
[0.75 0 0 0.75 0 0] CT
0.149 GC
2 setlinecap
1 LJ
0.667 LW
N
360.308 332 M
360.308 328.57 L
S
GR
GS
[0.75 0 0 0.75 0 0] CT
0.149 GC
2 setlinecap
1 LJ
0.667 LW
N
381.412 332 M
381.412 328.57 L
S
GR
GS
[0.75 0 0 0.75 0 0] CT
0.149 GC
2 setlinecap
1 LJ
0.667 LW
N
399.694 332 M
399.694 328.57 L
S
GR
GS
[0.75 0 0 0.75 0 0] CT
0.149 GC
2 setlinecap
1 LJ
0.667 LW
N
415.819 332 M
415.819 328.57 L
S
GR
GS
[0.75 0 0 0.75 0 0] CT
0.149 GC
2 setlinecap
1 LJ
0.667 LW
N
430.244 332 M
430.244 328.57 L
S
GR
GS
[0.75 0 0 0.75 0 0] CT
0.149 GC
2 setlinecap
1 LJ
0.667 LW
N
525.142 332 M
525.142 328.57 L
S
GR
GS
[0.75 0 0 0.75 0 0] CT
0.149 GC
2 setlinecap
1 LJ
0.667 LW
N
580.654 332 M
580.654 328.57 L
S
GR
GS
[0.75 0 0 0.75 0 0] CT
0.149 GC
2 setlinecap
1 LJ
0.667 LW
N
620.04 332 M
620.04 328.57 L
S
GR
GS
[0.75 0 0 0.75 0 0] CT
0.149 GC
2 setlinecap
1 LJ
0.667 LW
N
650.59 332 M
650.59 328.57 L
S
GR
GS
[0.75 0 0 0.75 0 0] CT
0.149 GC
2 setlinecap
1 LJ
0.667 LW
N
675.552 332 M
675.552 328.57 L
S
GR
GS
[0.75 0 0 0.75 0 0] CT
0.149 GC
2 setlinecap
1 LJ
0.667 LW
N
696.656 332 M
696.656 328.57 L
S
GR
GS
[0.75 0 0 0.75 0 0] CT
0.149 GC
2 setlinecap
1 LJ
0.667 LW
N
714.938 332 M
714.938 328.57 L
S
GR
GS
[0.75 0 0 0.75 0 0] CT
0.149 GC
2 setlinecap
1 LJ
0.667 LW
N
731.063 332 M
731.063 328.57 L
S
GR
GS
[0.75 0 0 0.75 0 0] CT
0.149 GC
2 setlinecap
1 LJ
0.667 LW
N
745.488 332 M
745.488 328.57 L
S
GR
GS
[0.75 0 0 0.75 74.25 274.5] CT
0.149 GC
/Helvetica 20 F
GS
[1 0 0 1 0 0] CT
0 0 moveto 
1 -1 scale
(10) t 
GR
GR
GS
[0.75 0 0 0.75 91.5 267] CT
0.149 GC
/Helvetica 16 F
GS
[1 0 0 1 0 0] CT
0 0 moveto 
1 -1 scale
(1) t 
GR
GR
GS
[0.75 0 0 0.75 310.5 274.5] CT
0.149 GC
/Helvetica 20 F
GS
[1 0 0 1 0 0] CT
0 0 moveto 
1 -1 scale
(10) t 
GR
GR
GS
[0.75 0 0 0.75 327.75 267] CT
0.149 GC
/Helvetica 16 F
GS
[1 0 0 1 0 0] CT
0 0 moveto 
1 -1 scale
(2) t 
GR
GR
GS
[0.75 0 0 0.75 546.75 274.5] CT
0.149 GC
/Helvetica 20 F
GS
[1 0 0 1 0 0] CT
0 0 moveto 
1 -1 scale
(10) t 
GR
GR
GS
[0.75 0 0 0.75 564 267] CT
0.149 GC
/Helvetica 16 F
GS
[1 0 0 1 0 0] CT
0 0 moveto 
1 -1 scale
(3) t 
GR
GR
GS
[0.75 0 0 0.75 343.50025 279] CT
0.149 GC
/Helvetica 22 F
GS
[1 0 0 1 0 0] CT
-30 23 moveto 
1 -1 scale
(radius) t 
GR
GR
GS
[0.75 0 0 0.75 0 0] CT
0.149 GC
2 setlinecap
1 LJ
0.667 LW
N
115 332 M
115 30 L
S
GR
GS
[0.75 0 0 0.75 0 0] CT
0.149 GC
2 setlinecap
1 LJ
0.667 LW
N
115 332 M
121.86 332 L
S
GR
GS
[0.75 0 0 0.75 0 0] CT
0.149 GC
2 setlinecap
1 LJ
0.667 LW
N
115 178.779 M
121.86 178.779 L
S
GR
GS
[0.75 0 0 0.75 0 0] CT
0.149 GC
2 setlinecap
1 LJ
0.667 LW
N
115 30 M
121.86 30 L
S
GR
GS
[0.75 0 0 0.75 0 0] CT
0.149 GC
2 setlinecap
1 LJ
0.667 LW
N
115 300.988 M
118.43 300.988 L
S
GR
GS
[0.75 0 0 0.75 0 0] CT
0.149 GC
2 setlinecap
1 LJ
0.667 LW
N
115 270.162 M
118.43 270.162 L
S
GR
GS
[0.75 0 0 0.75 0 0] CT
0.149 GC
2 setlinecap
1 LJ
0.667 LW
N
115 239.52 M
118.43 239.52 L
S
GR
GS
[0.75 0 0 0.75 0 0] CT
0.149 GC
2 setlinecap
1 LJ
0.667 LW
N
115 209.06 M
118.43 209.06 L
S
GR
GS
[0.75 0 0 0.75 0 0] CT
0.149 GC
2 setlinecap
1 LJ
0.667 LW
N
115 148.676 M
118.43 148.676 L
S
GR
GS
[0.75 0 0 0.75 0 0] CT
0.149 GC
2 setlinecap
1 LJ
0.667 LW
N
115 118.749 M
118.43 118.749 L
S
GR
GS
[0.75 0 0 0.75 0 0] CT
0.149 GC
2 setlinecap
1 LJ
0.667 LW
N
115 88.995 M
118.43 88.995 L
S
GR
GS
[0.75 0 0 0.75 0 0] CT
0.149 GC
2 setlinecap
1 LJ
0.667 LW
N
115 59.413 M
118.43 59.413 L
S
GR
GS
[0.75 0 0 0.75 81.25 249] CT
0.149 GC
/Helvetica 20 F
GS
[1 0 0 1 0 0] CT
-39 8 moveto 
1 -1 scale
(16.5) t 
GR
GR
GS
[0.75 0 0 0.75 81.25 134.08431] CT
0.149 GC
/Helvetica 20 F
GS
[1 0 0 1 0 0] CT
-23 8 moveto 
1 -1 scale
(17) t 
GR
GR
GS
[0.75 0 0 0.75 81.25 22.5] CT
0.149 GC
/Helvetica 20 F
GS
[1 0 0 1 0 0] CT
-39 8 moveto 
1 -1 scale
(17.5) t 
GR
GR
GS
[0 -0.75 0.75 0 49 135.7499] CT
0.149 GC
/Helvetica 22 F
GS
[1 0 0 1 0 0] CT
-94.5 -5 moveto 
1 -1 scale
(difference measure) t 
GR
GR
GS
[0.75 0 0 0.75 0 0] CT
0.141 0 0 RC
1 LJ
2.667 LW
N
801 202.113 M
801 259.577 L
S
GR
GS
[0.75 0 0 0.75 0 0] CT
0.141 0 0 RC
1 LJ
2.667 LW
N
745.488 195.897 M
745.488 225.071 L
S
GR
GS
[0.75 0 0 0.75 0 0] CT
0.141 0 0 RC
1 LJ
2.667 LW
N
714.938 190.616 M
714.938 212.356 L
S
GR
GS
[0.75 0 0 0.75 0 0] CT
0.141 0 0 RC
1 LJ
2.667 LW
N
675.552 180.275 M
675.552 201.888 L
S
GR
GS
[0.75 0 0 0.75 0 0] CT
0.141 0 0 RC
1 LJ
2.667 LW
N
620.04 178.224 M
620.04 191.662 L
S
GR
GS
[0.75 0 0 0.75 0 0] CT
0.141 0 0 RC
1 LJ
2.667 LW
N
525.142 177.603 M
525.142 184.182 L
S
GR
GS
[0.75 0 0 0.75 0 0] CT
0.141 0 0 RC
1 LJ
2.667 LW
N
485.756 178.127 M
485.756 185.393 L
S
GR
GS
[0.75 0 0 0.75 0 0] CT
0.141 0 0 RC
1 LJ
2.667 LW
N
430.244 178.657 M
430.244 181.718 L
S
GR
GS
[0.75 0 0 0.75 0 0] CT
0.141 0 0 RC
1 LJ
2.667 LW
N
399.694 177.842 M
399.694 180.457 L
S
GR
GS
[0.75 0 0 0.75 0 0] CT
0.141 0 0 RC
1 LJ
2.667 LW
N
335.346 177.982 M
335.346 179.558 L
S
GR
GS
[0.75 0 0 0.75 0 0] CT
0.141 0 0 RC
1 LJ
2.667 LW
N
265.41 177.785 M
265.41 178.816 L
S
GR
GS
[0.75 0 0 0.75 0 0] CT
0.141 0 0 RC
1 LJ
2.667 LW
N
115 177.88 M
115 178.207 L
S
GR
GS
[0.75 0 0 0.75 0 0] CT
0.141 0 0 RC
1 LJ
2.667 LW
N
801 202.113 M
801 145.286 L
S
GR
GS
[0.75 0 0 0.75 0 0] CT
0.141 0 0 RC
1 LJ
2.667 LW
N
745.488 195.897 M
745.488 166.887 L
S
GR
GS
[0.75 0 0 0.75 0 0] CT
0.141 0 0 RC
1 LJ
2.667 LW
N
714.938 190.616 M
714.938 168.968 L
S
GR
GS
[0.75 0 0 0.75 0 0] CT
0.141 0 0 RC
1 LJ
2.667 LW
N
675.552 180.275 M
675.552 158.753 L
S
GR
GS
[0.75 0 0 0.75 0 0] CT
0.141 0 0 RC
1 LJ
2.667 LW
N
620.04 178.224 M
620.04 164.821 L
S
GR
GS
[0.75 0 0 0.75 0 0] CT
0.141 0 0 RC
1 LJ
2.667 LW
N
525.142 177.603 M
525.142 171.033 L
S
GR
GS
[0.75 0 0 0.75 0 0] CT
0.141 0 0 RC
1 LJ
2.667 LW
N
485.756 178.127 M
485.756 170.871 L
S
GR
GS
[0.75 0 0 0.75 0 0] CT
0.141 0 0 RC
1 LJ
2.667 LW
N
430.244 178.657 M
430.244 175.598 L
S
GR
GS
[0.75 0 0 0.75 0 0] CT
0.141 0 0 RC
1 LJ
2.667 LW
N
399.694 177.842 M
399.694 175.227 L
S
GR
GS
[0.75 0 0 0.75 0 0] CT
0.141 0 0 RC
1 LJ
2.667 LW
N
335.346 177.982 M
335.346 176.406 L
S
GR
GS
[0.75 0 0 0.75 0 0] CT
0.141 0 0 RC
1 LJ
2.667 LW
N
265.41 177.785 M
265.41 176.754 L
S
GR
GS
[0.75 0 0 0.75 0 0] CT
0.141 0 0 RC
1 LJ
2.667 LW
N
115 177.88 M
115 177.553 L
S
GR
GS
[0.75 0 0 0.75 0 0] CT
0.141 0 0 RC
1 LJ
2.667 LW
N
801 202.113 M
745.488 195.897 L
714.938 190.616 L
675.552 180.275 L
620.04 178.224 L
525.142 177.603 L
485.756 178.127 L
430.244 178.657 L
399.694 177.842 L
335.346 177.982 L
265.41 177.785 L
115 177.88 L
S
GR
GS
[0.75 0 0 0.75 600.75 194.68254] CT
0.141 0 0 RC
N
-4 0 M
4 0 L
f
GR
GS
[0.75 0 0 0.75 600.75 194.68254] CT
0.141 0 0 RC
10.0 ML
2.667 LW
N
-4 0 M
4 0 L
S
GR
GS
[0.75 0 0 0.75 559.11621 168.80341] CT
0.141 0 0 RC
N
/f-401390582{-4 0 M
4 0 L}def
f-401390582
f
GR
GS
[0.75 0 0 0.75 559.11621 168.80341] CT
0.141 0 0 RC
10.0 ML
2.667 LW
N
-4 0 M
4 0 L
S
GR
GS
[0.75 0 0 0.75 536.20345 159.26719] CT
0.141 0 0 RC
N
f-401390582
f
GR
GS
[0.75 0 0 0.75 536.20345 159.26719] CT
0.141 0 0 RC
10.0 ML
2.667 LW
N
-4 0 M
4 0 L
S
GR
GS
[0.75 0 0 0.75 506.66382 151.41571] CT
0.141 0 0 RC
N
f-401390582
f
GR
GS
[0.75 0 0 0.75 506.66382 151.41571] CT
0.141 0 0 RC
10.0 ML
2.667 LW
N
-4 0 M
4 0 L
S
GR
GS
[0.75 0 0 0.75 465.03003 143.74679] CT
0.141 0 0 RC
N
f-401390582
f
GR
GS
[0.75 0 0 0.75 465.03003 143.74679] CT
0.141 0 0 RC
10.0 ML
2.667 LW
N
-4 0 M
4 0 L
S
GR
GS
[0.75 0 0 0.75 393.85657 138.1366] CT
0.141 0 0 RC
N
f-401390582
f
GR
GS
[0.75 0 0 0.75 393.85657 138.1366] CT
0.141 0 0 RC
10.0 ML
2.667 LW
N
-4 0 M
4 0 L
S
GR
GS
[0.75 0 0 0.75 364.31692 139.04497] CT
0.141 0 0 RC
N
f-401390582
f
GR
GS
[0.75 0 0 0.75 364.31692 139.04497] CT
0.141 0 0 RC
10.0 ML
2.667 LW
N
-4 0 M
4 0 L
S
GR
GS
[0.75 0 0 0.75 322.68311 136.28828] CT
0.141 0 0 RC
N
f-401390582
f
GR
GS
[0.75 0 0 0.75 322.68311 136.28828] CT
0.141 0 0 RC
10.0 ML
2.667 LW
N
-4 0 M
4 0 L
S
GR
GS
[0.75 0 0 0.75 299.77036 135.34299] CT
0.141 0 0 RC
N
f-401390582
f
GR
GS
[0.75 0 0 0.75 299.77036 135.34299] CT
0.141 0 0 RC
10.0 ML
2.667 LW
N
-4 0 M
4 0 L
S
GR
GS
[0.75 0 0 0.75 251.50964 134.66848] CT
0.141 0 0 RC
N
f-401390582
f
GR
GS
[0.75 0 0 0.75 251.50964 134.66848] CT
0.141 0 0 RC
10.0 ML
2.667 LW
N
-4 0 M
4 0 L
S
GR
GS
[0.75 0 0 0.75 199.05725 134.11213] CT
0.141 0 0 RC
N
f-401390582
f
GR
GS
[0.75 0 0 0.75 199.05725 134.11213] CT
0.141 0 0 RC
10.0 ML
2.667 LW
N
-4 0 M
4 0 L
S
GR
GS
[0.75 0 0 0.75 86.25 133.6554] CT
0.141 0 0 RC
N
f-401390582
f
GR
GS
[0.75 0 0 0.75 86.25 133.6554] CT
0.141 0 0 RC
10.0 ML
2.667 LW
N
-4 0 M
4 0 L
S
GR
GS
[0.75 0 0 0.75 600.75 108.9643] CT
0.141 0 0 RC
N
f-401390582
f
GR
GS
[0.75 0 0 0.75 600.75 108.9643] CT
0.141 0 0 RC
10.0 ML
2.667 LW
N
-4 0 M
4 0 L
S
GR
GS
[0.75 0 0 0.75 559.11621 125.16529] CT
0.141 0 0 RC
N
f-401390582
f
GR
GS
[0.75 0 0 0.75 559.11621 125.16529] CT
0.141 0 0 RC
10.0 ML
2.667 LW
N
-4 0 M
4 0 L
S
GR
GS
[0.75 0 0 0.75 536.20345 126.72623] CT
0.141 0 0 RC
N
f-401390582
f
GR
GS
[0.75 0 0 0.75 536.20345 126.72623] CT
0.141 0 0 RC
10.0 ML
2.667 LW
N
-4 0 M
4 0 L
S
GR
GS
[0.75 0 0 0.75 506.66382 119.0644] CT
0.141 0 0 RC
N
f-401390582
f
GR
GS
[0.75 0 0 0.75 506.66382 119.0644] CT
0.141 0 0 RC
10.0 ML
2.667 LW
N
-4 0 M
4 0 L
S
GR
GS
[0.75 0 0 0.75 465.03003 123.61601] CT
0.141 0 0 RC
N
f-401390582
f
GR
GS
[0.75 0 0 0.75 465.03003 123.61601] CT
0.141 0 0 RC
10.0 ML
2.667 LW
N
-4 0 M
4 0 L
S
GR
GS
[0.75 0 0 0.75 393.85657 128.27443] CT
0.141 0 0 RC
N
f-401390582
f
GR
GS
[0.75 0 0 0.75 393.85657 128.27443] CT
0.141 0 0 RC
10.0 ML
2.667 LW
N
-4 0 M
4 0 L
S
GR
GS
[0.75 0 0 0.75 364.31692 128.15291] CT
0.141 0 0 RC
N
f-401390582
f
GR
GS
[0.75 0 0 0.75 364.31692 128.15291] CT
0.141 0 0 RC
10.0 ML
2.667 LW
N
-4 0 M
4 0 L
S
GR
GS
[0.75 0 0 0.75 322.68311 131.69871] CT
0.141 0 0 RC
N
f-401390582
f
GR
GS
[0.75 0 0 0.75 322.68311 131.69871] CT
0.141 0 0 RC
10.0 ML
2.667 LW
N
-4 0 M
4 0 L
S
GR
GS
[0.75 0 0 0.75 299.77036 131.42033] CT
0.141 0 0 RC
N
f-401390582
f
GR
GS
[0.75 0 0 0.75 299.77036 131.42033] CT
0.141 0 0 RC
10.0 ML
2.667 LW
N
-4 0 M
4 0 L
S
GR
GS
[0.75 0 0 0.75 251.50964 132.30461] CT
0.141 0 0 RC
N
f-401390582
f
GR
GS
[0.75 0 0 0.75 251.50964 132.30461] CT
0.141 0 0 RC
10.0 ML
2.667 LW
N
-4 0 M
4 0 L
S
GR
GS
[0.75 0 0 0.75 199.05725 132.56551] CT
0.141 0 0 RC
N
f-401390582
f
GR
GS
[0.75 0 0 0.75 199.05725 132.56551] CT
0.141 0 0 RC
10.0 ML
2.667 LW
N
-4 0 M
4 0 L
S
GR
GS
[0.75 0 0 0.75 86.25 133.16495] CT
0.141 0 0 RC
N
f-401390582
f
GR
GS
[0.75 0 0 0.75 86.25 133.16495] CT
0.141 0 0 RC
10.0 ML
2.667 LW
N
-4 0 M
4 0 L
S
GR
GS
[0.75 0 0 0.75 0 0] CT
0.286 0 0 RC
1 LJ
2.667 LW
N
801 54.425 M
801 206.003 L
S
GR
GS
[0.75 0 0 0.75 0 0] CT
0.286 0 0 RC
1 LJ
2.667 LW
N
745.488 274.13 M
745.488 332.036 L
S
GR
GS
[0.75 0 0 0.75 0 0] CT
0.286 0 0 RC
1 LJ
2.667 LW
N
714.938 250.229 M
714.938 332.036 L
S
GR
GS
[0.75 0 0 0.75 0 0] CT
0.286 0 0 RC
1 LJ
2.667 LW
N
675.552 232.606 M
675.552 303.261 L
S
GR
GS
[0.75 0 0 0.75 0 0] CT
0.286 0 0 RC
1 LJ
2.667 LW
N
620.04 189.583 M
620.04 232.334 L
S
GR
GS
[0.75 0 0 0.75 0 0] CT
0.286 0 0 RC
1 LJ
2.667 LW
N
525.142 178.243 M
525.142 202.592 L
S
GR
GS
[0.75 0 0 0.75 0 0] CT
0.286 0 0 RC
1 LJ
2.667 LW
N
485.756 184.405 M
485.756 199.898 L
S
GR
GS
[0.75 0 0 0.75 0 0] CT
0.286 0 0 RC
1 LJ
2.667 LW
N
430.244 177.274 M
430.244 188.234 L
S
GR
GS
[0.75 0 0 0.75 0 0] CT
0.286 0 0 RC
1 LJ
2.667 LW
N
399.694 179.876 M
399.694 188.792 L
S
GR
GS
[0.75 0 0 0.75 0 0] CT
0.286 0 0 RC
1 LJ
2.667 LW
N
335.346 177.588 M
335.346 184.087 L
S
GR
GS
[0.75 0 0 0.75 0 0] CT
0.286 0 0 RC
1 LJ
2.667 LW
N
265.41 177.832 M
265.41 181.694 L
S
GR
GS
[0.75 0 0 0.75 0 0] CT
0.286 0 0 RC
1 LJ
2.667 LW
N
115 178.034 M
115 179.408 L
S
GR
GS
[0.75 0 0 0.75 0 0] CT
0.286 0 0 RC
1 LJ
2.667 LW
N
801 54.425 M
801 29.964 L
S
GR
GS
[0.75 0 0 0.75 0 0] CT
0.286 0 0 RC
1 LJ
2.667 LW
N
745.488 274.13 M
745.488 156.984 L
S
GR
GS
[0.75 0 0 0.75 0 0] CT
0.286 0 0 RC
1 LJ
2.667 LW
N
714.938 250.229 M
714.938 164.225 L
S
GR
GS
[0.75 0 0 0.75 0 0] CT
0.286 0 0 RC
1 LJ
2.667 LW
N
675.552 232.606 M
675.552 162.909 L
S
GR
GS
[0.75 0 0 0.75 0 0] CT
0.286 0 0 RC
1 LJ
2.667 LW
N
620.04 189.583 M
620.04 147.185 L
S
GR
GS
[0.75 0 0 0.75 0 0] CT
0.286 0 0 RC
1 LJ
2.667 LW
N
525.142 178.243 M
525.142 154.008 L
S
GR
GS
[0.75 0 0 0.75 0 0] CT
0.286 0 0 RC
1 LJ
2.667 LW
N
485.756 184.405 M
485.756 168.959 L
S
GR
GS
[0.75 0 0 0.75 0 0] CT
0.286 0 0 RC
1 LJ
2.667 LW
N
430.244 177.274 M
430.244 166.339 L
S
GR
GS
[0.75 0 0 0.75 0 0] CT
0.286 0 0 RC
1 LJ
2.667 LW
N
399.694 179.876 M
399.694 170.974 L
S
GR
GS
[0.75 0 0 0.75 0 0] CT
0.286 0 0 RC
1 LJ
2.667 LW
N
335.346 177.588 M
335.346 171.097 L
S
GR
GS
[0.75 0 0 0.75 0 0] CT
0.286 0 0 RC
1 LJ
2.667 LW
N
265.41 177.832 M
265.41 173.973 L
S
GR
GS
[0.75 0 0 0.75 0 0] CT
0.286 0 0 RC
1 LJ
2.667 LW
N
115 178.034 M
115 176.661 L
S
GR
GS
[0.75 0 0 0.75 0 0] CT
0.286 0 0 RC
[8 8] 0 setdash
2 LJ
2.667 LW
N
801 54.425 M
745.488 274.13 L
714.938 250.229 L
675.552 232.606 L
620.04 189.583 L
525.142 178.243 L
485.756 184.405 L
430.244 177.274 L
399.694 179.876 L
335.346 177.588 L
265.41 177.832 L
115 178.034 L
S
GR
GS
[0.75 0 0 0.75 600.75 154.50248] CT
0.286 0 0 RC
N
f-401390582
f
GR
GS
[0.75 0 0 0.75 600.75 154.50248] CT
0.286 0 0 RC
10.0 ML
2.667 LW
N
-4 0 M
4 0 L
S
GR
GS
[0.75 0 0 0.75 506.66382 227.44595] CT
0.286 0 0 RC
N
f-401390582
f
GR
GS
[0.75 0 0 0.75 506.66382 227.44595] CT
0.286 0 0 RC
10.0 ML
2.667 LW
N
-4 0 M
4 0 L
S
GR
GS
[0.75 0 0 0.75 465.03003 174.25026] CT
0.286 0 0 RC
N
f-401390582
f
GR
GS
[0.75 0 0 0.75 465.03003 174.25026] CT
0.286 0 0 RC
10.0 ML
2.667 LW
N
-4 0 M
4 0 L
S
GR
GS
[0.75 0 0 0.75 393.85657 151.94401] CT
0.286 0 0 RC
N
f-401390582
f
GR
GS
[0.75 0 0 0.75 393.85657 151.94401] CT
0.286 0 0 RC
10.0 ML
2.667 LW
N
-4 0 M
4 0 L
S
GR
GS
[0.75 0 0 0.75 364.31692 149.92365] CT
0.286 0 0 RC
N
f-401390582
f
GR
GS
[0.75 0 0 0.75 364.31692 149.92365] CT
0.286 0 0 RC
10.0 ML
2.667 LW
N
-4 0 M
4 0 L
S
GR
GS
[0.75 0 0 0.75 322.68311 141.17517] CT
0.286 0 0 RC
N
f-401390582
f
GR
GS
[0.75 0 0 0.75 322.68311 141.17517] CT
0.286 0 0 RC
10.0 ML
2.667 LW
N
-4 0 M
4 0 L
S
GR
GS
[0.75 0 0 0.75 299.77036 141.59431] CT
0.286 0 0 RC
N
f-401390582
f
GR
GS
[0.75 0 0 0.75 299.77036 141.59431] CT
0.286 0 0 RC
10.0 ML
2.667 LW
N
-4 0 M
4 0 L
S
GR
GS
[0.75 0 0 0.75 251.50964 138.0649] CT
0.286 0 0 RC
N
f-401390582
f
GR
GS
[0.75 0 0 0.75 251.50964 138.0649] CT
0.286 0 0 RC
10.0 ML
2.667 LW
N
-4 0 M
4 0 L
S
GR
GS
[0.75 0 0 0.75 199.05725 136.27044] CT
0.286 0 0 RC
N
f-401390582
f
GR
GS
[0.75 0 0 0.75 199.05725 136.27044] CT
0.286 0 0 RC
10.0 ML
2.667 LW
N
-4 0 M
4 0 L
S
GR
GS
[0.75 0 0 0.75 86.25 134.55569] CT
0.286 0 0 RC
N
f-401390582
f
GR
GS
[0.75 0 0 0.75 86.25 134.55569] CT
0.286 0 0 RC
10.0 ML
2.667 LW
N
-4 0 M
4 0 L
S
GR
GS
[0.75 0 0 0.75 559.11621 117.73805] CT
0.286 0 0 RC
N
f-401390582
f
GR
GS
[0.75 0 0 0.75 559.11621 117.73805] CT
0.286 0 0 RC
10.0 ML
2.667 LW
N
-4 0 M
4 0 L
S
GR
GS
[0.75 0 0 0.75 536.20345 123.16871] CT
0.286 0 0 RC
N
f-401390582
f
GR
GS
[0.75 0 0 0.75 536.20345 123.16871] CT
0.286 0 0 RC
10.0 ML
2.667 LW
N
-4 0 M
4 0 L
S
GR
GS
[0.75 0 0 0.75 506.66382 122.18194] CT
0.286 0 0 RC
N
f-401390582
f
GR
GS
[0.75 0 0 0.75 506.66382 122.18194] CT
0.286 0 0 RC
10.0 ML
2.667 LW
N
-4 0 M
4 0 L
S
GR
GS
[0.75 0 0 0.75 465.03003 110.38851] CT
0.286 0 0 RC
N
f-401390582
f
GR
GS
[0.75 0 0 0.75 465.03003 110.38851] CT
0.286 0 0 RC
10.0 ML
2.667 LW
N
-4 0 M
4 0 L
S
GR
GS
[0.75 0 0 0.75 393.85657 115.50597] CT
0.286 0 0 RC
N
f-401390582
f
GR
GS
[0.75 0 0 0.75 393.85657 115.50597] CT
0.286 0 0 RC
10.0 ML
2.667 LW
N
-4 0 M
4 0 L
S
GR
GS
[0.75 0 0 0.75 364.31692 126.71895] CT
0.286 0 0 RC
N
f-401390582
f
GR
GS
[0.75 0 0 0.75 364.31692 126.71895] CT
0.286 0 0 RC
10.0 ML
2.667 LW
N
-4 0 M
4 0 L
S
GR
GS
[0.75 0 0 0.75 322.68311 124.75397] CT
0.286 0 0 RC
N
f-401390582
f
GR
GS
[0.75 0 0 0.75 322.68311 124.75397] CT
0.286 0 0 RC
10.0 ML
2.667 LW
N
-4 0 M
4 0 L
S
GR
GS
[0.75 0 0 0.75 299.77036 128.23085] CT
0.286 0 0 RC
N
f-401390582
f
GR
GS
[0.75 0 0 0.75 299.77036 128.23085] CT
0.286 0 0 RC
10.0 ML
2.667 LW
N
-4 0 M
4 0 L
S
GR
GS
[0.75 0 0 0.75 251.50964 128.32308] CT
0.286 0 0 RC
N
f-401390582
f
GR
GS
[0.75 0 0 0.75 251.50964 128.32308] CT
0.286 0 0 RC
10.0 ML
2.667 LW
N
-4 0 M
4 0 L
S
GR
GS
[0.75 0 0 0.75 199.05725 130.48005] CT
0.286 0 0 RC
N
f-401390582
f
GR
GS
[0.75 0 0 0.75 199.05725 130.48005] CT
0.286 0 0 RC
10.0 ML
2.667 LW
N
-4 0 M
4 0 L
S
GR
GS
[0.75 0 0 0.75 86.25 132.49544] CT
0.286 0 0 RC
N
f-401390582
f
GR
GS
[0.75 0 0 0.75 86.25 132.49544] CT
0.286 0 0 RC
10.0 ML
2.667 LW
N
-4 0 M
4 0 L
S
GR
GS
[0.75 0 0 0.75 0 0] CT
0.427 0 0 RC
1 LJ
2.667 LW
N
675.552 30.778 M
675.552 210.049 L
S
GR
GS
[0.75 0 0 0.75 0 0] CT
0.427 0 0 RC
1 LJ
2.667 LW
N
620.04 254.9 M
620.04 332.036 L
S
GR
GS
[0.75 0 0 0.75 0 0] CT
0.427 0 0 RC
1 LJ
2.667 LW
N
525.142 218.266 M
525.142 278.663 L
S
GR
GS
[0.75 0 0 0.75 0 0] CT
0.427 0 0 RC
1 LJ
2.667 LW
N
485.756 206.428 M
485.756 251.645 L
S
GR
GS
[0.75 0 0 0.75 0 0] CT
0.427 0 0 RC
1 LJ
2.667 LW
N
430.244 185.071 M
430.244 215.805 L
S
GR
GS
[0.75 0 0 0.75 0 0] CT
0.427 0 0 RC
1 LJ
2.667 LW
N
399.694 185.516 M
399.694 205.176 L
S
GR
GS
[0.75 0 0 0.75 0 0] CT
0.427 0 0 RC
1 LJ
2.667 LW
N
335.346 178.75 M
335.346 194.348 L
S
GR
GS
[0.75 0 0 0.75 0 0] CT
0.427 0 0 RC
1 LJ
2.667 LW
N
265.41 179.438 M
265.41 189.946 L
S
GR
GS
[0.75 0 0 0.75 0 0] CT
0.427 0 0 RC
1 LJ
2.667 LW
N
115 178.443 M
115 181.324 L
S
GR
GS
[0.75 0 0 0.75 0 0] CT
0.427 0 0 RC
1 LJ
2.667 LW
N
675.552 30.778 M
675.552 29.964 L
S
GR
GS
[0.75 0 0 0.75 0 0] CT
0.427 0 0 RC
1 LJ
2.667 LW
N
620.04 254.9 M
620.04 152.508 L
S
GR
GS
[0.75 0 0 0.75 0 0] CT
0.427 0 0 RC
1 LJ
2.667 LW
N
525.142 218.266 M
525.142 158.571 L
S
GR
GS
[0.75 0 0 0.75 0 0] CT
0.427 0 0 RC
1 LJ
2.667 LW
N
485.756 206.428 M
485.756 161.605 L
S
GR
GS
[0.75 0 0 0.75 0 0] CT
0.427 0 0 RC
1 LJ
2.667 LW
N
430.244 185.071 M
430.244 154.52 L
S
GR
GS
[0.75 0 0 0.75 0 0] CT
0.427 0 0 RC
1 LJ
2.667 LW
N
399.694 185.516 M
399.694 165.932 L
S
GR
GS
[0.75 0 0 0.75 0 0] CT
0.427 0 0 RC
1 LJ
2.667 LW
N
335.346 178.75 M
335.346 163.199 L
S
GR
GS
[0.75 0 0 0.75 0 0] CT
0.427 0 0 RC
1 LJ
2.667 LW
N
265.41 179.438 M
265.41 168.95 L
S
GR
GS
[0.75 0 0 0.75 0 0] CT
0.427 0 0 RC
1 LJ
2.667 LW
N
115 178.443 M
115 175.565 L
S
GR
GS
[0.75 0 0 0.75 0 0] CT
0.427 0 0 RC
[2 2] 0 setdash
2 LJ
2.667 LW
N
675.598 29.964 M
675.552 30.778 L
620.04 254.9 L
525.142 218.266 L
485.756 206.428 L
430.244 185.071 L
399.694 185.516 L
335.346 178.75 L
265.41 179.438 L
115 178.443 L
S
GR
GS
[0.75 0 0 0.75 506.66382 157.53712] CT
0.427 0 0 RC
N
f-401390582
f
GR
GS
[0.75 0 0 0.75 506.66382 157.53712] CT
0.427 0 0 RC
10.0 ML
2.667 LW
N
-4 0 M
4 0 L
S
GR
GS
[0.75 0 0 0.75 393.85657 208.99695] CT
0.427 0 0 RC
N
f-401390582
f
GR
GS
[0.75 0 0 0.75 393.85657 208.99695] CT
0.427 0 0 RC
10.0 ML
2.667 LW
N
-4 0 M
4 0 L
S
GR
GS
[0.75 0 0 0.75 364.31692 188.73339] CT
0.427 0 0 RC
N
f-401390582
f
GR
GS
[0.75 0 0 0.75 364.31692 188.73339] CT
0.427 0 0 RC
10.0 ML
2.667 LW
N
-4 0 M
4 0 L
S
GR
GS
[0.75 0 0 0.75 322.68311 161.85398] CT
0.427 0 0 RC
N
f-401390582
f
GR
GS
[0.75 0 0 0.75 322.68311 161.85398] CT
0.427 0 0 RC
10.0 ML
2.667 LW
N
-4 0 M
4 0 L
S
GR
GS
[0.75 0 0 0.75 299.77036 153.88233] CT
0.427 0 0 RC
N
f-401390582
f
GR
GS
[0.75 0 0 0.75 299.77036 153.88233] CT
0.427 0 0 RC
10.0 ML
2.667 LW
N
-4 0 M
4 0 L
S
GR
GS
[0.75 0 0 0.75 251.50964 145.76081] CT
0.427 0 0 RC
N
f-401390582
f
GR
GS
[0.75 0 0 0.75 251.50964 145.76081] CT
0.427 0 0 RC
10.0 ML
2.667 LW
N
-4 0 M
4 0 L
S
GR
GS
[0.75 0 0 0.75 199.05725 142.45968] CT
0.427 0 0 RC
N
f-401390582
f
GR
GS
[0.75 0 0 0.75 199.05725 142.45968] CT
0.427 0 0 RC
10.0 ML
2.667 LW
N
-4 0 M
4 0 L
S
GR
GS
[0.75 0 0 0.75 86.25 135.99276] CT
0.427 0 0 RC
N
f-401390582
f
GR
GS
[0.75 0 0 0.75 86.25 135.99276] CT
0.427 0 0 RC
10.0 ML
2.667 LW
N
-4 0 M
4 0 L
S
GR
GS
[0.75 0 0 0.75 465.03003 114.38124] CT
0.427 0 0 RC
N
f-401390582
f
GR
GS
[0.75 0 0 0.75 465.03003 114.38124] CT
0.427 0 0 RC
10.0 ML
2.667 LW
N
-4 0 M
4 0 L
S
GR
GS
[0.75 0 0 0.75 393.85657 118.92822] CT
0.427 0 0 RC
N
f-401390582
f
GR
GS
[0.75 0 0 0.75 393.85657 118.92822] CT
0.427 0 0 RC
10.0 ML
2.667 LW
N
-4 0 M
4 0 L
S
GR
GS
[0.75 0 0 0.75 364.31692 121.20403] CT
0.427 0 0 RC
N
f-401390582
f
GR
GS
[0.75 0 0 0.75 364.31692 121.20403] CT
0.427 0 0 RC
10.0 ML
2.667 LW
N
-4 0 M
4 0 L
S
GR
GS
[0.75 0 0 0.75 322.68311 115.88998] CT
0.427 0 0 RC
N
f-401390582
f
GR
GS
[0.75 0 0 0.75 322.68311 115.88998] CT
0.427 0 0 RC
10.0 ML
2.667 LW
N
-4 0 M
4 0 L
S
GR
GS
[0.75 0 0 0.75 299.77036 124.44863] CT
0.427 0 0 RC
N
f-401390582
f
GR
GS
[0.75 0 0 0.75 299.77036 124.44863] CT
0.427 0 0 RC
10.0 ML
2.667 LW
N
-4 0 M
4 0 L
S
GR
GS
[0.75 0 0 0.75 251.50964 122.3989] CT
0.427 0 0 RC
N
f-401390582
f
GR
GS
[0.75 0 0 0.75 251.50964 122.3989] CT
0.427 0 0 RC
10.0 ML
2.667 LW
N
-4 0 M
4 0 L
S
GR
GS
[0.75 0 0 0.75 199.05725 126.71272] CT
0.427 0 0 RC
N
f-401390582
f
GR
GS
[0.75 0 0 0.75 199.05725 126.71272] CT
0.427 0 0 RC
10.0 ML
2.667 LW
N
-4 0 M
4 0 L
S
GR
GS
[0.75 0 0 0.75 86.25 131.67352] CT
0.427 0 0 RC
N
f-401390582
f
GR
GS
[0.75 0 0 0.75 86.25 131.67352] CT
0.427 0 0 RC
10.0 ML
2.667 LW
N
-4 0 M
4 0 L
S
GR
GS
[0.75 0 0 0.75 0 0] CT
0.573 0 0 RC
1 LJ
2.667 LW
N
525.142 261.214 M
525.142 332.036 L
S
GR
GS
[0.75 0 0 0.75 0 0] CT
0.573 0 0 RC
1 LJ
2.667 LW
N
485.756 253.969 M
485.756 332.036 L
S
GR
GS
[0.75 0 0 0.75 0 0] CT
0.573 0 0 RC
1 LJ
2.667 LW
N
430.244 228.763 M
430.244 295.259 L
S
GR
GS
[0.75 0 0 0.75 0 0] CT
0.573 0 0 RC
1 LJ
2.667 LW
N
399.694 200.162 M
399.694 247.336 L
S
GR
GS
[0.75 0 0 0.75 0 0] CT
0.573 0 0 RC
1 LJ
2.667 LW
N
335.346 186.395 M
335.346 217.964 L
S
GR
GS
[0.75 0 0 0.75 0 0] CT
0.573 0 0 RC
1 LJ
2.667 LW
N
265.41 179.353 M
265.41 198.135 L
S
GR
GS
[0.75 0 0 0.75 0 0] CT
0.573 0 0 RC
1 LJ
2.667 LW
N
115 178.318 M
115 184.239 L
S
GR
GS
[0.75 0 0 0.75 0 0] CT
0.573 0 0 RC
1 LJ
2.667 LW
N
525.142 261.214 M
525.142 131.506 L
S
GR
GS
[0.75 0 0 0.75 0 0] CT
0.573 0 0 RC
1 LJ
2.667 LW
N
485.756 253.969 M
485.756 166.892 L
S
GR
GS
[0.75 0 0 0.75 0 0] CT
0.573 0 0 RC
1 LJ
2.667 LW
N
430.244 228.763 M
430.244 163.118 L
S
GR
GS
[0.75 0 0 0.75 0 0] CT
0.573 0 0 RC
1 LJ
2.667 LW
N
399.694 200.162 M
399.694 153.418 L
S
GR
GS
[0.75 0 0 0.75 0 0] CT
0.573 0 0 RC
1 LJ
2.667 LW
N
335.346 186.395 M
335.346 155.02 L
S
GR
GS
[0.75 0 0 0.75 0 0] CT
0.573 0 0 RC
1 LJ
2.667 LW
N
265.41 179.353 M
265.41 160.638 L
S
GR
GS
[0.75 0 0 0.75 0 0] CT
0.573 0 0 RC
1 LJ
2.667 LW
N
115 178.318 M
115 172.405 L
S
GR
GS
[0.75 0 0 0.75 0 0] CT
0.573 0 0 RC
[8 2 4 2] 0 setdash
2 LJ
2.667 LW
N
548.822 29.964 M
525.142 261.214 L
485.756 253.969 L
430.244 228.763 L
399.694 200.162 L
335.346 186.395 L
265.41 179.353 L
115 178.318 L
S
GR
GS
[0.75 0 0 0.75 322.68311 221.44393] CT
0.573 0 0 RC
N
f-401390582
f
GR
GS
[0.75 0 0 0.75 322.68311 221.44393] CT
0.573 0 0 RC
10.0 ML
2.667 LW
N
-4 0 M
4 0 L
S
GR
GS
[0.75 0 0 0.75 299.77036 185.50223] CT
0.573 0 0 RC
N
f-401390582
f
GR
GS
[0.75 0 0 0.75 299.77036 185.50223] CT
0.573 0 0 RC
10.0 ML
2.667 LW
N
-4 0 M
4 0 L
S
GR
GS
[0.75 0 0 0.75 251.50964 163.47274] CT
0.573 0 0 RC
N
f-401390582
f
GR
GS
[0.75 0 0 0.75 251.50964 163.47274] CT
0.573 0 0 RC
10.0 ML
2.667 LW
N
-4 0 M
4 0 L
S
GR
GS
[0.75 0 0 0.75 199.05725 148.60162] CT
0.573 0 0 RC
N
f-401390582
f
GR
GS
[0.75 0 0 0.75 199.05725 148.60162] CT
0.573 0 0 RC
10.0 ML
2.667 LW
N
-4 0 M
4 0 L
S
GR
GS
[0.75 0 0 0.75 86.25 138.17892] CT
0.573 0 0 RC
N
f-401390582
f
GR
GS
[0.75 0 0 0.75 86.25 138.17892] CT
0.573 0 0 RC
10.0 ML
2.667 LW
N
-4 0 M
4 0 L
S
GR
GS
[0.75 0 0 0.75 393.85657 98.62942] CT
0.573 0 0 RC
N
f-401390582
f
GR
GS
[0.75 0 0 0.75 393.85657 98.62942] CT
0.573 0 0 RC
10.0 ML
2.667 LW
N
-4 0 M
4 0 L
S
GR
GS
[0.75 0 0 0.75 364.31692 125.16887] CT
0.573 0 0 RC
N
f-401390582
f
GR
GS
[0.75 0 0 0.75 364.31692 125.16887] CT
0.573 0 0 RC
10.0 ML
2.667 LW
N
-4 0 M
4 0 L
S
GR
GS
[0.75 0 0 0.75 322.68311 122.33869] CT
0.573 0 0 RC
N
f-401390582
f
GR
GS
[0.75 0 0 0.75 322.68311 122.33869] CT
0.573 0 0 RC
10.0 ML
2.667 LW
N
-4 0 M
4 0 L
S
GR
GS
[0.75 0 0 0.75 299.77036 115.06322] CT
0.573 0 0 RC
N
f-401390582
f
GR
GS
[0.75 0 0 0.75 299.77036 115.06322] CT
0.573 0 0 RC
10.0 ML
2.667 LW
N
-4 0 M
4 0 L
S
GR
GS
[0.75 0 0 0.75 251.50964 116.2652] CT
0.573 0 0 RC
N
f-401390582
f
GR
GS
[0.75 0 0 0.75 251.50964 116.2652] CT
0.573 0 0 RC
10.0 ML
2.667 LW
N
-4 0 M
4 0 L
S
GR
GS
[0.75 0 0 0.75 199.05725 120.4788] CT
0.573 0 0 RC
N
f-401390582
f
GR
GS
[0.75 0 0 0.75 199.05725 120.4788] CT
0.573 0 0 RC
10.0 ML
2.667 LW
N
-4 0 M
4 0 L
S
GR
GS
[0.75 0 0 0.75 86.25 129.30391] CT
0.573 0 0 RC
N
f-401390582
f
GR
GS
[0.75 0 0 0.75 86.25 129.30391] CT
0.573 0 0 RC
10.0 ML
2.667 LW
N
-4 0 M
4 0 L
S
GR
GS
[0.75 0 0 0.75 0 0] CT
0.714 0 0 RC
1 LJ
2.667 LW
N
485.756 169.1 M
485.756 291.557 L
S
GR
GS
[0.75 0 0 0.75 0 0] CT
0.714 0 0 RC
1 LJ
2.667 LW
N
430.244 243.199 M
430.244 332.036 L
S
GR
GS
[0.75 0 0 0.75 0 0] CT
0.714 0 0 RC
1 LJ
2.667 LW
N
399.694 234.858 M
399.694 309.195 L
S
GR
GS
[0.75 0 0 0.75 0 0] CT
0.714 0 0 RC
1 LJ
2.667 LW
N
335.346 206.638 M
335.346 259.434 L
S
GR
GS
[0.75 0 0 0.75 0 0] CT
0.714 0 0 RC
1 LJ
2.667 LW
N
265.41 189.642 M
265.41 220.761 L
S
GR
GS
[0.75 0 0 0.75 0 0] CT
0.714 0 0 RC
1 LJ
2.667 LW
N
115 179.333 M
115 190.514 L
S
GR
GS
[0.75 0 0 0.75 0 0] CT
0.714 0 0 RC
1 LJ
2.667 LW
N
485.756 169.1 M
485.756 49.496 L
S
GR
GS
[0.75 0 0 0.75 0 0] CT
0.714 0 0 RC
1 LJ
2.667 LW
N
430.244 243.199 M
430.244 135.503 L
S
GR
GS
[0.75 0 0 0.75 0 0] CT
0.714 0 0 RC
1 LJ
2.667 LW
N
399.694 234.858 M
399.694 161.582 L
S
GR
GS
[0.75 0 0 0.75 0 0] CT
0.714 0 0 RC
1 LJ
2.667 LW
N
335.346 206.638 M
335.346 154.38 L
S
GR
GS
[0.75 0 0 0.75 0 0] CT
0.714 0 0 RC
1 LJ
2.667 LW
N
265.41 189.642 M
265.41 158.711 L
S
GR
GS
[0.75 0 0 0.75 0 0] CT
0.714 0 0 RC
1 LJ
2.667 LW
N
115 179.333 M
115 168.175 L
S
GR
GS
[0.75 0 0 0.75 0 0] CT
0.714 0 0 RC
1 LJ
2.667 LW
N
499.863 29.964 M
485.756 169.1 L
430.244 243.199 L
399.694 234.858 L
335.346 206.638 L
265.41 189.642 L
115 179.333 L
S
GR
GS
[0.75 0 0 0.75 364.31692 218.66764] CT
0.714 0 0 RC
N
f-401390582
f
GR
GS
[0.75 0 0 0.75 364.31692 218.66764] CT
0.714 0 0 RC
10.0 ML
2.667 LW
N
-4 0 M
4 0 L
S
GR
GS
[0.75 0 0 0.75 299.77036 231.8966] CT
0.714 0 0 RC
N
f-401390582
f
GR
GS
[0.75 0 0 0.75 299.77036 231.8966] CT
0.714 0 0 RC
10.0 ML
2.667 LW
N
-4 0 M
4 0 L
S
GR
GS
[0.75 0 0 0.75 251.50964 194.57552] CT
0.714 0 0 RC
N
f-401390582
f
GR
GS
[0.75 0 0 0.75 251.50964 194.57552] CT
0.714 0 0 RC
10.0 ML
2.667 LW
N
-4 0 M
4 0 L
S
GR
GS
[0.75 0 0 0.75 199.05725 165.57069] CT
0.714 0 0 RC
N
f-401390582
f
GR
GS
[0.75 0 0 0.75 199.05725 165.57069] CT
0.714 0 0 RC
10.0 ML
2.667 LW
N
-4 0 M
4 0 L
S
GR
GS
[0.75 0 0 0.75 86.25 142.88581] CT
0.714 0 0 RC
N
f-401390582
f
GR
GS
[0.75 0 0 0.75 86.25 142.88581] CT
0.714 0 0 RC
10.0 ML
2.667 LW
N
-4 0 M
4 0 L
S
GR
GS
[0.75 0 0 0.75 364.31692 37.12215] CT
0.714 0 0 RC
N
f-401390582
f
GR
GS
[0.75 0 0 0.75 364.31692 37.12215] CT
0.714 0 0 RC
10.0 ML
2.667 LW
N
-4 0 M
4 0 L
S
GR
GS
[0.75 0 0 0.75 322.68311 101.6273] CT
0.714 0 0 RC
N
f-401390582
f
GR
GS
[0.75 0 0 0.75 322.68311 101.6273] CT
0.714 0 0 RC
10.0 ML
2.667 LW
N
-4 0 M
4 0 L
S
GR
GS
[0.75 0 0 0.75 299.77036 121.18667] CT
0.714 0 0 RC
N
f-401390582
f
GR
GS
[0.75 0 0 0.75 299.77036 121.18667] CT
0.714 0 0 RC
10.0 ML
2.667 LW
N
-4 0 M
4 0 L
S
GR
GS
[0.75 0 0 0.75 251.50964 115.78505] CT
0.714 0 0 RC
N
f-401390582
f
GR
GS
[0.75 0 0 0.75 251.50964 115.78505] CT
0.714 0 0 RC
10.0 ML
2.667 LW
N
-4 0 M
4 0 L
S
GR
GS
[0.75 0 0 0.75 199.05725 119.03317] CT
0.714 0 0 RC
N
f-401390582
f
GR
GS
[0.75 0 0 0.75 199.05725 119.03317] CT
0.714 0 0 RC
10.0 ML
2.667 LW
N
-4 0 M
4 0 L
S
GR
GS
[0.75 0 0 0.75 86.25 126.1314] CT
0.714 0 0 RC
N
f-401390582
f
GR
GS
[0.75 0 0 0.75 86.25 126.1314] CT
0.714 0 0 RC
10.0 ML
2.667 LW
N
-4 0 M
4 0 L
S
GR
GS
[0.75 0 0 0.75 0 0] CT
0.859 0 0 RC
1 LJ
2.667 LW
N
430.244 192.934 M
430.244 332.036 L
S
GR
GS
[0.75 0 0 0.75 0 0] CT
0.859 0 0 RC
1 LJ
2.667 LW
N
399.694 248.332 M
399.694 332.036 L
S
GR
GS
[0.75 0 0 0.75 0 0] CT
0.859 0 0 RC
1 LJ
2.667 LW
N
335.346 230.144 M
335.346 315.606 L
S
GR
GS
[0.75 0 0 0.75 0 0] CT
0.859 0 0 RC
1 LJ
2.667 LW
N
265.41 205.848 M
265.41 251.522 L
S
GR
GS
[0.75 0 0 0.75 0 0] CT
0.859 0 0 RC
1 LJ
2.667 LW
N
115 181.39 M
115 200.118 L
S
GR
GS
[0.75 0 0 0.75 0 0] CT
0.859 0 0 RC
1 LJ
2.667 LW
N
430.244 192.934 M
430.244 45.396 L
S
GR
GS
[0.75 0 0 0.75 0 0] CT
0.859 0 0 RC
1 LJ
2.667 LW
N
399.694 248.332 M
399.694 122.481 L
S
GR
GS
[0.75 0 0 0.75 0 0] CT
0.859 0 0 RC
1 LJ
2.667 LW
N
335.346 230.144 M
335.346 146.082 L
S
GR
GS
[0.75 0 0 0.75 0 0] CT
0.859 0 0 RC
1 LJ
2.667 LW
N
265.41 205.848 M
265.41 160.577 L
S
GR
GS
[0.75 0 0 0.75 0 0] CT
0.859 0 0 RC
1 LJ
2.667 LW
N
115 181.39 M
115 162.729 L
S
GR
GS
[0.75 0 0 0.75 0 0] CT
0.859 0 0 RC
[8 8] 0 setdash
2 LJ
2.667 LW
N
439.762 29.964 M
430.244 192.934 L
399.694 248.332 L
335.346 230.144 L
265.41 205.848 L
115 181.39 L
S
GR
GS
[0.75 0 0 0.75 251.50964 236.70467] CT
0.859 0 0 RC
N
f-401390582
f
GR
GS
[0.75 0 0 0.75 251.50964 236.70467] CT
0.859 0 0 RC
10.0 ML
2.667 LW
N
-4 0 M
4 0 L
S
GR
GS
[0.75 0 0 0.75 199.05725 188.6413] CT
0.859 0 0 RC
N
f-401390582
f
GR
GS
[0.75 0 0 0.75 199.05725 188.6413] CT
0.859 0 0 RC
10.0 ML
2.667 LW
N
-4 0 M
4 0 L
S
GR
GS
[0.75 0 0 0.75 86.25 150.08853] CT
0.859 0 0 RC
N
f-401390582
f
GR
GS
[0.75 0 0 0.75 86.25 150.08853] CT
0.859 0 0 RC
10.0 ML
2.667 LW
N
-4 0 M
4 0 L
S
GR
GS
[0.75 0 0 0.75 322.68311 34.04696] CT
0.859 0 0 RC
N
f-401390582
f
GR
GS
[0.75 0 0 0.75 322.68311 34.04696] CT
0.859 0 0 RC
10.0 ML
2.667 LW
N
-4 0 M
4 0 L
S
GR
GS
[0.75 0 0 0.75 299.77036 91.86091] CT
0.859 0 0 RC
N
f-401390582
f
GR
GS
[0.75 0 0 0.75 299.77036 91.86091] CT
0.859 0 0 RC
10.0 ML
2.667 LW
N
-4 0 M
4 0 L
S
GR
GS
[0.75 0 0 0.75 251.50964 109.56168] CT
0.859 0 0 RC
N
f-401390582
f
GR
GS
[0.75 0 0 0.75 251.50964 109.56168] CT
0.859 0 0 RC
10.0 ML
2.667 LW
N
-4 0 M
4 0 L
S
GR
GS
[0.75 0 0 0.75 199.05725 120.43266] CT
0.859 0 0 RC
N
f-401390582
f
GR
GS
[0.75 0 0 0.75 199.05725 120.43266] CT
0.859 0 0 RC
10.0 ML
2.667 LW
N
-4 0 M
4 0 L
S
GR
GS
[0.75 0 0 0.75 86.25 122.0471] CT
0.859 0 0 RC
N
f-401390582
f
GR
GS
[0.75 0 0 0.75 86.25 122.0471] CT
0.859 0 0 RC
10.0 ML
2.667 LW
N
-4 0 M
4 0 L
S
GR
GS
[0.75 0 0 0.75 0 0] CT
1 0 0 RC
1 LJ
2.667 LW
N
399.694 29.964 M
399.694 205.017 L
S
GR
GS
[0.75 0 0 0.75 0 0] CT
1 0 0 RC
1 LJ
2.667 LW
N
335.346 223.488 M
335.346 329.166 L
S
GR
GS
[0.75 0 0 0.75 0 0] CT
1 0 0 RC
1 LJ
2.667 LW
N
265.41 244.518 M
265.41 306.81 L
S
GR
GS
[0.75 0 0 0.75 0 0] CT
1 0 0 RC
1 LJ
2.667 LW
N
115 187.771 M
115 207.776 L
S
GR
GS
[0.75 0 0 0.75 0 0] CT
1 0 0 RC
1 LJ
2.667 LW
N
335.346 223.488 M
335.346 119.943 L
S
GR
GS
[0.75 0 0 0.75 0 0] CT
1 0 0 RC
1 LJ
2.667 LW
N
265.41 244.518 M
265.41 182.973 L
S
GR
GS
[0.75 0 0 0.75 0 0] CT
1 0 0 RC
1 LJ
2.667 LW
N
115 187.771 M
115 167.845 L
S
GR
GS
[0.75 0 0 0.75 0 0] CT
1 0 0 RC
[2 2] 0 setdash
2 LJ
2.667 LW
N
394.311 29.964 M
335.346 223.488 L
265.41 244.518 L
115 187.771 L
S
GR
GS
[0.75 0 0 0.75 299.77036 153.76283] CT
1 0 0 RC
N
f-401390582
f
GR
GS
[0.75 0 0 0.75 299.77036 153.76283] CT
1 0 0 RC
10.0 ML
2.667 LW
N
-4 0 M
4 0 L
S
GR
GS
[0.75 0 0 0.75 251.50964 246.87467] CT
1 0 0 RC
N
f-401390582
f
GR
GS
[0.75 0 0 0.75 251.50964 246.87467] CT
1 0 0 RC
10.0 ML
2.667 LW
N
-4 0 M
4 0 L
S
GR
GS
[0.75 0 0 0.75 199.05725 230.10715] CT
1 0 0 RC
N
f-401390582
f
GR
GS
[0.75 0 0 0.75 199.05725 230.10715] CT
1 0 0 RC
10.0 ML
2.667 LW
N
-4 0 M
4 0 L
S
GR
GS
[0.75 0 0 0.75 86.25 155.83169] CT
1 0 0 RC
N
f-401390582
f
GR
GS
[0.75 0 0 0.75 86.25 155.83169] CT
1 0 0 RC
10.0 ML
2.667 LW
N
-4 0 M
4 0 L
S
GR
GS
[0.75 0 0 0.75 251.50964 89.9571] CT
1 0 0 RC
N
f-401390582
f
GR
GS
[0.75 0 0 0.75 251.50964 89.9571] CT
1 0 0 RC
10.0 ML
2.667 LW
N
-4 0 M
4 0 L
S
GR
GS
[0.75 0 0 0.75 199.05725 137.22992] CT
1 0 0 RC
N
f-401390582
f
GR
GS
[0.75 0 0 0.75 199.05725 137.22992] CT
1 0 0 RC
10.0 ML
2.667 LW
N
-4 0 M
4 0 L
S
GR
GS
[0.75 0 0 0.75 86.25 125.88348] CT
1 0 0 RC
N
f-401390582
f
GR
GS
[0.75 0 0 0.75 86.25 125.88348] CT
1 0 0 RC
10.0 ML
2.667 LW
N
-4 0 M
4 0 L
S
GR
GS
[0.75 0 0 0.75 0 0] CT
1 GC
N
/f-1540770678{916 265 M
916 97 L
814 97 L
814 265 L
cp}def
f-1540770678
f
GR
GS
[0.75 0 0 0.75 645.75 82.875] CT
/Helvetica 18 F
GS
[1 0 0 1 0 0] CT
0 7.5 moveto 
1 -1 scale
(p =0.6) t 
GR
GR
GS
[0.75 0 0 0.75 0 0] CT
0.141 0 0 RC
1 LJ
2.667 LW
N
818 110.5 M
858 110.5 L
S
GR
GS
[0.75 0 0 0.75 628.5 89.5875] CT
0.141 0 0 RC
N
f-401390582
f
GR
GS
[0.75 0 0 0.75 628.5 89.5875] CT
0.141 0 0 RC
10.0 ML
2.667 LW
N
-4 0 M
4 0 L
S
GR
GS
[0.75 0 0 0.75 628.5 76.1625] CT
0.141 0 0 RC
N
f-401390582
f
GR
GS
[0.75 0 0 0.75 628.5 76.1625] CT
0.141 0 0 RC
10.0 ML
2.667 LW
N
-4 0 M
4 0 L
S
GR
GS
[0.75 0 0 0.75 0 0] CT
0.141 0 0 RC
1 LJ
2.667 LW
N
838 119.45 M
838 101.55 L
S
GR
GS
[0.75 0 0 0.75 645.75 100.5] CT
/Helvetica 18 F
GS
[1 0 0 1 0 0] CT
0 7.5 moveto 
1 -1 scale
(p =0.7) t 
GR
GR
GS
[0.75 0 0 0.75 0 0] CT
0.286 0 0 RC
[8 8] 0 setdash
2 LJ
2.667 LW
N
818 134 M
858 134 L
S
GR
GS
[0.75 0 0 0.75 628.5 107.2125] CT
0.286 0 0 RC
N
f-401390582
f
GR
GS
[0.75 0 0 0.75 628.5 107.2125] CT
0.286 0 0 RC
10.0 ML
2.667 LW
N
-4 0 M
4 0 L
S
GR
GS
[0.75 0 0 0.75 628.5 93.7875] CT
0.286 0 0 RC
N
f-401390582
f
GR
GS
[0.75 0 0 0.75 628.5 93.7875] CT
0.286 0 0 RC
10.0 ML
2.667 LW
N
-4 0 M
4 0 L
S
GR
GS
[0.75 0 0 0.75 0 0] CT
0.286 0 0 RC
1 LJ
2.667 LW
N
838 142.95 M
838 125.05 L
S
GR
GS
[0.75 0 0 0.75 645.75 118.125] CT
/Helvetica 18 F
GS
[1 0 0 1 0 0] CT
0 7.5 moveto 
1 -1 scale
(p =0.8) t 
GR
GR
GS
[0.75 0 0 0.75 0 0] CT
0.427 0 0 RC
[2 2] 0 setdash
2 LJ
2.667 LW
N
818 157.5 M
858 157.5 L
S
GR
GS
[0.75 0 0 0.75 628.5 124.8375] CT
0.427 0 0 RC
N
f-401390582
f
GR
GS
[0.75 0 0 0.75 628.5 124.8375] CT
0.427 0 0 RC
10.0 ML
2.667 LW
N
-4 0 M
4 0 L
S
GR
GS
[0.75 0 0 0.75 628.5 111.4125] CT
0.427 0 0 RC
N
f-401390582
f
GR
GS
[0.75 0 0 0.75 628.5 111.4125] CT
0.427 0 0 RC
10.0 ML
2.667 LW
N
-4 0 M
4 0 L
S
GR
GS
[0.75 0 0 0.75 0 0] CT
0.427 0 0 RC
1 LJ
2.667 LW
N
838 166.45 M
838 148.55 L
S
GR
GS
[0.75 0 0 0.75 645.75 135.75] CT
/Helvetica 18 F
GS
[1 0 0 1 0 0] CT
0 7.5 moveto 
1 -1 scale
(p =0.9) t 
GR
GR
GS
[0.75 0 0 0.75 0 0] CT
0.573 0 0 RC
[8 2 4 2] 0 setdash
2 LJ
2.667 LW
N
818 181 M
858 181 L
S
GR
GS
[0.75 0 0 0.75 628.5 142.4625] CT
0.573 0 0 RC
N
f-401390582
f
GR
GS
[0.75 0 0 0.75 628.5 142.4625] CT
0.573 0 0 RC
10.0 ML
2.667 LW
N
-4 0 M
4 0 L
S
GR
GS
[0.75 0 0 0.75 628.5 129.0375] CT
0.573 0 0 RC
N
f-401390582
f
GR
GS
[0.75 0 0 0.75 628.5 129.0375] CT
0.573 0 0 RC
10.0 ML
2.667 LW
N
-4 0 M
4 0 L
S
GR
GS
[0.75 0 0 0.75 0 0] CT
0.573 0 0 RC
1 LJ
2.667 LW
N
838 189.95 M
838 172.05 L
S
GR
GS
[0.75 0 0 0.75 645.75 153.375] CT
/Helvetica 18 F
GS
[1 0 0 1 0 0] CT
0 7.5 moveto 
1 -1 scale
(p =  1) t 
GR
GR
GS
[0.75 0 0 0.75 0 0] CT
0.714 0 0 RC
1 LJ
2.667 LW
N
818 204.5 M
858 204.5 L
S
GR
GS
[0.75 0 0 0.75 628.5 160.0875] CT
0.714 0 0 RC
N
f-401390582
f
GR
GS
[0.75 0 0 0.75 628.5 160.0875] CT
0.714 0 0 RC
10.0 ML
2.667 LW
N
-4 0 M
4 0 L
S
GR
GS
[0.75 0 0 0.75 628.5 146.6625] CT
0.714 0 0 RC
N
f-401390582
f
GR
GS
[0.75 0 0 0.75 628.5 146.6625] CT
0.714 0 0 RC
10.0 ML
2.667 LW
N
-4 0 M
4 0 L
S
GR
GS
[0.75 0 0 0.75 0 0] CT
0.714 0 0 RC
1 LJ
2.667 LW
N
838 213.45 M
838 195.55 L
S
GR
GS
[0.75 0 0 0.75 645.75 171] CT
/Helvetica 18 F
GS
[1 0 0 1 0 0] CT
0 7.5 moveto 
1 -1 scale
(p =1.1) t 
GR
GR
GS
[0.75 0 0 0.75 0 0] CT
0.859 0 0 RC
[8 8] 0 setdash
2 LJ
2.667 LW
N
818 228 M
858 228 L
S
GR
GS
[0.75 0 0 0.75 628.5 177.7125] CT
0.859 0 0 RC
N
f-401390582
f
GR
GS
[0.75 0 0 0.75 628.5 177.7125] CT
0.859 0 0 RC
10.0 ML
2.667 LW
N
-4 0 M
4 0 L
S
GR
GS
[0.75 0 0 0.75 628.5 164.2875] CT
0.859 0 0 RC
N
f-401390582
f
GR
GS
[0.75 0 0 0.75 628.5 164.2875] CT
0.859 0 0 RC
10.0 ML
2.667 LW
N
-4 0 M
4 0 L
S
GR
GS
[0.75 0 0 0.75 0 0] CT
0.859 0 0 RC
1 LJ
2.667 LW
N
838 236.95 M
838 219.05 L
S
GR
GS
[0.75 0 0 0.75 645.75 188.625] CT
/Helvetica 18 F
GS
[1 0 0 1 0 0] CT
0 7.5 moveto 
1 -1 scale
(p =1.2) t 
GR
GR
GS
[0.75 0 0 0.75 0 0] CT
1 0 0 RC
[2 2] 0 setdash
2 LJ
2.667 LW
N
818 251.5 M
858 251.5 L
S
GR
GS
[0.75 0 0 0.75 628.5 195.33751] CT
1 0 0 RC
N
f-401390582
f
GR
GS
[0.75 0 0 0.75 628.5 195.33751] CT
1 0 0 RC
10.0 ML
2.667 LW
N
-4 0 M
4 0 L
S
GR
GS
[0.75 0 0 0.75 628.5 181.9125] CT
1 0 0 RC
N
f-401390582
f
GR
GS
[0.75 0 0 0.75 628.5 181.9125] CT
1 0 0 RC
10.0 ML
2.667 LW
N
-4 0 M
4 0 L
S
GR
GS
[0.75 0 0 0.75 0 0] CT
1 0 0 RC
1 LJ
2.667 LW
N
838 260.45 M
838 242.55 L
S
GR
GS
[0.75 0 0 0.75 0 0] CT
0.149 GC
10.0 ML
0.667 LW
N
814 265 M
814 97 L
916 97 L
916 265 L
cp
S
GR
%%Trailer
%%Pages: 1
%%EOF
