%!PS-Adobe-3.0 EPSF-3.0
%%Creator: (MATLAB, The Mathworks, Inc. Version 9.3.0.713579 \(R2017b\). Operating System: Windows 7)
%%Title: (C:/Users/Taeke/Documents/Studie 2017-2018/Q3 - Q4 Machine Learning/machinelearning/assignment7/fig/std.eps)
%%CreationDate: 2018-07-05T22:24:50
%%Pages: (atend)
%%BoundingBox:    13     3   412   367
%%LanguageLevel: 3
%%EndComments
%%BeginProlog
%%BeginResource: procset (Apache XML Graphics Std ProcSet) 1.2 0
%%Version: 1.2 0
%%Copyright: (Copyright 2001-2003,2010 The Apache Software Foundation. License terms: http://www.apache.org/licenses/LICENSE-2.0)
/bd{bind def}bind def
/ld{load def}bd
/GR/grestore ld
/GS/gsave ld
/RM/rmoveto ld
/C/curveto ld
/t/show ld
/L/lineto ld
/ML/setmiterlimit ld
/CT/concat ld
/f/fill ld
/N/newpath ld
/S/stroke ld
/CC/setcmykcolor ld
/A/ashow ld
/cp/closepath ld
/RC/setrgbcolor ld
/LJ/setlinejoin ld
/GC/setgray ld
/LW/setlinewidth ld
/M/moveto ld
/re {4 2 roll M
1 index 0 rlineto
0 exch rlineto
neg 0 rlineto
cp } bd
/_ctm matrix def
/_tm matrix def
/BT { _ctm currentmatrix pop matrix _tm copy pop 0 0 moveto } bd
/ET { _ctm setmatrix } bd
/iTm { _ctm setmatrix _tm concat } bd
/Tm { _tm astore pop iTm 0 0 moveto } bd
/ux 0.0 def
/uy 0.0 def
/F {
  /Tp exch def
  /Tf exch def
  Tf findfont Tp scalefont setfont
  /cf Tf def  /cs Tp def
} bd
/ULS {currentpoint /uy exch def /ux exch def} bd
/ULE {
  /Tcx currentpoint pop def
  gsave
  newpath
  cf findfont cs scalefont dup
  /FontMatrix get 0 get /Ts exch def /FontInfo get dup
  /UnderlinePosition get Ts mul /To exch def
  /UnderlineThickness get Ts mul /Tt exch def
  ux uy To add moveto  Tcx uy To add lineto
  Tt setlinewidth stroke
  grestore
} bd
/OLE {
  /Tcx currentpoint pop def
  gsave
  newpath
  cf findfont cs scalefont dup
  /FontMatrix get 0 get /Ts exch def /FontInfo get dup
  /UnderlinePosition get Ts mul /To exch def
  /UnderlineThickness get Ts mul /Tt exch def
  ux uy To add cs add moveto Tcx uy To add cs add lineto
  Tt setlinewidth stroke
  grestore
} bd
/SOE {
  /Tcx currentpoint pop def
  gsave
  newpath
  cf findfont cs scalefont dup
  /FontMatrix get 0 get /Ts exch def /FontInfo get dup
  /UnderlinePosition get Ts mul /To exch def
  /UnderlineThickness get Ts mul /Tt exch def
  ux uy To add cs 10 mul 26 idiv add moveto Tcx uy To add cs 10 mul 26 idiv add lineto
  Tt setlinewidth stroke
  grestore
} bd
/QT {
/Y22 exch store
/X22 exch store
/Y21 exch store
/X21 exch store
currentpoint
/Y21 load 2 mul add 3 div exch
/X21 load 2 mul add 3 div exch
/X21 load 2 mul /X22 load add 3 div
/Y21 load 2 mul /Y22 load add 3 div
/X22 load /Y22 load curveto
} bd
/SSPD {
dup length /d exch dict def
{
/v exch def
/k exch def
currentpagedevice k known {
/cpdv currentpagedevice k get def
v cpdv ne {
/upd false def
/nullv v type /nulltype eq def
/nullcpdv cpdv type /nulltype eq def
nullv nullcpdv or
{
/upd true def
} {
/sametype v type cpdv type eq def
sametype {
v type /arraytype eq {
/vlen v length def
/cpdvlen cpdv length def
vlen cpdvlen eq {
0 1 vlen 1 sub {
/i exch def
/obj v i get def
/cpdobj cpdv i get def
obj cpdobj ne {
/upd true def
exit
} if
} for
} {
/upd true def
} ifelse
} {
v type /dicttype eq {
v {
/dv exch def
/dk exch def
/cpddv cpdv dk get def
dv cpddv ne {
/upd true def
exit
} if
} forall
} {
/upd true def
} ifelse
} ifelse
} if
} ifelse
upd true eq {
d k v put
} if
} if
} if
} forall
d length 0 gt {
d setpagedevice
} if
} bd
/RE { % /NewFontName [NewEncodingArray] /FontName RE -
  findfont dup length dict begin
  {
    1 index /FID ne
    {def} {pop pop} ifelse
  } forall
  /Encoding exch def
  /FontName 1 index def
  currentdict definefont pop
  end
} bind def
%%EndResource
%%BeginResource: procset (Apache XML Graphics EPS ProcSet) 1.0 0
%%Version: 1.0 0
%%Copyright: (Copyright 2002-2003 The Apache Software Foundation. License terms: http://www.apache.org/licenses/LICENSE-2.0)
/BeginEPSF { %def
/b4_Inc_state save def         % Save state for cleanup
/dict_count countdictstack def % Count objects on dict stack
/op_count count 1 sub def      % Count objects on operand stack
userdict begin                 % Push userdict on dict stack
/showpage { } def              % Redefine showpage, { } = null proc
0 setgray 0 setlinecap         % Prepare graphics state
1 setlinewidth 0 setlinejoin
10 setmiterlimit [ ] 0 setdash newpath
/languagelevel where           % If level not equal to 1 then
{pop languagelevel             % set strokeadjust and
1 ne                           % overprint to their defaults.
{false setstrokeadjust false setoverprint
} if
} if
} bd
/EndEPSF { %def
count op_count sub {pop} repeat            % Clean up stacks
countdictstack dict_count sub {end} repeat
b4_Inc_state restore
} bd
%%EndResource
%FOPBeginFontDict
%%IncludeResource: font Courier-Oblique
%%IncludeResource: font Courier-BoldOblique
%%IncludeResource: font Courier-Bold
%%IncludeResource: font ZapfDingbats
%%IncludeResource: font Symbol
%%IncludeResource: font Helvetica
%%IncludeResource: font Helvetica-Oblique
%%IncludeResource: font Helvetica-Bold
%%IncludeResource: font Helvetica-BoldOblique
%%IncludeResource: font Times-Roman
%%IncludeResource: font Times-Italic
%%IncludeResource: font Times-Bold
%%IncludeResource: font Times-BoldItalic
%%IncludeResource: font Courier
%FOPEndFontDict
%%BeginResource: encoding WinAnsiEncoding
/WinAnsiEncoding [
/.notdef /.notdef /.notdef /.notdef /.notdef
/.notdef /.notdef /.notdef /.notdef /.notdef
/.notdef /.notdef /.notdef /.notdef /.notdef
/.notdef /.notdef /.notdef /.notdef /.notdef
/.notdef /.notdef /.notdef /.notdef /.notdef
/.notdef /.notdef /.notdef /.notdef /.notdef
/.notdef /.notdef /space /exclam /quotedbl
/numbersign /dollar /percent /ampersand /quotesingle
/parenleft /parenright /asterisk /plus /comma
/hyphen /period /slash /zero /one
/two /three /four /five /six
/seven /eight /nine /colon /semicolon
/less /equal /greater /question /at
/A /B /C /D /E
/F /G /H /I /J
/K /L /M /N /O
/P /Q /R /S /T
/U /V /W /X /Y
/Z /bracketleft /backslash /bracketright /asciicircum
/underscore /quoteleft /a /b /c
/d /e /f /g /h
/i /j /k /l /m
/n /o /p /q /r
/s /t /u /v /w
/x /y /z /braceleft /bar
/braceright /asciitilde /bullet /Euro /bullet
/quotesinglbase /florin /quotedblbase /ellipsis /dagger
/daggerdbl /circumflex /perthousand /Scaron /guilsinglleft
/OE /bullet /Zcaron /bullet /bullet
/quoteleft /quoteright /quotedblleft /quotedblright /bullet
/endash /emdash /asciitilde /trademark /scaron
/guilsinglright /oe /bullet /zcaron /Ydieresis
/space /exclamdown /cent /sterling /currency
/yen /brokenbar /section /dieresis /copyright
/ordfeminine /guillemotleft /logicalnot /sfthyphen /registered
/macron /degree /plusminus /twosuperior /threesuperior
/acute /mu /paragraph /middot /cedilla
/onesuperior /ordmasculine /guillemotright /onequarter /onehalf
/threequarters /questiondown /Agrave /Aacute /Acircumflex
/Atilde /Adieresis /Aring /AE /Ccedilla
/Egrave /Eacute /Ecircumflex /Edieresis /Igrave
/Iacute /Icircumflex /Idieresis /Eth /Ntilde
/Ograve /Oacute /Ocircumflex /Otilde /Odieresis
/multiply /Oslash /Ugrave /Uacute /Ucircumflex
/Udieresis /Yacute /Thorn /germandbls /agrave
/aacute /acircumflex /atilde /adieresis /aring
/ae /ccedilla /egrave /eacute /ecircumflex
/edieresis /igrave /iacute /icircumflex /idieresis
/eth /ntilde /ograve /oacute /ocircumflex
/otilde /odieresis /divide /oslash /ugrave
/uacute /ucircumflex /udieresis /yacute /thorn
/ydieresis
] def
%%EndResource
%FOPBeginFontReencode
/Courier-Oblique findfont
dup length dict begin
  {1 index /FID ne {def} {pop pop} ifelse} forall
  /Encoding WinAnsiEncoding def
  currentdict
end
/Courier-Oblique exch definefont pop
/Courier-BoldOblique findfont
dup length dict begin
  {1 index /FID ne {def} {pop pop} ifelse} forall
  /Encoding WinAnsiEncoding def
  currentdict
end
/Courier-BoldOblique exch definefont pop
/Courier-Bold findfont
dup length dict begin
  {1 index /FID ne {def} {pop pop} ifelse} forall
  /Encoding WinAnsiEncoding def
  currentdict
end
/Courier-Bold exch definefont pop
/Helvetica findfont
dup length dict begin
  {1 index /FID ne {def} {pop pop} ifelse} forall
  /Encoding WinAnsiEncoding def
  currentdict
end
/Helvetica exch definefont pop
/Helvetica-Oblique findfont
dup length dict begin
  {1 index /FID ne {def} {pop pop} ifelse} forall
  /Encoding WinAnsiEncoding def
  currentdict
end
/Helvetica-Oblique exch definefont pop
/Helvetica-Bold findfont
dup length dict begin
  {1 index /FID ne {def} {pop pop} ifelse} forall
  /Encoding WinAnsiEncoding def
  currentdict
end
/Helvetica-Bold exch definefont pop
/Helvetica-BoldOblique findfont
dup length dict begin
  {1 index /FID ne {def} {pop pop} ifelse} forall
  /Encoding WinAnsiEncoding def
  currentdict
end
/Helvetica-BoldOblique exch definefont pop
/Times-Roman findfont
dup length dict begin
  {1 index /FID ne {def} {pop pop} ifelse} forall
  /Encoding WinAnsiEncoding def
  currentdict
end
/Times-Roman exch definefont pop
/Times-Italic findfont
dup length dict begin
  {1 index /FID ne {def} {pop pop} ifelse} forall
  /Encoding WinAnsiEncoding def
  currentdict
end
/Times-Italic exch definefont pop
/Times-Bold findfont
dup length dict begin
  {1 index /FID ne {def} {pop pop} ifelse} forall
  /Encoding WinAnsiEncoding def
  currentdict
end
/Times-Bold exch definefont pop
/Times-BoldItalic findfont
dup length dict begin
  {1 index /FID ne {def} {pop pop} ifelse} forall
  /Encoding WinAnsiEncoding def
  currentdict
end
/Times-BoldItalic exch definefont pop
/Courier findfont
dup length dict begin
  {1 index /FID ne {def} {pop pop} ifelse} forall
  /Encoding WinAnsiEncoding def
  currentdict
end
/Courier exch definefont pop
%FOPEndFontReencode
%%EndProlog
%%Page: 1 1
%%PageBoundingBox: 0 0 450 375
%%BeginPageSetup
[1 0 0 -1 0 375] CT
%%EndPageSetup
GS
[0.75 0 0 0.75 0 0] CT
1 GC
N
0 0 600 500 re
f
GR
GS
[0.75 0 0 0.75 0 0] CT
1 GC
N
0 0 600 500 re
f
GR
GS
[0.75 0 0 0.75 0 0] CT
1 GC
N
78 438 M
543 438 L
543 37 L
78 37 L
cp
f
GR
GS
[0.75 0 0 0.75 0 0] CT
0.873 GC
1 LJ
0.667 LW
N
190.241 438 M
190.241 37 L
S
GR
GS
[0.75 0 0 0.75 0 0] CT
0.873 GC
1 LJ
0.667 LW
N
304.773 438 M
304.773 37 L
S
GR
GS
[0.75 0 0 0.75 0 0] CT
0.873 GC
1 LJ
0.667 LW
N
419.305 438 M
419.305 37 L
S
GR
GS
[0.75 0 0 0.75 0 0] CT
0.873 GC
1 LJ
0.667 LW
N
533.837 438 M
533.837 37 L
S
GR
GS
[0.75 0 0 0.75 0 0] CT
0.873 GC
1 LJ
0.667 LW
N
543 438 M
78 438 L
S
GR
GS
[0.75 0 0 0.75 0 0] CT
0.873 GC
1 LJ
0.667 LW
N
543 357.8 M
78 357.8 L
S
GR
GS
[0.75 0 0 0.75 0 0] CT
0.873 GC
1 LJ
0.667 LW
N
543 277.6 M
78 277.6 L
S
GR
GS
[0.75 0 0 0.75 0 0] CT
0.873 GC
1 LJ
0.667 LW
N
543 197.4 M
78 197.4 L
S
GR
GS
[0.75 0 0 0.75 0 0] CT
0.873 GC
1 LJ
0.667 LW
N
543 117.2 M
78 117.2 L
S
GR
GS
[0.75 0 0 0.75 0 0] CT
0.873 GC
1 LJ
0.667 LW
N
543 37 M
78 37 L
S
GR
GS
[0.75 0 0 0.75 0 0] CT
0.149 GC
2 setlinecap
1 LJ
0.667 LW
N
78 438 M
543 438 L
S
GR
GS
[0.75 0 0 0.75 0 0] CT
0.149 GC
2 setlinecap
1 LJ
0.667 LW
N
78 37 M
543 37 L
S
GR
GS
[0.75 0 0 0.75 0 0] CT
0.149 GC
2 setlinecap
1 LJ
0.667 LW
N
190.241 438 M
190.241 433.35 L
S
GR
GS
[0.75 0 0 0.75 0 0] CT
0.149 GC
2 setlinecap
1 LJ
0.667 LW
N
304.773 438 M
304.773 433.35 L
S
GR
GS
[0.75 0 0 0.75 0 0] CT
0.149 GC
2 setlinecap
1 LJ
0.667 LW
N
419.305 438 M
419.305 433.35 L
S
GR
GS
[0.75 0 0 0.75 0 0] CT
0.149 GC
2 setlinecap
1 LJ
0.667 LW
N
533.837 438 M
533.837 433.35 L
S
GR
GS
[0.75 0 0 0.75 0 0] CT
0.149 GC
2 setlinecap
1 LJ
0.667 LW
N
190.241 37 M
190.241 41.65 L
S
GR
GS
[0.75 0 0 0.75 0 0] CT
0.149 GC
2 setlinecap
1 LJ
0.667 LW
N
304.773 37 M
304.773 41.65 L
S
GR
GS
[0.75 0 0 0.75 0 0] CT
0.149 GC
2 setlinecap
1 LJ
0.667 LW
N
419.305 37 M
419.305 41.65 L
S
GR
GS
[0.75 0 0 0.75 0 0] CT
0.149 GC
2 setlinecap
1 LJ
0.667 LW
N
533.837 37 M
533.837 41.65 L
S
GR
GS
[0.75 0 0 0.75 142.68103 333.49997] CT
0.149 GC
/Helvetica 20 F
GS
[1 0 0 1 0 0] CT
-11.5 21 moveto 
1 -1 scale
(50) t 
GR
GR
GS
[0.75 0 0 0.75 228.58006 333.49997] CT
0.149 GC
/Helvetica 20 F
GS
[1 0 0 1 0 0] CT
-17 21 moveto 
1 -1 scale
(100) t 
GR
GR
GS
[0.75 0 0 0.75 314.47906 333.49997] CT
0.149 GC
/Helvetica 20 F
GS
[1 0 0 1 0 0] CT
-17 21 moveto 
1 -1 scale
(150) t 
GR
GR
GS
[0.75 0 0 0.75 400.3781 333.49997] CT
0.149 GC
/Helvetica 20 F
GS
[1 0 0 1 0 0] CT
-17 21 moveto 
1 -1 scale
(200) t 
GR
GR
GS
[0.75 0 0 0.75 232.87516 353.99998] CT
0.149 GC
/Helvetica 22 F
GS
[1 0 0 1 0 0] CT
-34.5 23 moveto 
1 -1 scale
(feature) t 
GR
GR
GS
[0.75 0 0 0.75 0 0] CT
0.149 GC
2 setlinecap
1 LJ
0.667 LW
N
78 438 M
78 37 L
S
GR
GS
[0.75 0 0 0.75 0 0] CT
0.149 GC
2 setlinecap
1 LJ
0.667 LW
N
543 438 M
543 37 L
S
GR
GS
[0.75 0 0 0.75 0 0] CT
0.149 GC
2 setlinecap
1 LJ
0.667 LW
N
78 438 M
82.65 438 L
S
GR
GS
[0.75 0 0 0.75 0 0] CT
0.149 GC
2 setlinecap
1 LJ
0.667 LW
N
78 357.8 M
82.65 357.8 L
S
GR
GS
[0.75 0 0 0.75 0 0] CT
0.149 GC
2 setlinecap
1 LJ
0.667 LW
N
78 277.6 M
82.65 277.6 L
S
GR
GS
[0.75 0 0 0.75 0 0] CT
0.149 GC
2 setlinecap
1 LJ
0.667 LW
N
78 197.4 M
82.65 197.4 L
S
GR
GS
[0.75 0 0 0.75 0 0] CT
0.149 GC
2 setlinecap
1 LJ
0.667 LW
N
78 117.2 M
82.65 117.2 L
S
GR
GS
[0.75 0 0 0.75 0 0] CT
0.149 GC
2 setlinecap
1 LJ
0.667 LW
N
78 37 M
82.65 37 L
S
GR
GS
[0.75 0 0 0.75 0 0] CT
0.149 GC
2 setlinecap
1 LJ
0.667 LW
N
543 438 M
538.35 438 L
S
GR
GS
[0.75 0 0 0.75 0 0] CT
0.149 GC
2 setlinecap
1 LJ
0.667 LW
N
543 357.8 M
538.35 357.8 L
S
GR
GS
[0.75 0 0 0.75 0 0] CT
0.149 GC
2 setlinecap
1 LJ
0.667 LW
N
543 277.6 M
538.35 277.6 L
S
GR
GS
[0.75 0 0 0.75 0 0] CT
0.149 GC
2 setlinecap
1 LJ
0.667 LW
N
543 197.4 M
538.35 197.4 L
S
GR
GS
[0.75 0 0 0.75 0 0] CT
0.149 GC
2 setlinecap
1 LJ
0.667 LW
N
543 117.2 M
538.35 117.2 L
S
GR
GS
[0.75 0 0 0.75 0 0] CT
0.149 GC
2 setlinecap
1 LJ
0.667 LW
N
543 37 M
538.35 37 L
S
GR
GS
[0.75 0 0 0.75 53.5 328.5] CT
0.149 GC
/Helvetica 20 F
GS
[1 0 0 1 0 0] CT
-28 8 moveto 
1 -1 scale
(4.5) t 
GR
GR
GS
[0.75 0 0 0.75 53.5 268.34999] CT
0.149 GC
/Helvetica 20 F
GS
[1 0 0 1 0 0] CT
-12 8 moveto 
1 -1 scale
(5) t 
GR
GR
GS
[0.75 0 0 0.75 53.5 208.2] CT
0.149 GC
/Helvetica 20 F
GS
[1 0 0 1 0 0] CT
-28 8 moveto 
1 -1 scale
(5.5) t 
GR
GR
GS
[0.75 0 0 0.75 53.5 148.05] CT
0.149 GC
/Helvetica 20 F
GS
[1 0 0 1 0 0] CT
-12 8 moveto 
1 -1 scale
(6) t 
GR
GR
GS
[0.75 0 0 0.75 53.5 87.9] CT
0.149 GC
/Helvetica 20 F
GS
[1 0 0 1 0 0] CT
-28 8 moveto 
1 -1 scale
(6.5) t 
GR
GR
GS
[0.75 0 0 0.75 53.5 27.75] CT
0.149 GC
/Helvetica 20 F
GS
[1 0 0 1 0 0] CT
-12 8 moveto 
1 -1 scale
(7) t 
GR
GR
GS
[0 -0.75 0.75 0 29.5 178.12489] CT
0.149 GC
/Helvetica 22 F
GS
[1 0 0 1 0 0] CT
-90 -5 moveto 
1 -1 scale
(standard deviation) t 
GR
GR
GS
[0.75 0 0 0.75 232.87523 24.65627] CT
/Helvetica-Bold 22 F
GS
[1 0 0 1 0 0] CT
-211 -5 moveto 
1 -1 scale
(Standard Deviation for different features) t 
GR
GR
GS
[0.75 0 0 0.75 58.5 177.96002] CT
1 0.502 0.502 RC
10.0 ML
1.333 LW
N
0 -4 M
0 4 L
-4 0 M
4 0 L
-2.828 -2.828 M
2.828 2.828 L
-2.828 2.828 M
2.828 -2.828 L
S
GR
GS
[0.75 0 0 0.75 60.21798 156.47062] CT
1 0.502 0.502 RC
10.0 ML
1.333 LW
N
0 -4 M
0 4 L
-4 0 M
4 0 L
-2.828 -2.828 M
2.828 2.828 L
-2.828 2.828 M
2.828 -2.828 L
S
GR
GS
[0.75 0 0 0.75 61.93596 147.72079] CT
1 0.502 0.502 RC
10.0 ML
1.333 LW
N
0 -4 M
0 4 L
-4 0 M
4 0 L
-2.828 -2.828 M
2.828 2.828 L
-2.828 2.828 M
2.828 -2.828 L
S
GR
GS
[0.75 0 0 0.75 63.65394 177.19216] CT
1 0.502 0.502 RC
10.0 ML
1.333 LW
N
0 -4 M
0 4 L
-4 0 M
4 0 L
-2.828 -2.828 M
2.828 2.828 L
-2.828 2.828 M
2.828 -2.828 L
S
GR
GS
[0.75 0 0 0.75 65.37192 197.86963] CT
1 0.502 0.502 RC
10.0 ML
1.333 LW
N
0 -4 M
0 4 L
-4 0 M
4 0 L
-2.828 -2.828 M
2.828 2.828 L
-2.828 2.828 M
2.828 -2.828 L
S
GR
GS
[0.75 0 0 0.75 67.0899 148.68163] CT
1 0.502 0.502 RC
10.0 ML
1.333 LW
N
0 -4 M
0 4 L
-4 0 M
4 0 L
-2.828 -2.828 M
2.828 2.828 L
-2.828 2.828 M
2.828 -2.828 L
S
GR
GS
[0.75 0 0 0.75 68.80788 146.74464] CT
1 0.502 0.502 RC
10.0 ML
1.333 LW
N
0 -4 M
0 4 L
-4 0 M
4 0 L
-2.828 -2.828 M
2.828 2.828 L
-2.828 2.828 M
2.828 -2.828 L
S
GR
GS
[0.75 0 0 0.75 70.52586 137.91525] CT
1 0.502 0.502 RC
10.0 ML
1.333 LW
N
0 -4 M
0 4 L
-4 0 M
4 0 L
-2.828 -2.828 M
2.828 2.828 L
-2.828 2.828 M
2.828 -2.828 L
S
GR
GS
[0.75 0 0 0.75 72.24384 161.22319] CT
1 0.502 0.502 RC
10.0 ML
1.333 LW
N
0 -4 M
0 4 L
-4 0 M
4 0 L
-2.828 -2.828 M
2.828 2.828 L
-2.828 2.828 M
2.828 -2.828 L
S
GR
GS
[0.75 0 0 0.75 73.96182 98.56233] CT
1 0.502 0.502 RC
10.0 ML
1.333 LW
N
0 -4 M
0 4 L
-4 0 M
4 0 L
-2.828 -2.828 M
2.828 2.828 L
-2.828 2.828 M
2.828 -2.828 L
S
GR
GS
[0.75 0 0 0.75 75.6798 174.13818] CT
1 0.502 0.502 RC
10.0 ML
1.333 LW
N
0 -4 M
0 4 L
-4 0 M
4 0 L
-2.828 -2.828 M
2.828 2.828 L
-2.828 2.828 M
2.828 -2.828 L
S
GR
GS
[0.75 0 0 0.75 77.39778 116.06044] CT
1 0.502 0.502 RC
10.0 ML
1.333 LW
N
0 -4 M
0 4 L
-4 0 M
4 0 L
-2.828 -2.828 M
2.828 2.828 L
-2.828 2.828 M
2.828 -2.828 L
S
GR
GS
[0.75 0 0 0.75 79.11576 205.05929] CT
1 0.502 0.502 RC
10.0 ML
1.333 LW
N
0 -4 M
0 4 L
-4 0 M
4 0 L
-2.828 -2.828 M
2.828 2.828 L
-2.828 2.828 M
2.828 -2.828 L
S
GR
GS
[0.75 0 0 0.75 80.83375 232.28297] CT
1 0.502 0.502 RC
10.0 ML
1.333 LW
N
0 -4 M
0 4 L
-4 0 M
4 0 L
-2.828 -2.828 M
2.828 2.828 L
-2.828 2.828 M
2.828 -2.828 L
S
GR
GS
[0.75 0 0 0.75 82.55172 218.99524] CT
1 0.502 0.502 RC
10.0 ML
1.333 LW
N
0 -4 M
0 4 L
-4 0 M
4 0 L
-2.828 -2.828 M
2.828 2.828 L
-2.828 2.828 M
2.828 -2.828 L
S
GR
GS
[0.75 0 0 0.75 84.2697 193.98395] CT
1 0.502 0.502 RC
10.0 ML
1.333 LW
N
0 -4 M
0 4 L
-4 0 M
4 0 L
-2.828 -2.828 M
2.828 2.828 L
-2.828 2.828 M
2.828 -2.828 L
S
GR
GS
[0.75 0 0 0.75 85.98768 151.51321] CT
1 0.502 0.502 RC
10.0 ML
1.333 LW
N
0 -4 M
0 4 L
-4 0 M
4 0 L
-2.828 -2.828 M
2.828 2.828 L
-2.828 2.828 M
2.828 -2.828 L
S
GR
GS
[0.75 0 0 0.75 87.70567 163.18433] CT
1 0.502 0.502 RC
10.0 ML
1.333 LW
N
0 -4 M
0 4 L
-4 0 M
4 0 L
-2.828 -2.828 M
2.828 2.828 L
-2.828 2.828 M
2.828 -2.828 L
S
GR
GS
[0.75 0 0 0.75 89.42365 191.65923] CT
1 0.502 0.502 RC
10.0 ML
1.333 LW
N
0 -4 M
0 4 L
-4 0 M
4 0 L
-2.828 -2.828 M
2.828 2.828 L
-2.828 2.828 M
2.828 -2.828 L
S
GR
GS
[0.75 0 0 0.75 91.14163 160.79583] CT
1 0.502 0.502 RC
10.0 ML
1.333 LW
N
0 -4 M
0 4 L
-4 0 M
4 0 L
-2.828 -2.828 M
2.828 2.828 L
-2.828 2.828 M
2.828 -2.828 L
S
GR
GS
[0.75 0 0 0.75 92.8596 217.04935] CT
1 0.502 0.502 RC
10.0 ML
1.333 LW
N
0 -4 M
0 4 L
-4 0 M
4 0 L
-2.828 -2.828 M
2.828 2.828 L
-2.828 2.828 M
2.828 -2.828 L
S
GR
GS
[0.75 0 0 0.75 94.57759 129.53351] CT
1 0.502 0.502 RC
10.0 ML
1.333 LW
N
0 -4 M
0 4 L
-4 0 M
4 0 L
-2.828 -2.828 M
2.828 2.828 L
-2.828 2.828 M
2.828 -2.828 L
S
GR
GS
[0.75 0 0 0.75 96.29557 218.30946] CT
1 0.502 0.502 RC
10.0 ML
1.333 LW
N
0 -4 M
0 4 L
-4 0 M
4 0 L
-2.828 -2.828 M
2.828 2.828 L
-2.828 2.828 M
2.828 -2.828 L
S
GR
GS
[0.75 0 0 0.75 98.01354 230.69316] CT
1 0.502 0.502 RC
10.0 ML
1.333 LW
N
0 -4 M
0 4 L
-4 0 M
4 0 L
-2.828 -2.828 M
2.828 2.828 L
-2.828 2.828 M
2.828 -2.828 L
S
GR
GS
[0.75 0 0 0.75 99.73153 164.29311] CT
1 0.502 0.502 RC
10.0 ML
1.333 LW
N
0 -4 M
0 4 L
-4 0 M
4 0 L
-2.828 -2.828 M
2.828 2.828 L
-2.828 2.828 M
2.828 -2.828 L
S
GR
GS
[0.75 0 0 0.75 101.4495 160.06765] CT
1 0.502 0.502 RC
10.0 ML
1.333 LW
N
0 -4 M
0 4 L
-4 0 M
4 0 L
-2.828 -2.828 M
2.828 2.828 L
-2.828 2.828 M
2.828 -2.828 L
S
GR
GS
[0.75 0 0 0.75 103.16749 197.3096] CT
1 0.502 0.502 RC
10.0 ML
1.333 LW
N
0 -4 M
0 4 L
-4 0 M
4 0 L
-2.828 -2.828 M
2.828 2.828 L
-2.828 2.828 M
2.828 -2.828 L
S
GR
GS
[0.75 0 0 0.75 104.88547 167.15262] CT
1 0.502 0.502 RC
10.0 ML
1.333 LW
N
0 -4 M
0 4 L
-4 0 M
4 0 L
-2.828 -2.828 M
2.828 2.828 L
-2.828 2.828 M
2.828 -2.828 L
S
GR
GS
[0.75 0 0 0.75 106.60344 249.66488] CT
1 0.502 0.502 RC
10.0 ML
1.333 LW
N
0 -4 M
0 4 L
-4 0 M
4 0 L
-2.828 -2.828 M
2.828 2.828 L
-2.828 2.828 M
2.828 -2.828 L
S
GR
GS
[0.75 0 0 0.75 108.32143 187.87112] CT
1 0.502 0.502 RC
10.0 ML
1.333 LW
N
0 -4 M
0 4 L
-4 0 M
4 0 L
-2.828 -2.828 M
2.828 2.828 L
-2.828 2.828 M
2.828 -2.828 L
S
GR
GS
[0.75 0 0 0.75 110.03941 174.25227] CT
1 0.502 0.502 RC
10.0 ML
1.333 LW
N
0 -4 M
0 4 L
-4 0 M
4 0 L
-2.828 -2.828 M
2.828 2.828 L
-2.828 2.828 M
2.828 -2.828 L
S
GR
GS
[0.75 0 0 0.75 111.75739 200.71703] CT
1 0.502 0.502 RC
10.0 ML
1.333 LW
N
0 -4 M
0 4 L
-4 0 M
4 0 L
-2.828 -2.828 M
2.828 2.828 L
-2.828 2.828 M
2.828 -2.828 L
S
GR
GS
[0.75 0 0 0.75 113.47537 222.73483] CT
1 0.502 0.502 RC
10.0 ML
1.333 LW
N
0 -4 M
0 4 L
-4 0 M
4 0 L
-2.828 -2.828 M
2.828 2.828 L
-2.828 2.828 M
2.828 -2.828 L
S
GR
GS
[0.75 0 0 0.75 115.19334 199.26219] CT
1 0.502 0.502 RC
10.0 ML
1.333 LW
N
0 -4 M
0 4 L
-4 0 M
4 0 L
-2.828 -2.828 M
2.828 2.828 L
-2.828 2.828 M
2.828 -2.828 L
S
GR
GS
[0.75 0 0 0.75 116.91133 147.77288] CT
1 0.502 0.502 RC
10.0 ML
1.333 LW
N
0 -4 M
0 4 L
-4 0 M
4 0 L
-2.828 -2.828 M
2.828 2.828 L
-2.828 2.828 M
2.828 -2.828 L
S
GR
GS
[0.75 0 0 0.75 118.62931 200.09074] CT
1 0.502 0.502 RC
10.0 ML
1.333 LW
N
0 -4 M
0 4 L
-4 0 M
4 0 L
-2.828 -2.828 M
2.828 2.828 L
-2.828 2.828 M
2.828 -2.828 L
S
GR
GS
[0.75 0 0 0.75 120.34729 122.33497] CT
1 0.502 0.502 RC
10.0 ML
1.333 LW
N
0 -4 M
0 4 L
-4 0 M
4 0 L
-2.828 -2.828 M
2.828 2.828 L
-2.828 2.828 M
2.828 -2.828 L
S
GR
GS
[0.75 0 0 0.75 122.06527 126.9805] CT
1 0.502 0.502 RC
10.0 ML
1.333 LW
N
0 -4 M
0 4 L
-4 0 M
4 0 L
-2.828 -2.828 M
2.828 2.828 L
-2.828 2.828 M
2.828 -2.828 L
S
GR
GS
[0.75 0 0 0.75 123.78326 120.63385] CT
1 0.502 0.502 RC
10.0 ML
1.333 LW
N
0 -4 M
0 4 L
-4 0 M
4 0 L
-2.828 -2.828 M
2.828 2.828 L
-2.828 2.828 M
2.828 -2.828 L
S
GR
GS
[0.75 0 0 0.75 125.50123 207.27599] CT
1 0.502 0.502 RC
10.0 ML
1.333 LW
N
0 -4 M
0 4 L
-4 0 M
4 0 L
-2.828 -2.828 M
2.828 2.828 L
-2.828 2.828 M
2.828 -2.828 L
S
GR
GS
[0.75 0 0 0.75 127.21921 221.09468] CT
1 0.502 0.502 RC
10.0 ML
1.333 LW
N
0 -4 M
0 4 L
-4 0 M
4 0 L
-2.828 -2.828 M
2.828 2.828 L
-2.828 2.828 M
2.828 -2.828 L
S
GR
GS
[0.75 0 0 0.75 128.93719 145.95486] CT
1 0.502 0.502 RC
10.0 ML
1.333 LW
N
0 -4 M
0 4 L
-4 0 M
4 0 L
-2.828 -2.828 M
2.828 2.828 L
-2.828 2.828 M
2.828 -2.828 L
S
GR
GS
[0.75 0 0 0.75 130.65517 180.44719] CT
1 0.502 0.502 RC
10.0 ML
1.333 LW
N
0 -4 M
0 4 L
-4 0 M
4 0 L
-2.828 -2.828 M
2.828 2.828 L
-2.828 2.828 M
2.828 -2.828 L
S
GR
GS
[0.75 0 0 0.75 132.37316 199.92032] CT
1 0.502 0.502 RC
10.0 ML
1.333 LW
N
0 -4 M
0 4 L
-4 0 M
4 0 L
-2.828 -2.828 M
2.828 2.828 L
-2.828 2.828 M
2.828 -2.828 L
S
GR
GS
[0.75 0 0 0.75 134.09113 125.17647] CT
1 0.502 0.502 RC
10.0 ML
1.333 LW
N
0 -4 M
0 4 L
-4 0 M
4 0 L
-2.828 -2.828 M
2.828 2.828 L
-2.828 2.828 M
2.828 -2.828 L
S
GR
GS
[0.75 0 0 0.75 135.80911 163.28614] CT
1 0.502 0.502 RC
10.0 ML
1.333 LW
N
0 -4 M
0 4 L
-4 0 M
4 0 L
-2.828 -2.828 M
2.828 2.828 L
-2.828 2.828 M
2.828 -2.828 L
S
GR
GS
[0.75 0 0 0.75 137.5271 210.12472] CT
1 0.502 0.502 RC
10.0 ML
1.333 LW
N
0 -4 M
0 4 L
-4 0 M
4 0 L
-2.828 -2.828 M
2.828 2.828 L
-2.828 2.828 M
2.828 -2.828 L
S
GR
GS
[0.75 0 0 0.75 139.24507 218.98135] CT
1 0.502 0.502 RC
10.0 ML
1.333 LW
N
0 -4 M
0 4 L
-4 0 M
4 0 L
-2.828 -2.828 M
2.828 2.828 L
-2.828 2.828 M
2.828 -2.828 L
S
GR
GS
[0.75 0 0 0.75 140.96306 176.16799] CT
1 0.502 0.502 RC
10.0 ML
1.333 LW
N
0 -4 M
0 4 L
-4 0 M
4 0 L
-2.828 -2.828 M
2.828 2.828 L
-2.828 2.828 M
2.828 -2.828 L
S
GR
GS
[0.75 0 0 0.75 142.68103 146.96255] CT
1 0.502 0.502 RC
10.0 ML
1.333 LW
N
0 -4 M
0 4 L
-4 0 M
4 0 L
-2.828 -2.828 M
2.828 2.828 L
-2.828 2.828 M
2.828 -2.828 L
S
GR
GS
[0.75 0 0 0.75 144.39901 174.36534] CT
1 0.502 0.502 RC
10.0 ML
1.333 LW
N
0 -4 M
0 4 L
-4 0 M
4 0 L
-2.828 -2.828 M
2.828 2.828 L
-2.828 2.828 M
2.828 -2.828 L
S
GR
GS
[0.75 0 0 0.75 146.117 207.66467] CT
1 0.502 0.502 RC
10.0 ML
1.333 LW
N
0 -4 M
0 4 L
-4 0 M
4 0 L
-2.828 -2.828 M
2.828 2.828 L
-2.828 2.828 M
2.828 -2.828 L
S
GR
GS
[0.75 0 0 0.75 147.83497 173.37157] CT
1 0.502 0.502 RC
10.0 ML
1.333 LW
N
0 -4 M
0 4 L
-4 0 M
4 0 L
-2.828 -2.828 M
2.828 2.828 L
-2.828 2.828 M
2.828 -2.828 L
S
GR
GS
[0.75 0 0 0.75 149.55296 175.51559] CT
1 0.502 0.502 RC
10.0 ML
1.333 LW
N
0 -4 M
0 4 L
-4 0 M
4 0 L
-2.828 -2.828 M
2.828 2.828 L
-2.828 2.828 M
2.828 -2.828 L
S
GR
GS
[0.75 0 0 0.75 151.27094 179.08498] CT
1 0.502 0.502 RC
10.0 ML
1.333 LW
N
0 -4 M
0 4 L
-4 0 M
4 0 L
-2.828 -2.828 M
2.828 2.828 L
-2.828 2.828 M
2.828 -2.828 L
S
GR
GS
[0.75 0 0 0.75 152.98891 181.86877] CT
1 0.502 0.502 RC
10.0 ML
1.333 LW
N
0 -4 M
0 4 L
-4 0 M
4 0 L
-2.828 -2.828 M
2.828 2.828 L
-2.828 2.828 M
2.828 -2.828 L
S
GR
GS
[0.75 0 0 0.75 154.7069 228.3203] CT
1 0.502 0.502 RC
10.0 ML
1.333 LW
N
0 -4 M
0 4 L
-4 0 M
4 0 L
-2.828 -2.828 M
2.828 2.828 L
-2.828 2.828 M
2.828 -2.828 L
S
GR
GS
[0.75 0 0 0.75 156.42487 99.55506] CT
1 0.502 0.502 RC
10.0 ML
1.333 LW
N
0 -4 M
0 4 L
-4 0 M
4 0 L
-2.828 -2.828 M
2.828 2.828 L
-2.828 2.828 M
2.828 -2.828 L
S
GR
GS
[0.75 0 0 0.75 158.14286 208.73561] CT
1 0.502 0.502 RC
10.0 ML
1.333 LW
N
0 -4 M
0 4 L
-4 0 M
4 0 L
-2.828 -2.828 M
2.828 2.828 L
-2.828 2.828 M
2.828 -2.828 L
S
GR
GS
[0.75 0 0 0.75 159.86084 215.29598] CT
1 0.502 0.502 RC
10.0 ML
1.333 LW
N
0 -4 M
0 4 L
-4 0 M
4 0 L
-2.828 -2.828 M
2.828 2.828 L
-2.828 2.828 M
2.828 -2.828 L
S
GR
GS
[0.75 0 0 0.75 161.57882 179.13936] CT
1 0.502 0.502 RC
10.0 ML
1.333 LW
N
0 -4 M
0 4 L
-4 0 M
4 0 L
-2.828 -2.828 M
2.828 2.828 L
-2.828 2.828 M
2.828 -2.828 L
S
GR
GS
[0.75 0 0 0.75 163.2968 251.7179] CT
1 0.502 0.502 RC
10.0 ML
1.333 LW
N
0 -4 M
0 4 L
-4 0 M
4 0 L
-2.828 -2.828 M
2.828 2.828 L
-2.828 2.828 M
2.828 -2.828 L
S
GR
GS
[0.75 0 0 0.75 165.01477 145.71002] CT
1 0.502 0.502 RC
10.0 ML
1.333 LW
N
0 -4 M
0 4 L
-4 0 M
4 0 L
-2.828 -2.828 M
2.828 2.828 L
-2.828 2.828 M
2.828 -2.828 L
S
GR
GS
[0.75 0 0 0.75 166.73276 178.46964] CT
1 0.502 0.502 RC
10.0 ML
1.333 LW
N
0 -4 M
0 4 L
-4 0 M
4 0 L
-2.828 -2.828 M
2.828 2.828 L
-2.828 2.828 M
2.828 -2.828 L
S
GR
GS
[0.75 0 0 0.75 168.45074 210.54169] CT
1 0.502 0.502 RC
10.0 ML
1.333 LW
N
0 -4 M
0 4 L
-4 0 M
4 0 L
-2.828 -2.828 M
2.828 2.828 L
-2.828 2.828 M
2.828 -2.828 L
S
GR
GS
[0.75 0 0 0.75 170.16872 236.46025] CT
1 0.502 0.502 RC
10.0 ML
1.333 LW
N
0 -4 M
0 4 L
-4 0 M
4 0 L
-2.828 -2.828 M
2.828 2.828 L
-2.828 2.828 M
2.828 -2.828 L
S
GR
GS
[0.75 0 0 0.75 171.8867 189.62254] CT
1 0.502 0.502 RC
10.0 ML
1.333 LW
N
0 -4 M
0 4 L
-4 0 M
4 0 L
-2.828 -2.828 M
2.828 2.828 L
-2.828 2.828 M
2.828 -2.828 L
S
GR
GS
[0.75 0 0 0.75 173.60468 221.9832] CT
1 0.502 0.502 RC
10.0 ML
1.333 LW
N
0 -4 M
0 4 L
-4 0 M
4 0 L
-2.828 -2.828 M
2.828 2.828 L
-2.828 2.828 M
2.828 -2.828 L
S
GR
GS
[0.75 0 0 0.75 175.32266 163.57171] CT
1 0.502 0.502 RC
10.0 ML
1.333 LW
N
0 -4 M
0 4 L
-4 0 M
4 0 L
-2.828 -2.828 M
2.828 2.828 L
-2.828 2.828 M
2.828 -2.828 L
S
GR
GS
[0.75 0 0 0.75 177.04064 201.09254] CT
1 0.502 0.502 RC
10.0 ML
1.333 LW
N
0 -4 M
0 4 L
-4 0 M
4 0 L
-2.828 -2.828 M
2.828 2.828 L
-2.828 2.828 M
2.828 -2.828 L
S
GR
GS
[0.75 0 0 0.75 178.75863 229.91364] CT
1 0.502 0.502 RC
10.0 ML
1.333 LW
N
0 -4 M
0 4 L
-4 0 M
4 0 L
-2.828 -2.828 M
2.828 2.828 L
-2.828 2.828 M
2.828 -2.828 L
S
GR
GS
[0.75 0 0 0.75 180.4766 188.36811] CT
1 0.502 0.502 RC
10.0 ML
1.333 LW
N
0 -4 M
0 4 L
-4 0 M
4 0 L
-2.828 -2.828 M
2.828 2.828 L
-2.828 2.828 M
2.828 -2.828 L
S
GR
GS
[0.75 0 0 0.75 182.19458 214.86385] CT
1 0.502 0.502 RC
10.0 ML
1.333 LW
N
0 -4 M
0 4 L
-4 0 M
4 0 L
-2.828 -2.828 M
2.828 2.828 L
-2.828 2.828 M
2.828 -2.828 L
S
GR
GS
[0.75 0 0 0.75 183.91256 163.79313] CT
1 0.502 0.502 RC
10.0 ML
1.333 LW
N
0 -4 M
0 4 L
-4 0 M
4 0 L
-2.828 -2.828 M
2.828 2.828 L
-2.828 2.828 M
2.828 -2.828 L
S
GR
GS
[0.75 0 0 0.75 185.63054 137.39691] CT
1 0.502 0.502 RC
10.0 ML
1.333 LW
N
0 -4 M
0 4 L
-4 0 M
4 0 L
-2.828 -2.828 M
2.828 2.828 L
-2.828 2.828 M
2.828 -2.828 L
S
GR
GS
[0.75 0 0 0.75 187.34853 217.5339] CT
1 0.502 0.502 RC
10.0 ML
1.333 LW
N
0 -4 M
0 4 L
-4 0 M
4 0 L
-2.828 -2.828 M
2.828 2.828 L
-2.828 2.828 M
2.828 -2.828 L
S
GR
GS
[0.75 0 0 0.75 189.0665 179.60561] CT
1 0.502 0.502 RC
10.0 ML
1.333 LW
N
0 -4 M
0 4 L
-4 0 M
4 0 L
-2.828 -2.828 M
2.828 2.828 L
-2.828 2.828 M
2.828 -2.828 L
S
GR
GS
[0.75 0 0 0.75 190.78448 169.95948] CT
1 0.502 0.502 RC
10.0 ML
1.333 LW
N
0 -4 M
0 4 L
-4 0 M
4 0 L
-2.828 -2.828 M
2.828 2.828 L
-2.828 2.828 M
2.828 -2.828 L
S
GR
GS
[0.75 0 0 0.75 192.50246 199.71348] CT
1 0.502 0.502 RC
10.0 ML
1.333 LW
N
0 -4 M
0 4 L
-4 0 M
4 0 L
-2.828 -2.828 M
2.828 2.828 L
-2.828 2.828 M
2.828 -2.828 L
S
GR
GS
[0.75 0 0 0.75 194.22045 140.78727] CT
1 0.502 0.502 RC
10.0 ML
1.333 LW
N
0 -4 M
0 4 L
-4 0 M
4 0 L
-2.828 -2.828 M
2.828 2.828 L
-2.828 2.828 M
2.828 -2.828 L
S
GR
GS
[0.75 0 0 0.75 195.93842 182.2998] CT
1 0.502 0.502 RC
10.0 ML
1.333 LW
N
0 -4 M
0 4 L
-4 0 M
4 0 L
-2.828 -2.828 M
2.828 2.828 L
-2.828 2.828 M
2.828 -2.828 L
S
GR
GS
[0.75 0 0 0.75 197.6564 206.6236] CT
1 0.502 0.502 RC
10.0 ML
1.333 LW
N
0 -4 M
0 4 L
-4 0 M
4 0 L
-2.828 -2.828 M
2.828 2.828 L
-2.828 2.828 M
2.828 -2.828 L
S
GR
GS
[0.75 0 0 0.75 199.37439 252.35074] CT
1 0.502 0.502 RC
10.0 ML
1.333 LW
N
0 -4 M
0 4 L
-4 0 M
4 0 L
-2.828 -2.828 M
2.828 2.828 L
-2.828 2.828 M
2.828 -2.828 L
S
GR
GS
[0.75 0 0 0.75 201.09235 165.63634] CT
1 0.502 0.502 RC
10.0 ML
1.333 LW
N
0 -4 M
0 4 L
-4 0 M
4 0 L
-2.828 -2.828 M
2.828 2.828 L
-2.828 2.828 M
2.828 -2.828 L
S
GR
GS
[0.75 0 0 0.75 202.81034 198.68248] CT
1 0.502 0.502 RC
10.0 ML
1.333 LW
N
0 -4 M
0 4 L
-4 0 M
4 0 L
-2.828 -2.828 M
2.828 2.828 L
-2.828 2.828 M
2.828 -2.828 L
S
GR
GS
[0.75 0 0 0.75 204.52833 130.3814] CT
1 0.502 0.502 RC
10.0 ML
1.333 LW
N
0 -4 M
0 4 L
-4 0 M
4 0 L
-2.828 -2.828 M
2.828 2.828 L
-2.828 2.828 M
2.828 -2.828 L
S
GR
GS
[0.75 0 0 0.75 206.24632 174.60374] CT
1 0.502 0.502 RC
10.0 ML
1.333 LW
N
0 -4 M
0 4 L
-4 0 M
4 0 L
-2.828 -2.828 M
2.828 2.828 L
-2.828 2.828 M
2.828 -2.828 L
S
GR
GS
[0.75 0 0 0.75 207.96428 215.42395] CT
1 0.502 0.502 RC
10.0 ML
1.333 LW
N
0 -4 M
0 4 L
-4 0 M
4 0 L
-2.828 -2.828 M
2.828 2.828 L
-2.828 2.828 M
2.828 -2.828 L
S
GR
GS
[0.75 0 0 0.75 209.68227 193.06274] CT
1 0.502 0.502 RC
10.0 ML
1.333 LW
N
0 -4 M
0 4 L
-4 0 M
4 0 L
-2.828 -2.828 M
2.828 2.828 L
-2.828 2.828 M
2.828 -2.828 L
S
GR
GS
[0.75 0 0 0.75 211.40025 218.80795] CT
1 0.502 0.502 RC
10.0 ML
1.333 LW
N
0 -4 M
0 4 L
-4 0 M
4 0 L
-2.828 -2.828 M
2.828 2.828 L
-2.828 2.828 M
2.828 -2.828 L
S
GR
GS
[0.75 0 0 0.75 213.11822 110.79865] CT
1 0.502 0.502 RC
10.0 ML
1.333 LW
N
0 -4 M
0 4 L
-4 0 M
4 0 L
-2.828 -2.828 M
2.828 2.828 L
-2.828 2.828 M
2.828 -2.828 L
S
GR
GS
[0.75 0 0 0.75 214.8362 170.84735] CT
1 0.502 0.502 RC
10.0 ML
1.333 LW
N
0 -4 M
0 4 L
-4 0 M
4 0 L
-2.828 -2.828 M
2.828 2.828 L
-2.828 2.828 M
2.828 -2.828 L
S
GR
GS
[0.75 0 0 0.75 216.55419 189.13759] CT
1 0.502 0.502 RC
10.0 ML
1.333 LW
N
0 -4 M
0 4 L
-4 0 M
4 0 L
-2.828 -2.828 M
2.828 2.828 L
-2.828 2.828 M
2.828 -2.828 L
S
GR
GS
[0.75 0 0 0.75 218.27218 208.42744] CT
1 0.502 0.502 RC
10.0 ML
1.333 LW
N
0 -4 M
0 4 L
-4 0 M
4 0 L
-2.828 -2.828 M
2.828 2.828 L
-2.828 2.828 M
2.828 -2.828 L
S
GR
GS
[0.75 0 0 0.75 219.99014 161.09085] CT
1 0.502 0.502 RC
10.0 ML
1.333 LW
N
0 -4 M
0 4 L
-4 0 M
4 0 L
-2.828 -2.828 M
2.828 2.828 L
-2.828 2.828 M
2.828 -2.828 L
S
GR
GS
[0.75 0 0 0.75 221.70813 136.57019] CT
1 0.502 0.502 RC
10.0 ML
1.333 LW
N
0 -4 M
0 4 L
-4 0 M
4 0 L
-2.828 -2.828 M
2.828 2.828 L
-2.828 2.828 M
2.828 -2.828 L
S
GR
GS
[0.75 0 0 0.75 223.42612 235.65555] CT
1 0.502 0.502 RC
10.0 ML
1.333 LW
N
0 -4 M
0 4 L
-4 0 M
4 0 L
-2.828 -2.828 M
2.828 2.828 L
-2.828 2.828 M
2.828 -2.828 L
S
GR
GS
[0.75 0 0 0.75 225.14408 188.41808] CT
1 0.502 0.502 RC
10.0 ML
1.333 LW
N
0 -4 M
0 4 L
-4 0 M
4 0 L
-2.828 -2.828 M
2.828 2.828 L
-2.828 2.828 M
2.828 -2.828 L
S
GR
GS
[0.75 0 0 0.75 226.86207 240.77467] CT
1 0.502 0.502 RC
10.0 ML
1.333 LW
N
0 -4 M
0 4 L
-4 0 M
4 0 L
-2.828 -2.828 M
2.828 2.828 L
-2.828 2.828 M
2.828 -2.828 L
S
GR
GS
[0.75 0 0 0.75 228.58006 214.7539] CT
1 0.502 0.502 RC
10.0 ML
1.333 LW
N
0 -4 M
0 4 L
-4 0 M
4 0 L
-2.828 -2.828 M
2.828 2.828 L
-2.828 2.828 M
2.828 -2.828 L
S
GR
GS
[0.75 0 0 0.75 230.29802 132.18118] CT
1 0.502 0.502 RC
10.0 ML
1.333 LW
N
0 -4 M
0 4 L
-4 0 M
4 0 L
-2.828 -2.828 M
2.828 2.828 L
-2.828 2.828 M
2.828 -2.828 L
S
GR
GS
[0.75 0 0 0.75 232.01601 188.68918] CT
1 0.502 0.502 RC
10.0 ML
1.333 LW
N
0 -4 M
0 4 L
-4 0 M
4 0 L
-2.828 -2.828 M
2.828 2.828 L
-2.828 2.828 M
2.828 -2.828 L
S
GR
GS
[0.75 0 0 0.75 233.73399 254.65663] CT
1 0.502 0.502 RC
10.0 ML
1.333 LW
N
0 -4 M
0 4 L
-4 0 M
4 0 L
-2.828 -2.828 M
2.828 2.828 L
-2.828 2.828 M
2.828 -2.828 L
S
GR
GS
[0.75 0 0 0.75 235.45198 214.38844] CT
1 0.502 0.502 RC
10.0 ML
1.333 LW
N
0 -4 M
0 4 L
-4 0 M
4 0 L
-2.828 -2.828 M
2.828 2.828 L
-2.828 2.828 M
2.828 -2.828 L
S
GR
GS
[0.75 0 0 0.75 237.16994 175.10005] CT
1 0.502 0.502 RC
10.0 ML
1.333 LW
N
0 -4 M
0 4 L
-4 0 M
4 0 L
-2.828 -2.828 M
2.828 2.828 L
-2.828 2.828 M
2.828 -2.828 L
S
GR
GS
[0.75 0 0 0.75 238.88793 241.17318] CT
1 0.502 0.502 RC
10.0 ML
1.333 LW
N
0 -4 M
0 4 L
-4 0 M
4 0 L
-2.828 -2.828 M
2.828 2.828 L
-2.828 2.828 M
2.828 -2.828 L
S
GR
GS
[0.75 0 0 0.75 240.60592 196.69489] CT
1 0.502 0.502 RC
10.0 ML
1.333 LW
N
0 -4 M
0 4 L
-4 0 M
4 0 L
-2.828 -2.828 M
2.828 2.828 L
-2.828 2.828 M
2.828 -2.828 L
S
GR
GS
[0.75 0 0 0.75 242.32388 208.36963] CT
1 0.502 0.502 RC
10.0 ML
1.333 LW
N
0 -4 M
0 4 L
-4 0 M
4 0 L
-2.828 -2.828 M
2.828 2.828 L
-2.828 2.828 M
2.828 -2.828 L
S
GR
GS
[0.75 0 0 0.75 244.04187 190.78788] CT
1 0.502 0.502 RC
10.0 ML
1.333 LW
N
0 -4 M
0 4 L
-4 0 M
4 0 L
-2.828 -2.828 M
2.828 2.828 L
-2.828 2.828 M
2.828 -2.828 L
S
GR
GS
[0.75 0 0 0.75 245.75986 170.26023] CT
1 0.502 0.502 RC
10.0 ML
1.333 LW
N
0 -4 M
0 4 L
-4 0 M
4 0 L
-2.828 -2.828 M
2.828 2.828 L
-2.828 2.828 M
2.828 -2.828 L
S
GR
GS
[0.75 0 0 0.75 247.47782 169.04481] CT
1 0.502 0.502 RC
10.0 ML
1.333 LW
N
0 -4 M
0 4 L
-4 0 M
4 0 L
-2.828 -2.828 M
2.828 2.828 L
-2.828 2.828 M
2.828 -2.828 L
S
GR
GS
[0.75 0 0 0.75 249.19581 217.53447] CT
1 0.502 0.502 RC
10.0 ML
1.333 LW
N
0 -4 M
0 4 L
-4 0 M
4 0 L
-2.828 -2.828 M
2.828 2.828 L
-2.828 2.828 M
2.828 -2.828 L
S
GR
GS
[0.75 0 0 0.75 250.9138 239.97858] CT
1 0.502 0.502 RC
10.0 ML
1.333 LW
N
0 -4 M
0 4 L
-4 0 M
4 0 L
-2.828 -2.828 M
2.828 2.828 L
-2.828 2.828 M
2.828 -2.828 L
S
GR
GS
[0.75 0 0 0.75 252.63178 183.094] CT
1 0.502 0.502 RC
10.0 ML
1.333 LW
N
0 -4 M
0 4 L
-4 0 M
4 0 L
-2.828 -2.828 M
2.828 2.828 L
-2.828 2.828 M
2.828 -2.828 L
S
GR
GS
[0.75 0 0 0.75 254.34975 200.64059] CT
1 0.502 0.502 RC
10.0 ML
1.333 LW
N
0 -4 M
0 4 L
-4 0 M
4 0 L
-2.828 -2.828 M
2.828 2.828 L
-2.828 2.828 M
2.828 -2.828 L
S
GR
GS
[0.75 0 0 0.75 256.06773 208.80359] CT
1 0.502 0.502 RC
10.0 ML
1.333 LW
N
0 -4 M
0 4 L
-4 0 M
4 0 L
-2.828 -2.828 M
2.828 2.828 L
-2.828 2.828 M
2.828 -2.828 L
S
GR
GS
[0.75 0 0 0.75 257.78572 191.26118] CT
1 0.502 0.502 RC
10.0 ML
1.333 LW
N
0 -4 M
0 4 L
-4 0 M
4 0 L
-2.828 -2.828 M
2.828 2.828 L
-2.828 2.828 M
2.828 -2.828 L
S
GR
GS
[0.75 0 0 0.75 259.50368 160.62024] CT
1 0.502 0.502 RC
10.0 ML
1.333 LW
N
0 -4 M
0 4 L
-4 0 M
4 0 L
-2.828 -2.828 M
2.828 2.828 L
-2.828 2.828 M
2.828 -2.828 L
S
GR
GS
[0.75 0 0 0.75 261.22167 142.81185] CT
1 0.502 0.502 RC
10.0 ML
1.333 LW
N
0 -4 M
0 4 L
-4 0 M
4 0 L
-2.828 -2.828 M
2.828 2.828 L
-2.828 2.828 M
2.828 -2.828 L
S
GR
GS
[0.75 0 0 0.75 262.93966 205.85774] CT
1 0.502 0.502 RC
10.0 ML
1.333 LW
N
0 -4 M
0 4 L
-4 0 M
4 0 L
-2.828 -2.828 M
2.828 2.828 L
-2.828 2.828 M
2.828 -2.828 L
S
GR
GS
[0.75 0 0 0.75 264.65765 172.08651] CT
1 0.502 0.502 RC
10.0 ML
1.333 LW
N
0 -4 M
0 4 L
-4 0 M
4 0 L
-2.828 -2.828 M
2.828 2.828 L
-2.828 2.828 M
2.828 -2.828 L
S
GR
GS
[0.75 0 0 0.75 266.37561 242.47584] CT
1 0.502 0.502 RC
10.0 ML
1.333 LW
N
0 -4 M
0 4 L
-4 0 M
4 0 L
-2.828 -2.828 M
2.828 2.828 L
-2.828 2.828 M
2.828 -2.828 L
S
GR
GS
[0.75 0 0 0.75 268.0936 190.65043] CT
1 0.502 0.502 RC
10.0 ML
1.333 LW
N
0 -4 M
0 4 L
-4 0 M
4 0 L
-2.828 -2.828 M
2.828 2.828 L
-2.828 2.828 M
2.828 -2.828 L
S
GR
GS
[0.75 0 0 0.75 269.81158 156.44693] CT
1 0.502 0.502 RC
10.0 ML
1.333 LW
N
0 -4 M
0 4 L
-4 0 M
4 0 L
-2.828 -2.828 M
2.828 2.828 L
-2.828 2.828 M
2.828 -2.828 L
S
GR
GS
[0.75 0 0 0.75 271.52955 194.82175] CT
1 0.502 0.502 RC
10.0 ML
1.333 LW
N
0 -4 M
0 4 L
-4 0 M
4 0 L
-2.828 -2.828 M
2.828 2.828 L
-2.828 2.828 M
2.828 -2.828 L
S
GR
GS
[0.75 0 0 0.75 273.24754 207.40993] CT
1 0.502 0.502 RC
10.0 ML
1.333 LW
N
0 -4 M
0 4 L
-4 0 M
4 0 L
-2.828 -2.828 M
2.828 2.828 L
-2.828 2.828 M
2.828 -2.828 L
S
GR
GS
[0.75 0 0 0.75 274.96552 244.38824] CT
1 0.502 0.502 RC
10.0 ML
1.333 LW
N
0 -4 M
0 4 L
-4 0 M
4 0 L
-2.828 -2.828 M
2.828 2.828 L
-2.828 2.828 M
2.828 -2.828 L
S
GR
GS
[0.75 0 0 0.75 276.68349 181.97145] CT
1 0.502 0.502 RC
10.0 ML
1.333 LW
N
0 -4 M
0 4 L
-4 0 M
4 0 L
-2.828 -2.828 M
2.828 2.828 L
-2.828 2.828 M
2.828 -2.828 L
S
GR
GS
[0.75 0 0 0.75 278.40147 195.60704] CT
1 0.502 0.502 RC
10.0 ML
1.333 LW
N
0 -4 M
0 4 L
-4 0 M
4 0 L
-2.828 -2.828 M
2.828 2.828 L
-2.828 2.828 M
2.828 -2.828 L
S
GR
GS
[0.75 0 0 0.75 280.11946 191.5102] CT
1 0.502 0.502 RC
10.0 ML
1.333 LW
N
0 -4 M
0 4 L
-4 0 M
4 0 L
-2.828 -2.828 M
2.828 2.828 L
-2.828 2.828 M
2.828 -2.828 L
S
GR
GS
[0.75 0 0 0.75 281.83745 166.3968] CT
1 0.502 0.502 RC
10.0 ML
1.333 LW
N
0 -4 M
0 4 L
-4 0 M
4 0 L
-2.828 -2.828 M
2.828 2.828 L
-2.828 2.828 M
2.828 -2.828 L
S
GR
GS
[0.75 0 0 0.75 283.55541 127.5667] CT
1 0.502 0.502 RC
10.0 ML
1.333 LW
N
0 -4 M
0 4 L
-4 0 M
4 0 L
-2.828 -2.828 M
2.828 2.828 L
-2.828 2.828 M
2.828 -2.828 L
S
GR
GS
[0.75 0 0 0.75 285.2734 175.39059] CT
1 0.502 0.502 RC
10.0 ML
1.333 LW
N
0 -4 M
0 4 L
-4 0 M
4 0 L
-2.828 -2.828 M
2.828 2.828 L
-2.828 2.828 M
2.828 -2.828 L
S
GR
GS
[0.75 0 0 0.75 286.99139 212.46062] CT
1 0.502 0.502 RC
10.0 ML
1.333 LW
N
0 -4 M
0 4 L
-4 0 M
4 0 L
-2.828 -2.828 M
2.828 2.828 L
-2.828 2.828 M
2.828 -2.828 L
S
GR
GS
[0.75 0 0 0.75 288.70935 199.7823] CT
1 0.502 0.502 RC
10.0 ML
1.333 LW
N
0 -4 M
0 4 L
-4 0 M
4 0 L
-2.828 -2.828 M
2.828 2.828 L
-2.828 2.828 M
2.828 -2.828 L
S
GR
GS
[0.75 0 0 0.75 290.42734 268.13493] CT
1 0.502 0.502 RC
10.0 ML
1.333 LW
N
0 -4 M
0 4 L
-4 0 M
4 0 L
-2.828 -2.828 M
2.828 2.828 L
-2.828 2.828 M
2.828 -2.828 L
S
GR
GS
[0.75 0 0 0.75 292.14532 158.33917] CT
1 0.502 0.502 RC
10.0 ML
1.333 LW
N
0 -4 M
0 4 L
-4 0 M
4 0 L
-2.828 -2.828 M
2.828 2.828 L
-2.828 2.828 M
2.828 -2.828 L
S
GR
GS
[0.75 0 0 0.75 293.86331 167.92262] CT
1 0.502 0.502 RC
10.0 ML
1.333 LW
N
0 -4 M
0 4 L
-4 0 M
4 0 L
-2.828 -2.828 M
2.828 2.828 L
-2.828 2.828 M
2.828 -2.828 L
S
GR
GS
[0.75 0 0 0.75 295.58128 221.1833] CT
1 0.502 0.502 RC
10.0 ML
1.333 LW
N
0 -4 M
0 4 L
-4 0 M
4 0 L
-2.828 -2.828 M
2.828 2.828 L
-2.828 2.828 M
2.828 -2.828 L
S
GR
GS
[0.75 0 0 0.75 297.29926 148.0348] CT
1 0.502 0.502 RC
10.0 ML
1.333 LW
N
0 -4 M
0 4 L
-4 0 M
4 0 L
-2.828 -2.828 M
2.828 2.828 L
-2.828 2.828 M
2.828 -2.828 L
S
GR
GS
[0.75 0 0 0.75 299.01725 231.90967] CT
1 0.502 0.502 RC
10.0 ML
1.333 LW
N
0 -4 M
0 4 L
-4 0 M
4 0 L
-2.828 -2.828 M
2.828 2.828 L
-2.828 2.828 M
2.828 -2.828 L
S
GR
GS
[0.75 0 0 0.75 300.73521 118.53923] CT
1 0.502 0.502 RC
10.0 ML
1.333 LW
N
0 -4 M
0 4 L
-4 0 M
4 0 L
-2.828 -2.828 M
2.828 2.828 L
-2.828 2.828 M
2.828 -2.828 L
S
GR
GS
[0.75 0 0 0.75 302.4532 174.46865] CT
1 0.502 0.502 RC
10.0 ML
1.333 LW
N
0 -4 M
0 4 L
-4 0 M
4 0 L
-2.828 -2.828 M
2.828 2.828 L
-2.828 2.828 M
2.828 -2.828 L
S
GR
GS
[0.75 0 0 0.75 304.17119 217.12118] CT
1 0.502 0.502 RC
10.0 ML
1.333 LW
N
0 -4 M
0 4 L
-4 0 M
4 0 L
-2.828 -2.828 M
2.828 2.828 L
-2.828 2.828 M
2.828 -2.828 L
S
GR
GS
[0.75 0 0 0.75 305.88915 161.78117] CT
1 0.502 0.502 RC
10.0 ML
1.333 LW
N
0 -4 M
0 4 L
-4 0 M
4 0 L
-2.828 -2.828 M
2.828 2.828 L
-2.828 2.828 M
2.828 -2.828 L
S
GR
GS
[0.75 0 0 0.75 307.60714 114.47955] CT
1 0.502 0.502 RC
10.0 ML
1.333 LW
N
0 -4 M
0 4 L
-4 0 M
4 0 L
-2.828 -2.828 M
2.828 2.828 L
-2.828 2.828 M
2.828 -2.828 L
S
GR
GS
[0.75 0 0 0.75 309.32513 176.01482] CT
1 0.502 0.502 RC
10.0 ML
1.333 LW
N
0 -4 M
0 4 L
-4 0 M
4 0 L
-2.828 -2.828 M
2.828 2.828 L
-2.828 2.828 M
2.828 -2.828 L
S
GR
GS
[0.75 0 0 0.75 311.04311 153.49982] CT
1 0.502 0.502 RC
10.0 ML
1.333 LW
N
0 -4 M
0 4 L
-4 0 M
4 0 L
-2.828 -2.828 M
2.828 2.828 L
-2.828 2.828 M
2.828 -2.828 L
S
GR
GS
[0.75 0 0 0.75 312.76108 145.73527] CT
1 0.502 0.502 RC
10.0 ML
1.333 LW
N
0 -4 M
0 4 L
-4 0 M
4 0 L
-2.828 -2.828 M
2.828 2.828 L
-2.828 2.828 M
2.828 -2.828 L
S
GR
GS
[0.75 0 0 0.75 314.47906 194.05289] CT
1 0.502 0.502 RC
10.0 ML
1.333 LW
N
0 -4 M
0 4 L
-4 0 M
4 0 L
-2.828 -2.828 M
2.828 2.828 L
-2.828 2.828 M
2.828 -2.828 L
S
GR
GS
[0.75 0 0 0.75 316.19705 165.73631] CT
1 0.502 0.502 RC
10.0 ML
1.333 LW
N
0 -4 M
0 4 L
-4 0 M
4 0 L
-2.828 -2.828 M
2.828 2.828 L
-2.828 2.828 M
2.828 -2.828 L
S
GR
GS
[0.75 0 0 0.75 317.91502 146.31492] CT
1 0.502 0.502 RC
10.0 ML
1.333 LW
N
0 -4 M
0 4 L
-4 0 M
4 0 L
-2.828 -2.828 M
2.828 2.828 L
-2.828 2.828 M
2.828 -2.828 L
S
GR
GS
[0.75 0 0 0.75 319.633 204.56454] CT
1 0.502 0.502 RC
10.0 ML
1.333 LW
N
0 -4 M
0 4 L
-4 0 M
4 0 L
-2.828 -2.828 M
2.828 2.828 L
-2.828 2.828 M
2.828 -2.828 L
S
GR
GS
[0.75 0 0 0.75 321.35099 186.75241] CT
1 0.502 0.502 RC
10.0 ML
1.333 LW
N
0 -4 M
0 4 L
-4 0 M
4 0 L
-2.828 -2.828 M
2.828 2.828 L
-2.828 2.828 M
2.828 -2.828 L
S
GR
GS
[0.75 0 0 0.75 323.06895 240.0013] CT
1 0.502 0.502 RC
10.0 ML
1.333 LW
N
0 -4 M
0 4 L
-4 0 M
4 0 L
-2.828 -2.828 M
2.828 2.828 L
-2.828 2.828 M
2.828 -2.828 L
S
GR
GS
[0.75 0 0 0.75 324.78694 160.99155] CT
1 0.502 0.502 RC
10.0 ML
1.333 LW
N
0 -4 M
0 4 L
-4 0 M
4 0 L
-2.828 -2.828 M
2.828 2.828 L
-2.828 2.828 M
2.828 -2.828 L
S
GR
GS
[0.75 0 0 0.75 326.50493 172.9102] CT
1 0.502 0.502 RC
10.0 ML
1.333 LW
N
0 -4 M
0 4 L
-4 0 M
4 0 L
-2.828 -2.828 M
2.828 2.828 L
-2.828 2.828 M
2.828 -2.828 L
S
GR
GS
[0.75 0 0 0.75 328.22292 189.75276] CT
1 0.502 0.502 RC
10.0 ML
1.333 LW
N
0 -4 M
0 4 L
-4 0 M
4 0 L
-2.828 -2.828 M
2.828 2.828 L
-2.828 2.828 M
2.828 -2.828 L
S
GR
GS
[0.75 0 0 0.75 329.94088 209.03572] CT
1 0.502 0.502 RC
10.0 ML
1.333 LW
N
0 -4 M
0 4 L
-4 0 M
4 0 L
-2.828 -2.828 M
2.828 2.828 L
-2.828 2.828 M
2.828 -2.828 L
S
GR
GS
[0.75 0 0 0.75 331.65887 220.93412] CT
1 0.502 0.502 RC
10.0 ML
1.333 LW
N
0 -4 M
0 4 L
-4 0 M
4 0 L
-2.828 -2.828 M
2.828 2.828 L
-2.828 2.828 M
2.828 -2.828 L
S
GR
GS
[0.75 0 0 0.75 333.37685 165.57369] CT
1 0.502 0.502 RC
10.0 ML
1.333 LW
N
0 -4 M
0 4 L
-4 0 M
4 0 L
-2.828 -2.828 M
2.828 2.828 L
-2.828 2.828 M
2.828 -2.828 L
S
GR
GS
[0.75 0 0 0.75 335.09482 156.97048] CT
1 0.502 0.502 RC
10.0 ML
1.333 LW
N
0 -4 M
0 4 L
-4 0 M
4 0 L
-2.828 -2.828 M
2.828 2.828 L
-2.828 2.828 M
2.828 -2.828 L
S
GR
GS
[0.75 0 0 0.75 336.81281 180.65749] CT
1 0.502 0.502 RC
10.0 ML
1.333 LW
N
0 -4 M
0 4 L
-4 0 M
4 0 L
-2.828 -2.828 M
2.828 2.828 L
-2.828 2.828 M
2.828 -2.828 L
S
GR
GS
[0.75 0 0 0.75 338.53079 174.6023] CT
1 0.502 0.502 RC
10.0 ML
1.333 LW
N
0 -4 M
0 4 L
-4 0 M
4 0 L
-2.828 -2.828 M
2.828 2.828 L
-2.828 2.828 M
2.828 -2.828 L
S
GR
GS
[0.75 0 0 0.75 340.24878 145.10845] CT
1 0.502 0.502 RC
10.0 ML
1.333 LW
N
0 -4 M
0 4 L
-4 0 M
4 0 L
-2.828 -2.828 M
2.828 2.828 L
-2.828 2.828 M
2.828 -2.828 L
S
GR
GS
[0.75 0 0 0.75 341.96674 133.15207] CT
1 0.502 0.502 RC
10.0 ML
1.333 LW
N
0 -4 M
0 4 L
-4 0 M
4 0 L
-2.828 -2.828 M
2.828 2.828 L
-2.828 2.828 M
2.828 -2.828 L
S
GR
GS
[0.75 0 0 0.75 343.68473 192.56712] CT
1 0.502 0.502 RC
10.0 ML
1.333 LW
N
0 -4 M
0 4 L
-4 0 M
4 0 L
-2.828 -2.828 M
2.828 2.828 L
-2.828 2.828 M
2.828 -2.828 L
S
GR
GS
[0.75 0 0 0.75 345.40272 200.01343] CT
1 0.502 0.502 RC
10.0 ML
1.333 LW
N
0 -4 M
0 4 L
-4 0 M
4 0 L
-2.828 -2.828 M
2.828 2.828 L
-2.828 2.828 M
2.828 -2.828 L
S
GR
GS
[0.75 0 0 0.75 347.12068 139.88642] CT
1 0.502 0.502 RC
10.0 ML
1.333 LW
N
0 -4 M
0 4 L
-4 0 M
4 0 L
-2.828 -2.828 M
2.828 2.828 L
-2.828 2.828 M
2.828 -2.828 L
S
GR
GS
[0.75 0 0 0.75 348.83867 183.31955] CT
1 0.502 0.502 RC
10.0 ML
1.333 LW
N
0 -4 M
0 4 L
-4 0 M
4 0 L
-2.828 -2.828 M
2.828 2.828 L
-2.828 2.828 M
2.828 -2.828 L
S
GR
GS
[0.75 0 0 0.75 350.55666 173.57269] CT
1 0.502 0.502 RC
10.0 ML
1.333 LW
N
0 -4 M
0 4 L
-4 0 M
4 0 L
-2.828 -2.828 M
2.828 2.828 L
-2.828 2.828 M
2.828 -2.828 L
S
GR
GS
[0.75 0 0 0.75 352.27462 199.16961] CT
1 0.502 0.502 RC
10.0 ML
1.333 LW
N
0 -4 M
0 4 L
-4 0 M
4 0 L
-2.828 -2.828 M
2.828 2.828 L
-2.828 2.828 M
2.828 -2.828 L
S
GR
GS
[0.75 0 0 0.75 353.99261 171.92693] CT
1 0.502 0.502 RC
10.0 ML
1.333 LW
N
0 -4 M
0 4 L
-4 0 M
4 0 L
-2.828 -2.828 M
2.828 2.828 L
-2.828 2.828 M
2.828 -2.828 L
S
GR
GS
[0.75 0 0 0.75 355.71059 204.4397] CT
1 0.502 0.502 RC
10.0 ML
1.333 LW
N
0 -4 M
0 4 L
-4 0 M
4 0 L
-2.828 -2.828 M
2.828 2.828 L
-2.828 2.828 M
2.828 -2.828 L
S
GR
GS
[0.75 0 0 0.75 357.42858 189.45974] CT
1 0.502 0.502 RC
10.0 ML
1.333 LW
N
0 -4 M
0 4 L
-4 0 M
4 0 L
-2.828 -2.828 M
2.828 2.828 L
-2.828 2.828 M
2.828 -2.828 L
S
GR
GS
[0.75 0 0 0.75 359.14655 186.51476] CT
1 0.502 0.502 RC
10.0 ML
1.333 LW
N
0 -4 M
0 4 L
-4 0 M
4 0 L
-2.828 -2.828 M
2.828 2.828 L
-2.828 2.828 M
2.828 -2.828 L
S
GR
GS
[0.75 0 0 0.75 360.86453 237.17116] CT
1 0.502 0.502 RC
10.0 ML
1.333 LW
N
0 -4 M
0 4 L
-4 0 M
4 0 L
-2.828 -2.828 M
2.828 2.828 L
-2.828 2.828 M
2.828 -2.828 L
S
GR
GS
[0.75 0 0 0.75 362.58252 123.39269] CT
1 0.502 0.502 RC
10.0 ML
1.333 LW
N
0 -4 M
0 4 L
-4 0 M
4 0 L
-2.828 -2.828 M
2.828 2.828 L
-2.828 2.828 M
2.828 -2.828 L
S
GR
GS
[0.75 0 0 0.75 364.30048 147.85009] CT
1 0.502 0.502 RC
10.0 ML
1.333 LW
N
0 -4 M
0 4 L
-4 0 M
4 0 L
-2.828 -2.828 M
2.828 2.828 L
-2.828 2.828 M
2.828 -2.828 L
S
GR
GS
[0.75 0 0 0.75 366.01847 164.44868] CT
1 0.502 0.502 RC
10.0 ML
1.333 LW
N
0 -4 M
0 4 L
-4 0 M
4 0 L
-2.828 -2.828 M
2.828 2.828 L
-2.828 2.828 M
2.828 -2.828 L
S
GR
GS
[0.75 0 0 0.75 367.73646 168.39007] CT
1 0.502 0.502 RC
10.0 ML
1.333 LW
N
0 -4 M
0 4 L
-4 0 M
4 0 L
-2.828 -2.828 M
2.828 2.828 L
-2.828 2.828 M
2.828 -2.828 L
S
GR
GS
[0.75 0 0 0.75 369.45444 152.83911] CT
1 0.502 0.502 RC
10.0 ML
1.333 LW
N
0 -4 M
0 4 L
-4 0 M
4 0 L
-2.828 -2.828 M
2.828 2.828 L
-2.828 2.828 M
2.828 -2.828 L
S
GR
GS
[0.75 0 0 0.75 371.17241 230.62008] CT
1 0.502 0.502 RC
10.0 ML
1.333 LW
N
0 -4 M
0 4 L
-4 0 M
4 0 L
-2.828 -2.828 M
2.828 2.828 L
-2.828 2.828 M
2.828 -2.828 L
S
GR
GS
[0.75 0 0 0.75 372.8904 191.14417] CT
1 0.502 0.502 RC
10.0 ML
1.333 LW
N
0 -4 M
0 4 L
-4 0 M
4 0 L
-2.828 -2.828 M
2.828 2.828 L
-2.828 2.828 M
2.828 -2.828 L
S
GR
GS
[0.75 0 0 0.75 374.60838 191.89304] CT
1 0.502 0.502 RC
10.0 ML
1.333 LW
N
0 -4 M
0 4 L
-4 0 M
4 0 L
-2.828 -2.828 M
2.828 2.828 L
-2.828 2.828 M
2.828 -2.828 L
S
GR
GS
[0.75 0 0 0.75 376.32635 204.76623] CT
1 0.502 0.502 RC
10.0 ML
1.333 LW
N
0 -4 M
0 4 L
-4 0 M
4 0 L
-2.828 -2.828 M
2.828 2.828 L
-2.828 2.828 M
2.828 -2.828 L
S
GR
GS
[0.75 0 0 0.75 378.04433 120.38983] CT
1 0.502 0.502 RC
10.0 ML
1.333 LW
N
0 -4 M
0 4 L
-4 0 M
4 0 L
-2.828 -2.828 M
2.828 2.828 L
-2.828 2.828 M
2.828 -2.828 L
S
GR
GS
[0.75 0 0 0.75 379.76232 203.16687] CT
1 0.502 0.502 RC
10.0 ML
1.333 LW
N
0 -4 M
0 4 L
-4 0 M
4 0 L
-2.828 -2.828 M
2.828 2.828 L
-2.828 2.828 M
2.828 -2.828 L
S
GR
GS
[0.75 0 0 0.75 381.48029 209.4776] CT
1 0.502 0.502 RC
10.0 ML
1.333 LW
N
0 -4 M
0 4 L
-4 0 M
4 0 L
-2.828 -2.828 M
2.828 2.828 L
-2.828 2.828 M
2.828 -2.828 L
S
GR
GS
[0.75 0 0 0.75 383.19827 170.04001] CT
1 0.502 0.502 RC
10.0 ML
1.333 LW
N
0 -4 M
0 4 L
-4 0 M
4 0 L
-2.828 -2.828 M
2.828 2.828 L
-2.828 2.828 M
2.828 -2.828 L
S
GR
GS
[0.75 0 0 0.75 384.91626 218.77721] CT
1 0.502 0.502 RC
10.0 ML
1.333 LW
N
0 -4 M
0 4 L
-4 0 M
4 0 L
-2.828 -2.828 M
2.828 2.828 L
-2.828 2.828 M
2.828 -2.828 L
S
GR
GS
[0.75 0 0 0.75 386.63425 144.94743] CT
1 0.502 0.502 RC
10.0 ML
1.333 LW
N
0 -4 M
0 4 L
-4 0 M
4 0 L
-2.828 -2.828 M
2.828 2.828 L
-2.828 2.828 M
2.828 -2.828 L
S
GR
GS
[0.75 0 0 0.75 388.35223 173.27153] CT
1 0.502 0.502 RC
10.0 ML
1.333 LW
N
0 -4 M
0 4 L
-4 0 M
4 0 L
-2.828 -2.828 M
2.828 2.828 L
-2.828 2.828 M
2.828 -2.828 L
S
GR
GS
[0.75 0 0 0.75 390.07018 162.52064] CT
1 0.502 0.502 RC
10.0 ML
1.333 LW
N
0 -4 M
0 4 L
-4 0 M
4 0 L
-2.828 -2.828 M
2.828 2.828 L
-2.828 2.828 M
2.828 -2.828 L
S
GR
GS
[0.75 0 0 0.75 391.78816 217.0307] CT
1 0.502 0.502 RC
10.0 ML
1.333 LW
N
0 -4 M
0 4 L
-4 0 M
4 0 L
-2.828 -2.828 M
2.828 2.828 L
-2.828 2.828 M
2.828 -2.828 L
S
GR
GS
[0.75 0 0 0.75 393.50615 165.38933] CT
1 0.502 0.502 RC
10.0 ML
1.333 LW
N
0 -4 M
0 4 L
-4 0 M
4 0 L
-2.828 -2.828 M
2.828 2.828 L
-2.828 2.828 M
2.828 -2.828 L
S
GR
GS
[0.75 0 0 0.75 395.22414 164.29534] CT
1 0.502 0.502 RC
10.0 ML
1.333 LW
N
0 -4 M
0 4 L
-4 0 M
4 0 L
-2.828 -2.828 M
2.828 2.828 L
-2.828 2.828 M
2.828 -2.828 L
S
GR
GS
[0.75 0 0 0.75 396.94212 163.64967] CT
1 0.502 0.502 RC
10.0 ML
1.333 LW
N
0 -4 M
0 4 L
-4 0 M
4 0 L
-2.828 -2.828 M
2.828 2.828 L
-2.828 2.828 M
2.828 -2.828 L
S
GR
GS
[0.75 0 0 0.75 398.66011 170.01236] CT
1 0.502 0.502 RC
10.0 ML
1.333 LW
N
0 -4 M
0 4 L
-4 0 M
4 0 L
-2.828 -2.828 M
2.828 2.828 L
-2.828 2.828 M
2.828 -2.828 L
S
GR
GS
[0.75 0 0 0.75 400.3781 176.25094] CT
1 0.502 0.502 RC
10.0 ML
1.333 LW
N
0 -4 M
0 4 L
-4 0 M
4 0 L
-2.828 -2.828 M
2.828 2.828 L
-2.828 2.828 M
2.828 -2.828 L
S
GR
GS
[0.75 0 0 0.75 402.09604 201.73908] CT
1 0.502 0.502 RC
10.0 ML
1.333 LW
N
0 -4 M
0 4 L
-4 0 M
4 0 L
-2.828 -2.828 M
2.828 2.828 L
-2.828 2.828 M
2.828 -2.828 L
S
GR
GS
[0.75 0 0 0.75 403.81403 191.96022] CT
1 0.502 0.502 RC
10.0 ML
1.333 LW
N
0 -4 M
0 4 L
-4 0 M
4 0 L
-2.828 -2.828 M
2.828 2.828 L
-2.828 2.828 M
2.828 -2.828 L
S
GR
GS
[0.75 0 0 0.75 405.53201 222.40075] CT
1 0.502 0.502 RC
10.0 ML
1.333 LW
N
0 -4 M
0 4 L
-4 0 M
4 0 L
-2.828 -2.828 M
2.828 2.828 L
-2.828 2.828 M
2.828 -2.828 L
S
GR
GS
[0.75 0 0 0.75 407.25 258.15518] CT
1 0.502 0.502 RC
10.0 ML
1.333 LW
N
0 -4 M
0 4 L
-4 0 M
4 0 L
-2.828 -2.828 M
2.828 2.828 L
-2.828 2.828 M
2.828 -2.828 L
S
GR
GS
[0.75 0 0 0.75 58.5 177.68852] CT
N
1.333 0 M
1.333 0.736 0.736 1.333 0 1.333 C
-0.736 1.333 -1.333 0.736 -1.333 0 C
-1.333 -0.736 -0.736 -1.333 0 -1.333 C
0.736 -1.333 1.333 -0.736 1.333 0 C
cp
f
GR
GS
[0.75 0 0 0.75 60.21798 176.13747] CT
N
/f-1057828618{1.333 0 M
1.333 0.736 0.736 1.333 0 1.333 C
-0.736 1.333 -1.333 0.736 -1.333 0 C
-1.333 -0.736 -0.736 -1.333 0 -1.333 C
0.736 -1.333 1.333 -0.736 1.333 0 C
cp}def
f-1057828618
f
GR
GS
[0.75 0 0 0.75 61.93596 171.16239] CT
N
f-1057828618
f
GR
GS
[0.75 0 0 0.75 63.65394 177.68146] CT
N
f-1057828618
f
GR
GS
[0.75 0 0 0.75 65.37192 180.60488] CT
N
f-1057828618
f
GR
GS
[0.75 0 0 0.75 67.0899 174.99037] CT
N
f-1057828618
f
GR
GS
[0.75 0 0 0.75 68.80788 180.0543] CT
N
f-1057828618
f
GR
GS
[0.75 0 0 0.75 70.52586 180.82957] CT
N
f-1057828618
f
GR
GS
[0.75 0 0 0.75 72.24384 176.59036] CT
N
f-1057828618
f
GR
GS
[0.75 0 0 0.75 73.96182 172.07688] CT
N
f-1057828618
f
GR
GS
[0.75 0 0 0.75 75.6798 178.48501] CT
N
f-1057828618
f
GR
GS
[0.75 0 0 0.75 77.39778 177.13823] CT
N
f-1057828618
f
GR
GS
[0.75 0 0 0.75 79.11576 169.9881] CT
N
f-1057828618
f
GR
GS
[0.75 0 0 0.75 80.83375 174.59394] CT
N
f-1057828618
f
GR
GS
[0.75 0 0 0.75 82.55172 168.71916] CT
N
f-1057828618
f
GR
GS
[0.75 0 0 0.75 84.2697 179.16145] CT
N
f-1057828618
f
GR
GS
[0.75 0 0 0.75 85.98768 179.5078] CT
N
f-1057828618
f
GR
GS
[0.75 0 0 0.75 87.70567 181.08937] CT
N
f-1057828618
f
GR
GS
[0.75 0 0 0.75 89.42365 167.50868] CT
N
f-1057828618
f
GR
GS
[0.75 0 0 0.75 91.14163 177.46217] CT
N
f-1057828618
f
GR
GS
[0.75 0 0 0.75 92.8596 177.08322] CT
N
f-1057828618
f
GR
GS
[0.75 0 0 0.75 94.57759 171.7136] CT
N
f-1057828618
f
GR
GS
[0.75 0 0 0.75 96.29557 171.80566] CT
N
f-1057828618
f
GR
GS
[0.75 0 0 0.75 98.01354 174.6346] CT
N
f-1057828618
f
GR
GS
[0.75 0 0 0.75 99.73153 172.5546] CT
N
f-1057828618
f
GR
GS
[0.75 0 0 0.75 101.4495 179.00582] CT
N
f-1057828618
f
GR
GS
[0.75 0 0 0.75 103.16749 175.00654] CT
N
f-1057828618
f
GR
GS
[0.75 0 0 0.75 104.88547 174.46986] CT
N
f-1057828618
f
GR
GS
[0.75 0 0 0.75 106.60344 168.16652] CT
N
f-1057828618
f
GR
GS
[0.75 0 0 0.75 108.32143 174.68009] CT
N
f-1057828618
f
GR
GS
[0.75 0 0 0.75 110.03941 177.15] CT
N
f-1057828618
f
GR
GS
[0.75 0 0 0.75 111.75739 179.49272] CT
N
f-1057828618
f
GR
GS
[0.75 0 0 0.75 113.47537 164.65329] CT
N
f-1057828618
f
GR
GS
[0.75 0 0 0.75 115.19334 174.58114] CT
N
f-1057828618
f
GR
GS
[0.75 0 0 0.75 116.91133 174.72002] CT
N
f-1057828618
f
GR
GS
[0.75 0 0 0.75 118.62931 177.18723] CT
N
f-1057828618
f
GR
GS
[0.75 0 0 0.75 120.34729 174.21356] CT
N
f-1057828618
f
GR
GS
[0.75 0 0 0.75 122.06527 176.87763] CT
N
f-1057828618
f
GR
GS
[0.75 0 0 0.75 123.78326 169.7851] CT
N
f-1057828618
f
GR
GS
[0.75 0 0 0.75 125.50123 177.35122] CT
N
f-1057828618
f
GR
GS
[0.75 0 0 0.75 127.21921 174.48403] CT
N
f-1057828618
f
GR
GS
[0.75 0 0 0.75 128.93719 170.82166] CT
N
f-1057828618
f
GR
GS
[0.75 0 0 0.75 130.65517 180.10042] CT
N
f-1057828618
f
GR
GS
[0.75 0 0 0.75 132.37316 179.13207] CT
N
f-1057828618
f
GR
GS
[0.75 0 0 0.75 134.09113 176.80369] CT
N
f-1057828618
f
GR
GS
[0.75 0 0 0.75 135.80911 176.05091] CT
N
f-1057828618
f
GR
GS
[0.75 0 0 0.75 137.5271 175.22906] CT
N
f-1057828618
f
GR
GS
[0.75 0 0 0.75 139.24507 174.51225] CT
N
f-1057828618
f
GR
GS
[0.75 0 0 0.75 140.96306 181.91019] CT
N
f-1057828618
f
GR
GS
[0.75 0 0 0.75 142.68103 176.0528] CT
N
f-1057828618
f
GR
GS
[0.75 0 0 0.75 144.39901 175.41148] CT
N
f-1057828618
f
GR
GS
[0.75 0 0 0.75 146.117 171.37796] CT
N
f-1057828618
f
GR
GS
[0.75 0 0 0.75 147.83497 179.09886] CT
N
f-1057828618
f
GR
GS
[0.75 0 0 0.75 149.55296 180.96684] CT
N
f-1057828618
f
GR
GS
[0.75 0 0 0.75 151.27094 181.46774] CT
N
f-1057828618
f
GR
GS
[0.75 0 0 0.75 152.98891 177.26002] CT
N
f-1057828618
f
GR
GS
[0.75 0 0 0.75 154.7069 177.84718] CT
N
f-1057828618
f
GR
GS
[0.75 0 0 0.75 156.42487 179.27554] CT
N
f-1057828618
f
GR
GS
[0.75 0 0 0.75 158.14286 180.39534] CT
N
f-1057828618
f
GR
GS
[0.75 0 0 0.75 159.86084 173.65265] CT
N
f-1057828618
f
GR
GS
[0.75 0 0 0.75 161.57882 178.72663] CT
N
f-1057828618
f
GR
GS
[0.75 0 0 0.75 163.2968 180.80841] CT
N
f-1057828618
f
GR
GS
[0.75 0 0 0.75 165.01477 184.53486] CT
N
f-1057828618
f
GR
GS
[0.75 0 0 0.75 166.73276 179.83862] CT
N
f-1057828618
f
GR
GS
[0.75 0 0 0.75 168.45074 180.83033] CT
N
f-1057828618
f
GR
GS
[0.75 0 0 0.75 170.16872 177.8153] CT
N
f-1057828618
f
GR
GS
[0.75 0 0 0.75 171.8867 174.34813] CT
N
f-1057828618
f
GR
GS
[0.75 0 0 0.75 173.60468 174.28967] CT
N
f-1057828618
f
GR
GS
[0.75 0 0 0.75 175.32266 185.32923] CT
N
f-1057828618
f
GR
GS
[0.75 0 0 0.75 177.04064 177.6712] CT
N
f-1057828618
f
GR
GS
[0.75 0 0 0.75 178.75863 183.43864] CT
N
f-1057828618
f
GR
GS
[0.75 0 0 0.75 180.4766 178.08995] CT
N
f-1057828618
f
GR
GS
[0.75 0 0 0.75 182.19458 175.24931] CT
N
f-1057828618
f
GR
GS
[0.75 0 0 0.75 183.91256 175.37104] CT
N
f-1057828618
f
GR
GS
[0.75 0 0 0.75 185.63054 179.15617] CT
N
f-1057828618
f
GR
GS
[0.75 0 0 0.75 187.34853 177.03509] CT
N
f-1057828618
f
GR
GS
[0.75 0 0 0.75 189.0665 179.5821] CT
N
f-1057828618
f
GR
GS
[0.75 0 0 0.75 190.78448 179.86392] CT
N
f-1057828618
f
GR
GS
[0.75 0 0 0.75 192.50246 176.9] CT
N
f-1057828618
f
GR
GS
[0.75 0 0 0.75 194.22045 179.53804] CT
N
f-1057828618
f
GR
GS
[0.75 0 0 0.75 195.93842 179.25942] CT
N
f-1057828618
f
GR
GS
[0.75 0 0 0.75 197.6564 177.86813] CT
N
f-1057828618
f
GR
GS
[0.75 0 0 0.75 199.37439 178.36811] CT
N
f-1057828618
f
GR
GS
[0.75 0 0 0.75 201.09235 180.13795] CT
N
f-1057828618
f
GR
GS
[0.75 0 0 0.75 202.81034 175.01997] CT
N
f-1057828618
f
GR
GS
[0.75 0 0 0.75 204.52833 183.34531] CT
N
f-1057828618
f
GR
GS
[0.75 0 0 0.75 206.24632 185.8708] CT
N
f-1057828618
f
GR
GS
[0.75 0 0 0.75 207.96428 181.51932] CT
N
f-1057828618
f
GR
GS
[0.75 0 0 0.75 209.68227 182.60118] CT
N
f-1057828618
f
GR
GS
[0.75 0 0 0.75 211.40025 178.50601] CT
N
f-1057828618
f
GR
GS
[0.75 0 0 0.75 213.11822 186.54343] CT
N
f-1057828618
f
GR
GS
[0.75 0 0 0.75 214.8362 174.68102] CT
N
f-1057828618
f
GR
GS
[0.75 0 0 0.75 216.55419 182.65712] CT
N
f-1057828618
f
GR
GS
[0.75 0 0 0.75 218.27218 178.5515] CT
N
f-1057828618
f
GR
GS
[0.75 0 0 0.75 219.99014 178.55689] CT
N
f-1057828618
f
GR
GS
[0.75 0 0 0.75 221.70813 179.47573] CT
N
f-1057828618
f
GR
GS
[0.75 0 0 0.75 223.42612 184.74647] CT
N
f-1057828618
f
GR
GS
[0.75 0 0 0.75 225.14408 180.45511] CT
N
f-1057828618
f
GR
GS
[0.75 0 0 0.75 226.86207 179.88755] CT
N
f-1057828618
f
GR
GS
[0.75 0 0 0.75 228.58006 182.07488] CT
N
f-1057828618
f
GR
GS
[0.75 0 0 0.75 230.29802 184.49281] CT
N
f-1057828618
f
GR
GS
[0.75 0 0 0.75 232.01601 178.27156] CT
N
f-1057828618
f
GR
GS
[0.75 0 0 0.75 233.73399 181.37791] CT
N
f-1057828618
f
GR
GS
[0.75 0 0 0.75 235.45198 183.59122] CT
N
f-1057828618
f
GR
GS
[0.75 0 0 0.75 237.16994 188.16907] CT
N
f-1057828618
f
GR
GS
[0.75 0 0 0.75 238.88793 185.40374] CT
N
f-1057828618
f
GR
GS
[0.75 0 0 0.75 240.60592 177.35971] CT
N
f-1057828618
f
GR
GS
[0.75 0 0 0.75 242.32388 182.17963] CT
N
f-1057828618
f
GR
GS
[0.75 0 0 0.75 244.04187 174.4982] CT
N
f-1057828618
f
GR
GS
[0.75 0 0 0.75 245.75986 180.89457] CT
N
f-1057828618
f
GR
GS
[0.75 0 0 0.75 247.47782 184.11535] CT
N
f-1057828618
f
GR
GS
[0.75 0 0 0.75 249.19581 173.51539] CT
N
f-1057828618
f
GR
GS
[0.75 0 0 0.75 250.9138 177.70229] CT
N
f-1057828618
f
GR
GS
[0.75 0 0 0.75 252.63178 187.54403] CT
N
f-1057828618
f
GR
GS
[0.75 0 0 0.75 254.34975 177.29087] CT
N
f-1057828618
f
GR
GS
[0.75 0 0 0.75 256.06773 179.09158] CT
N
f-1057828618
f
GR
GS
[0.75 0 0 0.75 257.78572 180.2221] CT
N
f-1057828618
f
GR
GS
[0.75 0 0 0.75 259.50368 178.72749] CT
N
f-1057828618
f
GR
GS
[0.75 0 0 0.75 261.22167 174.75391] CT
N
f-1057828618
f
GR
GS
[0.75 0 0 0.75 262.93966 174.3339] CT
N
f-1057828618
f
GR
GS
[0.75 0 0 0.75 264.65765 179.65827] CT
N
f-1057828618
f
GR
GS
[0.75 0 0 0.75 266.37561 179.024] CT
N
f-1057828618
f
GR
GS
[0.75 0 0 0.75 268.0936 180.91608] CT
N
f-1057828618
f
GR
GS
[0.75 0 0 0.75 269.81158 181.25595] CT
N
f-1057828618
f
GR
GS
[0.75 0 0 0.75 271.52955 178.00184] CT
N
f-1057828618
f
GR
GS
[0.75 0 0 0.75 273.24754 174.84702] CT
N
f-1057828618
f
GR
GS
[0.75 0 0 0.75 274.96552 174.88895] CT
N
f-1057828618
f
GR
GS
[0.75 0 0 0.75 276.68349 180.85619] CT
N
f-1057828618
f
GR
GS
[0.75 0 0 0.75 278.40147 181.56028] CT
N
f-1057828618
f
GR
GS
[0.75 0 0 0.75 280.11946 176.82273] CT
N
f-1057828618
f
GR
GS
[0.75 0 0 0.75 281.83745 176.86599] CT
N
f-1057828618
f
GR
GS
[0.75 0 0 0.75 283.55541 178.50905] CT
N
f-1057828618
f
GR
GS
[0.75 0 0 0.75 285.2734 181.1788] CT
N
f-1057828618
f
GR
GS
[0.75 0 0 0.75 286.99139 179.29969] CT
N
f-1057828618
f
GR
GS
[0.75 0 0 0.75 288.70935 182.37185] CT
N
f-1057828618
f
GR
GS
[0.75 0 0 0.75 290.42734 176.79274] CT
N
f-1057828618
f
GR
GS
[0.75 0 0 0.75 292.14532 182.01064] CT
N
f-1057828618
f
GR
GS
[0.75 0 0 0.75 293.86331 175.93818] CT
N
f-1057828618
f
GR
GS
[0.75 0 0 0.75 295.58128 178.74085] CT
N
f-1057828618
f
GR
GS
[0.75 0 0 0.75 297.29926 179.36066] CT
N
f-1057828618
f
GR
GS
[0.75 0 0 0.75 299.01725 175.12661] CT
N
f-1057828618
f
GR
GS
[0.75 0 0 0.75 300.73521 175.54588] CT
N
f-1057828618
f
GR
GS
[0.75 0 0 0.75 302.4532 174.37744] CT
N
f-1057828618
f
GR
GS
[0.75 0 0 0.75 304.17119 179.0626] CT
N
f-1057828618
f
GR
GS
[0.75 0 0 0.75 305.88915 171.8718] CT
N
f-1057828618
f
GR
GS
[0.75 0 0 0.75 307.60714 179.60969] CT
N
f-1057828618
f
GR
GS
[0.75 0 0 0.75 309.32513 167.88935] CT
N
f-1057828618
f
GR
GS
[0.75 0 0 0.75 311.04311 176.40215] CT
N
f-1057828618
f
GR
GS
[0.75 0 0 0.75 312.76108 180.77943] CT
N
f-1057828618
f
GR
GS
[0.75 0 0 0.75 314.47906 181.38313] CT
N
f-1057828618
f
GR
GS
[0.75 0 0 0.75 316.19705 179.1767] CT
N
f-1057828618
f
GR
GS
[0.75 0 0 0.75 317.91502 173.04839] CT
N
f-1057828618
f
GR
GS
[0.75 0 0 0.75 319.633 180.00968] CT
N
f-1057828618
f
GR
GS
[0.75 0 0 0.75 321.35099 178.79564] CT
N
f-1057828618
f
GR
GS
[0.75 0 0 0.75 323.06895 182.06461] CT
N
f-1057828618
f
GR
GS
[0.75 0 0 0.75 324.78694 182.57469] CT
N
f-1057828618
f
GR
GS
[0.75 0 0 0.75 326.50493 180.81546] CT
N
f-1057828618
f
GR
GS
[0.75 0 0 0.75 328.22292 180.62799] CT
N
f-1057828618
f
GR
GS
[0.75 0 0 0.75 329.94088 177.65984] CT
N
f-1057828618
f
GR
GS
[0.75 0 0 0.75 331.65887 177.51104] CT
N
f-1057828618
f
GR
GS
[0.75 0 0 0.75 333.37685 178.28482] CT
N
f-1057828618
f
GR
GS
[0.75 0 0 0.75 335.09482 179.7886] CT
N
f-1057828618
f
GR
GS
[0.75 0 0 0.75 336.81281 183.38231] CT
N
f-1057828618
f
GR
GS
[0.75 0 0 0.75 338.53079 179.05986] CT
N
f-1057828618
f
GR
GS
[0.75 0 0 0.75 340.24878 182.51205] CT
N
f-1057828618
f
GR
GS
[0.75 0 0 0.75 341.96674 178.70999] CT
N
f-1057828618
f
GR
GS
[0.75 0 0 0.75 343.68473 185.18409] CT
N
f-1057828618
f
GR
GS
[0.75 0 0 0.75 345.40272 177.91092] CT
N
f-1057828618
f
GR
GS
[0.75 0 0 0.75 347.12068 178.8713] CT
N
f-1057828618
f
GR
GS
[0.75 0 0 0.75 348.83867 187.11966] CT
N
f-1057828618
f
GR
GS
[0.75 0 0 0.75 350.55666 179.21651] CT
N
f-1057828618
f
GR
GS
[0.75 0 0 0.75 352.27462 173.80845] CT
N
f-1057828618
f
GR
GS
[0.75 0 0 0.75 353.99261 183.25014] CT
N
f-1057828618
f
GR
GS
[0.75 0 0 0.75 355.71059 184.05421] CT
N
f-1057828618
f
GR
GS
[0.75 0 0 0.75 357.42858 178.28699] CT
N
f-1057828618
f
GR
GS
[0.75 0 0 0.75 359.14655 179.096] CT
N
f-1057828618
f
GR
GS
[0.75 0 0 0.75 360.86453 180.38581] CT
N
f-1057828618
f
GR
GS
[0.75 0 0 0.75 362.58252 176.88675] CT
N
f-1057828618
f
GR
GS
[0.75 0 0 0.75 364.30048 175.89901] CT
N
f-1057828618
f
GR
GS
[0.75 0 0 0.75 366.01847 175.16504] CT
N
f-1057828618
f
GR
GS
[0.75 0 0 0.75 367.73646 180.14667] CT
N
f-1057828618
f
GR
GS
[0.75 0 0 0.75 369.45444 179.70198] CT
N
f-1057828618
f
GR
GS
[0.75 0 0 0.75 371.17241 171.7939] CT
N
f-1057828618
f
GR
GS
[0.75 0 0 0.75 372.8904 179.73451] CT
N
f-1057828618
f
GR
GS
[0.75 0 0 0.75 374.60838 177.71611] CT
N
f-1057828618
f
GR
GS
[0.75 0 0 0.75 376.32635 172.0934] CT
N
f-1057828618
f
GR
GS
[0.75 0 0 0.75 378.04433 177.88608] CT
N
f-1057828618
f
GR
GS
[0.75 0 0 0.75 379.76232 166.87585] CT
N
f-1057828618
f
GR
GS
[0.75 0 0 0.75 381.48029 176.84362] CT
N
f-1057828618
f
GR
GS
[0.75 0 0 0.75 383.19827 177.75271] CT
N
f-1057828618
f
GR
GS
[0.75 0 0 0.75 384.91626 178.93968] CT
N
f-1057828618
f
GR
GS
[0.75 0 0 0.75 386.63425 174.71273] CT
N
f-1057828618
f
GR
GS
[0.75 0 0 0.75 388.35223 171.79517] CT
N
f-1057828618
f
GR
GS
[0.75 0 0 0.75 390.07018 173.90575] CT
N
f-1057828618
f
GR
GS
[0.75 0 0 0.75 391.78816 175.78984] CT
N
f-1057828618
f
GR
GS
[0.75 0 0 0.75 393.50615 175.10521] CT
N
f-1057828618
f
GR
GS
[0.75 0 0 0.75 395.22414 175.14072] CT
N
f-1057828618
f
GR
GS
[0.75 0 0 0.75 396.94212 173.42406] CT
N
f-1057828618
f
GR
GS
[0.75 0 0 0.75 398.66011 178.7934] CT
N
f-1057828618
f
GR
GS
[0.75 0 0 0.75 400.3781 178.85965] CT
N
f-1057828618
f
GR
GS
[0.75 0 0 0.75 402.09604 171.7405] CT
N
f-1057828618
f
GR
GS
[0.75 0 0 0.75 403.81403 177.99157] CT
N
f-1057828618
f
GR
GS
[0.75 0 0 0.75 405.53201 180.80731] CT
N
f-1057828618
f
GR
GS
[0.75 0 0 0.75 407.25 166.06455] CT
N
f-1057828618
f
GR
GS
[0.75 0 0 0.75 0 0] CT
1 GC
N
530 101 M
530 50 L
403 50 L
403 101 L
cp
f
GR
GS
[0.75 0 0 0.75 337.5 47.72525] CT
/Helvetica 18 F
GS
[1 0 0 1 0 0] CT
0 7.5 moveto 
1 -1 scale
(train data) t 
GR
GR
GS
[0.75 0 0 0.75 320.25 47.72525] CT
1 0.502 0.502 RC
10.0 ML
1.333 LW
N
0 -4 M
0 4 L
-4 0 M
4 0 L
-2.828 -2.828 M
2.828 2.828 L
-2.828 2.828 M
2.828 -2.828 L
S
GR
GS
[0.75 0 0 0.75 337.5 65.52475] CT
/Helvetica 18 F
GS
[1 0 0 1 0 0] CT
0 7.5 moveto 
1 -1 scale
(test data) t 
GR
GR
GS
[0.75 0 0 0.75 320.25 65.52475] CT
N
f-1057828618
f
GR
GS
[0.75 0 0 0.75 0 0] CT
0.149 GC
10.0 ML
0.667 LW
N
403 101 M
403 50 L
530 50 L
530 101 L
cp
S
GR
%%Trailer
%%Pages: 1
%%EOF
